expe,clients,clients_size,clients_subset,agg_size,method,days,days_size,days_total,time,valid,valid_sum,success,nsols,wall_hit,wall_time,pooled,valid_sums
./expes/v2_2020-11-23_di_200-prng-1,daily_issda_250,250,rng-250,221,rng,num-start-161,161,536,4.59785795211792,True,,True,1,False,1000,True,1.0
./expes/v2_2020-11-23_di_200-prng-1,daily_issda_250,250,rng-250,21,rng,num-start-161,161,536,4.796799421310425,True,,True,1,False,1000,True,1.0
./expes/v2_2020-11-23_di_200-prng-1,daily_issda_250,250,rng-250,51,rng,num-start-1,1,536,2.0439624786376953,False,,False,2,False,1000,True,1.0
./expes/v2_2020-11-23_di_200-prng-1,daily_issda_250,250,rng-250,231,rng,num-start-61,61,536,2.000129222869873,True,,True,1,False,1000,True,1.0
./expes/v2_2020-11-23_di_200-prng-1,daily_issda_250,250,rng-250,181,rng,num-start-41,41,536,1001.0643110275269,False,,False,0,True,1000,True,0.0
./expes/v2_2020-11-23_di_200-prng-1,daily_issda_250,250,rng-250,211,rng,num-start-151,151,536,4.653497695922852,True,,True,1,False,1000,True,1.0
./expes/v2_2020-11-23_di_200-prng-1,daily_issda_250,250,rng-250,141,rng,num-start-31,31,536,1000.7649004459381,False,,False,0,True,1000,True,0.0
./expes/v2_2020-11-23_di_200-prng-1,daily_issda_250,250,rng-250,1,rng,num-start-61,61,536,1.4483952522277832,True,,True,1,False,1000,True,1.0
./expes/v2_2020-11-23_di_200-prng-1,daily_issda_250,250,rng-250,161,rng,num-start-151,151,536,4.762682914733887,True,,True,1,False,1000,True,1.0
./expes/v2_2020-11-23_di_200-prng-1,daily_issda_250,250,rng-250,131,rng,num-start-231,231,536,7.645627737045288,True,,True,1,False,1000,True,1.0
./expes/v2_2020-11-23_di_200-prng-1,daily_issda_250,250,rng-250,21,rng,num-start-41,41,536,4.367988348007202,True,,True,1,False,1000,True,1.0
./expes/v2_2020-11-23_di_200-prng-1,daily_issda_250,250,rng-250,11,rng,num-start-41,41,536,1.2991588115692139,True,,True,1,False,1000,True,1.0
./expes/v2_2020-11-23_di_200-prng-1,daily_issda_250,250,rng-250,111,rng,num-start-181,181,536,6.004474639892578,True,,True,1,False,1000,True,1.0
./expes/v2_2020-11-23_di_200-prng-1,daily_issda_250,250,rng-250,81,rng,num-start-11,11,536,1000.3385653495789,False,,False,0,True,1000,True,0.0
./expes/v2_2020-11-23_di_200-prng-1,daily_issda_250,250,rng-250,101,rng,num-start-91,91,536,16.397451400756836,True,,True,1,False,1000,True,1.0
./expes/v2_2020-11-23_di_200-prng-1,daily_issda_250,250,rng-250,61,rng,num-start-1,1,536,0.8948643207550049,False,,False,2,False,1000,True,1.0
./expes/v2_2020-11-23_di_200-prng-1,daily_issda_250,250,rng-250,171,rng,num-start-21,21,536,1000.5795199871063,False,,False,0,True,1000,True,0.0
./expes/v2_2020-11-23_di_200-prng-1,daily_issda_250,250,rng-250,61,rng,num-start-141,141,536,4.334042310714722,True,,True,1,False,1000,True,1.0
./expes/v2_2020-11-23_di_200-prng-1,daily_issda_250,250,rng-250,151,rng,num-start-291,291,536,9.800282955169678,True,,True,1,False,1000,True,1.0
./expes/v2_2020-11-23_di_200-prng-1,daily_issda_250,250,rng-250,141,rng,num-start-101,101,536,6.549736976623535,True,,True,1,False,1000,True,1.0
./expes/v2_2020-11-23_di_200-prng-1,daily_issda_250,250,rng-250,181,rng,num-start-271,271,536,7.277292251586914,True,,True,1,False,1000,True,1.0
./expes/v2_2020-11-23_di_200-prng-1,daily_issda_250,250,rng-250,71,rng,num-start-261,261,536,7.638255596160889,True,,True,1,False,1000,True,1.0
./expes/v2_2020-11-23_di_200-prng-1,daily_issda_250,250,rng-250,171,rng,num-start-41,41,536,1001.0744786262512,False,,False,0,True,1000,True,0.0
./expes/v2_2020-11-23_di_200-prng-1,daily_issda_250,250,rng-250,51,rng,num-start-211,211,536,6.81670618057251,True,,True,1,False,1000,True,1.0
./expes/v2_2020-11-23_di_200-prng-1,daily_issda_250,250,rng-250,101,rng,num-start-21,21,536,1000.5435938835144,False,,False,0,True,1000,True,0.0
./expes/v2_2020-11-23_di_200-prng-1,daily_issda_250,250,rng-250,101,rng,num-start-51,51,536,1001.2876143455505,False,,False,0,True,1000,True,0.0
./expes/v2_2020-11-23_di_200-prng-1,daily_issda_250,250,rng-250,121,rng,num-start-151,151,536,4.791043758392334,True,,True,1,False,1000,True,1.0
./expes/v2_2020-11-23_di_200-prng-1,daily_issda_250,250,rng-250,31,rng,num-start-171,171,536,5.671787977218628,True,,True,1,False,1000,True,1.0
./expes/v2_2020-11-23_di_200-prng-1,daily_issda_250,250,rng-250,61,rng,num-start-191,191,536,6.060572147369385,True,,True,1,False,1000,True,1.0
./expes/v2_2020-11-23_di_200-prng-1,daily_issda_250,250,rng-250,191,rng,num-start-91,91,536,5.00834584236145,True,,True,1,False,1000,True,1.0
./expes/v2_2020-11-23_di_200-prng-1,daily_issda_250,250,rng-250,181,rng,num-start-131,131,536,4.054541349411011,True,,True,1,False,1000,True,1.0
./expes/v2_2020-11-23_di_200-prng-1,daily_issda_250,250,rng-250,241,rng,num-start-51,51,536,1.5749945640563965,True,,True,1,False,1000,True,1.0
./expes/v2_2020-11-23_di_200-prng-1,daily_issda_250,250,rng-250,131,rng,num-start-101,101,536,7.361968994140625,True,,True,1,False,1000,True,1.0
./expes/v2_2020-11-23_di_200-prng-1,daily_issda_250,250,rng-250,81,rng,num-start-141,141,536,4.7001793384552,True,,True,1,False,1000,True,1.0
./expes/v2_2020-11-23_di_200-prng-1,daily_issda_250,250,rng-250,191,rng,num-start-71,71,536,1001.7528111934662,False,,False,0,True,1000,True,0.0
./expes/v2_2020-11-23_di_200-prng-1,daily_issda_250,250,rng-250,61,rng,num-start-211,211,536,7.056232929229736,True,,True,1,False,1000,True,1.0
./expes/v2_2020-11-23_di_200-prng-1,daily_issda_250,250,rng-250,31,rng,num-start-241,241,536,6.514666795730591,True,,True,1,False,1000,True,1.0
./expes/v2_2020-11-23_di_200-prng-1,daily_issda_250,250,rng-250,91,rng,num-start-141,141,536,4.362735033035278,True,,True,1,False,1000,True,1.0
./expes/v2_2020-11-23_di_200-prng-1,daily_issda_250,250,rng-250,151,rng,num-start-11,11,536,1000.2981147766113,False,,False,0,True,1000,True,0.0
./expes/v2_2020-11-23_di_200-prng-1,daily_issda_250,250,rng-250,21,rng,num-start-191,191,536,5.531157732009888,True,,True,1,False,1000,True,1.0
./expes/v2_2020-11-23_di_200-prng-1,daily_issda_250,250,rng-250,161,rng,num-start-101,101,536,7.80983829498291,True,,True,1,False,1000,True,1.0
./expes/v2_2020-11-23_di_200-prng-1,daily_issda_250,250,rng-250,71,rng,num-start-221,221,536,6.7102320194244385,True,,True,1,False,1000,True,1.0
./expes/v2_2020-11-23_di_200-prng-1,daily_issda_250,250,rng-250,111,rng,num-start-11,11,536,1000.3006618022919,False,,False,0,True,1000,True,0.0
./expes/v2_2020-11-23_di_200-prng-1,daily_issda_250,250,rng-250,131,rng,num-start-121,121,536,4.803926229476929,True,,True,1,False,1000,True,1.0
./expes/v2_2020-11-23_di_200-prng-1,daily_issda_250,250,rng-250,231,rng,num-start-21,21,536,1002.7101948261261,False,,False,0,True,1000,True,0.0
./expes/v2_2020-11-23_di_200-prng-1,daily_issda_250,250,rng-250,231,rng,num-start-131,131,536,3.9593400955200195,True,,True,1,False,1000,True,1.0
./expes/v2_2020-11-23_di_200-prng-1,daily_issda_250,250,rng-250,11,rng,num-start-141,141,536,4.1554670333862305,True,,True,1,False,1000,True,1.0
./expes/v2_2020-11-23_di_200-prng-1,daily_issda_250,250,rng-250,111,rng,num-start-211,211,536,6.841274261474609,True,,True,1,False,1000,True,1.0
./expes/v2_2020-11-23_di_200-prng-1,daily_issda_250,250,rng-250,121,rng,num-start-271,271,536,7.707046747207642,True,,True,1,False,1000,True,1.0
./expes/v2_2020-11-23_di_200-prng-1,daily_issda_250,250,rng-250,101,rng,num-start-111,111,536,9.256591081619263,True,,True,1,False,1000,True,1.0
./expes/v2_2020-11-23_di_200-prng-1,daily_issda_250,250,rng-250,11,rng,num-start-231,231,536,6.909507751464844,True,,True,1,False,1000,True,1.0
./expes/v2_2020-11-23_di_200-prng-1,daily_issda_250,250,rng-250,51,rng,num-start-11,11,536,1000.3844668865204,False,,False,0,True,1000,True,0.0
./expes/v2_2020-11-23_di_200-prng-1,daily_issda_250,250,rng-250,41,rng,num-start-281,281,536,7.936754465103149,True,,True,1,False,1000,True,1.0
./expes/v2_2020-11-23_di_200-prng-1,daily_issda_250,250,rng-250,101,rng,num-start-191,191,536,6.163285255432129,True,,True,1,False,1000,True,1.0
./expes/v2_2020-11-23_di_200-prng-1,daily_issda_250,250,rng-250,171,rng,num-start-121,121,536,5.194096803665161,True,,True,1,False,1000,True,1.0
./expes/v2_2020-11-23_di_200-prng-1,daily_issda_250,250,rng-250,51,rng,num-start-141,141,536,4.6857147216796875,True,,True,1,False,1000,True,1.0
./expes/v2_2020-11-23_di_200-prng-1,daily_issda_250,250,rng-250,201,rng,num-start-41,41,536,1001.0432319641113,False,,False,0,True,1000,True,0.0
./expes/v2_2020-11-23_di_200-prng-1,daily_issda_250,250,rng-250,171,rng,num-start-251,251,536,7.20482325553894,True,,True,1,False,1000,True,1.0
./expes/v2_2020-11-23_di_200-prng-1,daily_issda_250,250,rng-250,231,rng,num-start-41,41,536,11.231182098388672,True,,True,1,False,1000,True,1.0
./expes/v2_2020-11-23_di_200-prng-1,daily_issda_250,250,rng-250,51,rng,num-start-61,61,536,348.0029900074005,True,,True,1,False,1000,True,1.0
./expes/v2_2020-11-23_di_200-prng-1,daily_issda_250,250,rng-250,151,rng,num-start-271,271,536,7.401777744293213,True,,True,1,False,1000,True,1.0
./expes/v2_2020-11-23_di_200-prng-1,daily_issda_250,250,rng-250,71,rng,num-start-221,221,536,8.112321615219116,True,,True,1,False,1000,True,1.0
./expes/v2_2020-11-23_di_200-prng-1,daily_issda_250,250,rng-250,51,rng,num-start-31,31,536,1000.7755348682404,False,,False,0,True,1000,True,0.0
./expes/v2_2020-11-23_di_200-prng-1,daily_issda_250,250,rng-250,111,rng,num-start-151,151,536,5.56729793548584,True,,True,1,False,1000,True,1.0
./expes/v2_2020-11-23_di_200-prng-1,daily_issda_250,250,rng-250,71,rng,num-start-251,251,536,7.263363838195801,True,,True,1,False,1000,True,1.0
./expes/v2_2020-11-23_di_200-prng-1,daily_issda_250,250,rng-250,101,rng,num-start-41,41,536,1001.1529805660248,False,,False,0,True,1000,True,0.0
./expes/v2_2020-11-23_di_200-prng-1,daily_issda_250,250,rng-250,181,rng,num-start-31,31,536,1000.8472917079926,False,,False,0,True,1000,True,0.0
./expes/v2_2020-11-23_di_200-prng-1,daily_issda_250,250,rng-250,111,rng,num-start-141,141,536,5.929758310317993,True,,True,1,False,1000,True,1.0
./expes/v2_2020-11-23_di_200-prng-1,daily_issda_250,250,rng-250,91,rng,num-start-141,141,536,4.541226625442505,True,,True,1,False,1000,True,1.0
./expes/v2_2020-11-23_di_200-prng-1,daily_issda_250,250,rng-250,41,rng,num-start-191,191,536,5.939117431640625,True,,True,1,False,1000,True,1.0
./expes/v2_2020-11-23_di_200-prng-1,daily_issda_250,250,rng-250,211,rng,num-start-141,141,536,5.1066906452178955,True,,True,1,False,1000,True,1.0
./expes/v2_2020-11-23_di_200-prng-1,daily_issda_250,250,rng-250,231,rng,num-start-261,261,536,7.057738542556763,True,,True,1,False,1000,True,1.0
./expes/v2_2020-11-23_di_200-prng-1,daily_issda_250,250,rng-250,171,rng,num-start-231,231,536,8.120014667510986,True,,True,1,False,1000,True,1.0
./expes/v2_2020-11-23_di_200-prng-1,daily_issda_250,250,rng-250,111,rng,num-start-21,21,536,1000.5599613189697,False,,False,0,True,1000,True,0.0
./expes/v2_2020-11-23_di_200-prng-1,daily_issda_250,250,rng-250,71,rng,num-start-221,221,536,6.4245123863220215,True,,True,1,False,1000,True,1.0
./expes/v2_2020-11-23_di_200-prng-1,daily_issda_250,250,rng-250,191,rng,num-start-101,101,536,3.281534194946289,True,,True,1,False,1000,True,1.0
./expes/v2_2020-11-23_di_200-prng-1,daily_issda_250,250,rng-250,211,rng,num-start-281,281,536,7.887330532073975,True,,True,1,False,1000,True,1.0
./expes/v2_2020-11-23_di_200-prng-1,daily_issda_250,250,rng-250,171,rng,num-start-181,181,536,5.266261339187622,True,,True,1,False,1000,True,1.0
./expes/v2_2020-11-23_di_200-prng-1,daily_issda_250,250,rng-250,151,rng,num-start-251,251,536,7.162925481796265,True,,True,1,False,1000,True,1.0
./expes/v2_2020-11-23_di_200-prng-1,daily_issda_250,250,rng-250,221,rng,num-start-31,31,536,1001.0204772949219,False,,False,0,True,1000,True,0.0
./expes/v2_2020-11-23_di_200-prng-1,daily_issda_250,250,rng-250,171,rng,num-start-31,31,536,1000.9197974205017,False,,False,0,True,1000,True,0.0
./expes/v2_2020-11-23_di_200-prng-1,daily_issda_250,250,rng-250,231,rng,num-start-1,1,536,2.8032302856445312,False,,False,2,False,1000,True,1.0
./expes/v2_2020-11-23_di_200-prng-1,daily_issda_250,250,rng-250,201,rng,num-start-251,251,536,6.913655757904053,True,,True,1,False,1000,True,1.0
./expes/v2_2020-11-23_di_200-prng-1,daily_issda_250,250,rng-250,141,rng,num-start-121,121,536,4.679380893707275,True,,True,1,False,1000,True,1.0
./expes/v2_2020-11-23_di_200-prng-1,daily_issda_250,250,rng-250,11,rng,num-start-261,261,536,7.875309944152832,True,,True,1,False,1000,True,1.0
./expes/v2_2020-11-23_di_200-prng-1,daily_issda_250,250,rng-250,91,rng,num-start-111,111,536,7.531243801116943,True,,True,1,False,1000,True,1.0
./expes/v2_2020-11-23_di_200-prng-1,daily_issda_250,250,rng-250,161,rng,num-start-251,251,536,7.3562493324279785,True,,True,1,False,1000,True,1.0
./expes/v2_2020-11-23_di_200-prng-1,daily_issda_250,250,rng-250,121,rng,num-start-1,1,536,1.9434330463409424,False,,False,2,False,1000,True,0.0
./expes/v2_2020-11-23_di_200-prng-1,daily_issda_250,250,rng-250,121,rng,num-start-11,11,536,1000.3007185459137,False,,False,0,True,1000,True,0.0
./expes/v2_2020-11-23_di_200-prng-1,daily_issda_250,250,rng-250,171,rng,num-start-1,1,536,1.6332571506500244,False,,False,2,False,1000,True,1.0
./expes/v2_2020-11-23_di_200-prng-1,daily_issda_250,250,rng-250,111,rng,num-start-91,91,536,7.764146327972412,True,,True,1,False,1000,True,1.0
./expes/v2_2020-11-23_di_200-prng-1,daily_issda_250,250,rng-250,31,rng,num-start-191,191,536,5.4669365882873535,True,,True,1,False,1000,True,1.0
./expes/v2_2020-11-23_di_200-prng-1,daily_issda_250,250,rng-250,141,rng,num-start-151,151,536,4.555644750595093,True,,True,1,False,1000,True,1.0
./expes/v2_2020-11-23_di_200-prng-1,daily_issda_250,250,rng-250,21,rng,num-start-261,261,536,7.604554891586304,True,,True,1,False,1000,True,1.0
./expes/v2_2020-11-23_di_200-prng-1,daily_issda_250,250,rng-250,211,rng,num-start-101,101,536,3.4234750270843506,True,,True,1,False,1000,True,1.0
./expes/v2_2020-11-23_di_200-prng-1,daily_issda_250,250,rng-250,71,rng,num-start-21,21,536,1000.574501991272,False,,False,0,True,1000,True,0.0
./expes/v2_2020-11-23_di_200-prng-1,daily_issda_250,250,rng-250,181,rng,num-start-71,71,536,1001.73588347435,False,,False,1,True,1000,True,0.0
./expes/v2_2020-11-23_di_200-prng-1,daily_issda_250,250,rng-250,101,rng,num-start-211,211,536,6.8823230266571045,True,,True,1,False,1000,True,1.0
./expes/v2_2020-11-23_di_200-prng-1,daily_issda_250,250,rng-250,161,rng,num-start-31,31,536,1000.8389565944672,False,,False,0,True,1000,True,0.0
./expes/v2_2020-11-23_di_200-prng-1,daily_issda_250,250,rng-250,181,rng,num-start-221,221,536,6.800824880599976,True,,True,1,False,1000,True,1.0
./expes/v2_2020-11-23_di_200-prng-1,daily_issda_250,250,rng-250,71,rng,num-start-211,211,536,5.796475410461426,True,,True,1,False,1000,True,1.0
./expes/v2_2020-11-23_di_200-prng-1,daily_issda_250,250,rng-250,171,rng,num-start-171,171,536,5.167434453964233,True,,True,1,False,1000,True,1.0
./expes/v2_2020-11-23_di_200-prng-1,daily_issda_250,250,rng-250,131,rng,num-start-201,201,536,6.245678901672363,True,,True,1,False,1000,True,1.0
./expes/v2_2020-11-23_di_200-prng-1,daily_issda_250,250,rng-250,221,rng,num-start-31,31,536,1000.9143974781036,False,,False,0,True,1000,True,0.0
./expes/v2_2020-11-23_di_200-prng-1,daily_issda_250,250,rng-250,81,rng,num-start-81,81,536,19.214080810546875,True,,True,1,False,1000,True,1.0
./expes/v2_2020-11-23_di_200-prng-1,daily_issda_250,250,rng-250,141,rng,num-start-191,191,536,6.332824468612671,True,,True,1,False,1000,True,1.0
./expes/v2_2020-11-23_di_200-prng-1,daily_issda_250,250,rng-250,11,rng,num-start-131,131,536,3.9002749919891357,True,,True,1,False,1000,True,1.0
./expes/v2_2020-11-23_di_200-prng-1,daily_issda_250,250,rng-250,1,rng,num-start-51,51,536,1.205367088317871,True,,True,1,False,1000,True,1.0
./expes/v2_2020-11-23_di_200-prng-1,daily_issda_250,250,rng-250,151,rng,num-start-191,191,536,6.724321365356445,True,,True,1,False,1000,True,1.0
./expes/v2_2020-11-23_di_200-prng-1,daily_issda_250,250,rng-250,121,rng,num-start-241,241,536,6.9807305335998535,True,,True,1,False,1000,True,1.0
./expes/v2_2020-11-23_di_200-prng-1,daily_issda_250,250,rng-250,11,rng,num-start-121,121,536,3.7097933292388916,True,,True,1,False,1000,True,1.0
./expes/v2_2020-11-23_di_200-prng-1,daily_issda_250,250,rng-250,131,rng,num-start-201,201,536,5.849126815795898,True,,True,1,False,1000,True,1.0
./expes/v2_2020-11-23_di_200-prng-1,daily_issda_250,250,rng-250,1,rng,num-start-21,21,536,0.49208927154541016,True,,True,1,False,1000,True,1.0
./expes/v2_2020-11-23_di_200-prng-1,daily_issda_250,250,rng-250,121,rng,num-start-191,191,536,6.8905816078186035,True,,True,1,False,1000,True,1.0
./expes/v2_2020-11-23_di_200-prng-1,daily_issda_250,250,rng-250,161,rng,num-start-141,141,536,4.585899353027344,True,,True,1,False,1000,True,1.0
./expes/v2_2020-11-23_di_200-prng-1,daily_issda_250,250,rng-250,21,rng,num-start-1,1,536,2.9732701778411865,False,,False,2,False,1000,True,1.0
./expes/v2_2020-11-23_di_200-prng-1,daily_issda_250,250,rng-250,131,rng,num-start-221,221,536,8.254195928573608,True,,True,1,False,1000,True,1.0
./expes/v2_2020-11-23_di_200-prng-1,daily_issda_250,250,rng-250,181,rng,num-start-261,261,536,6.8918776512146,True,,True,1,False,1000,True,1.0
./expes/v2_2020-11-23_di_200-prng-1,daily_issda_250,250,rng-250,111,rng,num-start-191,191,536,5.506385564804077,True,,True,1,False,1000,True,1.0
./expes/v2_2020-11-23_di_200-prng-1,daily_issda_250,250,rng-250,161,rng,num-start-171,171,536,5.0314342975616455,True,,True,1,False,1000,True,1.0
./expes/v2_2020-11-23_di_200-prng-1,daily_issda_250,250,rng-250,131,rng,num-start-231,231,536,6.365061044692993,True,,True,1,False,1000,True,1.0
./expes/v2_2020-11-23_di_200-prng-1,daily_issda_250,250,rng-250,1,rng,num-start-61,61,536,1.5283617973327637,True,,True,1,False,1000,True,1.0
./expes/v2_2020-11-23_di_200-prng-1,daily_issda_250,250,rng-250,11,rng,num-start-251,251,536,6.444512367248535,True,,True,1,False,1000,True,1.0
./expes/v2_2020-11-23_di_200-prng-1,daily_issda_250,250,rng-250,231,rng,num-start-261,261,536,6.72587513923645,True,,True,1,False,1000,True,1.0
./expes/v2_2020-11-23_di_200-prng-1,daily_issda_250,250,rng-250,201,rng,num-start-1,1,536,1.5238454341888428,False,,False,2,False,1000,True,1.0
./expes/v2_2020-11-23_di_200-prng-1,daily_issda_250,250,rng-250,61,rng,num-start-101,101,536,4.577328681945801,True,,True,1,False,1000,True,1.0
./expes/v2_2020-11-23_di_200-prng-1,daily_issda_250,250,rng-250,41,rng,num-start-81,81,536,4.453557014465332,True,,True,1,False,1000,True,1.0
./expes/v2_2020-11-23_di_200-prng-1,daily_issda_250,250,rng-250,211,rng,num-start-131,131,536,3.880237102508545,True,,True,1,False,1000,True,1.0
./expes/v2_2020-11-23_di_200-prng-1,daily_issda_250,250,rng-250,151,rng,num-start-21,21,536,1000.6028802394867,False,,False,0,True,1000,True,0.0
./expes/v2_2020-11-23_di_200-prng-1,daily_issda_250,250,rng-250,61,rng,num-start-191,191,536,5.577305316925049,True,,True,1,False,1000,True,1.0
./expes/v2_2020-11-23_di_200-prng-1,daily_issda_250,250,rng-250,141,rng,num-start-241,241,536,6.657498121261597,True,,True,1,False,1000,True,1.0
./expes/v2_2020-11-23_di_200-prng-1,daily_issda_250,250,rng-250,191,rng,num-start-61,61,536,1001.4872488975525,False,,False,1,True,1000,True,0.0
./expes/v2_2020-11-23_di_200-prng-1,daily_issda_250,250,rng-250,211,rng,num-start-61,61,536,4.863390684127808,True,,True,1,False,1000,True,1.0
./expes/v2_2020-11-23_di_200-prng-1,daily_issda_250,250,rng-250,121,rng,num-start-231,231,536,7.205011606216431,True,,True,1,False,1000,True,1.0
./expes/v2_2020-11-23_di_200-prng-1,daily_issda_250,250,rng-250,161,rng,num-start-261,261,536,7.842087984085083,True,,True,1,False,1000,True,1.0
./expes/v2_2020-11-23_di_200-prng-1,daily_issda_250,250,rng-250,231,rng,num-start-231,231,536,5.9251933097839355,True,,True,1,False,1000,True,1.0
./expes/v2_2020-11-23_di_200-prng-1,daily_issda_250,250,rng-250,121,rng,num-start-281,281,536,8.026384115219116,True,,True,1,False,1000,True,1.0
./expes/v2_2020-11-23_di_200-prng-1,daily_issda_250,250,rng-250,71,rng,num-start-251,251,536,7.395542144775391,True,,True,1,False,1000,True,1.0
./expes/v2_2020-11-23_di_200-prng-1,daily_issda_250,250,rng-250,111,rng,num-start-111,111,536,6.417648792266846,True,,True,1,False,1000,True,1.0
./expes/v2_2020-11-23_di_200-prng-1,daily_issda_250,250,rng-250,121,rng,num-start-31,31,536,1000.7702629566193,False,,False,0,True,1000,True,0.0
./expes/v2_2020-11-23_di_200-prng-1,daily_issda_250,250,rng-250,231,rng,num-start-291,291,536,8.080867290496826,True,,True,1,False,1000,True,1.0
./expes/v2_2020-11-23_di_200-prng-1,daily_issda_250,250,rng-250,31,rng,num-start-51,51,536,3.228083372116089,True,,True,1,False,1000,True,1.0
./expes/v2_2020-11-23_di_200-prng-1,daily_issda_250,250,rng-250,31,rng,num-start-41,41,536,354.9695255756378,True,,True,1,False,1000,True,1.0
./expes/v2_2020-11-23_di_200-prng-1,daily_issda_250,250,rng-250,91,rng,num-start-221,221,536,7.77078914642334,True,,True,1,False,1000,True,1.0
./expes/v2_2020-11-23_di_200-prng-1,daily_issda_250,250,rng-250,51,rng,num-start-151,151,536,4.51167893409729,True,,True,1,False,1000,True,1.0
./expes/v2_2020-11-23_di_200-prng-1,daily_issda_250,250,rng-250,61,rng,num-start-21,21,536,1000.6383862495422,False,,False,0,True,1000,True,0.0
./expes/v2_2020-11-23_di_200-prng-1,daily_issda_250,250,rng-250,21,rng,num-start-61,61,536,1.801738977432251,True,,True,1,False,1000,True,1.0
./expes/v2_2020-11-23_di_200-prng-1,daily_issda_250,250,rng-250,11,rng,num-start-261,261,536,7.284229755401611,True,,True,1,False,1000,True,1.0
./expes/v2_2020-11-23_di_200-prng-1,daily_issda_250,250,rng-250,91,rng,num-start-31,31,536,1000.8529896736145,False,,False,0,True,1000,True,0.0
./expes/v2_2020-11-23_di_200-prng-1,daily_issda_250,250,rng-250,51,rng,num-start-141,141,536,4.877349853515625,True,,True,1,False,1000,True,1.0
./expes/v2_2020-11-23_di_200-prng-1,daily_issda_250,250,rng-250,91,rng,num-start-21,21,536,1000.6656656265259,False,,False,0,True,1000,True,0.0
./expes/v2_2020-11-23_di_200-prng-1,daily_issda_250,250,rng-250,41,rng,num-start-201,201,536,5.72637414932251,True,,True,1,False,1000,True,1.0
./expes/v2_2020-11-23_di_200-prng-1,daily_issda_250,250,rng-250,51,rng,num-start-171,171,536,4.916333436965942,True,,True,1,False,1000,True,1.0
./expes/v2_2020-11-23_di_200-prng-1,daily_issda_250,250,rng-250,131,rng,num-start-281,281,536,8.211230993270874,True,,True,1,False,1000,True,1.0
./expes/v2_2020-11-23_di_200-prng-1,daily_issda_250,250,rng-250,81,rng,num-start-241,241,536,6.951065540313721,True,,True,1,False,1000,True,1.0
./expes/v2_2020-11-23_di_200-prng-1,daily_issda_250,250,rng-250,141,rng,num-start-41,41,536,1000.9917960166931,False,,False,0,True,1000,True,0.0
./expes/v2_2020-11-23_di_200-prng-1,daily_issda_250,250,rng-250,231,rng,num-start-131,131,536,3.7285854816436768,True,,True,1,False,1000,True,1.0
./expes/v2_2020-11-23_di_200-prng-1,daily_issda_250,250,rng-250,91,rng,num-start-261,261,536,7.2603559494018555,True,,True,1,False,1000,True,1.0
./expes/v2_2020-11-23_di_200-prng-1,daily_issda_250,250,rng-250,51,rng,num-start-131,131,536,4.059854745864868,True,,True,1,False,1000,True,1.0
./expes/v2_2020-11-23_di_200-prng-1,daily_issda_250,250,rng-250,91,rng,num-start-21,21,536,1000.5916450023651,False,,False,0,True,1000,True,0.0
./expes/v2_2020-11-23_di_200-prng-1,daily_issda_250,250,rng-250,141,rng,num-start-61,61,536,1001.4860537052155,False,,False,0,True,1000,True,0.0
./expes/v2_2020-11-23_di_200-prng-1,daily_issda_250,250,rng-250,81,rng,num-start-171,171,536,5.340672731399536,True,,True,1,False,1000,True,1.0
./expes/v2_2020-11-23_di_200-prng-1,daily_issda_250,250,rng-250,131,rng,num-start-111,111,536,3.60919189453125,True,,True,1,False,1000,True,1.0
./expes/v2_2020-11-23_di_200-prng-1,daily_issda_250,250,rng-250,141,rng,num-start-201,201,536,7.0429301261901855,True,,True,1,False,1000,True,1.0
./expes/v2_2020-11-23_di_200-prng-1,daily_issda_250,250,rng-250,151,rng,num-start-281,281,536,8.712929964065552,True,,True,1,False,1000,True,1.0
./expes/v2_2020-11-23_di_200-prng-1,daily_issda_250,250,rng-250,71,rng,num-start-91,91,536,2.8158199787139893,True,,True,1,False,1000,True,1.0
./expes/v2_2020-11-23_di_200-prng-1,daily_issda_250,250,rng-250,241,rng,num-start-91,91,536,2.8261542320251465,True,,True,1,False,1000,True,1.0
./expes/v2_2020-11-23_di_200-prng-1,daily_issda_250,250,rng-250,221,rng,num-start-291,291,536,7.3659467697143555,True,,True,1,False,1000,True,1.0
./expes/v2_2020-11-23_di_200-prng-1,daily_issda_250,250,rng-250,141,rng,num-start-21,21,536,1000.531023979187,False,,False,0,True,1000,True,0.0
./expes/v2_2020-11-23_di_200-prng-1,daily_issda_250,250,rng-250,61,rng,num-start-261,261,536,7.665574789047241,True,,True,1,False,1000,True,1.0
./expes/v2_2020-11-23_di_200-prng-1,daily_issda_250,250,rng-250,11,rng,num-start-201,201,536,5.804591655731201,True,,True,1,False,1000,True,1.0
./expes/v2_2020-11-23_di_200-prng-1,daily_issda_250,250,rng-250,41,rng,num-start-71,71,536,3.858618974685669,True,,True,1,False,1000,True,1.0
./expes/v2_2020-11-23_di_200-prng-1,daily_issda_250,250,rng-250,141,rng,num-start-151,151,536,4.510545253753662,True,,True,1,False,1000,True,1.0
./expes/v2_2020-11-23_di_200-prng-1,daily_issda_250,250,rng-250,181,rng,num-start-211,211,536,7.422607183456421,True,,True,1,False,1000,True,1.0
./expes/v2_2020-11-23_di_200-prng-1,daily_issda_250,250,rng-250,91,rng,num-start-81,81,536,1001.9678392410278,False,,False,0,True,1000,True,0.0
./expes/v2_2020-11-23_di_200-prng-1,daily_issda_250,250,rng-250,241,rng,num-start-1,1,536,1.1782917976379395,False,,False,2,False,1000,True,1.0
./expes/v2_2020-11-23_di_200-prng-1,daily_issda_250,250,rng-250,111,rng,num-start-191,191,536,5.754995822906494,True,,True,1,False,1000,True,1.0
./expes/v2_2020-11-23_di_200-prng-1,daily_issda_250,250,rng-250,221,rng,num-start-71,71,536,3.1070852279663086,True,,True,1,False,1000,True,1.0
./expes/v2_2020-11-23_di_200-prng-1,daily_issda_250,250,rng-250,221,rng,num-start-121,121,536,3.8965442180633545,True,,True,1,False,1000,True,1.0
./expes/v2_2020-11-23_di_200-prng-1,daily_issda_250,250,rng-250,71,rng,num-start-1,1,536,2.2182319164276123,False,,False,2,False,1000,True,0.0
./expes/v2_2020-11-23_di_200-prng-1,daily_issda_250,250,rng-250,11,rng,num-start-211,211,536,6.040343284606934,True,,True,1,False,1000,True,1.0
./expes/v2_2020-11-23_di_200-prng-1,daily_issda_250,250,rng-250,121,rng,num-start-141,141,536,4.913010835647583,True,,True,1,False,1000,True,1.0
./expes/v2_2020-11-23_di_200-prng-1,daily_issda_250,250,rng-250,151,rng,num-start-101,101,536,8.044125318527222,True,,True,1,False,1000,True,1.0
./expes/v2_2020-11-23_di_200-prng-1,daily_issda_250,250,rng-250,91,rng,num-start-31,31,536,1000.7957971096039,False,,False,0,True,1000,True,0.0
./expes/v2_2020-11-23_di_200-prng-1,daily_issda_250,250,rng-250,201,rng,num-start-241,241,536,6.821587324142456,True,,True,1,False,1000,True,1.0
./expes/v2_2020-11-23_di_200-prng-1,daily_issda_250,250,rng-250,221,rng,num-start-231,231,536,6.593881368637085,True,,True,1,False,1000,True,1.0
./expes/v2_2020-11-23_di_200-prng-1,daily_issda_250,250,rng-250,21,rng,num-start-121,121,536,3.838794469833374,True,,True,1,False,1000,True,1.0
./expes/v2_2020-11-23_di_200-prng-1,daily_issda_250,250,rng-250,221,rng,num-start-1,1,536,1.0342364311218262,False,,False,2,False,1000,True,1.0
./expes/v2_2020-11-23_di_200-prng-1,daily_issda_250,250,rng-250,101,rng,num-start-1,1,536,2.136798858642578,False,,False,2,False,1000,True,1.0
./expes/v2_2020-11-23_di_200-prng-1,daily_issda_250,250,rng-250,231,rng,num-start-291,291,536,8.014696836471558,True,,True,1,False,1000,True,1.0
./expes/v2_2020-11-23_di_200-prng-1,daily_issda_250,250,rng-250,111,rng,num-start-211,211,536,6.378698110580444,True,,True,1,False,1000,True,1.0
./expes/v2_2020-11-23_di_200-prng-1,daily_issda_250,250,rng-250,101,rng,num-start-151,151,536,4.592916250228882,True,,True,1,False,1000,True,1.0
./expes/v2_2020-11-23_di_200-prng-1,daily_issda_250,250,rng-250,21,rng,num-start-11,11,536,1000.6089403629303,False,,False,0,True,1000,True,0.0
./expes/v2_2020-11-23_di_200-prng-1,daily_issda_250,250,rng-250,131,rng,num-start-71,71,536,1001.7428967952728,False,,False,0,True,1000,True,0.0
./expes/v2_2020-11-23_di_200-prng-1,daily_issda_250,250,rng-250,31,rng,num-start-151,151,536,4.838651180267334,True,,True,1,False,1000,True,1.0
./expes/v2_2020-11-23_di_200-prng-1,daily_issda_250,250,rng-250,1,rng,num-start-111,111,536,2.5894417762756348,True,,True,1,False,1000,True,1.0
./expes/v2_2020-11-23_di_200-prng-1,daily_issda_250,250,rng-250,81,rng,num-start-91,91,536,8.16256833076477,True,,True,1,False,1000,True,1.0
./expes/v2_2020-11-23_di_200-prng-1,daily_issda_250,250,rng-250,241,rng,num-start-61,61,536,1.7867162227630615,True,,True,1,False,1000,True,1.0
./expes/v2_2020-11-23_di_200-prng-1,daily_issda_250,250,rng-250,161,rng,num-start-131,131,536,4.092065095901489,True,,True,1,False,1000,True,1.0
./expes/v2_2020-11-23_di_200-prng-1,daily_issda_250,250,rng-250,61,rng,num-start-241,241,536,8.261690378189087,True,,True,1,False,1000,True,1.0
./expes/v2_2020-11-23_di_200-prng-1,daily_issda_250,250,rng-250,231,rng,num-start-121,121,536,3.670100688934326,True,,True,1,False,1000,True,1.0
./expes/v2_2020-11-23_di_200-prng-1,daily_issda_250,250,rng-250,71,rng,num-start-1,1,536,5.0979835987091064,False,,False,2,False,1000,True,1.0
./expes/v2_2020-11-23_di_200-prng-1,daily_issda_250,250,rng-250,231,rng,num-start-31,31,536,1003.3091189861298,False,,False,1,True,1000,True,0.0
./expes/v2_2020-11-23_di_200-prng-1,daily_issda_250,250,rng-250,161,rng,num-start-191,191,536,6.770207643508911,True,,True,1,False,1000,True,1.0
./expes/v2_2020-11-23_di_200-prng-1,daily_issda_250,250,rng-250,21,rng,num-start-31,31,536,166.71241521835327,True,,True,1,False,1000,True,1.0
./expes/v2_2020-11-23_di_200-prng-1,daily_issda_250,250,rng-250,101,rng,num-start-11,11,536,1000.3237566947937,False,,False,0,True,1000,True,0.0
