expe,clients,clients_size,clients_subset,agg_size,method,days,days_size,days_total,time,valid,valid_sum,success,nsols,wall_hit,wall_time,pooled,valid_sums
./expes/v2_2020-11-04_hbh_300-prng-1,30_base_hphc_300,300,first-300,271,rng,num-start-731,731,17520,19.86647129058838,True,,True,1,False,1000,True,1.0
./expes/v2_2020-11-04_hbh_300-prng-1,30_base_hphc_300,300,first-300,291,rng,num-start-11,11,17520,43.7603394985199,True,,True,1,False,1000,True,1.0
./expes/v2_2020-11-04_hbh_300-prng-1,30_base_hphc_300,300,first-300,91,rng,num-start-611,611,17520,19.191735982894897,True,,True,1,False,1000,True,1.0
./expes/v2_2020-11-04_hbh_300-prng-1,30_base_hphc_300,300,first-300,291,rng,num-start-621,621,17520,14.077857255935669,True,,True,1,False,1000,True,1.0
./expes/v2_2020-11-04_hbh_300-prng-1,30_base_hphc_300,300,first-300,11,rng,num-start-901,901,17520,20.185907125473022,True,,True,1,False,1000,True,1.0
./expes/v2_2020-11-04_hbh_300-prng-1,30_base_hphc_300,300,first-300,131,rng,num-start-61,61,17520,1001.2209320068359,False,,False,0,True,1000,True,0.0
./expes/v2_2020-11-04_hbh_300-prng-1,30_base_hphc_300,300,first-300,211,rng,num-start-111,111,17520,7.3773720264434814,True,,True,1,False,1000,True,1.0
./expes/v2_2020-11-04_hbh_300-prng-1,30_base_hphc_300,300,first-300,191,rng,num-start-221,221,17520,6.622934818267822,True,,True,1,False,1000,True,1.0
./expes/v2_2020-11-04_hbh_300-prng-1,30_base_hphc_300,300,first-300,141,rng,num-start-321,321,17520,9.627889156341553,True,,True,1,False,1000,True,1.0
./expes/v2_2020-11-04_hbh_300-prng-1,30_base_hphc_300,300,first-300,281,rng,num-start-251,251,17520,6.733646392822266,True,,True,1,False,1000,True,1.0
./expes/v2_2020-11-04_hbh_300-prng-1,30_base_hphc_300,300,first-300,201,rng,num-start-941,941,17520,29.106307983398438,True,,True,1,False,1000,True,1.0
./expes/v2_2020-11-04_hbh_300-prng-1,30_base_hphc_300,300,first-300,1,rng,num-start-231,231,17520,4.6257758140563965,True,,True,1,False,1000,True,1.0
./expes/v2_2020-11-04_hbh_300-prng-1,30_base_hphc_300,300,first-300,281,rng,num-start-21,21,17520,1000.9321370124817,False,,False,0,True,1000,True,0.0
./expes/v2_2020-11-04_hbh_300-prng-1,30_base_hphc_300,300,first-300,261,rng,num-start-981,981,17520,29.36833167076111,True,,True,1,False,1000,True,1.0
./expes/v2_2020-11-04_hbh_300-prng-1,30_base_hphc_300,300,first-300,11,rng,num-start-151,151,17520,3.861473798751831,True,,True,1,False,1000,True,1.0
./expes/v2_2020-11-04_hbh_300-prng-1,30_base_hphc_300,300,first-300,161,rng,num-start-171,171,17520,5.237772226333618,True,,True,1,False,1000,True,1.0
./expes/v2_2020-11-04_hbh_300-prng-1,30_base_hphc_300,300,first-300,131,rng,num-start-221,221,17520,7.3153235912323,True,,True,1,False,1000,True,1.0
./expes/v2_2020-11-04_hbh_300-prng-1,30_base_hphc_300,300,first-300,191,rng,num-start-71,71,17520,1001.5182764530182,False,,False,0,True,1000,True,0.0
./expes/v2_2020-11-04_hbh_300-prng-1,30_base_hphc_300,300,first-300,11,rng,num-start-461,461,17520,12.164674758911133,True,,True,1,False,1000,True,1.0
./expes/v2_2020-11-04_hbh_300-prng-1,30_base_hphc_300,300,first-300,91,rng,num-start-741,741,17520,20.416265726089478,True,,True,1,False,1000,True,1.0
./expes/v2_2020-11-04_hbh_300-prng-1,30_base_hphc_300,300,first-300,111,rng,num-start-1,1,17520,0.03777742385864258,False,,False,2,False,1000,True,1.0
./expes/v2_2020-11-04_hbh_300-prng-1,30_base_hphc_300,300,first-300,271,rng,num-start-901,901,17520,21.19396471977234,True,,True,1,False,1000,True,1.0
./expes/v2_2020-11-04_hbh_300-prng-1,30_base_hphc_300,300,first-300,241,rng,num-start-51,51,17520,1001.1238338947296,False,,False,0,True,1000,True,0.0
./expes/v2_2020-11-04_hbh_300-prng-1,30_base_hphc_300,300,first-300,121,rng,num-start-351,351,17520,11.218871355056763,True,,True,1,False,1000,True,1.0
./expes/v2_2020-11-04_hbh_300-prng-1,30_base_hphc_300,300,first-300,231,rng,num-start-281,281,17520,8.396219253540039,True,,True,1,False,1000,True,1.0
./expes/v2_2020-11-04_hbh_300-prng-1,30_base_hphc_300,300,first-300,111,rng,num-start-41,41,17520,1000.9629149436951,False,,False,0,True,1000,True,0.0
./expes/v2_2020-11-04_hbh_300-prng-1,30_base_hphc_300,300,first-300,151,rng,num-start-31,31,17520,1000.7186388969421,False,,False,0,True,1000,True,0.0
