expe,clients,clients_size,clients_subset,agg_size,method,days,days_size,days_total,time,valid,valid_sum,success,nsols,wall_hit,wall_time,pooled,valid_sums
./expes/v2_2020-12-02_dh_100-prng-1,30_issda_100,100,rng-100,11,rng,num-start-5001,5001,25726,53.163914918899536,True,,True,1,False,1000,True,1.0
./expes/v2_2020-12-02_dh_100-prng-1,30_issda_100,100,rng-100,91,rng,num-start-6001,6001,25726,59.57848501205444,True,,True,1,False,1000,True,1.0
./expes/v2_2020-12-02_dh_100-prng-1,30_issda_100,100,rng-100,1,rng,num-start-16001,16001,25726,159.86632585525513,True,,True,1,False,1000,True,1.0
./expes/v2_2020-12-02_dh_100-prng-1,30_issda_100,100,rng-100,31,rng,num-start-16001,16001,25726,185.4776349067688,True,,True,1,False,1000,True,1.0
./expes/v2_2020-12-02_dh_100-prng-1,30_issda_100,100,rng-100,1,rng,num-start-10001,10001,25726,101.94876623153687,True,,True,1,False,1000,True,1.0
./expes/v2_2020-12-02_dh_100-prng-1,30_issda_100,100,rng-100,51,rng,num-start-6001,6001,25726,75.5798704624176,True,,True,1,False,1000,True,1.0
./expes/v2_2020-12-02_dh_100-prng-1,30_issda_100,100,rng-100,21,rng,num-start-14001,14001,25726,159.4052698612213,True,,True,1,False,1000,True,1.0
./expes/v2_2020-12-02_dh_100-prng-1,30_issda_100,100,rng-100,41,rng,num-start-1001,1001,25726,11.066064596176147,True,,True,1,False,1000,True,1.0
./expes/v2_2020-12-02_dh_100-prng-1,30_issda_100,100,rng-100,31,rng,num-start-6001,6001,25726,73.15059328079224,True,,True,1,False,1000,True,1.0
./expes/v2_2020-12-02_dh_100-prng-1,30_issda_100,100,rng-100,91,rng,num-start-12001,12001,25726,124.3121166229248,True,,True,1,False,1000,True,1.0
./expes/v2_2020-12-02_dh_100-prng-1,30_issda_100,100,rng-100,31,rng,num-start-16001,16001,25726,185.6263861656189,True,,True,1,False,1000,True,1.0
./expes/v2_2020-12-02_dh_100-prng-1,30_issda_100,100,rng-100,21,rng,num-start-14001,14001,25726,160.24985265731812,True,,True,1,False,1000,True,1.0
./expes/v2_2020-12-02_dh_100-prng-1,30_issda_100,100,rng-100,91,rng,num-start-16001,16001,25726,160.5891363620758,True,,True,1,False,1000,True,1.0
./expes/v2_2020-12-02_dh_100-prng-1,30_issda_100,100,rng-100,81,rng,num-start-6001,6001,25726,71.59153652191162,True,,True,1,False,1000,True,1.0
./expes/v2_2020-12-02_dh_100-prng-1,30_issda_100,100,rng-100,91,rng,num-start-3001,3001,25726,30.510958671569824,True,,True,1,False,1000,True,1.0
./expes/v2_2020-12-02_dh_100-prng-1,30_issda_100,100,rng-100,21,rng,num-start-8001,8001,25726,92.47504782676697,True,,True,1,False,1000,True,1.0
./expes/v2_2020-12-02_dh_100-prng-1,30_issda_100,100,rng-100,71,rng,num-start-9001,9001,25726,106.38004732131958,True,,True,1,False,1000,True,1.0
./expes/v2_2020-12-02_dh_100-prng-1,30_issda_100,100,rng-100,41,rng,num-start-3001,3001,25726,35.80479574203491,True,,True,1,False,1000,True,1.0
./expes/v2_2020-12-02_dh_100-prng-1,30_issda_100,100,rng-100,91,rng,num-start-8001,8001,25726,80.28797054290771,True,,True,1,False,1000,True,1.0
./expes/v2_2020-12-02_dh_100-prng-1,30_issda_100,100,rng-100,11,rng,num-start-6001,6001,25726,60.06172847747803,True,,True,1,False,1000,True,1.0
./expes/v2_2020-12-02_dh_100-prng-1,30_issda_100,100,rng-100,31,rng,num-start-15001,15001,25726,191.58498311042786,True,,True,1,False,1000,True,1.0
./expes/v2_2020-12-02_dh_100-prng-1,30_issda_100,100,rng-100,1,rng,num-start-12001,12001,25726,120.60342192649841,True,,True,1,False,1000,True,1.0
./expes/v2_2020-12-02_dh_100-prng-1,30_issda_100,100,rng-100,21,rng,num-start-4001,4001,25726,46.947434425354004,True,,True,1,False,1000,True,1.0
./expes/v2_2020-12-02_dh_100-prng-1,30_issda_100,100,rng-100,41,rng,num-start-14001,14001,25726,159.70101642608643,True,,True,1,False,1000,True,1.0
./expes/v2_2020-12-02_dh_100-prng-1,30_issda_100,100,rng-100,21,rng,num-start-6001,6001,25726,64.14441156387329,True,,True,1,False,1000,True,1.0
./expes/v2_2020-12-02_dh_100-prng-1,30_issda_100,100,rng-100,61,rng,num-start-13001,13001,25726,157.27333807945251,True,,True,1,False,1000,True,1.0
./expes/v2_2020-12-02_dh_100-prng-1,30_issda_100,100,rng-100,11,rng,num-start-7001,7001,25726,70.51126456260681,True,,True,1,False,1000,True,1.0
./expes/v2_2020-12-02_dh_100-prng-1,30_issda_100,100,rng-100,71,rng,num-start-16001,16001,25726,182.95265555381775,True,,True,1,False,1000,True,1.0
./expes/v2_2020-12-02_dh_100-prng-1,30_issda_100,100,rng-100,1,rng,num-start-11001,11001,25726,110.18087816238403,True,,True,1,False,1000,True,1.0
./expes/v2_2020-12-02_dh_100-prng-1,30_issda_100,100,rng-100,71,rng,num-start-2001,2001,25726,21.7637300491333,True,,True,1,False,1000,True,1.0
./expes/v2_2020-12-02_dh_100-prng-1,30_issda_100,100,rng-100,71,rng,num-start-5001,5001,25726,61.04873442649841,True,,True,1,False,1000,True,1.0
./expes/v2_2020-12-02_dh_100-prng-1,30_issda_100,100,rng-100,61,rng,num-start-2001,2001,25726,23.52881383895874,True,,True,1,False,1000,True,1.0
./expes/v2_2020-12-02_dh_100-prng-1,30_issda_100,100,rng-100,31,rng,num-start-10001,10001,25726,114.26175308227539,True,,True,1,False,1000,True,1.0
./expes/v2_2020-12-02_dh_100-prng-1,30_issda_100,100,rng-100,1,rng,num-start-3001,3001,25726,30.185035705566406,True,,True,1,False,1000,True,1.0
./expes/v2_2020-12-02_dh_100-prng-1,30_issda_100,100,rng-100,91,rng,num-start-4001,4001,25726,40.254223108291626,True,,True,1,False,1000,True,1.0
./expes/v2_2020-12-02_dh_100-prng-1,30_issda_100,100,rng-100,41,rng,num-start-3001,3001,25726,35.67513942718506,True,,True,1,False,1000,True,1.0
./expes/v2_2020-12-02_dh_100-prng-1,30_issda_100,100,rng-100,71,rng,num-start-14001,14001,25726,165.19450211524963,True,,True,1,False,1000,True,1.0
./expes/v2_2020-12-02_dh_100-prng-1,30_issda_100,100,rng-100,81,rng,num-start-12001,12001,25726,121.1175000667572,True,,True,1,False,1000,True,1.0
./expes/v2_2020-12-02_dh_100-prng-1,30_issda_100,100,rng-100,61,rng,num-start-8001,8001,25726,102.1542456150055,True,,True,1,False,1000,True,1.0
./expes/v2_2020-12-02_dh_100-prng-1,30_issda_100,100,rng-100,11,rng,num-start-5001,5001,25726,50.09360194206238,True,,True,1,False,1000,True,1.0
./expes/v2_2020-12-02_dh_100-prng-1,30_issda_100,100,rng-100,31,rng,num-start-9001,9001,25726,105.02297782897949,True,,True,1,False,1000,True,1.0
./expes/v2_2020-12-02_dh_100-prng-1,30_issda_100,100,rng-100,91,rng,num-start-3001,3001,25726,31.02978205680847,True,,True,1,False,1000,True,1.0
./expes/v2_2020-12-02_dh_100-prng-1,30_issda_100,100,rng-100,61,rng,num-start-8001,8001,25726,91.2628288269043,True,,True,1,False,1000,True,1.0
./expes/v2_2020-12-02_dh_100-prng-1,30_issda_100,100,rng-100,81,rng,num-start-13001,13001,25726,137.50818848609924,True,,True,1,False,1000,True,1.0
./expes/v2_2020-12-02_dh_100-prng-1,30_issda_100,100,rng-100,1,rng,num-start-10001,10001,25726,100.05545425415039,True,,True,1,False,1000,True,1.0
./expes/v2_2020-12-02_dh_100-prng-1,30_issda_100,100,rng-100,51,rng,num-start-10001,10001,25726,122.31532883644104,True,,True,1,False,1000,True,1.0
./expes/v2_2020-12-02_dh_100-prng-1,30_issda_100,100,rng-100,71,rng,num-start-11001,11001,25726,127.93276572227478,True,,True,1,False,1000,True,1.0
./expes/v2_2020-12-02_dh_100-prng-1,30_issda_100,100,rng-100,61,rng,num-start-10001,10001,25726,118.20882749557495,True,,True,1,False,1000,True,1.0
./expes/v2_2020-12-02_dh_100-prng-1,30_issda_100,100,rng-100,91,rng,num-start-1001,1001,25726,10.090513706207275,True,,True,1,False,1000,True,1.0
./expes/v2_2020-12-02_dh_100-prng-1,30_issda_100,100,rng-100,11,rng,num-start-4001,4001,25726,43.590850591659546,True,,True,1,False,1000,True,1.0
./expes/v2_2020-12-02_dh_100-prng-1,30_issda_100,100,rng-100,21,rng,num-start-14001,14001,25726,186.24107432365417,True,,True,1,False,1000,True,1.0
./expes/v2_2020-12-02_dh_100-prng-1,30_issda_100,100,rng-100,81,rng,num-start-16001,16001,25726,161.0084285736084,True,,True,1,False,1000,True,1.0
