expe,clients,clients_size,clients_subset,agg_size,method,days,days_size,days_total,time,valid,valid_sum,success,nsols,wall_hit,wall_time,pooled,valid_sums
./expes/v2_2020-12-02_dh_100-prng-1,30_issda_100,100,rng-100,61,rng,num-start-13001,13001,25726,136.16745352745056,True,,True,1,False,1000,True,1.0
./expes/v2_2020-12-02_dh_100-prng-1,30_issda_100,100,rng-100,81,rng,num-start-4001,4001,25726,37.813697814941406,True,,True,1,False,1000,True,1.0
./expes/v2_2020-12-02_dh_100-prng-1,30_issda_100,100,rng-100,71,rng,num-start-3001,3001,25726,33.27162313461304,True,,True,1,False,1000,True,1.0
./expes/v2_2020-12-02_dh_100-prng-1,30_issda_100,100,rng-100,81,rng,num-start-3001,3001,25726,30.757437705993652,True,,True,1,False,1000,True,1.0
./expes/v2_2020-12-02_dh_100-prng-1,30_issda_100,100,rng-100,11,rng,num-start-8001,8001,25726,72.46204328536987,True,,True,1,False,1000,True,1.0
./expes/v2_2020-12-02_dh_100-prng-1,30_issda_100,100,rng-100,11,rng,num-start-6001,6001,25726,53.35640215873718,True,,True,1,False,1000,True,1.0
./expes/v2_2020-12-02_dh_100-prng-1,30_issda_100,100,rng-100,51,rng,num-start-7001,7001,25726,72.33050394058228,True,,True,1,False,1000,True,1.0
./expes/v2_2020-12-02_dh_100-prng-1,30_issda_100,100,rng-100,21,rng,num-start-5001,5001,25726,51.52599024772644,True,,True,1,False,1000,True,1.0
./expes/v2_2020-12-02_dh_100-prng-1,30_issda_100,100,rng-100,11,rng,num-start-1,1,25726,0.2578103542327881,False,,False,2,False,1000,True,1.0
./expes/v2_2020-12-02_dh_100-prng-1,30_issda_100,100,rng-100,31,rng,num-start-2001,2001,25726,20.94292163848877,True,,True,1,False,1000,True,1.0
./expes/v2_2020-12-02_dh_100-prng-1,30_issda_100,100,rng-100,81,rng,num-start-10001,10001,25726,102.6100685596466,True,,True,1,False,1000,True,1.0
./expes/v2_2020-12-02_dh_100-prng-1,30_issda_100,100,rng-100,21,rng,num-start-14001,14001,25726,144.50217127799988,True,,True,1,False,1000,True,1.0
./expes/v2_2020-12-02_dh_100-prng-1,30_issda_100,100,rng-100,1,rng,num-start-15001,15001,25726,134.1775028705597,True,,True,1,False,1000,True,1.0
./expes/v2_2020-12-02_dh_100-prng-1,30_issda_100,100,rng-100,61,rng,num-start-9001,9001,25726,93.33571934700012,True,,True,1,False,1000,True,1.0
./expes/v2_2020-12-02_dh_100-prng-1,30_issda_100,100,rng-100,1,rng,num-start-7001,7001,25726,62.579323291778564,True,,True,1,False,1000,True,1.0
./expes/v2_2020-12-02_dh_100-prng-1,30_issda_100,100,rng-100,71,rng,num-start-12001,12001,25726,130.40452075004578,True,,True,1,False,1000,True,1.0
./expes/v2_2020-12-02_dh_100-prng-1,30_issda_100,100,rng-100,91,rng,num-start-15001,15001,25726,146.75901651382446,True,,True,1,False,1000,True,1.0
./expes/v2_2020-12-02_dh_100-prng-1,30_issda_100,100,rng-100,11,rng,num-start-3001,3001,25726,29.396432876586914,True,,True,1,False,1000,True,1.0
./expes/v2_2020-12-02_dh_100-prng-1,30_issda_100,100,rng-100,51,rng,num-start-12001,12001,25726,128.93289923667908,True,,True,1,False,1000,True,1.0
