expe,clients,clients_size,clients_subset,agg_size,method,days,days_size,days_total,time,valid,valid_sum,success,nsols,wall_hit,wall_time,pooled,valid_sums
./expes/v2_2020-12-02_dh_100-prng-1,30_issda_100,100,rng-100,31,rng,num-start-14001,14001,25726,131.78930640220642,True,,True,1,False,1000,True,1.0
./expes/v2_2020-12-02_dh_100-prng-1,30_issda_100,100,rng-100,11,rng,num-start-8001,8001,25726,71.00228881835938,True,,True,1,False,1000,True,1.0
./expes/v2_2020-12-02_dh_100-prng-1,30_issda_100,100,rng-100,81,rng,num-start-1,1,25726,0.18768739700317383,False,,False,2,False,1000,True,1.0
./expes/v2_2020-12-02_dh_100-prng-1,30_issda_100,100,rng-100,91,rng,num-start-12001,12001,25726,97.9151873588562,True,,True,1,False,1000,True,1.0
./expes/v2_2020-12-02_dh_100-prng-1,30_issda_100,100,rng-100,21,rng,num-start-3001,3001,25726,27.895408630371094,True,,True,1,False,1000,True,1.0
./expes/v2_2020-12-02_dh_100-prng-1,30_issda_100,100,rng-100,91,rng,num-start-7001,7001,25726,57.63715600967407,True,,True,1,False,1000,True,1.0
./expes/v2_2020-12-02_dh_100-prng-1,30_issda_100,100,rng-100,61,rng,num-start-1001,1001,25726,9.119179010391235,True,,True,1,False,1000,True,1.0
./expes/v2_2020-12-02_dh_100-prng-1,30_issda_100,100,rng-100,51,rng,num-start-7001,7001,25726,69.6882963180542,True,,True,1,False,1000,True,1.0
./expes/v2_2020-12-02_dh_100-prng-1,30_issda_100,100,rng-100,61,rng,num-start-16001,16001,25726,152.68877696990967,True,,True,1,False,1000,True,1.0
./expes/v2_2020-12-02_dh_100-prng-1,30_issda_100,100,rng-100,91,rng,num-start-1,1,25726,0.07146811485290527,False,,False,2,False,1000,True,1.0
./expes/v2_2020-12-02_dh_100-prng-1,30_issda_100,100,rng-100,41,rng,num-start-8001,8001,25726,79.15404105186462,True,,True,1,False,1000,True,1.0
./expes/v2_2020-12-02_dh_100-prng-1,30_issda_100,100,rng-100,21,rng,num-start-8001,8001,25726,71.24681901931763,True,,True,1,False,1000,True,1.0
./expes/v2_2020-12-02_dh_100-prng-1,30_issda_100,100,rng-100,81,rng,num-start-8001,8001,25726,68.63899874687195,True,,True,1,False,1000,True,1.0
./expes/v2_2020-12-02_dh_100-prng-1,30_issda_100,100,rng-100,11,rng,num-start-11001,11001,25726,88.83143329620361,True,,True,1,False,1000,True,1.0
./expes/v2_2020-12-02_dh_100-prng-1,30_issda_100,100,rng-100,91,rng,num-start-3001,3001,25726,24.81507182121277,True,,True,1,False,1000,True,1.0
./expes/v2_2020-12-02_dh_100-prng-1,30_issda_100,100,rng-100,81,rng,num-start-6001,6001,25726,54.335899114608765,True,,True,1,False,1000,True,1.0
./expes/v2_2020-12-02_dh_100-prng-1,30_issda_100,100,rng-100,81,rng,num-start-4001,4001,25726,36.94320034980774,True,,True,1,False,1000,True,1.0
./expes/v2_2020-12-02_dh_100-prng-1,30_issda_100,100,rng-100,1,rng,num-start-10001,10001,25726,83.71430015563965,True,,True,1,False,1000,True,1.0
./expes/v2_2020-12-02_dh_100-prng-1,30_issda_100,100,rng-100,21,rng,num-start-1,1,25726,0.4122586250305176,False,,False,2,False,1000,True,1.0
./expes/v2_2020-12-02_dh_100-prng-1,30_issda_100,100,rng-100,21,rng,num-start-3001,3001,25726,28.605711460113525,True,,True,1,False,1000,True,1.0
./expes/v2_2020-12-02_dh_100-prng-1,30_issda_100,100,rng-100,71,rng,num-start-1,1,25726,0.0309903621673584,False,,False,2,False,1000,True,1.0
./expes/v2_2020-12-02_dh_100-prng-1,30_issda_100,100,rng-100,71,rng,num-start-7001,7001,25726,64.90873527526855,True,,True,1,False,1000,True,1.0
./expes/v2_2020-12-02_dh_100-prng-1,30_issda_100,100,rng-100,61,rng,num-start-6001,6001,25726,53.395423412323,True,,True,1,False,1000,True,1.0
./expes/v2_2020-12-02_dh_100-prng-1,30_issda_100,100,rng-100,1,rng,num-start-7001,7001,25726,57.51456594467163,True,,True,1,False,1000,True,1.0
./expes/v2_2020-12-02_dh_100-prng-1,30_issda_100,100,rng-100,61,rng,num-start-15001,15001,25726,129.87366461753845,True,,True,1,False,1000,True,1.0
./expes/v2_2020-12-02_dh_100-prng-1,30_issda_100,100,rng-100,31,rng,num-start-16001,16001,25726,140.33724188804626,True,,True,1,False,1000,True,1.0
./expes/v2_2020-12-02_dh_100-prng-1,30_issda_100,100,rng-100,21,rng,num-start-13001,13001,25726,106.80628085136414,True,,True,1,False,1000,True,1.0
./expes/v2_2020-12-02_dh_100-prng-1,30_issda_100,100,rng-100,51,rng,num-start-7001,7001,25726,63.390610218048096,True,,True,1,False,1000,True,1.0
./expes/v2_2020-12-02_dh_100-prng-1,30_issda_100,100,rng-100,1,rng,num-start-10001,10001,25726,83.14547944068909,True,,True,1,False,1000,True,1.0
./expes/v2_2020-12-02_dh_100-prng-1,30_issda_100,100,rng-100,21,rng,num-start-2001,2001,25726,17.68117928504944,True,,True,1,False,1000,True,1.0
./expes/v2_2020-12-02_dh_100-prng-1,30_issda_100,100,rng-100,21,rng,num-start-10001,10001,25726,89.12451171875,True,,True,1,False,1000,True,1.0
./expes/v2_2020-12-02_dh_100-prng-1,30_issda_100,100,rng-100,11,rng,num-start-9001,9001,25726,75.27924036979675,True,,True,1,False,1000,True,1.0
./expes/v2_2020-12-02_dh_100-prng-1,30_issda_100,100,rng-100,51,rng,num-start-5001,5001,25726,52.07293677330017,True,,True,1,False,1000,True,1.0
./expes/v2_2020-12-02_dh_100-prng-1,30_issda_100,100,rng-100,21,rng,num-start-10001,10001,25726,82.42328333854675,True,,True,1,False,1000,True,1.0
./expes/v2_2020-12-02_dh_100-prng-1,30_issda_100,100,rng-100,31,rng,num-start-7001,7001,25726,62.944392681121826,True,,True,1,False,1000,True,1.0
./expes/v2_2020-12-02_dh_100-prng-1,30_issda_100,100,rng-100,11,rng,num-start-7001,7001,25726,55.11500382423401,True,,True,1,False,1000,True,1.0
./expes/v2_2020-12-02_dh_100-prng-1,30_issda_100,100,rng-100,1,rng,num-start-2001,2001,25726,15.764531373977661,True,,True,1,False,1000,True,1.0
./expes/v2_2020-12-02_dh_100-prng-1,30_issda_100,100,rng-100,81,rng,num-start-8001,8001,25726,65.78573870658875,True,,True,1,False,1000,True,1.0
./expes/v2_2020-12-02_dh_100-prng-1,30_issda_100,100,rng-100,81,rng,num-start-10001,10001,25726,82.94582772254944,True,,True,1,False,1000,True,1.0
./expes/v2_2020-12-02_dh_100-prng-1,30_issda_100,100,rng-100,31,rng,num-start-10001,10001,25726,93.31937670707703,True,,True,1,False,1000,True,1.0
./expes/v2_2020-12-02_dh_100-prng-1,30_issda_100,100,rng-100,71,rng,num-start-7001,7001,25726,62.61773061752319,True,,True,1,False,1000,True,1.0
./expes/v2_2020-12-02_dh_100-prng-1,30_issda_100,100,rng-100,51,rng,num-start-3001,3001,25726,26.280001401901245,True,,True,1,False,1000,True,1.0
./expes/v2_2020-12-02_dh_100-prng-1,30_issda_100,100,rng-100,71,rng,num-start-6001,6001,25726,57.21825671195984,True,,True,1,False,1000,True,1.0
./expes/v2_2020-12-02_dh_100-prng-1,30_issda_100,100,rng-100,41,rng,num-start-7001,7001,25726,70.18432331085205,True,,True,1,False,1000,True,1.0
./expes/v2_2020-12-02_dh_100-prng-1,30_issda_100,100,rng-100,1,rng,num-start-1,1,25726,0.03955221176147461,True,,True,1,False,1000,True,1.0
./expes/v2_2020-12-02_dh_100-prng-1,30_issda_100,100,rng-100,31,rng,num-start-4001,4001,25726,38.347854137420654,True,,True,1,False,1000,True,1.0
./expes/v2_2020-12-02_dh_100-prng-1,30_issda_100,100,rng-100,31,rng,num-start-1001,1001,25726,8.572833061218262,True,,True,1,False,1000,True,1.0
./expes/v2_2020-12-02_dh_100-prng-1,30_issda_100,100,rng-100,61,rng,num-start-2001,2001,25726,17.928690910339355,True,,True,1,False,1000,True,1.0
./expes/v2_2020-12-02_dh_100-prng-1,30_issda_100,100,rng-100,51,rng,num-start-1,1,25726,0.03207039833068848,False,,False,2,False,1000,True,1.0
./expes/v2_2020-12-02_dh_100-prng-1,30_issda_100,100,rng-100,61,rng,num-start-14001,14001,25726,144.0417604446411,True,,True,1,False,1000,True,1.0
./expes/v2_2020-12-02_dh_100-prng-1,30_issda_100,100,rng-100,21,rng,num-start-6001,6001,25726,58.577287673950195,True,,True,1,False,1000,True,1.0
./expes/v2_2020-12-02_dh_100-prng-1,30_issda_100,100,rng-100,41,rng,num-start-15001,15001,25726,155.86662697792053,True,,True,1,False,1000,True,1.0
./expes/v2_2020-12-02_dh_100-prng-1,30_issda_100,100,rng-100,41,rng,num-start-8001,8001,25726,78.97525715827942,True,,True,1,False,1000,True,1.0
./expes/v2_2020-12-02_dh_100-prng-1,30_issda_100,100,rng-100,51,rng,num-start-5001,5001,25726,52.18937301635742,True,,True,1,False,1000,True,1.0
./expes/v2_2020-12-02_dh_100-prng-1,30_issda_100,100,rng-100,71,rng,num-start-16001,16001,25726,162.70506691932678,True,,True,1,False,1000,True,1.0
./expes/v2_2020-12-02_dh_100-prng-1,30_issda_100,100,rng-100,1,rng,num-start-2001,2001,25726,17.663026571273804,True,,True,1,False,1000,True,1.0
./expes/v2_2020-12-02_dh_100-prng-1,30_issda_100,100,rng-100,91,rng,num-start-15001,15001,25726,129.63871312141418,True,,True,1,False,1000,True,1.0
./expes/v2_2020-12-02_dh_100-prng-1,30_issda_100,100,rng-100,81,rng,num-start-5001,5001,25726,47.45915150642395,True,,True,1,False,1000,True,1.0
./expes/v2_2020-12-02_dh_100-prng-1,30_issda_100,100,rng-100,51,rng,num-start-8001,8001,25726,78.69644904136658,True,,True,1,False,1000,True,1.0
./expes/v2_2020-12-02_dh_100-prng-1,30_issda_100,100,rng-100,71,rng,num-start-12001,12001,25726,120.89894413948059,True,,True,1,False,1000,True,1.0
./expes/v2_2020-12-02_dh_100-prng-1,30_issda_100,100,rng-100,41,rng,num-start-4001,4001,25726,43.308549642562866,True,,True,1,False,1000,True,1.0
./expes/v2_2020-12-02_dh_100-prng-1,30_issda_100,100,rng-100,91,rng,num-start-8001,8001,25726,70.01857495307922,True,,True,1,False,1000,True,1.0
./expes/v2_2020-12-02_dh_100-prng-1,30_issda_100,100,rng-100,21,rng,num-start-9001,9001,25726,92.61560153961182,True,,True,1,False,1000,True,1.0
./expes/v2_2020-12-02_dh_100-prng-1,30_issda_100,100,rng-100,1,rng,num-start-6001,6001,25726,48.65927743911743,True,,True,1,False,1000,True,1.0
./expes/v2_2020-12-02_dh_100-prng-1,30_issda_100,100,rng-100,21,rng,num-start-3001,3001,25726,29.293427228927612,True,,True,1,False,1000,True,1.0
./expes/v2_2020-12-02_dh_100-prng-1,30_issda_100,100,rng-100,61,rng,num-start-6001,6001,25726,62.52035117149353,True,,True,1,False,1000,True,1.0
./expes/v2_2020-12-02_dh_100-prng-1,30_issda_100,100,rng-100,71,rng,num-start-7001,7001,25726,74.10708427429199,True,,True,1,False,1000,True,1.0
./expes/v2_2020-12-02_dh_100-prng-1,30_issda_100,100,rng-100,1,rng,num-start-7001,7001,25726,60.64014434814453,True,,True,1,False,1000,True,1.0
./expes/v2_2020-12-02_dh_100-prng-1,30_issda_100,100,rng-100,1,rng,num-start-8001,8001,25726,66.37849974632263,True,,True,1,False,1000,True,1.0
./expes/v2_2020-12-02_dh_100-prng-1,30_issda_100,100,rng-100,31,rng,num-start-12001,12001,25726,109.30726957321167,True,,True,1,False,1000,True,1.0
./expes/v2_2020-12-02_dh_100-prng-1,30_issda_100,100,rng-100,21,rng,num-start-6001,6001,25726,58.51490664482117,True,,True,1,False,1000,True,1.0
./expes/v2_2020-12-02_dh_100-prng-1,30_issda_100,100,rng-100,1,rng,num-start-1001,1001,25726,8.142958402633667,True,,True,1,False,1000,True,1.0
./expes/v2_2020-12-02_dh_100-prng-1,30_issda_100,100,rng-100,1,rng,num-start-5001,5001,25726,47.45184850692749,True,,True,1,False,1000,True,1.0
./expes/v2_2020-12-02_dh_100-prng-1,30_issda_100,100,rng-100,11,rng,num-start-15001,15001,25726,143.2095627784729,True,,True,1,False,1000,True,1.0
./expes/v2_2020-12-02_dh_100-prng-1,30_issda_100,100,rng-100,71,rng,num-start-9001,9001,25726,107.20422387123108,True,,True,1,False,1000,True,1.0
./expes/v2_2020-12-02_dh_100-prng-1,30_issda_100,100,rng-100,61,rng,num-start-2001,2001,25726,17.68587899208069,True,,True,1,False,1000,True,1.0
