expe,clients,clients_size,clients_subset,agg_size,method,days,days_size,days_total,time,valid,valid_sum,success,nsols,wall_hit,wall_time,pooled,valid_sums
./expes/v2_2020-12-02_dh_100-prng-1,30_issda_100,100,rng-100,81,rng,num-start-6001,6001,25726,72.13561463356018,True,,True,1,False,1000,True,1.0
./expes/v2_2020-12-02_dh_100-prng-1,30_issda_100,100,rng-100,61,rng,num-start-3001,3001,25726,35.577115058898926,True,,True,1,False,1000,True,1.0
./expes/v2_2020-12-02_dh_100-prng-1,30_issda_100,100,rng-100,51,rng,num-start-12001,12001,25726,154.55309987068176,True,,True,1,False,1000,True,1.0
./expes/v2_2020-12-02_dh_100-prng-1,30_issda_100,100,rng-100,51,rng,num-start-13001,13001,25726,150.68392515182495,True,,True,1,False,1000,True,1.0
./expes/v2_2020-12-02_dh_100-prng-1,30_issda_100,100,rng-100,71,rng,num-start-4001,4001,25726,51.36405658721924,True,,True,1,False,1000,True,1.0
./expes/v2_2020-12-02_dh_100-prng-1,30_issda_100,100,rng-100,31,rng,num-start-3001,3001,25726,34.92646026611328,True,,True,1,False,1000,True,1.0
./expes/v2_2020-12-02_dh_100-prng-1,30_issda_100,100,rng-100,91,rng,num-start-1,1,25726,0.2586841583251953,False,,False,2,False,1000,True,1.0
./expes/v2_2020-12-02_dh_100-prng-1,30_issda_100,100,rng-100,51,rng,num-start-12001,12001,25726,162.33477878570557,True,,True,1,False,1000,True,1.0
./expes/v2_2020-12-02_dh_100-prng-1,30_issda_100,100,rng-100,21,rng,num-start-6001,6001,25726,64.36181616783142,True,,True,1,False,1000,True,1.0
./expes/v2_2020-12-02_dh_100-prng-1,30_issda_100,100,rng-100,11,rng,num-start-7001,7001,25726,73.1455910205841,True,,True,1,False,1000,True,1.0
./expes/v2_2020-12-02_dh_100-prng-1,30_issda_100,100,rng-100,1,rng,num-start-8001,8001,25726,80.55208444595337,True,,True,1,False,1000,True,1.0
./expes/v2_2020-12-02_dh_100-prng-1,30_issda_100,100,rng-100,51,rng,num-start-15001,15001,25726,186.66605353355408,True,,True,1,False,1000,True,1.0
./expes/v2_2020-12-02_dh_100-prng-1,30_issda_100,100,rng-100,41,rng,num-start-6001,6001,25726,75.74709892272949,True,,True,1,False,1000,True,1.0
./expes/v2_2020-12-02_dh_100-prng-1,30_issda_100,100,rng-100,71,rng,num-start-7001,7001,25726,83.96476030349731,True,,True,1,False,1000,True,1.0
./expes/v2_2020-12-02_dh_100-prng-1,30_issda_100,100,rng-100,71,rng,num-start-8001,8001,25726,100.61979293823242,True,,True,1,False,1000,True,1.0
./expes/v2_2020-12-02_dh_100-prng-1,30_issda_100,100,rng-100,81,rng,num-start-15001,15001,25726,162.57808136940002,True,,True,1,False,1000,True,1.0
./expes/v2_2020-12-02_dh_100-prng-1,30_issda_100,100,rng-100,1,rng,num-start-3001,3001,25726,30.614205837249756,True,,True,1,False,1000,True,1.0
./expes/v2_2020-12-02_dh_100-prng-1,30_issda_100,100,rng-100,51,rng,num-start-12001,12001,25726,150.27374792099,True,,True,1,False,1000,True,1.0
./expes/v2_2020-12-02_dh_100-prng-1,30_issda_100,100,rng-100,91,rng,num-start-7001,7001,25726,70.68098497390747,True,,True,1,False,1000,True,1.0
./expes/v2_2020-12-02_dh_100-prng-1,30_issda_100,100,rng-100,21,rng,num-start-2001,2001,25726,23.65381669998169,True,,True,1,False,1000,True,1.0
./expes/v2_2020-12-02_dh_100-prng-1,30_issda_100,100,rng-100,1,rng,num-start-8001,8001,25726,80.63304615020752,True,,True,1,False,1000,True,1.0
./expes/v2_2020-12-02_dh_100-prng-1,30_issda_100,100,rng-100,1,rng,num-start-6001,6001,25726,60.56586694717407,True,,True,1,False,1000,True,1.0
./expes/v2_2020-12-02_dh_100-prng-1,30_issda_100,100,rng-100,11,rng,num-start-8001,8001,25726,82.49902510643005,True,,True,1,False,1000,True,1.0
./expes/v2_2020-12-02_dh_100-prng-1,30_issda_100,100,rng-100,81,rng,num-start-8001,8001,25726,93.68406701087952,True,,True,1,False,1000,True,1.0
./expes/v2_2020-12-02_dh_100-prng-1,30_issda_100,100,rng-100,21,rng,num-start-9001,9001,25726,105.23090052604675,True,,True,1,False,1000,True,1.0
./expes/v2_2020-12-02_dh_100-prng-1,30_issda_100,100,rng-100,91,rng,num-start-10001,10001,25726,100.9284520149231,True,,True,1,False,1000,True,1.0
./expes/v2_2020-12-02_dh_100-prng-1,30_issda_100,100,rng-100,1,rng,num-start-6001,6001,25726,60.46283149719238,True,,True,1,False,1000,True,1.0
./expes/v2_2020-12-02_dh_100-prng-1,30_issda_100,100,rng-100,71,rng,num-start-3001,3001,25726,34.57407569885254,True,,True,1,False,1000,True,1.0
./expes/v2_2020-12-02_dh_100-prng-1,30_issda_100,100,rng-100,51,rng,num-start-2001,2001,25726,22.857855081558228,True,,True,1,False,1000,True,1.0
./expes/v2_2020-12-02_dh_100-prng-1,30_issda_100,100,rng-100,91,rng,num-start-1001,1001,25726,10.116395950317383,True,,True,1,False,1000,True,1.0
./expes/v2_2020-12-02_dh_100-prng-1,30_issda_100,100,rng-100,51,rng,num-start-1001,1001,25726,12.249762535095215,True,,True,1,False,1000,True,1.0
./expes/v2_2020-12-02_dh_100-prng-1,30_issda_100,100,rng-100,61,rng,num-start-3001,3001,25726,35.831565618515015,True,,True,1,False,1000,True,1.0
./expes/v2_2020-12-02_dh_100-prng-1,30_issda_100,100,rng-100,51,rng,num-start-4001,4001,25726,47.24864077568054,True,,True,1,False,1000,True,1.0
./expes/v2_2020-12-02_dh_100-prng-1,30_issda_100,100,rng-100,31,rng,num-start-15001,15001,25726,178.18051052093506,True,,True,1,False,1000,True,1.0
./expes/v2_2020-12-02_dh_100-prng-1,30_issda_100,100,rng-100,1,rng,num-start-9001,9001,25726,91.80619049072266,True,,True,1,False,1000,True,1.0
./expes/v2_2020-12-02_dh_100-prng-1,30_issda_100,100,rng-100,21,rng,num-start-15001,15001,25726,171.9340102672577,True,,True,1,False,1000,True,1.0
./expes/v2_2020-12-02_dh_100-prng-1,30_issda_100,100,rng-100,41,rng,num-start-15001,15001,25726,179.50498175621033,True,,True,1,False,1000,True,1.0
./expes/v2_2020-12-02_dh_100-prng-1,30_issda_100,100,rng-100,21,rng,num-start-3001,3001,25726,34.88207006454468,True,,True,1,False,1000,True,1.0
./expes/v2_2020-12-02_dh_100-prng-1,30_issda_100,100,rng-100,81,rng,num-start-11001,11001,25726,118.35917282104492,True,,True,1,False,1000,True,1.0
./expes/v2_2020-12-02_dh_100-prng-1,30_issda_100,100,rng-100,51,rng,num-start-5001,5001,25726,64.97550511360168,True,,True,1,False,1000,True,1.0
./expes/v2_2020-12-02_dh_100-prng-1,30_issda_100,100,rng-100,51,rng,num-start-14001,14001,25726,165.32996320724487,True,,True,1,False,1000,True,1.0
./expes/v2_2020-12-02_dh_100-prng-1,30_issda_100,100,rng-100,51,rng,num-start-5001,5001,25726,64.62987732887268,True,,True,1,False,1000,True,1.0
./expes/v2_2020-12-02_dh_100-prng-1,30_issda_100,100,rng-100,91,rng,num-start-14001,14001,25726,141.85386157035828,True,,True,1,False,1000,True,1.0
./expes/v2_2020-12-02_dh_100-prng-1,30_issda_100,100,rng-100,91,rng,num-start-12001,12001,25726,122.35708403587341,True,,True,1,False,1000,True,1.0
./expes/v2_2020-12-02_dh_100-prng-1,30_issda_100,100,rng-100,21,rng,num-start-12001,12001,25726,134.96895051002502,True,,True,1,False,1000,True,1.0
./expes/v2_2020-12-02_dh_100-prng-1,30_issda_100,100,rng-100,91,rng,num-start-7001,7001,25726,71.88927006721497,True,,True,1,False,1000,True,1.0
./expes/v2_2020-12-02_dh_100-prng-1,30_issda_100,100,rng-100,91,rng,num-start-6001,6001,25726,64.6767373085022,True,,True,1,False,1000,True,1.0
./expes/v2_2020-12-02_dh_100-prng-1,30_issda_100,100,rng-100,61,rng,num-start-12001,12001,25726,153.77501034736633,True,,True,1,False,1000,True,1.0
./expes/v2_2020-12-02_dh_100-prng-1,30_issda_100,100,rng-100,51,rng,num-start-15001,15001,25726,176.52774238586426,True,,True,1,False,1000,True,1.0
./expes/v2_2020-12-02_dh_100-prng-1,30_issda_100,100,rng-100,61,rng,num-start-5001,5001,25726,62.54276728630066,True,,True,1,False,1000,True,1.0
./expes/v2_2020-12-02_dh_100-prng-1,30_issda_100,100,rng-100,61,rng,num-start-12001,12001,25726,149.02236604690552,True,,True,1,False,1000,True,1.0
./expes/v2_2020-12-02_dh_100-prng-1,30_issda_100,100,rng-100,91,rng,num-start-11001,11001,25726,134.4094762802124,True,,True,1,False,1000,True,1.0
./expes/v2_2020-12-02_dh_100-prng-1,30_issda_100,100,rng-100,1,rng,num-start-15001,15001,25726,183.49235248565674,True,,True,1,False,1000,True,1.0
./expes/v2_2020-12-02_dh_100-prng-1,30_issda_100,100,rng-100,31,rng,num-start-3001,3001,25726,35.45163011550903,True,,True,1,False,1000,True,1.0
