expe,clients,clients_size,clients_subset,agg_size,method,days,days_size,days_total,time,valid,valid_sum,success,nsols,wall_hit,wall_time,pooled,valid_sums
./expes/v2_2020-11-09_3bh_300-prng-1,30_base_hphc_300,300,first-300,241,rng,num-start-681,681,17520,27.710335969924927,True,,True,1,False,1000,True,1.0
./expes/v2_2020-11-09_3bh_300-prng-1,30_base_hphc_300,300,first-300,251,rng,num-start-841,841,17520,29.679107189178467,True,,True,1,False,1000,True,1.0
./expes/v2_2020-11-09_3bh_300-prng-1,30_base_hphc_300,300,first-300,81,rng,num-start-651,651,17520,25.39208173751831,True,,True,1,False,1000,True,1.0
./expes/v2_2020-11-09_3bh_300-prng-1,30_base_hphc_300,300,first-300,271,rng,num-start-671,671,17520,25.513388633728027,True,,True,1,False,1000,True,1.0
./expes/v2_2020-11-09_3bh_300-prng-1,30_base_hphc_300,300,first-300,271,rng,num-start-701,701,17520,27.89025092124939,True,,True,1,False,1000,True,1.0
./expes/v2_2020-11-09_3bh_300-prng-1,30_base_hphc_300,300,first-300,31,rng,num-start-661,661,17520,25.143802165985107,True,,True,1,False,1000,True,1.0
./expes/v2_2020-11-09_3bh_300-prng-1,30_base_hphc_300,300,first-300,1,rng,num-start-871,871,17520,29.77429723739624,True,,True,1,False,1000,True,1.0
./expes/v2_2020-11-09_3bh_300-prng-1,30_base_hphc_300,300,first-300,131,rng,num-start-181,181,17520,8.8023362159729,True,,True,1,False,1000,True,1.0
./expes/v2_2020-11-09_3bh_300-prng-1,30_base_hphc_300,300,first-300,211,rng,num-start-791,791,17520,32.15466642379761,True,,True,1,False,1000,True,1.0
./expes/v2_2020-11-09_3bh_300-prng-1,30_base_hphc_300,300,first-300,221,rng,num-start-871,871,17520,35.47205305099487,True,,True,1,False,1000,True,1.0
./expes/v2_2020-11-09_3bh_300-prng-1,30_base_hphc_300,300,first-300,151,rng,num-start-761,761,17520,33.199339866638184,True,,True,1,False,1000,True,1.0
./expes/v2_2020-11-09_3bh_300-prng-1,30_base_hphc_300,300,first-300,261,rng,num-start-411,411,17520,16.294615745544434,True,,True,1,False,1000,True,1.0
./expes/v2_2020-11-09_3bh_300-prng-1,30_base_hphc_300,300,first-300,291,rng,num-start-31,31,17520,1.7063424587249756,True,,True,1,False,1000,True,1.0
./expes/v2_2020-11-09_3bh_300-prng-1,30_base_hphc_300,300,first-300,261,rng,num-start-771,771,17520,29.63036274909973,True,,True,1,False,1000,True,1.0
./expes/v2_2020-11-09_3bh_300-prng-1,30_base_hphc_300,300,first-300,271,rng,num-start-531,531,17520,20.699840545654297,True,,True,1,False,1000,True,1.0
./expes/v2_2020-11-09_3bh_300-prng-1,30_base_hphc_300,300,first-300,121,rng,num-start-601,601,17520,27.41492486000061,True,,True,1,False,1000,True,1.0
./expes/v2_2020-11-09_3bh_300-prng-1,30_base_hphc_300,300,first-300,11,rng,num-start-71,71,17520,3.053403377532959,True,,True,1,False,1000,True,1.0
./expes/v2_2020-11-09_3bh_300-prng-1,30_base_hphc_300,300,first-300,41,rng,num-start-151,151,17520,6.211308002471924,True,,True,1,False,1000,True,1.0
./expes/v2_2020-11-09_3bh_300-prng-1,30_base_hphc_300,300,first-300,111,rng,num-start-581,581,17520,24.168211936950684,True,,True,1,False,1000,True,1.0
./expes/v2_2020-11-09_3bh_300-prng-1,30_base_hphc_300,300,first-300,271,rng,num-start-531,531,17520,20.680731773376465,True,,True,1,False,1000,True,1.0
./expes/v2_2020-11-09_3bh_300-prng-1,30_base_hphc_300,300,first-300,291,rng,num-start-731,731,17520,26.922619819641113,True,,True,1,False,1000,True,1.0
./expes/v2_2020-11-09_3bh_300-prng-1,30_base_hphc_300,300,first-300,291,rng,num-start-171,171,17520,6.750622272491455,True,,True,1,False,1000,True,1.0
./expes/v2_2020-11-09_3bh_300-prng-1,30_base_hphc_300,300,first-300,221,rng,num-start-681,681,17520,28.7760808467865,True,,True,1,False,1000,True,1.0
./expes/v2_2020-11-09_3bh_300-prng-1,30_base_hphc_300,300,first-300,71,rng,num-start-331,331,17520,14.368515729904175,True,,True,1,False,1000,True,1.0
./expes/v2_2020-11-09_3bh_300-prng-1,30_base_hphc_300,300,first-300,1,rng,num-start-491,491,17520,16.589224815368652,True,,True,1,False,1000,True,1.0
./expes/v2_2020-11-09_3bh_300-prng-1,30_base_hphc_300,300,first-300,11,rng,num-start-251,251,17520,10.390496969223022,True,,True,1,False,1000,True,1.0
./expes/v2_2020-11-09_3bh_300-prng-1,30_base_hphc_300,300,first-300,31,rng,num-start-61,61,17520,8.094678401947021,True,,True,1,False,1000,True,1.0
./expes/v2_2020-11-09_3bh_300-prng-1,30_base_hphc_300,300,first-300,71,rng,num-start-961,961,17520,36.501410245895386,True,,True,1,False,1000,True,1.0
./expes/v2_2020-11-09_3bh_300-prng-1,30_base_hphc_300,300,first-300,211,rng,num-start-161,161,17520,7.304585218429565,True,,True,1,False,1000,True,1.0
./expes/v2_2020-11-09_3bh_300-prng-1,30_base_hphc_300,300,first-300,41,rng,num-start-421,421,17520,17.11499524116516,True,,True,1,False,1000,True,1.0
./expes/v2_2020-11-09_3bh_300-prng-1,30_base_hphc_300,300,first-300,31,rng,num-start-691,691,17520,29.926037788391113,True,,True,1,False,1000,True,1.0
./expes/v2_2020-11-09_3bh_300-prng-1,30_base_hphc_300,300,first-300,71,rng,num-start-121,121,17520,13.158453702926636,True,,True,1,False,1000,True,1.0
./expes/v2_2020-11-09_3bh_300-prng-1,30_base_hphc_300,300,first-300,221,rng,num-start-601,601,17520,26.37377142906189,True,,True,1,False,1000,True,1.0
./expes/v2_2020-11-09_3bh_300-prng-1,30_base_hphc_300,300,first-300,211,rng,num-start-1,1,17520,0.05913138389587402,False,,False,2,False,1000,True,1.0
./expes/v2_2020-11-09_3bh_300-prng-1,30_base_hphc_300,300,first-300,131,rng,num-start-81,81,17520,1002.7349569797516,False,,False,0,True,1000,True,0.0
./expes/v2_2020-11-09_3bh_300-prng-1,30_base_hphc_300,300,first-300,111,rng,num-start-411,411,17520,17.513424158096313,True,,True,1,False,1000,True,1.0
./expes/v2_2020-11-09_3bh_300-prng-1,30_base_hphc_300,300,first-300,271,rng,num-start-891,891,17520,36.68130803108215,True,,True,1,False,1000,True,1.0
./expes/v2_2020-11-09_3bh_300-prng-1,30_base_hphc_300,300,first-300,11,rng,num-start-831,831,17520,36.47032165527344,True,,True,1,False,1000,True,1.0
./expes/v2_2020-11-09_3bh_300-prng-1,30_base_hphc_300,300,first-300,291,rng,num-start-531,531,17520,21.29518151283264,True,,True,1,False,1000,True,1.0
./expes/v2_2020-11-09_3bh_300-prng-1,30_base_hphc_300,300,first-300,271,rng,num-start-881,881,17520,35.20755672454834,True,,True,1,False,1000,True,1.0
./expes/v2_2020-11-09_3bh_300-prng-1,30_base_hphc_300,300,first-300,201,rng,num-start-691,691,17520,33.38033723831177,True,,True,1,False,1000,True,1.0
./expes/v2_2020-11-09_3bh_300-prng-1,30_base_hphc_300,300,first-300,171,rng,num-start-321,321,17520,15.26135540008545,True,,True,1,False,1000,True,1.0
./expes/v2_2020-11-09_3bh_300-prng-1,30_base_hphc_300,300,first-300,181,rng,num-start-451,451,17520,19.66081953048706,True,,True,1,False,1000,True,1.0
./expes/v2_2020-11-09_3bh_300-prng-1,30_base_hphc_300,300,first-300,201,rng,num-start-991,991,17520,48.19745898246765,True,,True,1,False,1000,True,1.0
./expes/v2_2020-11-09_3bh_300-prng-1,30_base_hphc_300,300,first-300,61,rng,num-start-401,401,17520,17.805619955062866,True,,True,1,False,1000,True,1.0
./expes/v2_2020-11-09_3bh_300-prng-1,30_base_hphc_300,300,first-300,231,rng,num-start-961,961,17520,41.66936922073364,True,,True,1,False,1000,True,1.0
./expes/v2_2020-11-09_3bh_300-prng-1,30_base_hphc_300,300,first-300,181,rng,num-start-181,181,17520,8.555888414382935,True,,True,1,False,1000,True,1.0
./expes/v2_2020-11-09_3bh_300-prng-1,30_base_hphc_300,300,first-300,11,rng,num-start-361,361,17520,15.018381357192993,True,,True,1,False,1000,True,1.0
./expes/v2_2020-11-09_3bh_300-prng-1,30_base_hphc_300,300,first-300,31,rng,num-start-981,981,17520,43.24107885360718,True,,True,1,False,1000,True,1.0
./expes/v2_2020-11-09_3bh_300-prng-1,30_base_hphc_300,300,first-300,71,rng,num-start-931,931,17520,40.79809379577637,True,,True,1,False,1000,True,1.0
./expes/v2_2020-11-09_3bh_300-prng-1,30_base_hphc_300,300,first-300,231,rng,num-start-471,471,17520,19.64638638496399,True,,True,1,False,1000,True,1.0
./expes/v2_2020-11-09_3bh_300-prng-1,30_base_hphc_300,300,first-300,141,rng,num-start-531,531,17520,23.809671878814697,True,,True,1,False,1000,True,1.0
./expes/v2_2020-11-09_3bh_300-prng-1,30_base_hphc_300,300,first-300,11,rng,num-start-811,811,17520,30.40949511528015,True,,True,1,False,1000,True,1.0
./expes/v2_2020-11-09_3bh_300-prng-1,30_base_hphc_300,300,first-300,1,rng,num-start-611,611,17520,20.790348052978516,True,,True,1,False,1000,True,1.0
./expes/v2_2020-11-09_3bh_300-prng-1,30_base_hphc_300,300,first-300,81,rng,num-start-451,451,17520,20.035095930099487,True,,True,1,False,1000,True,1.0
./expes/v2_2020-11-09_3bh_300-prng-1,30_base_hphc_300,300,first-300,261,rng,num-start-371,371,17520,15.078535318374634,True,,True,1,False,1000,True,1.0
./expes/v2_2020-11-09_3bh_300-prng-1,30_base_hphc_300,300,first-300,111,rng,num-start-111,111,17520,31.27420401573181,True,,True,1,False,1000,True,1.0
./expes/v2_2020-11-09_3bh_300-prng-1,30_base_hphc_300,300,first-300,101,rng,num-start-851,851,17520,34.1264853477478,True,,True,1,False,1000,True,1.0
./expes/v2_2020-11-09_3bh_300-prng-1,30_base_hphc_300,300,first-300,41,rng,num-start-301,301,17520,11.709356307983398,True,,True,1,False,1000,True,1.0
./expes/v2_2020-11-09_3bh_300-prng-1,30_base_hphc_300,300,first-300,291,rng,num-start-131,131,17520,5.206666469573975,True,,True,1,False,1000,True,1.0
./expes/v2_2020-11-09_3bh_300-prng-1,30_base_hphc_300,300,first-300,161,rng,num-start-631,631,17520,26.602290391921997,True,,True,1,False,1000,True,1.0
./expes/v2_2020-11-09_3bh_300-prng-1,30_base_hphc_300,300,first-300,61,rng,num-start-151,151,17520,6.740076303482056,True,,True,1,False,1000,True,1.0
./expes/v2_2020-11-09_3bh_300-prng-1,30_base_hphc_300,300,first-300,171,rng,num-start-351,351,17520,13.681004524230957,True,,True,1,False,1000,True,1.0
./expes/v2_2020-11-09_3bh_300-prng-1,30_base_hphc_300,300,first-300,91,rng,num-start-851,851,17520,38.082563638687134,True,,True,1,False,1000,True,1.0
./expes/v2_2020-11-09_3bh_300-prng-1,30_base_hphc_300,300,first-300,291,rng,num-start-211,211,17520,8.545832633972168,True,,True,1,False,1000,True,1.0
./expes/v2_2020-11-09_3bh_300-prng-1,30_base_hphc_300,300,first-300,111,rng,num-start-91,91,17520,1003.3285415172577,False,,False,0,True,1000,True,0.0
./expes/v2_2020-11-09_3bh_300-prng-1,30_base_hphc_300,300,first-300,91,rng,num-start-881,881,17520,34.2406644821167,True,,True,1,False,1000,True,1.0
./expes/v2_2020-11-09_3bh_300-prng-1,30_base_hphc_300,300,first-300,141,rng,num-start-81,81,17520,1002.8316702842712,False,,False,0,True,1000,True,0.0
./expes/v2_2020-11-09_3bh_300-prng-1,30_base_hphc_300,300,first-300,1,rng,num-start-681,681,17520,23.957059621810913,True,,True,1,False,1000,True,1.0
./expes/v2_2020-11-09_3bh_300-prng-1,30_base_hphc_300,300,first-300,101,rng,num-start-391,391,17520,16.27064871788025,True,,True,1,False,1000,True,1.0
./expes/v2_2020-11-09_3bh_300-prng-1,30_base_hphc_300,300,first-300,1,rng,num-start-271,271,17520,9.567317247390747,True,,True,1,False,1000,True,1.0
./expes/v2_2020-11-09_3bh_300-prng-1,30_base_hphc_300,300,first-300,291,rng,num-start-881,881,17520,31.904440879821777,True,,True,1,False,1000,True,1.0
./expes/v2_2020-11-09_3bh_300-prng-1,30_base_hphc_300,300,first-300,101,rng,num-start-361,361,17520,15.265532732009888,True,,True,1,False,1000,True,1.0
./expes/v2_2020-11-09_3bh_300-prng-1,30_base_hphc_300,300,first-300,161,rng,num-start-361,361,17520,16.27821707725525,True,,True,1,False,1000,True,1.0
./expes/v2_2020-11-09_3bh_300-prng-1,30_base_hphc_300,300,first-300,291,rng,num-start-271,271,17520,10.44226598739624,True,,True,1,False,1000,True,1.0
./expes/v2_2020-11-09_3bh_300-prng-1,30_base_hphc_300,300,first-300,241,rng,num-start-461,461,17520,17.055118083953857,True,,True,1,False,1000,True,1.0
./expes/v2_2020-11-09_3bh_300-prng-1,30_base_hphc_300,300,first-300,131,rng,num-start-391,391,17520,16.868181467056274,True,,True,1,False,1000,True,1.0
./expes/v2_2020-11-09_3bh_300-prng-1,30_base_hphc_300,300,first-300,1,rng,num-start-61,61,17520,2.1089792251586914,True,,True,1,False,1000,True,1.0
./expes/v2_2020-11-09_3bh_300-prng-1,30_base_hphc_300,300,first-300,241,rng,num-start-891,891,17520,36.64988994598389,True,,True,1,False,1000,True,1.0
./expes/v2_2020-11-09_3bh_300-prng-1,30_base_hphc_300,300,first-300,191,rng,num-start-921,921,17520,41.24735069274902,True,,True,1,False,1000,True,1.0
./expes/v2_2020-11-09_3bh_300-prng-1,30_base_hphc_300,300,first-300,151,rng,num-start-541,541,17520,22.458614349365234,True,,True,1,False,1000,True,1.0
./expes/v2_2020-11-09_3bh_300-prng-1,30_base_hphc_300,300,first-300,11,rng,num-start-481,481,17520,19.218904733657837,True,,True,1,False,1000,True,1.0
./expes/v2_2020-11-09_3bh_300-prng-1,30_base_hphc_300,300,first-300,31,rng,num-start-411,411,17520,17.921509742736816,True,,True,1,False,1000,True,1.0
./expes/v2_2020-11-09_3bh_300-prng-1,30_base_hphc_300,300,first-300,121,rng,num-start-691,691,17520,29.419917345046997,True,,True,1,False,1000,True,1.0
./expes/v2_2020-11-09_3bh_300-prng-1,30_base_hphc_300,300,first-300,211,rng,num-start-561,561,17520,23.65353751182556,True,,True,1,False,1000,True,1.0
./expes/v2_2020-11-09_3bh_300-prng-1,30_base_hphc_300,300,first-300,231,rng,num-start-81,81,17520,1002.8853538036346,False,,False,0,True,1000,True,0.0
./expes/v2_2020-11-09_3bh_300-prng-1,30_base_hphc_300,300,first-300,51,rng,num-start-451,451,17520,18.675038814544678,True,,True,1,False,1000,True,1.0
./expes/v2_2020-11-09_3bh_300-prng-1,30_base_hphc_300,300,first-300,31,rng,num-start-591,591,17520,24.109702348709106,True,,True,1,False,1000,True,1.0
./expes/v2_2020-11-09_3bh_300-prng-1,30_base_hphc_300,300,first-300,171,rng,num-start-41,41,17520,1001.3525414466858,False,,False,0,True,1000,True,0.0
./expes/v2_2020-11-09_3bh_300-prng-1,30_base_hphc_300,300,first-300,31,rng,num-start-641,641,17520,26.86009693145752,True,,True,1,False,1000,True,1.0
./expes/v2_2020-11-09_3bh_300-prng-1,30_base_hphc_300,300,first-300,51,rng,num-start-481,481,17520,18.824824810028076,True,,True,1,False,1000,True,1.0
./expes/v2_2020-11-09_3bh_300-prng-1,30_base_hphc_300,300,first-300,251,rng,num-start-261,261,17520,10.158904790878296,True,,True,1,False,1000,True,1.0
./expes/v2_2020-11-09_3bh_300-prng-1,30_base_hphc_300,300,first-300,281,rng,num-start-281,281,17520,10.955753803253174,True,,True,1,False,1000,True,1.0
./expes/v2_2020-11-09_3bh_300-prng-1,30_base_hphc_300,300,first-300,191,rng,num-start-461,461,17520,18.822200536727905,True,,True,1,False,1000,True,1.0
./expes/v2_2020-11-09_3bh_300-prng-1,30_base_hphc_300,300,first-300,91,rng,num-start-971,971,17520,38.7232232093811,True,,True,1,False,1000,True,1.0
./expes/v2_2020-11-09_3bh_300-prng-1,30_base_hphc_300,300,first-300,251,rng,num-start-751,751,17520,28.329807996749878,True,,True,1,False,1000,True,1.0
./expes/v2_2020-11-09_3bh_300-prng-1,30_base_hphc_300,300,first-300,51,rng,num-start-621,621,17520,23.66892099380493,True,,True,1,False,1000,True,1.0
./expes/v2_2020-11-09_3bh_300-prng-1,30_base_hphc_300,300,first-300,131,rng,num-start-901,901,17520,37.37532567977905,True,,True,1,False,1000,True,1.0
./expes/v2_2020-11-09_3bh_300-prng-1,30_base_hphc_300,300,first-300,271,rng,num-start-991,991,17520,36.547438859939575,True,,True,1,False,1000,True,1.0
./expes/v2_2020-11-09_3bh_300-prng-1,30_base_hphc_300,300,first-300,161,rng,num-start-861,861,17520,38.6616849899292,True,,True,1,False,1000,True,1.0
./expes/v2_2020-11-09_3bh_300-prng-1,30_base_hphc_300,300,first-300,211,rng,num-start-551,551,17520,22.389455795288086,True,,True,1,False,1000,True,1.0
./expes/v2_2020-11-09_3bh_300-prng-1,30_base_hphc_300,300,first-300,151,rng,num-start-871,871,17520,39.35695815086365,True,,True,1,False,1000,True,1.0
./expes/v2_2020-11-09_3bh_300-prng-1,30_base_hphc_300,300,first-300,221,rng,num-start-141,141,17520,6.204171419143677,True,,True,1,False,1000,True,1.0
./expes/v2_2020-11-09_3bh_300-prng-1,30_base_hphc_300,300,first-300,51,rng,num-start-681,681,17520,27.26508378982544,True,,True,1,False,1000,True,1.0
./expes/v2_2020-11-09_3bh_300-prng-1,30_base_hphc_300,300,first-300,41,rng,num-start-551,551,17520,23.357439756393433,True,,True,1,False,1000,True,1.0
./expes/v2_2020-11-09_3bh_300-prng-1,30_base_hphc_300,300,first-300,211,rng,num-start-241,241,17520,11.051557779312134,True,,True,1,False,1000,True,1.0
./expes/v2_2020-11-09_3bh_300-prng-1,30_base_hphc_300,300,first-300,211,rng,num-start-741,741,17520,30.84983515739441,True,,True,1,False,1000,True,1.0
./expes/v2_2020-11-09_3bh_300-prng-1,30_base_hphc_300,300,first-300,71,rng,num-start-551,551,17520,23.354548692703247,True,,True,1,False,1000,True,1.0
./expes/v2_2020-11-09_3bh_300-prng-1,30_base_hphc_300,300,first-300,41,rng,num-start-611,611,17520,24.8398220539093,True,,True,1,False,1000,True,1.0
./expes/v2_2020-11-09_3bh_300-prng-1,30_base_hphc_300,300,first-300,31,rng,num-start-111,111,17520,4.860558271408081,True,,True,1,False,1000,True,1.0
./expes/v2_2020-11-09_3bh_300-prng-1,30_base_hphc_300,300,first-300,111,rng,num-start-541,541,17520,22.640863180160522,True,,True,1,False,1000,True,1.0
./expes/v2_2020-11-09_3bh_300-prng-1,30_base_hphc_300,300,first-300,21,rng,num-start-501,501,17520,20.396817445755005,True,,True,1,False,1000,True,1.0
./expes/v2_2020-11-09_3bh_300-prng-1,30_base_hphc_300,300,first-300,11,rng,num-start-831,831,17520,30.592238426208496,True,,True,1,False,1000,True,1.0
./expes/v2_2020-11-09_3bh_300-prng-1,30_base_hphc_300,300,first-300,21,rng,num-start-591,591,17520,23.54836368560791,True,,True,1,False,1000,True,1.0
./expes/v2_2020-11-09_3bh_300-prng-1,30_base_hphc_300,300,first-300,11,rng,num-start-741,741,17520,26.919554233551025,True,,True,1,False,1000,True,1.0
./expes/v2_2020-11-09_3bh_300-prng-1,30_base_hphc_300,300,first-300,131,rng,num-start-161,161,17520,7.039548635482788,True,,True,1,False,1000,True,1.0
./expes/v2_2020-11-09_3bh_300-prng-1,30_base_hphc_300,300,first-300,181,rng,num-start-301,301,17520,13.94332766532898,True,,True,1,False,1000,True,1.0
./expes/v2_2020-11-09_3bh_300-prng-1,30_base_hphc_300,300,first-300,1,rng,num-start-771,771,17520,26.538387775421143,True,,True,1,False,1000,True,1.0
./expes/v2_2020-11-09_3bh_300-prng-1,30_base_hphc_300,300,first-300,41,rng,num-start-661,661,17520,26.58109736442566,True,,True,1,False,1000,True,1.0
./expes/v2_2020-11-09_3bh_300-prng-1,30_base_hphc_300,300,first-300,91,rng,num-start-841,841,17520,37.21286177635193,True,,True,1,False,1000,True,1.0
./expes/v2_2020-11-09_3bh_300-prng-1,30_base_hphc_300,300,first-300,11,rng,num-start-601,601,17520,24.94698977470398,True,,True,1,False,1000,True,1.0
./expes/v2_2020-11-09_3bh_300-prng-1,30_base_hphc_300,300,first-300,31,rng,num-start-381,381,17520,15.268925905227661,True,,True,1,False,1000,True,1.0
./expes/v2_2020-11-09_3bh_300-prng-1,30_base_hphc_300,300,first-300,111,rng,num-start-891,891,17520,40.475125312805176,True,,True,1,False,1000,True,1.0
./expes/v2_2020-11-09_3bh_300-prng-1,30_base_hphc_300,300,first-300,211,rng,num-start-851,851,17520,37.34326386451721,True,,True,1,False,1000,True,1.0
./expes/v2_2020-11-09_3bh_300-prng-1,30_base_hphc_300,300,first-300,191,rng,num-start-191,191,17520,8.872084140777588,True,,True,1,False,1000,True,1.0
./expes/v2_2020-11-09_3bh_300-prng-1,30_base_hphc_300,300,first-300,211,rng,num-start-371,371,17520,15.029465436935425,True,,True,1,False,1000,True,1.0
./expes/v2_2020-11-09_3bh_300-prng-1,30_base_hphc_300,300,first-300,1,rng,num-start-461,461,17520,15.85023021697998,True,,True,1,False,1000,True,1.0
./expes/v2_2020-11-09_3bh_300-prng-1,30_base_hphc_300,300,first-300,71,rng,num-start-71,71,17520,1002.4626128673553,False,,False,0,True,1000,True,0.0
./expes/v2_2020-11-09_3bh_300-prng-1,30_base_hphc_300,300,first-300,91,rng,num-start-921,921,17520,39.237274169921875,True,,True,1,False,1000,True,1.0
./expes/v2_2020-11-09_3bh_300-prng-1,30_base_hphc_300,300,first-300,181,rng,num-start-861,861,17520,35.311317682266235,True,,True,1,False,1000,True,1.0
./expes/v2_2020-11-09_3bh_300-prng-1,30_base_hphc_300,300,first-300,151,rng,num-start-671,671,17520,28.076719999313354,True,,True,1,False,1000,True,1.0
./expes/v2_2020-11-09_3bh_300-prng-1,30_base_hphc_300,300,first-300,61,rng,num-start-961,961,17520,40.16098594665527,True,,True,1,False,1000,True,1.0
./expes/v2_2020-11-09_3bh_300-prng-1,30_base_hphc_300,300,first-300,291,rng,num-start-681,681,17520,27.390297174453735,True,,True,1,False,1000,True,1.0
./expes/v2_2020-11-09_3bh_300-prng-1,30_base_hphc_300,300,first-300,151,rng,num-start-701,701,17520,30.53966188430786,True,,True,1,False,1000,True,1.0
./expes/v2_2020-11-09_3bh_300-prng-1,30_base_hphc_300,300,first-300,131,rng,num-start-361,361,17520,16.000530004501343,True,,True,1,False,1000,True,1.0
./expes/v2_2020-11-09_3bh_300-prng-1,30_base_hphc_300,300,first-300,251,rng,num-start-281,281,17520,11.571887493133545,True,,True,1,False,1000,True,1.0
./expes/v2_2020-11-09_3bh_300-prng-1,30_base_hphc_300,300,first-300,261,rng,num-start-381,381,17520,15.06943392753601,True,,True,1,False,1000,True,1.0
./expes/v2_2020-11-09_3bh_300-prng-1,30_base_hphc_300,300,first-300,161,rng,num-start-801,801,17520,32.69755506515503,True,,True,1,False,1000,True,1.0
./expes/v2_2020-11-09_3bh_300-prng-1,30_base_hphc_300,300,first-300,291,rng,num-start-121,121,17520,5.095563888549805,True,,True,1,False,1000,True,1.0
./expes/v2_2020-11-09_3bh_300-prng-1,30_base_hphc_300,300,first-300,221,rng,num-start-121,121,17520,8.193555355072021,True,,True,1,False,1000,True,1.0
./expes/v2_2020-11-09_3bh_300-prng-1,30_base_hphc_300,300,first-300,201,rng,num-start-841,841,17520,31.91113829612732,True,,True,1,False,1000,True,1.0
./expes/v2_2020-11-09_3bh_300-prng-1,30_base_hphc_300,300,first-300,251,rng,num-start-681,681,17520,28.576400756835938,True,,True,1,False,1000,True,1.0
./expes/v2_2020-11-09_3bh_300-prng-1,30_base_hphc_300,300,first-300,141,rng,num-start-91,91,17520,1003.0214331150055,False,,False,0,True,1000,True,0.0
./expes/v2_2020-11-09_3bh_300-prng-1,30_base_hphc_300,300,first-300,171,rng,num-start-271,271,17520,11.977087020874023,True,,True,1,False,1000,True,1.0
./expes/v2_2020-11-09_3bh_300-prng-1,30_base_hphc_300,300,first-300,101,rng,num-start-651,651,17520,26.9291410446167,True,,True,1,False,1000,True,1.0
./expes/v2_2020-11-09_3bh_300-prng-1,30_base_hphc_300,300,first-300,281,rng,num-start-881,881,17520,36.0246205329895,True,,True,1,False,1000,True,1.0
./expes/v2_2020-11-09_3bh_300-prng-1,30_base_hphc_300,300,first-300,31,rng,num-start-891,891,17520,34.490700244903564,True,,True,1,False,1000,True,1.0
./expes/v2_2020-11-09_3bh_300-prng-1,30_base_hphc_300,300,first-300,41,rng,num-start-601,601,17520,26.06544280052185,True,,True,1,False,1000,True,1.0
./expes/v2_2020-11-09_3bh_300-prng-1,30_base_hphc_300,300,first-300,31,rng,num-start-941,941,17520,34.4935200214386,True,,True,1,False,1000,True,1.0
./expes/v2_2020-11-09_3bh_300-prng-1,30_base_hphc_300,300,first-300,71,rng,num-start-491,491,17520,20.699856758117676,True,,True,1,False,1000,True,1.0
./expes/v2_2020-11-09_3bh_300-prng-1,30_base_hphc_300,300,first-300,161,rng,num-start-631,631,17520,24.808146953582764,True,,True,1,False,1000,True,1.0
./expes/v2_2020-11-09_3bh_300-prng-1,30_base_hphc_300,300,first-300,191,rng,num-start-921,921,17520,38.08912372589111,True,,True,1,False,1000,True,1.0
./expes/v2_2020-11-09_3bh_300-prng-1,30_base_hphc_300,300,first-300,91,rng,num-start-391,391,17520,15.101225137710571,True,,True,1,False,1000,True,1.0
./expes/v2_2020-11-09_3bh_300-prng-1,30_base_hphc_300,300,first-300,11,rng,num-start-451,451,17520,17.19436287879944,True,,True,1,False,1000,True,1.0
./expes/v2_2020-11-09_3bh_300-prng-1,30_base_hphc_300,300,first-300,251,rng,num-start-51,51,17520,1001.7655973434448,False,,False,0,True,1000,True,0.0
./expes/v2_2020-11-09_3bh_300-prng-1,30_base_hphc_300,300,first-300,291,rng,num-start-631,631,17520,23.786843061447144,True,,True,1,False,1000,True,1.0
./expes/v2_2020-11-09_3bh_300-prng-1,30_base_hphc_300,300,first-300,41,rng,num-start-271,271,17520,11.055704355239868,True,,True,1,False,1000,True,1.0
./expes/v2_2020-11-09_3bh_300-prng-1,30_base_hphc_300,300,first-300,251,rng,num-start-441,441,17520,16.49276089668274,True,,True,1,False,1000,True,1.0
./expes/v2_2020-11-09_3bh_300-prng-1,30_base_hphc_300,300,first-300,271,rng,num-start-311,311,17520,11.898537158966064,True,,True,1,False,1000,True,1.0
./expes/v2_2020-11-09_3bh_300-prng-1,30_base_hphc_300,300,first-300,271,rng,num-start-721,721,17520,26.653104782104492,True,,True,1,False,1000,True,1.0
./expes/v2_2020-11-09_3bh_300-prng-1,30_base_hphc_300,300,first-300,111,rng,num-start-301,301,17520,11.93834900856018,True,,True,1,False,1000,True,1.0
./expes/v2_2020-11-09_3bh_300-prng-1,30_base_hphc_300,300,first-300,1,rng,num-start-631,631,17520,21.028939247131348,True,,True,1,False,1000,True,1.0
./expes/v2_2020-11-09_3bh_300-prng-1,30_base_hphc_300,300,first-300,161,rng,num-start-111,111,17520,213.19365334510803,True,,True,1,False,1000,True,1.0
./expes/v2_2020-11-09_3bh_300-prng-1,30_base_hphc_300,300,first-300,81,rng,num-start-1,1,17520,0.06166863441467285,False,,False,2,False,1000,True,1.0
./expes/v2_2020-11-09_3bh_300-prng-1,30_base_hphc_300,300,first-300,251,rng,num-start-291,291,17520,10.775468349456787,True,,True,1,False,1000,True,1.0
./expes/v2_2020-11-09_3bh_300-prng-1,30_base_hphc_300,300,first-300,201,rng,num-start-521,521,17520,19.869295120239258,True,,True,1,False,1000,True,1.0
./expes/v2_2020-11-09_3bh_300-prng-1,30_base_hphc_300,300,first-300,31,rng,num-start-81,81,17520,4.904245853424072,True,,True,1,False,1000,True,1.0
./expes/v2_2020-11-09_3bh_300-prng-1,30_base_hphc_300,300,first-300,281,rng,num-start-371,371,17520,13.73846960067749,True,,True,1,False,1000,True,1.0
./expes/v2_2020-11-09_3bh_300-prng-1,30_base_hphc_300,300,first-300,171,rng,num-start-301,301,17520,14.825021982192993,True,,True,1,False,1000,True,1.0
./expes/v2_2020-11-09_3bh_300-prng-1,30_base_hphc_300,300,first-300,221,rng,num-start-301,301,17520,12.747471332550049,True,,True,1,False,1000,True,1.0
./expes/v2_2020-11-09_3bh_300-prng-1,30_base_hphc_300,300,first-300,221,rng,num-start-1,1,17520,0.05969071388244629,False,,False,2,False,1000,True,1.0
./expes/v2_2020-11-09_3bh_300-prng-1,30_base_hphc_300,300,first-300,51,rng,num-start-551,551,17520,23.561291694641113,True,,True,1,False,1000,True,1.0
./expes/v2_2020-11-09_3bh_300-prng-1,30_base_hphc_300,300,first-300,241,rng,num-start-151,151,17520,6.535604238510132,True,,True,1,False,1000,True,1.0
./expes/v2_2020-11-09_3bh_300-prng-1,30_base_hphc_300,300,first-300,111,rng,num-start-621,621,17520,27.01546549797058,True,,True,1,False,1000,True,1.0
./expes/v2_2020-11-09_3bh_300-prng-1,30_base_hphc_300,300,first-300,131,rng,num-start-971,971,17520,43.22539043426514,True,,True,1,False,1000,True,1.0
./expes/v2_2020-11-09_3bh_300-prng-1,30_base_hphc_300,300,first-300,191,rng,num-start-71,71,17520,1002.6009285449982,False,,False,0,True,1000,True,0.0
./expes/v2_2020-11-09_3bh_300-prng-1,30_base_hphc_300,300,first-300,91,rng,num-start-821,821,17520,35.40212821960449,True,,True,1,False,1000,True,1.0
./expes/v2_2020-11-09_3bh_300-prng-1,30_base_hphc_300,300,first-300,131,rng,num-start-471,471,17520,17.495570182800293,True,,True,1,False,1000,True,1.0
./expes/v2_2020-11-09_3bh_300-prng-1,30_base_hphc_300,300,first-300,11,rng,num-start-11,11,17520,1000.4101173877716,False,,False,1,True,1000,True,0.0
./expes/v2_2020-11-09_3bh_300-prng-1,30_base_hphc_300,300,first-300,241,rng,num-start-291,291,17520,12.53711986541748,True,,True,1,False,1000,True,1.0
./expes/v2_2020-11-09_3bh_300-prng-1,30_base_hphc_300,300,first-300,11,rng,num-start-611,611,17520,23.545679092407227,True,,True,1,False,1000,True,1.0
./expes/v2_2020-11-09_3bh_300-prng-1,30_base_hphc_300,300,first-300,181,rng,num-start-281,281,17520,13.544256210327148,True,,True,1,False,1000,True,1.0
./expes/v2_2020-11-09_3bh_300-prng-1,30_base_hphc_300,300,first-300,81,rng,num-start-431,431,17520,19.011732578277588,True,,True,1,False,1000,True,1.0
