expe,clients,clients_size,clients_subset,agg_size,method,days,days_size,days_total,time,valid,valid_sum,success,nsols,wall_hit,wall_time,pooled,valid_sums
./expes/v2_2020-11-09_3bh_300-prng-1,30_base_hphc_300,300,first-300,251,rng,num-start-531,531,17520,18.200733423233032,True,,True,1,False,1000,True,1.0
./expes/v2_2020-11-09_3bh_300-prng-1,30_base_hphc_300,300,first-300,91,rng,num-start-61,61,17520,1001.8735451698303,False,,False,0,True,1000,True,0.0
./expes/v2_2020-11-09_3bh_300-prng-1,30_base_hphc_300,300,first-300,261,rng,num-start-261,261,17520,9.10849380493164,True,,True,1,False,1000,True,1.0
./expes/v2_2020-11-09_3bh_300-prng-1,30_base_hphc_300,300,first-300,191,rng,num-start-641,641,17520,24.097009897232056,True,,True,1,False,1000,True,1.0
./expes/v2_2020-11-09_3bh_300-prng-1,30_base_hphc_300,300,first-300,201,rng,num-start-401,401,17520,14.961267709732056,True,,True,1,False,1000,True,1.0
./expes/v2_2020-11-09_3bh_300-prng-1,30_base_hphc_300,300,first-300,291,rng,num-start-501,501,17520,16.455399751663208,True,,True,1,False,1000,True,1.0
./expes/v2_2020-11-09_3bh_300-prng-1,30_base_hphc_300,300,first-300,121,rng,num-start-521,521,17520,19.398651599884033,True,,True,1,False,1000,True,1.0
./expes/v2_2020-11-09_3bh_300-prng-1,30_base_hphc_300,300,first-300,81,rng,num-start-181,181,17520,7.204748630523682,True,,True,1,False,1000,True,1.0
./expes/v2_2020-11-09_3bh_300-prng-1,30_base_hphc_300,300,first-300,141,rng,num-start-551,551,17520,22.363792419433594,True,,True,1,False,1000,True,1.0
./expes/v2_2020-11-09_3bh_300-prng-1,30_base_hphc_300,300,first-300,241,rng,num-start-41,41,17520,1001.3504486083984,False,,False,0,True,1000,True,0.0
./expes/v2_2020-11-09_3bh_300-prng-1,30_base_hphc_300,300,first-300,111,rng,num-start-911,911,17520,34.708828926086426,True,,True,1,False,1000,True,1.0
./expes/v2_2020-11-09_3bh_300-prng-1,30_base_hphc_300,300,first-300,151,rng,num-start-681,681,17520,29.354995012283325,True,,True,1,False,1000,True,1.0
./expes/v2_2020-11-09_3bh_300-prng-1,30_base_hphc_300,300,first-300,51,rng,num-start-641,641,17520,24.353934288024902,True,,True,1,False,1000,True,1.0
./expes/v2_2020-11-09_3bh_300-prng-1,30_base_hphc_300,300,first-300,81,rng,num-start-391,391,17520,14.566798210144043,True,,True,1,False,1000,True,1.0
./expes/v2_2020-11-09_3bh_300-prng-1,30_base_hphc_300,300,first-300,131,rng,num-start-671,671,17520,27.720925331115723,True,,True,1,False,1000,True,1.0
./expes/v2_2020-11-09_3bh_300-prng-1,30_base_hphc_300,300,first-300,291,rng,num-start-771,771,17520,25.67195177078247,True,,True,1,False,1000,True,1.0
./expes/v2_2020-11-09_3bh_300-prng-1,30_base_hphc_300,300,first-300,171,rng,num-start-301,301,17520,11.986294269561768,True,,True,1,False,1000,True,1.0
./expes/v2_2020-11-09_3bh_300-prng-1,30_base_hphc_300,300,first-300,191,rng,num-start-101,101,17520,760.9311892986298,True,,True,1,False,1000,True,1.0
./expes/v2_2020-11-09_3bh_300-prng-1,30_base_hphc_300,300,first-300,101,rng,num-start-61,61,17520,1001.9751873016357,False,,False,0,True,1000,True,0.0
./expes/v2_2020-11-09_3bh_300-prng-1,30_base_hphc_300,300,first-300,1,rng,num-start-741,741,17520,24.4741792678833,True,,True,1,False,1000,True,1.0
./expes/v2_2020-11-09_3bh_300-prng-1,30_base_hphc_300,300,first-300,91,rng,num-start-421,421,17520,16.102598905563354,True,,True,1,False,1000,True,1.0
./expes/v2_2020-11-09_3bh_300-prng-1,30_base_hphc_300,300,first-300,81,rng,num-start-501,501,17520,19.083757877349854,True,,True,1,False,1000,True,1.0
./expes/v2_2020-11-09_3bh_300-prng-1,30_base_hphc_300,300,first-300,91,rng,num-start-981,981,17520,38.32903742790222,True,,True,1,False,1000,True,1.0
./expes/v2_2020-11-09_3bh_300-prng-1,30_base_hphc_300,300,first-300,221,rng,num-start-811,811,17520,30.749055862426758,True,,True,1,False,1000,True,1.0
./expes/v2_2020-11-09_3bh_300-prng-1,30_base_hphc_300,300,first-300,1,rng,num-start-71,71,17520,2.3322606086730957,True,,True,1,False,1000,True,1.0
./expes/v2_2020-11-09_3bh_300-prng-1,30_base_hphc_300,300,first-300,291,rng,num-start-581,581,17520,22.126402139663696,True,,True,1,False,1000,True,1.0
./expes/v2_2020-11-09_3bh_300-prng-1,30_base_hphc_300,300,first-300,261,rng,num-start-521,521,17520,19.445168256759644,True,,True,1,False,1000,True,1.0
./expes/v2_2020-11-09_3bh_300-prng-1,30_base_hphc_300,300,first-300,271,rng,num-start-581,581,17520,21.73555588722229,True,,True,1,False,1000,True,1.0
./expes/v2_2020-11-09_3bh_300-prng-1,30_base_hphc_300,300,first-300,151,rng,num-start-551,551,17520,22.223921060562134,True,,True,1,False,1000,True,1.0
./expes/v2_2020-11-09_3bh_300-prng-1,30_base_hphc_300,300,first-300,221,rng,num-start-381,381,17520,14.284082651138306,True,,True,1,False,1000,True,1.0
./expes/v2_2020-11-09_3bh_300-prng-1,30_base_hphc_300,300,first-300,271,rng,num-start-331,331,17520,12.135668516159058,True,,True,1,False,1000,True,1.0
./expes/v2_2020-11-09_3bh_300-prng-1,30_base_hphc_300,300,first-300,31,rng,num-start-441,441,17520,16.648808240890503,True,,True,1,False,1000,True,1.0
./expes/v2_2020-11-09_3bh_300-prng-1,30_base_hphc_300,300,first-300,91,rng,num-start-741,741,17520,29.008930206298828,True,,True,1,False,1000,True,1.0
./expes/v2_2020-11-09_3bh_300-prng-1,30_base_hphc_300,300,first-300,71,rng,num-start-301,301,17520,12.23887014389038,True,,True,1,False,1000,True,1.0
./expes/v2_2020-11-09_3bh_300-prng-1,30_base_hphc_300,300,first-300,101,rng,num-start-151,151,17520,6.475709676742554,True,,True,1,False,1000,True,1.0
./expes/v2_2020-11-09_3bh_300-prng-1,30_base_hphc_300,300,first-300,111,rng,num-start-721,721,17520,28.051082849502563,True,,True,1,False,1000,True,1.0
./expes/v2_2020-11-09_3bh_300-prng-1,30_base_hphc_300,300,first-300,11,rng,num-start-991,991,17520,36.77295184135437,True,,True,1,False,1000,True,1.0
./expes/v2_2020-11-09_3bh_300-prng-1,30_base_hphc_300,300,first-300,261,rng,num-start-981,981,17520,36.98730134963989,True,,True,1,False,1000,True,1.0
./expes/v2_2020-11-09_3bh_300-prng-1,30_base_hphc_300,300,first-300,51,rng,num-start-871,871,17520,32.22118663787842,True,,True,1,False,1000,True,1.0
./expes/v2_2020-11-09_3bh_300-prng-1,30_base_hphc_300,300,first-300,111,rng,num-start-591,591,17520,24.21217966079712,True,,True,1,False,1000,True,1.0
./expes/v2_2020-11-09_3bh_300-prng-1,30_base_hphc_300,300,first-300,11,rng,num-start-751,751,17520,26.15659260749817,True,,True,1,False,1000,True,1.0
./expes/v2_2020-11-09_3bh_300-prng-1,30_base_hphc_300,300,first-300,201,rng,num-start-451,451,17520,17.661147832870483,True,,True,1,False,1000,True,1.0
./expes/v2_2020-11-09_3bh_300-prng-1,30_base_hphc_300,300,first-300,281,rng,num-start-21,21,17520,1000.8148794174194,False,,False,0,True,1000,True,0.0
./expes/v2_2020-11-09_3bh_300-prng-1,30_base_hphc_300,300,first-300,281,rng,num-start-741,741,17520,25.347688913345337,True,,True,1,False,1000,True,1.0
./expes/v2_2020-11-09_3bh_300-prng-1,30_base_hphc_300,300,first-300,1,rng,num-start-631,631,17520,19.85508441925049,True,,True,1,False,1000,True,1.0
./expes/v2_2020-11-09_3bh_300-prng-1,30_base_hphc_300,300,first-300,61,rng,num-start-931,931,17520,33.595574140548706,True,,True,1,False,1000,True,1.0
./expes/v2_2020-11-09_3bh_300-prng-1,30_base_hphc_300,300,first-300,181,rng,num-start-981,981,17520,38.013962507247925,True,,True,1,False,1000,True,1.0
./expes/v2_2020-11-09_3bh_300-prng-1,30_base_hphc_300,300,first-300,201,rng,num-start-971,971,17520,35.94799542427063,True,,True,1,False,1000,True,1.0
./expes/v2_2020-11-09_3bh_300-prng-1,30_base_hphc_300,300,first-300,241,rng,num-start-191,191,17520,7.478410243988037,True,,True,1,False,1000,True,1.0
./expes/v2_2020-11-09_3bh_300-prng-1,30_base_hphc_300,300,first-300,251,rng,num-start-151,151,17520,5.711231708526611,True,,True,1,False,1000,True,1.0
./expes/v2_2020-11-09_3bh_300-prng-1,30_base_hphc_300,300,first-300,151,rng,num-start-11,11,17520,1000.3781661987305,False,,False,0,True,1000,True,0.0
./expes/v2_2020-11-09_3bh_300-prng-1,30_base_hphc_300,300,first-300,101,rng,num-start-691,691,17520,26.926945209503174,True,,True,1,False,1000,True,1.0
./expes/v2_2020-11-09_3bh_300-prng-1,30_base_hphc_300,300,first-300,31,rng,num-start-311,311,17520,11.403696775436401,True,,True,1,False,1000,True,1.0
./expes/v2_2020-11-09_3bh_300-prng-1,30_base_hphc_300,300,first-300,261,rng,num-start-631,631,17520,23.32400155067444,True,,True,1,False,1000,True,1.0
./expes/v2_2020-11-09_3bh_300-prng-1,30_base_hphc_300,300,first-300,51,rng,num-start-161,161,17520,6.2923173904418945,True,,True,1,False,1000,True,1.0
./expes/v2_2020-11-09_3bh_300-prng-1,30_base_hphc_300,300,first-300,161,rng,num-start-361,361,17520,13.742109775543213,True,,True,1,False,1000,True,1.0
./expes/v2_2020-11-09_3bh_300-prng-1,30_base_hphc_300,300,first-300,271,rng,num-start-81,81,17520,3.963844060897827,True,,True,1,False,1000,True,1.0
./expes/v2_2020-11-09_3bh_300-prng-1,30_base_hphc_300,300,first-300,11,rng,num-start-221,221,17520,8.423680067062378,True,,True,1,False,1000,True,1.0
./expes/v2_2020-11-09_3bh_300-prng-1,30_base_hphc_300,300,first-300,21,rng,num-start-41,41,17520,4.29931378364563,True,,True,1,False,1000,True,1.0
./expes/v2_2020-11-09_3bh_300-prng-1,30_base_hphc_300,300,first-300,121,rng,num-start-81,81,17520,1002.6355044841766,False,,False,0,True,1000,True,0.0
./expes/v2_2020-11-09_3bh_300-prng-1,30_base_hphc_300,300,first-300,141,rng,num-start-571,571,17520,22.35644555091858,True,,True,1,False,1000,True,1.0
./expes/v2_2020-11-09_3bh_300-prng-1,30_base_hphc_300,300,first-300,41,rng,num-start-681,681,17520,29.878812551498413,True,,True,1,False,1000,True,1.0
./expes/v2_2020-11-09_3bh_300-prng-1,30_base_hphc_300,300,first-300,31,rng,num-start-121,121,17520,4.5231406688690186,True,,True,1,False,1000,True,1.0
./expes/v2_2020-11-09_3bh_300-prng-1,30_base_hphc_300,300,first-300,271,rng,num-start-361,361,17520,12.216203927993774,True,,True,1,False,1000,True,1.0
./expes/v2_2020-11-09_3bh_300-prng-1,30_base_hphc_300,300,first-300,81,rng,num-start-31,31,17520,1000.9360976219177,False,,False,0,True,1000,True,0.0
./expes/v2_2020-11-09_3bh_300-prng-1,30_base_hphc_300,300,first-300,41,rng,num-start-701,701,17520,23.808379650115967,True,,True,1,False,1000,True,1.0
./expes/v2_2020-11-09_3bh_300-prng-1,30_base_hphc_300,300,first-300,141,rng,num-start-921,921,17520,34.677056312561035,True,,True,1,False,1000,True,1.0
./expes/v2_2020-11-09_3bh_300-prng-1,30_base_hphc_300,300,first-300,101,rng,num-start-601,601,17520,23.461947202682495,True,,True,1,False,1000,True,1.0
./expes/v2_2020-11-09_3bh_300-prng-1,30_base_hphc_300,300,first-300,101,rng,num-start-451,451,17520,17.488528728485107,True,,True,1,False,1000,True,1.0
./expes/v2_2020-11-09_3bh_300-prng-1,30_base_hphc_300,300,first-300,221,rng,num-start-451,451,17520,16.696531295776367,True,,True,1,False,1000,True,1.0
./expes/v2_2020-11-09_3bh_300-prng-1,30_base_hphc_300,300,first-300,211,rng,num-start-851,851,17520,32.364826679229736,True,,True,1,False,1000,True,1.0
./expes/v2_2020-11-09_3bh_300-prng-1,30_base_hphc_300,300,first-300,31,rng,num-start-11,11,17520,1000.351836681366,False,,False,0,True,1000,True,0.0
./expes/v2_2020-11-09_3bh_300-prng-1,30_base_hphc_300,300,first-300,251,rng,num-start-691,691,17520,25.30238103866577,True,,True,1,False,1000,True,1.0
./expes/v2_2020-11-09_3bh_300-prng-1,30_base_hphc_300,300,first-300,181,rng,num-start-991,991,17520,37.40393924713135,True,,True,1,False,1000,True,1.0
./expes/v2_2020-11-09_3bh_300-prng-1,30_base_hphc_300,300,first-300,121,rng,num-start-1,1,17520,0.05996823310852051,False,,False,2,False,1000,True,1.0
./expes/v2_2020-11-09_3bh_300-prng-1,30_base_hphc_300,300,first-300,11,rng,num-start-651,651,17520,22.207821130752563,True,,True,1,False,1000,True,1.0
./expes/v2_2020-11-09_3bh_300-prng-1,30_base_hphc_300,300,first-300,271,rng,num-start-991,991,17520,34.467313289642334,True,,True,1,False,1000,True,1.0
