expe,clients,clients_size,clients_subset,agg_size,agg_size_pc,method,days,days_size,days_total,noise_method,time,valid,valid_sum,success,score_avg,score_min,score_max,nsols,oracle,wall_hit,wall_time,pooled,pool_size,uuid,infeasible,optimal,valid_sums
./expes/v2_2021-03-19_issda-30_2000-prng-1-w5-p2,30_issda-2000,2000,first-2000,200,10,rng,num-start-2000,2000,25726,classic,1496.1950130462646,True,,True,1.0,1.0,1.0,1,"['4', '5', '12', '19', '26', '45', '46', '53', '59', '60', '61', '63', '71', '90', '115', '130', '178', '193', '205', '210', '222', '242', '248', '265', '276', '336', '346', '349', '355', '381', '389', '409', '410', '421', '430', '444', '449', '455', '465', '469', '473', '476', '478', '498', '523', '546', '552', '582', '594', '608', '622', '632', '651', '682', '705', '708', '709', '724', '731', '747', '752', '759', '768', '778', '781', '786', '799', '806', '807', '828', '829', '847', '849', '853', '865', '873', '887', '897', '899', '913', '921', '941', '942', '962', '968', '984', '986', '994', '1000', '1003', '1015', '1016', '1023', '1026', '1029', '1034', '1035', '1040', '1042', '1050', '1053', '1063', '1067', '1081', '1106', '1109', '1123', '1124', '1133', '1136', '1140', '1150', '1166', '1168', '1184', '1185', '1204', '1207', '1211', '1215', '1245', '1248', '1260', '1289', '1316', '1326', '1331', '1335', '1351', '1360', '1362', '1373', '1382', '1387', '1406', '1426', '1440', '1441', '1457', '1478', '1483', '1487', '1494', '1501', '1512', '1517', '1522', '1524', '1559', '1562', '1565', '1572', '1579', '1589', '1593', '1595', '1605', '1616', '1634', '1643', '1644', '1658', '1666', '1681', '1700', '1712', '1716', '1721', '1734', '1736', '1738', '1748', '1756', '1762', '1782', '1805', '1808', '1815', '1830', '1835', '1847', '1864', '1865', '1877', '1885', '1889', '1898', '1918', '1922', '1924', '1927', '1928', '1936', '1946', '1951', '1956', '1961', '1981', '1985', '1994']",False,5000,True,2,e1b37c6e0f,0.0,1.0,1.0
./expes/v2_2021-03-19_issda-30_2000-prng-1-w5-p2,30_issda-2000,2000,first-2000,500,25,rng,num-start-1600,1600,25726,classic,1277.208866596222,True,,True,1.0,1.0,1.0,1,"['1', '10', '13', '20', '26', '27', '31', '35', '38', '42', '45', '59', '62', '63', '64', '66', '67', '68', '70', '76', '78', '82', '93', '94', '103', '107', '111', '117', '121', '122', '123', '126', '128', '131', '142', '152', '153', '154', '156', '157', '159', '166', '172', '176', '181', '183', '184', '190', '191', '192', '193', '197', '200', '206', '216', '230', '234', '235', '240', '245', '246', '253', '258', '260', '261', '263', '276', '278', '280', '281', '283', '292', '296', '297', '299', '306', '308', '310', '317', '323', '324', '330', '334', '335', '337', '346', '347', '353', '355', '365', '374', '377', '380', '381', '385', '386', '387', '394', '395', '396', '397', '402', '404', '406', '408', '412', '414', '429', '430', '439', '454', '457', '461', '462', '464', '476', '479', '489', '493', '499', '502', '503', '512', '513', '515', '522', '523', '524', '525', '536', '544', '545', '549', '552', '557', '559', '562', '565', '567', '569', '574', '577', '586', '588', '593', '596', '597', '598', '602', '622', '624', '627', '640', '649', '652', '655', '656', '663', '667', '675', '678', '682', '688', '689', '704', '718', '732', '738', '739', '740', '741', '742', '745', '751', '752', '753', '759', '760', '761', '763', '765', '768', '771', '773', '774', '778', '779', '781', '788', '792', '796', '798', '815', '816', '819', '834', '838', '840', '841', '848', '859', '864', '865', '867', '870', '872', '874', '881', '883', '887', '897', '901', '903', '904', '909', '910', '912', '914', '916', '921', '925', '926', '948', '951', '957', '961', '964', '965', '968', '969', '973', '978', '979', '981', '982', '991', '994', '995', '997', '999', '1000', '1001', '1002', '1007', '1008', '1013', '1018', '1019', '1024', '1025', '1029', '1030', '1032', '1039', '1055', '1059', '1060', '1066', '1070', '1075', '1076', '1077', '1078', '1080', '1081', '1088', '1097', '1102', '1103', '1105', '1107', '1112', '1114', '1121', '1129', '1130', '1134', '1143', '1144', '1147', '1149', '1154', '1156', '1158', '1165', '1166', '1167', '1173', '1175', '1176', '1180', '1187', '1198', '1202', '1206', '1207', '1208', '1213', '1217', '1220', '1224', '1233', '1234', '1236', '1239', '1243', '1246', '1250', '1254', '1257', '1263', '1266', '1267', '1269', '1271', '1278', '1281', '1282', '1287', '1289', '1293', '1298', '1300', '1301', '1306', '1308', '1310', '1321', '1322', '1323', '1324', '1328', '1333', '1334', '1340', '1343', '1345', '1351', '1355', '1356', '1358', '1366', '1369', '1373', '1375', '1380', '1385', '1390', '1391', '1394', '1395', '1397', '1401', '1405', '1409', '1414', '1415', '1416', '1421', '1423', '1425', '1430', '1433', '1436', '1437', '1438', '1446', '1451', '1457', '1460', '1462', '1463', '1465', '1468', '1472', '1473', '1478', '1480', '1483', '1484', '1493', '1494', '1495', '1499', '1505', '1514', '1516', '1522', '1526', '1527', '1529', '1537', '1539', '1548', '1551', '1555', '1556', '1557', '1562', '1564', '1568', '1578', '1585', '1592', '1594', '1595', '1596', '1603', '1606', '1611', '1613', '1620', '1621', '1625', '1631', '1632', '1639', '1643', '1646', '1649', '1650', '1651', '1652', '1667', '1671', '1672', '1673', '1676', '1684', '1696', '1703', '1706', '1709', '1718', '1722', '1730', '1731', '1741', '1748', '1751', '1758', '1760', '1770', '1773', '1783', '1785', '1787', '1795', '1801', '1803', '1813', '1822', '1828', '1830', '1831', '1843', '1849', '1853', '1860', '1862', '1863', '1865', '1867', '1870', '1871', '1877', '1883', '1884', '1889', '1891', '1893', '1899', '1900', '1911', '1914', '1919', '1922', '1925', '1927', '1933', '1936', '1941', '1943', '1946', '1948', '1949', '1950', '1963', '1971', '1976', '1977', '1978', '1979', '1985', '1987', '1989', '1992', '1995', '1997', '2000']",False,5000,True,2,ac061da5cb,0.0,1.0,1.0
./expes/v2_2021-03-19_issda-30_2000-prng-1-w5-p2,30_issda-2000,2000,first-2000,1000,50,rng,num-start-2000,2000,25726,classic,2427.524142742157,True,,True,1.0,1.0,1.0,1,"['2', '3', '7', '8', '11', '12', '13', '14', '15', '16', '17', '18', '19', '20', '21', '23', '24', '25', '26', '27', '29', '31', '32', '35', '36', '38', '40', '42', '43', '44', '46', '49', '53', '54', '55', '56', '58', '59', '60', '61', '62', '68', '70', '71', '74', '77', '80', '84', '85', '86', '87', '89', '97', '100', '102', '104', '105', '106', '107', '108', '109', '110', '111', '113', '116', '117', '119', '120', '121', '122', '123', '124', '125', '129', '130', '131', '132', '133', '134', '135', '136', '137', '141', '142', '143', '147', '148', '149', '152', '153', '155', '156', '157', '161', '162', '164', '166', '167', '168', '170', '171', '172', '173', '174', '176', '178', '179', '180', '181', '182', '183', '188', '189', '191', '192', '193', '194', '197', '198', '201', '202', '203', '204', '205', '209', '210', '212', '213', '217', '218', '221', '223', '226', '227', '228', '229', '230', '239', '242', '243', '244', '246', '247', '249', '251', '253', '263', '264', '266', '269', '271', '272', '273', '275', '276', '277', '282', '283', '284', '285', '288', '289', '292', '295', '296', '298', '301', '304', '305', '306', '307', '309', '311', '312', '319', '322', '323', '326', '329', '330', '331', '332', '333', '334', '335', '337', '339', '341', '345', '346', '347', '348', '350', '351', '352', '354', '355', '360', '361', '362', '364', '365', '367', '371', '372', '373', '374', '375', '377', '379', '382', '383', '387', '388', '390', '391', '393', '394', '397', '398', '400', '402', '405', '406', '408', '409', '410', '411', '412', '414', '416', '420', '421', '423', '424', '428', '429', '430', '431', '432', '433', '438', '442', '444', '452', '453', '455', '456', '457', '459', '460', '462', '466', '471', '473', '474', '476', '477', '482', '484', '485', '487', '488', '496', '497', '498', '499', '503', '507', '509', '514', '515', '519', '520', '522', '523', '524', '526', '527', '530', '531', '532', '533', '535', '538', '539', '540', '543', '546', '547', '548', '550', '552', '553', '557', '559', '562', '564', '565', '567', '569', '571', '576', '578', '581', '583', '584', '585', '589', '590', '595', '596', '597', '599', '601', '603', '605', '607', '610', '615', '616', '617', '620', '623', '625', '626', '627', '630', '631', '633', '636', '638', '642', '644', '645', '646', '650', '651', '653', '654', '657', '659', '661', '662', '663', '664', '666', '667', '673', '674', '675', '676', '677', '678', '681', '684', '685', '687', '688', '689', '691', '692', '693', '694', '697', '698', '700', '706', '709', '711', '712', '714', '715', '723', '724', '727', '732', '734', '735', '736', '744', '746', '747', '748', '749', '750', '753', '754', '757', '758', '761', '763', '764', '765', '766', '767', '771', '776', '777', '780', '782', '785', '786', '789', '791', '795', '796', '797', '798', '799', '806', '808', '810', '811', '813', '816', '817', '818', '819', '822', '824', '825', '826', '827', '830', '832', '833', '835', '836', '837', '838', '840', '843', '846', '850', '852', '853', '854', '855', '859', '861', '863', '864', '866', '867', '868', '870', '871', '873', '875', '878', '881', '888', '892', '893', '894', '896', '897', '899', '900', '901', '903', '906', '910', '916', '918', '920', '923', '925', '926', '928', '929', '930', '933', '934', '936', '937', '940', '942', '946', '947', '949', '950', '951', '952', '956', '958', '962', '964', '965', '969', '971', '973', '974', '977', '978', '980', '981', '984', '985', '987', '988', '1001', '1004', '1007', '1008', '1010', '1013', '1016', '1017', '1018', '1019', '1021', '1024', '1026', '1028', '1029', '1030', '1035', '1036', '1037', '1041', '1042', '1044', '1045', '1046', '1047', '1050', '1051', '1053', '1056', '1057', '1059', '1060', '1061', '1062', '1063', '1064', '1066', '1070', '1071', '1072', '1073', '1075', '1077', '1079', '1080', '1083', '1084', '1088', '1089', '1091', '1092', '1093', '1097', '1098', '1100', '1101', '1102', '1106', '1110', '1111', '1113', '1114', '1115', '1118', '1119', '1120', '1121', '1124', '1126', '1128', '1132', '1133', '1136', '1137', '1139', '1141', '1142', '1146', '1148', '1151', '1153', '1154', '1156', '1157', '1158', '1159', '1160', '1162', '1165', '1168', '1169', '1173', '1174', '1176', '1177', '1179', '1183', '1185', '1186', '1187', '1188', '1190', '1191', '1193', '1195', '1197', '1198', '1199', '1202', '1204', '1205', '1206', '1209', '1210', '1212', '1213', '1215', '1223', '1224', '1225', '1228', '1230', '1231', '1235', '1238', '1239', '1240', '1241', '1242', '1243', '1245', '1246', '1247', '1248', '1249', '1251', '1252', '1253', '1254', '1255', '1256', '1262', '1263', '1264', '1275', '1280', '1281', '1282', '1283', '1284', '1289', '1290', '1295', '1300', '1303', '1305', '1308', '1309', '1312', '1315', '1317', '1319', '1320', '1322', '1323', '1325', '1326', '1327', '1328', '1330', '1334', '1338', '1344', '1347', '1349', '1350', '1352', '1357', '1358', '1359', '1360', '1361', '1362', '1363', '1364', '1367', '1368', '1370', '1371', '1372', '1373', '1375', '1377', '1381', '1385', '1386', '1387', '1389', '1390', '1391', '1393', '1394', '1395', '1396', '1399', '1400', '1402', '1403', '1405', '1406', '1409', '1410', '1414', '1415', '1418', '1419', '1421', '1423', '1424', '1426', '1427', '1428', '1429', '1432', '1433', '1434', '1435', '1436', '1438', '1439', '1441', '1442', '1445', '1446', '1449', '1450', '1451', '1452', '1453', '1454', '1455', '1457', '1458', '1461', '1464', '1466', '1468', '1469', '1470', '1472', '1474', '1476', '1481', '1483', '1485', '1487', '1489', '1490', '1491', '1492', '1493', '1495', '1501', '1503', '1508', '1510', '1511', '1513', '1518', '1520', '1522', '1523', '1524', '1526', '1527', '1528', '1529', '1531', '1532', '1533', '1540', '1541', '1542', '1545', '1546', '1551', '1556', '1558', '1559', '1560', '1561', '1564', '1565', '1566', '1567', '1568', '1572', '1573', '1574', '1580', '1581', '1582', '1583', '1584', '1585', '1586', '1587', '1589', '1592', '1593', '1594', '1595', '1597', '1598', '1599', '1604', '1606', '1610', '1611', '1618', '1625', '1628', '1629', '1630', '1631', '1634', '1636', '1637', '1638', '1639', '1642', '1645', '1649', '1651', '1653', '1654', '1656', '1657', '1658', '1659', '1669', '1670', '1679', '1681', '1682', '1684', '1686', '1688', '1702', '1703', '1704', '1705', '1706', '1708', '1709', '1710', '1713', '1715', '1719', '1720', '1721', '1724', '1728', '1730', '1731', '1732', '1733', '1734', '1738', '1739', '1741', '1743', '1744', '1745', '1746', '1749', '1755', '1757', '1760', '1762', '1763', '1770', '1774', '1775', '1776', '1777', '1779', '1780', '1786', '1789', '1791', '1792', '1794', '1796', '1797', '1800', '1801', '1803', '1804', '1806', '1808', '1809', '1810', '1811', '1813', '1816', '1817', '1818', '1820', '1821', '1822', '1825', '1828', '1829', '1831', '1832', '1834', '1835', '1837', '1838', '1840', '1841', '1847', '1849', '1853', '1854', '1856', '1857', '1858', '1861', '1863', '1867', '1874', '1875', '1880', '1883', '1885', '1887', '1889', '1891', '1893', '1894', '1897', '1903', '1906', '1907', '1908', '1911', '1914', '1918', '1921', '1922', '1925', '1927', '1928', '1930', '1932', '1933', '1934', '1936', '1938', '1939', '1940', '1941', '1945', '1947', '1948', '1949', '1951', '1952', '1953', '1954', '1957', '1958', '1960', '1963', '1967', '1968', '1970', '1971', '1972', '1975', '1976', '1977', '1979', '1980', '1982', '1984', '1985', '1986', '1988', '1991', '1992', '1994', '1995', '1997', '1998', '2000']",False,5000,True,2,af0f16f3fb,0.0,1.0,1.0
./expes/v2_2021-03-19_issda-30_2000-prng-1-w5-p2,30_issda-2000,2000,first-2000,100,5,rng,num-start-600,600,25726,classic,1808.3399381637573,True,,True,1.0,1.0,1.0,1,"['11', '37', '56', '104', '106', '120', '128', '132', '142', '168', '226', '240', '253', '282', '287', '291', '310', '358', '403', '431', '438', '490', '510', '517', '548', '570', '594', '622', '634', '651', '678', '689', '727', '737', '749', '763', '768', '787', '823', '831', '837', '840', '849', '860', '887', '971', '978', '1028', '1037', '1039', '1070', '1080', '1092', '1106', '1107', '1129', '1141', '1145', '1171', '1188', '1229', '1309', '1312', '1355', '1398', '1402', '1405', '1443', '1445', '1446', '1466', '1484', '1514', '1529', '1541', '1569', '1586', '1622', '1643', '1644', '1653', '1664', '1665', '1666', '1670', '1734', '1759', '1761', '1778', '1793', '1808', '1837', '1880', '1885', '1925', '1936', '1957', '1961', '1966', '1968']",False,5000,True,2,bb05eafdc3,0.0,1.0,1.0
./expes/v2_2021-03-19_issda-30_2000-prng-1-w5-p2,30_issda-2000,2000,first-2000,600,30,rng,num-start-400,400,25726,classic,5039.6226687431335,False,,False,0,,,0,"['4', '8', '13', '14', '16', '18', '23', '26', '27', '35', '36', '39', '43', '45', '49', '51', '53', '56', '58', '59', '61', '63', '64', '67', '76', '78', '81', '82', '88', '90', '95', '101', '106', '107', '108', '109', '116', '117', '121', '125', '128', '132', '147', '148', '150', '153', '160', '169', '170', '172', '173', '179', '186', '187', '191', '199', '201', '202', '210', '211', '212', '218', '222', '225', '231', '232', '234', '238', '242', '245', '251', '253', '256', '258', '260', '265', '270', '276', '277', '279', '280', '282', '284', '291', '292', '293', '298', '301', '304', '318', '319', '330', '333', '335', '344', '348', '349', '351', '354', '361', '365', '368', '369', '373', '375', '377', '387', '388', '390', '393', '399', '401', '404', '405', '408', '409', '410', '411', '413', '419', '421', '424', '428', '429', '431', '433', '435', '439', '451', '452', '455', '458', '460', '463', '466', '467', '469', '471', '473', '475', '482', '489', '492', '495', '496', '504', '507', '512', '516', '517', '522', '523', '529', '532', '536', '538', '540', '545', '546', '549', '550', '551', '555', '561', '562', '567', '569', '570', '571', '572', '573', '578', '580', '584', '585', '597', '601', '607', '608', '611', '626', '630', '632', '635', '637', '638', '639', '640', '641', '648', '651', '658', '660', '661', '663', '671', '676', '681', '687', '690', '691', '696', '697', '699', '700', '702', '704', '705', '712', '714', '717', '718', '724', '725', '729', '730', '735', '738', '740', '741', '742', '743', '744', '745', '746', '747', '748', '749', '751', '753', '755', '761', '768', '776', '778', '781', '782', '788', '789', '790', '796', '797', '801', '805', '808', '810', '819', '821', '829', '831', '832', '834', '835', '837', '845', '850', '851', '856', '858', '861', '867', '868', '869', '875', '879', '881', '884', '886', '888', '892', '893', '901', '902', '909', '912', '919', '920', '934', '936', '941', '942', '943', '944', '952', '958', '962', '967', '972', '974', '976', '977', '978', '986', '989', '994', '995', '997', '1000', '1004', '1007', '1008', '1009', '1013', '1021', '1024', '1025', '1026', '1027', '1029', '1032', '1035', '1039', '1043', '1048', '1052', '1053', '1056', '1058', '1059', '1063', '1067', '1068', '1071', '1080', '1081', '1084', '1095', '1096', '1098', '1099', '1102', '1105', '1108', '1109', '1110', '1113', '1115', '1119', '1120', '1123', '1124', '1125', '1127', '1135', '1137', '1138', '1141', '1143', '1144', '1147', '1154', '1156', '1157', '1168', '1169', '1174', '1181', '1189', '1190', '1202', '1203', '1206', '1215', '1217', '1221', '1227', '1230', '1232', '1234', '1243', '1244', '1245', '1247', '1248', '1252', '1255', '1262', '1264', '1266', '1268', '1269', '1273', '1275', '1276', '1279', '1280', '1285', '1286', '1289', '1295', '1296', '1299', '1302', '1305', '1307', '1310', '1312', '1313', '1318', '1331', '1332', '1335', '1338', '1344', '1347', '1349', '1351', '1354', '1355', '1356', '1359', '1360', '1365', '1367', '1369', '1370', '1371', '1380', '1384', '1390', '1391', '1395', '1396', '1398', '1400', '1402', '1403', '1404', '1405', '1407', '1410', '1411', '1412', '1414', '1415', '1422', '1425', '1426', '1428', '1430', '1432', '1435', '1444', '1446', '1455', '1465', '1466', '1467', '1473', '1477', '1487', '1488', '1498', '1500', '1504', '1505', '1507', '1510', '1514', '1520', '1526', '1530', '1533', '1534', '1543', '1544', '1550', '1551', '1556', '1558', '1560', '1561', '1567', '1568', '1570', '1575', '1579', '1581', '1582', '1585', '1588', '1606', '1607', '1609', '1613', '1616', '1617', '1622', '1623', '1625', '1629', '1631', '1632', '1634', '1635', '1639', '1640', '1641', '1642', '1646', '1651', '1654', '1657', '1660', '1662', '1665', '1669', '1671', '1677', '1678', '1679', '1682', '1685', '1692', '1701', '1704', '1707', '1711', '1712', '1714', '1718', '1719', '1722', '1726', '1727', '1728', '1731', '1732', '1739', '1747', '1751', '1753', '1760', '1761', '1766', '1767', '1771', '1773', '1774', '1779', '1788', '1789', '1802', '1806', '1807', '1812', '1814', '1816', '1818', '1822', '1829', '1832', '1835', '1838', '1839', '1846', '1849', '1851', '1856', '1865', '1866', '1868', '1874', '1875', '1878', '1882', '1885', '1892', '1893', '1895', '1897', '1899', '1900', '1911', '1912', '1913', '1915', '1918', '1925', '1928', '1933', '1934', '1939', '1941', '1945', '1951', '1952', '1958', '1959', '1964', '1968', '1971', '1972', '1975', '1978', '1982', '1989', '1990', '1992', '2000']",True,5000,True,2,e24c2f257c,0.0,0.0,0.0
./expes/v2_2021-03-19_issda-30_2000-prng-1-w5-p2,30_issda-2000,2000,first-2000,1000,50,rng,num-start-1200,1200,25726,classic,4906.778756856918,True,,True,1.0,1.0,1.0,1,"['1', '3', '4', '7', '8', '9', '11', '14', '22', '24', '25', '26', '30', '32', '33', '35', '36', '38', '39', '40', '42', '44', '45', '47', '48', '49', '51', '53', '56', '57', '58', '60', '64', '67', '70', '71', '76', '77', '81', '82', '86', '87', '89', '90', '93', '96', '99', '101', '102', '104', '106', '107', '108', '111', '112', '114', '116', '117', '118', '119', '121', '122', '123', '124', '125', '127', '128', '129', '130', '132', '134', '136', '137', '138', '139', '141', '144', '145', '149', '150', '153', '154', '157', '158', '159', '165', '166', '167', '168', '170', '172', '173', '174', '175', '176', '177', '178', '182', '184', '185', '186', '187', '189', '190', '192', '193', '200', '201', '204', '208', '209', '210', '211', '212', '213', '215', '218', '224', '225', '226', '230', '231', '232', '237', '240', '242', '243', '246', '247', '248', '250', '251', '252', '254', '258', '261', '263', '265', '266', '268', '269', '272', '273', '274', '281', '282', '284', '286', '287', '289', '290', '291', '293', '295', '296', '297', '299', '300', '301', '302', '305', '306', '307', '309', '310', '311', '312', '317', '318', '320', '323', '326', '331', '332', '333', '334', '335', '338', '341', '343', '345', '349', '350', '353', '358', '361', '365', '366', '369', '371', '372', '374', '375', '376', '378', '380', '384', '385', '389', '391', '392', '393', '395', '397', '398', '399', '400', '401', '403', '406', '407', '409', '410', '411', '412', '414', '415', '417', '419', '421', '422', '426', '428', '430', '431', '432', '433', '436', '437', '440', '441', '443', '446', '447', '450', '451', '452', '453', '454', '456', '457', '458', '459', '465', '467', '469', '471', '473', '474', '476', '477', '478', '481', '489', '490', '491', '493', '497', '500', '501', '504', '506', '508', '509', '511', '513', '516', '517', '519', '521', '524', '527', '530', '531', '532', '533', '534', '535', '537', '539', '540', '541', '542', '543', '544', '545', '549', '551', '553', '554', '555', '556', '557', '564', '568', '569', '570', '571', '572', '573', '575', '578', '582', '583', '585', '587', '589', '590', '594', '596', '599', '600', '601', '605', '606', '610', '611', '614', '615', '616', '617', '618', '619', '621', '623', '624', '625', '630', '631', '632', '634', '635', '639', '640', '643', '644', '647', '648', '653', '654', '663', '664', '665', '667', '668', '670', '674', '676', '679', '680', '681', '682', '687', '692', '693', '695', '697', '701', '702', '704', '705', '706', '711', '712', '716', '718', '725', '728', '729', '731', '735', '737', '738', '739', '741', '743', '745', '746', '747', '748', '749', '750', '752', '755', '757', '759', '763', '765', '771', '772', '780', '781', '782', '784', '785', '788', '791', '793', '795', '796', '798', '800', '801', '802', '804', '805', '806', '807', '808', '809', '811', '812', '813', '815', '816', '818', '819', '820', '821', '823', '828', '829', '831', '832', '842', '844', '846', '848', '850', '851', '853', '854', '855', '856', '857', '859', '861', '862', '863', '864', '865', '870', '871', '872', '876', '877', '878', '880', '882', '883', '884', '885', '886', '889', '894', '896', '902', '903', '906', '908', '913', '914', '916', '917', '920', '921', '922', '924', '925', '927', '928', '929', '930', '935', '936', '937', '939', '940', '941', '943', '944', '946', '949', '952', '953', '954', '955', '956', '958', '959', '963', '968', '969', '970', '971', '972', '973', '974', '980', '981', '982', '984', '987', '988', '989', '990', '991', '994', '995', '996', '998', '1000', '1002', '1003', '1004', '1007', '1010', '1012', '1013', '1014', '1016', '1017', '1018', '1019', '1020', '1021', '1025', '1026', '1027', '1028', '1030', '1031', '1033', '1034', '1036', '1037', '1038', '1040', '1041', '1042', '1046', '1047', '1049', '1050', '1051', '1054', '1055', '1056', '1058', '1059', '1060', '1061', '1062', '1070', '1072', '1073', '1074', '1075', '1076', '1078', '1079', '1080', '1082', '1084', '1087', '1088', '1089', '1090', '1091', '1093', '1095', '1097', '1098', '1099', '1101', '1108', '1110', '1113', '1115', '1119', '1121', '1122', '1123', '1124', '1125', '1126', '1127', '1128', '1129', '1130', '1133', '1135', '1138', '1139', '1140', '1141', '1142', '1143', '1144', '1146', '1148', '1151', '1156', '1159', '1160', '1161', '1163', '1165', '1167', '1169', '1170', '1174', '1177', '1182', '1184', '1188', '1191', '1192', '1194', '1195', '1197', '1200', '1202', '1203', '1207', '1210', '1218', '1219', '1221', '1222', '1227', '1229', '1231', '1234', '1236', '1240', '1242', '1246', '1247', '1248', '1249', '1250', '1252', '1253', '1255', '1256', '1257', '1258', '1260', '1264', '1265', '1268', '1273', '1274', '1278', '1279', '1281', '1283', '1284', '1285', '1286', '1288', '1290', '1292', '1293', '1294', '1296', '1300', '1301', '1303', '1304', '1305', '1309', '1317', '1318', '1320', '1321', '1322', '1323', '1326', '1331', '1332', '1334', '1335', '1337', '1338', '1342', '1344', '1345', '1347', '1349', '1351', '1353', '1356', '1357', '1361', '1363', '1367', '1368', '1369', '1370', '1372', '1374', '1375', '1377', '1382', '1384', '1385', '1394', '1395', '1396', '1397', '1398', '1399', '1401', '1406', '1407', '1409', '1410', '1414', '1415', '1418', '1419', '1420', '1424', '1426', '1428', '1431', '1432', '1435', '1436', '1437', '1441', '1444', '1447', '1448', '1452', '1454', '1457', '1458', '1459', '1461', '1465', '1467', '1468', '1472', '1474', '1476', '1479', '1481', '1484', '1485', '1486', '1488', '1490', '1493', '1494', '1498', '1500', '1501', '1502', '1503', '1509', '1513', '1514', '1516', '1517', '1518', '1523', '1528', '1530', '1531', '1533', '1535', '1536', '1537', '1538', '1541', '1542', '1548', '1550', '1551', '1553', '1554', '1555', '1556', '1557', '1558', '1560', '1565', '1566', '1567', '1569', '1571', '1572', '1574', '1581', '1582', '1584', '1590', '1591', '1592', '1596', '1598', '1603', '1604', '1606', '1607', '1608', '1615', '1617', '1619', '1627', '1633', '1634', '1635', '1637', '1638', '1641', '1642', '1646', '1648', '1651', '1652', '1654', '1656', '1658', '1662', '1663', '1664', '1665', '1668', '1670', '1672', '1674', '1676', '1678', '1679', '1680', '1682', '1684', '1690', '1691', '1692', '1693', '1694', '1698', '1703', '1705', '1709', '1710', '1711', '1712', '1715', '1719', '1720', '1721', '1722', '1723', '1731', '1732', '1733', '1734', '1738', '1739', '1740', '1747', '1748', '1750', '1752', '1754', '1759', '1760', '1767', '1768', '1769', '1770', '1781', '1782', '1783', '1784', '1785', '1786', '1788', '1790', '1791', '1792', '1793', '1794', '1795', '1796', '1799', '1801', '1802', '1807', '1808', '1809', '1810', '1811', '1813', '1817', '1818', '1821', '1822', '1827', '1829', '1831', '1833', '1834', '1835', '1836', '1837', '1838', '1839', '1840', '1843', '1844', '1847', '1852', '1854', '1856', '1857', '1861', '1863', '1864', '1865', '1867', '1868', '1869', '1871', '1873', '1875', '1878', '1880', '1882', '1883', '1884', '1889', '1890', '1892', '1895', '1896', '1898', '1899', '1901', '1906', '1910', '1912', '1913', '1915', '1917', '1918', '1920', '1922', '1925', '1927', '1929', '1930', '1932', '1933', '1935', '1937', '1938', '1940', '1941', '1942', '1944', '1946', '1947', '1948', '1950', '1951', '1952', '1954', '1956', '1957', '1959', '1962', '1964', '1966', '1968', '1970', '1971', '1972', '1978', '1982', '1983', '1984', '1985', '1987', '1988', '1989', '1990', '1991', '1992', '1994', '1995', '1996', '1999', '2000']",False,5000,True,2,69141729ee,0.0,1.0,1.0
./expes/v2_2021-03-19_issda-30_2000-prng-1-w5-p2,30_issda-2000,2000,first-2000,300,15,rng,num-start-600,600,25726,classic,5062.809696674347,False,,False,0,,,0,"['11', '17', '20', '22', '25', '32', '37', '40', '43', '54', '56', '57', '59', '101', '102', '103', '104', '106', '107', '110', '111', '120', '128', '132', '142', '154', '159', '168', '175', '191', '192', '193', '202', '203', '217', '226', '227', '232', '240', '253', '266', '281', '282', '284', '287', '291', '309', '310', '331', '335', '347', '350', '353', '358', '367', '376', '377', '387', '394', '395', '401', '403', '407', '418', '431', '433', '435', '438', '448', '456', '461', '470', '474', '490', '496', '510', '513', '514', '515', '517', '529', '540', '544', '548', '559', '565', '570', '594', '603', '605', '618', '622', '625', '630', '634', '635', '639', '642', '647', '648', '651', '652', '654', '674', '678', '681', '687', '689', '691', '713', '727', '729', '737', '746', '749', '754', '763', '768', '787', '802', '805', '823', '826', '827', '831', '836', '837', '840', '849', '859', '860', '866', '887', '889', '912', '913', '920', '921', '928', '933', '941', '950', '957', '958', '967', '971', '973', '978', '984', '990', '994', '997', '1028', '1033', '1037', '1039', '1057', '1061', '1063', '1064', '1070', '1072', '1076', '1080', '1091', '1092', '1099', '1100', '1106', '1107', '1111', '1113', '1126', '1129', '1134', '1135', '1138', '1139', '1141', '1145', '1156', '1164', '1171', '1178', '1180', '1184', '1185', '1188', '1201', '1209', '1212', '1226', '1229', '1237', '1254', '1256', '1272', '1284', '1297', '1304', '1309', '1312', '1347', '1349', '1355', '1367', '1386', '1398', '1402', '1405', '1416', '1433', '1442', '1443', '1445', '1446', '1455', '1465', '1466', '1484', '1485', '1493', '1499', '1514', '1525', '1526', '1529', '1531', '1533', '1540', '1541', '1543', '1546', '1567', '1569', '1579', '1586', '1594', '1598', '1603', '1611', '1622', '1642', '1643', '1644', '1649', '1653', '1661', '1664', '1665', '1666', '1670', '1673', '1679', '1680', '1689', '1693', '1698', '1705', '1715', '1719', '1725', '1734', '1753', '1759', '1761', '1778', '1793', '1808', '1819', '1823', '1830', '1837', '1841', '1847', '1856', '1859', '1861', '1862', '1864', '1878', '1880', '1885', '1897', '1905', '1925', '1930', '1936', '1949', '1957', '1961', '1962', '1966', '1968', '1970', '1976', '1982', '1987', '1992', '1994']",True,5000,True,2,4a488d2cbc,0.0,0.0,0.0
./expes/v2_2021-03-19_issda-30_2000-prng-1-w5-p2,30_issda-2000,2000,first-2000,1000,50,rng,num-start-1200,1200,25726,classic,5135.411012172699,True,,False,1.0,1.0,1.0,1,"['1', '2', '3', '5', '7', '8', '9', '10', '12', '13', '16', '17', '19', '21', '23', '27', '28', '29', '30', '32', '35', '37', '40', '41', '42', '44', '45', '46', '47', '48', '50', '51', '54', '57', '58', '63', '66', '67', '68', '69', '73', '75', '77', '78', '80', '81', '84', '88', '89', '90', '91', '96', '98', '99', '106', '108', '110', '111', '113', '114', '115', '116', '119', '120', '122', '123', '125', '127', '131', '133', '134', '135', '137', '146', '147', '148', '150', '152', '153', '157', '161', '162', '163', '164', '165', '169', '172', '177', '178', '179', '182', '183', '184', '186', '187', '189', '190', '191', '192', '196', '198', '199', '202', '205', '207', '208', '211', '212', '213', '214', '215', '218', '219', '220', '221', '222', '223', '231', '233', '236', '238', '239', '241', '242', '245', '247', '249', '252', '253', '254', '255', '256', '257', '258', '261', '268', '269', '271', '274', '276', '280', '285', '290', '291', '292', '294', '295', '296', '301', '302', '303', '304', '309', '311', '313', '314', '315', '316', '317', '318', '319', '321', '322', '323', '324', '325', '326', '327', '328', '330', '337', '338', '342', '344', '347', '348', '349', '352', '353', '354', '355', '357', '360', '365', '368', '369', '373', '374', '379', '381', '384', '387', '389', '391', '392', '393', '395', '397', '400', '401', '402', '405', '406', '407', '408', '410', '413', '416', '417', '418', '419', '420', '421', '424', '427', '428', '429', '430', '432', '434', '435', '436', '437', '440', '443', '445', '446', '447', '448', '449', '452', '454', '456', '457', '459', '460', '461', '465', '467', '471', '476', '479', '481', '482', '483', '485', '486', '487', '488', '490', '491', '494', '495', '497', '498', '500', '501', '502', '503', '504', '505', '506', '509', '512', '513', '519', '520', '523', '524', '527', '529', '531', '533', '535', '538', '539', '540', '541', '545', '548', '549', '551', '552', '553', '554', '556', '558', '560', '561', '565', '567', '571', '573', '577', '579', '580', '581', '582', '583', '584', '587', '588', '591', '593', '594', '595', '596', '597', '601', '602', '603', '605', '607', '608', '609', '610', '612', '613', '614', '616', '619', '620', '621', '624', '625', '626', '627', '629', '631', '632', '633', '634', '635', '636', '641', '642', '643', '645', '646', '647', '649', '650', '655', '656', '658', '659', '660', '662', '664', '667', '673', '681', '683', '684', '685', '686', '687', '689', '690', '692', '693', '696', '700', '703', '704', '705', '706', '707', '711', '713', '715', '716', '717', '719', '723', '724', '725', '726', '727', '728', '731', '733', '736', '738', '740', '741', '743', '747', '751', '756', '757', '761', '763', '764', '765', '766', '767', '769', '771', '773', '774', '778', '779', '780', '783', '784', '785', '786', '787', '790', '792', '793', '795', '796', '802', '805', '808', '810', '811', '815', '817', '819', '820', '823', '825', '826', '827', '829', '830', '832', '833', '834', '836', '837', '838', '839', '840', '843', '844', '845', '846', '848', '850', '852', '854', '855', '856', '857', '858', '859', '860', '861', '863', '865', '867', '869', '874', '875', '876', '877', '878', '879', '880', '884', '885', '887', '889', '891', '892', '893', '894', '896', '899', '901', '902', '904', '906', '910', '911', '912', '914', '915', '916', '917', '922', '926', '929', '931', '934', '936', '941', '942', '943', '944', '946', '947', '952', '954', '956', '960', '961', '966', '968', '971', '972', '973', '978', '985', '986', '988', '991', '994', '995', '999', '1000', '1001', '1003', '1004', '1005', '1007', '1009', '1012', '1013', '1015', '1016', '1017', '1019', '1020', '1022', '1023', '1024', '1027', '1028', '1030', '1032', '1041', '1044', '1045', '1046', '1047', '1049', '1052', '1053', '1058', '1059', '1060', '1061', '1062', '1067', '1072', '1073', '1077', '1078', '1081', '1083', '1087', '1089', '1090', '1092', '1094', '1095', '1097', '1099', '1101', '1102', '1103', '1105', '1106', '1110', '1111', '1112', '1125', '1127', '1129', '1132', '1133', '1134', '1136', '1142', '1144', '1146', '1149', '1150', '1152', '1153', '1157', '1162', '1163', '1166', '1168', '1169', '1171', '1173', '1176', '1177', '1184', '1186', '1189', '1193', '1202', '1203', '1207', '1208', '1209', '1211', '1212', '1213', '1215', '1216', '1217', '1218', '1219', '1220', '1222', '1223', '1224', '1225', '1227', '1234', '1235', '1237', '1238', '1241', '1242', '1243', '1245', '1248', '1250', '1251', '1252', '1253', '1255', '1256', '1257', '1258', '1260', '1263', '1264', '1267', '1269', '1271', '1273', '1275', '1276', '1277', '1280', '1281', '1282', '1284', '1285', '1287', '1288', '1293', '1295', '1296', '1297', '1301', '1302', '1304', '1305', '1307', '1308', '1311', '1312', '1313', '1314', '1317', '1318', '1319', '1320', '1321', '1329', '1332', '1334', '1335', '1337', '1339', '1341', '1342', '1343', '1344', '1347', '1349', '1351', '1352', '1353', '1355', '1356', '1357', '1358', '1364', '1365', '1366', '1367', '1369', '1370', '1371', '1374', '1380', '1381', '1391', '1392', '1394', '1395', '1397', '1402', '1407', '1408', '1411', '1413', '1415', '1417', '1421', '1425', '1426', '1429', '1430', '1432', '1433', '1434', '1435', '1441', '1442', '1443', '1448', '1449', '1450', '1452', '1457', '1460', '1463', '1469', '1471', '1472', '1473', '1474', '1475', '1477', '1478', '1480', '1483', '1485', '1487', '1491', '1496', '1497', '1499', '1500', '1502', '1506', '1508', '1509', '1510', '1511', '1512', '1513', '1516', '1521', '1522', '1523', '1525', '1528', '1533', '1535', '1536', '1540', '1542', '1547', '1548', '1549', '1551', '1553', '1554', '1556', '1558', '1559', '1560', '1562', '1564', '1565', '1566', '1567', '1568', '1574', '1576', '1580', '1583', '1584', '1586', '1589', '1591', '1595', '1596', '1597', '1598', '1599', '1600', '1602', '1603', '1604', '1605', '1607', '1609', '1610', '1611', '1612', '1614', '1616', '1617', '1618', '1619', '1624', '1628', '1629', '1630', '1631', '1635', '1636', '1637', '1638', '1645', '1646', '1647', '1648', '1650', '1651', '1652', '1653', '1654', '1655', '1656', '1658', '1659', '1660', '1664', '1667', '1669', '1671', '1674', '1677', '1678', '1680', '1683', '1686', '1688', '1689', '1692', '1693', '1694', '1696', '1697', '1700', '1703', '1704', '1706', '1707', '1709', '1710', '1711', '1712', '1714', '1717', '1721', '1722', '1724', '1725', '1726', '1727', '1729', '1731', '1732', '1735', '1736', '1738', '1741', '1745', '1746', '1748', '1750', '1752', '1754', '1760', '1762', '1763', '1764', '1765', '1770', '1771', '1772', '1773', '1776', '1777', '1778', '1784', '1785', '1786', '1787', '1788', '1789', '1791', '1795', '1801', '1803', '1806', '1809', '1810', '1811', '1812', '1813', '1814', '1816', '1820', '1825', '1830', '1831', '1833', '1836', '1837', '1839', '1842', '1843', '1847', '1848', '1849', '1852', '1855', '1857', '1858', '1865', '1872', '1873', '1874', '1875', '1877', '1879', '1880', '1882', '1883', '1884', '1885', '1886', '1888', '1892', '1895', '1896', '1897', '1900', '1901', '1902', '1905', '1908', '1909', '1913', '1915', '1921', '1925', '1927', '1930', '1931', '1932', '1933', '1934', '1940', '1941', '1942', '1943', '1947', '1948', '1949', '1950', '1952', '1953', '1954', '1955', '1956', '1957', '1959', '1961', '1962', '1965', '1970', '1971', '1973', '1976', '1978', '1979', '1981', '1982', '1983', '1984', '1985', '1986', '1987', '1988', '1989', '1990', '1991', '1993', '1995', '1996']",True,5000,True,2,abe9824d72,0.0,0.0,1.0
./expes/v2_2021-03-19_issda-30_2000-prng-1-w5-p2,30_issda-2000,2000,first-2000,500,25,rng,num-start-2000,2000,25726,classic,1420.7516281604767,True,,True,1.0,1.0,1.0,1,"['7', '10', '14', '25', '28', '35', '41', '46', '47', '53', '63', '68', '69', '70', '76', '77', '80', '90', '93', '101', '105', '118', '119', '125', '129', '130', '132', '134', '136', '141', '144', '147', '154', '164', '165', '168', '169', '170', '171', '172', '173', '175', '177', '179', '184', '186', '190', '192', '195', '196', '199', '200', '205', '217', '219', '221', '222', '223', '224', '228', '229', '233', '234', '239', '240', '248', '250', '259', '272', '277', '281', '282', '285', '288', '292', '304', '305', '308', '315', '317', '322', '325', '328', '330', '335', '341', '347', '349', '350', '353', '357', '359', '362', '364', '365', '384', '389', '392', '394', '396', '398', '401', '402', '405', '408', '411', '414', '421', '426', '429', '431', '433', '447', '451', '456', '459', '462', '465', '470', '473', '475', '480', '481', '497', '500', '501', '504', '507', '508', '512', '522', '523', '530', '542', '545', '547', '551', '555', '562', '568', '579', '583', '586', '589', '592', '594', '595', '598', '601', '605', '606', '608', '612', '614', '615', '619', '633', '639', '643', '654', '656', '658', '664', '667', '670', '691', '692', '694', '698', '701', '703', '705', '713', '720', '729', '731', '732', '733', '738', '739', '741', '742', '746', '750', '751', '754', '757', '758', '759', '762', '769', '772', '773', '776', '777', '780', '781', '786', '787', '792', '795', '798', '800', '807', '812', '814', '821', '825', '826', '834', '835', '836', '840', '844', '850', '854', '856', '860', '868', '873', '876', '883', '884', '886', '890', '893', '895', '901', '902', '905', '912', '914', '919', '928', '929', '933', '935', '938', '941', '942', '948', '966', '970', '972', '975', '981', '994', '999', '1000', '1001', '1003', '1004', '1014', '1018', '1019', '1020', '1021', '1022', '1025', '1028', '1030', '1032', '1033', '1034', '1035', '1038', '1039', '1040', '1045', '1054', '1058', '1059', '1065', '1066', '1067', '1073', '1076', '1077', '1080', '1082', '1083', '1084', '1090', '1095', '1106', '1117', '1121', '1139', '1142', '1146', '1153', '1155', '1156', '1160', '1161', '1166', '1174', '1175', '1185', '1186', '1188', '1190', '1191', '1197', '1199', '1200', '1206', '1222', '1229', '1230', '1231', '1232', '1238', '1239', '1240', '1243', '1244', '1249', '1250', '1253', '1256', '1257', '1265', '1271', '1278', '1280', '1281', '1295', '1296', '1310', '1315', '1319', '1323', '1326', '1327', '1331', '1335', '1337', '1339', '1341', '1342', '1346', '1347', '1349', '1354', '1358', '1359', '1368', '1371', '1379', '1385', '1393', '1402', '1403', '1407', '1414', '1415', '1416', '1418', '1424', '1436', '1437', '1438', '1444', '1445', '1451', '1455', '1466', '1469', '1472', '1474', '1477', '1478', '1485', '1486', '1487', '1491', '1492', '1493', '1502', '1505', '1508', '1510', '1518', '1523', '1524', '1525', '1531', '1534', '1535', '1536', '1548', '1555', '1556', '1561', '1566', '1570', '1597', '1598', '1600', '1602', '1605', '1611', '1619', '1620', '1625', '1632', '1648', '1653', '1655', '1656', '1661', '1662', '1666', '1668', '1669', '1673', '1678', '1682', '1685', '1690', '1691', '1697', '1699', '1700', '1701', '1703', '1707', '1709', '1712', '1713', '1717', '1726', '1728', '1729', '1733', '1735', '1742', '1746', '1752', '1755', '1760', '1762', '1772', '1775', '1779', '1780', '1793', '1799', '1805', '1807', '1809', '1818', '1820', '1826', '1830', '1834', '1837', '1838', '1844', '1847', '1848', '1850', '1851', '1854', '1855', '1857', '1858', '1860', '1862', '1864', '1867', '1870', '1877', '1882', '1883', '1884', '1886', '1890', '1895', '1896', '1900', '1902', '1908', '1910', '1918', '1929', '1937', '1938', '1946', '1961', '1964', '1971', '1977', '1978', '1981', '1983', '1987', '1993', '1997']",False,5000,True,2,88a7551a1f,0.0,1.0,1.0
./expes/v2_2021-03-19_issda-30_2000-prng-1-w5-p2,30_issda-2000,2000,first-2000,600,30,rng,num-start-1200,1200,25726,classic,1131.5186626911163,True,,True,1.0,1.0,1.0,1,"['4', '5', '12', '18', '19', '21', '22', '26', '30', '35', '36', '37', '38', '42', '43', '45', '46', '49', '53', '56', '58', '59', '60', '61', '63', '66', '67', '71', '73', '77', '78', '81', '82', '83', '85', '90', '94', '98', '115', '121', '129', '130', '132', '134', '143', '145', '146', '149', '150', '154', '157', '158', '167', '168', '171', '174', '178', '184', '186', '188', '189', '193', '198', '203', '205', '206', '207', '210', '211', '214', '219', '221', '222', '223', '225', '229', '234', '235', '236', '237', '242', '248', '257', '258', '259', '265', '268', '273', '276', '277', '278', '290', '291', '300', '302', '307', '316', '322', '325', '326', '327', '329', '332', '336', '342', '343', '345', '346', '348', '349', '352', '355', '363', '368', '371', '376', '379', '381', '383', '385', '386', '389', '398', '408', '409', '410', '411', '412', '421', '422', '424', '426', '429', '430', '435', '437', '441', '444', '446', '449', '451', '452', '455', '458', '459', '462', '465', '466', '469', '471', '473', '476', '478', '481', '482', '491', '495', '498', '500', '502', '504', '505', '512', '513', '517', '519', '520', '523', '530', '531', '546', '547', '549', '551', '552', '559', '568', '576', '577', '582', '594', '595', '596', '597', '602', '603', '604', '606', '607', '608', '611', '612', '621', '622', '626', '628', '629', '630', '632', '636', '639', '642', '645', '648', '649', '650', '651', '655', '656', '657', '658', '660', '667', '671', '672', '679', '681', '682', '685', '694', '695', '697', '699', '704', '705', '706', '708', '709', '711', '724', '729', '731', '736', '739', '747', '748', '752', '754', '759', '768', '775', '777', '778', '779', '781', '786', '792', '799', '800', '802', '806', '807', '809', '814', '817', '823', '824', '828', '829', '833', '847', '849', '853', '863', '865', '873', '874', '880', '885', '887', '892', '897', '899', '913', '918', '921', '922', '924', '928', '932', '934', '938', '939', '941', '942', '944', '961', '962', '968', '971', '977', '984', '986', '993', '994', '1000', '1002', '1003', '1009', '1011', '1015', '1016', '1017', '1023', '1024', '1026', '1027', '1029', '1033', '1034', '1035', '1037', '1040', '1042', '1043', '1045', '1050', '1053', '1054', '1058', '1063', '1067', '1073', '1081', '1091', '1095', '1103', '1106', '1107', '1109', '1110', '1112', '1115', '1116', '1118', '1122', '1123', '1124', '1127', '1128', '1129', '1133', '1136', '1140', '1149', '1150', '1154', '1156', '1157', '1160', '1166', '1168', '1169', '1175', '1177', '1180', '1184', '1185', '1186', '1188', '1197', '1202', '1204', '1207', '1210', '1211', '1212', '1215', '1221', '1222', '1229', '1230', '1232', '1233', '1237', '1241', '1245', '1248', '1253', '1254', '1255', '1257', '1260', '1266', '1276', '1277', '1280', '1289', '1292', '1293', '1302', '1316', '1318', '1326', '1328', '1329', '1331', '1335', '1336', '1345', '1351', '1352', '1356', '1360', '1362', '1363', '1364', '1373', '1374', '1377', '1379', '1381', '1382', '1383', '1387', '1389', '1395', '1406', '1408', '1410', '1424', '1426', '1439', '1440', '1441', '1442', '1444', '1453', '1457', '1458', '1465', '1473', '1478', '1480', '1483', '1486', '1487', '1488', '1494', '1496', '1501', '1511', '1512', '1517', '1522', '1524', '1538', '1543', '1545', '1548', '1555', '1559', '1562', '1565', '1572', '1573', '1578', '1579', '1589', '1590', '1593', '1594', '1595', '1597', '1598', '1602', '1603', '1605', '1608', '1609', '1611', '1612', '1615', '1616', '1618', '1623', '1624', '1629', '1631', '1633', '1634', '1636', '1643', '1644', '1646', '1647', '1648', '1652', '1654', '1656', '1658', '1662', '1666', '1673', '1674', '1676', '1679', '1680', '1681', '1682', '1683', '1692', '1696', '1697', '1700', '1705', '1710', '1712', '1716', '1721', '1722', '1723', '1724', '1731', '1734', '1735', '1736', '1738', '1742', '1744', '1748', '1756', '1757', '1759', '1760', '1762', '1764', '1767', '1773', '1774', '1777', '1778', '1782', '1786', '1794', '1800', '1805', '1808', '1813', '1815', '1818', '1825', '1826', '1830', '1831', '1835', '1837', '1843', '1845', '1847', '1850', '1858', '1863', '1864', '1865', '1866', '1871', '1873', '1877', '1879', '1883', '1885', '1887', '1889', '1895', '1896', '1897', '1898', '1907', '1910', '1918', '1921', '1922', '1924', '1927', '1928', '1933', '1934', '1936', '1945', '1946', '1950', '1951', '1955', '1956', '1961', '1966', '1971', '1976', '1978', '1980', '1981', '1983', '1985', '1987', '1988', '1994', '1995', '1998', '1999']",False,5000,True,2,4f978e7451,0.0,1.0,1.0
./expes/v2_2021-03-19_issda-30_2000-prng-1-w5-p2,30_issda-2000,2000,first-2000,400,20,rng,num-start-1400,1400,25726,classic,1301.0585179328918,True,,True,1.0,1.0,1.0,1,"['1', '4', '9', '25', '47', '48', '53', '56', '57', '58', '60', '77', '81', '96', '99', '102', '108', '111', '119', '121', '122', '123', '125', '127', '128', '129', '134', '138', '141', '144', '145', '149', '150', '159', '165', '166', '168', '170', '174', '176', '177', '178', '186', '187', '192', '193', '200', '208', '210', '212', '213', '226', '237', '240', '242', '246', '252', '254', '258', '261', '265', '273', '281', '296', '299', '300', '301', '305', '309', '310', '312', '320', '326', '331', '333', '338', '341', '343', '345', '349', '361', '366', '369', '371', '374', '385', '391', '397', '400', '403', '409', '410', '419', '421', '422', '426', '428', '440', '447', '452', '453', '457', '458', '465', '473', '476', '478', '491', '493', '500', '508', '509', '517', '531', '535', '539', '543', '553', '570', '571', '573', '578', '583', '589', '590', '594', '611', '614', '615', '632', '635', '639', '643', '644', '653', '664', '676', '681', '692', '697', '701', '702', '704', '705', '706', '711', '712', '716', '718', '728', '729', '735', '741', '745', '746', '747', '749', '752', '757', '763', '771', '780', '791', '796', '801', '804', '808', '809', '811', '813', '815', '816', '818', '821', '823', '851', '857', '859', '864', '870', '876', '882', '889', '903', '913', '916', '920', '929', '935', '936', '946', '949', '954', '955', '963', '968', '971', '972', '980', '981', '982', '984', '987', '989', '991', '994', '1000', '1002', '1010', '1012', '1014', '1017', '1018', '1030', '1040', '1049', '1056', '1058', '1061', '1062', '1076', '1082', '1089', '1091', '1095', '1098', '1099', '1108', '1110', '1113', '1122', '1123', '1124', '1126', '1127', '1129', '1141', '1143', '1146', '1148', '1156', '1159', '1160', '1161', '1170', '1174', '1177', '1182', '1184', '1188', '1192', '1194', '1200', '1207', '1210', '1218', '1221', '1231', '1234', '1240', '1248', '1249', '1250', '1252', '1253', '1256', '1257', '1258', '1265', '1268', '1279', '1285', '1292', '1300', '1303', '1304', '1309', '1317', '1318', '1326', '1334', '1338', '1342', '1344', '1347', '1349', '1353', '1361', '1369', '1370', '1385', '1394', '1396', '1397', '1399', '1414', '1415', '1418', '1419', '1424', '1426', '1428', '1432', '1437', '1447', '1458', '1459', '1468', '1479', '1481', '1485', '1494', '1498', '1513', '1516', '1517', '1523', '1536', '1537', '1551', '1553', '1554', '1566', '1574', '1581', '1592', '1596', '1598', '1603', '1615', '1617', '1619', '1627', '1633', '1635', '1638', '1641', '1646', '1651', '1652', '1656', '1662', '1672', '1676', '1678', '1682', '1684', '1693', '1694', '1698', '1703', '1710', '1721', '1722', '1732', '1739', '1747', '1759', '1760', '1769', '1770', '1784', '1785', '1791', '1792', '1793', '1810', '1811', '1817', '1821', '1843', '1844', '1854', '1861', '1863', '1864', '1873', '1878', '1892', '1912', '1920', '1927', '1935', '1938', '1940', '1941', '1942', '1944', '1947', '1948', '1950', '1952', '1956', '1957', '1959', '1962', '1971', '1990', '1996', '2000']",False,5000,True,2,7e16fdd097,0.0,1.0,1.0
./expes/v2_2021-03-19_issda-30_2000-prng-1-w5-p2,30_issda-2000,2000,first-2000,200,10,rng,num-start-800,800,25726,classic,1690.1173021793365,True,,True,1.0,1.0,1.0,1,"['4', '14', '18', '23', '39', '49', '53', '58', '63', '67', '76', '82', '90', '106', '107', '121', '125', '153', '160', '170', '172', '179', '187', '211', '231', '234', '238', '242', '277', '293', '298', '318', '333', '335', '344', '351', '365', '368', '373', '388', '393', '409', '419', '428', '431', '451', '452', '455', '458', '467', '471', '482', '492', '495', '507', '517', '536', '550', '551', '561', '562', '567', '573', '578', '635', '641', '661', '687', '691', '696', '700', '705', '717', '730', '740', '744', '745', '746', '753', '755', '761', '768', '781', '782', '788', '790', '796', '821', '829', '858', '867', '868', '875', '881', '888', '902', '909', '934', '941', '943', '952', '962', '972', '976', '977', '986', '989', '1021', '1025', '1027', '1032', '1039', '1043', '1048', '1052', '1053', '1063', '1080', '1084', '1105', '1109', '1120', '1125', '1127', '1137', '1144', '1174', '1181', '1221', '1232', '1234', '1243', '1244', '1245', '1248', '1268', '1273', '1279', '1305', '1310', '1313', '1318', '1347', '1354', '1355', '1356', '1360', '1365', '1369', '1370', '1380', '1384', '1396', '1407', '1414', '1415', '1426', '1428', '1487', '1488', '1533', '1543', '1567', '1570', '1579', '1581', '1606', '1613', '1629', '1635', '1642', '1660', '1671', '1677', '1678', '1679', '1685', '1704', '1726', '1753', '1760', '1771', '1774', '1807', '1814', '1856', '1868', '1874', '1875', '1882', '1893', '1900', '1928', '1939', '1941', '1958', '1964', '1982', '1990', '2000']",False,5000,True,2,8772a8ca3e,0.0,1.0,1.0
./expes/v2_2021-03-19_issda-30_2000-prng-1-w5-p2,30_issda-2000,2000,first-2000,700,35,rng,num-start-1000,1000,25726,classic,3877.039268732071,True,,True,1.0,1.0,1.0,1,"['7', '11', '15', '16', '17', '20', '22', '24', '25', '32', '35', '37', '38', '40', '43', '54', '56', '57', '59', '62', '63', '64', '69', '70', '73', '74', '80', '84', '90', '97', '101', '102', '103', '104', '106', '107', '110', '111', '114', '116', '118', '120', '123', '124', '128', '132', '135', '142', '145', '146', '147', '150', '151', '154', '158', '159', '162', '163', '166', '168', '171', '175', '178', '180', '182', '191', '192', '193', '197', '201', '202', '203', '204', '213', '214', '217', '218', '221', '222', '225', '226', '227', '232', '233', '236', '240', '241', '251', '252', '253', '255', '256', '257', '261', '263', '264', '265', '266', '269', '281', '282', '284', '287', '288', '291', '293', '294', '295', '301', '305', '307', '309', '310', '311', '316', '322', '331', '333', '335', '337', '346', '347', '349', '350', '353', '356', '358', '367', '376', '377', '386', '387', '388', '392', '394', '395', '401', '402', '403', '404', '405', '407', '408', '411', '417', '418', '427', '431', '433', '435', '437', '438', '439', '444', '448', '450', '452', '455', '456', '461', '467', '470', '472', '474', '475', '483', '484', '486', '489', '490', '496', '497', '499', '500', '510', '512', '513', '514', '515', '517', '523', '526', '528', '529', '532', '533', '538', '540', '542', '544', '545', '548', '550', '552', '554', '559', '563', '565', '570', '577', '581', '584', '591', '592', '594', '597', '602', '603', '604', '605', '607', '608', '609', '616', '618', '620', '621', '622', '625', '630', '631', '632', '633', '634', '635', '636', '638', '639', '642', '645', '647', '648', '650', '651', '652', '654', '659', '660', '663', '667', '669', '670', '674', '675', '678', '679', '681', '685', '686', '687', '689', '691', '695', '696', '712', '713', '714', '720', '721', '727', '728', '729', '731', '737', '743', '746', '749', '752', '754', '757', '762', '763', '768', '769', '775', '776', '778', '781', '783', '786', '787', '791', '796', '802', '803', '805', '807', '820', '823', '826', '827', '828', '829', '830', '831', '833', '834', '836', '837', '840', '848', '849', '850', '854', '859', '860', '862', '866', '867', '875', '877', '882', '887', '889', '893', '894', '896', '897', '904', '905', '907', '908', '912', '913', '915', '920', '921', '928', '933', '941', '945', '948', '950', '957', '958', '959', '965', '967', '970', '971', '973', '975', '978', '981', '984', '987', '989', '990', '992', '994', '996', '997', '998', '1003', '1008', '1010', '1011', '1013', '1016', '1018', '1026', '1027', '1028', '1029', '1033', '1034', '1037', '1039', '1053', '1054', '1056', '1057', '1060', '1061', '1063', '1064', '1070', '1072', '1076', '1077', '1080', '1082', '1089', '1091', '1092', '1095', '1096', '1099', '1100', '1103', '1104', '1105', '1106', '1107', '1111', '1113', '1114', '1116', '1121', '1122', '1126', '1129', '1132', '1134', '1135', '1138', '1139', '1141', '1143', '1145', '1146', '1153', '1154', '1156', '1164', '1166', '1171', '1172', '1178', '1180', '1182', '1184', '1185', '1188', '1191', '1193', '1197', '1201', '1202', '1209', '1212', '1215', '1226', '1229', '1231', '1234', '1237', '1238', '1241', '1245', '1250', '1252', '1253', '1254', '1255', '1256', '1262', '1264', '1271', '1272', '1282', '1283', '1284', '1295', '1297', '1298', '1300', '1302', '1304', '1309', '1312', '1320', '1324', '1325', '1326', '1327', '1330', '1332', '1333', '1340', '1347', '1348', '1349', '1350', '1355', '1359', '1365', '1367', '1383', '1386', '1388', '1390', '1393', '1395', '1398', '1402', '1403', '1404', '1405', '1412', '1416', '1419', '1433', '1442', '1443', '1445', '1446', '1449', '1453', '1455', '1458', '1462', '1465', '1466', '1478', '1484', '1485', '1489', '1493', '1497', '1499', '1505', '1507', '1508', '1510', '1511', '1513', '1514', '1522', '1523', '1525', '1526', '1529', '1531', '1533', '1535', '1537', '1540', '1541', '1543', '1546', '1547', '1552', '1553', '1554', '1556', '1557', '1561', '1563', '1564', '1566', '1567', '1568', '1569', '1572', '1573', '1579', '1581', '1582', '1584', '1585', '1586', '1591', '1594', '1598', '1600', '1602', '1603', '1607', '1611', '1613', '1614', '1618', '1619', '1622', '1626', '1627', '1628', '1630', '1635', '1637', '1640', '1642', '1643', '1644', '1645', '1649', '1653', '1655', '1657', '1658', '1661', '1664', '1665', '1666', '1668', '1669', '1670', '1673', '1676', '1679', '1680', '1682', '1684', '1689', '1693', '1698', '1702', '1703', '1705', '1715', '1719', '1724', '1725', '1734', '1738', '1742', '1744', '1745', '1747', '1749', '1753', '1756', '1757', '1759', '1761', '1769', '1772', '1774', '1776', '1777', '1778', '1780', '1783', '1786', '1789', '1791', '1793', '1794', '1795', '1800', '1805', '1808', '1814', '1819', '1823', '1829', '1830', '1837', '1838', '1840', '1841', '1842', '1844', '1845', '1847', '1848', '1856', '1858', '1859', '1861', '1862', '1864', '1870', '1878', '1880', '1881', '1885', '1888', '1892', '1893', '1897', '1898', '1900', '1903', '1905', '1907', '1911', '1917', '1920', '1923', '1925', '1926', '1927', '1930', '1931', '1936', '1944', '1948', '1949', '1952', '1957', '1958', '1960', '1961', '1962', '1964', '1966', '1968', '1970', '1975', '1976', '1982', '1987', '1990', '1992', '1994', '1996', '1997', '1998']",False,5000,True,2,74ff587b68,0.0,1.0,1.0
