expe,clients,clients_size,clients_subset,agg_size,agg_size_pc,method,days,days_size,days_total,noise_method,time,valid,valid_sum,success,score_avg,score_min,score_max,nsols,oracle,wall_hit,wall_time,pooled,pool_size,uuid,infeasible,optimal,valid_sums
./expes/v2_2021-03-19_issda-30_2000-prng-1-w5-p2,30_issda-2000,2000,first-2000,600,30,rng,num-start-800,800,25726,classic,5072.327513456345,False,,False,0,,,0,"['4', '7', '10', '12', '15', '20', '22', '27', '38', '41', '42', '48', '53', '55', '58', '65', '66', '71', '73', '76', '83', '84', '85', '88', '89', '92', '95', '97', '106', '109', '110', '114', '121', '122', '124', '127', '128', '136', '137', '138', '139', '142', '153', '154', '156', '158', '159', '160', '162', '164', '167', '168', '170', '175', '178', '182', '183', '185', '188', '191', '192', '195', '199', '202', '207', '212', '218', '227', '232', '233', '235', '238', '240', '243', '248', '250', '251', '262', '272', '273', '280', '285', '289', '291', '295', '298', '305', '306', '307', '314', '318', '320', '322', '323', '325', '326', '331', '332', '334', '335', '338', '339', '343', '346', '348', '353', '354', '358', '362', '364', '365', '368', '370', '374', '377', '385', '392', '393', '397', '400', '401', '402', '405', '407', '411', '414', '416', '421', '425', '426', '427', '432', '433', '440', '441', '442', '448', '449', '453', '455', '456', '469', '470', '472', '475', '478', '479', '484', '487', '489', '496', '497', '503', '507', '510', '511', '513', '515', '516', '519', '521', '527', '528', '529', '530', '532', '534', '536', '537', '538', '550', '552', '557', '566', '567', '569', '574', '575', '582', '585', '586', '591', '592', '593', '594', '595', '596', '598', '599', '600', '601', '607', '609', '613', '615', '616', '620', '621', '622', '625', '626', '635', '638', '639', '640', '642', '645', '646', '649', '657', '659', '662', '663', '666', '669', '670', '676', '678', '679', '690', '692', '694', '697', '703', '711', '712', '718', '729', '731', '732', '736', '738', '742', '743', '745', '747', '748', '750', '753', '762', '763', '781', '782', '794', '795', '796', '800', '803', '804', '809', '811', '812', '815', '820', '821', '823', '825', '826', '827', '828', '832', '839', '841', '843', '846', '848', '852', '855', '861', '863', '866', '868', '869', '877', '881', '883', '888', '889', '893', '898', '899', '900', '901', '903', '904', '906', '909', '910', '925', '926', '930', '932', '939', '940', '941', '948', '952', '957', '966', '968', '970', '977', '979', '981', '982', '991', '992', '997', '1002', '1004', '1005', '1008', '1013', '1015', '1017', '1022', '1037', '1038', '1042', '1048', '1050', '1063', '1066', '1067', '1072', '1074', '1077', '1078', '1079', '1082', '1084', '1085', '1095', '1100', '1101', '1103', '1107', '1110', '1113', '1115', '1117', '1119', '1121', '1122', '1126', '1128', '1144', '1149', '1150', '1152', '1158', '1164', '1166', '1167', '1171', '1173', '1174', '1176', '1180', '1192', '1193', '1194', '1197', '1205', '1206', '1218', '1220', '1223', '1227', '1231', '1237', '1241', '1243', '1246', '1249', '1250', '1256', '1260', '1261', '1265', '1266', '1269', '1271', '1272', '1275', '1277', '1283', '1284', '1285', '1286', '1288', '1292', '1296', '1300', '1301', '1305', '1311', '1313', '1316', '1323', '1326', '1328', '1335', '1336', '1338', '1340', '1341', '1346', '1353', '1354', '1356', '1367', '1369', '1376', '1380', '1383', '1384', '1386', '1387', '1393', '1395', '1405', '1409', '1420', '1425', '1429', '1436', '1441', '1444', '1448', '1451', '1456', '1457', '1461', '1466', '1470', '1478', '1499', '1506', '1510', '1526', '1527', '1528', '1529', '1530', '1539', '1546', '1548', '1554', '1557', '1568', '1571', '1573', '1577', '1580', '1582', '1585', '1586', '1588', '1591', '1594', '1597', '1603', '1604', '1606', '1607', '1611', '1612', '1613', '1619', '1620', '1626', '1631', '1634', '1635', '1636', '1638', '1640', '1641', '1642', '1645', '1648', '1653', '1654', '1657', '1659', '1665', '1669', '1675', '1676', '1677', '1692', '1694', '1695', '1698', '1700', '1702', '1703', '1710', '1714', '1716', '1720', '1722', '1731', '1736', '1737', '1738', '1747', '1751', '1753', '1754', '1757', '1759', '1761', '1765', '1766', '1770', '1771', '1773', '1777', '1781', '1782', '1784', '1790', '1791', '1795', '1798', '1800', '1801', '1803', '1805', '1807', '1809', '1814', '1816', '1822', '1825', '1827', '1828', '1832', '1835', '1837', '1838', '1842', '1843', '1845', '1846', '1848', '1852', '1853', '1854', '1859', '1862', '1865', '1867', '1870', '1871', '1875', '1876', '1878', '1880', '1885', '1889', '1890', '1893', '1894', '1896', '1900', '1901', '1902', '1905', '1915', '1918', '1919', '1921', '1925', '1927', '1930', '1932', '1934', '1935', '1942', '1945', '1948', '1953', '1956', '1959', '1965', '1966', '1968', '1970', '1972', '1976', '1977', '1979', '1984', '1986', '1988', '1989', '1995']",True,5000,True,2,b42b572535,0.0,0.0,0.0
./expes/v2_2021-03-19_issda-30_2000-prng-1-w5-p2,30_issda-2000,2000,first-2000,900,45,rng,num-start-1200,1200,25726,classic,3954.3922560214996,True,,True,1.0,1.0,1.0,1,"['1', '2', '4', '6', '8', '10', '16', '21', '22', '25', '29', '30', '31', '32', '34', '36', '37', '38', '40', '41', '43', '47', '49', '52', '53', '57', '58', '59', '60', '62', '63', '65', '71', '72', '80', '81', '82', '83', '85', '86', '88', '92', '95', '98', '102', '103', '105', '106', '107', '108', '112', '113', '114', '116', '122', '123', '127', '128', '131', '132', '133', '137', '140', '141', '143', '144', '149', '153', '154', '155', '158', '159', '166', '167', '171', '175', '176', '180', '182', '184', '185', '186', '191', '192', '193', '194', '195', '196', '199', '201', '203', '204', '210', '211', '212', '214', '218', '219', '220', '226', '227', '229', '230', '231', '232', '234', '235', '236', '239', '243', '244', '245', '247', '249', '250', '252', '253', '255', '258', '260', '262', '264', '267', '268', '270', '273', '274', '277', '281', '284', '289', '290', '294', '300', '301', '305', '307', '310', '314', '316', '319', '325', '329', '330', '331', '332', '334', '338', '339', '344', '345', '349', '350', '352', '353', '358', '360', '363', '364', '366', '370', '371', '372', '374', '377', '379', '380', '381', '387', '388', '389', '393', '394', '395', '397', '400', '403', '405', '407', '408', '409', '410', '411', '415', '416', '419', '420', '421', '422', '425', '426', '429', '431', '434', '438', '443', '444', '447', '451', '455', '456', '458', '461', '463', '464', '468', '469', '471', '472', '473', '477', '478', '480', '483', '484', '485', '494', '495', '496', '498', '500', '501', '502', '505', '506', '507', '509', '510', '512', '513', '515', '516', '517', '519', '522', '523', '524', '525', '526', '530', '533', '534', '539', '540', '542', '544', '545', '547', '550', '552', '555', '556', '557', '558', '559', '560', '561', '562', '564', '565', '570', '571', '573', '575', '576', '577', '578', '579', '580', '581', '582', '587', '588', '594', '596', '597', '598', '601', '602', '603', '606', '607', '608', '614', '615', '616', '617', '620', '621', '625', '626', '628', '629', '634', '636', '637', '640', '641', '644', '647', '648', '650', '652', '653', '654', '657', '659', '660', '661', '662', '663', '666', '667', '672', '675', '677', '680', '683', '684', '685', '686', '687', '688', '691', '694', '696', '697', '701', '703', '704', '709', '712', '714', '718', '720', '722', '724', '726', '729', '731', '734', '738', '739', '740', '745', '746', '748', '749', '751', '754', '755', '756', '764', '771', '772', '774', '776', '777', '780', '781', '782', '783', '784', '787', '788', '789', '791', '792', '793', '794', '795', '798', '800', '805', '807', '808', '813', '814', '815', '818', '819', '822', '825', '827', '831', '832', '833', '837', '844', '845', '847', '849', '850', '856', '858', '859', '862', '863', '864', '866', '867', '869', '871', '873', '874', '879', '880', '881', '884', '886', '893', '896', '898', '899', '904', '905', '907', '910', '912', '913', '914', '917', '920', '921', '922', '925', '927', '929', '931', '932', '933', '937', '942', '944', '956', '958', '960', '961', '962', '963', '965', '966', '969', '970', '972', '973', '974', '975', '977', '979', '981', '984', '986', '987', '992', '993', '994', '995', '996', '997', '998', '1000', '1002', '1005', '1006', '1012', '1014', '1015', '1020', '1022', '1025', '1026', '1029', '1031', '1034', '1035', '1038', '1039', '1041', '1044', '1046', '1048', '1049', '1053', '1058', '1062', '1065', '1066', '1068', '1069', '1073', '1077', '1078', '1080', '1082', '1086', '1089', '1090', '1092', '1094', '1095', '1096', '1098', '1101', '1103', '1107', '1109', '1110', '1111', '1113', '1115', '1116', '1117', '1119', '1120', '1121', '1122', '1124', '1126', '1128', '1130', '1132', '1134', '1136', '1138', '1140', '1142', '1143', '1144', '1145', '1146', '1147', '1150', '1161', '1162', '1163', '1166', '1167', '1168', '1169', '1171', '1174', '1182', '1184', '1186', '1192', '1195', '1197', '1201', '1205', '1206', '1207', '1211', '1216', '1218', '1219', '1220', '1221', '1222', '1232', '1234', '1235', '1237', '1240', '1244', '1245', '1248', '1249', '1253', '1255', '1261', '1262', '1265', '1267', '1270', '1272', '1279', '1281', '1283', '1285', '1286', '1287', '1294', '1296', '1297', '1298', '1301', '1304', '1306', '1310', '1311', '1313', '1315', '1318', '1321', '1322', '1323', '1324', '1325', '1326', '1327', '1329', '1330', '1331', '1335', '1336', '1339', '1343', '1344', '1345', '1346', '1348', '1349', '1351', '1352', '1356', '1359', '1360', '1363', '1365', '1369', '1373', '1374', '1377', '1379', '1380', '1383', '1386', '1388', '1393', '1394', '1395', '1396', '1398', '1402', '1403', '1404', '1406', '1407', '1409', '1416', '1417', '1418', '1427', '1437', '1439', '1440', '1441', '1442', '1443', '1444', '1446', '1454', '1456', '1457', '1460', '1463', '1464', '1465', '1466', '1470', '1471', '1472', '1478', '1480', '1484', '1485', '1486', '1487', '1488', '1489', '1496', '1497', '1504', '1506', '1514', '1515', '1516', '1517', '1519', '1525', '1527', '1529', '1530', '1532', '1533', '1539', '1540', '1541', '1542', '1546', '1547', '1548', '1551', '1552', '1555', '1557', '1558', '1559', '1560', '1563', '1564', '1565', '1567', '1571', '1575', '1577', '1578', '1580', '1584', '1585', '1587', '1588', '1590', '1593', '1597', '1602', '1603', '1606', '1607', '1608', '1610', '1613', '1615', '1621', '1623', '1624', '1626', '1627', '1632', '1634', '1635', '1639', '1641', '1646', '1648', '1650', '1651', '1652', '1654', '1655', '1656', '1658', '1659', '1660', '1661', '1664', '1668', '1670', '1673', '1676', '1678', '1680', '1681', '1682', '1683', '1685', '1686', '1687', '1688', '1691', '1694', '1696', '1697', '1698', '1701', '1702', '1703', '1704', '1705', '1710', '1711', '1714', '1720', '1724', '1732', '1735', '1737', '1739', '1740', '1741', '1745', '1747', '1748', '1750', '1752', '1754', '1756', '1761', '1762', '1765', '1768', '1770', '1771', '1772', '1773', '1776', '1777', '1779', '1781', '1784', '1785', '1786', '1787', '1788', '1790', '1791', '1792', '1795', '1800', '1802', '1803', '1807', '1810', '1814', '1815', '1816', '1819', '1820', '1821', '1835', '1836', '1837', '1840', '1841', '1842', '1845', '1846', '1847', '1848', '1849', '1852', '1853', '1861', '1862', '1864', '1865', '1875', '1877', '1879', '1884', '1886', '1887', '1888', '1889', '1891', '1894', '1895', '1896', '1898', '1900', '1901', '1902', '1903', '1906', '1907', '1908', '1910', '1911', '1912', '1913', '1914', '1917', '1918', '1920', '1921', '1924', '1926', '1930', '1932', '1934', '1935', '1937', '1938', '1940', '1946', '1948', '1949', '1950', '1951', '1955', '1959', '1962', '1964', '1965', '1967', '1968', '1969', '1972', '1974', '1977', '1980', '1983', '1984', '1990', '1991', '1992', '1993', '1995', '2000']",False,5000,True,2,077d7e2dce,0.0,1.0,1.0
./expes/v2_2021-03-19_issda-30_2000-prng-1-w5-p2,30_issda-2000,2000,first-2000,700,35,rng,num-start-200,200,25726,classic,5020.036011219025,False,,False,0,,,0,"['12', '13', '14', '18', '19', '23', '27', '30', '34', '36', '38', '42', '43', '45', '47', '55', '59', '60', '64', '73', '74', '76', '84', '87', '93', '94', '98', '102', '106', '113', '115', '117', '120', '125', '129', '130', '133', '136', '137', '141', '142', '144', '147', '156', '157', '159', '161', '162', '164', '168', '171', '172', '178', '179', '181', '182', '184', '185', '190', '192', '208', '218', '220', '221', '223', '227', '229', '235', '236', '239', '242', '244', '250', '252', '256', '258', '259', '263', '265', '267', '270', '272', '273', '277', '280', '281', '285', '287', '294', '297', '298', '300', '301', '303', '308', '309', '310', '312', '314', '321', '329', '331', '333', '334', '335', '337', '342', '344', '347', '350', '353', '358', '361', '362', '366', '372', '374', '375', '377', '378', '385', '386', '387', '389', '390', '392', '396', '402', '406', '409', '411', '413', '414', '415', '418', '419', '423', '424', '428', '429', '430', '433', '436', '438', '440', '442', '443', '449', '450', '452', '456', '459', '461', '462', '472', '473', '478', '479', '481', '484', '487', '491', '495', '497', '505', '507', '511', '512', '516', '520', '525', '528', '529', '530', '531', '532', '533', '535', '538', '540', '542', '543', '547', '550', '553', '554', '555', '556', '558', '560', '561', '562', '564', '565', '575', '577', '579', '582', '583', '588', '592', '593', '599', '603', '606', '609', '612', '613', '615', '618', '619', '621', '623', '629', '632', '633', '641', '644', '646', '647', '651', '655', '659', '660', '661', '664', '665', '671', '672', '673', '675', '681', '683', '685', '686', '688', '690', '693', '694', '696', '698', '702', '706', '707', '709', '712', '716', '718', '722', '726', '730', '731', '733', '736', '738', '739', '740', '745', '748', '749', '750', '754', '755', '764', '766', '767', '775', '778', '780', '786', '790', '793', '798', '799', '802', '806', '808', '813', '814', '820', '824', '826', '828', '829', '831', '832', '833', '834', '836', '837', '838', '839', '844', '848', '849', '850', '851', '853', '855', '856', '860', '865', '866', '867', '868', '870', '874', '876', '878', '882', '883', '888', '889', '890', '895', '897', '911', '913', '915', '920', '930', '931', '932', '933', '936', '939', '940', '942', '950', '953', '955', '958', '959', '962', '963', '967', '973', '978', '979', '980', '983', '984', '985', '994', '997', '1003', '1005', '1006', '1007', '1008', '1010', '1012', '1014', '1016', '1023', '1026', '1038', '1039', '1040', '1043', '1046', '1047', '1049', '1051', '1052', '1054', '1062', '1064', '1066', '1067', '1069', '1070', '1073', '1075', '1078', '1079', '1083', '1085', '1086', '1087', '1091', '1095', '1102', '1104', '1107', '1109', '1111', '1114', '1116', '1117', '1119', '1124', '1127', '1130', '1131', '1133', '1137', '1140', '1143', '1144', '1145', '1149', '1152', '1158', '1159', '1164', '1166', '1170', '1171', '1173', '1174', '1176', '1179', '1183', '1186', '1192', '1194', '1195', '1198', '1203', '1206', '1207', '1216', '1218', '1224', '1225', '1229', '1235', '1242', '1244', '1251', '1252', '1254', '1255', '1258', '1260', '1261', '1264', '1266', '1267', '1275', '1281', '1287', '1289', '1290', '1291', '1292', '1293', '1300', '1304', '1306', '1308', '1309', '1322', '1325', '1326', '1327', '1328', '1336', '1339', '1344', '1345', '1346', '1347', '1353', '1354', '1355', '1359', '1370', '1372', '1375', '1378', '1381', '1383', '1384', '1385', '1386', '1388', '1389', '1391', '1393', '1395', '1396', '1400', '1401', '1402', '1406', '1407', '1408', '1412', '1414', '1415', '1417', '1419', '1422', '1427', '1431', '1432', '1433', '1438', '1440', '1444', '1446', '1447', '1449', '1451', '1452', '1453', '1454', '1458', '1461', '1462', '1464', '1467', '1469', '1471', '1472', '1474', '1480', '1482', '1489', '1490', '1496', '1505', '1506', '1507', '1508', '1513', '1519', '1522', '1525', '1526', '1527', '1529', '1533', '1538', '1544', '1545', '1548', '1549', '1550', '1551', '1552', '1553', '1554', '1556', '1557', '1562', '1573', '1574', '1575', '1578', '1579', '1581', '1584', '1587', '1589', '1593', '1594', '1595', '1598', '1599', '1600', '1605', '1607', '1609', '1613', '1615', '1620', '1622', '1623', '1625', '1626', '1627', '1632', '1639', '1642', '1644', '1652', '1654', '1657', '1660', '1662', '1663', '1664', '1666', '1668', '1669', '1674', '1676', '1688', '1691', '1692', '1693', '1695', '1697', '1700', '1703', '1705', '1706', '1708', '1711', '1712', '1713', '1715', '1719', '1720', '1722', '1724', '1726', '1728', '1729', '1733', '1736', '1738', '1746', '1749', '1750', '1756', '1758', '1760', '1762', '1766', '1769', '1774', '1777', '1780', '1783', '1789', '1790', '1791', '1792', '1795', '1804', '1805', '1807', '1811', '1814', '1817', '1818', '1823', '1825', '1826', '1827', '1829', '1834', '1837', '1841', '1842', '1844', '1847', '1854', '1857', '1858', '1859', '1865', '1867', '1869', '1871', '1880', '1888', '1889', '1891', '1895', '1896', '1899', '1900', '1904', '1905', '1909', '1910', '1912', '1916', '1919', '1931', '1934', '1935', '1936', '1938', '1939', '1941', '1946', '1950', '1951', '1955', '1960', '1961', '1962', '1964', '1968', '1979', '1980', '1981', '1985', '1986', '1987', '1993', '1994', '1998', '1999']",True,5000,True,2,f36a60d142,0.0,0.0,0.0
./expes/v2_2021-03-19_issda-30_2000-prng-1-w5-p2,30_issda-2000,2000,first-2000,100,5,rng,num-start-1400,1400,25726,classic,628.3965921401978,True,,True,1.0,1.0,1.0,1,"['1', '45', '59', '76', '94', '166', '181', '184', '191', '193', '200', '240', '245', '299', '396', '397', '404', '406', '408', '412', '502', '513', '536', '544', '559', '597', '624', '655', '688', '732', '739', '741', '742', '765', '840', '848', '870', '881', '912', '964', '994', '997', '1002', '1025', '1032', '1055', '1076', '1103', '1105', '1134', '1154', '1176', '1180', '1202', '1206', '1207', '1233', '1250', '1298', '1301', '1321', '1343', '1358', '1390', '1397', '1405', '1430', '1433', '1436', '1493', '1495', '1505', '1548', '1556', '1562', '1578', '1625', '1632', '1639', '1643', '1646', '1649', '1650', '1684', '1696', '1706', '1730', '1787', '1803', '1828', '1849', '1863', '1865', '1870', '1877', '1911', '1949', '1978', '1987', '2000']",False,5000,True,2,a3bdc0b70b,0.0,1.0,1.0
./expes/v2_2021-03-19_issda-30_2000-prng-1-w5-p2,30_issda-2000,2000,first-2000,1000,50,rng,num-start-1200,1200,25726,classic,5117.9292578697205,True,,False,1.0,1.0,1.0,1,"['1', '2', '4', '6', '8', '10', '13', '16', '21', '22', '25', '26', '29', '30', '31', '32', '34', '36', '37', '38', '40', '41', '43', '44', '45', '47', '49', '52', '53', '57', '58', '59', '60', '62', '63', '65', '67', '71', '72', '78', '79', '80', '81', '82', '83', '85', '86', '88', '92', '95', '98', '102', '103', '105', '106', '107', '108', '112', '113', '114', '116', '121', '122', '123', '124', '127', '128', '131', '132', '133', '137', '138', '140', '141', '143', '144', '149', '153', '154', '155', '158', '159', '160', '166', '167', '171', '175', '176', '180', '182', '184', '185', '186', '191', '192', '193', '194', '195', '196', '198', '199', '201', '203', '204', '210', '211', '212', '214', '218', '219', '220', '223', '226', '227', '229', '230', '231', '232', '234', '235', '236', '238', '239', '243', '244', '245', '247', '249', '250', '251', '252', '253', '255', '258', '259', '260', '262', '264', '267', '268', '270', '271', '273', '274', '277', '281', '284', '289', '290', '291', '294', '300', '301', '305', '307', '310', '314', '316', '319', '325', '329', '330', '331', '332', '333', '334', '338', '339', '343', '344', '345', '348', '349', '350', '352', '353', '358', '360', '363', '364', '366', '369', '370', '371', '372', '374', '377', '379', '380', '381', '383', '387', '388', '389', '391', '393', '394', '395', '397', '400', '403', '405', '407', '408', '409', '410', '411', '415', '416', '419', '420', '421', '422', '425', '426', '427', '429', '431', '432', '434', '438', '442', '443', '444', '447', '449', '451', '455', '456', '457', '458', '461', '462', '463', '464', '468', '469', '471', '472', '473', '477', '478', '480', '483', '484', '485', '487', '490', '494', '495', '496', '498', '500', '501', '502', '505', '506', '507', '509', '510', '512', '513', '515', '516', '517', '519', '520', '522', '523', '524', '525', '526', '530', '533', '534', '539', '540', '541', '542', '544', '545', '547', '550', '552', '555', '556', '557', '558', '559', '560', '561', '562', '564', '565', '566', '570', '571', '573', '575', '576', '577', '578', '579', '580', '581', '582', '587', '588', '589', '594', '596', '597', '598', '599', '601', '602', '603', '604', '606', '607', '608', '614', '615', '616', '617', '620', '621', '625', '626', '628', '629', '634', '636', '637', '640', '641', '643', '644', '647', '648', '650', '652', '653', '654', '657', '659', '660', '661', '662', '663', '666', '667', '668', '672', '675', '677', '680', '683', '684', '685', '686', '687', '688', '691', '694', '696', '697', '699', '701', '703', '704', '709', '712', '714', '718', '720', '722', '724', '726', '729', '731', '734', '738', '739', '740', '745', '746', '748', '749', '751', '754', '755', '756', '759', '763', '764', '771', '772', '774', '776', '777', '778', '780', '781', '782', '783', '784', '787', '788', '789', '791', '792', '793', '794', '795', '798', '799', '800', '805', '807', '808', '809', '813', '814', '815', '818', '819', '820', '822', '824', '825', '827', '831', '832', '833', '837', '844', '845', '847', '849', '850', '855', '856', '858', '859', '862', '863', '864', '866', '867', '869', '871', '873', '874', '879', '880', '881', '884', '885', '886', '890', '893', '896', '898', '899', '901', '904', '905', '907', '910', '912', '913', '914', '917', '918', '920', '921', '922', '925', '927', '929', '930', '931', '932', '933', '937', '942', '944', '955', '956', '958', '959', '960', '961', '962', '963', '965', '966', '969', '970', '972', '973', '974', '975', '977', '979', '981', '984', '986', '987', '990', '992', '993', '994', '995', '996', '997', '998', '1000', '1002', '1003', '1005', '1006', '1012', '1013', '1014', '1015', '1020', '1022', '1025', '1026', '1029', '1031', '1033', '1034', '1035', '1036', '1038', '1039', '1041', '1044', '1046', '1048', '1049', '1053', '1058', '1061', '1062', '1065', '1066', '1068', '1069', '1073', '1077', '1078', '1080', '1082', '1086', '1087', '1088', '1089', '1090', '1092', '1094', '1095', '1096', '1098', '1101', '1103', '1107', '1109', '1110', '1111', '1113', '1115', '1116', '1117', '1119', '1120', '1121', '1122', '1124', '1125', '1126', '1128', '1130', '1132', '1134', '1136', '1138', '1140', '1142', '1143', '1144', '1145', '1146', '1147', '1150', '1158', '1161', '1162', '1163', '1164', '1166', '1167', '1168', '1169', '1171', '1174', '1177', '1178', '1182', '1183', '1184', '1186', '1192', '1195', '1197', '1201', '1205', '1206', '1207', '1211', '1214', '1216', '1218', '1219', '1220', '1221', '1222', '1226', '1229', '1232', '1234', '1235', '1237', '1240', '1244', '1245', '1248', '1249', '1253', '1255', '1261', '1262', '1265', '1267', '1270', '1272', '1279', '1281', '1283', '1285', '1286', '1287', '1294', '1296', '1297', '1298', '1301', '1304', '1306', '1310', '1311', '1313', '1315', '1318', '1321', '1322', '1323', '1324', '1325', '1326', '1327', '1329', '1330', '1331', '1335', '1336', '1339', '1343', '1344', '1345', '1346', '1348', '1349', '1351', '1352', '1356', '1359', '1360', '1363', '1365', '1369', '1373', '1374', '1375', '1377', '1379', '1380', '1383', '1386', '1388', '1393', '1394', '1395', '1396', '1398', '1402', '1403', '1404', '1406', '1407', '1409', '1413', '1416', '1417', '1418', '1427', '1431', '1432', '1437', '1439', '1440', '1441', '1442', '1443', '1444', '1446', '1453', '1454', '1456', '1457', '1460', '1463', '1464', '1465', '1466', '1470', '1471', '1472', '1474', '1476', '1478', '1480', '1484', '1485', '1486', '1487', '1488', '1489', '1491', '1496', '1497', '1500', '1504', '1506', '1509', '1514', '1515', '1516', '1517', '1519', '1522', '1525', '1527', '1529', '1530', '1532', '1533', '1539', '1540', '1541', '1542', '1546', '1547', '1548', '1551', '1552', '1555', '1557', '1558', '1559', '1560', '1562', '1563', '1564', '1565', '1567', '1571', '1575', '1576', '1577', '1578', '1580', '1584', '1585', '1587', '1588', '1590', '1593', '1597', '1602', '1603', '1606', '1607', '1608', '1610', '1613', '1615', '1621', '1623', '1624', '1626', '1627', '1632', '1633', '1634', '1635', '1637', '1639', '1641', '1646', '1648', '1650', '1651', '1652', '1654', '1655', '1656', '1658', '1659', '1660', '1661', '1664', '1668', '1670', '1673', '1676', '1678', '1680', '1681', '1682', '1683', '1685', '1686', '1687', '1688', '1691', '1694', '1695', '1696', '1697', '1698', '1701', '1702', '1703', '1704', '1705', '1710', '1711', '1713', '1714', '1720', '1724', '1731', '1732', '1735', '1737', '1739', '1740', '1741', '1742', '1745', '1747', '1748', '1750', '1752', '1754', '1756', '1761', '1762', '1764', '1765', '1768', '1769', '1770', '1771', '1772', '1773', '1776', '1777', '1779', '1781', '1784', '1785', '1786', '1787', '1788', '1790', '1791', '1792', '1795', '1800', '1802', '1803', '1807', '1810', '1814', '1815', '1816', '1819', '1820', '1821', '1835', '1836', '1837', '1839', '1840', '1841', '1842', '1845', '1846', '1847', '1848', '1849', '1852', '1853', '1861', '1862', '1864', '1865', '1875', '1877', '1879', '1884', '1886', '1887', '1888', '1889', '1891', '1893', '1894', '1895', '1896', '1898', '1900', '1901', '1902', '1903', '1906', '1907', '1908', '1910', '1911', '1912', '1913', '1914', '1917', '1918', '1920', '1921', '1924', '1926', '1930', '1932', '1934', '1935', '1936', '1937', '1938', '1940', '1946', '1948', '1949', '1950', '1951', '1955', '1959', '1962', '1964', '1965', '1967', '1968', '1969', '1971', '1972', '1974', '1977', '1980', '1983', '1984', '1986', '1988', '1990', '1991', '1992', '1993', '1995', '2000']",True,5000,True,2,594f0bd4a6,0.0,0.0,1.0
./expes/v2_2021-03-19_issda-30_2000-prng-1-w5-p2,30_issda-2000,2000,first-2000,600,30,rng,num-start-1000,1000,25726,classic,4355.681177139282,True,,True,1.0,1.0,1.0,1,"['4', '8', '13', '14', '16', '18', '23', '26', '27', '35', '36', '39', '43', '45', '49', '51', '53', '56', '58', '59', '61', '63', '64', '67', '76', '78', '81', '82', '88', '90', '95', '101', '106', '107', '108', '109', '116', '117', '121', '125', '128', '132', '147', '148', '150', '153', '160', '169', '170', '172', '173', '179', '186', '187', '191', '199', '201', '202', '210', '211', '212', '218', '222', '225', '231', '232', '234', '238', '242', '245', '251', '253', '256', '258', '260', '265', '270', '276', '277', '279', '280', '282', '284', '291', '292', '293', '298', '301', '304', '318', '319', '330', '333', '335', '344', '348', '349', '351', '354', '361', '365', '368', '369', '373', '375', '377', '387', '388', '390', '393', '399', '401', '404', '405', '408', '409', '410', '411', '413', '419', '421', '424', '428', '429', '431', '433', '435', '439', '451', '452', '455', '458', '460', '463', '466', '467', '469', '471', '473', '475', '482', '489', '492', '495', '496', '504', '507', '512', '516', '517', '522', '523', '529', '532', '536', '538', '540', '545', '546', '549', '550', '551', '555', '561', '562', '567', '569', '570', '571', '572', '573', '578', '580', '584', '585', '597', '601', '607', '608', '611', '626', '630', '632', '635', '637', '638', '639', '640', '641', '648', '651', '658', '660', '661', '663', '671', '676', '681', '687', '690', '691', '696', '697', '699', '700', '702', '704', '705', '712', '714', '717', '718', '724', '725', '729', '730', '735', '738', '740', '741', '742', '743', '744', '745', '746', '747', '748', '749', '751', '753', '755', '761', '768', '776', '778', '781', '782', '788', '789', '790', '796', '797', '801', '805', '808', '810', '819', '821', '829', '831', '832', '834', '835', '837', '845', '850', '851', '856', '858', '861', '867', '868', '869', '875', '879', '881', '884', '886', '888', '892', '893', '901', '902', '909', '912', '919', '920', '934', '936', '941', '942', '943', '944', '952', '958', '962', '967', '972', '974', '976', '977', '978', '986', '989', '994', '995', '997', '1000', '1004', '1007', '1008', '1009', '1013', '1021', '1024', '1025', '1026', '1027', '1029', '1032', '1035', '1039', '1043', '1048', '1052', '1053', '1056', '1058', '1059', '1063', '1067', '1068', '1071', '1080', '1081', '1084', '1095', '1096', '1098', '1099', '1102', '1105', '1108', '1109', '1110', '1113', '1115', '1119', '1120', '1123', '1124', '1125', '1127', '1135', '1137', '1138', '1141', '1143', '1144', '1147', '1154', '1156', '1157', '1168', '1169', '1174', '1181', '1189', '1190', '1202', '1203', '1206', '1215', '1217', '1221', '1227', '1230', '1232', '1234', '1243', '1244', '1245', '1247', '1248', '1252', '1255', '1262', '1264', '1266', '1268', '1269', '1273', '1275', '1276', '1279', '1280', '1285', '1286', '1289', '1295', '1296', '1299', '1302', '1305', '1307', '1310', '1312', '1313', '1318', '1331', '1332', '1335', '1338', '1344', '1347', '1349', '1351', '1354', '1355', '1356', '1359', '1360', '1365', '1367', '1369', '1370', '1371', '1380', '1384', '1390', '1391', '1395', '1396', '1398', '1400', '1402', '1403', '1404', '1405', '1407', '1410', '1411', '1412', '1414', '1415', '1422', '1425', '1426', '1428', '1430', '1432', '1435', '1444', '1446', '1455', '1465', '1466', '1467', '1473', '1477', '1487', '1488', '1498', '1500', '1504', '1505', '1507', '1510', '1514', '1520', '1526', '1530', '1533', '1534', '1543', '1544', '1550', '1551', '1556', '1558', '1560', '1561', '1567', '1568', '1570', '1575', '1579', '1581', '1582', '1585', '1588', '1606', '1607', '1609', '1613', '1616', '1617', '1622', '1623', '1625', '1629', '1631', '1632', '1634', '1635', '1639', '1640', '1641', '1642', '1646', '1651', '1654', '1657', '1660', '1662', '1665', '1669', '1671', '1677', '1678', '1679', '1682', '1685', '1692', '1701', '1704', '1707', '1711', '1712', '1714', '1718', '1719', '1722', '1726', '1727', '1728', '1731', '1732', '1739', '1747', '1751', '1753', '1760', '1761', '1766', '1767', '1771', '1773', '1774', '1779', '1788', '1789', '1802', '1806', '1807', '1812', '1814', '1816', '1818', '1822', '1829', '1832', '1835', '1838', '1839', '1846', '1849', '1851', '1856', '1865', '1866', '1868', '1874', '1875', '1878', '1882', '1885', '1892', '1893', '1895', '1897', '1899', '1900', '1911', '1912', '1913', '1915', '1918', '1925', '1928', '1933', '1934', '1939', '1941', '1945', '1951', '1952', '1958', '1959', '1964', '1968', '1971', '1972', '1975', '1978', '1982', '1989', '1990', '1992', '2000']",False,5000,True,2,036c306440,0.0,1.0,1.0
./expes/v2_2021-03-19_issda-30_2000-prng-1-w5-p2,30_issda-2000,2000,first-2000,200,10,rng,num-start-2000,2000,25726,classic,1945.2660164833069,True,,True,1.0,1.0,1.0,1,"['9', '25', '47', '77', '81', '96', '99', '102', '119', '121', '122', '123', '125', '127', '129', '134', '141', '144', '149', '150', '159', '166', '168', '170', '177', '186', '192', '193', '200', '212', '240', '242', '254', '265', '273', '281', '296', '309', '310', '312', '338', '341', '345', '361', '369', '371', '374', '385', '422', '440', '447', '453', '458', '473', '476', '478', '493', '500', '508', '509', '539', '553', '570', '571', '578', '583', '589', '590', '594', '614', '615', '632', '635', '643', '644', '664', '697', '701', '704', '711', '718', '728', '735', '741', '749', '763', '780', '791', '801', '809', '813', '815', '823', '851', '857', '859', '864', '870', '876', '882', '889', '913', '920', '929', '935', '946', '954', '971', '994', '1002', '1012', '1014', '1017', '1018', '1040', '1049', '1076', '1089', '1098', '1108', '1122', '1126', '1127', '1129', '1141', '1143', '1148', '1156', '1159', '1170', '1174', '1177', '1182', '1184', '1188', '1192', '1194', '1200', '1207', '1218', '1248', '1252', '1268', '1285', '1292', '1309', '1326', '1334', '1349', '1361', '1369', '1370', '1394', '1396', '1397', '1399', '1424', '1428', '1432', '1437', '1447', '1459', '1468', '1494', '1498', '1513', '1551', '1566', '1574', '1592', '1598', '1617', '1627', '1633', '1672', '1676', '1678', '1682', '1684', '1694', '1703', '1721', '1759', '1770', '1785', '1793', '1810', '1811', '1817', '1864', '1878', '1892', '1912', '1927', '1935', '1941', '1942', '1962', '1971', '2000']",False,5000,True,2,407df70519,0.0,1.0,1.0
./expes/v2_2021-03-19_issda-30_2000-prng-1-w5-p2,30_issda-2000,2000,first-2000,1000,50,rng,num-start-800,800,25726,classic,5082.944493293762,False,,False,0,,,0,"['1', '5', '6', '7', '9', '11', '14', '15', '18', '26', '27', '30', '31', '32', '34', '35', '37', '39', '41', '43', '45', '47', '48', '49', '50', '51', '52', '54', '55', '57', '66', '69', '71', '73', '75', '81', '84', '85', '86', '87', '89', '90', '93', '96', '98', '100', '102', '110', '114', '118', '123', '124', '127', '128', '130', '131', '132', '133', '135', '136', '137', '140', '141', '142', '145', '147', '148', '149', '151', '153', '155', '159', '162', '164', '167', '171', '172', '173', '175', '176', '177', '178', '180', '181', '184', '187', '188', '190', '192', '193', '194', '195', '196', '199', '202', '204', '207', '208', '210', '211', '212', '215', '216', '218', '219', '220', '221', '223', '224', '227', '228', '230', '232', '233', '234', '236', '238', '239', '242', '245', '246', '248', '249', '251', '253', '257', '258', '259', '262', '263', '264', '265', '267', '271', '272', '273', '274', '275', '276', '277', '279', '280', '282', '284', '286', '287', '288', '290', '294', '297', '300', '304', '305', '307', '309', '310', '312', '314', '316', '317', '320', '321', '325', '326', '336', '337', '338', '340', '341', '342', '344', '348', '349', '351', '352', '354', '359', '360', '361', '362', '363', '365', '366', '367', '369', '370', '371', '372', '376', '377', '380', '382', '383', '384', '385', '387', '388', '389', '390', '392', '393', '394', '396', '397', '399', '401', '402', '404', '409', '410', '413', '414', '415', '416', '421', '422', '424', '425', '428', '429', '430', '431', '432', '436', '438', '441', '444', '446', '448', '450', '453', '455', '456', '459', '461', '462', '463', '464', '465', '466', '472', '475', '477', '478', '480', '486', '489', '493', '494', '495', '496', '497', '500', '502', '503', '509', '510', '511', '512', '515', '517', '519', '520', '521', '523', '529', '530', '533', '534', '535', '537', '539', '540', '542', '549', '550', '551', '554', '555', '556', '557', '559', '560', '562', '563', '564', '567', '568', '571', '572', '576', '579', '581', '582', '583', '585', '586', '591', '592', '593', '594', '597', '599', '601', '602', '603', '606', '608', '609', '612', '613', '614', '616', '617', '619', '623', '624', '627', '630', '632', '633', '634', '636', '637', '638', '641', '642', '646', '648', '650', '651', '655', '660', '663', '664', '665', '667', '671', '672', '674', '675', '676', '680', '682', '683', '684', '689', '690', '695', '696', '698', '699', '700', '703', '707', '710', '711', '712', '716', '718', '720', '721', '723', '724', '725', '726', '727', '731', '734', '735', '737', '742', '743', '744', '745', '746', '747', '750', '751', '752', '755', '756', '757', '758', '760', '763', '767', '771', '772', '776', '777', '781', '783', '785', '788', '792', '793', '794', '795', '796', '798', '800', '801', '803', '804', '806', '812', '813', '814', '817', '819', '821', '823', '827', '829', '830', '831', '833', '834', '843', '844', '845', '846', '847', '848', '849', '852', '854', '855', '856', '857', '862', '867', '872', '874', '875', '878', '879', '880', '881', '882', '888', '889', '890', '891', '893', '895', '896', '897', '898', '899', '901', '902', '906', '908', '910', '912', '914', '915', '917', '918', '921', '922', '923', '925', '926', '928', '930', '931', '932', '933', '934', '937', '938', '939', '941', '943', '945', '947', '949', '950', '952', '955', '956', '957', '959', '960', '962', '963', '964', '967', '968', '969', '975', '978', '979', '980', '982', '983', '984', '986', '987', '989', '991', '994', '995', '996', '998', '999', '1001', '1002', '1003', '1004', '1006', '1008', '1009', '1011', '1012', '1015', '1018', '1019', '1021', '1022', '1025', '1026', '1028', '1029', '1030', '1034', '1036', '1043', '1045', '1048', '1049', '1050', '1051', '1053', '1054', '1056', '1057', '1058', '1065', '1066', '1067', '1069', '1072', '1073', '1075', '1077', '1078', '1080', '1083', '1084', '1085', '1086', '1087', '1089', '1090', '1094', '1095', '1098', '1099', '1100', '1101', '1102', '1104', '1105', '1106', '1108', '1110', '1111', '1112', '1115', '1117', '1118', '1120', '1121', '1124', '1125', '1126', '1129', '1134', '1135', '1136', '1137', '1141', '1143', '1145', '1151', '1152', '1153', '1155', '1156', '1165', '1166', '1167', '1169', '1175', '1178', '1179', '1181', '1184', '1186', '1188', '1190', '1191', '1193', '1194', '1195', '1198', '1199', '1200', '1202', '1203', '1204', '1206', '1208', '1210', '1211', '1213', '1215', '1216', '1217', '1218', '1219', '1221', '1222', '1223', '1224', '1226', '1227', '1229', '1232', '1240', '1243', '1246', '1248', '1249', '1250', '1251', '1254', '1256', '1259', '1261', '1265', '1267', '1268', '1269', '1270', '1271', '1272', '1274', '1280', '1281', '1282', '1283', '1286', '1287', '1290', '1292', '1293', '1298', '1299', '1301', '1302', '1303', '1305', '1308', '1310', '1311', '1313', '1315', '1320', '1323', '1325', '1329', '1330', '1331', '1333', '1336', '1337', '1339', '1344', '1345', '1347', '1349', '1351', '1352', '1353', '1355', '1356', '1360', '1364', '1367', '1368', '1370', '1371', '1372', '1373', '1374', '1376', '1378', '1380', '1381', '1385', '1387', '1388', '1389', '1391', '1394', '1396', '1397', '1398', '1401', '1405', '1406', '1407', '1408', '1409', '1410', '1411', '1415', '1420', '1423', '1424', '1426', '1427', '1428', '1429', '1432', '1435', '1436', '1437', '1438', '1442', '1445', '1452', '1454', '1461', '1463', '1465', '1467', '1468', '1469', '1470', '1473', '1474', '1475', '1484', '1485', '1486', '1490', '1491', '1497', '1498', '1500', '1501', '1503', '1507', '1509', '1510', '1512', '1513', '1514', '1515', '1519', '1523', '1524', '1525', '1526', '1528', '1532', '1534', '1540', '1541', '1543', '1545', '1546', '1548', '1550', '1553', '1556', '1557', '1559', '1560', '1561', '1565', '1568', '1569', '1570', '1572', '1577', '1584', '1585', '1586', '1587', '1588', '1591', '1594', '1595', '1600', '1601', '1602', '1604', '1605', '1607', '1608', '1609', '1611', '1612', '1614', '1617', '1618', '1622', '1623', '1624', '1625', '1626', '1629', '1630', '1632', '1639', '1642', '1644', '1645', '1646', '1647', '1648', '1653', '1655', '1661', '1662', '1663', '1667', '1670', '1673', '1674', '1675', '1679', '1680', '1684', '1686', '1688', '1689', '1690', '1692', '1696', '1698', '1700', '1702', '1704', '1705', '1708', '1709', '1710', '1712', '1715', '1716', '1720', '1722', '1724', '1729', '1730', '1731', '1732', '1733', '1735', '1737', '1738', '1740', '1741', '1742', '1744', '1745', '1746', '1747', '1748', '1752', '1753', '1754', '1755', '1761', '1762', '1763', '1766', '1767', '1768', '1770', '1774', '1776', '1777', '1779', '1786', '1790', '1795', '1799', '1800', '1801', '1804', '1807', '1809', '1811', '1812', '1814', '1815', '1816', '1820', '1822', '1824', '1831', '1832', '1833', '1834', '1835', '1836', '1837', '1838', '1839', '1843', '1848', '1849', '1850', '1851', '1853', '1854', '1855', '1856', '1859', '1860', '1862', '1863', '1865', '1874', '1876', '1883', '1884', '1885', '1887', '1892', '1893', '1894', '1896', '1897', '1898', '1901', '1903', '1905', '1906', '1907', '1908', '1909', '1911', '1913', '1914', '1915', '1916', '1917', '1918', '1919', '1921', '1924', '1925', '1929', '1932', '1933', '1934', '1936', '1937', '1938', '1941', '1942', '1945', '1946', '1947', '1949', '1952', '1954', '1956', '1957', '1959', '1960', '1963', '1964', '1970', '1973', '1974', '1977', '1978', '1979', '1980', '1981', '1983', '1984', '1987', '1989', '1990', '1991', '1993', '1995', '1999']",True,5000,True,2,d5cb4ce1cd,0.0,0.0,0.0
./expes/v2_2021-03-19_issda-30_2000-prng-1-w5-p2,30_issda-2000,2000,first-2000,100,5,rng,num-start-1200,1200,25726,classic,540.4669806957245,True,,True,1.0,1.0,1.0,1,"['8', '11', '14', '17', '49', '84', '89', '106', '113', '130', '166', '172', '180', '209', '228', '230', '249', '272', '284', '285', '322', '345', '347', '382', '405', '409', '416', '420', '430', '460', '485', '488', '547', '548', '576', '597', '677', '685', '693', '700', '765', '776', '777', '786', '813', '843', '864', '866', '870', '926', '949', '950', '1008', '1030', '1037', '1136', '1186', '1210', '1223', '1239', '1256', '1263', '1381', '1386', '1410', '1434', '1441', '1452', '1485', '1487', '1492', '1508', '1529', '1566', '1583', '1586', '1618', '1625', '1658', '1733', '1743', '1746', '1775', '1786', '1801', '1816', '1818', '1822', '1828', '1834', '1835', '1840', '1857', '1867', '1883', '1893', '1918', '1938', '1949', '1975']",False,5000,True,2,02c3fe7d2e,0.0,1.0,1.0
./expes/v2_2021-03-19_issda-30_2000-prng-1-w5-p2,30_issda-2000,2000,first-2000,1000,50,rng,num-start-200,200,25726,classic,5019.908625125885,False,,False,0,,,0,"['4', '5', '6', '8', '10', '11', '15', '16', '24', '27', '32', '37', '39', '40', '41', '42', '44', '46', '48', '49', '53', '55', '56', '57', '58', '59', '61', '62', '63', '64', '65', '67', '68', '70', '71', '72', '73', '74', '75', '76', '77', '81', '87', '88', '89', '91', '93', '94', '95', '99', '100', '102', '103', '104', '105', '107', '109', '110', '111', '113', '116', '117', '122', '123', '124', '125', '126', '130', '132', '135', '137', '140', '141', '142', '147', '148', '149', '157', '158', '159', '160', '164', '165', '166', '171', '176', '177', '180', '182', '184', '186', '187', '189', '190', '192', '194', '197', '199', '200', '204', '205', '209', '211', '212', '214', '215', '216', '219', '220', '221', '222', '223', '224', '226', '229', '230', '231', '233', '235', '236', '238', '242', '244', '245', '246', '248', '249', '251', '253', '254', '255', '256', '257', '260', '262', '264', '266', '267', '268', '270', '273', '275', '276', '278', '279', '280', '282', '284', '286', '290', '294', '295', '300', '301', '306', '307', '309', '311', '313', '316', '320', '322', '326', '327', '329', '330', '333', '335', '338', '345', '347', '348', '349', '350', '351', '352', '353', '355', '358', '362', '364', '366', '367', '369', '370', '372', '373', '376', '377', '378', '379', '380', '382', '383', '384', '388', '389', '391', '392', '393', '397', '400', '405', '407', '408', '409', '410', '411', '412', '414', '421', '422', '427', '428', '429', '431', '433', '434', '445', '446', '447', '448', '449', '451', '453', '455', '456', '459', '460', '461', '466', '470', '471', '475', '476', '479', '480', '481', '482', '484', '486', '487', '488', '489', '490', '491', '493', '495', '496', '501', '502', '507', '509', '512', '513', '514', '515', '518', '521', '523', '526', '529', '530', '532', '537', '540', '541', '542', '543', '544', '545', '547', '548', '550', '551', '552', '554', '555', '556', '561', '563', '564', '571', '572', '573', '581', '583', '584', '588', '589', '592', '595', '596', '598', '601', '602', '603', '606', '612', '614', '615', '616', '617', '621', '623', '624', '625', '630', '635', '638', '640', '641', '642', '643', '645', '646', '647', '648', '650', '651', '653', '656', '660', '662', '665', '667', '669', '672', '673', '674', '678', '679', '681', '682', '684', '685', '686', '690', '691', '694', '695', '696', '697', '699', '700', '704', '705', '707', '708', '710', '718', '719', '720', '721', '722', '723', '726', '731', '736', '738', '739', '741', '744', '746', '749', '752', '753', '755', '757', '758', '760', '763', '765', '767', '769', '770', '771', '772', '773', '774', '778', '779', '783', '784', '785', '786', '791', '793', '794', '797', '798', '799', '801', '802', '803', '807', '808', '809', '813', '814', '816', '818', '820', '822', '823', '825', '826', '827', '835', '836', '837', '839', '841', '846', '847', '848', '850', '851', '854', '857', '860', '861', '862', '863', '865', '867', '871', '873', '875', '878', '881', '884', '886', '890', '892', '894', '896', '898', '907', '908', '910', '911', '912', '917', '918', '922', '923', '924', '927', '931', '933', '935', '936', '938', '943', '944', '951', '952', '954', '955', '956', '957', '958', '959', '961', '964', '969', '970', '971', '972', '976', '977', '978', '981', '982', '983', '985', '986', '987', '988', '989', '991', '992', '994', '996', '998', '999', '1001', '1002', '1003', '1004', '1005', '1008', '1011', '1012', '1014', '1017', '1019', '1020', '1022', '1025', '1029', '1031', '1032', '1034', '1036', '1037', '1039', '1040', '1042', '1044', '1045', '1048', '1050', '1055', '1056', '1060', '1062', '1063', '1065', '1066', '1068', '1072', '1073', '1076', '1077', '1080', '1081', '1084', '1085', '1086', '1090', '1094', '1095', '1097', '1098', '1099', '1100', '1101', '1102', '1104', '1108', '1109', '1110', '1113', '1114', '1115', '1116', '1121', '1124', '1126', '1127', '1129', '1132', '1134', '1135', '1136', '1137', '1138', '1140', '1141', '1145', '1146', '1147', '1150', '1152', '1155', '1156', '1160', '1161', '1162', '1164', '1165', '1166', '1168', '1170', '1172', '1175', '1176', '1178', '1180', '1182', '1186', '1188', '1189', '1190', '1195', '1197', '1198', '1199', '1200', '1201', '1202', '1204', '1206', '1207', '1208', '1209', '1211', '1213', '1214', '1218', '1219', '1220', '1222', '1224', '1227', '1228', '1229', '1231', '1232', '1237', '1238', '1240', '1241', '1243', '1245', '1247', '1251', '1254', '1259', '1262', '1265', '1266', '1267', '1269', '1271', '1274', '1275', '1276', '1277', '1281', '1282', '1284', '1285', '1286', '1287', '1288', '1289', '1293', '1294', '1295', '1297', '1298', '1299', '1300', '1301', '1304', '1309', '1315', '1316', '1317', '1319', '1320', '1321', '1323', '1325', '1327', '1328', '1330', '1331', '1332', '1337', '1339', '1340', '1341', '1343', '1347', '1349', '1351', '1353', '1356', '1357', '1358', '1363', '1366', '1368', '1373', '1375', '1376', '1377', '1378', '1380', '1381', '1383', '1384', '1385', '1388', '1389', '1390', '1392', '1393', '1395', '1396', '1397', '1398', '1401', '1405', '1407', '1410', '1413', '1415', '1416', '1417', '1421', '1422', '1423', '1424', '1425', '1427', '1428', '1429', '1430', '1431', '1432', '1433', '1434', '1436', '1437', '1440', '1441', '1444', '1445', '1446', '1448', '1456', '1460', '1462', '1463', '1465', '1466', '1467', '1468', '1469', '1470', '1471', '1472', '1473', '1474', '1476', '1477', '1481', '1489', '1490', '1491', '1492', '1493', '1496', '1499', '1501', '1503', '1504', '1506', '1512', '1515', '1516', '1519', '1520', '1521', '1523', '1527', '1531', '1532', '1533', '1534', '1540', '1541', '1542', '1543', '1544', '1545', '1546', '1549', '1550', '1551', '1552', '1553', '1554', '1557', '1560', '1572', '1575', '1578', '1581', '1582', '1586', '1588', '1589', '1591', '1592', '1595', '1596', '1597', '1598', '1601', '1602', '1603', '1604', '1612', '1613', '1614', '1615', '1617', '1620', '1622', '1623', '1626', '1629', '1635', '1636', '1637', '1640', '1641', '1642', '1645', '1646', '1647', '1651', '1652', '1653', '1654', '1658', '1659', '1660', '1662', '1663', '1665', '1666', '1669', '1671', '1673', '1674', '1679', '1682', '1683', '1684', '1686', '1687', '1696', '1704', '1706', '1707', '1708', '1710', '1712', '1713', '1714', '1716', '1718', '1719', '1724', '1726', '1728', '1729', '1732', '1735', '1739', '1741', '1743', '1744', '1745', '1746', '1749', '1750', '1752', '1753', '1754', '1755', '1756', '1758', '1759', '1761', '1762', '1763', '1764', '1765', '1767', '1769', '1770', '1771', '1772', '1773', '1776', '1778', '1779', '1780', '1781', '1782', '1783', '1787', '1788', '1793', '1800', '1802', '1803', '1804', '1805', '1807', '1809', '1810', '1813', '1816', '1817', '1818', '1822', '1823', '1824', '1825', '1826', '1827', '1835', '1837', '1838', '1839', '1842', '1843', '1844', '1847', '1851', '1852', '1853', '1856', '1862', '1864', '1866', '1870', '1872', '1875', '1876', '1878', '1879', '1885', '1886', '1887', '1888', '1889', '1892', '1893', '1897', '1899', '1900', '1902', '1903', '1904', '1905', '1909', '1911', '1913', '1914', '1915', '1916', '1917', '1918', '1921', '1923', '1924', '1926', '1927', '1928', '1930', '1931', '1932', '1934', '1935', '1936', '1939', '1941', '1944', '1945', '1946', '1947', '1948', '1951', '1953', '1956', '1957', '1958', '1961', '1962', '1964', '1965', '1967', '1968', '1969', '1970', '1973', '1975', '1976', '1978', '1980', '1981', '1985', '1986', '1987', '1989', '1990', '1991', '1993', '1995', '1997']",True,5000,True,2,68c0fe729d,0.0,0.0,0.0
