expe,clients,clients_size,clients_subset,agg_size,agg_size_pc,method,days,days_size,days_total,noise_method,time,valid,valid_sum,success,score_avg,score_min,score_max,nsols,oracle,wall_hit,wall_time,pooled,pool_size,uuid,infeasible,optimal,valid_sums
./expes/v2_2021-03-19_issda-30_2000-prng-1-w5-p2,30_issda-2000,2000,first-2000,500,25,rng,num-start-400,400,25726,classic,5030.480332136154,False,,False,0,,,0,"['2', '4', '7', '11', '19', '24', '27', '28', '34', '38', '41', '45', '47', '49', '55', '57', '60', '66', '68', '71', '74', '75', '76', '82', '86', '96', '100', '107', '111', '115', '117', '121', '130', '134', '136', '148', '161', '162', '166', '183', '187', '189', '195', '209', '219', '222', '227', '231', '232', '236', '243', '244', '250', '259', '260', '265', '268', '271', '272', '273', '274', '280', '285', '289', '290', '291', '292', '294', '299', '301', '304', '305', '306', '317', '322', '326', '327', '328', '331', '340', '341', '346', '347', '352', '354', '361', '364', '366', '368', '369', '370', '371', '372', '373', '379', '397', '401', '403', '404', '407', '408', '419', '420', '425', '427', '429', '442', '444', '449', '464', '487', '488', '499', '503', '504', '505', '511', '513', '514', '515', '524', '525', '533', '541', '543', '549', '555', '558', '561', '562', '565', '571', '573', '576', '579', '580', '586', '587', '592', '593', '597', '601', '602', '604', '605', '606', '608', '612', '616', '617', '618', '620', '627', '628', '630', '634', '635', '640', '643', '647', '649', '650', '651', '654', '667', '668', '680', '685', '689', '693', '694', '696', '697', '698', '705', '706', '708', '713', '717', '718', '720', '721', '727', '728', '729', '731', '733', '735', '740', '742', '743', '745', '747', '750', '753', '757', '762', '764', '766', '770', '771', '773', '778', '779', '780', '783', '784', '785', '787', '798', '804', '827', '828', '831', '832', '836', '837', '839', '840', '848', '850', '851', '854', '858', '859', '862', '864', '880', '885', '887', '890', '904', '909', '912', '922', '928', '929', '934', '947', '948', '949', '951', '953', '954', '958', '961', '963', '966', '968', '972', '973', '977', '978', '982', '983', '984', '985', '986', '989', '991', '995', '1000', '1004', '1008', '1009', '1011', '1017', '1023', '1025', '1030', '1050', '1051', '1056', '1058', '1062', '1070', '1075', '1085', '1086', '1090', '1091', '1093', '1103', '1105', '1114', '1117', '1121', '1123', '1125', '1127', '1133', '1146', '1148', '1155', '1156', '1159', '1176', '1185', '1190', '1201', '1202', '1204', '1208', '1209', '1210', '1217', '1221', '1231', '1236', '1237', '1246', '1247', '1251', '1253', '1257', '1260', '1264', '1265', '1266', '1271', '1274', '1276', '1278', '1279', '1282', '1284', '1285', '1290', '1292', '1293', '1305', '1308', '1316', '1320', '1321', '1326', '1330', '1331', '1332', '1334', '1336', '1352', '1356', '1357', '1360', '1364', '1369', '1374', '1376', '1380', '1389', '1397', '1405', '1410', '1411', '1412', '1415', '1417', '1423', '1427', '1439', '1443', '1444', '1450', '1451', '1467', '1471', '1472', '1474', '1475', '1476', '1477', '1478', '1495', '1496', '1498', '1499', '1512', '1516', '1517', '1518', '1520', '1523', '1526', '1533', '1536', '1548', '1555', '1556', '1558', '1561', '1569', '1577', '1585', '1587', '1589', '1590', '1599', '1600', '1601', '1602', '1610', '1614', '1629', '1633', '1634', '1636', '1642', '1665', '1666', '1673', '1675', '1677', '1679', '1682', '1684', '1693', '1694', '1697', '1703', '1711', '1714', '1718', '1722', '1723', '1724', '1727', '1729', '1731', '1745', '1746', '1749', '1751', '1753', '1761', '1769', '1775', '1776', '1777', '1778', '1779', '1782', '1785', '1787', '1795', '1796', '1804', '1826', '1827', '1829', '1830', '1831', '1833', '1837', '1846', '1848', '1850', '1872', '1877', '1881', '1889', '1892', '1893', '1904', '1916', '1917', '1918', '1920', '1921', '1924', '1928', '1930', '1931', '1932', '1936', '1937', '1945', '1946', '1948', '1950', '1955', '1957', '1959', '1960', '1961', '1963', '1966', '1967', '1968', '1969', '1970', '1976', '1977', '1980', '1983', '1984', '1992', '1998', '1999', '2000']",True,5000,True,2,ce7a05e1ae,0.0,0.0,0.0
./expes/v2_2021-03-19_issda-30_2000-prng-1-w5-p2,30_issda-2000,2000,first-2000,400,20,rng,num-start-1400,1400,25726,classic,1061.3327844142914,True,,True,1.0,1.0,1.0,1,"['12', '13', '14', '18', '23', '27', '30', '36', '38', '43', '47', '60', '94', '115', '120', '125', '133', '136', '137', '156', '157', '162', '171', '179', '181', '182', '184', '190', '192', '208', '218', '220', '236', '242', '252', '259', '265', '267', '270', '273', '280', '281', '287', '294', '298', '300', '303', '309', '310', '312', '329', '333', '334', '335', '342', '344', '347', '350', '353', '358', '361', '362', '366', '372', '375', '386', '389', '390', '402', '406', '411', '413', '414', '418', '424', '433', '438', '442', '443', '449', '452', '461', '472', '473', '481', '484', '487', '491', '497', '505', '512', '520', '525', '528', '532', '533', '538', '542', '543', '547', '550', '553', '555', '558', '560', '561', '564', '565', '575', '577', '582', '588', '599', '606', '609', '613', '615', '618', '621', '632', '644', '646', '665', '671', '673', '686', '688', '694', '696', '702', '709', '712', '718', '722', '733', '739', '745', '748', '749', '755', '766', '767', '780', '790', '806', '813', '814', '820', '824', '826', '828', '829', '831', '832', '834', '836', '839', '844', '850', '851', '853', '865', '868', '870', '874', '889', '890', '895', '897', '915', '920', '930', '931', '933', '939', '940', '955', '958', '962', '967', '973', '978', '979', '980', '983', '984', '1003', '1006', '1007', '1012', '1016', '1023', '1026', '1038', '1039', '1040', '1043', '1049', '1051', '1052', '1054', '1066', '1069', '1070', '1073', '1078', '1079', '1085', '1086', '1091', '1095', '1102', '1104', '1107', '1109', '1114', '1116', '1117', '1124', '1130', '1131', '1140', '1143', '1144', '1145', '1158', '1164', '1166', '1171', '1173', '1174', '1176', '1179', '1183', '1186', '1203', '1206', '1216', '1229', '1235', '1242', '1244', '1251', '1252', '1254', '1255', '1258', '1261', '1267', '1281', '1287', '1290', '1293', '1304', '1309', '1322', '1325', '1326', '1327', '1328', '1336', '1346', '1347', '1354', '1355', '1381', '1383', '1385', '1386', '1388', '1393', '1396', '1401', '1402', '1406', '1412', '1414', '1417', '1422', '1431', '1432', '1438', '1444', '1446', '1449', '1451', '1452', '1453', '1454', '1461', '1462', '1467', '1469', '1474', '1480', '1490', '1496', '1505', '1508', '1513', '1519', '1522', '1526', '1529', '1538', '1549', '1550', '1552', '1553', '1554', '1556', '1562', '1574', '1575', '1578', '1579', '1581', '1584', '1587', '1589', '1594', '1595', '1598', '1605', '1607', '1613', '1620', '1623', '1625', '1626', '1627', '1632', '1639', '1644', '1652', '1654', '1660', '1662', '1663', '1674', '1676', '1688', '1691', '1695', '1697', '1700', '1706', '1708', '1711', '1712', '1713', '1719', '1720', '1728', '1729', '1733', '1736', '1749', '1758', '1760', '1766', '1769', '1774', '1777', '1780', '1783', '1789', '1792', '1795', '1811', '1817', '1818', '1825', '1826', '1827', '1841', '1842', '1854', '1858', '1865', '1869', '1880', '1891', '1895', '1896', '1899', '1905', '1910', '1916', '1919', '1934', '1935', '1938', '1946', '1950', '1962', '1981', '1985', '1993', '1999']",False,5000,True,2,1bba1fd449,0.0,1.0,1.0
./expes/v2_2021-03-19_issda-30_2000-prng-1-w5-p2,30_issda-2000,2000,first-2000,500,25,rng,num-start-1600,1600,25726,classic,1329.9951589107513,True,,True,1.0,1.0,1.0,1,"['6', '9', '11', '16', '31', '33', '34', '52', '64', '66', '67', '68', '71', '73', '75', '76', '77', '85', '88', '90', '91', '92', '95', '98', '102', '103', '104', '107', '110', '114', '123', '129', '133', '134', '135', '144', '148', '152', '156', '160', '164', '166', '172', '181', '183', '190', '196', '197', '198', '199', '203', '205', '217', '223', '232', '238', '239', '241', '245', '273', '275', '279', '285', '286', '290', '294', '299', '307', '312', '313', '314', '315', '321', '324', '325', '329', '334', '337', '338', '339', '340', '341', '345', '346', '352', '355', '357', '358', '359', '361', '362', '366', '374', '381', '382', '384', '390', '391', '392', '393', '394', '397', '399', '400', '401', '410', '413', '423', '426', '428', '430', '451', '458', '459', '460', '483', '487', '489', '491', '492', '494', '495', '497', '503', '505', '512', '522', '531', '537', '538', '540', '545', '547', '557', '563', '568', '569', '579', '581', '585', '593', '603', '607', '617', '620', '621', '628', '631', '632', '637', '644', '655', '660', '662', '665', '670', '672', '673', '680', '695', '700', '703', '704', '708', '712', '713', '715', '716', '717', '725', '728', '738', '739', '740', '743', '747', '750', '752', '766', '767', '769', '771', '782', '783', '788', '795', '796', '800', '804', '811', '813', '814', '821', '822', '829', '830', '831', '837', '846', '849', '851', '852', '861', '862', '863', '864', '867', '868', '869', '874', '879', '887', '888', '891', '892', '893', '894', '899', '900', '901', '904', '905', '906', '911', '913', '915', '916', '917', '918', '923', '925', '930', '934', '936', '939', '940', '946', '948', '950', '956', '959', '963', '965', '977', '978', '981', '983', '984', '989', '994', '1003', '1004', '1007', '1016', '1018', '1023', '1024', '1027', '1028', '1038', '1040', '1047', '1051', '1052', '1065', '1066', '1067', '1069', '1070', '1071', '1072', '1076', '1093', '1097', '1099', '1100', '1104', '1106', '1109', '1116', '1125', '1128', '1138', '1139', '1145', '1146', '1156', '1157', '1158', '1162', '1167', '1168', '1171', '1172', '1177', '1179', '1184', '1185', '1188', '1191', '1194', '1198', '1203', '1206', '1212', '1216', '1219', '1220', '1224', '1225', '1232', '1234', '1235', '1236', '1238', '1240', '1241', '1242', '1243', '1246', '1249', '1250', '1257', '1265', '1268', '1285', '1288', '1299', '1303', '1308', '1310', '1311', '1314', '1315', '1317', '1329', '1331', '1335', '1336', '1338', '1339', '1347', '1348', '1353', '1356', '1361', '1366', '1373', '1380', '1381', '1383', '1395', '1402', '1405', '1408', '1413', '1418', '1424', '1428', '1430', '1438', '1447', '1460', '1471', '1475', '1476', '1479', '1480', '1481', '1488', '1503', '1508', '1515', '1517', '1523', '1524', '1526', '1527', '1535', '1539', '1541', '1556', '1564', '1565', '1571', '1573', '1579', '1582', '1583', '1584', '1587', '1589', '1592', '1593', '1604', '1612', '1616', '1617', '1620', '1626', '1633', '1638', '1641', '1648', '1650', '1654', '1657', '1659', '1661', '1664', '1666', '1673', '1674', '1676', '1682', '1685', '1687', '1688', '1690', '1694', '1695', '1698', '1699', '1707', '1712', '1713', '1714', '1725', '1729', '1736', '1737', '1742', '1744', '1748', '1752', '1759', '1761', '1762', '1766', '1768', '1771', '1772', '1773', '1781', '1783', '1785', '1786', '1792', '1800', '1802', '1805', '1818', '1819', '1821', '1823', '1830', '1837', '1839', '1840', '1846', '1853', '1856', '1860', '1863', '1865', '1866', '1870', '1871', '1874', '1884', '1886', '1887', '1890', '1893', '1910', '1911', '1916', '1917', '1928', '1932', '1937', '1941', '1946', '1948', '1951', '1952', '1956', '1958', '1959', '1967', '1971', '1973', '1974', '1976', '1984', '1986', '1987', '1988', '1995', '1997']",False,5000,True,2,266aeed07c,0.0,1.0,1.0
./expes/v2_2021-03-19_issda-30_2000-prng-1-w5-p2,30_issda-2000,2000,first-2000,200,10,rng,num-start-600,600,25726,classic,1606.6104896068573,True,,True,1.0,1.0,1.0,1,"['12', '13', '14', '18', '38', '162', '179', '182', '190', '208', '236', '242', '252', '259', '265', '270', '273', '294', '298', '300', '303', '312', '329', '334', '347', '358', '372', '375', '389', '402', '406', '411', '413', '414', '418', '424', '443', '452', '481', '487', '491', '512', '520', '528', '532', '542', '543', '553', '555', '558', '577', '606', '613', '618', '621', '665', '686', '688', '694', '696', '702', '709', '722', '739', '749', '790', '806', '813', '820', '828', '829', '831', '832', '834', '851', '853', '865', '868', '874', '889', '895', '920', '939', '940', '962', '967', '978', '979', '980', '983', '984', '1003', '1007', '1012', '1016', '1026', '1040', '1052', '1054', '1070', '1079', '1091', '1095', '1102', '1109', '1114', '1116', '1124', '1131', '1140', '1144', '1145', '1164', '1171', '1174', '1176', '1179', '1186', '1206', '1216', '1229', '1244', '1251', '1252', '1261', '1287', '1290', '1293', '1326', '1328', '1336', '1347', '1355', '1383', '1388', '1393', '1396', '1401', '1406', '1412', '1417', '1432', '1438', '1444', '1449', '1452', '1467', '1490', '1496', '1505', '1513', '1522', '1549', '1553', '1562', '1574', '1575', '1578', '1581', '1584', '1605', '1613', '1620', '1623', '1625', '1627', '1652', '1654', '1660', '1662', '1663', '1674', '1676', '1688', '1691', '1695', '1706', '1712', '1713', '1729', '1733', '1736', '1769', '1774', '1780', '1789', '1811', '1817', '1825', '1827', '1841', '1842', '1865', '1869', '1891', '1910', '1934', '1950', '1981', '1999']",False,5000,True,2,872500295b,0.0,1.0,1.0
./expes/v2_2021-03-19_issda-30_2000-prng-1-w5-p2,30_issda-2000,2000,first-2000,700,35,rng,num-start-200,200,25726,classic,5014.1533851623535,False,,False,0,,,0,"['4', '5', '12', '16', '18', '19', '21', '22', '23', '26', '30', '35', '36', '37', '38', '39', '42', '43', '45', '46', '49', '50', '53', '56', '58', '59', '60', '61', '63', '66', '67', '71', '73', '77', '78', '81', '82', '83', '85', '90', '94', '98', '99', '100', '115', '121', '128', '129', '130', '132', '134', '143', '145', '146', '147', '149', '150', '154', '157', '158', '167', '168', '171', '174', '175', '178', '183', '184', '186', '188', '189', '193', '198', '203', '205', '206', '207', '210', '211', '214', '219', '221', '222', '223', '225', '229', '234', '235', '236', '237', '242', '248', '253', '257', '258', '259', '265', '268', '273', '276', '277', '278', '284', '290', '291', '300', '302', '307', '316', '322', '324', '325', '326', '327', '329', '332', '336', '339', '342', '343', '345', '346', '348', '349', '352', '353', '355', '363', '364', '365', '368', '371', '376', '379', '381', '383', '385', '386', '389', '398', '408', '409', '410', '411', '412', '418', '421', '422', '424', '426', '429', '430', '435', '437', '441', '444', '446', '449', '450', '451', '452', '455', '458', '459', '461', '462', '463', '465', '466', '469', '471', '473', '476', '478', '479', '481', '482', '489', '491', '495', '498', '500', '502', '504', '505', '507', '512', '513', '517', '518', '519', '520', '523', '529', '530', '531', '546', '547', '549', '551', '552', '559', '564', '568', '576', '577', '582', '594', '595', '596', '597', '602', '603', '604', '606', '607', '608', '611', '612', '613', '614', '621', '622', '626', '628', '629', '630', '632', '636', '639', '641', '642', '645', '648', '649', '650', '651', '655', '656', '657', '658', '660', '667', '671', '672', '679', '681', '682', '685', '691', '694', '695', '697', '699', '704', '705', '706', '708', '709', '711', '724', '727', '729', '731', '736', '739', '747', '748', '752', '754', '756', '759', '762', '768', '773', '775', '777', '778', '779', '781', '786', '792', '799', '800', '802', '806', '807', '809', '811', '814', '815', '817', '822', '823', '824', '828', '829', '833', '845', '847', '849', '853', '854', '863', '865', '873', '874', '880', '881', '885', '887', '892', '897', '898', '899', '900', '913', '915', '918', '921', '922', '924', '928', '929', '932', '934', '938', '939', '941', '942', '944', '952', '961', '962', '968', '971', '977', '981', '984', '986', '993', '994', '995', '996', '1000', '1002', '1003', '1009', '1011', '1014', '1015', '1016', '1017', '1023', '1024', '1026', '1027', '1029', '1033', '1034', '1035', '1037', '1040', '1042', '1043', '1045', '1048', '1050', '1053', '1054', '1058', '1063', '1067', '1073', '1081', '1083', '1091', '1095', '1101', '1102', '1103', '1106', '1107', '1109', '1110', '1112', '1115', '1116', '1118', '1122', '1123', '1124', '1125', '1127', '1128', '1129', '1132', '1133', '1136', '1140', '1148', '1149', '1150', '1154', '1156', '1157', '1160', '1166', '1168', '1169', '1170', '1175', '1177', '1180', '1184', '1185', '1186', '1188', '1197', '1202', '1204', '1207', '1210', '1211', '1212', '1215', '1216', '1218', '1221', '1222', '1229', '1230', '1232', '1233', '1237', '1241', '1242', '1245', '1248', '1252', '1253', '1254', '1255', '1257', '1260', '1266', '1276', '1277', '1280', '1289', '1292', '1293', '1302', '1309', '1316', '1318', '1322', '1324', '1326', '1328', '1329', '1331', '1335', '1336', '1339', '1345', '1351', '1352', '1356', '1360', '1362', '1363', '1364', '1368', '1373', '1374', '1377', '1379', '1381', '1382', '1383', '1387', '1389', '1395', '1397', '1406', '1407', '1408', '1410', '1413', '1417', '1419', '1424', '1426', '1437', '1439', '1440', '1441', '1442', '1444', '1453', '1457', '1458', '1460', '1464', '1465', '1473', '1478', '1480', '1483', '1486', '1487', '1488', '1492', '1494', '1496', '1498', '1501', '1509', '1511', '1512', '1517', '1522', '1524', '1529', '1538', '1543', '1545', '1548', '1555', '1559', '1562', '1564', '1565', '1569', '1572', '1573', '1578', '1579', '1589', '1590', '1593', '1594', '1595', '1597', '1598', '1602', '1603', '1605', '1608', '1609', '1611', '1612', '1615', '1616', '1618', '1623', '1624', '1625', '1629', '1631', '1633', '1634', '1636', '1643', '1644', '1646', '1647', '1648', '1652', '1654', '1656', '1658', '1662', '1666', '1673', '1674', '1676', '1679', '1680', '1681', '1682', '1683', '1692', '1696', '1697', '1698', '1700', '1705', '1710', '1712', '1713', '1716', '1721', '1722', '1723', '1724', '1731', '1734', '1735', '1736', '1738', '1739', '1742', '1744', '1748', '1754', '1756', '1757', '1759', '1760', '1762', '1764', '1766', '1767', '1773', '1774', '1777', '1778', '1782', '1786', '1794', '1797', '1800', '1805', '1808', '1809', '1813', '1815', '1818', '1825', '1826', '1829', '1830', '1831', '1835', '1837', '1843', '1845', '1847', '1850', '1858', '1863', '1864', '1865', '1866', '1871', '1873', '1877', '1879', '1880', '1883', '1885', '1886', '1887', '1888', '1889', '1895', '1896', '1897', '1898', '1905', '1907', '1910', '1911', '1918', '1921', '1922', '1924', '1927', '1928', '1933', '1934', '1936', '1945', '1946', '1950', '1951', '1955', '1956', '1959', '1961', '1966', '1967', '1971', '1974', '1976', '1978', '1980', '1981', '1983', '1985', '1987', '1988', '1992', '1994', '1995', '1998', '1999', '2000']",True,5000,True,2,bf82b9fe0a,0.0,0.0,0.0
./expes/v2_2021-03-19_issda-30_2000-prng-1-w5-p2,30_issda-2000,2000,first-2000,700,35,rng,num-start-400,400,25726,classic,5030.500843763351,False,,False,0,,,0,"['12', '13', '14', '18', '19', '23', '27', '30', '34', '36', '38', '42', '43', '45', '47', '55', '59', '60', '64', '73', '74', '76', '84', '87', '93', '94', '98', '102', '106', '113', '115', '117', '120', '125', '129', '130', '133', '136', '137', '141', '142', '144', '147', '156', '157', '159', '161', '162', '164', '168', '171', '172', '178', '179', '181', '182', '184', '185', '190', '192', '208', '218', '220', '221', '223', '227', '229', '235', '236', '239', '242', '244', '250', '252', '256', '258', '259', '263', '265', '267', '270', '272', '273', '277', '280', '281', '285', '287', '294', '297', '298', '300', '301', '303', '308', '309', '310', '312', '314', '321', '329', '331', '333', '334', '335', '337', '342', '344', '347', '350', '353', '358', '361', '362', '366', '372', '374', '375', '377', '378', '385', '386', '387', '389', '390', '392', '396', '402', '406', '409', '411', '413', '414', '415', '418', '419', '423', '424', '428', '429', '430', '433', '436', '438', '440', '442', '443', '449', '450', '452', '456', '459', '461', '462', '472', '473', '478', '479', '481', '484', '487', '491', '495', '497', '505', '507', '511', '512', '516', '520', '525', '528', '529', '530', '531', '532', '533', '535', '538', '540', '542', '543', '547', '550', '553', '554', '555', '556', '558', '560', '561', '562', '564', '565', '575', '577', '579', '582', '583', '588', '592', '593', '599', '603', '606', '609', '612', '613', '615', '618', '619', '621', '623', '629', '632', '633', '641', '644', '646', '647', '651', '655', '659', '660', '661', '664', '665', '671', '672', '673', '675', '681', '683', '685', '686', '688', '690', '693', '694', '696', '698', '702', '706', '707', '709', '712', '716', '718', '722', '726', '730', '731', '733', '736', '738', '739', '740', '745', '748', '749', '750', '754', '755', '764', '766', '767', '775', '778', '780', '786', '790', '793', '798', '799', '802', '806', '808', '813', '814', '820', '824', '826', '828', '829', '831', '832', '833', '834', '836', '837', '838', '839', '844', '848', '849', '850', '851', '853', '855', '856', '860', '865', '866', '867', '868', '870', '874', '876', '878', '882', '883', '888', '889', '890', '895', '897', '911', '913', '915', '920', '930', '931', '932', '933', '936', '939', '940', '942', '950', '953', '955', '958', '959', '962', '963', '967', '973', '978', '979', '980', '983', '984', '985', '994', '997', '1003', '1005', '1006', '1007', '1008', '1010', '1012', '1014', '1016', '1023', '1026', '1038', '1039', '1040', '1043', '1046', '1047', '1049', '1051', '1052', '1054', '1062', '1064', '1066', '1067', '1069', '1070', '1073', '1075', '1078', '1079', '1083', '1085', '1086', '1087', '1091', '1095', '1102', '1104', '1107', '1109', '1111', '1114', '1116', '1117', '1119', '1124', '1127', '1130', '1131', '1133', '1137', '1140', '1143', '1144', '1145', '1149', '1152', '1158', '1159', '1164', '1166', '1170', '1171', '1173', '1174', '1176', '1179', '1183', '1186', '1192', '1194', '1195', '1198', '1203', '1206', '1207', '1216', '1218', '1224', '1225', '1229', '1235', '1242', '1244', '1251', '1252', '1254', '1255', '1258', '1260', '1261', '1264', '1266', '1267', '1275', '1281', '1287', '1289', '1290', '1291', '1292', '1293', '1300', '1304', '1306', '1308', '1309', '1322', '1325', '1326', '1327', '1328', '1336', '1339', '1344', '1345', '1346', '1347', '1353', '1354', '1355', '1359', '1370', '1372', '1375', '1378', '1381', '1383', '1384', '1385', '1386', '1388', '1389', '1391', '1393', '1395', '1396', '1400', '1401', '1402', '1406', '1407', '1408', '1412', '1414', '1415', '1417', '1419', '1422', '1427', '1431', '1432', '1433', '1438', '1440', '1444', '1446', '1447', '1449', '1451', '1452', '1453', '1454', '1458', '1461', '1462', '1464', '1467', '1469', '1471', '1472', '1474', '1480', '1482', '1489', '1490', '1496', '1505', '1506', '1507', '1508', '1513', '1519', '1522', '1525', '1526', '1527', '1529', '1533', '1538', '1544', '1545', '1548', '1549', '1550', '1551', '1552', '1553', '1554', '1556', '1557', '1562', '1573', '1574', '1575', '1578', '1579', '1581', '1584', '1587', '1589', '1593', '1594', '1595', '1598', '1599', '1600', '1605', '1607', '1609', '1613', '1615', '1620', '1622', '1623', '1625', '1626', '1627', '1632', '1639', '1642', '1644', '1652', '1654', '1657', '1660', '1662', '1663', '1664', '1666', '1668', '1669', '1674', '1676', '1688', '1691', '1692', '1693', '1695', '1697', '1700', '1703', '1705', '1706', '1708', '1711', '1712', '1713', '1715', '1719', '1720', '1722', '1724', '1726', '1728', '1729', '1733', '1736', '1738', '1746', '1749', '1750', '1756', '1758', '1760', '1762', '1766', '1769', '1774', '1777', '1780', '1783', '1789', '1790', '1791', '1792', '1795', '1804', '1805', '1807', '1811', '1814', '1817', '1818', '1823', '1825', '1826', '1827', '1829', '1834', '1837', '1841', '1842', '1844', '1847', '1854', '1857', '1858', '1859', '1865', '1867', '1869', '1871', '1880', '1888', '1889', '1891', '1895', '1896', '1899', '1900', '1904', '1905', '1909', '1910', '1912', '1916', '1919', '1931', '1934', '1935', '1936', '1938', '1939', '1941', '1946', '1950', '1951', '1955', '1960', '1961', '1962', '1964', '1968', '1979', '1980', '1981', '1985', '1986', '1987', '1993', '1994', '1998', '1999']",True,5000,True,2,d26170e819,0.0,0.0,0.0
./expes/v2_2021-03-19_issda-30_2000-prng-1-w5-p2,30_issda-2000,2000,first-2000,500,25,rng,num-start-1800,1800,25726,classic,2776.2189888954163,True,,True,1.0,1.0,1.0,1,"['1', '3', '9', '12', '13', '19', '21', '23', '27', '29', '30', '35', '42', '44', '45', '46', '47', '54', '57', '58', '63', '67', '68', '75', '78', '80', '88', '89', '90', '91', '96', '99', '106', '108', '113', '114', '116', '119', '120', '122', '133', '135', '146', '153', '157', '161', '162', '163', '164', '165', '169', '172', '177', '184', '186', '189', '191', '199', '205', '207', '212', '214', '220', '222', '223', '233', '236', '238', '241', '249', '252', '254', '255', '257', '258', '269', '274', '280', '290', '291', '294', '295', '301', '302', '304', '309', '313', '314', '316', '317', '319', '324', '337', '342', '344', '352', '353', '354', '357', '365', '373', '379', '381', '389', '391', '395', '397', '400', '406', '417', '421', '424', '428', '429', '430', '434', '436', '443', '448', '452', '454', '456', '457', '459', '460', '461', '465', '467', '471', '476', '481', '483', '487', '488', '490', '491', '495', '498', '501', '520', '523', '524', '529', '531', '533', '535', '538', '548', '549', '552', '558', '560', '580', '582', '584', '588', '594', '601', '603', '605', '607', '608', '610', '619', '620', '621', '624', '625', '629', '633', '635', '636', '642', '643', '647', '649', '655', '656', '660', '683', '686', '687', '689', '700', '705', '706', '713', '715', '716', '725', '726', '741', '743', '747', '757', '765', '766', '767', '771', '773', '785', '786', '787', '792', '796', '802', '805', '808', '810', '811', '819', '820', '823', '825', '826', '827', '829', '830', '832', '834', '836', '837', '838', '839', '840', '843', '844', '845', '852', '854', '856', '858', '861', '867', '874', '876', '880', '887', '889', '894', '904', '906', '910', '912', '915', '916', '917', '922', '929', '931', '934', '936', '944', '946', '947', '952', '956', '961', '966', '968', '972', '973', '978', '985', '986', '988', '1000', '1004', '1005', '1007', '1013', '1016', '1017', '1022', '1023', '1027', '1030', '1032', '1046', '1047', '1052', '1053', '1058', '1059', '1062', '1072', '1077', '1089', '1095', '1097', '1101', '1105', '1110', '1133', '1134', '1153', '1157', '1162', '1171', '1173', '1176', '1186', '1189', '1193', '1202', '1208', '1209', '1215', '1216', '1219', '1224', '1227', '1234', '1235', '1237', '1242', '1243', '1250', '1252', '1255', '1256', '1258', '1260', '1264', '1277', '1281', '1282', '1284', '1287', '1288', '1293', '1296', '1301', '1307', '1308', '1312', '1313', '1317', '1320', '1332', '1335', '1337', '1339', '1341', '1343', '1347', '1349', '1351', '1353', '1358', '1364', '1365', '1366', '1367', '1369', '1370', '1392', '1395', '1397', '1407', '1411', '1413', '1415', '1417', '1421', '1429', '1432', '1433', '1434', '1441', '1449', '1450', '1457', '1463', '1472', '1474', '1477', '1483', '1485', '1487', '1491', '1496', '1500', '1508', '1510', '1512', '1521', '1522', '1523', '1533', '1536', '1540', '1542', '1547', '1553', '1559', '1564', '1568', '1576', '1583', '1584', '1586', '1598', '1603', '1604', '1605', '1610', '1612', '1614', '1616', '1617', '1619', '1630', '1635', '1636', '1647', '1651', '1652', '1655', '1664', '1667', '1669', '1671', '1674', '1677', '1686', '1692', '1693', '1694', '1700', '1704', '1706', '1711', '1721', '1722', '1725', '1726', '1727', '1732', '1735', '1736', '1738', '1741', '1750', '1763', '1771', '1772', '1773', '1777', '1778', '1788', '1795', '1809', '1810', '1811', '1814', '1820', '1830', '1836', '1837', '1842', '1843', '1849', '1855', '1857', '1875', '1882', '1883', '1884', '1886', '1892', '1895', '1901', '1905', '1908', '1915', '1927', '1932', '1933', '1942', '1943', '1949', '1950', '1952', '1953', '1959', '1961', '1962', '1965', '1971', '1976', '1979', '1981', '1983', '1985', '1988', '1989', '1991', '1995', '1996']",False,5000,True,2,ee0bf4f8c5,0.0,1.0,1.0
./expes/v2_2021-03-19_issda-30_2000-prng-1-w5-p2,30_issda-2000,2000,first-2000,500,25,rng,num-start-600,600,25726,classic,5049.45753288269,False,,False,0,,,0,"['1', '10', '13', '20', '26', '27', '31', '35', '38', '42', '45', '59', '62', '63', '64', '66', '67', '68', '70', '76', '78', '82', '93', '94', '103', '107', '111', '117', '121', '122', '123', '126', '128', '131', '142', '152', '153', '154', '156', '157', '159', '166', '172', '176', '181', '183', '184', '190', '191', '192', '193', '197', '200', '206', '216', '230', '234', '235', '240', '245', '246', '253', '258', '260', '261', '263', '276', '278', '280', '281', '283', '292', '296', '297', '299', '306', '308', '310', '317', '323', '324', '330', '334', '335', '337', '346', '347', '353', '355', '365', '374', '377', '380', '381', '385', '386', '387', '394', '395', '396', '397', '402', '404', '406', '408', '412', '414', '429', '430', '439', '454', '457', '461', '462', '464', '476', '479', '489', '493', '499', '502', '503', '512', '513', '515', '522', '523', '524', '525', '536', '544', '545', '549', '552', '557', '559', '562', '565', '567', '569', '574', '577', '586', '588', '593', '596', '597', '598', '602', '622', '624', '627', '640', '649', '652', '655', '656', '663', '667', '675', '678', '682', '688', '689', '704', '718', '732', '738', '739', '740', '741', '742', '745', '751', '752', '753', '759', '760', '761', '763', '765', '768', '771', '773', '774', '778', '779', '781', '788', '792', '796', '798', '815', '816', '819', '834', '838', '840', '841', '848', '859', '864', '865', '867', '870', '872', '874', '881', '883', '887', '897', '901', '903', '904', '909', '910', '912', '914', '916', '921', '925', '926', '948', '951', '957', '961', '964', '965', '968', '969', '973', '978', '979', '981', '982', '991', '994', '995', '997', '999', '1000', '1001', '1002', '1007', '1008', '1013', '1018', '1019', '1024', '1025', '1029', '1030', '1032', '1039', '1055', '1059', '1060', '1066', '1070', '1075', '1076', '1077', '1078', '1080', '1081', '1088', '1097', '1102', '1103', '1105', '1107', '1112', '1114', '1121', '1129', '1130', '1134', '1143', '1144', '1147', '1149', '1154', '1156', '1158', '1165', '1166', '1167', '1173', '1175', '1176', '1180', '1187', '1198', '1202', '1206', '1207', '1208', '1213', '1217', '1220', '1224', '1233', '1234', '1236', '1239', '1243', '1246', '1250', '1254', '1257', '1263', '1266', '1267', '1269', '1271', '1278', '1281', '1282', '1287', '1289', '1293', '1298', '1300', '1301', '1306', '1308', '1310', '1321', '1322', '1323', '1324', '1328', '1333', '1334', '1340', '1343', '1345', '1351', '1355', '1356', '1358', '1366', '1369', '1373', '1375', '1380', '1385', '1390', '1391', '1394', '1395', '1397', '1401', '1405', '1409', '1414', '1415', '1416', '1421', '1423', '1425', '1430', '1433', '1436', '1437', '1438', '1446', '1451', '1457', '1460', '1462', '1463', '1465', '1468', '1472', '1473', '1478', '1480', '1483', '1484', '1493', '1494', '1495', '1499', '1505', '1514', '1516', '1522', '1526', '1527', '1529', '1537', '1539', '1548', '1551', '1555', '1556', '1557', '1562', '1564', '1568', '1578', '1585', '1592', '1594', '1595', '1596', '1603', '1606', '1611', '1613', '1620', '1621', '1625', '1631', '1632', '1639', '1643', '1646', '1649', '1650', '1651', '1652', '1667', '1671', '1672', '1673', '1676', '1684', '1696', '1703', '1706', '1709', '1718', '1722', '1730', '1731', '1741', '1748', '1751', '1758', '1760', '1770', '1773', '1783', '1785', '1787', '1795', '1801', '1803', '1813', '1822', '1828', '1830', '1831', '1843', '1849', '1853', '1860', '1862', '1863', '1865', '1867', '1870', '1871', '1877', '1883', '1884', '1889', '1891', '1893', '1899', '1900', '1911', '1914', '1919', '1922', '1925', '1927', '1933', '1936', '1941', '1943', '1946', '1948', '1949', '1950', '1963', '1971', '1976', '1977', '1978', '1979', '1985', '1987', '1989', '1992', '1995', '1997', '2000']",True,5000,True,2,026555285c,0.0,0.0,0.0
./expes/v2_2021-03-19_issda-30_2000-prng-1-w5-p2,30_issda-2000,2000,first-2000,600,30,rng,num-start-2000,2000,25726,classic,2225.5980937480927,True,,True,1.0,1.0,1.0,1,"['4', '5', '12', '18', '19', '21', '22', '26', '30', '35', '36', '37', '38', '42', '43', '45', '46', '49', '53', '56', '58', '59', '60', '61', '63', '66', '67', '71', '73', '77', '78', '81', '82', '83', '85', '90', '94', '98', '115', '121', '129', '130', '132', '134', '143', '145', '146', '149', '150', '154', '157', '158', '167', '168', '171', '174', '178', '184', '186', '188', '189', '193', '198', '203', '205', '206', '207', '210', '211', '214', '219', '221', '222', '223', '225', '229', '234', '235', '236', '237', '242', '248', '257', '258', '259', '265', '268', '273', '276', '277', '278', '290', '291', '300', '302', '307', '316', '322', '325', '326', '327', '329', '332', '336', '342', '343', '345', '346', '348', '349', '352', '355', '363', '368', '371', '376', '379', '381', '383', '385', '386', '389', '398', '408', '409', '410', '411', '412', '421', '422', '424', '426', '429', '430', '435', '437', '441', '444', '446', '449', '451', '452', '455', '458', '459', '462', '465', '466', '469', '471', '473', '476', '478', '481', '482', '491', '495', '498', '500', '502', '504', '505', '512', '513', '517', '519', '520', '523', '530', '531', '546', '547', '549', '551', '552', '559', '568', '576', '577', '582', '594', '595', '596', '597', '602', '603', '604', '606', '607', '608', '611', '612', '621', '622', '626', '628', '629', '630', '632', '636', '639', '642', '645', '648', '649', '650', '651', '655', '656', '657', '658', '660', '667', '671', '672', '679', '681', '682', '685', '694', '695', '697', '699', '704', '705', '706', '708', '709', '711', '724', '729', '731', '736', '739', '747', '748', '752', '754', '759', '768', '775', '777', '778', '779', '781', '786', '792', '799', '800', '802', '806', '807', '809', '814', '817', '823', '824', '828', '829', '833', '847', '849', '853', '863', '865', '873', '874', '880', '885', '887', '892', '897', '899', '913', '918', '921', '922', '924', '928', '932', '934', '938', '939', '941', '942', '944', '961', '962', '968', '971', '977', '984', '986', '993', '994', '1000', '1002', '1003', '1009', '1011', '1015', '1016', '1017', '1023', '1024', '1026', '1027', '1029', '1033', '1034', '1035', '1037', '1040', '1042', '1043', '1045', '1050', '1053', '1054', '1058', '1063', '1067', '1073', '1081', '1091', '1095', '1103', '1106', '1107', '1109', '1110', '1112', '1115', '1116', '1118', '1122', '1123', '1124', '1127', '1128', '1129', '1133', '1136', '1140', '1149', '1150', '1154', '1156', '1157', '1160', '1166', '1168', '1169', '1175', '1177', '1180', '1184', '1185', '1186', '1188', '1197', '1202', '1204', '1207', '1210', '1211', '1212', '1215', '1221', '1222', '1229', '1230', '1232', '1233', '1237', '1241', '1245', '1248', '1253', '1254', '1255', '1257', '1260', '1266', '1276', '1277', '1280', '1289', '1292', '1293', '1302', '1316', '1318', '1326', '1328', '1329', '1331', '1335', '1336', '1345', '1351', '1352', '1356', '1360', '1362', '1363', '1364', '1373', '1374', '1377', '1379', '1381', '1382', '1383', '1387', '1389', '1395', '1406', '1408', '1410', '1424', '1426', '1439', '1440', '1441', '1442', '1444', '1453', '1457', '1458', '1465', '1473', '1478', '1480', '1483', '1486', '1487', '1488', '1494', '1496', '1501', '1511', '1512', '1517', '1522', '1524', '1538', '1543', '1545', '1548', '1555', '1559', '1562', '1565', '1572', '1573', '1578', '1579', '1589', '1590', '1593', '1594', '1595', '1597', '1598', '1602', '1603', '1605', '1608', '1609', '1611', '1612', '1615', '1616', '1618', '1623', '1624', '1629', '1631', '1633', '1634', '1636', '1643', '1644', '1646', '1647', '1648', '1652', '1654', '1656', '1658', '1662', '1666', '1673', '1674', '1676', '1679', '1680', '1681', '1682', '1683', '1692', '1696', '1697', '1700', '1705', '1710', '1712', '1716', '1721', '1722', '1723', '1724', '1731', '1734', '1735', '1736', '1738', '1742', '1744', '1748', '1756', '1757', '1759', '1760', '1762', '1764', '1767', '1773', '1774', '1777', '1778', '1782', '1786', '1794', '1800', '1805', '1808', '1813', '1815', '1818', '1825', '1826', '1830', '1831', '1835', '1837', '1843', '1845', '1847', '1850', '1858', '1863', '1864', '1865', '1866', '1871', '1873', '1877', '1879', '1883', '1885', '1887', '1889', '1895', '1896', '1897', '1898', '1907', '1910', '1918', '1921', '1922', '1924', '1927', '1928', '1933', '1934', '1936', '1945', '1946', '1950', '1951', '1955', '1956', '1961', '1966', '1971', '1976', '1978', '1980', '1981', '1983', '1985', '1987', '1988', '1994', '1995', '1998', '1999']",False,5000,True,2,f4c74b9be1,0.0,1.0,1.0
./expes/v2_2021-03-19_issda-30_2000-prng-1-w5-p2,30_issda-2000,2000,first-2000,400,20,rng,num-start-200,200,25726,classic,5015.464549064636,False,,False,0,,,0,"['4', '5', '12', '18', '19', '26', '30', '35', '36', '37', '38', '43', '45', '46', '49', '53', '58', '59', '60', '61', '63', '67', '71', '73', '77', '78', '83', '90', '98', '115', '121', '130', '134', '143', '145', '157', '171', '174', '178', '188', '193', '198', '203', '205', '210', '214', '222', '223', '225', '234', '242', '248', '258', '265', '268', '273', '276', '277', '300', '322', '325', '327', '329', '336', '342', '343', '345', '346', '348', '349', '352', '355', '363', '371', '379', '381', '386', '389', '398', '409', '410', '411', '412', '421', '422', '429', '430', '435', '437', '444', '446', '449', '452', '455', '458', '462', '465', '469', '471', '473', '476', '478', '481', '498', '512', '517', '520', '523', '530', '546', '551', '552', '559', '576', '577', '582', '594', '595', '604', '607', '608', '611', '612', '622', '628', '632', '636', '639', '651', '658', '660', '667', '672', '679', '682', '695', '704', '705', '706', '708', '709', '711', '724', '731', '747', '752', '759', '768', '775', '777', '778', '781', '786', '792', '799', '806', '807', '809', '814', '824', '828', '829', '847', '849', '853', '863', '865', '873', '874', '880', '885', '887', '897', '899', '913', '921', '924', '928', '932', '939', '941', '942', '944', '962', '968', '971', '984', '986', '993', '994', '1000', '1003', '1009', '1015', '1016', '1017', '1023', '1024', '1026', '1029', '1033', '1034', '1035', '1037', '1040', '1042', '1043', '1045', '1050', '1053', '1058', '1063', '1067', '1073', '1081', '1091', '1095', '1103', '1106', '1107', '1109', '1116', '1122', '1123', '1124', '1128', '1129', '1133', '1136', '1140', '1149', '1150', '1154', '1157', '1166', '1168', '1175', '1180', '1184', '1185', '1197', '1204', '1207', '1210', '1211', '1212', '1215', '1229', '1241', '1245', '1248', '1254', '1255', '1260', '1276', '1277', '1280', '1289', '1292', '1293', '1302', '1316', '1326', '1328', '1329', '1331', '1335', '1345', '1351', '1352', '1360', '1362', '1364', '1373', '1379', '1381', '1382', '1383', '1387', '1389', '1406', '1408', '1424', '1426', '1439', '1440', '1441', '1442', '1444', '1457', '1458', '1473', '1478', '1483', '1486', '1487', '1494', '1496', '1501', '1511', '1512', '1517', '1522', '1524', '1545', '1548', '1559', '1562', '1565', '1572', '1573', '1579', '1589', '1593', '1595', '1598', '1603', '1605', '1611', '1616', '1631', '1633', '1634', '1636', '1643', '1644', '1646', '1648', '1658', '1662', '1666', '1673', '1674', '1679', '1681', '1696', '1700', '1705', '1712', '1716', '1721', '1724', '1734', '1736', '1738', '1742', '1744', '1748', '1756', '1757', '1759', '1762', '1764', '1778', '1782', '1786', '1794', '1800', '1805', '1808', '1815', '1830', '1835', '1837', '1843', '1845', '1847', '1864', '1865', '1873', '1877', '1879', '1885', '1889', '1898', '1907', '1910', '1918', '1921', '1922', '1924', '1927', '1928', '1933', '1936', '1946', '1950', '1951', '1956', '1961', '1966', '1971', '1978', '1981', '1983', '1985', '1994', '1995', '1998', '1999']",True,5000,True,2,f312e91e09,0.0,0.0,0.0
