expe,clients,clients_size,clients_subset,agg_size,agg_size_pc,method,days,days_size,days_total,noise_method,time,valid,valid_sum,success,score_avg,score_min,score_max,nsols,oracle,wall_hit,wall_time,pooled,pool_size,uuid,infeasible,optimal,valid_sums
./expes/v2_2021-03-19_issda-30_2000-prng-1-w5-p2,30_issda-2000,2000,first-2000,200,10,rng,num-start-1200,1200,25726,classic,679.7124519348145,True,,True,1.0,1.0,1.0,1,"['12', '13', '19', '21', '23', '27', '29', '42', '46', '47', '57', '63', '68', '80', '89', '91', '96', '99', '122', '135', '146', '161', '172', '177', '191', '207', '212', '214', '222', '233', '238', '249', '252', '290', '291', '295', '302', '314', '316', '317', '337', '353', '365', '406', '443', '452', '456', '460', '465', '467', '476', '481', '488', '490', '491', '498', '501', '520', '523', '524', '529', '531', '533', '549', '580', '582', '584', '601', '607', '608', '619', '624', '633', '635', '636', '649', '655', '656', '687', '713', '741', '757', '765', '787', '796', '805', '808', '819', '820', '830', '832', '834', '839', '852', '854', '861', '867', '876', '889', '912', '915', '929', '931', '934', '936', '944', '952', '956', '961', '973', '978', '985', '988', '1004', '1007', '1013', '1023', '1030', '1047', '1059', '1072', '1077', '1105', '1110', '1153', '1186', '1193', '1227', '1234', '1235', '1237', '1242', '1256', '1282', '1284', '1293', '1296', '1301', '1308', '1313', '1317', '1332', '1341', '1343', '1347', '1351', '1366', '1367', '1370', '1395', '1407', '1421', '1432', '1433', '1441', '1449', '1450', '1457', '1491', '1496', '1512', '1523', '1568', '1603', '1604', '1614', '1617', '1619', '1630', '1655', '1664', '1667', '1669', '1674', '1700', '1706', '1721', '1722', '1726', '1727', '1735', '1741', '1750', '1771', '1810', '1830', '1837', '1843', '1882', '1883', '1884', '1895', '1927', '1943', '1950', '1952', '1959', '1981', '1983', '1995']",False,5000,True,2,23204e1a87,0.0,1.0,1.0
./expes/v2_2021-03-19_issda-30_2000-prng-1-w5-p2,30_issda-2000,2000,first-2000,500,25,rng,num-start-1600,1600,25726,classic,1855.0687692165375,True,,True,1.0,1.0,1.0,1,"['2', '8', '11', '12', '14', '15', '17', '18', '25', '27', '31', '32', '36', '38', '40', '46', '49', '53', '54', '56', '59', '60', '61', '62', '70', '71', '74', '80', '84', '85', '89', '97', '100', '104', '106', '108', '109', '111', '113', '119', '121', '124', '125', '130', '132', '133', '135', '136', '137', '141', '142', '153', '155', '156', '161', '166', '167', '170', '171', '172', '173', '174', '176', '178', '180', '182', '189', '192', '194', '197', '203', '204', '205', '209', '212', '213', '218', '223', '226', '227', '228', '229', '230', '242', '246', '247', '249', '263', '266', '271', '272', '273', '282', '283', '284', '285', '289', '292', '298', '304', '305', '306', '322', '332', '333', '337', '345', '347', '350', '351', '354', '355', '361', '372', '382', '383', '387', '388', '394', '405', '406', '408', '409', '411', '416', '420', '428', '430', '431', '433', '438', '452', '453', '455', '456', '460', '466', '473', '474', '484', '485', '488', '498', '499', '507', '509', '515', '519', '526', '531', '538', '539', '547', '548', '550', '553', '562', '564', '567', '569', '576', '584', '595', '597', '603', '607', '615', '616', '617', '620', '630', '633', '646', '651', '659', '663', '666', '674', '675', '677', '684', '685', '687', '692', '693', '700', '709', '711', '712', '715', '724', '727', '747', '749', '750', '757', '761', '763', '764', '765', '776', '777', '782', '785', '786', '789', '791', '796', '797', '813', '816', '818', '822', '824', '825', '826', '833', '840', '843', '854', '855', '861', '864', '866', '870', '871', '878', '881', '888', '893', '900', '901', '910', '916', '920', '923', '925', '926', '929', '934', '936', '940', '946', '949', '950', '956', '958', '964', '971', '973', '974', '980', '985', '988', '1004', '1007', '1008', '1013', '1016', '1018', '1019', '1026', '1029', '1030', '1035', '1037', '1045', '1053', '1060', '1061', '1064', '1070', '1073', '1080', '1084', '1097', '1101', '1106', '1110', '1111', '1114', '1115', '1118', '1121', '1124', '1132', '1136', '1137', '1139', '1146', '1148', '1151', '1154', '1158', '1160', '1165', '1174', '1176', '1177', '1179', '1186', '1188', '1190', '1197', '1199', '1205', '1206', '1209', '1210', '1212', '1215', '1223', '1224', '1228', '1235', '1238', '1239', '1240', '1242', '1243', '1245', '1246', '1247', '1248', '1251', '1252', '1253', '1256', '1263', '1275', '1280', '1281', '1284', '1290', '1300', '1305', '1309', '1315', '1317', '1322', '1327', '1334', '1350', '1359', '1368', '1372', '1373', '1375', '1381', '1386', '1389', '1391', '1396', '1399', '1400', '1409', '1410', '1419', '1426', '1428', '1433', '1434', '1436', '1441', '1442', '1445', '1452', '1453', '1458', '1466', '1474', '1476', '1485', '1487', '1490', '1492', '1495', '1503', '1508', '1510', '1511', '1518', '1527', '1528', '1529', '1531', '1542', '1558', '1560', '1564', '1565', '1566', '1567', '1580', '1581', '1583', '1586', '1587', '1589', '1593', '1598', '1599', '1604', '1606', '1611', '1618', '1625', '1628', '1631', '1636', '1637', '1638', '1639', '1645', '1654', '1658', '1659', '1669', '1681', '1686', '1706', '1708', '1715', '1728', '1732', '1733', '1743', '1745', '1746', '1760', '1762', '1770', '1775', '1776', '1777', '1780', '1786', '1791', '1792', '1794', '1796', '1797', '1800', '1801', '1803', '1804', '1806', '1810', '1816', '1817', '1818', '1821', '1822', '1828', '1829', '1834', '1835', '1837', '1840', '1841', '1847', '1856', '1857', '1863', '1867', '1880', '1883', '1885', '1887', '1891', '1893', '1894', '1907', '1918', '1922', '1925', '1927', '1928', '1933', '1934', '1938', '1939', '1940', '1948', '1949', '1954', '1957', '1958', '1963', '1968', '1970', '1971', '1972', '1975', '1980', '1982', '1984', '1997', '1998', '2000']",False,5000,True,2,3469f1f55f,0.0,1.0,1.0
./expes/v2_2021-03-19_issda-30_2000-prng-1-w5-p2,30_issda-2000,2000,first-2000,1000,50,rng,num-start-600,600,25726,classic,5057.844470977783,False,,False,0,,,0,"['6', '8', '10', '11', '13', '14', '16', '17', '19', '23', '24', '25', '27', '28', '31', '32', '33', '35', '36', '37', '39', '40', '44', '46', '48', '49', '59', '60', '63', '64', '65', '70', '75', '77', '78', '80', '82', '83', '85', '87', '89', '91', '95', '98', '99', '100', '105', '108', '109', '110', '112', '113', '115', '116', '121', '122', '124', '125', '127', '128', '132', '133', '134', '135', '138', '139', '141', '145', '146', '149', '150', '151', '152', '156', '157', '158', '160', '161', '162', '166', '168', '171', '174', '176', '181', '183', '187', '189', '190', '193', '196', '198', '202', '204', '205', '206', '210', '213', '214', '220', '222', '223', '228', '231', '232', '237', '239', '240', '247', '248', '249', '252', '256', '258', '261', '263', '264', '267', '270', '271', '272', '273', '274', '279', '282', '283', '285', '288', '292', '293', '295', '296', '297', '298', '301', '302', '303', '306', '308', '309', '311', '312', '314', '315', '318', '319', '321', '322', '323', '324', '325', '328', '330', '331', '333', '335', '337', '338', '341', '344', '345', '347', '348', '349', '351', '353', '354', '355', '356', '357', '358', '359', '361', '366', '367', '368', '372', '376', '377', '378', '379', '383', '384', '385', '392', '393', '401', '402', '403', '405', '409', '410', '411', '418', '421', '423', '428', '429', '430', '433', '434', '435', '436', '438', '440', '441', '444', '446', '448', '449', '450', '451', '452', '453', '454', '455', '456', '458', '462', '463', '465', '467', '469', '470', '471', '474', '475', '476', '477', '478', '479', '481', '482', '483', '485', '486', '488', '489', '490', '491', '492', '493', '494', '497', '500', '505', '507', '511', '514', '515', '516', '518', '519', '521', '522', '523', '524', '525', '526', '529', '531', '533', '535', '536', '537', '540', '541', '545', '548', '553', '556', '557', '558', '560', '562', '566', '568', '569', '573', '575', '577', '581', '583', '587', '588', '589', '593', '594', '595', '605', '606', '607', '608', '609', '612', '613', '617', '618', '620', '623', '625', '626', '628', '635', '636', '638', '639', '642', '644', '645', '646', '647', '649', '650', '651', '652', '653', '655', '657', '659', '660', '661', '663', '666', '667', '669', '674', '676', '677', '678', '679', '680', '681', '682', '683', '684', '685', '686', '688', '689', '691', '692', '693', '694', '697', '702', '704', '705', '706', '712', '713', '714', '715', '719', '721', '722', '723', '724', '725', '726', '728', '729', '732', '735', '736', '738', '740', '742', '743', '744', '750', '752', '753', '754', '755', '756', '758', '760', '762', '763', '764', '765', '766', '768', '769', '770', '771', '775', '776', '778', '780', '781', '789', '793', '795', '796', '797', '799', '800', '801', '804', '807', '810', '814', '815', '818', '819', '822', '823', '825', '828', '829', '830', '831', '832', '834', '835', '836', '844', '847', '849', '852', '853', '855', '857', '860', '862', '864', '866', '867', '868', '870', '873', '874', '875', '878', '883', '886', '887', '888', '889', '890', '894', '895', '896', '898', '900', '901', '903', '905', '906', '907', '909', '910', '912', '913', '919', '920', '922', '923', '924', '926', '929', '931', '933', '938', '939', '941', '942', '943', '944', '945', '946', '947', '951', '955', '956', '957', '958', '959', '960', '963', '964', '970', '971', '972', '974', '976', '977', '980', '981', '983', '986', '987', '988', '989', '990', '992', '994', '995', '1003', '1005', '1006', '1008', '1009', '1011', '1012', '1014', '1015', '1017', '1019', '1020', '1021', '1022', '1024', '1025', '1027', '1029', '1033', '1035', '1036', '1037', '1038', '1039', '1040', '1041', '1046', '1047', '1048', '1050', '1052', '1056', '1057', '1058', '1059', '1060', '1061', '1062', '1064', '1065', '1066', '1067', '1068', '1071', '1075', '1077', '1082', '1085', '1086', '1089', '1092', '1094', '1097', '1098', '1100', '1103', '1104', '1110', '1114', '1115', '1118', '1119', '1121', '1122', '1124', '1127', '1130', '1134', '1135', '1137', '1141', '1144', '1147', '1149', '1157', '1158', '1160', '1161', '1162', '1164', '1167', '1168', '1169', '1170', '1171', '1172', '1176', '1178', '1180', '1183', '1184', '1186', '1187', '1188', '1190', '1191', '1193', '1196', '1197', '1199', '1202', '1203', '1204', '1209', '1216', '1220', '1221', '1222', '1225', '1227', '1230', '1236', '1237', '1238', '1239', '1240', '1242', '1245', '1246', '1250', '1251', '1253', '1254', '1257', '1258', '1260', '1261', '1263', '1265', '1267', '1270', '1271', '1273', '1275', '1277', '1280', '1283', '1285', '1286', '1287', '1288', '1293', '1295', '1296', '1300', '1302', '1303', '1306', '1307', '1311', '1314', '1316', '1317', '1318', '1319', '1322', '1323', '1324', '1325', '1326', '1328', '1329', '1330', '1336', '1341', '1342', '1343', '1344', '1345', '1346', '1348', '1349', '1350', '1352', '1357', '1358', '1362', '1363', '1370', '1371', '1375', '1376', '1379', '1386', '1387', '1388', '1390', '1391', '1392', '1393', '1394', '1396', '1398', '1399', '1402', '1404', '1410', '1411', '1412', '1414', '1415', '1417', '1419', '1420', '1422', '1423', '1425', '1426', '1427', '1428', '1435', '1436', '1438', '1445', '1447', '1450', '1451', '1452', '1454', '1455', '1456', '1457', '1459', '1461', '1465', '1472', '1473', '1475', '1476', '1477', '1478', '1482', '1483', '1486', '1488', '1489', '1493', '1496', '1499', '1505', '1506', '1508', '1511', '1512', '1513', '1515', '1516', '1518', '1519', '1520', '1522', '1524', '1526', '1527', '1528', '1534', '1535', '1537', '1538', '1539', '1541', '1542', '1543', '1544', '1546', '1547', '1549', '1551', '1552', '1554', '1557', '1558', '1561', '1568', '1572', '1573', '1574', '1576', '1581', '1582', '1583', '1585', '1586', '1589', '1590', '1591', '1592', '1593', '1595', '1600', '1601', '1602', '1604', '1605', '1606', '1608', '1613', '1614', '1615', '1616', '1623', '1625', '1627', '1629', '1631', '1632', '1633', '1634', '1636', '1637', '1639', '1640', '1641', '1645', '1646', '1647', '1648', '1649', '1650', '1651', '1653', '1655', '1656', '1658', '1659', '1660', '1662', '1663', '1664', '1667', '1671', '1672', '1681', '1683', '1684', '1686', '1690', '1693', '1694', '1695', '1701', '1702', '1705', '1706', '1707', '1708', '1709', '1711', '1713', '1716', '1717', '1718', '1721', '1722', '1724', '1726', '1728', '1729', '1731', '1732', '1735', '1736', '1737', '1738', '1741', '1743', '1744', '1745', '1747', '1748', '1749', '1751', '1752', '1753', '1756', '1757', '1763', '1768', '1769', '1773', '1776', '1777', '1780', '1781', '1782', '1783', '1784', '1785', '1786', '1787', '1788', '1791', '1792', '1793', '1797', '1800', '1801', '1802', '1804', '1806', '1809', '1812', '1813', '1815', '1816', '1817', '1818', '1823', '1824', '1827', '1829', '1830', '1831', '1833', '1835', '1836', '1841', '1842', '1847', '1848', '1849', '1850', '1851', '1854', '1857', '1858', '1859', '1862', '1863', '1867', '1870', '1874', '1875', '1877', '1880', '1884', '1886', '1888', '1889', '1890', '1891', '1893', '1894', '1895', '1896', '1899', '1900', '1901', '1906', '1908', '1911', '1913', '1914', '1915', '1916', '1917', '1918', '1922', '1926', '1927', '1928', '1930', '1931', '1932', '1935', '1936', '1938', '1940', '1942', '1945', '1946', '1947', '1948', '1949', '1950', '1951', '1952', '1953', '1954', '1955', '1958', '1959', '1960', '1964', '1965', '1967', '1971', '1973', '1977', '1979', '1980', '1981', '1982', '1983', '1984', '1985', '1987', '1992', '1998', '2000']",True,5000,True,2,d4aadd8237,0.0,0.0,0.0
./expes/v2_2021-03-19_issda-30_2000-prng-1-w5-p2,30_issda-2000,2000,first-2000,700,35,rng,num-start-200,200,25726,classic,5021.075838804245,False,,False,0,,,0,"['1', '4', '6', '10', '11', '13', '20', '21', '22', '24', '26', '27', '31', '35', '38', '40', '42', '45', '58', '59', '62', '63', '64', '66', '67', '68', '70', '76', '78', '82', '85', '93', '94', '103', '104', '106', '107', '111', '117', '121', '122', '123', '126', '128', '131', '137', '140', '142', '145', '152', '153', '154', '156', '157', '159', '166', '170', '172', '176', '178', '180', '181', '183', '184', '190', '191', '192', '193', '197', '200', '206', '208', '209', '213', '215', '216', '223', '225', '227', '230', '233', '234', '235', '240', '245', '246', '248', '253', '256', '258', '260', '261', '262', '263', '270', '272', '273', '276', '278', '280', '281', '283', '286', '291', '292', '296', '297', '299', '302', '303', '306', '308', '309', '310', '312', '317', '318', '323', '324', '325', '329', '330', '334', '335', '337', '346', '347', '349', '353', '355', '359', '361', '362', '365', '373', '374', '377', '380', '381', '385', '386', '387', '394', '395', '396', '397', '398', '402', '403', '404', '406', '407', '408', '412', '414', '429', '430', '439', '442', '443', '454', '457', '458', '461', '462', '464', '472', '475', '476', '479', '489', '493', '498', '499', '501', '502', '503', '512', '513', '515', '516', '519', '522', '523', '524', '525', '536', '540', '541', '544', '545', '549', '552', '554', '557', '559', '560', '562', '563', '565', '567', '569', '574', '577', '586', '588', '593', '596', '597', '598', '602', '603', '613', '622', '624', '625', '627', '640', '649', '652', '655', '656', '663', '667', '674', '675', '678', '681', '682', '688', '689', '692', '693', '698', '704', '705', '709', '718', '719', '732', '738', '739', '740', '741', '742', '744', '745', '747', '751', '752', '753', '759', '760', '761', '763', '765', '768', '771', '773', '774', '778', '779', '780', '781', '787', '788', '792', '796', '798', '799', '806', '815', '816', '818', '819', '829', '834', '835', '838', '840', '841', '844', '848', '856', '859', '864', '865', '867', '870', '872', '874', '879', '881', '883', '887', '893', '897', '901', '903', '904', '909', '910', '912', '913', '914', '916', '919', '921', '925', '926', '933', '934', '938', '939', '948', '950', '951', '957', '961', '964', '965', '968', '969', '971', '973', '978', '979', '980', '981', '982', '983', '984', '991', '994', '995', '996', '997', '999', '1000', '1001', '1002', '1007', '1008', '1013', '1018', '1019', '1024', '1025', '1029', '1030', '1032', '1035', '1038', '1039', '1052', '1055', '1059', '1060', '1065', '1066', '1070', '1075', '1076', '1077', '1078', '1080', '1081', '1088', '1089', '1097', '1102', '1103', '1105', '1107', '1109', '1110', '1112', '1113', '1114', '1116', '1118', '1121', '1129', '1130', '1134', '1143', '1144', '1147', '1149', '1154', '1155', '1156', '1158', '1165', '1166', '1167', '1172', '1173', '1175', '1176', '1180', '1187', '1198', '1202', '1205', '1206', '1207', '1208', '1210', '1212', '1213', '1214', '1217', '1220', '1224', '1233', '1234', '1236', '1239', '1243', '1246', '1250', '1253', '1254', '1257', '1258', '1262', '1263', '1266', '1267', '1269', '1271', '1275', '1278', '1281', '1282', '1283', '1284', '1287', '1288', '1289', '1292', '1293', '1298', '1300', '1301', '1306', '1308', '1310', '1315', '1320', '1321', '1322', '1323', '1324', '1328', '1331', '1333', '1334', '1340', '1341', '1343', '1345', '1351', '1355', '1356', '1358', '1360', '1362', '1366', '1367', '1369', '1373', '1375', '1380', '1385', '1387', '1390', '1391', '1394', '1395', '1397', '1401', '1405', '1409', '1411', '1414', '1415', '1416', '1418', '1421', '1422', '1423', '1425', '1430', '1433', '1436', '1437', '1438', '1444', '1446', '1451', '1457', '1459', '1460', '1462', '1463', '1465', '1468', '1472', '1473', '1474', '1478', '1480', '1483', '1484', '1488', '1491', '1493', '1494', '1495', '1499', '1504', '1505', '1511', '1514', '1516', '1522', '1524', '1526', '1527', '1529', '1537', '1539', '1542', '1543', '1547', '1548', '1551', '1553', '1555', '1556', '1557', '1561', '1562', '1563', '1564', '1568', '1572', '1574', '1578', '1585', '1588', '1591', '1592', '1594', '1595', '1596', '1598', '1603', '1606', '1611', '1613', '1620', '1621', '1625', '1628', '1629', '1631', '1632', '1634', '1639', '1642', '1643', '1646', '1647', '1649', '1650', '1651', '1652', '1656', '1658', '1663', '1667', '1671', '1672', '1673', '1676', '1677', '1680', '1684', '1696', '1697', '1701', '1703', '1705', '1706', '1709', '1712', '1715', '1717', '1718', '1722', '1724', '1725', '1730', '1731', '1741', '1748', '1751', '1752', '1758', '1760', '1761', '1765', '1770', '1773', '1777', '1781', '1782', '1783', '1785', '1787', '1795', '1801', '1803', '1808', '1809', '1813', '1819', '1821', '1822', '1828', '1829', '1830', '1831', '1842', '1843', '1849', '1853', '1860', '1862', '1863', '1865', '1867', '1868', '1870', '1871', '1877', '1878', '1883', '1884', '1887', '1889', '1891', '1893', '1898', '1899', '1900', '1902', '1903', '1911', '1913', '1914', '1919', '1922', '1925', '1927', '1931', '1933', '1936', '1937', '1941', '1942', '1943', '1946', '1948', '1949', '1950', '1954', '1963', '1971', '1976', '1977', '1978', '1979', '1981', '1982', '1984', '1985', '1986', '1987', '1989', '1990', '1992', '1994', '1995', '1997', '1998', '2000']",True,5000,True,2,62b6a85097,0.0,0.0,0.0
./expes/v2_2021-03-19_issda-30_2000-prng-1-w5-p2,30_issda-2000,2000,first-2000,400,20,rng,num-start-1400,1400,25726,classic,1319.9662971496582,True,,True,1.0,1.0,1.0,1,"['6', '8', '10', '19', '24', '31', '32', '35', '36', '39', '49', '59', '63', '64', '70', '75', '85', '89', '98', '113', '115', '116', '121', '122', '124', '127', '132', '135', '138', '141', '145', '151', '152', '161', '162', '168', '174', '190', '202', '204', '205', '206', '222', '223', '237', '239', '240', '249', '256', '264', '267', '288', '292', '295', '301', '302', '311', '319', '321', '322', '324', '325', '328', '331', '337', '341', '347', '349', '351', '353', '355', '368', '383', '401', '402', '421', '423', '428', '436', '438', '451', '458', '462', '463', '469', '470', '474', '475', '476', '479', '482', '490', '491', '500', '507', '511', '515', '516', '523', '524', '533', '537', '540', '558', '560', '562', '575', '587', '589', '606', '620', '626', '636', '638', '639', '642', '645', '646', '652', '653', '660', '663', '666', '677', '678', '679', '681', '683', '686', '688', '689', '691', '693', '694', '697', '704', '706', '712', '713', '725', '728', '729', '732', '738', '753', '755', '756', '763', '771', '778', '789', '793', '796', '799', '800', '804', '807', '810', '818', '823', '829', '830', '831', '836', '857', '860', '862', '867', '883', '886', '889', '900', '905', '906', '910', '912', '913', '920', '922', '923', '924', '926', '931', '933', '939', '942', '945', '947', '951', '955', '956', '957', '958', '959', '960', '970', '972', '976', '981', '983', '986', '992', '1003', '1005', '1008', '1009', '1014', '1021', '1022', '1024', '1025', '1027', '1029', '1036', '1037', '1048', '1050', '1062', '1065', '1066', '1068', '1086', '1094', '1097', '1114', '1115', '1122', '1124', '1127', '1130', '1137', '1141', '1157', '1158', '1161', '1167', '1170', '1172', '1180', '1183', '1186', '1191', '1196', '1197', '1202', '1203', '1216', '1220', '1222', '1239', '1251', '1254', '1257', '1258', '1263', '1265', '1267', '1283', '1288', '1302', '1314', '1323', '1324', '1325', '1329', '1336', '1343', '1349', '1357', '1363', '1370', '1371', '1386', '1387', '1388', '1390', '1396', '1398', '1402', '1404', '1415', '1419', '1422', '1423', '1425', '1427', '1428', '1438', '1445', '1450', '1451', '1454', '1473', '1477', '1478', '1482', '1483', '1486', '1489', '1493', '1508', '1511', '1515', '1518', '1520', '1526', '1537', '1539', '1544', '1547', '1551', '1554', '1557', '1558', '1592', '1593', '1595', '1602', '1604', '1606', '1608', '1615', '1616', '1627', '1631', '1634', '1637', '1640', '1649', '1651', '1659', '1683', '1686', '1690', '1701', '1711', '1716', '1718', '1721', '1722', '1728', '1729', '1735', '1737', '1752', '1753', '1756', '1757', '1763', '1769', '1773', '1781', '1783', '1787', '1792', '1797', '1800', '1802', '1806', '1812', '1816', '1817', '1823', '1827', '1829', '1830', '1831', '1842', '1854', '1858', '1859', '1862', '1867', '1870', '1874', '1877', '1884', '1888', '1890', '1895', '1896', '1900', '1901', '1906', '1915', '1916', '1922', '1935', '1936', '1938', '1940', '1942', '1953', '1965', '1967', '1971', '1977', '1982', '1992', '2000']",False,5000,True,2,6a056a147e,0.0,1.0,1.0
./expes/v2_2021-03-19_issda-30_2000-prng-1-w5-p2,30_issda-2000,2000,first-2000,800,40,rng,num-start-600,600,25726,classic,5061.950427770615,False,,False,0,,,0,"['2', '7', '8', '11', '12', '14', '15', '17', '18', '20', '21', '23', '24', '25', '27', '29', '31', '32', '36', '38', '40', '42', '46', '49', '53', '54', '56', '58', '59', '60', '61', '62', '68', '70', '71', '74', '80', '84', '85', '86', '87', '89', '97', '100', '102', '104', '105', '106', '108', '109', '111', '113', '116', '117', '119', '120', '121', '122', '124', '125', '130', '131', '132', '133', '134', '135', '136', '137', '141', '142', '147', '152', '153', '155', '156', '157', '161', '162', '166', '167', '170', '171', '172', '173', '174', '176', '178', '180', '182', '183', '188', '189', '192', '193', '194', '197', '198', '203', '204', '205', '209', '210', '212', '213', '218', '223', '226', '227', '228', '229', '230', '242', '243', '244', '246', '247', '249', '253', '263', '266', '271', '272', '273', '276', '277', '282', '283', '284', '285', '288', '289', '292', '295', '298', '301', '304', '305', '306', '312', '319', '322', '329', '331', '332', '333', '335', '337', '341', '345', '346', '347', '350', '351', '352', '354', '355', '361', '362', '365', '367', '371', '372', '373', '374', '375', '382', '383', '387', '388', '391', '394', '400', '405', '406', '408', '409', '411', '412', '414', '416', '420', '421', '423', '428', '430', '431', '432', '433', '438', '444', '452', '453', '455', '456', '457', '459', '460', '462', '466', '473', '474', '476', '484', '485', '488', '496', '497', '498', '499', '503', '507', '509', '515', '519', '520', '522', '526', '530', '531', '532', '533', '535', '538', '539', '547', '548', '550', '553', '557', '559', '562', '564', '567', '569', '571', '576', '581', '583', '584', '585', '590', '595', '596', '597', '599', '603', '605', '607', '610', '615', '616', '617', '620', '625', '627', '630', '631', '633', '636', '638', '642', '644', '645', '646', '651', '657', '659', '661', '662', '663', '666', '673', '674', '675', '677', '678', '684', '685', '687', '688', '691', '692', '693', '694', '698', '700', '706', '709', '711', '712', '714', '715', '723', '724', '727', '732', '734', '736', '746', '747', '748', '749', '750', '757', '758', '761', '763', '764', '765', '766', '767', '776', '777', '780', '782', '785', '786', '789', '791', '796', '797', '798', '799', '810', '811', '813', '816', '817', '818', '822', '824', '825', '826', '827', '832', '833', '835', '836', '837', '838', '840', '843', '846', '850', '853', '854', '855', '861', '863', '864', '866', '867', '868', '870', '871', '873', '875', '878', '881', '888', '892', '893', '894', '896', '899', '900', '901', '903', '910', '916', '920', '923', '925', '926', '929', '930', '934', '936', '937', '940', '946', '949', '950', '951', '952', '956', '958', '962', '964', '965', '969', '971', '973', '974', '977', '980', '981', '985', '987', '988', '1004', '1007', '1008', '1013', '1016', '1017', '1018', '1019', '1021', '1026', '1028', '1029', '1030', '1035', '1036', '1037', '1041', '1042', '1044', '1045', '1050', '1053', '1056', '1057', '1059', '1060', '1061', '1063', '1064', '1066', '1070', '1071', '1072', '1073', '1075', '1077', '1079', '1080', '1083', '1084', '1088', '1089', '1091', '1093', '1097', '1100', '1101', '1102', '1106', '1110', '1111', '1113', '1114', '1115', '1118', '1121', '1124', '1132', '1133', '1136', '1137', '1139', '1142', '1146', '1148', '1151', '1154', '1158', '1160', '1162', '1165', '1169', '1173', '1174', '1176', '1177', '1179', '1183', '1185', '1186', '1188', '1190', '1191', '1197', '1198', '1199', '1202', '1204', '1205', '1206', '1209', '1210', '1212', '1215', '1223', '1224', '1228', '1231', '1235', '1238', '1239', '1240', '1242', '1243', '1245', '1246', '1247', '1248', '1251', '1252', '1253', '1255', '1256', '1263', '1264', '1275', '1280', '1281', '1284', '1290', '1295', '1300', '1303', '1305', '1308', '1309', '1312', '1315', '1317', '1320', '1322', '1325', '1327', '1328', '1330', '1334', '1338', '1347', '1349', '1350', '1357', '1358', '1359', '1364', '1367', '1368', '1370', '1371', '1372', '1373', '1375', '1381', '1386', '1387', '1389', '1390', '1391', '1393', '1394', '1395', '1396', '1399', '1400', '1402', '1405', '1409', '1410', '1414', '1415', '1419', '1421', '1423', '1426', '1428', '1433', '1434', '1436', '1439', '1441', '1442', '1445', '1446', '1449', '1452', '1453', '1454', '1455', '1457', '1458', '1466', '1468', '1469', '1474', '1476', '1481', '1483', '1485', '1487', '1489', '1490', '1491', '1492', '1495', '1503', '1508', '1510', '1511', '1513', '1518', '1520', '1523', '1526', '1527', '1528', '1529', '1531', '1532', '1533', '1541', '1542', '1545', '1546', '1551', '1558', '1559', '1560', '1561', '1564', '1565', '1566', '1567', '1572', '1580', '1581', '1582', '1583', '1584', '1585', '1586', '1587', '1589', '1592', '1593', '1594', '1595', '1597', '1598', '1599', '1604', '1606', '1611', '1618', '1625', '1628', '1629', '1631', '1634', '1636', '1637', '1638', '1639', '1645', '1653', '1654', '1656', '1658', '1659', '1669', '1681', '1682', '1684', '1686', '1688', '1703', '1705', '1706', '1708', '1713', '1715', '1719', '1720', '1721', '1724', '1728', '1731', '1732', '1733', '1734', '1738', '1741', '1743', '1744', '1745', '1746', '1749', '1760', '1762', '1763', '1770', '1774', '1775', '1776', '1777', '1779', '1780', '1786', '1791', '1792', '1794', '1796', '1797', '1800', '1801', '1803', '1804', '1806', '1808', '1809', '1810', '1813', '1816', '1817', '1818', '1820', '1821', '1822', '1825', '1828', '1829', '1831', '1834', '1835', '1837', '1838', '1840', '1841', '1847', '1849', '1856', '1857', '1861', '1863', '1867', '1874', '1875', '1880', '1883', '1885', '1887', '1889', '1891', '1893', '1894', '1903', '1907', '1908', '1911', '1918', '1922', '1925', '1927', '1928', '1930', '1932', '1933', '1934', '1936', '1938', '1939', '1940', '1945', '1947', '1948', '1949', '1953', '1954', '1957', '1958', '1960', '1963', '1967', '1968', '1970', '1971', '1972', '1975', '1976', '1980', '1982', '1984', '1985', '1986', '1988', '1991', '1992', '1994', '1995', '1997', '1998', '2000']",True,5000,True,2,03fdba2205,0.0,0.0,0.0
./expes/v2_2021-03-19_issda-30_2000-prng-1-w5-p2,30_issda-2000,2000,first-2000,800,40,rng,num-start-1400,1400,25726,classic,5140.294921159744,True,,False,1.0,1.0,1.0,1,"['1', '3', '7', '8', '9', '12', '13', '16', '19', '21', '23', '27', '29', '30', '32', '35', '40', '41', '42', '44', '45', '46', '47', '51', '54', '57', '58', '63', '67', '68', '69', '73', '75', '78', '80', '81', '84', '88', '89', '90', '91', '96', '99', '106', '108', '113', '114', '115', '116', '119', '120', '122', '123', '125', '133', '135', '137', '146', '150', '152', '153', '157', '161', '162', '163', '164', '165', '169', '172', '177', '178', '183', '184', '186', '187', '189', '190', '191', '196', '198', '199', '202', '205', '207', '211', '212', '214', '215', '219', '220', '221', '222', '223', '231', '233', '236', '238', '241', '242', '245', '247', '249', '252', '254', '255', '257', '258', '261', '268', '269', '271', '274', '280', '290', '291', '292', '294', '295', '296', '301', '302', '303', '304', '309', '311', '313', '314', '315', '316', '317', '319', '321', '323', '324', '327', '328', '330', '337', '342', '344', '348', '349', '352', '353', '354', '355', '357', '365', '368', '369', '373', '374', '379', '381', '389', '391', '392', '395', '397', '400', '401', '402', '406', '410', '413', '416', '417', '418', '419', '420', '421', '424', '427', '428', '429', '430', '434', '436', '437', '440', '443', '447', '448', '449', '452', '454', '456', '457', '459', '460', '461', '465', '467', '471', '476', '479', '481', '482', '483', '485', '486', '487', '488', '490', '491', '495', '498', '500', '501', '502', '503', '504', '505', '506', '509', '512', '520', '523', '524', '527', '529', '531', '533', '535', '538', '539', '541', '548', '549', '551', '552', '558', '560', '561', '571', '573', '577', '580', '581', '582', '584', '587', '588', '591', '593', '594', '596', '597', '601', '602', '603', '605', '607', '608', '610', '614', '619', '620', '621', '624', '625', '627', '629', '633', '634', '635', '636', '641', '642', '643', '645', '646', '647', '649', '650', '655', '656', '658', '659', '660', '662', '664', '667', '673', '683', '684', '685', '686', '687', '689', '690', '692', '696', '700', '703', '705', '706', '711', '713', '715', '716', '717', '719', '723', '724', '725', '726', '731', '733', '736', '740', '741', '743', '747', '751', '757', '764', '765', '766', '767', '769', '771', '773', '774', '783', '784', '785', '786', '787', '792', '793', '796', '802', '805', '808', '810', '811', '815', '817', '819', '820', '823', '825', '826', '827', '829', '830', '832', '833', '834', '836', '837', '838', '839', '840', '843', '844', '845', '846', '848', '852', '854', '856', '857', '858', '859', '860', '861', '863', '867', '869', '874', '875', '876', '877', '878', '879', '880', '885', '887', '889', '891', '892', '893', '894', '896', '899', '904', '906', '910', '912', '915', '916', '917', '922', '929', '931', '934', '936', '941', '942', '943', '944', '946', '947', '952', '956', '961', '966', '968', '972', '973', '978', '985', '986', '988', '991', '995', '1000', '1004', '1005', '1007', '1012', '1013', '1016', '1017', '1019', '1020', '1022', '1023', '1027', '1030', '1032', '1041', '1044', '1045', '1046', '1047', '1049', '1052', '1053', '1058', '1059', '1062', '1067', '1072', '1073', '1077', '1083', '1087', '1089', '1090', '1092', '1095', '1097', '1099', '1101', '1102', '1103', '1105', '1110', '1111', '1112', '1125', '1129', '1132', '1133', '1134', '1144', '1146', '1152', '1153', '1157', '1162', '1169', '1171', '1173', '1176', '1177', '1184', '1186', '1189', '1193', '1202', '1203', '1208', '1209', '1211', '1213', '1215', '1216', '1219', '1220', '1222', '1223', '1224', '1225', '1227', '1234', '1235', '1237', '1238', '1242', '1243', '1245', '1248', '1250', '1252', '1253', '1255', '1256', '1257', '1258', '1260', '1263', '1264', '1269', '1273', '1277', '1280', '1281', '1282', '1284', '1285', '1287', '1288', '1293', '1295', '1296', '1297', '1301', '1302', '1305', '1307', '1308', '1312', '1313', '1317', '1318', '1319', '1320', '1321', '1329', '1332', '1335', '1337', '1339', '1341', '1342', '1343', '1347', '1349', '1351', '1352', '1353', '1355', '1356', '1357', '1358', '1364', '1365', '1366', '1367', '1369', '1370', '1374', '1391', '1392', '1394', '1395', '1397', '1407', '1408', '1411', '1413', '1415', '1417', '1421', '1425', '1426', '1429', '1430', '1432', '1433', '1434', '1435', '1441', '1448', '1449', '1450', '1452', '1457', '1460', '1463', '1469', '1472', '1474', '1477', '1480', '1483', '1485', '1487', '1491', '1496', '1497', '1499', '1500', '1502', '1506', '1508', '1510', '1511', '1512', '1513', '1516', '1521', '1522', '1523', '1525', '1533', '1536', '1540', '1542', '1547', '1553', '1554', '1558', '1559', '1564', '1565', '1566', '1567', '1568', '1576', '1583', '1584', '1586', '1589', '1595', '1598', '1599', '1602', '1603', '1604', '1605', '1607', '1610', '1612', '1614', '1616', '1617', '1618', '1619', '1624', '1630', '1631', '1635', '1636', '1638', '1645', '1646', '1647', '1650', '1651', '1652', '1654', '1655', '1659', '1660', '1664', '1667', '1669', '1671', '1674', '1677', '1678', '1683', '1686', '1688', '1689', '1692', '1693', '1694', '1696', '1697', '1700', '1704', '1706', '1710', '1711', '1712', '1714', '1717', '1721', '1722', '1724', '1725', '1726', '1727', '1729', '1732', '1735', '1736', '1738', '1741', '1750', '1763', '1770', '1771', '1772', '1773', '1777', '1778', '1784', '1785', '1786', '1788', '1791', '1795', '1801', '1806', '1809', '1810', '1811', '1812', '1813', '1814', '1820', '1830', '1831', '1833', '1836', '1837', '1842', '1843', '1848', '1849', '1852', '1855', '1857', '1865', '1872', '1875', '1877', '1879', '1880', '1882', '1883', '1884', '1886', '1892', '1895', '1896', '1900', '1901', '1902', '1905', '1908', '1913', '1915', '1921', '1925', '1927', '1932', '1933', '1934', '1940', '1941', '1942', '1943', '1947', '1948', '1949', '1950', '1952', '1953', '1954', '1955', '1957', '1959', '1961', '1962', '1965', '1971', '1973', '1976', '1978', '1979', '1981', '1983', '1984', '1985', '1986', '1987', '1988', '1989', '1991', '1993', '1995', '1996']",True,5000,True,2,12e1683ab1,0.0,0.0,1.0
./expes/v2_2021-03-19_issda-30_2000-prng-1-w5-p2,30_issda-2000,2000,first-2000,500,25,rng,num-start-400,400,25726,classic,5037.22297668457,False,,False,0,,,0,"['4', '8', '13', '14', '16', '18', '23', '27', '35', '36', '39', '43', '45', '49', '51', '53', '56', '58', '59', '61', '63', '64', '67', '76', '78', '81', '82', '88', '90', '95', '101', '106', '107', '108', '109', '117', '121', '125', '147', '150', '153', '160', '169', '170', '172', '179', '186', '187', '191', '199', '201', '202', '210', '211', '218', '225', '231', '234', '238', '242', '256', '258', '260', '270', '276', '277', '279', '282', '284', '291', '293', '298', '301', '304', '318', '319', '330', '333', '335', '344', '348', '349', '351', '361', '365', '368', '369', '373', '375', '377', '387', '388', '390', '393', '401', '404', '408', '409', '410', '411', '413', '419', '421', '428', '429', '431', '433', '435', '439', '451', '452', '455', '458', '460', '463', '466', '467', '471', '482', '489', '492', '495', '504', '507', '512', '516', '517', '522', '523', '529', '532', '536', '538', '540', '545', '549', '550', '551', '555', '561', '562', '567', '570', '571', '573', '578', '580', '584', '585', '597', '601', '607', '608', '626', '630', '632', '635', '637', '638', '639', '640', '641', '658', '660', '661', '663', '671', '676', '681', '687', '691', '696', '699', '700', '705', '712', '717', '718', '724', '725', '729', '730', '735', '738', '740', '744', '745', '746', '747', '748', '749', '751', '753', '755', '761', '768', '776', '778', '781', '782', '788', '789', '790', '796', '797', '805', '808', '810', '819', '821', '829', '834', '835', '837', '845', '850', '851', '856', '858', '861', '867', '868', '869', '875', '879', '881', '884', '886', '888', '892', '893', '901', '902', '909', '912', '919', '920', '934', '936', '941', '942', '943', '952', '958', '962', '967', '972', '976', '977', '978', '986', '989', '995', '997', '1000', '1004', '1008', '1009', '1013', '1021', '1024', '1025', '1026', '1027', '1029', '1032', '1035', '1039', '1043', '1048', '1052', '1053', '1056', '1058', '1059', '1063', '1067', '1068', '1071', '1080', '1081', '1084', '1095', '1096', '1099', '1102', '1105', '1109', '1110', '1115', '1119', '1120', '1125', '1127', '1135', '1137', '1138', '1141', '1143', '1144', '1147', '1154', '1168', '1169', '1174', '1181', '1189', '1190', '1206', '1217', '1221', '1227', '1232', '1234', '1243', '1244', '1245', '1247', '1248', '1252', '1264', '1266', '1268', '1273', '1275', '1276', '1279', '1280', '1285', '1286', '1296', '1299', '1302', '1305', '1307', '1310', '1312', '1313', '1318', '1335', '1338', '1347', '1349', '1351', '1354', '1355', '1356', '1359', '1360', '1365', '1367', '1369', '1370', '1380', '1384', '1390', '1391', '1395', '1396', '1400', '1402', '1403', '1404', '1407', '1410', '1411', '1412', '1414', '1415', '1422', '1425', '1426', '1428', '1430', '1432', '1435', '1444', '1446', '1455', '1465', '1466', '1467', '1473', '1477', '1487', '1488', '1500', '1504', '1505', '1507', '1514', '1520', '1533', '1534', '1543', '1556', '1558', '1560', '1561', '1567', '1570', '1575', '1579', '1581', '1582', '1585', '1588', '1606', '1607', '1609', '1613', '1616', '1617', '1622', '1623', '1625', '1629', '1631', '1634', '1635', '1640', '1641', '1642', '1646', '1654', '1657', '1660', '1665', '1669', '1671', '1677', '1678', '1679', '1682', '1685', '1704', '1707', '1711', '1712', '1722', '1726', '1727', '1731', '1739', '1747', '1751', '1753', '1760', '1761', '1766', '1771', '1773', '1774', '1779', '1788', '1789', '1802', '1807', '1812', '1814', '1816', '1818', '1829', '1832', '1835', '1838', '1839', '1846', '1849', '1851', '1856', '1865', '1866', '1868', '1874', '1875', '1882', '1885', '1893', '1895', '1899', '1900', '1913', '1915', '1918', '1925', '1928', '1933', '1934', '1939', '1941', '1958', '1964', '1971', '1975', '1982', '1989', '1990', '1992', '2000']",True,5000,True,2,9fb8861ed7,0.0,0.0,0.0
./expes/v2_2021-03-19_issda-30_2000-prng-1-w5-p2,30_issda-2000,2000,first-2000,700,35,rng,num-start-2000,2000,25726,classic,2133.533617734909,True,,True,1.0,1.0,1.0,1,"['1', '3', '4', '5', '7', '17', '19', '20', '26', '28', '29', '30', '31', '32', '34', '39', '42', '45', '47', '55', '57', '65', '67', '68', '69', '73', '74', '75', '78', '79', '80', '81', '83', '84', '85', '87', '93', '94', '96', '97', '99', '103', '114', '119', '124', '126', '128', '129', '131', '135', '136', '142', '144', '146', '148', '152', '157', '162', '165', '166', '167', '168', '169', '171', '172', '174', '179', '184', '186', '187', '188', '192', '195', '201', '203', '204', '206', '207', '208', '215', '216', '223', '224', '228', '236', '237', '238', '240', '241', '244', '246', '249', '254', '255', '256', '261', '266', '267', '268', '272', '274', '277', '284', '286', '287', '289', '292', '300', '301', '304', '305', '307', '310', '311', '315', '317', '319', '320', '323', '325', '328', '330', '332', '336', '340', '342', '347', '350', '359', '366', '368', '370', '373', '374', '377', '379', '383', '386', '387', '388', '390', '391', '392', '394', '399', '400', '406', '407', '409', '414', '417', '419', '422', '423', '425', '426', '432', '438', '441', '443', '445', '448', '449', '451', '452', '453', '455', '457', '461', '479', '483', '489', '490', '491', '492', '496', '498', '500', '514', '522', '526', '527', '531', '532', '533', '534', '535', '537', '553', '556', '563', '564', '565', '571', '574', '576', '578', '588', '590', '593', '594', '595', '597', '601', '602', '603', '607', '613', '616', '617', '618', '619', '620', '621', '622', '631', '636', '638', '640', '645', '648', '650', '652', '656', '660', '661', '664', '665', '667', '668', '673', '677', '678', '682', '683', '685', '687', '688', '691', '692', '693', '697', '702', '704', '710', '711', '718', '722', '723', '725', '732', '734', '735', '736', '740', '741', '752', '753', '755', '759', '761', '762', '763', '770', '775', '776', '777', '783', '786', '787', '789', '792', '794', '795', '796', '802', '803', '807', '809', '813', '816', '817', '823', '824', '826', '830', '832', '836', '840', '843', '849', '850', '851', '856', '857', '859', '862', '867', '872', '873', '874', '884', '890', '892', '894', '906', '907', '912', '913', '915', '918', '919', '923', '925', '928', '938', '939', '940', '944', '955', '957', '964', '965', '966', '967', '971', '975', '976', '977', '980', '982', '986', '987', '988', '996', '997', '998', '1000', '1001', '1003', '1005', '1008', '1009', '1011', '1013', '1015', '1019', '1020', '1021', '1022', '1029', '1032', '1034', '1035', '1039', '1041', '1042', '1048', '1058', '1061', '1063', '1067', '1068', '1069', '1072', '1075', '1076', '1077', '1081', '1083', '1085', '1086', '1091', '1095', '1097', '1102', '1107', '1108', '1112', '1113', '1115', '1120', '1121', '1122', '1124', '1125', '1129', '1132', '1140', '1144', '1147', '1149', '1150', '1155', '1157', '1163', '1164', '1166', '1167', '1168', '1176', '1179', '1180', '1188', '1194', '1195', '1198', '1199', '1201', '1203', '1204', '1208', '1209', '1218', '1222', '1223', '1226', '1230', '1233', '1234', '1235', '1236', '1237', '1241', '1242', '1245', '1246', '1249', '1250', '1252', '1253', '1254', '1255', '1259', '1265', '1267', '1271', '1272', '1274', '1277', '1281', '1284', '1286', '1291', '1295', '1297', '1298', '1299', '1301', '1306', '1308', '1309', '1312', '1313', '1314', '1320', '1321', '1325', '1330', '1333', '1339', '1343', '1344', '1345', '1346', '1347', '1353', '1357', '1364', '1369', '1373', '1378', '1380', '1384', '1385', '1387', '1390', '1391', '1392', '1393', '1394', '1395', '1396', '1398', '1400', '1401', '1408', '1411', '1415', '1429', '1431', '1433', '1434', '1435', '1436', '1437', '1438', '1442', '1445', '1446', '1447', '1448', '1453', '1455', '1459', '1462', '1464', '1466', '1469', '1470', '1471', '1472', '1474', '1486', '1490', '1493', '1494', '1495', '1496', '1497', '1499', '1505', '1514', '1518', '1519', '1528', '1530', '1533', '1535', '1536', '1541', '1546', '1548', '1552', '1553', '1555', '1561', '1572', '1582', '1583', '1591', '1592', '1593', '1594', '1597', '1602', '1604', '1605', '1606', '1608', '1609', '1615', '1616', '1618', '1621', '1623', '1625', '1627', '1628', '1634', '1635', '1638', '1639', '1640', '1645', '1646', '1649', '1651', '1653', '1655', '1657', '1659', '1660', '1663', '1664', '1669', '1671', '1674', '1676', '1683', '1684', '1685', '1690', '1691', '1692', '1694', '1696', '1698', '1699', '1700', '1701', '1708', '1712', '1716', '1717', '1721', '1723', '1726', '1729', '1730', '1731', '1732', '1734', '1740', '1742', '1744', '1747', '1749', '1752', '1756', '1762', '1763', '1765', '1766', '1769', '1772', '1773', '1777', '1780', '1783', '1785', '1786', '1787', '1790', '1791', '1792', '1793', '1796', '1798', '1805', '1811', '1813', '1814', '1819', '1823', '1824', '1827', '1832', '1834', '1840', '1841', '1842', '1844', '1846', '1848', '1849', '1850', '1853', '1856', '1860', '1861', '1864', '1868', '1870', '1872', '1875', '1876', '1878', '1879', '1880', '1881', '1882', '1884', '1885', '1888', '1889', '1890', '1891', '1892', '1908', '1911', '1913', '1916', '1918', '1919', '1922', '1929', '1932', '1939', '1940', '1942', '1945', '1946', '1953', '1962', '1963', '1969', '1972', '1973', '1974', '1978', '1980', '1982', '1983', '1984', '1986', '1988', '1992', '1996', '2000']",False,5000,True,2,cbb4002ed7,0.0,1.0,1.0
./expes/v2_2021-03-19_issda-30_2000-prng-1-w5-p2,30_issda-2000,2000,first-2000,400,20,rng,num-start-2000,2000,25726,classic,1840.0151331424713,True,,True,1.0,1.0,1.0,1,"['1', '2', '4', '10', '16', '22', '36', '40', '41', '43', '52', '53', '57', '58', '60', '63', '65', '72', '88', '92', '95', '103', '105', '106', '112', '127', '137', '140', '141', '143', '144', '149', '154', '158', '167', '171', '184', '185', '186', '191', '194', '195', '196', '199', '201', '210', '212', '218', '219', '229', '234', '236', '243', '247', '249', '252', '253', '258', '264', '267', '277', '281', '289', '294', '300', '301', '307', '325', '330', '332', '338', '345', '350', '353', '372', '374', '387', '389', '395', '397', '400', '405', '408', '409', '411', '419', '426', '434', '443', '447', '455', '456', '458', '472', '483', '484', '501', '502', '506', '507', '509', '510', '513', '516', '517', '522', '523', '524', '525', '526', '530', '534', '539', '540', '542', '545', '547', '555', '556', '562', '564', '571', '575', '577', '578', '579', '580', '597', '601', '607', '620', '621', '626', '634', '637', '640', '644', '647', '661', '680', '683', '691', '696', '697', '709', '712', '724', '729', '734', '739', '746', '749', '751', '754', '755', '756', '772', '777', '780', '783', '784', '787', '788', '792', '795', '807', '808', '813', '815', '827', '831', '833', '844', '856', '858', '866', '867', '871', '874', '880', '896', '898', '899', '904', '907', '912', '913', '917', '921', '922', '927', '929', '933', '942', '956', '960', '961', '962', '963', '965', '972', '975', '984', '993', '994', '997', '998', '1000', '1002', '1005', '1015', '1025', '1026', '1038', '1041', '1053', '1058', '1065', '1069', '1073', '1077', '1080', '1082', '1086', '1096', '1109', '1111', '1116', '1119', '1124', '1130', '1134', '1142', '1144', '1147', '1150', '1161', '1166', '1167', '1171', '1182', '1184', '1186', '1195', '1197', '1201', '1207', '1216', '1219', '1220', '1221', '1232', '1237', '1245', '1255', '1261', '1262', '1279', '1287', '1294', '1296', '1298', '1306', '1313', '1315', '1318', '1321', '1322', '1323', '1324', '1325', '1327', '1331', '1335', '1336', '1345', '1346', '1349', '1356', '1360', '1363', '1369', '1377', '1383', '1386', '1393', '1394', '1395', '1402', '1404', '1406', '1407', '1418', '1439', '1441', '1442', '1444', '1446', '1454', '1466', '1472', '1478', '1484', '1485', '1486', '1504', '1506', '1517', '1519', '1530', '1547', '1551', '1557', '1560', '1564', '1575', '1585', '1587', '1588', '1593', '1602', '1607', '1608', '1613', '1621', '1626', '1627', '1632', '1634', '1635', '1648', '1652', '1654', '1655', '1656', '1664', '1668', '1676', '1680', '1686', '1687', '1691', '1694', '1696', '1698', '1711', '1720', '1724', '1741', '1750', '1752', '1761', '1762', '1765', '1770', '1771', '1772', '1773', '1776', '1784', '1788', '1791', '1792', '1810', '1815', '1816', '1835', '1836', '1837', '1841', '1845', '1846', '1847', '1861', '1862', '1864', '1875', '1879', '1886', '1888', '1902', '1908', '1911', '1912', '1913', '1914', '1917', '1918', '1924', '1926', '1930', '1934', '1951', '1959', '1965', '1967', '1983', '1990', '1995', '2000']",False,5000,True,2,a0afdacc3a,0.0,1.0,1.0
