expe,clients,clients_size,clients_subset,agg_size,method,days,days_size,days_total,time,valid,valid_sum,success,nsols,wall_hit,wall_time,pooled,valid_sums
./expes/v2_2020-12-06_dh_3000-prng-1,30_issda_3000,3000,rng-3000,2001,rng,num-start-801,801,25726,1185.8464624881744,False,,False,0,True,1000,True,0.0
./expes/v2_2020-12-06_dh_3000-prng-1,30_issda_3000,3000,rng-3000,2001,rng,num-start-401,401,25726,1091.484384059906,False,,False,0,True,1000,True,0.0
./expes/v2_2020-12-06_dh_3000-prng-1,30_issda_3000,3000,rng-3000,1,rng,num-start-1,1,25726,12.328277826309204,False,,False,2,False,1000,True,1.0
./expes/v2_2020-12-06_dh_3000-prng-1,30_issda_3000,3000,rng-3000,1001,rng,num-start-201,201,25726,1042.1288249492645,False,,False,0,True,1000,True,0.0
./expes/v2_2020-12-06_dh_3000-prng-1,30_issda_3000,3000,rng-3000,1001,rng,num-start-601,601,25726,1135.5275733470917,False,,False,0,True,1000,True,0.0
./expes/v2_2020-12-06_dh_3000-prng-1,30_issda_3000,3000,rng-3000,501,rng,num-start-701,701,25726,1161.6266586780548,False,,False,0,True,1000,True,0.0
./expes/v2_2020-12-06_dh_3000-prng-1,30_issda_3000,3000,rng-3000,501,rng,num-start-501,501,25726,1119.396898508072,False,,False,0,True,1000,True,0.0
