,expe,clients,clients_size,clients_subset,agg_size,agg_size_pc,method,days,days_size,days_total,noise_method,time,valid,valid_sum,success,score_avg,score_min,score_max,nsols,oracle,wall_hit,wall_time,pooled,pool_size,optimal,valid_sums,uuid
0,./expes/v3_2021-01-22_di_4500-prng-1-w1-p10,daily_issda-4500,4500,first-4500,1904,42,rng,num-start-221,221,536,classic,5061.853316783905,False,,True,0,,,0,"Index(['1', '2', '5', '7', '12', '13', '14', '15', '16', '17',
       ...
       '4477', '4479', '4481', '4482', '4483', '4484', '4493', '4494', '4495',
       '4500'],
      dtype='object', length=1904)",True,5000,True,10,0.0,0.0,1da32e55f5
1,./expes/v3_2021-01-22_di_4500-prng-1-w1-p10,daily_issda-4500,4500,first-4500,1120,24,rng,num-start-281,281,536,classic,5077.548365831375,False,,True,0,,,0,"Index(['5', '10', '21', '24', '25', '29', '30', '34', '36', '41',
       ...
       '4452', '4461', '4463', '4464', '4465', '4469', '4474', '4477', '4498',
       '4499'],
      dtype='object', length=1120)",True,5000,True,10,0.0,0.0,a94d5e630d
2,./expes/v3_2021-01-22_di_4500-prng-1-w1-p10,daily_issda-4500,4500,first-4500,560,12,rng,num-start-151,151,536,classic,5042.637748718262,False,,True,0,,,0,"Index(['21', '24', '31', '38', '43', '51', '55', '62', '63', '66',
       ...
       '4399', '4411', '4413', '4439', '4454', '4460', '4475', '4488', '4494',
       '4495'],
      dtype='object', length=560)",True,5000,True,10,0.0,0.0,0c1021829f
3,./expes/v3_2021-01-22_di_4500-prng-1-w1-p10,daily_issda-4500,4500,first-4500,1904,42,rng,num-start-101,101,536,classic,5028.207736253738,False,,True,0,,,0,"Index(['5', '7', '12', '13', '18', '25', '26', '28', '29', '30',
       ...
       '4481', '4482', '4487', '4490', '4492', '4494', '4496', '4498', '4499',
       '4500'],
      dtype='object', length=1904)",True,5000,True,10,0.0,0.0,03fb4cfd06
4,./expes/v3_2021-01-22_di_4500-prng-1-w1-p10,daily_issda-4500,4500,first-4500,1680,37,rng,num-start-11,11,536,classic,5003.209442853928,False,,True,0,,,0,"Index(['1', '4', '6', '8', '9', '10', '13', '14', '15', '16',
       ...
       '4476', '4481', '4484', '4486', '4490', '4491', '4492', '4493', '4498',
       '4499'],
      dtype='object', length=1680)",True,5000,True,10,0.0,0.0,7557b98c34
