,expe,clients,clients_size,clients_subset,agg_size,agg_size_pc,method,days,days_size,days_total,noise_method,time,valid,valid_sum,success,score_avg,score_min,score_max,nsols,oracle,wall_hit,wall_time,pooled,pool_size,optimal,valid_sums,uuid
0,./expes/v3_2021-01-22_di_4500-prng-1-w1-p10,daily_issda-4500,4500,first-4500,224,4,rng,num-start-241,241,536,classic,5068.529254674912,False,,True,0,,,0,"Index(['1', '10', '13', '102', '109', '116', '121', '133', '178', '187',
       ...
       '4377', '4427', '4429', '4449', '4459', '4460', '4483', '4485', '4494',
       '4495'],
      dtype='object', length=224)",True,5000,True,10,0.0,0.0,0791b55096
1,./expes/v3_2021-01-22_di_4500-prng-1-w1-p10,daily_issda-4500,4500,first-4500,448,9,rng,num-start-111,111,536,classic,5030.089079618454,False,,True,0,,,0,"Index(['6', '8', '15', '24', '27', '28', '44', '75', '82', '95',
       ...
       '4455', '4466', '4467', '4470', '4481', '4484', '4491', '4492', '4498',
       '4499'],
      dtype='object', length=448)",True,5000,True,10,0.0,0.0,efbdda3506
2,./expes/v3_2021-01-22_di_4500-prng-1-w1-p10,daily_issda-4500,4500,first-4500,1792,39,rng,num-start-71,71,536,classic,5019.886099100113,False,,True,0,,,0,"Index(['3', '5', '7', '8', '10', '14', '16', '17', '22', '23',
       ...
       '4470', '4472', '4475', '4478', '4480', '4483', '4487', '4489', '4497',
       '4500'],
      dtype='object', length=1792)",True,5000,True,10,0.0,0.0,05977097a0
3,./expes/v3_2021-01-22_di_4500-prng-1-w1-p10,daily_issda-4500,4500,first-4500,2016,44,rng,num-start-31,31,536,classic,5008.700444221497,False,,True,0,,,0,"Index(['1', '2', '5', '7', '12', '13', '14', '15', '16', '17',
       ...
       '4477', '4479', '4481', '4482', '4483', '4484', '4493', '4494', '4495',
       '4500'],
      dtype='object', length=2016)",True,5000,True,10,0.0,0.0,ed9b8c045d
4,./expes/v3_2021-01-22_di_4500-prng-1-w1-p10,daily_issda-4500,4500,first-4500,1232,27,rng,num-start-201,201,536,classic,5057.067695140839,False,,True,0,,,0,"Index(['5', '6', '8', '9', '10', '16', '17', '18', '25', '27',
       ...
       '4451', '4456', '4463', '4466', '4468', '4469', '4474', '4478', '4480',
       '4482'],
      dtype='object', length=1232)",True,5000,True,10,0.0,0.0,2b565ae41f
