,expe,clients,clients_size,clients_subset,agg_size,agg_size_pc,method,days,days_size,days_total,noise_method,time,valid,valid_sum,success,score_avg,score_min,score_max,nsols,oracle,wall_hit,wall_time,pooled,pool_size,optimal,valid_sums,uuid
0,./expes/v3_2021-01-22_di_4500-prng-1-w1-p10,daily_issda-4500,4500,first-4500,2016,44,rng,num-start-291,291,536,classic,5077.087288379669,False,,True,0.0,,,0,"Index(['1', '5', '8', '11', '12', '13', '14', '15', '16', '18',
       ...
       '4480', '4481', '4482', '4484', '4485', '4486', '4488', '4494', '4495',
       '4499'],
      dtype='object', length=2016)",True,5000,True,10,0.0,0.0,57728097a6
1,./expes/v3_2021-01-22_di_4500-prng-1-w1-p10,daily_issda-4500,4500,first-4500,224,4,rng,num-start-1,1,536,classic,25.31137084960937,False,,True,0.6939527213219613,0.69300950316368,0.6951893449166799,10,"Index(['43', '62', '68', '80', '87', '100', '126', '147', '158', '170',
       ...
       '4396', '4399', '4411', '4414', '4417', '4424', '4426', '4442', '4449',
       '4455'],
      dtype='object', length=224)",False,5000,True,10,1.0,1.0,f6fea3d0c9
2,./expes/v3_2021-01-22_di_4500-prng-1-w1-p10,daily_issda-4500,4500,first-4500,1680,37,rng,num-start-111,111,536,classic,5029.03586602211,False,,True,0.0,,,0,"Index(['1', '3', '4', '5', '7', '9', '10', '14', '15', '16',
       ...
       '4471', '4474', '4479', '4490', '4491', '4494', '4496', '4497', '4499',
       '4500'],
      dtype='object', length=1680)",True,5000,True,10,0.0,0.0,1855155213
3,./expes/v3_2021-01-22_di_4500-prng-1-w1-p10,daily_issda-4500,4500,first-4500,1680,37,rng,num-start-141,141,536,classic,5035.87597823143,False,,True,0.0,,,0,"Index(['1', '2', '5', '7', '12', '13', '14', '15', '16', '17',
       ...
       '4468', '4469', '4473', '4474', '4482', '4484', '4493', '4494', '4495',
       '4500'],
      dtype='object', length=1680)",True,5000,True,10,0.0,0.0,18d6f0b021
4,./expes/v3_2021-01-22_di_4500-prng-1-w1-p10,daily_issda-4500,4500,first-4500,336,7,rng,num-start-21,21,536,classic,5005.64262843132,False,,True,0.0,,,0,"Index(['6', '8', '15', '24', '28', '44', '75', '95', '108', '109',
       ...
       '4419', '4455', '4466', '4467', '4470', '4481', '4484', '4491', '4492',
       '4498'],
      dtype='object', length=336)",True,5000,True,10,0.0,0.0,e7481b97da
5,./expes/v3_2021-01-22_di_4500-prng-1-w1-p10,daily_issda-4500,4500,first-4500,1456,32,rng,num-start-241,241,536,classic,5055.577758550644,False,,True,0.0,,,0,"Index(['1', '3', '7', '13', '18', '19', '26', '29', '31', '32',
       ...
       '4462', '4467', '4468', '4473', '4474', '4477', '4484', '4487', '4494',
       '4499'],
      dtype='object', length=1456)",True,5000,True,10,0.0,0.0,001bc421f7
6,./expes/v3_2021-01-22_di_4500-prng-1-w1-p10,daily_issda-4500,4500,first-4500,112,2,rng,num-start-71,71,536,classic,5018.444147348404,False,,True,0.0,,,0,"Index(['48', '51', '75', '83', '92', '108', '115', '167', '182', '187',
       ...
       '4014', '4027', '4050', '4090', '4188', '4234', '4288', '4305', '4418',
       '4438'],
      dtype='object', length=112)",True,5000,True,10,0.0,0.0,5080168b33
7,./expes/v3_2021-01-22_di_4500-prng-1-w1-p10,daily_issda-4500,4500,first-4500,336,7,rng,num-start-141,141,536,classic,5033.437672615051,False,,True,0.0,,,0,"Index(['14', '27', '40', '46', '60', '77', '87', '108', '149', '163',
       ...
       '4340', '4380', '4397', '4401', '4439', '4452', '4458', '4465', '4475',
       '4487'],
      dtype='object', length=336)",True,5000,True,10,0.0,0.0,3df84e7c43
8,./expes/v3_2021-01-22_di_4500-prng-1-w1-p10,daily_issda-4500,4500,first-4500,224,4,rng,num-start-111,111,536,classic,5024.692390203476,False,,True,0.0,,,0,"Index(['18', '25', '34', '41', '47', '119', '128', '246', '250', '261',
       ...
       '4353', '4365', '4372', '4374', '4384', '4391', '4451', '4468', '4469',
       '4482'],
      dtype='object', length=224)",True,5000,True,10,0.0,0.0,27b44cb1e5
9,./expes/v3_2021-01-22_di_4500-prng-1-w1-p10,daily_issda-4500,4500,first-4500,672,14,rng,num-start-171,171,536,classic,5043.519702911377,False,,True,0.0,,,0,"Index(['24', '25', '29', '34', '41', '42', '45', '58', '64', '81',
       ...
       '4427', '4430', '4435', '4437', '4452', '4461', '4464', '4465', '4498',
       '4499'],
      dtype='object', length=672)",True,5000,True,10,0.0,0.0,7bd12ee99e
10,./expes/v3_2021-01-22_di_4500-prng-1-w1-p10,daily_issda-4500,4500,first-4500,1232,27,rng,num-start-201,201,536,classic,5057.028141736984,False,,True,0.0,,,0,"Index(['1', '2', '3', '5', '6', '8', '15', '24', '28', '29',
       ...
       '4465', '4468', '4473', '4480', '4481', '4486', '4489', '4493', '4499',
       '4500'],
      dtype='object', length=1232)",True,5000,True,10,0.0,0.0,11a7222d34
11,./expes/v3_2021-01-22_di_4500-prng-1-w1-p10,daily_issda-4500,4500,first-4500,1904,42,rng,num-start-121,121,536,classic,5031.1009786129,False,,True,0.0,,,0,"Index(['1', '3', '4', '5', '7', '9', '10', '11', '12', '14',
       ...
       '4471', '4474', '4479', '4490', '4491', '4494', '4496', '4497', '4499',
       '4500'],
      dtype='object', length=1904)",True,5000,True,10,0.0,0.0,d9f6f2ca3e
12,./expes/v3_2021-01-22_di_4500-prng-1-w1-p10,daily_issda-4500,4500,first-4500,2016,44,rng,num-start-221,221,536,classic,5055.180960893631,False,,True,0.0,,,0,"Index(['4', '8', '9', '10', '11', '14', '16', '20', '24', '31',
       ...
       '4480', '4482', '4486', '4490', '4492', '4493', '4496', '4497', '4498',
       '4499'],
      dtype='object', length=2016)",True,5000,True,10,0.0,0.0,c595a020a3
13,./expes/v3_2021-01-22_di_4500-prng-1-w1-p10,daily_issda-4500,4500,first-4500,112,2,rng,num-start-231,231,536,classic,5060.317025899887,False,,True,0.0,,,0,"Index(['6', '32', '44', '53', '68', '144', '151', '193', '209', '281',
       ...
       '4070', '4075', '4103', '4119', '4137', '4148', '4240', '4277', '4404',
       '4422'],
      dtype='object', length=112)",True,5000,True,10,0.0,0.0,fafd2e27f3
14,./expes/v3_2021-01-22_di_4500-prng-1-w1-p10,daily_issda-4500,4500,first-4500,336,7,rng,num-start-161,161,536,classic,5038.748871564865,False,,True,0.0,,,0,"Index(['21', '24', '31', '38', '66', '74', '96', '124', '127', '139',
       ...
       '4342', '4343', '4353', '4375', '4386', '4389', '4454', '4460', '4488',
       '4494'],
      dtype='object', length=336)",True,5000,True,10,0.0,0.0,d8cc2b9528
15,./expes/v3_2021-01-22_di_4500-prng-1-w1-p10,daily_issda-4500,4500,first-4500,1120,24,rng,num-start-131,131,536,classic,5033.149291992188,False,,True,0.0,,,0,"Index(['5', '8', '14', '17', '22', '23', '27', '30', '39', '40',
       ...
       '4465', '4467', '4469', '4470', '4472', '4475', '4483', '4487', '4489',
       '4500'],
      dtype='object', length=1120)",True,5000,True,10,0.0,0.0,a5b56f4f2e
16,./expes/v3_2021-01-22_di_4500-prng-1-w1-p10,daily_issda-4500,4500,first-4500,448,9,rng,num-start-261,261,536,classic,5064.978841781616,False,,True,0.0,,,0,"Index(['15', '16', '25', '35', '40', '44', '69', '70', '86', '96',
       ...
       '4366', '4368', '4388', '4408', '4412', '4431', '4458', '4467', '4486',
       '4494'],
      dtype='object', length=448)",True,5000,True,10,0.0,0.0,006c7ee5c2
17,./expes/v3_2021-01-22_di_4500-prng-1-w1-p10,daily_issda-4500,4500,first-4500,1456,32,rng,num-start-171,171,536,classic,5039.907078742981,False,,True,0.0,,,0,"Index(['5', '7', '10', '21', '24', '25', '29', '30', '34', '36',
       ...
       '4464', '4465', '4467', '4469', '4474', '4477', '4480', '4484', '4498',
       '4499'],
      dtype='object', length=1456)",True,5000,True,10,0.0,0.0,a210526193
18,./expes/v3_2021-01-22_di_4500-prng-1-w1-p10,daily_issda-4500,4500,first-4500,1232,27,rng,num-start-81,81,536,classic,5020.052448272705,False,,True,0.0,,,0,"Index(['2', '4', '9', '10', '11', '12', '15', '16', '22', '24',
       ...
       '4460', '4462', '4473', '4482', '4488', '4490', '4492', '4495', '4499',
       '4500'],
      dtype='object', length=1232)",True,5000,True,10,0.0,0.0,887c6d5fb1
19,./expes/v3_2021-01-22_di_4500-prng-1-w1-p10,daily_issda-4500,4500,first-4500,2240,49,rng,num-start-121,121,536,classic,5032.0306532382965,False,,True,0.0,,,0,"Index(['1', '2', '3', '4', '5', '6', '9', '10', '11', '13',
       ...
       '4485', '4487', '4488', '4489', '4491', '4492', '4494', '4495', '4497',
       '4499'],
      dtype='object', length=2240)",True,5000,True,10,0.0,0.0,8a04cfb43a
20,./expes/v3_2021-01-22_di_4500-prng-1-w1-p10,daily_issda-4500,4500,first-4500,1680,37,rng,num-start-201,201,536,classic,5048.592215776444,False,,True,0.0,,,0,"Index(['5', '6', '12', '15', '16', '17', '24', '27', '32', '37',
       ...
       '4477', '4478', '4480', '4482', '4487', '4490', '4493', '4495', '4498',
       '4499'],
      dtype='object', length=1680)",True,5000,True,10,0.0,0.0,a530ad943f
21,./expes/v3_2021-01-22_di_4500-prng-1-w1-p10,daily_issda-4500,4500,first-4500,1568,34,rng,num-start-61,61,536,classic,5014.890320777893,False,,True,0.0,,,0,"Index(['5', '11', '12', '13', '14', '15', '16', '22', '25', '30',
       ...
       '4467', '4468', '4475', '4477', '4481', '4482', '4484', '4486', '4488',
       '4494'],
      dtype='object', length=1568)",True,5000,True,10,0.0,0.0,e5d0cebc1f
