,expe,clients,clients_size,clients_subset,agg_size,agg_size_pc,method,days,days_size,days_total,noise_method,time,valid,valid_sum,success,score_avg,score_min,score_max,nsols,oracle,wall_hit,wall_time,pooled,pool_size,optimal,valid_sums,uuid
0,./expes/v3_2021-01-22_di_4500-prng-1-w1-p10,daily_issda-4500,4500,first-4500,1680,37,rng,num-start-171,171,536,classic,5077.516955137253,False,,True,0,,,0,"Index(['1', '2', '3', '4', '12', '14', '16', '17', '19', '23',
       ...
       '4474', '4475', '4477', '4479', '4481', '4483', '4490', '4493', '4495',
       '4500'],
      dtype='object', length=1680)",True,5000,True,10,0.0,0.0,86e21d1c6d
1,./expes/v3_2021-01-22_di_4500-prng-1-w1-p10,daily_issda-4500,4500,first-4500,1904,42,rng,num-start-191,191,536,classic,5086.718727827072,False,,True,0,,,0,"Index(['2', '3', '4', '7', '8', '10', '11', '13', '15', '16',
       ...
       '4484', '4486', '4488', '4489', '4491', '4492', '4493', '4494', '4499',
       '4500'],
      dtype='object', length=1904)",True,5000,True,10,0.0,0.0,a2275a72f9
2,./expes/v3_2021-01-22_di_4500-prng-1-w1-p10,daily_issda-4500,4500,first-4500,2240,49,rng,num-start-51,51,536,classic,5021.8936014175415,False,,True,0,,,0,"Index(['1', '2', '3', '4', '7', '8', '9', '10', '11', '13',
       ...
       '4486', '4488', '4489', '4491', '4492', '4493', '4494', '4496', '4499',
       '4500'],
      dtype='object', length=2240)",True,5000,True,10,0.0,0.0,59f8f85c0a
3,./expes/v3_2021-01-22_di_4500-prng-1-w1-p10,daily_issda-4500,4500,first-4500,1904,42,rng,num-start-31,31,536,classic,5013.57464838028,False,,True,0,,,0,"Index(['4', '5', '7', '10', '13', '21', '24', '25', '29', '30',
       ...
       '4474', '4477', '4480', '4484', '4488', '4489', '4494', '4495', '4498',
       '4499'],
      dtype='object', length=1904)",True,5000,True,10,0.0,0.0,bc7bce0f80
4,./expes/v3_2021-01-22_di_4500-prng-1-w1-p10,daily_issda-4500,4500,first-4500,448,9,rng,num-start-31,31,536,classic,5014.048109769821,False,,True,0,,,0,"Index(['21', '24', '31', '38', '55', '62', '66', '74', '96', '99',
       ...
       '4375', '4386', '4389', '4392', '4454', '4460', '4475', '4488', '4494',
       '4495'],
      dtype='object', length=448)",True,5000,True,10,0.0,0.0,152c4dc76b
5,./expes/v3_2021-01-22_di_4500-prng-1-w1-p10,daily_issda-4500,4500,first-4500,784,17,rng,num-start-281,281,536,classic,5125.80960392952,False,,True,0,,,0,"Index(['7', '13', '18', '29', '32', '33', '43', '47', '62', '70',
       ...
       '4467', '4468', '4469', '4481', '4482', '4487', '4490', '4492', '4496',
       '4500'],
      dtype='object', length=784)",True,5000,True,10,0.0,0.0,6f6ee6b06d
6,./expes/v3_2021-01-22_di_4500-prng-1-w1-p10,daily_issda-4500,4500,first-4500,1568,34,rng,num-start-281,281,536,classic,5123.055835008621,False,,True,0,,,0,"Index(['5', '7', '10', '21', '24', '25', '29', '30', '34', '36',
       ...
       '4469', '4474', '4477', '4480', '4484', '4488', '4494', '4495', '4498',
       '4499'],
      dtype='object', length=1568)",True,5000,True,10,0.0,0.0,51c88c8cc6
7,./expes/v3_2021-01-22_di_4500-prng-1-w1-p10,daily_issda-4500,4500,first-4500,448,9,rng,num-start-231,231,536,classic,5104.219589710236,False,,True,0,,,0,"Index(['1', '3', '5', '15', '24', '40', '64', '84', '87', '118',
       ...
       '4426', '4434', '4435', '4437', '4444', '4452', '4463', '4468', '4473',
       '4493'],
      dtype='object', length=448)",True,5000,True,10,0.0,0.0,323caf6259
8,./expes/v3_2021-01-22_di_4500-prng-1-w1-p10,daily_issda-4500,4500,first-4500,1904,42,rng,num-start-141,141,536,classic,5061.220658540726,False,,True,0,,,0,"Index(['1', '4', '6', '8', '9', '10', '11', '13', '14', '15',
       ...
       '4484', '4485', '4486', '4490', '4491', '4492', '4493', '4498', '4499',
       '4500'],
      dtype='object', length=1904)",True,5000,True,10,0.0,0.0,3c2b6d9dbc
9,./expes/v3_2021-01-22_di_4500-prng-1-w1-p10,daily_issda-4500,4500,first-4500,336,7,rng,num-start-61,61,536,classic,5026.400399446487,False,,True,0,,,0,"Index(['18', '25', '31', '34', '41', '46', '47', '79', '105', '119',
       ...
       '4372', '4374', '4384', '4391', '4397', '4451', '4468', '4469', '4480',
       '4482'],
      dtype='object', length=336)",True,5000,True,10,0.0,0.0,f76b8a67b6
10,./expes/v3_2021-01-22_di_4500-prng-1-w1-p10,daily_issda-4500,4500,first-4500,1232,27,rng,num-start-61,61,536,classic,5026.135459899902,False,,True,0,,,0,"Index(['5', '6', '12', '16', '17', '24', '27', '32', '41', '42',
       ...
       '4468', '4469', '4470', '4473', '4474', '4477', '4482', '4493', '4495',
       '4499'],
      dtype='object', length=1232)",True,5000,True,10,0.0,0.0,9871d0de25
11,./expes/v3_2021-01-22_di_4500-prng-1-w1-p10,daily_issda-4500,4500,first-4500,448,9,rng,num-start-51,51,536,classic,5022.007592439652,False,,True,0,,,0,"Index(['6', '8', '15', '24', '27', '28', '44', '75', '82', '95',
       ...
       '4455', '4466', '4467', '4470', '4481', '4484', '4491', '4492', '4498',
       '4499'],
      dtype='object', length=448)",True,5000,True,10,0.0,0.0,c84ec0beb1
12,./expes/v3_2021-01-22_di_4500-prng-1-w1-p10,daily_issda-4500,4500,first-4500,1680,37,rng,num-start-281,281,536,classic,5122.76146531105,False,,True,0,,,0,"Index(['5', '7', '10', '21', '24', '25', '29', '30', '34', '36',
       ...
       '4472', '4474', '4477', '4480', '4484', '4488', '4494', '4495', '4498',
       '4499'],
      dtype='object', length=1680)",True,5000,True,10,0.0,0.0,0f5dd1e121
13,./expes/v3_2021-01-22_di_4500-prng-1-w1-p10,daily_issda-4500,4500,first-4500,560,12,rng,num-start-21,21,536,classic,5009.797974586487,False,,True,0,,,0,"Index(['17', '24', '44', '53', '57', '70', '72', '102', '108', '121',
       ...
       '4440', '4444', '4460', '4467', '4469', '4471', '4477', '4483', '4493',
       '4495'],
      dtype='object', length=560)",True,5000,True,10,0.0,0.0,cbbc1f551f
14,./expes/v3_2021-01-22_di_4500-prng-1-w1-p10,daily_issda-4500,4500,first-4500,1792,39,rng,num-start-71,71,536,classic,5032.114455223084,False,,True,0,,,0,"Index(['2', '4', '5', '7', '8', '10', '11', '12', '13', '14',
       ...
       '4480', '4481', '4483', '4492', '4493', '4494', '4495', '4496', '4497',
       '4498'],
      dtype='object', length=1792)",True,5000,True,10,0.0,0.0,268b2ba2f4
