,expe,clients,clients_size,clients_subset,agg_size,agg_size_pc,method,days,days_size,days_total,noise_method,time,valid,valid_sum,success,score_avg,score_min,score_max,nsols,oracle,wall_hit,wall_time,pooled,pool_size,optimal,valid_sums,uuid
0,./expes/v3_2021-01-22_di_4500-prng-1-w1-p10,daily_issda-4500,4500,first-4500,1008,22,rng,num-start-11,11,536,classic,5002.282644033432,False,,True,0,,,0,"Index(['1', '2', '3', '9', '10', '13', '16', '20', '26', '27',
       ...
       '4467', '4474', '4477', '4479', '4483', '4485', '4494', '4495', '4497',
       '4499'],
      dtype='object', length=1008)",True,5000,True,10,0.0,0.0,67ce94291f
1,./expes/v3_2021-01-22_di_4500-prng-1-w1-p10,daily_issda-4500,4500,first-4500,1680,37,rng,num-start-61,61,536,classic,5012.203211307526,False,,True,0,,,0,"Index(['4', '6', '7', '10', '11', '12', '16', '17', '18', '19',
       ...
       '4479', '4481', '4482', '4487', '4488', '4490', '4494', '4495', '4499',
       '4500'],
      dtype='object', length=1680)",True,5000,True,10,0.0,0.0,fd0d1c420f
2,./expes/v3_2021-01-22_di_4500-prng-1-w1-p10,daily_issda-4500,4500,first-4500,336,7,rng,num-start-51,51,536,classic,5009.39418053627,False,,True,0,,,0,"Index(['25', '38', '55', '98', '109', '139', '164', '181', '186', '210',
       ...
       '4325', '4326', '4332', '4334', '4357', '4372', '4379', '4422', '4465',
       '4484'],
      dtype='object', length=336)",True,5000,True,10,0.0,0.0,5fdf10eed6
3,./expes/v3_2021-01-22_di_4500-prng-1-w1-p10,daily_issda-4500,4500,first-4500,1344,29,rng,num-start-121,121,536,classic,5021.632137537003,False,,True,0,,,0,"Index(['1', '2', '3', '4', '14', '16', '17', '24', '25', '28',
       ...
       '4474', '4475', '4477', '4479', '4481', '4483', '4490', '4493', '4495',
       '4500'],
      dtype='object', length=1344)",True,5000,True,10,0.0,0.0,f392655b47
4,./expes/v3_2021-01-22_di_4500-prng-1-w1-p10,daily_issda-4500,4500,first-4500,896,19,rng,num-start-271,271,536,classic,5050.959006309509,False,,True,0,,,0,"Index(['5', '6', '8', '10', '16', '17', '18', '25', '27', '31',
       ...
       '4406', '4408', '4438', '4451', '4466', '4468', '4469', '4474', '4480',
       '4482'],
      dtype='object', length=896)",True,5000,True,10,0.0,0.0,c952289198
5,./expes/v3_2021-01-22_di_4500-prng-1-w1-p10,daily_issda-4500,4500,first-4500,1792,39,rng,num-start-111,111,536,classic,5020.756222963333,False,,True,0,,,0,"Index(['3', '5', '7', '8', '10', '14', '16', '17', '22', '23',
       ...
       '4470', '4472', '4475', '4478', '4480', '4483', '4487', '4489', '4497',
       '4500'],
      dtype='object', length=1792)",True,5000,True,10,0.0,0.0,75525ead0f
6,./expes/v3_2021-01-22_di_4500-prng-1-w1-p10,daily_issda-4500,4500,first-4500,560,12,rng,num-start-81,81,536,classic,5015.767355680466,False,,True,0,,,0,"Index(['4', '5', '38', '41', '56', '79', '87', '89', '90', '93',
       ...
       '4413', '4414', '4415', '4422', '4434', '4448', '4451', '4457', '4463',
       '4474'],
      dtype='object', length=560)",True,5000,True,10,0.0,0.0,c422921065
7,./expes/v3_2021-01-22_di_4500-prng-1-w1-p10,daily_issda-4500,4500,first-4500,224,4,rng,num-start-181,181,536,classic,5033.146283149719,False,,True,0,,,0,"Index(['18', '25', '34', '41', '47', '119', '128', '246', '250', '261',
       ...
       '4353', '4365', '4372', '4374', '4384', '4391', '4451', '4468', '4469',
       '4482'],
      dtype='object', length=224)",True,5000,True,10,0.0,0.0,b4afdd3894
8,./expes/v3_2021-01-22_di_4500-prng-1-w1-p10,daily_issda-4500,4500,first-4500,1568,34,rng,num-start-131,131,536,classic,5026.856877088547,False,,True,0,,,0,"Index(['1', '2', '7', '13', '14', '15', '16', '17', '20', '23',
       ...
       '4464', '4469', '4473', '4474', '4482', '4484', '4493', '4494', '4495',
       '4500'],
      dtype='object', length=1568)",True,5000,True,10,0.0,0.0,b7ec3f1e3e
9,./expes/v3_2021-01-22_di_4500-prng-1-w1-p10,daily_issda-4500,4500,first-4500,896,19,rng,num-start-101,101,536,classic,5020.977584600449,False,,True,0,,,0,"Index(['1', '2', '4', '8', '9', '19', '25', '30', '34', '35',
       ...
       '4409', '4417', '4418', '4424', '4438', '4442', '4447', '4449', '4472',
       '4498'],
      dtype='object', length=896)",True,5000,True,10,0.0,0.0,50a1882d19
10,./expes/v3_2021-01-22_di_4500-prng-1-w1-p10,daily_issda-4500,4500,first-4500,560,12,rng,num-start-151,151,536,classic,5032.213271141052,False,,True,0,,,0,"Index(['6', '27', '32', '44', '45', '48', '53', '60', '65', '68',
       ...
       '4423', '4440', '4442', '4450', '4456', '4460', '4469', '4470', '4482',
       '4495'],
      dtype='object', length=560)",True,5000,True,10,0.0,0.0,a3d32dc48a
11,./expes/v3_2021-01-22_di_4500-prng-1-w1-p10,daily_issda-4500,4500,first-4500,1120,24,rng,num-start-251,251,536,classic,5049.991833209992,False,,True,0,,,0,"Index(['5', '6', '12', '16', '17', '24', '27', '32', '41', '42',
       ...
       '4468', '4469', '4470', '4473', '4474', '4477', '4482', '4493', '4495',
       '4499'],
      dtype='object', length=1120)",True,5000,True,10,0.0,0.0,5c1de20663
12,./expes/v3_2021-01-22_di_4500-prng-1-w1-p10,daily_issda-4500,4500,first-4500,560,12,rng,num-start-31,31,536,classic,5006.643075704575,False,,True,0,,,0,"Index(['1', '2', '10', '13', '20', '27', '28', '59', '65', '73',
       ...
       '4447', '4449', '4459', '4460', '4477', '4483', '4485', '4494', '4495',
       '4499'],
      dtype='object', length=560)",True,5000,True,10,0.0,0.0,e508436211
13,./expes/v3_2021-01-22_di_4500-prng-1-w1-p10,daily_issda-4500,4500,first-4500,1904,42,rng,num-start-191,191,536,classic,5037.607316493988,False,,True,0,,,0,"Index(['1', '2', '3', '4', '8', '9', '11', '16', '19', '20',
       ...
       '4475', '4477', '4479', '4482', '4483', '4486', '4497', '4498', '4499',
       '4500'],
      dtype='object', length=1904)",True,5000,True,10,0.0,0.0,9bbaca2450
14,./expes/v3_2021-01-22_di_4500-prng-1-w1-p10,daily_issda-4500,4500,first-4500,1792,39,rng,num-start-251,251,536,classic,5051.295161724091,False,,True,0,,,0,"Index(['4', '5', '7', '10', '21', '24', '25', '29', '30', '34',
       ...
       '4472', '4474', '4477', '4480', '4484', '4488', '4494', '4495', '4498',
       '4499'],
      dtype='object', length=1792)",True,5000,True,10,0.0,0.0,347dae1257
15,./expes/v3_2021-01-22_di_4500-prng-1-w1-p10,daily_issda-4500,4500,first-4500,1120,24,rng,num-start-61,61,536,classic,5012.6905953884125,False,,True,0,,,0,"Index(['1', '7', '18', '19', '26', '32', '39', '40', '42', '43',
       ...
       '4446', '4449', '4455', '4460', '4462', '4467', '4468', '4484', '4487',
       '4499'],
      dtype='object', length=1120)",True,5000,True,10,0.0,0.0,f219c2a4cd
16,./expes/v3_2021-01-22_di_4500-prng-1-w1-p10,daily_issda-4500,4500,first-4500,672,14,rng,num-start-161,161,536,classic,5144.058190822601,False,,True,0,,,0,"Index(['4', '10', '25', '38', '45', '55', '87', '91', '98', '103',
       ...
       '4453', '4465', '4468', '4476', '4478', '4482', '4484', '4486', '4489',
       '4491'],
      dtype='object', length=672)",True,5000,True,10,0.0,0.0,e6f9d3c096
17,./expes/v3_2021-01-22_di_4500-prng-1-w1-p10,daily_issda-4500,4500,first-4500,1680,37,rng,num-start-151,151,536,classic,5030.037006378174,False,,True,0,,,0,"Index(['1', '3', '4', '5', '7', '9', '10', '14', '15', '16',
       ...
       '4471', '4474', '4479', '4490', '4491', '4494', '4496', '4497', '4499',
       '4500'],
      dtype='object', length=1680)",True,5000,True,10,0.0,0.0,918843fdf4
18,./expes/v3_2021-01-22_di_4500-prng-1-w1-p10,daily_issda-4500,4500,first-4500,1792,39,rng,num-start-291,291,536,classic,5059.151195764542,False,,True,0,,,0,"Index(['1', '3', '6', '7', '13', '18', '19', '25', '26', '29',
       ...
       '4468', '4470', '4473', '4474', '4477', '4484', '4487', '4494', '4499',
       '4500'],
      dtype='object', length=1792)",True,5000,True,10,0.0,0.0,2dacfe5224
19,./expes/v3_2021-01-22_di_4500-prng-1-w1-p10,daily_issda-4500,4500,first-4500,784,17,rng,num-start-261,261,536,classic,5053.662487268448,False,,True,0,,,0,"Index(['2', '4', '10', '13', '22', '23', '25', '27', '29', '40',
       ...
       '4447', '4449', '4451', '4456', '4464', '4466', '4467', '4471', '4481',
       '4483'],
      dtype='object', length=784)",True,5000,True,10,0.0,0.0,552077617e
20,./expes/v3_2021-01-22_di_4500-prng-1-w1-p10,daily_issda-4500,4500,first-4500,1120,24,rng,num-start-191,191,536,classic,5040.003218889236,False,,True,0,,,0,"Index(['1', '2', '3', '9', '10', '13', '16', '20', '21', '26',
       ...
       '4467', '4474', '4477', '4479', '4483', '4485', '4494', '4495', '4497',
       '4499'],
      dtype='object', length=1120)",True,5000,True,10,0.0,0.0,7909ce48c0
