,expe,clients,clients_size,clients_subset,agg_size,agg_size_pc,method,days,days_size,days_total,noise_method,time,valid,valid_sum,success,score_avg,score_min,score_max,nsols,oracle,wall_hit,wall_time,pooled,pool_size,optimal,valid_sums,uuid
0,./expes/v3_2021-01-22_di_4500-prng-1-w1-p10,daily_issda-4500,4500,first-4500,1568,34,rng,num-start-231,231,536,classic,5146.175597429276,False,,True,0.0,,,0,"Index(['2', '3', '4', '7', '10', '11', '13', '15', '16', '23',
       ...
       '4480', '4482', '4484', '4486', '4489', '4491', '4492', '4493', '4494',
       '4499'],
      dtype='object', length=1568)",True,5000,True,10,0.0,0.0,0d8037de7c
1,./expes/v3_2021-01-22_di_4500-prng-1-w1-p10,daily_issda-4500,4500,first-4500,560,12,rng,num-start-1,1,536,classic,74.7859616279602,False,,True,0.5319524499004489,0.5304327066465016,0.5361477345044234,10,"Index(['17', '24', '44', '53', '57', '70', '72', '102', '108', '121',
       ...
       '4440', '4444', '4460', '4467', '4469', '4471', '4477', '4483', '4493',
       '4495'],
      dtype='object', length=560)",False,5000,True,10,1.0,1.0,1e3f5b328f
2,./expes/v3_2021-01-22_di_4500-prng-1-w1-p10,daily_issda-4500,4500,first-4500,1456,32,rng,num-start-291,291,536,classic,5185.668721675873,False,,True,0.0,,,0,"Index(['2', '3', '4', '7', '10', '11', '13', '16', '23', '25',
       ...
       '4480', '4482', '4484', '4486', '4489', '4491', '4492', '4493', '4494',
       '4499'],
      dtype='object', length=1456)",True,5000,True,10,0.0,0.0,af841db14c
3,./expes/v3_2021-01-22_di_4500-prng-1-w1-p10,daily_issda-4500,4500,first-4500,560,12,rng,num-start-151,151,536,classic,5098.875102043152,False,,True,0.0,,,0,"Index(['4', '5', '38', '41', '56', '79', '87', '89', '90', '93',
       ...
       '4413', '4414', '4415', '4422', '4434', '4448', '4451', '4457', '4463',
       '4474'],
      dtype='object', length=560)",True,5000,True,10,0.0,0.0,d823b678e6
4,./expes/v3_2021-01-22_di_4500-prng-1-w1-p10,daily_issda-4500,4500,first-4500,672,14,rng,num-start-111,111,536,classic,5081.495195388794,False,,True,0.0,,,0,"Index(['24', '25', '29', '34', '41', '42', '45', '58', '64', '81',
       ...
       '4427', '4430', '4435', '4437', '4452', '4461', '4464', '4465', '4498',
       '4499'],
      dtype='object', length=672)",True,5000,True,10,0.0,0.0,e64c325db9
5,./expes/v3_2021-01-22_di_4500-prng-1-w1-p10,daily_issda-4500,4500,first-4500,1232,27,rng,num-start-221,221,536,classic,5156.338883638382,False,,True,0.0,,,0,"Index(['2', '4', '5', '10', '11', '12', '13', '14', '22', '23',
       ...
       '4467', '4471', '4475', '4476', '4477', '4481', '4483', '4494', '4496',
       '4497'],
      dtype='object', length=1232)",True,5000,True,10,0.0,0.0,8d9bf51d7a
6,./expes/v3_2021-01-22_di_4500-prng-1-w1-p10,daily_issda-4500,4500,first-4500,672,14,rng,num-start-31,31,536,classic,5022.993010520935,False,,True,0.0,,,0,"Index(['21', '24', '31', '38', '43', '51', '55', '62', '63', '66',
       ...
       '4411', '4413', '4439', '4454', '4460', '4469', '4475', '4488', '4494',
       '4495'],
      dtype='object', length=672)",True,5000,True,10,0.0,0.0,455c9384d5
7,./expes/v3_2021-01-22_di_4500-prng-1-w1-p10,daily_issda-4500,4500,first-4500,560,12,rng,num-start-41,41,536,classic,5029.360989809036,False,,True,0.0,,,0,"Index(['47', '49', '51', '52', '55', '72', '74', '91', '106', '117',
       ...
       '4443', '4444', '4453', '4454', '4461', '4464', '4465', '4474', '4494',
       '4500'],
      dtype='object', length=560)",True,5000,True,10,0.0,0.0,764faf5f20
8,./expes/v3_2021-01-22_di_4500-prng-1-w1-p10,daily_issda-4500,4500,first-4500,1008,22,rng,num-start-21,21,536,classic,5015.034971952438,False,,True,0.0,,,0,"Index(['5', '8', '14', '17', '22', '27', '30', '39', '40', '43',
       ...
       '4459', '4460', '4465', '4467', '4469', '4470', '4475', '4483', '4487',
       '4500'],
      dtype='object', length=1008)",True,5000,True,10,0.0,0.0,df3d891ed4
