expe,clients,clients_size,clients_subset,agg_size,agg_size_pc,method,days,days_size,days_total,noise_method,time,valid,valid_sum,success,score_avg,score_min,score_max,nsols,oracle,wall_hit,wall_time,pooled,pool_size,uuid,infeasible,optimal,valid_sums
./expes/v2_2021-03-27_issda-30_2000-prng-1-w4-p2,30_issda-2000,2000,first-2000,200,10,rng,num-start-3000,3000,25726,classic,2284.320115327835,True,,True,1.0,1.0,1.0,1,"['7', '25', '28', '35', '41', '53', '63', '69', '70', '77', '90', '119', '129', '130', '132', '144', '147', '165', '175', '177', '184', '195', '199', '200', '219', '221', '233', '239', '248', '259', '277', '281', '285', '288', '292', '304', '305', '308', '315', '325', '330', '341', '349', '359', '389', '394', '396', '398', '405', '414', '426', '429', '451', '465', '475', '480', '481', '500', '507', '522', '530', '547', '583', '586', '592', '606', '612', '614', '615', '633', '643', '667', '694', '698', '701', '703', '705', '720', '729', '731', '732', '738', '750', '759', '769', '772', '773', '777', '780', '792', '800', '812', '821', '825', '834', '835', '840', '854', '856', '868', '873', '893', '912', '914', '929', '935', '941', '972', '994', '999', '1000', '1001', '1014', '1020', '1032', '1035', '1038', '1040', '1045', '1059', '1066', '1067', '1080', '1083', '1090', '1106', '1117', '1142', '1156', '1166', '1174', '1175', '1186', '1191', '1197', '1206', '1232', '1238', '1243', '1271', '1278', '1315', '1319', '1323', '1331', '1346', '1347', '1349', '1354', '1358', '1359', '1414', '1416', '1436', '1437', '1438', '1444', '1445', '1451', '1469', '1487', '1493', '1524', '1555', '1566', '1570', '1632', '1655', '1656', '1662', '1668', '1699', '1701', '1709', '1713', '1728', '1746', '1752', '1755', '1762', '1799', '1805', '1826', '1838', '1847', '1848', '1850', '1851', '1854', '1860', '1867', '1870', '1910', '1918', '1938', '1946', '1971', '1977', '1993', '1997']",False,4000,True,2,581d450800,0.0,1.0,1.0
./expes/v2_2021-03-27_issda-30_2000-prng-1-w4-p2,30_issda-2000,2000,first-2000,300,15,rng,num-start-1200,1200,25726,classic,1154.1876363754272,True,,True,1.0,1.0,1.0,1,"['4', '9', '18', '37', '44', '49', '50', '52', '57', '64', '65', '66', '69', '74', '75', '84', '89', '94', '101', '116', '117', '121', '124', '139', '151', '155', '165', '170', '174', '188', '192', '197', '209', '218', '232', '236', '262', '270', '280', '288', '295', '311', '315', '322', '325', '331', '337', '341', '347', '350', '353', '356', '362', '364', '373', '377', '392', '426', '432', '435', '455', '462', '465', '468', '473', '475', '477', '484', '502', '506', '508', '511', '512', '514', '516', '519', '524', '526', '531', '537', '541', '545', '550', '560', '572', '586', '622', '632', '634', '639', '648', '653', '665', '666', '672', '691', '699', '700', '705', '719', '725', '737', '738', '740', '742', '743', '746', '751', '762', '765', '779', '790', '805', '806', '819', '823', '833', '850', '860', '867', '868', '883', '911', '912', '913', '918', '919', '929', '932', '936', '945', '953', '969', '983', '997', '998', '1001', '1002', '1004', '1021', '1026', '1029', '1033', '1040', '1041', '1043', '1045', '1049', '1053', '1055', '1056', '1061', '1062', '1070', '1072', '1076', '1077', '1087', '1115', '1130', '1142', '1143', '1147', '1148', '1152', '1163', '1177', '1191', '1198', '1205', '1208', '1211', '1212', '1216', '1240', '1241', '1242', '1243', '1261', '1262', '1263', '1274', '1277', '1278', '1279', '1286', '1301', '1308', '1335', '1338', '1342', '1350', '1354', '1356', '1372', '1374', '1378', '1382', '1396', '1398', '1402', '1408', '1417', '1433', '1445', '1447', '1451', '1454', '1463', '1465', '1469', '1481', '1483', '1487', '1494', '1497', '1505', '1508', '1513', '1516', '1521', '1526', '1532', '1545', '1548', '1556', '1563', '1569', '1584', '1600', '1607', '1615', '1618', '1622', '1627', '1631', '1632', '1637', '1639', '1646', '1657', '1666', '1669', '1670', '1681', '1690', '1703', '1711', '1712', '1718', '1739', '1749', '1760', '1762', '1767', '1768', '1784', '1791', '1792', '1794', '1796', '1804', '1807', '1809', '1811', '1827', '1831', '1840', '1843', '1846', '1848', '1850', '1857', '1859', '1860', '1861', '1867', '1876', '1877', '1882', '1885', '1895', '1909', '1914', '1917', '1922', '1927', '1933', '1942', '1945', '1955', '1956', '1958', '1961', '1964', '1965', '1966', '1970', '1988', '1989']",False,4000,True,2,1064084f68,0.0,1.0,1.0
./expes/v2_2021-03-27_issda-30_2000-prng-1-w4-p2,30_issda-2000,2000,first-2000,700,35,rng,num-start-2800,2800,25726,classic,3678.241517305374,True,,True,1.0,1.0,1.0,1,"['4', '7', '9', '10', '11', '18', '22', '24', '33', '36', '37', '40', '41', '44', '49', '50', '51', '52', '57', '61', '64', '65', '66', '69', '70', '73', '74', '75', '77', '84', '89', '94', '101', '105', '110', '111', '116', '117', '121', '123', '124', '126', '135', '137', '139', '146', '149', '150', '151', '152', '155', '157', '158', '159', '164', '165', '167', '170', '173', '174', '177', '180', '183', '188', '191', '192', '193', '194', '197', '204', '205', '206', '208', '209', '216', '218', '228', '230', '232', '236', '238', '243', '250', '252', '262', '264', '270', '274', '275', '277', '278', '280', '283', '287', '288', '290', '295', '297', '301', '307', '310', '311', '315', '320', '321', '322', '323', '325', '326', '329', '331', '333', '337', '341', '347', '348', '350', '353', '354', '356', '361', '362', '364', '370', '372', '373', '377', '380', '385', '389', '392', '393', '394', '407', '409', '419', '420', '426', '427', '431', '432', '435', '436', '438', '442', '443', '444', '446', '449', '455', '461', '462', '465', '468', '473', '475', '476', '477', '478', '481', '484', '488', '494', '502', '506', '508', '510', '511', '512', '514', '516', '519', '520', '521', '523', '524', '526', '527', '529', '531', '532', '537', '541', '545', '547', '550', '551', '560', '562', '569', '571', '572', '575', '579', '583', '586', '588', '594', '596', '598', '604', '607', '608', '620', '622', '623', '627', '631', '632', '634', '635', '639', '640', '641', '642', '648', '653', '657', '665', '666', '669', '672', '674', '675', '678', '684', '686', '691', '699', '700', '701', '705', '707', '712', '718', '719', '725', '730', '733', '735', '737', '738', '740', '742', '743', '746', '747', '750', '751', '762', '763', '764', '765', '766', '768', '775', '777', '779', '782', '784', '785', '788', '790', '791', '799', '800', '801', '802', '803', '805', '806', '809', '810', '819', '820', '823', '825', '826', '828', '829', '830', '833', '838', '842', '845', '850', '854', '857', '859', '860', '867', '868', '872', '876', '883', '889', '890', '899', '904', '906', '907', '911', '912', '913', '918', '919', '925', '929', '930', '932', '936', '937', '938', '941', '943', '945', '949', '952', '953', '955', '956', '957', '958', '961', '964', '968', '969', '979', '983', '988', '989', '991', '992', '994', '995', '996', '997', '998', '1001', '1002', '1004', '1005', '1008', '1020', '1021', '1023', '1026', '1029', '1030', '1033', '1034', '1040', '1041', '1042', '1043', '1045', '1048', '1049', '1052', '1053', '1054', '1055', '1056', '1058', '1061', '1062', '1064', '1067', '1070', '1071', '1072', '1073', '1074', '1076', '1077', '1078', '1087', '1090', '1092', '1097', '1102', '1103', '1108', '1115', '1117', '1122', '1124', '1128', '1130', '1142', '1143', '1147', '1148', '1150', '1152', '1156', '1160', '1163', '1166', '1171', '1175', '1177', '1180', '1189', '1190', '1191', '1198', '1200', '1201', '1205', '1206', '1208', '1211', '1212', '1216', '1219', '1222', '1240', '1241', '1242', '1243', '1251', '1254', '1255', '1257', '1261', '1262', '1263', '1267', '1273', '1274', '1275', '1277', '1278', '1279', '1281', '1286', '1288', '1295', '1297', '1298', '1301', '1305', '1306', '1308', '1310', '1313', '1315', '1317', '1324', '1327', '1328', '1330', '1332', '1335', '1338', '1339', '1342', '1349', '1350', '1354', '1356', '1359', '1366', '1371', '1372', '1374', '1378', '1382', '1383', '1384', '1386', '1390', '1391', '1394', '1395', '1396', '1398', '1402', '1403', '1404', '1408', '1413', '1414', '1417', '1419', '1425', '1432', '1433', '1441', '1443', '1445', '1446', '1447', '1451', '1454', '1456', '1457', '1458', '1460', '1461', '1462', '1463', '1465', '1466', '1467', '1468', '1469', '1472', '1473', '1474', '1475', '1481', '1482', '1483', '1487', '1491', '1493', '1494', '1497', '1498', '1500', '1505', '1508', '1509', '1513', '1516', '1521', '1525', '1526', '1528', '1532', '1535', '1537', '1538', '1539', '1541', '1544', '1545', '1546', '1547', '1548', '1556', '1557', '1558', '1560', '1563', '1566', '1569', '1571', '1584', '1588', '1592', '1600', '1604', '1607', '1613', '1615', '1618', '1622', '1627', '1629', '1630', '1631', '1632', '1635', '1636', '1637', '1639', '1642', '1644', '1646', '1647', '1648', '1651', '1652', '1656', '1657', '1659', '1664', '1666', '1669', '1670', '1671', '1672', '1675', '1677', '1679', '1681', '1687', '1689', '1690', '1691', '1703', '1707', '1711', '1712', '1713', '1715', '1718', '1722', '1734', '1738', '1739', '1741', '1743', '1746', '1749', '1755', '1760', '1762', '1767', '1768', '1770', '1774', '1781', '1783', '1784', '1791', '1792', '1794', '1796', '1798', '1800', '1804', '1805', '1806', '1807', '1809', '1811', '1812', '1813', '1818', '1819', '1822', '1827', '1831', '1833', '1834', '1840', '1843', '1846', '1848', '1850', '1855', '1857', '1859', '1860', '1861', '1867', '1868', '1874', '1876', '1877', '1882', '1885', '1886', '1888', '1889', '1895', '1897', '1903', '1904', '1909', '1910', '1914', '1916', '1917', '1919', '1922', '1923', '1927', '1932', '1933', '1941', '1942', '1943', '1944', '1945', '1946', '1955', '1956', '1958', '1961', '1962', '1964', '1965', '1966', '1968', '1970', '1971', '1973', '1980', '1981', '1985', '1986', '1988', '1989', '1992', '1995']",False,4000,True,2,eb05612bd5,0.0,1.0,1.0
./expes/v2_2021-03-27_issda-30_2000-prng-1-w4-p2,30_issda-2000,2000,first-2000,700,35,rng,num-start-4000,4000,25726,classic,3843.1305208206177,True,,True,1.0,1.0,1.0,1,"['4', '7', '9', '10', '11', '18', '22', '24', '33', '36', '37', '40', '41', '44', '49', '50', '51', '52', '57', '61', '64', '65', '66', '69', '70', '73', '74', '75', '77', '84', '89', '94', '101', '105', '110', '111', '116', '117', '121', '123', '124', '126', '135', '137', '139', '146', '149', '150', '151', '152', '155', '157', '158', '159', '164', '165', '167', '170', '173', '174', '177', '180', '183', '188', '191', '192', '193', '194', '197', '204', '205', '206', '208', '209', '216', '218', '228', '230', '232', '236', '238', '243', '250', '252', '262', '264', '270', '274', '275', '277', '278', '280', '283', '287', '288', '290', '295', '297', '301', '307', '310', '311', '315', '320', '321', '322', '323', '325', '326', '329', '331', '333', '337', '341', '347', '348', '350', '353', '354', '356', '361', '362', '364', '370', '372', '373', '377', '380', '385', '389', '392', '393', '394', '407', '409', '419', '420', '426', '427', '431', '432', '435', '436', '438', '442', '443', '444', '446', '449', '455', '461', '462', '465', '468', '473', '475', '476', '477', '478', '481', '484', '488', '494', '502', '506', '508', '510', '511', '512', '514', '516', '519', '520', '521', '523', '524', '526', '527', '529', '531', '532', '537', '541', '545', '547', '550', '551', '560', '562', '569', '571', '572', '575', '579', '583', '586', '588', '594', '596', '598', '604', '607', '608', '620', '622', '623', '627', '631', '632', '634', '635', '639', '640', '641', '642', '648', '653', '657', '665', '666', '669', '672', '674', '675', '678', '684', '686', '691', '699', '700', '701', '705', '707', '712', '718', '719', '725', '730', '733', '735', '737', '738', '740', '742', '743', '746', '747', '750', '751', '762', '763', '764', '765', '766', '768', '775', '777', '779', '782', '784', '785', '788', '790', '791', '799', '800', '801', '802', '803', '805', '806', '809', '810', '819', '820', '823', '825', '826', '828', '829', '830', '833', '838', '842', '845', '850', '854', '857', '859', '860', '867', '868', '872', '876', '883', '889', '890', '899', '904', '906', '907', '911', '912', '913', '918', '919', '925', '929', '930', '932', '936', '937', '938', '941', '943', '945', '949', '952', '953', '955', '956', '957', '958', '961', '964', '968', '969', '979', '983', '988', '989', '991', '992', '994', '995', '996', '997', '998', '1001', '1002', '1004', '1005', '1008', '1020', '1021', '1023', '1026', '1029', '1030', '1033', '1034', '1040', '1041', '1042', '1043', '1045', '1048', '1049', '1052', '1053', '1054', '1055', '1056', '1058', '1061', '1062', '1064', '1067', '1070', '1071', '1072', '1073', '1074', '1076', '1077', '1078', '1087', '1090', '1092', '1097', '1102', '1103', '1108', '1115', '1117', '1122', '1124', '1128', '1130', '1142', '1143', '1147', '1148', '1150', '1152', '1156', '1160', '1163', '1166', '1171', '1175', '1177', '1180', '1189', '1190', '1191', '1198', '1200', '1201', '1205', '1206', '1208', '1211', '1212', '1216', '1219', '1222', '1240', '1241', '1242', '1243', '1251', '1254', '1255', '1257', '1261', '1262', '1263', '1267', '1273', '1274', '1275', '1277', '1278', '1279', '1281', '1286', '1288', '1295', '1297', '1298', '1301', '1305', '1306', '1308', '1310', '1313', '1315', '1317', '1324', '1327', '1328', '1330', '1332', '1335', '1338', '1339', '1342', '1349', '1350', '1354', '1356', '1359', '1366', '1371', '1372', '1374', '1378', '1382', '1383', '1384', '1386', '1390', '1391', '1394', '1395', '1396', '1398', '1402', '1403', '1404', '1408', '1413', '1414', '1417', '1419', '1425', '1432', '1433', '1441', '1443', '1445', '1446', '1447', '1451', '1454', '1456', '1457', '1458', '1460', '1461', '1462', '1463', '1465', '1466', '1467', '1468', '1469', '1472', '1473', '1474', '1475', '1481', '1482', '1483', '1487', '1491', '1493', '1494', '1497', '1498', '1500', '1505', '1508', '1509', '1513', '1516', '1521', '1525', '1526', '1528', '1532', '1535', '1537', '1538', '1539', '1541', '1544', '1545', '1546', '1547', '1548', '1556', '1557', '1558', '1560', '1563', '1566', '1569', '1571', '1584', '1588', '1592', '1600', '1604', '1607', '1613', '1615', '1618', '1622', '1627', '1629', '1630', '1631', '1632', '1635', '1636', '1637', '1639', '1642', '1644', '1646', '1647', '1648', '1651', '1652', '1656', '1657', '1659', '1664', '1666', '1669', '1670', '1671', '1672', '1675', '1677', '1679', '1681', '1687', '1689', '1690', '1691', '1703', '1707', '1711', '1712', '1713', '1715', '1718', '1722', '1734', '1738', '1739', '1741', '1743', '1746', '1749', '1755', '1760', '1762', '1767', '1768', '1770', '1774', '1781', '1783', '1784', '1791', '1792', '1794', '1796', '1798', '1800', '1804', '1805', '1806', '1807', '1809', '1811', '1812', '1813', '1818', '1819', '1822', '1827', '1831', '1833', '1834', '1840', '1843', '1846', '1848', '1850', '1855', '1857', '1859', '1860', '1861', '1867', '1868', '1874', '1876', '1877', '1882', '1885', '1886', '1888', '1889', '1895', '1897', '1903', '1904', '1909', '1910', '1914', '1916', '1917', '1919', '1922', '1923', '1927', '1932', '1933', '1941', '1942', '1943', '1944', '1945', '1946', '1955', '1956', '1958', '1961', '1962', '1964', '1965', '1966', '1968', '1970', '1971', '1973', '1980', '1981', '1985', '1986', '1988', '1989', '1992', '1995']",False,4000,True,2,6af8aa8ab3,0.0,1.0,1.0
./expes/v2_2021-03-27_issda-30_2000-prng-1-w4-p2,30_issda-2000,2000,first-2000,200,10,rng,num-start-2400,2400,25726,classic,1809.3453102111816,True,,True,1.0,1.0,1.0,1,"['3', '29', '34', '68', '80', '83', '128', '129', '142', '152', '165', '169', '184', '187', '188', '192', '195', '203', '207', '224', '237', '240', '256', '267', '286', '287', '292', '301', '307', '350', '377', '383', '388', '390', '392', '417', '419', '441', '448', '452', '455', '483', '489', '496', '498', '500', '514', '531', '533', '534', '556', '564', '565', '578', '590', '595', '597', '618', '622', '636', '648', '650', '656', '665', '667', '677', '682', '683', '687', '725', '732', '734', '762', '789', '802', '817', '830', '859', '862', '890', '907', '912', '918', '923', '967', '976', '977', '996', '997', '1003', '1009', '1011', '1034', '1041', '1048', '1068', '1069', '1075', '1091', '1107', '1108', '1113', '1121', '1122', '1124', '1129', '1132', '1147', '1163', '1179', '1188', '1195', '1203', '1204', '1208', '1222', '1233', '1236', '1252', '1254', '1255', '1267', '1281', '1291', '1312', '1314', '1345', '1353', '1369', '1391', '1392', '1400', '1401', '1433', '1435', '1442', '1445', '1448', '1455', '1474', '1495', '1496', '1499', '1548', '1552', '1553', '1606', '1608', '1625', '1628', '1635', '1638', '1645', '1646', '1649', '1660', '1663', '1669', '1683', '1690', '1691', '1696', '1699', '1700', '1716', '1721', '1726', '1730', '1731', '1740', '1742', '1773', '1777', '1783', '1793', '1796', '1824', '1827', '1834', '1840', '1841', '1848', '1860', '1864', '1870', '1876', '1878', '1879', '1881', '1882', '1889', '1891', '1892', '1911', '1946', '1974', '1978', '1980', '1982', '1983']",False,4000,True,2,b405b04b14,0.0,1.0,1.0
./expes/v2_2021-03-27_issda-30_2000-prng-1-w4-p2,30_issda-2000,2000,first-2000,500,25,rng,num-start-800,800,25726,classic,4111.011620998383,False,,False,0,,,0,"['4', '5', '12', '18', '19', '22', '26', '30', '35', '36', '37', '38', '43', '45', '46', '49', '53', '56', '58', '59', '60', '61', '63', '67', '71', '73', '77', '78', '81', '82', '83', '90', '94', '98', '115', '121', '129', '130', '132', '134', '143', '145', '150', '157', '168', '171', '174', '178', '188', '193', '198', '203', '205', '206', '210', '211', '214', '221', '222', '223', '225', '234', '235', '236', '237', '242', '248', '257', '258', '265', '268', '273', '276', '277', '278', '300', '302', '322', '325', '326', '327', '329', '332', '336', '342', '343', '345', '346', '348', '349', '352', '355', '363', '371', '379', '381', '385', '386', '389', '398', '409', '410', '411', '412', '421', '422', '426', '429', '430', '435', '437', '444', '446', '449', '452', '455', '458', '459', '462', '465', '469', '471', '473', '476', '478', '481', '482', '491', '495', '498', '512', '517', '519', '520', '523', '530', '546', '547', '549', '551', '552', '559', '568', '576', '577', '582', '594', '595', '597', '603', '604', '606', '607', '608', '611', '612', '622', '628', '632', '636', '639', '642', '645', '650', '651', '656', '657', '658', '660', '667', '672', '679', '681', '682', '694', '695', '697', '699', '704', '705', '706', '708', '709', '711', '724', '731', '747', '748', '752', '754', '759', '768', '775', '777', '778', '779', '781', '786', '792', '799', '802', '806', '807', '809', '814', '817', '824', '828', '829', '833', '847', '849', '853', '863', '865', '873', '874', '880', '885', '887', '892', '897', '899', '913', '921', '922', '924', '928', '932', '938', '939', '941', '942', '944', '962', '968', '971', '977', '984', '986', '993', '994', '1000', '1002', '1003', '1009', '1015', '1016', '1017', '1023', '1024', '1026', '1029', '1033', '1034', '1035', '1037', '1040', '1042', '1043', '1045', '1050', '1053', '1058', '1063', '1067', '1073', '1081', '1091', '1095', '1103', '1106', '1107', '1109', '1112', '1116', '1122', '1123', '1124', '1127', '1128', '1129', '1133', '1136', '1140', '1149', '1150', '1154', '1156', '1157', '1160', '1166', '1168', '1169', '1175', '1180', '1184', '1185', '1188', '1197', '1202', '1204', '1207', '1210', '1211', '1212', '1215', '1222', '1229', '1230', '1232', '1237', '1241', '1245', '1248', '1254', '1255', '1257', '1260', '1276', '1277', '1280', '1289', '1292', '1293', '1302', '1316', '1326', '1328', '1329', '1331', '1335', '1336', '1345', '1351', '1352', '1360', '1362', '1364', '1373', '1374', '1379', '1381', '1382', '1383', '1387', '1389', '1395', '1406', '1408', '1424', '1426', '1439', '1440', '1441', '1442', '1444', '1457', '1458', '1465', '1473', '1478', '1483', '1486', '1487', '1488', '1494', '1496', '1501', '1511', '1512', '1517', '1522', '1524', '1545', '1548', '1555', '1559', '1562', '1565', '1572', '1573', '1578', '1579', '1589', '1593', '1595', '1597', '1598', '1602', '1603', '1605', '1609', '1611', '1612', '1615', '1616', '1618', '1631', '1633', '1634', '1636', '1643', '1644', '1646', '1648', '1652', '1658', '1662', '1666', '1673', '1674', '1676', '1679', '1681', '1692', '1696', '1697', '1700', '1705', '1712', '1716', '1721', '1723', '1724', '1731', '1734', '1736', '1738', '1742', '1744', '1748', '1756', '1757', '1759', '1762', '1764', '1774', '1777', '1778', '1782', '1786', '1794', '1800', '1805', '1808', '1813', '1815', '1818', '1825', '1830', '1835', '1837', '1843', '1845', '1847', '1863', '1864', '1865', '1866', '1871', '1873', '1877', '1879', '1885', '1889', '1895', '1896', '1897', '1898', '1907', '1910', '1918', '1921', '1922', '1924', '1927', '1928', '1933', '1934', '1936', '1946', '1950', '1951', '1955', '1956', '1961', '1966', '1971', '1976', '1978', '1981', '1983', '1985', '1987', '1988', '1994', '1995', '1998', '1999']",True,4000,True,2,0f4c29e20f,0.0,0.0,0.0
./expes/v2_2021-03-27_issda-30_2000-prng-1-w4-p2,30_issda-2000,2000,first-2000,1000,50,rng,num-start-2000,2000,25726,classic,2401.438222885132,True,,True,1.0,1.0,1.0,1,"['1', '2', '3', '4', '6', '7', '11', '13', '19', '21', '24', '26', '27', '28', '30', '34', '35', '36', '38', '39', '41', '42', '45', '46', '47', '49', '52', '53', '55', '56', '57', '58', '60', '61', '66', '68', '69', '70', '71', '74', '75', '76', '78', '81', '82', '86', '90', '93', '96', '97', '99', '100', '101', '104', '106', '107', '108', '110', '111', '115', '117', '118', '121', '124', '125', '126', '128', '129', '130', '131', '134', '136', '137', '138', '141', '146', '148', '155', '158', '160', '161', '162', '166', '168', '172', '173', '175', '178', '179', '180', '181', '183', '187', '188', '189', '193', '195', '196', '199', '202', '203', '205', '209', '213', '219', '221', '222', '224', '226', '227', '228', '231', '232', '236', '237', '238', '242', '243', '244', '248', '250', '251', '253', '256', '257', '259', '260', '265', '266', '267', '268', '269', '270', '271', '272', '273', '274', '276', '280', '282', '284', '285', '287', '289', '290', '291', '292', '293', '294', '295', '299', '301', '304', '305', '306', '307', '309', '310', '312', '315', '317', '320', '322', '326', '327', '328', '329', '331', '332', '335', '339', '340', '341', '343', '346', '347', '348', '351', '352', '354', '360', '361', '364', '365', '366', '368', '369', '370', '371', '372', '373', '375', '378', '379', '380', '382', '386', '392', '393', '397', '399', '401', '403', '404', '407', '408', '409', '410', '412', '413', '415', '419', '420', '424', '425', '426', '427', '428', '429', '434', '436', '437', '440', '441', '442', '444', '449', '452', '457', '459', '464', '468', '472', '473', '474', '479', '481', '482', '483', '486', '487', '488', '489', '490', '492', '493', '495', '499', '502', '503', '504', '505', '509', '510', '511', '513', '514', '515', '517', '521', '524', '525', '529', '533', '538', '540', '541', '543', '548', '549', '550', '555', '558', '561', '562', '563', '565', '568', '569', '571', '573', '574', '576', '577', '579', '580', '581', '582', '585', '586', '587', '588', '592', '593', '594', '595', '597', '600', '601', '602', '604', '605', '606', '607', '608', '612', '616', '617', '618', '620', '622', '626', '627', '628', '629', '630', '634', '635', '637', '639', '640', '641', '643', '645', '647', '648', '649', '650', '651', '654', '658', '659', '662', '663', '664', '665', '667', '668', '677', '678', '680', '683', '685', '689', '693', '694', '696', '697', '698', '700', '701', '705', '706', '708', '713', '714', '715', '716', '717', '718', '720', '721', '724', '726', '727', '728', '729', '731', '732', '733', '734', '735', '740', '741', '742', '743', '744', '745', '746', '747', '750', '751', '753', '756', '757', '761', '762', '764', '766', '767', '768', '770', '771', '772', '773', '775', '777', '778', '779', '780', '782', '783', '784', '785', '787', '788', '790', '791', '792', '797', '798', '799', '800', '803', '804', '805', '806', '811', '814', '817', '818', '821', '822', '825', '827', '828', '830', '831', '832', '835', '836', '837', '839', '840', '841', '847', '848', '850', '851', '854', '858', '859', '860', '862', '864', '867', '868', '872', '875', '876', '878', '879', '880', '882', '885', '887', '888', '890', '893', '897', '904', '905', '906', '909', '912', '914', '920', '922', '928', '929', '930', '934', '936', '945', '946', '947', '948', '949', '951', '953', '954', '958', '959', '961', '962', '963', '966', '967', '968', '970', '972', '973', '975', '976', '977', '978', '980', '982', '983', '984', '985', '986', '987', '988', '989', '990', '991', '995', '997', '1000', '1003', '1004', '1006', '1007', '1008', '1009', '1011', '1013', '1017', '1019', '1020', '1023', '1025', '1027', '1030', '1036', '1038', '1042', '1049', '1050', '1051', '1052', '1056', '1057', '1058', '1059', '1060', '1062', '1063', '1070', '1075', '1081', '1083', '1085', '1086', '1087', '1089', '1090', '1091', '1093', '1094', '1100', '1102', '1103', '1105', '1106', '1109', '1110', '1111', '1114', '1115', '1117', '1118', '1121', '1123', '1124', '1125', '1127', '1130', '1131', '1133', '1134', '1136', '1137', '1138', '1139', '1142', '1146', '1148', '1151', '1152', '1155', '1156', '1158', '1159', '1165', '1170', '1171', '1174', '1175', '1176', '1178', '1179', '1182', '1185', '1187', '1189', '1190', '1193', '1197', '1200', '1201', '1202', '1204', '1208', '1209', '1210', '1214', '1216', '1217', '1219', '1221', '1222', '1226', '1230', '1231', '1236', '1237', '1240', '1241', '1246', '1247', '1250', '1251', '1252', '1253', '1254', '1257', '1259', '1260', '1264', '1265', '1266', '1269', '1271', '1272', '1274', '1275', '1276', '1277', '1278', '1279', '1280', '1281', '1282', '1284', '1285', '1290', '1292', '1293', '1295', '1305', '1308', '1312', '1316', '1320', '1321', '1323', '1326', '1327', '1328', '1329', '1330', '1331', '1332', '1334', '1336', '1338', '1339', '1340', '1342', '1343', '1344', '1345', '1352', '1353', '1355', '1356', '1357', '1359', '1360', '1363', '1364', '1365', '1368', '1369', '1370', '1373', '1374', '1375', '1376', '1377', '1380', '1382', '1385', '1388', '1389', '1392', '1394', '1395', '1396', '1397', '1398', '1399', '1404', '1405', '1408', '1409', '1410', '1411', '1412', '1415', '1417', '1419', '1423', '1424', '1425', '1427', '1428', '1429', '1435', '1437', '1439', '1441', '1443', '1444', '1445', '1446', '1448', '1450', '1451', '1453', '1460', '1461', '1464', '1465', '1467', '1468', '1470', '1471', '1472', '1474', '1475', '1476', '1477', '1478', '1480', '1481', '1485', '1487', '1488', '1489', '1491', '1494', '1495', '1496', '1498', '1499', '1500', '1501', '1509', '1512', '1513', '1514', '1516', '1517', '1518', '1520', '1521', '1523', '1526', '1527', '1533', '1536', '1537', '1538', '1539', '1541', '1543', '1544', '1547', '1548', '1549', '1553', '1555', '1556', '1558', '1561', '1565', '1566', '1567', '1569', '1572', '1574', '1576', '1577', '1582', '1585', '1587', '1589', '1590', '1595', '1596', '1598', '1599', '1600', '1601', '1602', '1609', '1610', '1614', '1620', '1622', '1627', '1628', '1629', '1631', '1632', '1633', '1634', '1636', '1640', '1641', '1642', '1643', '1645', '1648', '1650', '1654', '1655', '1657', '1663', '1664', '1665', '1666', '1668', '1671', '1673', '1675', '1677', '1679', '1681', '1682', '1683', '1684', '1689', '1693', '1694', '1697', '1700', '1703', '1704', '1706', '1707', '1711', '1712', '1713', '1714', '1715', '1717', '1718', '1721', '1722', '1723', '1724', '1725', '1727', '1729', '1731', '1738', '1739', '1741', '1742', '1745', '1746', '1749', '1751', '1753', '1755', '1759', '1761', '1768', '1769', '1775', '1776', '1777', '1778', '1779', '1780', '1782', '1785', '1787', '1793', '1795', '1796', '1800', '1803', '1804', '1806', '1808', '1814', '1817', '1819', '1821', '1822', '1823', '1826', '1827', '1829', '1830', '1831', '1833', '1836', '1837', '1838', '1841', '1843', '1844', '1846', '1848', '1850', '1861', '1862', '1865', '1866', '1867', '1868', '1870', '1872', '1874', '1877', '1878', '1881', '1886', '1887', '1888', '1889', '1892', '1893', '1894', '1899', '1903', '1904', '1906', '1910', '1915', '1916', '1917', '1918', '1920', '1921', '1923', '1924', '1925', '1926', '1927', '1928', '1930', '1931', '1932', '1935', '1936', '1937', '1945', '1946', '1947', '1948', '1949', '1950', '1951', '1953', '1955', '1956', '1957', '1959', '1960', '1961', '1963', '1966', '1967', '1968', '1969', '1970', '1973', '1976', '1977', '1980', '1982', '1983', '1984', '1985', '1986', '1990', '1992', '1993', '1994', '1997', '1998', '1999', '2000']",False,4000,True,2,1d7bc6e6dc,0.0,1.0,1.0
./expes/v2_2021-03-27_issda-30_2000-prng-1-w4-p2,30_issda-2000,2000,first-2000,700,35,rng,num-start-3600,3600,25726,classic,3205.439868450165,True,,True,1.0,1.0,1.0,1,"['4', '5', '12', '16', '18', '19', '21', '22', '23', '26', '30', '35', '36', '37', '38', '39', '42', '43', '45', '46', '49', '50', '53', '56', '58', '59', '60', '61', '63', '66', '67', '71', '73', '77', '78', '81', '82', '83', '85', '90', '94', '98', '99', '100', '115', '121', '128', '129', '130', '132', '134', '143', '145', '146', '147', '149', '150', '154', '157', '158', '167', '168', '171', '174', '175', '178', '183', '184', '186', '188', '189', '193', '198', '203', '205', '206', '207', '210', '211', '214', '219', '221', '222', '223', '225', '229', '234', '235', '236', '237', '242', '248', '253', '257', '258', '259', '265', '268', '273', '276', '277', '278', '284', '290', '291', '300', '302', '307', '316', '322', '324', '325', '326', '327', '329', '332', '336', '339', '342', '343', '345', '346', '348', '349', '352', '353', '355', '363', '364', '365', '368', '371', '376', '379', '381', '383', '385', '386', '389', '398', '408', '409', '410', '411', '412', '418', '421', '422', '424', '426', '429', '430', '435', '437', '441', '444', '446', '449', '450', '451', '452', '455', '458', '459', '461', '462', '463', '465', '466', '469', '471', '473', '476', '478', '479', '481', '482', '489', '491', '495', '498', '500', '502', '504', '505', '507', '512', '513', '517', '518', '519', '520', '523', '529', '530', '531', '546', '547', '549', '551', '552', '559', '564', '568', '576', '577', '582', '594', '595', '596', '597', '602', '603', '604', '606', '607', '608', '611', '612', '613', '614', '621', '622', '626', '628', '629', '630', '632', '636', '639', '641', '642', '645', '648', '649', '650', '651', '655', '656', '657', '658', '660', '667', '671', '672', '679', '681', '682', '685', '691', '694', '695', '697', '699', '704', '705', '706', '708', '709', '711', '724', '727', '729', '731', '736', '739', '747', '748', '752', '754', '756', '759', '762', '768', '773', '775', '777', '778', '779', '781', '786', '792', '799', '800', '802', '806', '807', '809', '811', '814', '815', '817', '822', '823', '824', '828', '829', '833', '845', '847', '849', '853', '854', '863', '865', '873', '874', '880', '881', '885', '887', '892', '897', '898', '899', '900', '913', '915', '918', '921', '922', '924', '928', '929', '932', '934', '938', '939', '941', '942', '944', '952', '961', '962', '968', '971', '977', '981', '984', '986', '993', '994', '995', '996', '1000', '1002', '1003', '1009', '1011', '1014', '1015', '1016', '1017', '1023', '1024', '1026', '1027', '1029', '1033', '1034', '1035', '1037', '1040', '1042', '1043', '1045', '1048', '1050', '1053', '1054', '1058', '1063', '1067', '1073', '1081', '1083', '1091', '1095', '1101', '1102', '1103', '1106', '1107', '1109', '1110', '1112', '1115', '1116', '1118', '1122', '1123', '1124', '1125', '1127', '1128', '1129', '1132', '1133', '1136', '1140', '1148', '1149', '1150', '1154', '1156', '1157', '1160', '1166', '1168', '1169', '1170', '1175', '1177', '1180', '1184', '1185', '1186', '1188', '1197', '1202', '1204', '1207', '1210', '1211', '1212', '1215', '1216', '1218', '1221', '1222', '1229', '1230', '1232', '1233', '1237', '1241', '1242', '1245', '1248', '1252', '1253', '1254', '1255', '1257', '1260', '1266', '1276', '1277', '1280', '1289', '1292', '1293', '1302', '1309', '1316', '1318', '1322', '1324', '1326', '1328', '1329', '1331', '1335', '1336', '1339', '1345', '1351', '1352', '1356', '1360', '1362', '1363', '1364', '1368', '1373', '1374', '1377', '1379', '1381', '1382', '1383', '1387', '1389', '1395', '1397', '1406', '1407', '1408', '1410', '1413', '1417', '1419', '1424', '1426', '1437', '1439', '1440', '1441', '1442', '1444', '1453', '1457', '1458', '1460', '1464', '1465', '1473', '1478', '1480', '1483', '1486', '1487', '1488', '1492', '1494', '1496', '1498', '1501', '1509', '1511', '1512', '1517', '1522', '1524', '1529', '1538', '1543', '1545', '1548', '1555', '1559', '1562', '1564', '1565', '1569', '1572', '1573', '1578', '1579', '1589', '1590', '1593', '1594', '1595', '1597', '1598', '1602', '1603', '1605', '1608', '1609', '1611', '1612', '1615', '1616', '1618', '1623', '1624', '1625', '1629', '1631', '1633', '1634', '1636', '1643', '1644', '1646', '1647', '1648', '1652', '1654', '1656', '1658', '1662', '1666', '1673', '1674', '1676', '1679', '1680', '1681', '1682', '1683', '1692', '1696', '1697', '1698', '1700', '1705', '1710', '1712', '1713', '1716', '1721', '1722', '1723', '1724', '1731', '1734', '1735', '1736', '1738', '1739', '1742', '1744', '1748', '1754', '1756', '1757', '1759', '1760', '1762', '1764', '1766', '1767', '1773', '1774', '1777', '1778', '1782', '1786', '1794', '1797', '1800', '1805', '1808', '1809', '1813', '1815', '1818', '1825', '1826', '1829', '1830', '1831', '1835', '1837', '1843', '1845', '1847', '1850', '1858', '1863', '1864', '1865', '1866', '1871', '1873', '1877', '1879', '1880', '1883', '1885', '1886', '1887', '1888', '1889', '1895', '1896', '1897', '1898', '1905', '1907', '1910', '1911', '1918', '1921', '1922', '1924', '1927', '1928', '1933', '1934', '1936', '1945', '1946', '1950', '1951', '1955', '1956', '1959', '1961', '1966', '1967', '1971', '1974', '1976', '1978', '1980', '1981', '1983', '1985', '1987', '1988', '1992', '1994', '1995', '1998', '1999', '2000']",False,4000,True,2,790a63b77a,0.0,1.0,1.0
./expes/v2_2021-03-27_issda-30_2000-prng-1-w4-p2,30_issda-2000,2000,first-2000,700,35,rng,num-start-800,800,25726,classic,4109.895626783371,False,,False,0,,,0,"['1', '2', '4', '6', '7', '11', '19', '21', '24', '27', '28', '30', '34', '38', '39', '41', '45', '47', '49', '53', '55', '57', '60', '61', '66', '68', '71', '74', '75', '76', '81', '82', '86', '90', '96', '100', '101', '107', '110', '111', '115', '117', '118', '121', '129', '130', '134', '136', '138', '141', '148', '161', '162', '166', '172', '175', '183', '187', '188', '189', '195', '199', '205', '209', '219', '221', '222', '227', '228', '231', '232', '236', '238', '243', '244', '250', '251', '253', '256', '259', '260', '265', '268', '269', '271', '272', '273', '274', '276', '280', '284', '285', '287', '289', '290', '291', '292', '293', '294', '299', '301', '304', '305', '306', '307', '309', '310', '315', '317', '322', '326', '327', '328', '331', '339', '340', '341', '346', '347', '352', '354', '361', '364', '366', '368', '369', '370', '371', '372', '373', '375', '379', '380', '382', '392', '397', '401', '403', '404', '407', '408', '415', '419', '420', '425', '427', '429', '434', '437', '441', '442', '444', '449', '452', '457', '464', '472', '481', '482', '483', '487', '488', '489', '499', '503', '504', '505', '511', '513', '514', '515', '517', '521', '524', '525', '533', '540', '541', '543', '548', '549', '555', '558', '561', '562', '565', '571', '573', '574', '576', '579', '580', '581', '586', '587', '592', '593', '594', '595', '597', '600', '601', '602', '604', '605', '606', '607', '608', '612', '616', '617', '618', '620', '622', '627', '628', '630', '634', '635', '637', '640', '643', '645', '647', '649', '650', '651', '654', '663', '667', '668', '678', '680', '683', '685', '689', '693', '694', '696', '697', '698', '700', '705', '706', '708', '713', '714', '715', '717', '718', '720', '721', '724', '726', '727', '728', '729', '731', '733', '734', '735', '740', '742', '743', '745', '747', '750', '753', '757', '761', '762', '764', '766', '767', '770', '771', '773', '775', '777', '778', '779', '780', '783', '784', '785', '787', '788', '790', '791', '797', '798', '799', '803', '804', '811', '817', '827', '828', '830', '831', '832', '836', '837', '839', '840', '848', '850', '851', '854', '858', '859', '862', '864', '872', '875', '876', '878', '880', '885', '887', '888', '890', '897', '904', '909', '912', '922', '928', '929', '934', '946', '947', '948', '949', '951', '953', '954', '958', '961', '963', '966', '968', '972', '973', '975', '977', '978', '980', '982', '983', '984', '985', '986', '987', '989', '991', '995', '997', '1000', '1003', '1004', '1007', '1008', '1009', '1011', '1017', '1020', '1023', '1025', '1030', '1036', '1038', '1050', '1051', '1056', '1058', '1059', '1060', '1062', '1070', '1075', '1085', '1086', '1087', '1090', '1091', '1093', '1102', '1103', '1105', '1109', '1111', '1114', '1117', '1118', '1121', '1123', '1125', '1127', '1130', '1133', '1134', '1137', '1138', '1146', '1148', '1155', '1156', '1159', '1165', '1170', '1174', '1175', '1176', '1179', '1185', '1190', '1193', '1200', '1201', '1202', '1204', '1208', '1209', '1210', '1214', '1217', '1219', '1221', '1230', '1231', '1236', '1237', '1246', '1247', '1251', '1253', '1257', '1259', '1260', '1264', '1265', '1266', '1269', '1271', '1272', '1274', '1275', '1276', '1278', '1279', '1280', '1282', '1284', '1285', '1290', '1292', '1293', '1295', '1305', '1308', '1316', '1320', '1321', '1323', '1326', '1327', '1328', '1329', '1330', '1331', '1332', '1334', '1336', '1342', '1344', '1352', '1353', '1355', '1356', '1357', '1360', '1363', '1364', '1368', '1369', '1374', '1376', '1380', '1389', '1395', '1397', '1398', '1404', '1405', '1408', '1410', '1411', '1412', '1415', '1417', '1423', '1424', '1427', '1429', '1437', '1439', '1443', '1444', '1445', '1446', '1450', '1451', '1460', '1461', '1467', '1471', '1472', '1474', '1475', '1476', '1477', '1478', '1480', '1481', '1485', '1495', '1496', '1498', '1499', '1501', '1509', '1512', '1516', '1517', '1518', '1520', '1521', '1523', '1526', '1527', '1533', '1536', '1538', '1548', '1553', '1555', '1556', '1558', '1561', '1569', '1577', '1585', '1587', '1589', '1590', '1595', '1596', '1599', '1600', '1601', '1602', '1610', '1614', '1622', '1627', '1629', '1631', '1632', '1633', '1634', '1636', '1642', '1643', '1648', '1654', '1655', '1663', '1665', '1666', '1673', '1675', '1677', '1679', '1681', '1682', '1684', '1689', '1693', '1694', '1697', '1700', '1703', '1706', '1711', '1712', '1713', '1714', '1718', '1722', '1723', '1724', '1725', '1727', '1729', '1731', '1738', '1745', '1746', '1749', '1751', '1753', '1759', '1761', '1769', '1775', '1776', '1777', '1778', '1779', '1782', '1785', '1787', '1795', '1796', '1800', '1804', '1819', '1821', '1822', '1823', '1826', '1827', '1829', '1830', '1831', '1833', '1837', '1841', '1846', '1848', '1850', '1865', '1866', '1867', '1868', '1872', '1874', '1877', '1878', '1881', '1888', '1889', '1892', '1893', '1904', '1906', '1915', '1916', '1917', '1918', '1920', '1921', '1923', '1924', '1928', '1930', '1931', '1932', '1935', '1936', '1937', '1945', '1946', '1948', '1950', '1951', '1953', '1955', '1957', '1959', '1960', '1961', '1963', '1966', '1967', '1968', '1969', '1970', '1973', '1976', '1977', '1980', '1983', '1984', '1992', '1993', '1998', '1999', '2000']",True,4000,True,2,a7fe33ba9c,0.0,0.0,0.0
./expes/v2_2021-03-27_issda-30_2000-prng-1-w4-p2,30_issda-2000,2000,first-2000,100,5,rng,num-start-2000,2000,25726,classic,880.9420671463013,True,,True,1.0,1.0,1.0,1,"['2', '10', '31', '35', '61', '62', '74', '86', '122', '130', '137', '144', '171', '175', '186', '193', '221', '222', '291', '323', '379', '382', '389', '390', '401', '430', '438', '471', '479', '496', '521', '570', '592', '596', '603', '622', '646', '669', '792', '812', '821', '834', '903', '915', '926', '927', '928', '937', '951', '954', '975', '1024', '1041', '1049', '1051', '1064', '1083', '1104', '1129', '1147', '1154', '1203', '1211', '1220', '1229', '1258', '1261', '1277', '1290', '1300', '1312', '1332', '1340', '1342', '1357', '1403', '1421', '1450', '1514', '1553', '1570', '1594', '1600', '1625', '1647', '1659', '1704', '1721', '1726', '1734', '1736', '1752', '1755', '1774', '1802', '1824', '1893', '1909', '1963', '1976']",False,4000,True,2,e33b9d7f59,0.0,1.0,1.0
./expes/v2_2021-03-27_issda-30_2000-prng-1-w4-p2,30_issda-2000,2000,first-2000,200,10,rng,num-start-2200,2200,25726,classic,1586.525238275528,True,,True,1.0,1.0,1.0,1,"['1', '26', '35', '38', '45', '59', '76', '94', '111', '157', '166', '176', '181', '183', '184', '191', '193', '197', '200', '240', '245', '253', '260', '283', '292', '299', '347', '353', '380', '385', '387', '394', '396', '397', '402', '404', '406', '408', '412', '430', '457', '502', '503', '513', '515', '522', '525', '536', '544', '545', '549', '559', '593', '597', '622', '624', '627', '640', '655', '675', '682', '688', '732', '739', '740', '741', '742', '765', '768', '773', '778', '779', '798', '815', '838', '840', '841', '848', '864', '867', '870', '874', '881', '904', '912', '914', '916', '925', '964', '965', '973', '981', '991', '994', '995', '997', '999', '1001', '1002', '1008', '1025', '1030', '1032', '1055', '1059', '1070', '1076', '1081', '1102', '1103', '1105', '1134', '1143', '1154', '1176', '1180', '1202', '1206', '1207', '1208', '1217', '1224', '1233', '1234', '1236', '1246', '1250', '1254', '1267', '1271', '1298', '1301', '1321', '1328', '1343', '1345', '1358', '1373', '1375', '1390', '1391', '1394', '1397', '1405', '1430', '1433', '1436', '1446', '1473', '1478', '1480', '1493', '1495', '1505', '1529', '1548', '1556', '1562', '1578', '1594', '1606', '1625', '1631', '1632', '1639', '1643', '1646', '1649', '1650', '1651', '1673', '1684', '1696', '1703', '1706', '1709', '1730', '1773', '1783', '1787', '1795', '1801', '1803', '1822', '1828', '1849', '1853', '1863', '1865', '1870', '1877', '1899', '1900', '1911', '1927', '1949', '1977', '1978', '1987', '2000']",False,4000,True,2,e7d5f9e3b8,0.0,1.0,1.0
./expes/v2_2021-03-27_issda-30_2000-prng-1-w4-p2,30_issda-2000,2000,first-2000,200,10,rng,num-start-3600,3600,25726,classic,2062.2112939357758,True,,True,1.0,1.0,1.0,1,"['9', '25', '47', '77', '81', '96', '99', '102', '119', '121', '122', '123', '125', '127', '129', '134', '141', '144', '149', '150', '159', '166', '168', '170', '177', '186', '192', '193', '200', '212', '240', '242', '254', '265', '273', '281', '296', '309', '310', '312', '338', '341', '345', '361', '369', '371', '374', '385', '422', '440', '447', '453', '458', '473', '476', '478', '493', '500', '508', '509', '539', '553', '570', '571', '578', '583', '589', '590', '594', '614', '615', '632', '635', '643', '644', '664', '697', '701', '704', '711', '718', '728', '735', '741', '749', '763', '780', '791', '801', '809', '813', '815', '823', '851', '857', '859', '864', '870', '876', '882', '889', '913', '920', '929', '935', '946', '954', '971', '994', '1002', '1012', '1014', '1017', '1018', '1040', '1049', '1076', '1089', '1098', '1108', '1122', '1126', '1127', '1129', '1141', '1143', '1148', '1156', '1159', '1170', '1174', '1177', '1182', '1184', '1188', '1192', '1194', '1200', '1207', '1218', '1248', '1252', '1268', '1285', '1292', '1309', '1326', '1334', '1349', '1361', '1369', '1370', '1394', '1396', '1397', '1399', '1424', '1428', '1432', '1437', '1447', '1459', '1468', '1494', '1498', '1513', '1551', '1566', '1574', '1592', '1598', '1617', '1627', '1633', '1672', '1676', '1678', '1682', '1684', '1694', '1703', '1721', '1759', '1770', '1785', '1793', '1810', '1811', '1817', '1864', '1878', '1892', '1912', '1927', '1935', '1941', '1942', '1962', '1971', '2000']",False,4000,True,2,b6993b1044,0.0,1.0,1.0
./expes/v2_2021-03-27_issda-30_2000-prng-1-w4-p2,30_issda-2000,2000,first-2000,700,35,rng,num-start-3000,3000,25726,classic,3417.8052937984467,True,,True,1.0,1.0,1.0,1,"['1', '3', '4', '8', '9', '11', '24', '25', '30', '32', '35', '38', '39', '40', '44', '47', '48', '53', '56', '57', '58', '60', '71', '76', '77', '81', '82', '86', '87', '89', '93', '96', '99', '102', '104', '108', '111', '112', '114', '117', '118', '119', '121', '122', '123', '125', '127', '128', '129', '130', '132', '134', '137', '138', '141', '144', '145', '149', '150', '159', '165', '166', '168', '170', '172', '173', '174', '176', '177', '178', '182', '184', '186', '187', '189', '192', '193', '200', '201', '208', '210', '211', '212', '213', '215', '218', '225', '226', '232', '237', '240', '242', '246', '247', '250', '251', '252', '254', '258', '261', '265', '266', '268', '269', '273', '281', '282', '286', '287', '290', '293', '295', '296', '299', '300', '301', '305', '306', '307', '309', '310', '311', '312', '317', '318', '320', '323', '326', '331', '333', '334', '335', '338', '341', '343', '345', '349', '353', '361', '365', '366', '369', '371', '372', '374', '375', '376', '380', '385', '389', '391', '392', '397', '399', '400', '401', '403', '407', '409', '410', '412', '414', '415', '419', '421', '422', '426', '428', '433', '436', '440', '441', '447', '450', '452', '453', '456', '457', '458', '459', '465', '469', '471', '473', '476', '477', '478', '489', '491', '493', '497', '500', '501', '504', '508', '509', '513', '516', '517', '519', '524', '530', '531', '532', '534', '535', '537', '539', '540', '542', '543', '544', '549', '551', '553', '554', '555', '557', '568', '570', '571', '572', '573', '578', '583', '589', '590', '594', '600', '601', '606', '611', '614', '615', '621', '624', '625', '631', '632', '634', '635', '639', '643', '644', '648', '653', '663', '664', '667', '668', '670', '674', '676', '679', '681', '687', '692', '693', '695', '697', '701', '702', '704', '705', '706', '711', '712', '716', '718', '725', '728', '729', '731', '735', '741', '745', '746', '747', '749', '750', '752', '757', '763', '771', '780', '781', '782', '788', '791', '796', '801', '804', '806', '807', '808', '809', '811', '813', '815', '816', '818', '819', '821', '823', '828', '829', '832', '851', '854', '856', '857', '859', '862', '863', '864', '865', '870', '872', '876', '878', '882', '883', '884', '886', '889', '902', '903', '906', '908', '913', '914', '916', '917', '920', '927', '929', '930', '935', '936', '939', '940', '941', '946', '949', '954', '955', '958', '963', '968', '970', '971', '972', '973', '980', '981', '982', '984', '987', '989', '991', '994', '998', '1000', '1002', '1010', '1012', '1013', '1014', '1017', '1018', '1025', '1027', '1028', '1030', '1034', '1036', '1037', '1038', '1040', '1041', '1046', '1049', '1050', '1054', '1055', '1056', '1058', '1059', '1060', '1061', '1062', '1072', '1073', '1076', '1079', '1080', '1082', '1084', '1087', '1088', '1089', '1090', '1091', '1093', '1095', '1098', '1099', '1108', '1110', '1113', '1115', '1119', '1121', '1122', '1123', '1124', '1126', '1127', '1129', '1133', '1135', '1138', '1140', '1141', '1143', '1146', '1148', '1151', '1156', '1159', '1160', '1161', '1169', '1170', '1174', '1177', '1182', '1184', '1188', '1192', '1194', '1195', '1200', '1202', '1207', '1210', '1218', '1221', '1222', '1227', '1231', '1234', '1240', '1242', '1246', '1247', '1248', '1249', '1250', '1252', '1253', '1255', '1256', '1257', '1258', '1265', '1268', '1274', '1278', '1279', '1281', '1285', '1288', '1290', '1292', '1300', '1303', '1304', '1309', '1317', '1318', '1326', '1331', '1332', '1334', '1338', '1342', '1344', '1345', '1347', '1349', '1353', '1357', '1361', '1363', '1368', '1369', '1370', '1372', '1374', '1375', '1377', '1385', '1394', '1396', '1397', '1398', '1399', '1409', '1410', '1414', '1415', '1418', '1419', '1424', '1426', '1428', '1432', '1435', '1437', '1441', '1447', '1448', '1454', '1458', '1459', '1467', '1468', '1479', '1481', '1485', '1486', '1488', '1493', '1494', '1498', '1502', '1513', '1516', '1517', '1518', '1523', '1530', '1535', '1536', '1537', '1538', '1548', '1551', '1553', '1554', '1556', '1557', '1565', '1566', '1574', '1581', '1582', '1590', '1591', '1592', '1596', '1598', '1603', '1606', '1607', '1615', '1617', '1619', '1627', '1633', '1635', '1637', '1638', '1641', '1642', '1646', '1651', '1652', '1654', '1656', '1662', '1670', '1672', '1674', '1676', '1678', '1679', '1682', '1684', '1692', '1693', '1694', '1698', '1703', '1705', '1709', '1710', '1715', '1721', '1722', '1723', '1732', '1739', '1740', '1747', '1748', '1754', '1759', '1760', '1767', '1769', '1770', '1783', '1784', '1785', '1786', '1788', '1790', '1791', '1792', '1793', '1795', '1796', '1799', '1801', '1802', '1807', '1808', '1809', '1810', '1811', '1813', '1817', '1821', '1829', '1831', '1834', '1838', '1839', '1843', '1844', '1852', '1854', '1856', '1861', '1863', '1864', '1867', '1869', '1873', '1875', '1878', '1880', '1882', '1883', '1890', '1892', '1898', '1901', '1910', '1912', '1913', '1915', '1920', '1922', '1925', '1927', '1929', '1930', '1932', '1935', '1938', '1940', '1941', '1942', '1944', '1947', '1948', '1950', '1951', '1952', '1956', '1957', '1959', '1962', '1968', '1970', '1971', '1978', '1982', '1985', '1988', '1989', '1990', '1991', '1992', '1994', '1996', '2000']",False,4000,True,2,b47bc3258f,0.0,1.0,1.0
./expes/v2_2021-03-27_issda-30_2000-prng-1-w4-p2,30_issda-2000,2000,first-2000,400,20,rng,num-start-3400,3400,25726,classic,2346.907148361206,True,,True,1.0,1.0,1.0,1,"['4', '9', '10', '11', '18', '33', '37', '40', '41', '44', '49', '50', '51', '52', '57', '64', '65', '66', '69', '73', '74', '75', '84', '89', '94', '101', '105', '116', '117', '121', '123', '124', '139', '151', '152', '155', '157', '165', '170', '174', '180', '188', '192', '193', '197', '205', '208', '209', '216', '218', '228', '232', '236', '238', '243', '250', '252', '262', '270', '280', '287', '288', '295', '310', '311', '315', '322', '325', '329', '331', '337', '341', '347', '350', '353', '356', '362', '364', '372', '373', '377', '392', '394', '407', '426', '427', '431', '432', '435', '436', '446', '449', '455', '462', '465', '468', '473', '475', '477', '484', '494', '502', '506', '508', '511', '512', '514', '516', '519', '521', '524', '526', '531', '537', '541', '545', '550', '560', '571', '572', '583', '586', '594', '622', '627', '632', '634', '635', '639', '648', '653', '665', '666', '672', '686', '691', '699', '700', '705', '707', '719', '725', '737', '738', '740', '742', '743', '746', '750', '751', '762', '763', '764', '765', '779', '788', '790', '801', '803', '805', '806', '810', '819', '823', '833', '838', '842', '845', '850', '857', '860', '867', '868', '872', '883', '889', '911', '912', '913', '918', '919', '925', '929', '930', '932', '936', '945', '949', '952', '953', '969', '983', '996', '997', '998', '1001', '1002', '1004', '1005', '1021', '1026', '1029', '1033', '1040', '1041', '1043', '1045', '1048', '1049', '1053', '1055', '1056', '1061', '1062', '1064', '1067', '1070', '1072', '1076', '1077', '1078', '1087', '1097', '1115', '1130', '1142', '1143', '1147', '1148', '1152', '1163', '1171', '1177', '1191', '1198', '1205', '1206', '1208', '1211', '1212', '1216', '1240', '1241', '1242', '1243', '1251', '1257', '1261', '1262', '1263', '1274', '1277', '1278', '1279', '1286', '1301', '1306', '1308', '1313', '1315', '1335', '1338', '1342', '1350', '1354', '1356', '1359', '1372', '1374', '1378', '1382', '1396', '1398', '1402', '1403', '1404', '1408', '1414', '1417', '1433', '1445', '1447', '1451', '1454', '1463', '1465', '1467', '1469', '1481', '1482', '1483', '1487', '1493', '1494', '1497', '1505', '1508', '1513', '1516', '1521', '1526', '1532', '1538', '1544', '1545', '1547', '1548', '1556', '1558', '1563', '1569', '1584', '1588', '1600', '1607', '1615', '1618', '1622', '1627', '1631', '1632', '1637', '1639', '1644', '1646', '1651', '1657', '1664', '1666', '1669', '1670', '1681', '1690', '1691', '1703', '1711', '1712', '1718', '1722', '1739', '1741', '1749', '1760', '1762', '1767', '1768', '1784', '1791', '1792', '1794', '1796', '1804', '1806', '1807', '1809', '1811', '1818', '1822', '1827', '1831', '1840', '1843', '1846', '1848', '1850', '1857', '1859', '1860', '1861', '1867', '1876', '1877', '1882', '1885', '1886', '1888', '1895', '1903', '1909', '1910', '1914', '1916', '1917', '1922', '1927', '1933', '1942', '1945', '1955', '1956', '1958', '1961', '1964', '1965', '1966', '1968', '1970', '1973', '1988', '1989']",False,4000,True,2,97cfe3db50,0.0,1.0,1.0
./expes/v2_2021-03-27_issda-30_2000-prng-1-w4-p2,30_issda-2000,2000,first-2000,200,10,rng,num-start-3200,3200,25726,classic,1729.3312313556671,True,,True,1.0,1.0,1.0,1,"['2', '8', '11', '14', '17', '36', '38', '49', '53', '71', '84', '85', '89', '106', '111', '113', '130', '141', '166', '172', '174', '178', '180', '182', '192', '209', '212', '226', '228', '229', '230', '249', '272', '273', '284', '285', '298', '306', '322', '332', '345', '347', '354', '382', '394', '405', '406', '408', '409', '416', '420', '430', '431', '438', '455', '460', '485', '488', '509', '547', '548', '550', '553', '576', '584', '597', '630', '666', '674', '677', '685', '693', '700', '709', '712', '749', '750', '765', '776', '777', '782', '786', '813', '816', '824', '825', '843', '861', '864', '866', '870', '878', '888', '910', '925', '926', '949', '950', '1008', '1018', '1019', '1026', '1030', '1035', '1037', '1060', '1070', '1101', '1106', '1136', '1137', '1148', '1158', '1160', '1174', '1177', '1179', '1186', '1188', '1197', '1209', '1210', '1223', '1239', '1242', '1245', '1248', '1252', '1256', '1263', '1290', '1309', '1381', '1386', '1400', '1409', '1410', '1434', '1436', '1441', '1445', '1452', '1453', '1474', '1485', '1487', '1492', '1508', '1510', '1527', '1528', '1529', '1566', '1567', '1583', '1586', '1587', '1593', '1599', '1606', '1618', '1625', '1638', '1654', '1658', '1669', '1732', '1733', '1743', '1745', '1746', '1770', '1775', '1777', '1780', '1786', '1801', '1806', '1816', '1818', '1822', '1828', '1834', '1835', '1840', '1856', '1857', '1867', '1880', '1883', '1887', '1893', '1918', '1925', '1938', '1940', '1948', '1949', '1963', '1975']",False,4000,True,2,ddb813fc99,0.0,1.0,1.0
./expes/v2_2021-03-27_issda-30_2000-prng-1-w4-p2,30_issda-2000,2000,first-2000,400,20,rng,num-start-600,600,25726,classic,4083.793199300766,False,,False,0,,,0,"['1', '2', '10', '20', '23', '24', '26', '30', '31', '32', '34', '35', '37', '41', '44', '46', '61', '62', '69', '72', '74', '80', '86', '87', '92', '96', '98', '108', '122', '123', '124', '130', '137', '138', '141', '142', '144', '148', '149', '150', '151', '152', '153', '154', '155', '160', '161', '165', '171', '172', '174', '175', '179', '180', '185', '186', '189', '193', '206', '207', '213', '221', '222', '224', '232', '237', '239', '242', '259', '261', '266', '269', '270', '276', '278', '279', '280', '284', '288', '291', '294', '300', '316', '323', '325', '348', '360', '361', '364', '375', '379', '382', '384', '386', '389', '390', '391', '401', '403', '407', '411', '415', '418', '428', '430', '432', '435', '436', '437', '438', '439', '450', '468', '471', '472', '479', '489', '495', '496', '498', '505', '511', '514', '521', '523', '524', '527', '529', '552', '553', '570', '574', '578', '592', '596', '601', '603', '607', '617', '622', '623', '636', '637', '638', '639', '646', '649', '654', '669', '670', '674', '677', '678', '682', '690', '700', '702', '719', '721', '733', '742', '754', '756', '762', '769', '777', '784', '786', '788', '791', '792', '796', '803', '808', '809', '812', '814', '821', '829', '834', '840', '843', '853', '855', '859', '860', '862', '864', '883', '903', '905', '906', '913', '915', '917', '923', '926', '927', '928', '929', '937', '938', '948', '951', '953', '954', '963', '970', '973', '975', '982', '985', '988', '989', '991', '996', '998', '1006', '1017', '1019', '1021', '1024', '1041', '1043', '1049', '1050', '1051', '1054', '1062', '1063', '1064', '1066', '1069', '1083', '1088', '1104', '1109', '1119', '1129', '1135', '1146', '1147', '1154', '1160', '1172', '1174', '1177', '1182', '1190', '1194', '1195', '1197', '1203', '1209', '1211', '1214', '1220', '1222', '1226', '1229', '1232', '1233', '1237', '1247', '1250', '1251', '1253', '1258', '1259', '1261', '1262', '1275', '1277', '1280', '1285', '1289', '1290', '1299', '1300', '1303', '1304', '1310', '1312', '1315', '1319', '1332', '1339', '1340', '1342', '1346', '1352', '1357', '1364', '1383', '1389', '1397', '1403', '1404', '1407', '1416', '1421', '1422', '1431', '1436', '1442', '1443', '1448', '1450', '1452', '1476', '1486', '1492', '1497', '1499', '1501', '1506', '1510', '1514', '1515', '1516', '1534', '1537', '1544', '1546', '1553', '1570', '1576', '1583', '1594', '1595', '1598', '1600', '1620', '1625', '1633', '1646', '1647', '1651', '1659', '1675', '1687', '1701', '1704', '1705', '1717', '1721', '1726', '1734', '1736', '1746', '1750', '1752', '1755', '1756', '1769', '1771', '1774', '1775', '1785', '1802', '1803', '1807', '1813', '1824', '1825', '1827', '1836', '1844', '1845', '1854', '1855', '1861', '1865', '1873', '1874', '1879', '1886', '1890', '1892', '1893', '1899', '1904', '1906', '1909', '1914', '1918', '1926', '1934', '1940', '1946', '1961', '1963', '1965', '1972', '1974', '1975', '1976', '1989', '1993', '1997']",True,4000,True,2,91ccb0f774,0.0,0.0,0.0
