expe,clients,clients_size,clients_subset,agg_size,agg_size_pc,method,days,days_size,days_total,noise_method,time,valid,valid_sum,success,score_avg,score_min,score_max,nsols,oracle,wall_hit,wall_time,pooled,pool_size,uuid,infeasible,optimal,valid_sums
./expes/v2_2021-03-27_issda-30_2000-prng-1-w4-p2,30_issda-2000,2000,first-2000,200,10,rng,num-start-2600,2600,25726,classic,1111.6626241207123,True,,True,1.0,1.0,1.0,1,"['15', '27', '32', '42', '59', '64', '65', '74', '87', '88', '91', '93', '130', '132', '135', '137', '158', '182', '200', '211', '214', '222', '244', '255', '268', '275', '279', '284', '309', '311', '320', '327', '335', '393', '405', '433', '445', '475', '476', '480', '484', '487', '488', '529', '532', '540', '547', '552', '556', '572', '573', '584', '598', '602', '617', '635', '643', '669', '678', '690', '696', '705', '719', '738', '749', '758', '772', '774', '791', '794', '799', '809', '814', '835', '836', '841', '851', '863', '875', '884', '894', '896', '911', '943', '961', '964', '969', '971', '976', '988', '991', '1014', '1036', '1039', '1066', '1068', '1072', '1094', '1097', '1108', '1110', '1115', '1126', '1129', '1146', '1166', '1172', '1175', '1176', '1182', '1190', '1197', '1199', '1201', '1211', '1214', '1219', '1220', '1229', '1237', '1240', '1241', '1251', '1259', '1271', '1282', '1284', '1297', '1300', '1301', '1309', '1319', '1343', '1375', '1376', '1377', '1395', '1397', '1413', '1425', '1431', '1462', '1463', '1466', '1469', '1472', '1473', '1476', '1492', '1519', '1553', '1560', '1575', '1592', '1596', '1598', '1615', '1640', '1641', '1662', '1687', '1704', '1707', '1714', '1716', '1749', '1752', '1754', '1763', '1764', '1765', '1773', '1776', '1778', '1782', '1788', '1800', '1805', '1837', '1838', '1852', '1853', '1862', '1876', '1885', '1887', '1889', '1897', '1903', '1917', '1918', '1927', '1944', '1961', '1964', '1975', '1976', '1978', '1990', '1993']",False,4000,True,2,2996466fd6,0.0,1.0,1.0
./expes/v2_2021-03-27_issda-30_2000-prng-1-w4-p2,30_issda-2000,2000,first-2000,300,15,rng,num-start-1400,1400,25726,classic,4168.218298196793,True,,False,1.0,1.0,1.0,1,"['5', '7', '9', '12', '30', '62', '66', '69', '74', '79', '80', '88', '89', '90', '94', '101', '108', '126', '141', '142', '146', '151', '159', '174', '178', '190', '205', '230', '241', '249', '259', '260', '263', '265', '267', '268', '269', '277', '281', '286', '291', '300', '301', '302', '304', '318', '321', '322', '328', '337', '342', '343', '362', '368', '374', '381', '384', '390', '396', '399', '415', '416', '418', '425', '434', '439', '441', '448', '457', '461', '462', '473', '480', '483', '487', '501', '515', '519', '520', '526', '530', '531', '537', '538', '539', '551', '565', '574', '589', '593', '596', '601', '604', '605', '606', '608', '618', '622', '628', '631', '637', '643', '650', '655', '661', '682', '686', '700', '703', '709', '712', '719', '729', '730', '736', '740', '746', '751', '755', '761', '768', '771', '796', '799', '811', '815', '836', '847', '869', '871', '872', '877', '879', '880', '881', '882', '884', '890', '891', '895', '901', '902', '905', '909', '912', '919', '921', '924', '941', '944', '950', '963', '972', '985', '997', '1006', '1017', '1020', '1027', '1059', '1066', '1070', '1071', '1079', '1082', '1089', '1092', '1096', '1098', '1113', '1117', '1126', '1127', '1136', '1138', '1140', '1147', '1156', '1158', '1168', '1183', '1190', '1195', '1199', '1205', '1211', '1213', '1218', '1219', '1224', '1229', '1236', '1241', '1247', '1252', '1265', '1289', '1292', '1298', '1308', '1309', '1313', '1318', '1322', '1334', '1336', '1339', '1342', '1346', '1365', '1372', '1374', '1387', '1401', '1402', '1404', '1416', '1424', '1430', '1432', '1437', '1438', '1442', '1445', '1463', '1468', '1473', '1481', '1491', '1493', '1502', '1504', '1508', '1513', '1515', '1526', '1533', '1547', '1553', '1557', '1583', '1585', '1613', '1626', '1627', '1635', '1636', '1643', '1645', '1646', '1651', '1653', '1659', '1679', '1687', '1688', '1689', '1691', '1693', '1709', '1710', '1716', '1717', '1733', '1739', '1740', '1741', '1745', '1749', '1765', '1769', '1777', '1779', '1781', '1785', '1795', '1797', '1815', '1816', '1817', '1820', '1822', '1823', '1829', '1840', '1845', '1847', '1857', '1863', '1865', '1887', '1911', '1922', '1945', '1949', '1954', '1982', '1987', '1989', '1990']",True,4000,True,2,25aa0aae66,0.0,0.0,1.0
./expes/v2_2021-03-27_issda-30_2000-prng-1-w4-p2,30_issda-2000,2000,first-2000,100,5,rng,num-start-4000,4000,25726,classic,1376.95556974411,True,,True,1.0,1.0,1.0,1,"['1', '45', '59', '76', '94', '166', '181', '184', '191', '193', '200', '240', '245', '299', '396', '397', '404', '406', '408', '412', '502', '513', '536', '544', '559', '597', '624', '655', '688', '732', '739', '741', '742', '765', '840', '848', '870', '881', '912', '964', '994', '997', '1002', '1025', '1032', '1055', '1076', '1103', '1105', '1134', '1154', '1176', '1180', '1202', '1206', '1207', '1233', '1250', '1298', '1301', '1321', '1343', '1358', '1390', '1397', '1405', '1430', '1433', '1436', '1493', '1495', '1505', '1548', '1556', '1562', '1578', '1625', '1632', '1639', '1643', '1646', '1649', '1650', '1684', '1696', '1706', '1730', '1787', '1803', '1828', '1849', '1863', '1865', '1870', '1877', '1911', '1949', '1978', '1987', '2000']",False,4000,True,2,bc32315d3a,0.0,1.0,1.0
./expes/v2_2021-03-27_issda-30_2000-prng-1-w4-p2,30_issda-2000,2000,first-2000,500,25,rng,num-start-4000,4000,25726,classic,2399.115985393524,True,,True,1.0,1.0,1.0,1,"['4', '7', '10', '12', '15', '20', '22', '27', '38', '41', '42', '48', '53', '55', '65', '71', '73', '76', '83', '84', '85', '88', '89', '92', '95', '106', '109', '110', '114', '121', '122', '124', '127', '128', '137', '138', '153', '154', '156', '158', '159', '160', '162', '164', '167', '170', '175', '178', '183', '185', '191', '192', '195', '199', '207', '212', '218', '227', '232', '233', '235', '238', '240', '243', '248', '251', '262', '273', '280', '285', '289', '291', '295', '298', '306', '307', '314', '318', '322', '326', '331', '332', '334', '338', '339', '343', '346', '348', '354', '358', '362', '364', '365', '368', '370', '377', '385', '392', '393', '397', '400', '401', '402', '405', '407', '411', '414', '416', '421', '425', '426', '427', '432', '433', '440', '441', '442', '448', '449', '455', '456', '469', '470', '475', '478', '479', '484', '487', '496', '497', '503', '507', '510', '511', '513', '516', '519', '521', '527', '528', '530', '532', '534', '536', '537', '550', '552', '557', '566', '567', '569', '574', '575', '585', '586', '591', '592', '593', '594', '595', '596', '598', '599', '600', '601', '607', '609', '615', '616', '620', '622', '625', '626', '635', '638', '639', '642', '645', '646', '657', '659', '662', '663', '666', '669', '670', '676', '678', '679', '690', '692', '694', '697', '703', '711', '718', '729', '731', '732', '738', '742', '743', '745', '748', '750', '762', '763', '781', '782', '794', '795', '796', '800', '803', '804', '809', '811', '812', '820', '823', '825', '826', '827', '839', '841', '843', '846', '848', '852', '855', '861', '863', '866', '868', '869', '877', '881', '883', '888', '889', '893', '899', '900', '901', '903', '904', '906', '909', '910', '925', '930', '932', '941', '948', '952', '957', '966', '968', '970', '979', '981', '992', '997', '1002', '1005', '1008', '1013', '1017', '1022', '1037', '1038', '1042', '1050', '1063', '1066', '1067', '1072', '1074', '1077', '1078', '1079', '1082', '1084', '1095', '1100', '1110', '1113', '1115', '1117', '1119', '1122', '1126', '1128', '1144', '1149', '1152', '1158', '1164', '1166', '1167', '1171', '1173', '1174', '1180', '1193', '1194', '1206', '1218', '1220', '1223', '1227', '1231', '1237', '1241', '1243', '1246', '1249', '1250', '1256', '1261', '1265', '1266', '1269', '1271', '1272', '1275', '1283', '1284', '1285', '1286', '1288', '1296', '1300', '1301', '1305', '1313', '1316', '1323', '1326', '1328', '1335', '1336', '1338', '1340', '1341', '1346', '1356', '1367', '1369', '1376', '1380', '1383', '1384', '1386', '1387', '1393', '1405', '1409', '1425', '1429', '1436', '1444', '1448', '1451', '1456', '1457', '1466', '1470', '1478', '1499', '1506', '1510', '1526', '1529', '1530', '1554', '1568', '1571', '1573', '1577', '1580', '1582', '1585', '1586', '1588', '1591', '1597', '1603', '1604', '1606', '1607', '1611', '1612', '1613', '1620', '1626', '1634', '1635', '1636', '1638', '1640', '1641', '1642', '1648', '1653', '1657', '1659', '1665', '1669', '1676', '1677', '1694', '1695', '1698', '1702', '1710', '1714', '1716', '1720', '1722', '1731', '1736', '1737', '1738', '1751', '1753', '1754', '1757', '1759', '1761', '1765', '1766', '1770', '1771', '1773', '1777', '1781', '1782', '1784', '1790', '1791', '1795', '1798', '1800', '1801', '1803', '1805', '1807', '1809', '1814', '1822', '1825', '1827', '1832', '1835', '1842', '1843', '1845', '1846', '1848', '1852', '1853', '1854', '1859', '1862', '1867', '1870', '1871', '1875', '1876', '1878', '1880', '1889', '1890', '1894', '1900', '1901', '1905', '1915', '1918', '1919', '1925', '1927', '1930', '1932', '1934', '1935', '1948', '1956', '1959', '1966', '1968', '1970', '1972', '1976', '1979', '1984', '1988', '1989', '1995']",False,4000,True,2,c0a451fa2a,0.0,1.0,1.0
./expes/v2_2021-03-27_issda-30_2000-prng-1-w4-p2,30_issda-2000,2000,first-2000,700,35,rng,num-start-800,800,25726,classic,4096.928946733475,False,,False,0,,,0,"['3', '5', '7', '8', '9', '11', '12', '20', '24', '27', '30', '32', '33', '40', '42', '45', '46', '54', '56', '60', '62', '63', '66', '69', '71', '74', '79', '80', '84', '88', '89', '90', '92', '94', '95', '97', '101', '105', '107', '108', '110', '111', '112', '114', '116', '117', '125', '126', '138', '139', '141', '142', '145', '146', '151', '159', '160', '164', '165', '166', '174', '178', '181', '183', '184', '187', '188', '190', '191', '193', '194', '199', '205', '206', '208', '211', '212', '214', '220', '225', '229', '230', '232', '237', '241', '245', '249', '253', '256', '257', '258', '259', '260', '263', '264', '265', '267', '268', '269', '273', '274', '277', '281', '286', '288', '291', '293', '294', '299', '300', '301', '302', '304', '306', '307', '309', '310', '315', '316', '318', '321', '322', '326', '328', '329', '330', '337', '342', '343', '346', '347', '357', '362', '365', '366', '367', '368', '374', '380', '381', '384', '386', '390', '391', '396', '398', '399', '400', '415', '416', '418', '422', '425', '426', '427', '434', '435', '438', '439', '441', '442', '448', '450', '452', '457', '461', '462', '463', '464', '465', '473', '474', '478', '480', '483', '487', '488', '489', '494', '497', '500', '501', '502', '507', '509', '513', '515', '519', '520', '522', '526', '527', '528', '530', '531', '535', '536', '537', '538', '539', '541', '549', '551', '556', '559', '565', '566', '574', '575', '577', '580', '581', '589', '593', '595', '596', '601', '604', '605', '606', '608', '610', '611', '614', '615', '617', '618', '622', '625', '626', '628', '630', '631', '632', '637', '642', '643', '648', '650', '655', '661', '665', '671', '673', '680', '682', '684', '686', '693', '697', '700', '703', '707', '709', '712', '713', '715', '719', '722', '729', '730', '731', '736', '740', '742', '745', '746', '751', '755', '756', '760', '761', '762', '764', '768', '769', '770', '771', '772', '778', '781', '792', '794', '796', '798', '799', '806', '807', '811', '813', '815', '816', '820', '822', '831', '836', '839', '841', '847', '848', '849', '853', '856', '861', '864', '869', '870', '871', '872', '874', '875', '876', '877', '878', '879', '880', '881', '882', '884', '886', '890', '891', '894', '895', '896', '901', '902', '903', '905', '909', '911', '912', '917', '919', '921', '922', '924', '927', '941', '944', '945', '947', '949', '950', '956', '963', '966', '972', '976', '979', '980', '981', '985', '987', '988', '992', '997', '998', '1004', '1006', '1008', '1010', '1017', '1018', '1020', '1022', '1023', '1026', '1027', '1033', '1045', '1048', '1050', '1052', '1059', '1063', '1065', '1066', '1067', '1068', '1070', '1071', '1074', '1075', '1078', '1079', '1080', '1082', '1087', '1088', '1089', '1090', '1091', '1092', '1093', '1094', '1096', '1098', '1099', '1100', '1113', '1117', '1118', '1120', '1121', '1126', '1127', '1130', '1135', '1136', '1137', '1138', '1140', '1143', '1144', '1147', '1150', '1154', '1156', '1158', '1159', '1168', '1170', '1171', '1172', '1174', '1175', '1179', '1183', '1184', '1185', '1186', '1188', '1190', '1195', '1199', '1205', '1207', '1210', '1211', '1213', '1217', '1218', '1219', '1222', '1224', '1227', '1228', '1229', '1236', '1241', '1246', '1247', '1250', '1252', '1257', '1265', '1269', '1271', '1272', '1275', '1280', '1285', '1287', '1289', '1291', '1292', '1295', '1298', '1308', '1309', '1313', '1315', '1318', '1322', '1330', '1332', '1334', '1336', '1338', '1339', '1342', '1344', '1346', '1351', '1365', '1366', '1367', '1372', '1374', '1377', '1381', '1387', '1395', '1396', '1401', '1402', '1404', '1416', '1424', '1427', '1430', '1432', '1435', '1436', '1437', '1438', '1442', '1443', '1445', '1447', '1452', '1454', '1460', '1461', '1463', '1465', '1466', '1467', '1468', '1472', '1473', '1477', '1480', '1481', '1485', '1488', '1489', '1491', '1493', '1500', '1502', '1504', '1506', '1508', '1513', '1515', '1517', '1520', '1523', '1526', '1527', '1530', '1533', '1536', '1537', '1538', '1539', '1540', '1542', '1547', '1553', '1557', '1561', '1564', '1569', '1570', '1576', '1577', '1583', '1585', '1588', '1589', '1592', '1595', '1596', '1602', '1604', '1607', '1608', '1611', '1613', '1618', '1626', '1627', '1633', '1635', '1636', '1638', '1641', '1643', '1645', '1646', '1649', '1651', '1653', '1656', '1657', '1659', '1664', '1668', '1669', '1674', '1675', '1677', '1679', '1680', '1682', '1683', '1687', '1688', '1689', '1691', '1693', '1696', '1703', '1707', '1709', '1710', '1713', '1716', '1717', '1719', '1720', '1721', '1723', '1733', '1739', '1740', '1741', '1745', '1746', '1748', '1749', '1753', '1757', '1760', '1765', '1766', '1769', '1775', '1777', '1778', '1779', '1781', '1785', '1795', '1797', '1810', '1813', '1815', '1816', '1817', '1820', '1822', '1823', '1825', '1827', '1829', '1832', '1833', '1834', '1839', '1840', '1845', '1847', '1848', '1851', '1855', '1857', '1858', '1863', '1865', '1866', '1868', '1869', '1870', '1873', '1881', '1885', '1886', '1887', '1897', '1901', '1909', '1911', '1912', '1916', '1920', '1922', '1931', '1932', '1945', '1946', '1949', '1951', '1954', '1958', '1960', '1963', '1965', '1970', '1977', '1982', '1983', '1987', '1989', '1990', '1991', '1996']",True,4000,True,2,2779b6e87a,0.0,0.0,0.0
./expes/v2_2021-03-27_issda-30_2000-prng-1-w4-p2,30_issda-2000,2000,first-2000,700,35,rng,num-start-4000,4000,25726,classic,3309.4335181713104,True,,True,1.0,1.0,1.0,1,"['1', '2', '4', '6', '7', '11', '19', '21', '24', '27', '28', '30', '34', '38', '39', '41', '45', '47', '49', '53', '55', '57', '60', '61', '66', '68', '71', '74', '75', '76', '81', '82', '86', '90', '96', '100', '101', '107', '110', '111', '115', '117', '118', '121', '129', '130', '134', '136', '138', '141', '148', '161', '162', '166', '172', '175', '183', '187', '188', '189', '195', '199', '205', '209', '219', '221', '222', '227', '228', '231', '232', '236', '238', '243', '244', '250', '251', '253', '256', '259', '260', '265', '268', '269', '271', '272', '273', '274', '276', '280', '284', '285', '287', '289', '290', '291', '292', '293', '294', '299', '301', '304', '305', '306', '307', '309', '310', '315', '317', '322', '326', '327', '328', '331', '339', '340', '341', '346', '347', '352', '354', '361', '364', '366', '368', '369', '370', '371', '372', '373', '375', '379', '380', '382', '392', '397', '401', '403', '404', '407', '408', '415', '419', '420', '425', '427', '429', '434', '437', '441', '442', '444', '449', '452', '457', '464', '472', '481', '482', '483', '487', '488', '489', '499', '503', '504', '505', '511', '513', '514', '515', '517', '521', '524', '525', '533', '540', '541', '543', '548', '549', '555', '558', '561', '562', '565', '571', '573', '574', '576', '579', '580', '581', '586', '587', '592', '593', '594', '595', '597', '600', '601', '602', '604', '605', '606', '607', '608', '612', '616', '617', '618', '620', '622', '627', '628', '630', '634', '635', '637', '640', '643', '645', '647', '649', '650', '651', '654', '663', '667', '668', '678', '680', '683', '685', '689', '693', '694', '696', '697', '698', '700', '705', '706', '708', '713', '714', '715', '717', '718', '720', '721', '724', '726', '727', '728', '729', '731', '733', '734', '735', '740', '742', '743', '745', '747', '750', '753', '757', '761', '762', '764', '766', '767', '770', '771', '773', '775', '777', '778', '779', '780', '783', '784', '785', '787', '788', '790', '791', '797', '798', '799', '803', '804', '811', '817', '827', '828', '830', '831', '832', '836', '837', '839', '840', '848', '850', '851', '854', '858', '859', '862', '864', '872', '875', '876', '878', '880', '885', '887', '888', '890', '897', '904', '909', '912', '922', '928', '929', '934', '946', '947', '948', '949', '951', '953', '954', '958', '961', '963', '966', '968', '972', '973', '975', '977', '978', '980', '982', '983', '984', '985', '986', '987', '989', '991', '995', '997', '1000', '1003', '1004', '1007', '1008', '1009', '1011', '1017', '1020', '1023', '1025', '1030', '1036', '1038', '1050', '1051', '1056', '1058', '1059', '1060', '1062', '1070', '1075', '1085', '1086', '1087', '1090', '1091', '1093', '1102', '1103', '1105', '1109', '1111', '1114', '1117', '1118', '1121', '1123', '1125', '1127', '1130', '1133', '1134', '1137', '1138', '1146', '1148', '1155', '1156', '1159', '1165', '1170', '1174', '1175', '1176', '1179', '1185', '1190', '1193', '1200', '1201', '1202', '1204', '1208', '1209', '1210', '1214', '1217', '1219', '1221', '1230', '1231', '1236', '1237', '1246', '1247', '1251', '1253', '1257', '1259', '1260', '1264', '1265', '1266', '1269', '1271', '1272', '1274', '1275', '1276', '1278', '1279', '1280', '1282', '1284', '1285', '1290', '1292', '1293', '1295', '1305', '1308', '1316', '1320', '1321', '1323', '1326', '1327', '1328', '1329', '1330', '1331', '1332', '1334', '1336', '1342', '1344', '1352', '1353', '1355', '1356', '1357', '1360', '1363', '1364', '1368', '1369', '1374', '1376', '1380', '1389', '1395', '1397', '1398', '1404', '1405', '1408', '1410', '1411', '1412', '1415', '1417', '1423', '1424', '1427', '1429', '1437', '1439', '1443', '1444', '1445', '1446', '1450', '1451', '1460', '1461', '1467', '1471', '1472', '1474', '1475', '1476', '1477', '1478', '1480', '1481', '1485', '1495', '1496', '1498', '1499', '1501', '1509', '1512', '1516', '1517', '1518', '1520', '1521', '1523', '1526', '1527', '1533', '1536', '1538', '1548', '1553', '1555', '1556', '1558', '1561', '1569', '1577', '1585', '1587', '1589', '1590', '1595', '1596', '1599', '1600', '1601', '1602', '1610', '1614', '1622', '1627', '1629', '1631', '1632', '1633', '1634', '1636', '1642', '1643', '1648', '1654', '1655', '1663', '1665', '1666', '1673', '1675', '1677', '1679', '1681', '1682', '1684', '1689', '1693', '1694', '1697', '1700', '1703', '1706', '1711', '1712', '1713', '1714', '1718', '1722', '1723', '1724', '1725', '1727', '1729', '1731', '1738', '1745', '1746', '1749', '1751', '1753', '1759', '1761', '1769', '1775', '1776', '1777', '1778', '1779', '1782', '1785', '1787', '1795', '1796', '1800', '1804', '1819', '1821', '1822', '1823', '1826', '1827', '1829', '1830', '1831', '1833', '1837', '1841', '1846', '1848', '1850', '1865', '1866', '1867', '1868', '1872', '1874', '1877', '1878', '1881', '1888', '1889', '1892', '1893', '1904', '1906', '1915', '1916', '1917', '1918', '1920', '1921', '1923', '1924', '1928', '1930', '1931', '1932', '1935', '1936', '1937', '1945', '1946', '1948', '1950', '1951', '1953', '1955', '1957', '1959', '1960', '1961', '1963', '1966', '1967', '1968', '1969', '1970', '1973', '1976', '1977', '1980', '1983', '1984', '1992', '1993', '1998', '1999', '2000']",False,4000,True,2,938b8f1c3a,0.0,1.0,1.0
./expes/v2_2021-03-27_issda-30_2000-prng-1-w4-p2,30_issda-2000,2000,first-2000,100,5,rng,num-start-1200,1200,25726,classic,993.0152554512024,True,,True,1.0,1.0,1.0,1,"['30', '62', '146', '174', '241', '259', '267', '268', '277', '286', '301', '302', '362', '368', '381', '384', '415', '439', '462', '473', '480', '519', '526', '531', '537', '538', '539', '565', '574', '596', '601', '604', '643', '709', '729', '730', '746', '761', '811', '880', '881', '884', '895', '902', '909', '919', '924', '941', '997', '1006', '1071', '1089', '1098', '1126', '1136', '1156', '1183', '1218', '1241', '1247', '1252', '1298', '1308', '1313', '1336', '1342', '1365', '1374', '1387', '1401', '1402', '1404', '1416', '1493', '1504', '1526', '1533', '1547', '1626', '1627', '1635', '1643', '1651', '1659', '1679', '1693', '1709', '1716', '1733', '1740', '1741', '1781', '1785', '1797', '1820', '1822', '1823', '1840', '1863', '1945']",False,4000,True,2,3d46c50a33,0.0,1.0,1.0
./expes/v2_2021-03-27_issda-30_2000-prng-1-w4-p2,30_issda-2000,2000,first-2000,200,10,rng,num-start-3600,3600,25726,classic,1385.646991968155,True,,True,1.0,1.0,1.0,1,"['7', '25', '28', '35', '41', '53', '63', '69', '70', '77', '90', '119', '129', '130', '132', '144', '147', '165', '175', '177', '184', '195', '199', '200', '219', '221', '233', '239', '248', '259', '277', '281', '285', '288', '292', '304', '305', '308', '315', '325', '330', '341', '349', '359', '389', '394', '396', '398', '405', '414', '426', '429', '451', '465', '475', '480', '481', '500', '507', '522', '530', '547', '583', '586', '592', '606', '612', '614', '615', '633', '643', '667', '694', '698', '701', '703', '705', '720', '729', '731', '732', '738', '750', '759', '769', '772', '773', '777', '780', '792', '800', '812', '821', '825', '834', '835', '840', '854', '856', '868', '873', '893', '912', '914', '929', '935', '941', '972', '994', '999', '1000', '1001', '1014', '1020', '1032', '1035', '1038', '1040', '1045', '1059', '1066', '1067', '1080', '1083', '1090', '1106', '1117', '1142', '1156', '1166', '1174', '1175', '1186', '1191', '1197', '1206', '1232', '1238', '1243', '1271', '1278', '1315', '1319', '1323', '1331', '1346', '1347', '1349', '1354', '1358', '1359', '1414', '1416', '1436', '1437', '1438', '1444', '1445', '1451', '1469', '1487', '1493', '1524', '1555', '1566', '1570', '1632', '1655', '1656', '1662', '1668', '1699', '1701', '1709', '1713', '1728', '1746', '1752', '1755', '1762', '1799', '1805', '1826', '1838', '1847', '1848', '1850', '1851', '1854', '1860', '1867', '1870', '1910', '1918', '1938', '1946', '1971', '1977', '1993', '1997']",False,4000,True,2,dff43c3bbc,0.0,1.0,1.0
./expes/v2_2021-03-27_issda-30_2000-prng-1-w4-p2,30_issda-2000,2000,first-2000,1000,50,rng,num-start-2400,2400,25726,classic,1893.907730102539,True,,True,1.0,1.0,1.0,1,"['4', '5', '6', '8', '10', '11', '15', '16', '24', '27', '32', '37', '39', '40', '41', '42', '44', '46', '48', '49', '53', '55', '56', '57', '58', '59', '61', '62', '63', '64', '65', '67', '68', '70', '71', '72', '73', '74', '75', '76', '77', '81', '87', '88', '89', '91', '93', '94', '95', '99', '100', '102', '103', '104', '105', '107', '109', '110', '111', '113', '116', '117', '122', '123', '124', '125', '126', '130', '132', '135', '137', '140', '141', '142', '147', '148', '149', '157', '158', '159', '160', '164', '165', '166', '171', '176', '177', '180', '182', '184', '186', '187', '189', '190', '192', '194', '197', '199', '200', '204', '205', '209', '211', '212', '214', '215', '216', '219', '220', '221', '222', '223', '224', '226', '229', '230', '231', '233', '235', '236', '238', '242', '244', '245', '246', '248', '249', '251', '253', '254', '255', '256', '257', '260', '262', '264', '266', '267', '268', '270', '273', '275', '276', '278', '279', '280', '282', '284', '286', '290', '294', '295', '300', '301', '306', '307', '309', '311', '313', '316', '320', '322', '326', '327', '329', '330', '333', '335', '338', '345', '347', '348', '349', '350', '351', '352', '353', '355', '358', '362', '364', '366', '367', '369', '370', '372', '373', '376', '377', '378', '379', '380', '382', '383', '384', '388', '389', '391', '392', '393', '397', '400', '405', '407', '408', '409', '410', '411', '412', '414', '421', '422', '427', '428', '429', '431', '433', '434', '445', '446', '447', '448', '449', '451', '453', '455', '456', '459', '460', '461', '466', '470', '471', '475', '476', '479', '480', '481', '482', '484', '486', '487', '488', '489', '490', '491', '493', '495', '496', '501', '502', '507', '509', '512', '513', '514', '515', '518', '521', '523', '526', '529', '530', '532', '537', '540', '541', '542', '543', '544', '545', '547', '548', '550', '551', '552', '554', '555', '556', '561', '563', '564', '571', '572', '573', '581', '583', '584', '588', '589', '592', '595', '596', '598', '601', '602', '603', '606', '612', '614', '615', '616', '617', '621', '623', '624', '625', '630', '635', '638', '640', '641', '642', '643', '645', '646', '647', '648', '650', '651', '653', '656', '660', '662', '665', '667', '669', '672', '673', '674', '678', '679', '681', '682', '684', '685', '686', '690', '691', '694', '695', '696', '697', '699', '700', '704', '705', '707', '708', '710', '718', '719', '720', '721', '722', '723', '726', '731', '736', '738', '739', '741', '744', '746', '749', '752', '753', '755', '757', '758', '760', '763', '765', '767', '769', '770', '771', '772', '773', '774', '778', '779', '783', '784', '785', '786', '791', '793', '794', '797', '798', '799', '801', '802', '803', '807', '808', '809', '813', '814', '816', '818', '820', '822', '823', '825', '826', '827', '835', '836', '837', '839', '841', '846', '847', '848', '850', '851', '854', '857', '860', '861', '862', '863', '865', '867', '871', '873', '875', '878', '881', '884', '886', '890', '892', '894', '896', '898', '907', '908', '910', '911', '912', '917', '918', '922', '923', '924', '927', '931', '933', '935', '936', '938', '943', '944', '951', '952', '954', '955', '956', '957', '958', '959', '961', '964', '969', '970', '971', '972', '976', '977', '978', '981', '982', '983', '985', '986', '987', '988', '989', '991', '992', '994', '996', '998', '999', '1001', '1002', '1003', '1004', '1005', '1008', '1011', '1012', '1014', '1017', '1019', '1020', '1022', '1025', '1029', '1031', '1032', '1034', '1036', '1037', '1039', '1040', '1042', '1044', '1045', '1048', '1050', '1055', '1056', '1060', '1062', '1063', '1065', '1066', '1068', '1072', '1073', '1076', '1077', '1080', '1081', '1084', '1085', '1086', '1090', '1094', '1095', '1097', '1098', '1099', '1100', '1101', '1102', '1104', '1108', '1109', '1110', '1113', '1114', '1115', '1116', '1121', '1124', '1126', '1127', '1129', '1132', '1134', '1135', '1136', '1137', '1138', '1140', '1141', '1145', '1146', '1147', '1150', '1152', '1155', '1156', '1160', '1161', '1162', '1164', '1165', '1166', '1168', '1170', '1172', '1175', '1176', '1178', '1180', '1182', '1186', '1188', '1189', '1190', '1195', '1197', '1198', '1199', '1200', '1201', '1202', '1204', '1206', '1207', '1208', '1209', '1211', '1213', '1214', '1218', '1219', '1220', '1222', '1224', '1227', '1228', '1229', '1231', '1232', '1237', '1238', '1240', '1241', '1243', '1245', '1247', '1251', '1254', '1259', '1262', '1265', '1266', '1267', '1269', '1271', '1274', '1275', '1276', '1277', '1281', '1282', '1284', '1285', '1286', '1287', '1288', '1289', '1293', '1294', '1295', '1297', '1298', '1299', '1300', '1301', '1304', '1309', '1315', '1316', '1317', '1319', '1320', '1321', '1323', '1325', '1327', '1328', '1330', '1331', '1332', '1337', '1339', '1340', '1341', '1343', '1347', '1349', '1351', '1353', '1356', '1357', '1358', '1363', '1366', '1368', '1373', '1375', '1376', '1377', '1378', '1380', '1381', '1383', '1384', '1385', '1388', '1389', '1390', '1392', '1393', '1395', '1396', '1397', '1398', '1401', '1405', '1407', '1410', '1413', '1415', '1416', '1417', '1421', '1422', '1423', '1424', '1425', '1427', '1428', '1429', '1430', '1431', '1432', '1433', '1434', '1436', '1437', '1440', '1441', '1444', '1445', '1446', '1448', '1456', '1460', '1462', '1463', '1465', '1466', '1467', '1468', '1469', '1470', '1471', '1472', '1473', '1474', '1476', '1477', '1481', '1489', '1490', '1491', '1492', '1493', '1496', '1499', '1501', '1503', '1504', '1506', '1512', '1515', '1516', '1519', '1520', '1521', '1523', '1527', '1531', '1532', '1533', '1534', '1540', '1541', '1542', '1543', '1544', '1545', '1546', '1549', '1550', '1551', '1552', '1553', '1554', '1557', '1560', '1572', '1575', '1578', '1581', '1582', '1586', '1588', '1589', '1591', '1592', '1595', '1596', '1597', '1598', '1601', '1602', '1603', '1604', '1612', '1613', '1614', '1615', '1617', '1620', '1622', '1623', '1626', '1629', '1635', '1636', '1637', '1640', '1641', '1642', '1645', '1646', '1647', '1651', '1652', '1653', '1654', '1658', '1659', '1660', '1662', '1663', '1665', '1666', '1669', '1671', '1673', '1674', '1679', '1682', '1683', '1684', '1686', '1687', '1696', '1704', '1706', '1707', '1708', '1710', '1712', '1713', '1714', '1716', '1718', '1719', '1724', '1726', '1728', '1729', '1732', '1735', '1739', '1741', '1743', '1744', '1745', '1746', '1749', '1750', '1752', '1753', '1754', '1755', '1756', '1758', '1759', '1761', '1762', '1763', '1764', '1765', '1767', '1769', '1770', '1771', '1772', '1773', '1776', '1778', '1779', '1780', '1781', '1782', '1783', '1787', '1788', '1793', '1800', '1802', '1803', '1804', '1805', '1807', '1809', '1810', '1813', '1816', '1817', '1818', '1822', '1823', '1824', '1825', '1826', '1827', '1835', '1837', '1838', '1839', '1842', '1843', '1844', '1847', '1851', '1852', '1853', '1856', '1862', '1864', '1866', '1870', '1872', '1875', '1876', '1878', '1879', '1885', '1886', '1887', '1888', '1889', '1892', '1893', '1897', '1899', '1900', '1902', '1903', '1904', '1905', '1909', '1911', '1913', '1914', '1915', '1916', '1917', '1918', '1921', '1923', '1924', '1926', '1927', '1928', '1930', '1931', '1932', '1934', '1935', '1936', '1939', '1941', '1944', '1945', '1946', '1947', '1948', '1951', '1953', '1956', '1957', '1958', '1961', '1962', '1964', '1965', '1967', '1968', '1969', '1970', '1973', '1975', '1976', '1978', '1980', '1981', '1985', '1986', '1987', '1989', '1990', '1991', '1993', '1995', '1997']",False,4000,True,2,fbbda0ea69,0.0,1.0,1.0
./expes/v2_2021-03-27_issda-30_2000-prng-1-w4-p2,30_issda-2000,2000,first-2000,500,25,rng,num-start-200,200,25726,classic,4023.9693460464478,False,,False,0,,,0,"['7', '10', '14', '25', '28', '35', '41', '46', '47', '53', '63', '68', '69', '70', '76', '77', '80', '90', '93', '101', '105', '118', '119', '125', '129', '130', '132', '134', '136', '141', '144', '147', '154', '164', '165', '168', '169', '170', '171', '172', '173', '175', '177', '179', '184', '186', '190', '192', '195', '196', '199', '200', '205', '217', '219', '221', '222', '223', '224', '228', '229', '233', '234', '239', '240', '248', '250', '259', '272', '277', '281', '282', '285', '288', '292', '304', '305', '308', '315', '317', '322', '325', '328', '330', '335', '341', '347', '349', '350', '353', '357', '359', '362', '364', '365', '384', '389', '392', '394', '396', '398', '401', '402', '405', '408', '411', '414', '421', '426', '429', '431', '433', '447', '451', '456', '459', '462', '465', '470', '473', '475', '480', '481', '497', '500', '501', '504', '507', '508', '512', '522', '523', '530', '542', '545', '547', '551', '555', '562', '568', '579', '583', '586', '589', '592', '594', '595', '598', '601', '605', '606', '608', '612', '614', '615', '619', '633', '639', '643', '654', '656', '658', '664', '667', '670', '691', '692', '694', '698', '701', '703', '705', '713', '720', '729', '731', '732', '733', '738', '739', '741', '742', '746', '750', '751', '754', '757', '758', '759', '762', '769', '772', '773', '776', '777', '780', '781', '786', '787', '792', '795', '798', '800', '807', '812', '814', '821', '825', '826', '834', '835', '836', '840', '844', '850', '854', '856', '860', '868', '873', '876', '883', '884', '886', '890', '893', '895', '901', '902', '905', '912', '914', '919', '928', '929', '933', '935', '938', '941', '942', '948', '966', '970', '972', '975', '981', '994', '999', '1000', '1001', '1003', '1004', '1014', '1018', '1019', '1020', '1021', '1022', '1025', '1028', '1030', '1032', '1033', '1034', '1035', '1038', '1039', '1040', '1045', '1054', '1058', '1059', '1065', '1066', '1067', '1073', '1076', '1077', '1080', '1082', '1083', '1084', '1090', '1095', '1106', '1117', '1121', '1139', '1142', '1146', '1153', '1155', '1156', '1160', '1161', '1166', '1174', '1175', '1185', '1186', '1188', '1190', '1191', '1197', '1199', '1200', '1206', '1222', '1229', '1230', '1231', '1232', '1238', '1239', '1240', '1243', '1244', '1249', '1250', '1253', '1256', '1257', '1265', '1271', '1278', '1280', '1281', '1295', '1296', '1310', '1315', '1319', '1323', '1326', '1327', '1331', '1335', '1337', '1339', '1341', '1342', '1346', '1347', '1349', '1354', '1358', '1359', '1368', '1371', '1379', '1385', '1393', '1402', '1403', '1407', '1414', '1415', '1416', '1418', '1424', '1436', '1437', '1438', '1444', '1445', '1451', '1455', '1466', '1469', '1472', '1474', '1477', '1478', '1485', '1486', '1487', '1491', '1492', '1493', '1502', '1505', '1508', '1510', '1518', '1523', '1524', '1525', '1531', '1534', '1535', '1536', '1548', '1555', '1556', '1561', '1566', '1570', '1597', '1598', '1600', '1602', '1605', '1611', '1619', '1620', '1625', '1632', '1648', '1653', '1655', '1656', '1661', '1662', '1666', '1668', '1669', '1673', '1678', '1682', '1685', '1690', '1691', '1697', '1699', '1700', '1701', '1703', '1707', '1709', '1712', '1713', '1717', '1726', '1728', '1729', '1733', '1735', '1742', '1746', '1752', '1755', '1760', '1762', '1772', '1775', '1779', '1780', '1793', '1799', '1805', '1807', '1809', '1818', '1820', '1826', '1830', '1834', '1837', '1838', '1844', '1847', '1848', '1850', '1851', '1854', '1855', '1857', '1858', '1860', '1862', '1864', '1867', '1870', '1877', '1882', '1883', '1884', '1886', '1890', '1895', '1896', '1900', '1902', '1908', '1910', '1918', '1929', '1937', '1938', '1946', '1961', '1964', '1971', '1977', '1978', '1981', '1983', '1987', '1993', '1997']",True,4000,True,2,0d0f2d6615,0.0,0.0,0.0
./expes/v2_2021-03-27_issda-30_2000-prng-1-w4-p2,30_issda-2000,2000,first-2000,200,10,rng,num-start-1800,1800,25726,classic,2297.8023130893707,True,,True,1.0,1.0,1.0,1,"['5', '7', '30', '62', '80', '88', '89', '142', '146', '151', '174', '190', '230', '241', '249', '259', '260', '267', '268', '269', '277', '281', '286', '291', '301', '302', '328', '337', '343', '362', '368', '374', '381', '384', '396', '399', '415', '416', '434', '439', '461', '462', '473', '480', '483', '487', '515', '519', '520', '526', '531', '537', '538', '539', '551', '565', '574', '596', '601', '604', '605', '618', '637', '643', '700', '703', '709', '719', '729', '730', '736', '746', '751', '761', '768', '799', '811', '836', '847', '869', '879', '880', '881', '882', '884', '895', '901', '902', '909', '912', '919', '924', '941', '950', '997', '1006', '1017', '1020', '1066', '1071', '1079', '1089', '1098', '1113', '1126', '1127', '1136', '1138', '1140', '1156', '1158', '1168', '1183', '1190', '1195', '1211', '1218', '1219', '1236', '1241', '1247', '1252', '1265', '1289', '1292', '1298', '1308', '1309', '1313', '1318', '1322', '1334', '1336', '1342', '1346', '1365', '1374', '1387', '1401', '1402', '1404', '1416', '1424', '1430', '1437', '1438', '1442', '1445', '1468', '1473', '1481', '1491', '1493', '1502', '1504', '1508', '1526', '1533', '1547', '1557', '1613', '1626', '1627', '1635', '1643', '1645', '1651', '1653', '1659', '1679', '1691', '1693', '1709', '1716', '1717', '1733', '1740', '1741', '1749', '1765', '1777', '1779', '1781', '1785', '1797', '1815', '1816', '1820', '1822', '1823', '1840', '1845', '1847', '1857', '1863', '1911', '1945', '1954', '1989', '1990']",False,4000,True,2,297888ee79,0.0,1.0,1.0
./expes/v2_2021-03-27_issda-30_2000-prng-1-w4-p2,30_issda-2000,2000,first-2000,800,40,rng,num-start-3800,3800,25726,classic,3255.0959103107452,True,,True,1.0,1.0,1.0,1,"['4', '8', '10', '11', '15', '16', '24', '27', '32', '37', '41', '42', '44', '46', '48', '49', '53', '56', '57', '58', '59', '61', '62', '64', '65', '67', '68', '70', '72', '73', '74', '75', '76', '87', '88', '89', '91', '93', '94', '95', '102', '103', '105', '109', '110', '113', '122', '124', '125', '126', '130', '132', '135', '137', '140', '141', '142', '147', '149', '157', '158', '159', '160', '164', '171', '176', '177', '182', '187', '189', '190', '197', '199', '200', '204', '205', '209', '211', '212', '214', '215', '219', '220', '222', '223', '230', '231', '233', '236', '242', '244', '245', '246', '248', '249', '251', '253', '254', '255', '256', '257', '260', '262', '264', '266', '267', '268', '270', '273', '275', '279', '280', '282', '284', '290', '294', '295', '300', '301', '306', '307', '309', '311', '320', '322', '327', '329', '333', '335', '347', '348', '349', '351', '352', '353', '362', '364', '366', '367', '369', '370', '372', '373', '376', '379', '380', '382', '383', '384', '388', '389', '391', '392', '393', '397', '405', '407', '408', '409', '411', '414', '422', '431', '433', '445', '446', '447', '448', '453', '455', '456', '460', '461', '466', '471', '475', '476', '480', '481', '482', '484', '487', '488', '489', '490', '491', '496', '501', '502', '507', '509', '512', '513', '514', '515', '518', '521', '523', '529', '530', '532', '537', '540', '541', '542', '543', '544', '545', '547', '548', '550', '551', '552', '554', '555', '556', '561', '563', '571', '572', '573', '583', '584', '588', '592', '595', '598', '601', '602', '603', '606', '612', '614', '615', '616', '617', '621', '623', '630', '635', '640', '641', '642', '643', '645', '646', '647', '648', '653', '656', '660', '662', '665', '667', '669', '672', '674', '678', '679', '681', '682', '684', '686', '690', '694', '695', '696', '697', '699', '700', '705', '708', '710', '718', '719', '720', '721', '722', '723', '726', '731', '736', '738', '739', '746', '749', '753', '755', '757', '758', '760', '763', '765', '767', '769', '770', '771', '772', '773', '774', '778', '779', '784', '785', '786', '791', '794', '797', '798', '799', '801', '802', '803', '807', '809', '813', '814', '816', '820', '822', '827', '835', '836', '839', '841', '846', '847', '848', '851', '854', '857', '860', '861', '862', '863', '867', '871', '873', '875', '878', '881', '884', '886', '890', '892', '894', '896', '898', '908', '911', '912', '918', '923', '924', '927', '931', '935', '936', '938', '943', '944', '951', '952', '955', '958', '959', '961', '964', '969', '970', '971', '976', '978', '981', '982', '983', '986', '987', '988', '989', '991', '996', '999', '1003', '1004', '1012', '1014', '1017', '1020', '1025', '1029', '1031', '1034', '1036', '1039', '1042', '1045', '1048', '1050', '1055', '1056', '1060', '1062', '1063', '1065', '1066', '1068', '1072', '1076', '1077', '1080', '1081', '1084', '1085', '1086', '1090', '1094', '1095', '1097', '1098', '1099', '1100', '1102', '1108', '1109', '1110', '1113', '1114', '1115', '1116', '1124', '1126', '1127', '1129', '1132', '1134', '1135', '1136', '1137', '1138', '1140', '1141', '1145', '1146', '1147', '1155', '1156', '1160', '1161', '1162', '1164', '1165', '1166', '1168', '1170', '1172', '1175', '1176', '1178', '1180', '1182', '1186', '1188', '1189', '1190', '1195', '1197', '1198', '1199', '1200', '1201', '1202', '1204', '1206', '1207', '1208', '1209', '1211', '1213', '1214', '1219', '1220', '1224', '1227', '1228', '1229', '1231', '1232', '1237', '1238', '1240', '1241', '1245', '1247', '1251', '1254', '1259', '1262', '1266', '1269', '1271', '1274', '1276', '1282', '1284', '1285', '1286', '1287', '1288', '1293', '1295', '1297', '1298', '1299', '1300', '1301', '1304', '1309', '1315', '1317', '1319', '1320', '1321', '1323', '1325', '1327', '1328', '1331', '1332', '1337', '1339', '1340', '1343', '1351', '1357', '1358', '1363', '1366', '1368', '1373', '1375', '1376', '1377', '1378', '1380', '1381', '1383', '1384', '1385', '1389', '1390', '1392', '1395', '1396', '1397', '1401', '1405', '1413', '1415', '1416', '1421', '1422', '1424', '1425', '1427', '1429', '1430', '1431', '1434', '1436', '1437', '1440', '1444', '1445', '1448', '1460', '1462', '1463', '1465', '1466', '1467', '1468', '1469', '1470', '1471', '1472', '1473', '1476', '1477', '1481', '1490', '1491', '1492', '1493', '1496', '1499', '1503', '1504', '1506', '1512', '1515', '1519', '1520', '1521', '1523', '1527', '1531', '1532', '1533', '1534', '1541', '1543', '1544', '1545', '1546', '1549', '1550', '1551', '1553', '1557', '1560', '1572', '1575', '1581', '1582', '1586', '1588', '1589', '1591', '1592', '1596', '1597', '1598', '1601', '1602', '1603', '1604', '1612', '1613', '1615', '1620', '1622', '1623', '1626', '1629', '1635', '1636', '1637', '1640', '1641', '1645', '1647', '1651', '1652', '1653', '1654', '1658', '1659', '1660', '1662', '1663', '1666', '1669', '1671', '1673', '1674', '1679', '1683', '1687', '1696', '1704', '1706', '1707', '1708', '1710', '1713', '1714', '1716', '1718', '1724', '1726', '1728', '1729', '1735', '1741', '1744', '1746', '1749', '1750', '1752', '1753', '1754', '1755', '1756', '1758', '1759', '1761', '1763', '1764', '1765', '1767', '1769', '1770', '1772', '1773', '1776', '1778', '1779', '1781', '1782', '1783', '1787', '1788', '1793', '1800', '1802', '1803', '1804', '1805', '1807', '1810', '1813', '1816', '1817', '1818', '1822', '1823', '1824', '1825', '1826', '1837', '1838', '1839', '1843', '1847', '1851', '1852', '1853', '1856', '1862', '1864', '1866', '1870', '1872', '1876', '1878', '1879', '1885', '1886', '1887', '1888', '1889', '1893', '1897', '1900', '1903', '1904', '1909', '1913', '1914', '1915', '1917', '1918', '1923', '1924', '1927', '1928', '1931', '1932', '1934', '1935', '1936', '1941', '1944', '1945', '1946', '1947', '1948', '1951', '1953', '1956', '1957', '1961', '1962', '1964', '1967', '1968', '1969', '1973', '1975', '1976', '1978', '1980', '1981', '1985', '1989', '1990', '1991', '1993', '1997']",False,4000,True,2,fa945bf02b,0.0,1.0,1.0
./expes/v2_2021-03-27_issda-30_2000-prng-1-w4-p2,30_issda-2000,2000,first-2000,900,45,rng,num-start-800,800,25726,classic,4101.773397445679,False,,False,0,,,0,"['1', '3', '7', '10', '12', '14', '22', '23', '25', '27', '28', '29', '30', '32', '34', '35', '41', '44', '45', '46', '47', '53', '57', '58', '61', '63', '66', '67', '68', '69', '70', '71', '72', '75', '76', '77', '80', '81', '82', '90', '91', '93', '101', '103', '105', '112', '114', '115', '118', '119', '122', '123', '125', '129', '130', '132', '134', '136', '140', '141', '144', '145', '147', '148', '152', '153', '154', '164', '165', '167', '168', '169', '170', '171', '172', '173', '175', '177', '178', '179', '182', '183', '184', '186', '190', '192', '194', '195', '196', '197', '199', '200', '205', '206', '208', '210', '212', '216', '217', '218', '219', '220', '221', '222', '223', '224', '227', '228', '229', '230', '233', '234', '237', '239', '240', '241', '242', '243', '245', '248', '250', '254', '255', '259', '261', '262', '263', '267', '272', '277', '279', '280', '281', '282', '285', '286', '288', '289', '292', '294', '299', '300', '302', '303', '304', '305', '307', '308', '315', '316', '317', '320', '322', '325', '327', '328', '330', '331', '332', '335', '338', '340', '341', '347', '348', '349', '350', '351', '353', '355', '356', '357', '359', '362', '364', '365', '372', '373', '375', '378', '379', '384', '388', '389', '392', '394', '396', '398', '401', '402', '405', '407', '408', '411', '412', '414', '415', '417', '421', '426', '427', '429', '431', '433', '434', '438', '446', '447', '450', '451', '453', '454', '456', '459', '462', '465', '470', '473', '475', '477', '480', '481', '483', '485', '487', '490', '492', '497', '500', '501', '504', '505', '506', '507', '508', '509', '512', '519', '520', '522', '523', '530', '535', '539', '542', '545', '546', '547', '551', '555', '562', '563', '564', '566', '567', '568', '579', '583', '584', '586', '589', '590', '592', '593', '594', '595', '597', '598', '599', '601', '605', '606', '607', '608', '611', '612', '614', '615', '618', '619', '620', '625', '631', '633', '634', '636', '637', '638', '639', '641', '642', '643', '644', '645', '646', '649', '654', '655', '656', '658', '661', '663', '664', '667', '670', '673', '674', '676', '682', '684', '687', '690', '691', '692', '693', '694', '698', '699', '701', '703', '705', '706', '709', '710', '711', '713', '714', '720', '722', '724', '729', '731', '732', '733', '734', '738', '739', '741', '742', '746', '748', '750', '751', '754', '756', '757', '758', '759', '761', '762', '763', '764', '768', '769', '772', '773', '776', '777', '779', '780', '781', '786', '787', '788', '791', '792', '795', '798', '799', '800', '801', '807', '808', '809', '812', '813', '814', '815', '818', '820', '821', '822', '825', '826', '832', '834', '835', '836', '840', '843', '844', '849', '850', '854', '856', '860', '864', '868', '869', '870', '871', '872', '873', '876', '880', '883', '884', '886', '890', '891', '893', '894', '895', '898', '899', '901', '902', '903', '905', '908', '909', '910', '911', '912', '914', '915', '916', '918', '919', '920', '922', '928', '929', '931', '933', '935', '938', '941', '942', '948', '949', '959', '961', '963', '966', '967', '970', '971', '972', '975', '977', '978', '981', '987', '991', '992', '994', '995', '997', '998', '999', '1000', '1001', '1003', '1004', '1005', '1006', '1013', '1014', '1018', '1019', '1020', '1021', '1022', '1023', '1024', '1025', '1028', '1029', '1030', '1032', '1033', '1034', '1035', '1037', '1038', '1039', '1040', '1041', '1045', '1046', '1047', '1049', '1053', '1054', '1058', '1059', '1063', '1065', '1066', '1067', '1069', '1070', '1072', '1073', '1076', '1077', '1079', '1080', '1082', '1083', '1084', '1090', '1093', '1095', '1106', '1108', '1117', '1119', '1120', '1121', '1122', '1123', '1126', '1131', '1136', '1138', '1139', '1142', '1146', '1149', '1150', '1152', '1153', '1154', '1155', '1156', '1160', '1161', '1163', '1165', '1166', '1171', '1173', '1174', '1175', '1180', '1181', '1185', '1186', '1188', '1190', '1191', '1195', '1197', '1199', '1200', '1206', '1209', '1213', '1217', '1218', '1222', '1224', '1226', '1229', '1230', '1231', '1232', '1235', '1238', '1239', '1240', '1243', '1244', '1249', '1250', '1251', '1253', '1255', '1256', '1257', '1259', '1264', '1265', '1271', '1273', '1278', '1279', '1280', '1281', '1288', '1289', '1291', '1294', '1295', '1296', '1299', '1302', '1303', '1310', '1312', '1315', '1319', '1323', '1324', '1326', '1327', '1331', '1332', '1333', '1335', '1337', '1339', '1340', '1341', '1342', '1344', '1345', '1346', '1347', '1348', '1349', '1354', '1358', '1359', '1362', '1363', '1366', '1367', '1368', '1370', '1371', '1373', '1379', '1385', '1386', '1389', '1390', '1393', '1396', '1401', '1402', '1403', '1407', '1409', '1410', '1414', '1415', '1416', '1418', '1419', '1420', '1422', '1424', '1426', '1428', '1432', '1436', '1437', '1438', '1441', '1443', '1444', '1445', '1446', '1451', '1452', '1453', '1454', '1455', '1463', '1466', '1467', '1469', '1470', '1472', '1473', '1474', '1475', '1477', '1478', '1481', '1484', '1485', '1486', '1487', '1491', '1492', '1493', '1502', '1505', '1508', '1509', '1510', '1511', '1518', '1519', '1522', '1523', '1524', '1525', '1531', '1533', '1534', '1535', '1536', '1543', '1547', '1548', '1549', '1555', '1556', '1561', '1562', '1566', '1569', '1570', '1571', '1573', '1575', '1577', '1581', '1586', '1592', '1595', '1597', '1598', '1600', '1602', '1605', '1608', '1610', '1611', '1612', '1616', '1619', '1620', '1623', '1625', '1628', '1630', '1632', '1636', '1637', '1645', '1648', '1649', '1653', '1654', '1655', '1656', '1661', '1662', '1665', '1666', '1668', '1669', '1670', '1673', '1678', '1682', '1685', '1686', '1690', '1691', '1695', '1696', '1697', '1698', '1699', '1700', '1701', '1703', '1707', '1709', '1712', '1713', '1715', '1716', '1717', '1719', '1721', '1724', '1726', '1728', '1729', '1731', '1733', '1735', '1740', '1742', '1746', '1751', '1752', '1755', '1756', '1758', '1760', '1762', '1772', '1775', '1779', '1780', '1781', '1786', '1793', '1795', '1796', '1797', '1799', '1802', '1805', '1806', '1807', '1809', '1811', '1814', '1818', '1820', '1822', '1824', '1826', '1827', '1829', '1830', '1834', '1837', '1838', '1840', '1844', '1847', '1848', '1850', '1851', '1854', '1855', '1857', '1858', '1860', '1862', '1864', '1867', '1869', '1870', '1872', '1876', '1877', '1882', '1883', '1884', '1885', '1886', '1887', '1888', '1890', '1892', '1894', '1895', '1896', '1900', '1902', '1903', '1908', '1910', '1911', '1918', '1919', '1925', '1929', '1930', '1932', '1935', '1937', '1938', '1939', '1941', '1942', '1946', '1949', '1950', '1954', '1958', '1959', '1961', '1962', '1964', '1965', '1971', '1976', '1977', '1978', '1981', '1983', '1987', '1989', '1990', '1993', '1997', '1999']",True,4000,True,2,8268d81bb1,0.0,0.0,0.0
./expes/v2_2021-03-27_issda-30_2000-prng-1-w4-p2,30_issda-2000,2000,first-2000,900,45,rng,num-start-1400,1400,25726,classic,3562.376078605652,True,,True,1.0,1.0,1.0,1,"['2', '7', '8', '11', '12', '14', '15', '17', '18', '19', '20', '21', '23', '24', '25', '26', '27', '29', '31', '32', '36', '38', '40', '42', '44', '46', '49', '53', '54', '56', '58', '59', '60', '61', '62', '68', '70', '71', '74', '80', '84', '85', '86', '87', '89', '97', '100', '102', '104', '105', '106', '108', '109', '110', '111', '113', '116', '117', '119', '120', '121', '122', '123', '124', '125', '130', '131', '132', '133', '134', '135', '136', '137', '141', '142', '143', '147', '152', '153', '155', '156', '157', '161', '162', '164', '166', '167', '168', '170', '171', '172', '173', '174', '176', '178', '179', '180', '181', '182', '183', '188', '189', '192', '193', '194', '197', '198', '203', '204', '205', '209', '210', '212', '213', '217', '218', '223', '226', '227', '228', '229', '230', '239', '242', '243', '244', '246', '247', '249', '251', '253', '263', '266', '271', '272', '273', '275', '276', '277', '282', '283', '284', '285', '288', '289', '292', '295', '298', '301', '304', '305', '306', '307', '311', '312', '319', '322', '326', '329', '331', '332', '333', '334', '335', '337', '341', '345', '346', '347', '348', '350', '351', '352', '354', '355', '360', '361', '362', '365', '367', '371', '372', '373', '374', '375', '377', '382', '383', '387', '388', '391', '394', '398', '400', '402', '405', '406', '408', '409', '410', '411', '412', '414', '416', '420', '421', '423', '428', '429', '430', '431', '432', '433', '438', '444', '452', '453', '455', '456', '457', '459', '460', '462', '466', '473', '474', '476', '477', '484', '485', '488', '496', '497', '498', '499', '503', '507', '509', '514', '515', '519', '520', '522', '523', '524', '526', '530', '531', '532', '533', '535', '538', '539', '543', '546', '547', '548', '550', '552', '553', '557', '559', '562', '564', '565', '567', '569', '571', '576', '581', '583', '584', '585', '589', '590', '595', '596', '597', '599', '603', '605', '607', '610', '615', '616', '617', '620', '625', '626', '627', '630', '631', '633', '636', '638', '642', '644', '645', '646', '650', '651', '653', '657', '659', '661', '662', '663', '664', '666', '667', '673', '674', '675', '676', '677', '678', '681', '684', '685', '687', '688', '689', '691', '692', '693', '694', '698', '700', '706', '709', '711', '712', '714', '715', '723', '724', '727', '732', '734', '736', '746', '747', '748', '749', '750', '757', '758', '761', '763', '764', '765', '766', '767', '771', '776', '777', '780', '782', '785', '786', '789', '791', '795', '796', '797', '798', '799', '806', '808', '810', '811', '813', '816', '817', '818', '822', '824', '825', '826', '827', '832', '833', '835', '836', '837', '838', '840', '843', '846', '850', '853', '854', '855', '861', '863', '864', '866', '867', '868', '870', '871', '873', '875', '878', '881', '888', '892', '893', '894', '896', '897', '899', '900', '901', '903', '906', '910', '916', '920', '923', '925', '926', '929', '930', '933', '934', '936', '937', '940', '946', '949', '950', '951', '952', '956', '958', '962', '964', '965', '969', '971', '973', '974', '977', '978', '980', '981', '985', '987', '988', '1001', '1004', '1007', '1008', '1010', '1013', '1016', '1017', '1018', '1019', '1021', '1024', '1026', '1028', '1029', '1030', '1035', '1036', '1037', '1041', '1042', '1044', '1045', '1046', '1047', '1050', '1053', '1056', '1057', '1059', '1060', '1061', '1062', '1063', '1064', '1066', '1070', '1071', '1072', '1073', '1075', '1077', '1079', '1080', '1083', '1084', '1088', '1089', '1091', '1092', '1093', '1097', '1098', '1100', '1101', '1102', '1106', '1110', '1111', '1113', '1114', '1115', '1118', '1119', '1121', '1124', '1132', '1133', '1136', '1137', '1139', '1141', '1142', '1146', '1148', '1151', '1153', '1154', '1158', '1160', '1162', '1165', '1168', '1169', '1173', '1174', '1176', '1177', '1179', '1183', '1185', '1186', '1188', '1190', '1191', '1195', '1197', '1198', '1199', '1202', '1204', '1205', '1206', '1209', '1210', '1212', '1215', '1223', '1224', '1225', '1228', '1230', '1231', '1235', '1238', '1239', '1240', '1241', '1242', '1243', '1245', '1246', '1247', '1248', '1249', '1251', '1252', '1253', '1255', '1256', '1262', '1263', '1264', '1275', '1280', '1281', '1284', '1289', '1290', '1295', '1300', '1303', '1305', '1308', '1309', '1312', '1315', '1317', '1320', '1322', '1325', '1327', '1328', '1330', '1334', '1338', '1347', '1349', '1350', '1357', '1358', '1359', '1360', '1362', '1364', '1367', '1368', '1370', '1371', '1372', '1373', '1375', '1381', '1386', '1387', '1389', '1390', '1391', '1393', '1394', '1395', '1396', '1399', '1400', '1402', '1405', '1406', '1409', '1410', '1414', '1415', '1419', '1421', '1423', '1424', '1426', '1427', '1428', '1429', '1432', '1433', '1434', '1436', '1438', '1439', '1441', '1442', '1445', '1446', '1449', '1450', '1451', '1452', '1453', '1454', '1455', '1457', '1458', '1464', '1466', '1468', '1469', '1474', '1476', '1481', '1483', '1485', '1487', '1489', '1490', '1491', '1492', '1495', '1503', '1508', '1510', '1511', '1513', '1518', '1520', '1523', '1524', '1526', '1527', '1528', '1529', '1531', '1532', '1533', '1540', '1541', '1542', '1545', '1546', '1551', '1556', '1558', '1559', '1560', '1561', '1564', '1565', '1566', '1567', '1572', '1574', '1580', '1581', '1582', '1583', '1584', '1585', '1586', '1587', '1589', '1592', '1593', '1594', '1595', '1597', '1598', '1599', '1604', '1606', '1611', '1618', '1625', '1628', '1629', '1630', '1631', '1634', '1636', '1637', '1638', '1639', '1645', '1653', '1654', '1656', '1657', '1658', '1659', '1669', '1670', '1681', '1682', '1684', '1686', '1688', '1703', '1704', '1705', '1706', '1708', '1709', '1713', '1715', '1719', '1720', '1721', '1724', '1728', '1730', '1731', '1732', '1733', '1734', '1738', '1741', '1743', '1744', '1745', '1746', '1749', '1755', '1760', '1762', '1763', '1770', '1774', '1775', '1776', '1777', '1779', '1780', '1786', '1789', '1791', '1792', '1794', '1796', '1797', '1800', '1801', '1803', '1804', '1806', '1808', '1809', '1810', '1811', '1813', '1816', '1817', '1818', '1820', '1821', '1822', '1825', '1828', '1829', '1831', '1834', '1835', '1837', '1838', '1840', '1841', '1847', '1849', '1853', '1856', '1857', '1861', '1863', '1867', '1874', '1875', '1880', '1883', '1885', '1887', '1889', '1891', '1893', '1894', '1903', '1906', '1907', '1908', '1911', '1918', '1922', '1925', '1927', '1928', '1930', '1932', '1933', '1934', '1936', '1938', '1939', '1940', '1941', '1945', '1947', '1948', '1949', '1951', '1952', '1953', '1954', '1957', '1958', '1960', '1963', '1967', '1968', '1970', '1971', '1972', '1975', '1976', '1977', '1979', '1980', '1982', '1984', '1985', '1986', '1988', '1991', '1992', '1994', '1995', '1997', '1998', '2000']",False,4000,True,2,9b87267ba5,0.0,1.0,1.0
./expes/v2_2021-03-27_issda-30_2000-prng-1-w4-p2,30_issda-2000,2000,first-2000,100,5,rng,num-start-800,800,25726,classic,1518.5028855800629,True,,True,1.0,1.0,1.0,1,"['4', '23', '39', '63', '106', '121', '125', '153', '170', '172', '179', '187', '231', '277', '293', '298', '333', '335', '351', '393', '409', '431', '458', '467', '536', '551', '562', '641', '691', '696', '717', '730', '744', '753', '768', '782', '788', '790', '821', '829', '858', '867', '868', '902', '909', '943', '962', '972', '977', '989', '1039', '1043', '1052', '1084', '1105', '1109', '1137', '1144', '1181', '1221', '1232', '1245', '1248', '1273', '1279', '1313', '1318', '1347', '1354', '1355', '1356', '1360', '1365', '1369', '1396', '1407', '1414', '1415', '1428', '1488', '1613', '1635', '1660', '1671', '1677', '1678', '1679', '1726', '1771', '1774', '1807', '1814', '1856', '1874', '1882', '1928', '1939', '1982', '1990', '2000']",False,4000,True,2,f979c52cfc,0.0,1.0,1.0
./expes/v2_2021-03-27_issda-30_2000-prng-1-w4-p2,30_issda-2000,2000,first-2000,200,10,rng,num-start-800,800,25726,classic,398.5800635814667,True,,True,1.0,1.0,1.0,1,"['4', '5', '12', '19', '26', '45', '46', '53', '59', '60', '61', '63', '71', '90', '115', '130', '178', '193', '205', '210', '222', '242', '248', '265', '276', '336', '346', '349', '355', '381', '389', '409', '410', '421', '430', '444', '449', '455', '465', '469', '473', '476', '478', '498', '523', '546', '552', '582', '594', '608', '622', '632', '651', '682', '705', '708', '709', '724', '731', '747', '752', '759', '768', '778', '781', '786', '799', '806', '807', '828', '829', '847', '849', '853', '865', '873', '887', '897', '899', '913', '921', '941', '942', '962', '968', '984', '986', '994', '1000', '1003', '1015', '1016', '1023', '1026', '1029', '1034', '1035', '1040', '1042', '1050', '1053', '1063', '1067', '1081', '1106', '1109', '1123', '1124', '1133', '1136', '1140', '1150', '1166', '1168', '1184', '1185', '1204', '1207', '1211', '1215', '1245', '1248', '1260', '1289', '1316', '1326', '1331', '1335', '1351', '1360', '1362', '1373', '1382', '1387', '1406', '1426', '1440', '1441', '1457', '1478', '1483', '1487', '1494', '1501', '1512', '1517', '1522', '1524', '1559', '1562', '1565', '1572', '1579', '1589', '1593', '1595', '1605', '1616', '1634', '1643', '1644', '1658', '1666', '1681', '1700', '1712', '1716', '1721', '1734', '1736', '1738', '1748', '1756', '1762', '1782', '1805', '1808', '1815', '1830', '1835', '1847', '1864', '1865', '1877', '1885', '1889', '1898', '1918', '1922', '1924', '1927', '1928', '1936', '1946', '1951', '1956', '1961', '1981', '1985', '1994']",False,4000,True,2,39f0511bc1,0.0,1.0,1.0
./expes/v2_2021-03-27_issda-30_2000-prng-1-w4-p2,30_issda-2000,2000,first-2000,700,35,rng,num-start-3800,3800,25726,classic,2544.044847011566,True,,True,1.0,1.0,1.0,1,"['4', '8', '13', '14', '16', '18', '23', '26', '27', '35', '36', '39', '43', '45', '49', '51', '53', '56', '58', '59', '61', '63', '64', '67', '76', '78', '81', '82', '88', '90', '95', '101', '104', '106', '107', '108', '109', '116', '117', '121', '125', '128', '132', '138', '146', '147', '148', '150', '151', '153', '160', '169', '170', '172', '173', '179', '186', '187', '191', '199', '201', '202', '208', '210', '211', '212', '218', '222', '225', '231', '232', '234', '238', '240', '242', '245', '250', '251', '253', '256', '258', '260', '265', '270', '272', '276', '277', '279', '280', '282', '284', '291', '292', '293', '298', '301', '304', '311', '318', '319', '320', '325', '330', '333', '335', '336', '344', '348', '349', '351', '352', '354', '355', '361', '365', '368', '369', '373', '375', '377', '385', '387', '388', '390', '393', '399', '401', '402', '403', '404', '405', '408', '409', '410', '411', '413', '419', '420', '421', '424', '428', '429', '431', '432', '433', '435', '439', '451', '452', '455', '458', '460', '463', '466', '467', '469', '471', '473', '475', '478', '482', '489', '490', '492', '495', '496', '504', '507', '512', '513', '516', '517', '522', '523', '529', '531', '532', '536', '538', '540', '545', '546', '549', '550', '551', '555', '560', '561', '562', '566', '567', '569', '570', '571', '572', '573', '578', '579', '580', '584', '585', '594', '597', '599', '601', '607', '608', '611', '626', '628', '630', '632', '635', '636', '637', '638', '639', '640', '641', '644', '648', '651', '658', '660', '661', '663', '671', '673', '676', '677', '681', '687', '688', '689', '690', '691', '696', '697', '699', '700', '702', '704', '705', '712', '714', '717', '718', '724', '725', '727', '728', '729', '730', '735', '737', '738', '740', '741', '742', '743', '744', '745', '746', '747', '748', '749', '751', '752', '753', '755', '761', '767', '768', '775', '776', '778', '781', '782', '788', '789', '790', '796', '797', '800', '801', '803', '805', '808', '810', '814', '818', '819', '821', '829', '831', '832', '834', '835', '837', '845', '848', '850', '851', '856', '858', '861', '862', '866', '867', '868', '869', '875', '879', '881', '884', '886', '888', '892', '893', '898', '901', '902', '904', '909', '912', '919', '920', '928', '934', '936', '939', '941', '942', '943', '944', '952', '954', '958', '962', '967', '972', '974', '976', '977', '978', '981', '985', '986', '989', '991', '994', '995', '997', '1000', '1004', '1005', '1007', '1008', '1009', '1013', '1021', '1024', '1025', '1026', '1027', '1028', '1029', '1030', '1032', '1035', '1039', '1043', '1048', '1049', '1052', '1053', '1056', '1057', '1058', '1059', '1063', '1066', '1067', '1068', '1071', '1077', '1078', '1080', '1081', '1084', '1088', '1095', '1096', '1098', '1099', '1101', '1102', '1105', '1108', '1109', '1110', '1113', '1115', '1119', '1120', '1123', '1124', '1125', '1127', '1130', '1135', '1137', '1138', '1141', '1143', '1144', '1147', '1154', '1156', '1157', '1168', '1169', '1174', '1181', '1183', '1189', '1190', '1202', '1203', '1206', '1208', '1209', '1215', '1217', '1221', '1226', '1227', '1230', '1232', '1234', '1243', '1244', '1245', '1247', '1248', '1252', '1255', '1262', '1264', '1266', '1268', '1269', '1271', '1272', '1273', '1275', '1276', '1279', '1280', '1285', '1286', '1289', '1295', '1296', '1299', '1302', '1305', '1307', '1310', '1312', '1313', '1316', '1318', '1327', '1331', '1332', '1335', '1338', '1344', '1347', '1349', '1351', '1354', '1355', '1356', '1357', '1359', '1360', '1365', '1367', '1369', '1370', '1371', '1372', '1376', '1377', '1380', '1384', '1390', '1391', '1395', '1396', '1398', '1400', '1402', '1403', '1404', '1405', '1407', '1409', '1410', '1411', '1412', '1414', '1415', '1422', '1425', '1426', '1428', '1430', '1432', '1435', '1444', '1446', '1455', '1463', '1465', '1466', '1467', '1473', '1477', '1487', '1488', '1498', '1500', '1504', '1505', '1507', '1510', '1514', '1520', '1523', '1526', '1530', '1533', '1534', '1540', '1543', '1544', '1550', '1551', '1556', '1558', '1560', '1561', '1567', '1568', '1570', '1575', '1579', '1581', '1582', '1585', '1588', '1596', '1606', '1607', '1609', '1613', '1616', '1617', '1618', '1622', '1623', '1625', '1629', '1631', '1632', '1634', '1635', '1639', '1640', '1641', '1642', '1646', '1651', '1654', '1657', '1659', '1660', '1662', '1665', '1669', '1671', '1677', '1678', '1679', '1682', '1685', '1692', '1701', '1702', '1704', '1707', '1710', '1711', '1712', '1714', '1718', '1719', '1722', '1723', '1726', '1727', '1728', '1731', '1732', '1739', '1740', '1747', '1751', '1753', '1758', '1760', '1761', '1766', '1767', '1771', '1773', '1774', '1779', '1788', '1789', '1802', '1806', '1807', '1812', '1814', '1816', '1818', '1822', '1824', '1829', '1832', '1835', '1838', '1839', '1846', '1849', '1850', '1851', '1856', '1858', '1865', '1866', '1868', '1874', '1875', '1877', '1878', '1882', '1885', '1892', '1893', '1895', '1897', '1899', '1900', '1911', '1912', '1913', '1915', '1918', '1920', '1921', '1925', '1926', '1928', '1933', '1934', '1939', '1941', '1945', '1951', '1952', '1958', '1959', '1964', '1965', '1968', '1971', '1972', '1975', '1978', '1981', '1982', '1989', '1990', '1992', '2000']",False,4000,True,2,3390e22d9e,0.0,1.0,1.0
