,expe,clients,clients_size,clients_subset,agg_size,agg_size_pc,method,days,days_size,days_total,noise_method,time,valid,valid_sum,success,score_avg,score_min,score_max,nsols,oracle,wall_hit,wall_time,pooled,pool_size,optimal,valid_sums,uuid
0,./expes/v3_2021-01-29_di_300-prng-1-w1-p10,daily_issda-300,300,first-300,126,42,rng,num-start-151,151,536,classic,7.876814365386963,True,,True,1.0,1.0,1.0,1,"Index(['1', '6', '10', '11', '13', '15', '17', '18', '22', '28',
       ...
       '274', '280', '283', '284', '287', '288', '292', '293', '297', '299'],
      dtype='object', length=126)",False,1000,True,10,1.0,1.0,90b310254f
1,./expes/v3_2021-01-29_di_300-prng-1-w1-p10,daily_issda-300,300,first-300,70,23,rng,num-start-251,251,536,classic,10.513060331344604,True,,True,1.0,1.0,1.0,1,"Index(['1', '8', '21', '32', '33', '38', '42', '47', '48', '49', '51', '52',
       '56', '64', '72', '73', '76', '95', '97', '98', '105', '112', '114',
       '123', '124', '125', '129', '133', '134', '145', '148', '149', '150',
       '155', '156', '159', '162', '163', '164', '167', '170', '171', '182',
       '184', '198', '205', '208', '216', '223', '227', '228', '230', '242',
       '245', '249', '251', '253', '259', '261', '262', '267', '273', '277',
       '279', '281', '283', '287', '291', '295', '299'],
      dtype='object')",False,1000,True,10,1.0,1.0,cfcbd0e93d
2,./expes/v3_2021-01-29_di_300-prng-1-w1-p10,daily_issda-300,300,first-300,49,16,rng,num-start-61,61,536,classic,1002.1636710166932,False,,False,0.0,,,0,"Index(['3', '8', '16', '19', '22', '31', '33', '36', '43', '44', '47', '49',
       '56', '73', '81', '95', '96', '98', '101', '118', '120', '124', '131',
       '143', '148', '149', '151', '156', '162', '168', '203', '206', '209',
       '226', '229', '232', '235', '238', '239', '244', '256', '261', '263',
       '266', '271', '276', '283', '287', '289'],
      dtype='object')",True,1000,True,10,0.0,0.0,2d98fd34cc
3,./expes/v3_2021-01-29_di_300-prng-1-w1-p10,daily_issda-300,300,first-300,126,42,rng,num-start-221,221,536,classic,8.894437074661255,True,,True,1.0,1.0,1.0,1,"Index(['3', '4', '5', '6', '10', '24', '30', '34', '40', '41',
       ...
       '283', '285', '286', '287', '290', '291', '293', '294', '295', '297'],
      dtype='object', length=126)",False,1000,True,10,1.0,1.0,3b2dcd4cac
4,./expes/v3_2021-01-29_di_300-prng-1-w1-p10,daily_issda-300,300,first-300,112,37,rng,num-start-251,251,536,classic,9.932068347930908,True,,True,1.0,1.0,1.0,1,"Index(['1', '3', '5', '11', '13', '15', '16', '17', '19', '21',
       ...
       '270', '272', '279', '283', '286', '287', '288', '291', '295', '298'],
      dtype='object', length=112)",False,1000,True,10,1.0,1.0,37bcb9c27e
5,./expes/v3_2021-01-29_di_300-prng-1-w1-p10,daily_issda-300,300,first-300,63,21,rng,num-start-151,151,536,classic,6.645272731781006,True,,True,1.0,1.0,1.0,1,"Index(['6', '15', '36', '38', '43', '46', '48', '49', '53', '55', '58', '59',
       '61', '63', '77', '83', '85', '87', '93', '100', '105', '112', '115',
       '127', '131', '134', '135', '139', '141', '143', '144', '145', '150',
       '156', '159', '162', '173', '184', '185', '187', '196', '198', '202',
       '204', '207', '211', '218', '225', '231', '232', '234', '239', '246',
       '249', '250', '257', '264', '265', '270', '274', '283', '297', '299'],
      dtype='object')",False,1000,True,10,1.0,1.0,36ddf9f11f
6,./expes/v3_2021-01-29_di_300-prng-1-w1-p10,daily_issda-300,300,first-300,21,7,rng,num-start-151,151,536,classic,5.893197059631348,True,,True,1.0,1.0,1.0,1,"Index(['12', '23', '56', '62', '76', '103', '104', '134', '138', '149', '160',
       '167', '168', '178', '202', '211', '262', '267', '271', '292', '300'],
      dtype='object')",False,1000,True,10,1.0,1.0,47e247c05d
7,./expes/v3_2021-01-29_di_300-prng-1-w1-p10,daily_issda-300,300,first-300,28,9,rng,num-start-111,111,536,classic,4.355996370315552,True,,True,1.0,1.0,1.0,1,"Index(['2', '5', '12', '14', '15', '16', '33', '49', '53', '61', '69', '108',
       '111', '118', '131', '137', '163', '195', '196', '200', '222', '229',
       '231', '242', '250', '254', '278', '292'],
      dtype='object')",False,1000,True,10,1.0,1.0,e9a0d99df6
8,./expes/v3_2021-01-29_di_300-prng-1-w1-p10,daily_issda-300,300,first-300,42,14,rng,num-start-191,191,536,classic,7.852404594421387,True,,True,1.0,1.0,1.0,1,"Index(['13', '15', '19', '29', '44', '47', '70', '82', '85', '87', '89', '91',
       '94', '109', '119', '121', '129', '138', '158', '164', '167', '182',
       '185', '187', '191', '195', '202', '213', '217', '221', '228', '229',
       '239', '258', '261', '262', '264', '269', '270', '279', '287', '298'],
      dtype='object')",False,1000,True,10,1.0,1.0,03e9f15da5
9,./expes/v3_2021-01-29_di_300-prng-1-w1-p10,daily_issda-300,300,first-300,84,28,rng,num-start-121,121,536,classic,12.145286798477173,True,,True,1.0,1.0,1.0,1,"Index(['1', '6', '10', '14', '15', '16', '17', '19', '23', '27', '31', '32',
       '39', '40', '43', '45', '47', '53', '58', '59', '70', '74', '75', '84',
       '88', '92', '99', '103', '105', '108', '113', '114', '115', '117',
       '121', '130', '134', '138', '141', '142', '159', '161', '172', '173',
       '174', '180', '183', '186', '187', '189', '191', '192', '196', '197',
       '198', '199', '206', '208', '215', '217', '219', '221', '222', '226',
       '228', '236', '241', '243', '245', '248', '257', '260', '261', '262',
       '263', '266', '271', '277', '278', '282', '285', '286', '294', '296'],
      dtype='object')",False,1000,True,10,1.0,1.0,0d135b7bf7
10,./expes/v3_2021-01-29_di_300-prng-1-w1-p10,daily_issda-300,300,first-300,133,44,rng,num-start-261,261,536,classic,10.999848365783691,True,,True,1.0,1.0,1.0,1,"Index(['3', '4', '5', '6', '7', '8', '11', '12', '15', '16',
       ...
       '268', '270', '274', '277', '278', '284', '289', '294', '297', '299'],
      dtype='object', length=133)",False,1000,True,10,1.0,1.0,7022e1498e
11,./expes/v3_2021-01-29_di_300-prng-1-w1-p10,daily_issda-300,300,first-300,105,35,rng,num-start-51,51,536,classic,1001.727127313614,False,,False,0.0,,,0,"Index(['1', '3', '5', '6', '8', '9', '11', '16', '19', '22',
       ...
       '266', '271', '276', '283', '287', '289', '290', '295', '296', '299'],
      dtype='object', length=105)",True,1000,True,10,0.0,0.0,7073c454f3
12,./expes/v3_2021-01-29_di_300-prng-1-w1-p10,daily_issda-300,300,first-300,112,37,rng,num-start-241,241,536,classic,10.579792022705078,True,,True,1.0,1.0,1.0,1,"Index(['1', '4', '7', '9', '10', '12', '15', '16', '19', '24',
       ...
       '271', '276', '277', '284', '286', '287', '289', '292', '294', '295'],
      dtype='object', length=112)",False,1000,True,10,1.0,1.0,2feea95440
13,./expes/v3_2021-01-29_di_300-prng-1-w1-p10,daily_issda-300,300,first-300,49,16,rng,num-start-151,151,536,classic,6.505440711975098,True,,True,1.0,1.0,1.0,1,"Index(['3', '4', '6', '11', '12', '15', '23', '43', '45', '73', '79', '80',
       '89', '113', '114', '115', '117', '121', '122', '130', '133', '145',
       '146', '151', '152', '155', '156', '159', '163', '172', '179', '186',
       '192', '210', '214', '216', '217', '229', '234', '236', '238', '241',
       '247', '251', '254', '265', '268', '289', '297'],
      dtype='object')",False,1000,True,10,1.0,1.0,7c229053bd
14,./expes/v3_2021-01-29_di_300-prng-1-w1-p10,daily_issda-300,300,first-300,63,21,rng,num-start-141,141,536,classic,6.183703660964966,True,,True,1.0,1.0,1.0,1,"Index(['11', '16', '20', '23', '30', '33', '44', '45', '46', '50', '56', '59',
       '65', '70', '71', '73', '76', '82', '99', '100', '107', '108', '117',
       '120', '121', '127', '133', '137', '147', '161', '174', '183', '190',
       '193', '194', '195', '198', '200', '206', '207', '209', '219', '228',
       '233', '234', '236', '243', '249', '250', '251', '254', '255', '258',
       '260', '265', '267', '273', '277', '286', '294', '297', '298', '300'],
      dtype='object')",False,1000,True,10,1.0,1.0,3f1bd07fc7
15,./expes/v3_2021-01-29_di_300-prng-1-w1-p10,daily_issda-300,300,first-300,77,25,rng,num-start-61,61,536,classic,1002.0243530273438,False,,False,0.0,,,0,"Index(['1', '7', '9', '12', '15', '19', '24', '28', '40', '42', '46', '48',
       '49', '50', '60', '62', '65', '71', '75', '87', '95', '97', '99', '100',
       '101', '102', '103', '108', '115', '126', '129', '134', '136', '138',
       '140', '149', '150', '156', '157', '160', '164', '171', '172', '183',
       '185', '186', '192', '194', '195', '200', '204', '210', '212', '217',
       '218', '221', '226', '228', '229', '241', '248', '249', '250', '251',
       '257', '258', '264', '268', '269', '271', '276', '277', '284', '286',
       '289', '294', '295'],
      dtype='object')",True,1000,True,10,0.0,0.0,7d02d04f45
16,./expes/v3_2021-01-29_di_300-prng-1-w1-p10,daily_issda-300,300,first-300,105,35,rng,num-start-101,101,536,classic,14.52936601638794,True,,True,1.0,1.0,1.0,1,"Index(['5', '6', '8', '9', '10', '16', '19', '22', '23', '25',
       ...
       '262', '267', '272', '274', '279', '281', '285', '290', '292', '296'],
      dtype='object', length=105)",False,1000,True,10,1.0,1.0,a22a3216e9
17,./expes/v3_2021-01-29_di_300-prng-1-w1-p10,daily_issda-300,300,first-300,35,11,rng,num-start-121,121,536,classic,5.098772048950195,True,,True,1.0,1.0,1.0,1,"Index(['9', '12', '23', '37', '38', '51', '56', '59', '62', '76', '103', '104',
       '134', '138', '149', '154', '160', '167', '168', '178', '199', '202',
       '203', '211', '213', '217', '226', '234', '262', '267', '271', '278',
       '292', '297', '300'],
      dtype='object')",False,1000,True,10,1.0,1.0,b297950196
18,./expes/v3_2021-01-29_di_300-prng-1-w1-p10,daily_issda-300,300,first-300,14,4,rng,num-start-21,21,536,classic,23.789884328842163,True,,True,1.0,1.0,1.0,1,"Index(['63', '93', '94', '101', '102', '123', '136', '152', '172', '230',
       '235', '246', '251', '253'],
      dtype='object')",False,1000,True,10,1.0,1.0,cee10bbb48
19,./expes/v3_2021-01-29_di_300-prng-1-w1-p10,daily_issda-300,300,first-300,70,23,rng,num-start-151,151,536,classic,6.801315784454346,True,,True,1.0,1.0,1.0,1,"Index(['13', '15', '19', '29', '44', '47', '70', '82', '83', '85', '86', '87',
       '89', '91', '94', '107', '109', '114', '119', '121', '128', '129',
       '138', '143', '156', '158', '159', '160', '164', '167', '180', '182',
       '185', '186', '187', '191', '195', '202', '205', '209', '213', '217',
       '221', '228', '229', '233', '234', '237', '239', '246', '250', '251',
       '256', '257', '258', '259', '260', '261', '262', '264', '266', '269',
       '270', '272', '279', '286', '287', '288', '291', '298'],
      dtype='object')",False,1000,True,10,1.0,1.0,9bbd11c28b
20,./expes/v3_2021-01-29_di_300-prng-1-w1-p10,daily_issda-300,300,first-300,70,23,rng,num-start-151,151,536,classic,6.664126396179199,True,,True,1.0,1.0,1.0,1,"Index(['2', '5', '12', '14', '15', '16', '18', '33', '45', '49', '52', '53',
       '56', '61', '62', '69', '84', '89', '96', '98', '108', '111', '113',
       '114', '118', '119', '120', '125', '131', '137', '146', '149', '152',
       '156', '163', '171', '177', '188', '190', '192', '195', '196', '200',
       '202', '207', '213', '214', '217', '222', '225', '229', '231', '236',
       '242', '246', '250', '251', '254', '256', '257', '259', '260', '261',
       '267', '271', '278', '281', '284', '285', '292'],
      dtype='object')",False,1000,True,10,1.0,1.0,7e373ef20b
21,./expes/v3_2021-01-29_di_300-prng-1-w1-p10,daily_issda-300,300,first-300,63,21,rng,num-start-101,101,536,classic,7.834707498550415,True,,True,1.0,1.0,1.0,1,"Index(['6', '15', '36', '38', '43', '46', '48', '49', '53', '55', '58', '59',
       '61', '63', '77', '83', '85', '87', '93', '100', '105', '112', '115',
       '127', '131', '134', '135', '139', '141', '143', '144', '145', '150',
       '156', '159', '162', '173', '184', '185', '187', '196', '198', '202',
       '204', '207', '211', '218', '225', '231', '232', '234', '239', '246',
       '249', '250', '257', '264', '265', '270', '274', '283', '297', '299'],
      dtype='object')",False,1000,True,10,1.0,1.0,24376341a5
22,./expes/v3_2021-01-29_di_300-prng-1-w1-p10,daily_issda-300,300,first-300,7,2,rng,num-start-241,241,536,classic,8.743375539779663,True,,True,1.0,1.0,1.0,1,"Index(['8', '17', '106', '220', '248', '293', '296'], dtype='object')",False,1000,True,10,1.0,1.0,b6bde6eb6a
23,./expes/v3_2021-01-29_di_300-prng-1-w1-p10,daily_issda-300,300,first-300,56,18,rng,num-start-271,271,536,classic,10.969182968139648,True,,True,1.0,1.0,1.0,1,"Index(['2', '3', '4', '5', '9', '13', '21', '23', '27', '29', '33', '42', '43',
       '45', '53', '57', '58', '63', '68', '69', '71', '72', '81', '87', '96',
       '102', '103', '104', '105', '108', '115', '122', '137', '144', '150',
       '170', '172', '174', '175', '192', '194', '195', '197', '204', '211',
       '216', '217', '218', '232', '238', '252', '258', '260', '277', '284',
       '297'],
      dtype='object')",False,1000,True,10,1.0,1.0,b7ecbb63b8
24,./expes/v3_2021-01-29_di_300-prng-1-w1-p10,daily_issda-300,300,first-300,21,7,rng,num-start-261,261,536,classic,10.280958652496338,True,,True,1.0,1.0,1.0,1,"Index(['1', '6', '31', '74', '75', '84', '108', '117', '138', '141', '174',
       '180', '189', '192', '196', '226', '236', '243', '248', '271', '286'],
      dtype='object')",False,1000,True,10,1.0,1.0,6d28c9058f
25,./expes/v3_2021-01-29_di_300-prng-1-w1-p10,daily_issda-300,300,first-300,133,44,rng,num-start-21,21,536,classic,1000.7337982654572,False,,False,0.0,,,0,"Index(['3', '7', '12', '20', '21', '24', '25', '26', '28', '30',
       ...
       '289', '290', '293', '294', '295', '296', '297', '298', '299', '300'],
      dtype='object', length=133)",True,1000,True,10,0.0,0.0,6fc8cea950
26,./expes/v3_2021-01-29_di_300-prng-1-w1-p10,daily_issda-300,300,first-300,70,23,rng,num-start-281,281,536,classic,11.256481647491457,True,,True,1.0,1.0,1.0,1,"Index(['2', '8', '16', '23', '37', '38', '44', '61', '65', '67', '68', '70',
       '71', '72', '73', '76', '82', '91', '92', '96', '100', '104', '110',
       '116', '119', '120', '121', '122', '129', '130', '132', '133', '135',
       '142', '144', '149', '151', '161', '178', '180', '183', '187', '188',
       '191', '192', '200', '203', '212', '218', '220', '221', '224', '226',
       '228', '230', '231', '236', '238', '250', '252', '255', '267', '268',
       '273', '275', '282', '284', '289', '290', '296'],
      dtype='object')",False,1000,True,10,1.0,1.0,837614776f
27,./expes/v3_2021-01-29_di_300-prng-1-w1-p10,daily_issda-300,300,first-300,98,32,rng,num-start-11,11,536,classic,1000.4145526885986,False,,False,0.0,,,0,"Index(['4', '7', '8', '11', '15', '16', '17', '19', '22', '23', '24', '33',
       '34', '35', '40', '46', '50', '53', '54', '56', '61', '64', '67', '69',
       '70', '71', '78', '80', '82', '84', '99', '102', '109', '112', '119',
       '120', '121', '122', '133', '135', '137', '138', '143', '144', '146',
       '150', '151', '155', '159', '161', '168', '170', '173', '174', '177',
       '180', '185', '188', '190', '193', '194', '198', '199', '200', '203',
       '204', '209', '211', '213', '216', '219', '224', '228', '236', '241',
       '243', '244', '247', '248', '254', '259', '260', '267', '268', '274',
       '275', '277', '278', '279', '282', '283', '287', '292', '293', '294',
       '296', '298', '300'],
      dtype='object')",True,1000,True,10,0.0,0.0,b956e15cf9
28,./expes/v3_2021-01-29_di_300-prng-1-w1-p10,daily_issda-300,300,first-300,119,39,rng,num-start-281,281,536,classic,11.975914478302002,True,,True,1.0,1.0,1.0,1,"Index(['1', '4', '5', '6', '10', '13', '14', '15', '16', '17',
       ...
       '270', '271', '277', '278', '280', '282', '285', '286', '294', '296'],
      dtype='object', length=119)",False,1000,True,10,1.0,1.0,42ccb10c5e
29,./expes/v3_2021-01-29_di_300-prng-1-w1-p10,daily_issda-300,300,first-300,35,11,rng,num-start-61,61,536,classic,20.22652840614319,True,,True,1.0,1.0,1.0,1,"Index(['3', '8', '16', '19', '22', '31', '33', '44', '47', '49', '73', '81',
       '95', '96', '98', '101', '120', '124', '151', '156', '168', '203',
       '226', '229', '232', '238', '239', '244', '256', '261', '263', '266',
       '271', '276', '287'],
      dtype='object')",False,1000,True,10,1.0,1.0,294d1a9f30
30,./expes/v3_2021-01-29_di_300-prng-1-w1-p10,daily_issda-300,300,first-300,112,37,rng,num-start-271,271,536,classic,11.81565260887146,True,,True,1.0,1.0,1.0,1,"Index(['1', '2', '3', '5', '7', '10', '12', '15', '17', '19',
       ...
       '269', '272', '274', '277', '279', '280', '282', '289', '294', '297'],
      dtype='object', length=112)",False,1000,True,10,1.0,1.0,10939e210d
31,./expes/v3_2021-01-29_di_300-prng-1-w1-p10,daily_issda-300,300,first-300,49,16,rng,num-start-1,1,536,classic,11.390175819396973,False,,True,0.4789650555603332,0.4513622830304087,0.5092835079342817,100,"Index(['4', '11', '14', '31', '35', '45', '46', '47', '53', '55', '80', '85',
       '89', '92', '100', '110', '114', '121', '127', '128', '134', '135',
       '140', '142', '144', '148', '149', '150', '154', '156', '159', '160',
       '173', '185', '191', '199', '203', '206', '212', '217', '243', '246',
       '260', '261', '267', '275', '281', '282', '294'],
      dtype='object')",False,1000,True,10,1.0,1.0,18b411b7ec
32,./expes/v3_2021-01-29_di_300-prng-1-w1-p10,daily_issda-300,300,first-300,105,35,rng,num-start-21,21,536,classic,1000.7825577259064,False,,False,0.0,,,0,"Index(['5', '6', '8', '9', '10', '16', '19', '22', '23', '25',
       ...
       '262', '267', '272', '274', '279', '281', '285', '290', '292', '296'],
      dtype='object', length=105)",True,1000,True,10,0.0,0.0,b80ded5d69
33,./expes/v3_2021-01-29_di_300-prng-1-w1-p10,daily_issda-300,300,first-300,126,42,rng,num-start-131,131,536,classic,13.358214139938354,True,,True,1.0,1.0,1.0,1,"Index(['4', '6', '7', '8', '11', '12', '14', '15', '16', '17',
       ...
       '282', '283', '287', '292', '293', '294', '296', '297', '298', '300'],
      dtype='object', length=126)",False,1000,True,10,1.0,1.0,1afdea95af
34,./expes/v3_2021-01-29_di_300-prng-1-w1-p10,daily_issda-300,300,first-300,56,18,rng,num-start-211,211,536,classic,8.735567331314087,True,,True,1.0,1.0,1.0,1,"Index(['3', '4', '6', '7', '8', '11', '12', '15', '23', '34', '43', '45', '73',
       '79', '80', '85', '89', '113', '114', '115', '117', '121', '122', '130',
       '133', '145', '146', '151', '152', '155', '156', '159', '163', '172',
       '179', '186', '192', '210', '214', '216', '217', '228', '229', '233',
       '234', '236', '238', '241', '247', '251', '252', '254', '265', '268',
       '289', '297'],
      dtype='object')",False,1000,True,10,1.0,1.0,40cd2c0c66
35,./expes/v3_2021-01-29_di_300-prng-1-w1-p10,daily_issda-300,300,first-300,56,18,rng,num-start-151,151,536,classic,6.302563905715942,True,,True,1.0,1.0,1.0,1,"Index(['6', '9', '10', '19', '25', '29', '34', '38', '41', '52', '60', '72',
       '76', '78', '81', '89', '101', '106', '107', '115', '118', '119', '123',
       '135', '144', '147', '157', '161', '162', '174', '177', '182', '183',
       '185', '189', '201', '203', '208', '215', '216', '225', '231', '234',
       '237', '239', '240', '251', '252', '254', '262', '267', '272', '274',
       '290', '292', '296'],
      dtype='object')",False,1000,True,10,1.0,1.0,d8cc954b88
36,./expes/v3_2021-01-29_di_300-prng-1-w1-p10,daily_issda-300,300,first-300,84,28,rng,num-start-281,281,536,classic,11.882454633712769,True,,True,1.0,1.0,1.0,1,"Index(['7', '11', '16', '18', '20', '23', '30', '33', '37', '44', '45', '46',
       '50', '56', '59', '65', '70', '71', '73', '76', '77', '82', '90', '99',
       '100', '102', '107', '108', '113', '117', '120', '121', '125', '127',
       '131', '133', '137', '146', '147', '152', '153', '159', '161', '174',
       '176', '177', '183', '190', '193', '194', '195', '198', '200', '203',
       '206', '207', '209', '214', '217', '219', '228', '233', '234', '236',
       '243', '249', '250', '251', '254', '255', '258', '260', '262', '265',
       '267', '271', '273', '277', '280', '286', '294', '297', '298', '300'],
      dtype='object')",False,1000,True,10,1.0,1.0,d2dd7aaacb
37,./expes/v3_2021-01-29_di_300-prng-1-w1-p10,daily_issda-300,300,first-300,56,18,rng,num-start-241,241,536,classic,9.591434478759766,True,,True,1.0,1.0,1.0,1,"Index(['11', '16', '20', '23', '30', '33', '44', '45', '46', '50', '56', '59',
       '65', '71', '73', '76', '99', '100', '107', '108', '117', '120', '121',
       '127', '133', '137', '147', '174', '190', '193', '194', '195', '198',
       '200', '206', '207', '209', '228', '233', '234', '236', '243', '249',
       '250', '251', '254', '255', '260', '265', '267', '277', '286', '294',
       '297', '298', '300'],
      dtype='object')",False,1000,True,10,1.0,1.0,5fc4b8ca71
38,./expes/v3_2021-01-29_di_300-prng-1-w1-p10,daily_issda-300,300,first-300,49,16,rng,num-start-181,181,536,classic,7.367999076843262,True,,True,1.0,1.0,1.0,1,"Index(['1', '3', '7', '12', '15', '27', '34', '37', '53', '58', '65', '68',
       '72', '75', '81', '82', '85', '86', '94', '101', '102', '105', '108',
       '111', '127', '128', '131', '136', '144', '149', '153', '155', '161',
       '170', '184', '185', '191', '195', '197', '200', '209', '213', '228',
       '239', '241', '272', '277', '279', '294'],
      dtype='object')",False,1000,True,10,1.0,1.0,0c04d317fe
39,./expes/v3_2021-01-29_di_300-prng-1-w1-p10,daily_issda-300,300,first-300,126,42,rng,num-start-171,171,536,classic,8.72530460357666,True,,True,1.0,1.0,1.0,1,"Index(['2', '3', '8', '16', '17', '19', '20', '22', '23', '24',
       ...
       '282', '284', '285', '287', '289', '290', '292', '296', '298', '299'],
      dtype='object', length=126)",False,1000,True,10,1.0,1.0,792db5fcac
40,./expes/v3_2021-01-29_di_300-prng-1-w1-p10,daily_issda-300,300,first-300,42,14,rng,num-start-51,51,536,classic,1001.7590079307556,False,,False,0.0,,,0,"Index(['4', '11', '14', '31', '35', '45', '46', '47', '53', '55', '80', '85',
       '89', '92', '100', '110', '114', '121', '127', '128', '134', '135',
       '140', '142', '144', '149', '154', '156', '159', '173', '185', '191',
       '199', '203', '206', '243', '246', '260', '267', '275', '281', '282'],
      dtype='object')",True,1000,True,10,0.0,0.0,dab9c32458
41,./expes/v3_2021-01-29_di_300-prng-1-w1-p10,daily_issda-300,300,first-300,77,25,rng,num-start-251,251,536,classic,10.357768297195436,True,,True,1.0,1.0,1.0,1,"Index(['1', '3', '6', '8', '9', '16', '19', '22', '27', '31', '33', '35', '36',
       '38', '43', '44', '45', '47', '49', '52', '56', '61', '69', '73', '81',
       '91', '95', '96', '97', '98', '101', '102', '108', '110', '118', '120',
       '124', '127', '131', '139', '143', '148', '149', '151', '156', '160',
       '162', '168', '171', '173', '193', '198', '203', '204', '206', '209',
       '210', '215', '226', '229', '232', '235', '238', '239', '241', '244',
       '250', '256', '261', '263', '266', '271', '276', '283', '287', '289',
       '290'],
      dtype='object')",False,1000,True,10,1.0,1.0,ebd46a1a82
42,./expes/v3_2021-01-29_di_300-prng-1-w1-p10,daily_issda-300,300,first-300,91,30,rng,num-start-31,31,536,classic,1001.1639657020568,False,,False,0.0,,,0,"Index(['4', '10', '41', '45', '46', '48', '52', '59', '61', '63', '65', '67',
       '68', '69', '74', '75', '76', '78', '83', '84', '87', '90', '93', '94',
       '98', '101', '102', '103', '104', '105', '106', '111', '113', '121',
       '122', '123', '128', '130', '133', '136', '139', '140', '145', '152',
       '154', '155', '156', '167', '172', '174', '176', '178', '181', '185',
       '188', '198', '202', '204', '205', '208', '209', '214', '217', '219',
       '223', '224', '230', '235', '241', '245', '246', '251', '252', '253',
       '254', '257', '260', '263', '268', '270', '273', '274', '276', '278',
       '279', '283', '291', '293', '294', '295', '297'],
      dtype='object')",True,1000,True,10,0.0,0.0,08b14ca186
43,./expes/v3_2021-01-29_di_300-prng-1-w1-p10,daily_issda-300,300,first-300,119,39,rng,num-start-11,11,536,classic,1000.3988835811616,False,,False,0.0,,,0,"Index(['2', '7', '9', '11', '14', '16', '17', '18', '20', '23',
       ...
       '273', '277', '280', '286', '289', '292', '294', '297', '298', '300'],
      dtype='object', length=119)",True,1000,True,10,0.0,0.0,6e6b6b87fe
44,./expes/v3_2021-01-29_di_300-prng-1-w1-p10,daily_issda-300,300,first-300,42,14,rng,num-start-21,21,536,classic,1000.8125925064088,False,,False,0.0,,,0,"Index(['20', '24', '25', '26', '30', '31', '32', '36', '38', '45', '47', '49',
       '61', '64', '69', '74', '78', '93', '110', '114', '115', '124', '149',
       '158', '166', '188', '203', '204', '215', '218', '223', '260', '275',
       '277', '283', '286', '287', '290', '293', '296', '299', '300'],
      dtype='object')",True,1000,True,10,0.0,0.0,7bb7cda229
45,./expes/v3_2021-01-29_di_300-prng-1-w1-p10,daily_issda-300,300,first-300,112,37,rng,num-start-241,241,536,classic,10.704041719436646,True,,True,1.0,1.0,1.0,1,"Index(['1', '3', '5', '6', '8', '9', '11', '16', '19', '22',
       ...
       '271', '276', '283', '284', '287', '289', '290', '295', '296', '299'],
      dtype='object', length=112)",False,1000,True,10,1.0,1.0,299a3817bd
46,./expes/v3_2021-01-29_di_300-prng-1-w1-p10,daily_issda-300,300,first-300,112,37,rng,num-start-111,111,536,classic,19.62020874023437,True,,True,1.0,1.0,1.0,1,"Index(['7', '12', '20', '21', '24', '25', '26', '30', '31', '32',
       ...
       '289', '290', '293', '294', '295', '296', '297', '298', '299', '300'],
      dtype='object', length=112)",False,1000,True,10,1.0,1.0,b6c6ec5511
47,./expes/v3_2021-01-29_di_300-prng-1-w1-p10,daily_issda-300,300,first-300,42,14,rng,num-start-21,21,536,classic,1000.764167547226,False,,False,0.0,,,0,"Index(['1', '8', '21', '32', '38', '48', '49', '51', '52', '72', '76', '105',
       '112', '129', '133', '134', '145', '156', '159', '162', '170', '171',
       '182', '184', '198', '205', '208', '216', '223', '227', '242', '245',
       '249', '253', '259', '262', '267', '273', '281', '283', '287', '299'],
      dtype='object')",True,1000,True,10,0.0,0.0,9699b8ce1f
48,./expes/v3_2021-01-29_di_300-prng-1-w1-p10,daily_issda-300,300,first-300,28,9,rng,num-start-241,241,536,classic,9.334784269332886,True,,True,1.0,1.0,1.0,1,"Index(['61', '63', '87', '90', '93', '94', '101', '102', '103', '104', '111',
       '121', '122', '123', '130', '136', '152', '167', '172', '188', '230',
       '235', '246', '251', '253', '260', '268', '295'],
      dtype='object')",False,1000,True,10,1.0,1.0,08cae518a0
49,./expes/v3_2021-01-29_di_300-prng-1-w1-p10,daily_issda-300,300,first-300,133,44,rng,num-start-61,61,536,classic,1002.1166574954988,False,,False,0.0,,,0,"Index(['2', '3', '8', '16', '17', '19', '20', '22', '23', '24',
       ...
       '282', '284', '285', '287', '289', '290', '292', '296', '298', '299'],
      dtype='object', length=133)",True,1000,True,10,0.0,0.0,6581b5fc0b
50,./expes/v3_2021-01-29_di_300-prng-1-w1-p10,daily_issda-300,300,first-300,49,16,rng,num-start-1,1,536,classic,9.978561162948608,False,,True,0.483384028079106,0.4393028706128324,0.5231092901262601,100,"Index(['1', '3', '7', '12', '15', '27', '34', '37', '53', '58', '65', '68',
       '72', '75', '81', '82', '85', '86', '94', '101', '102', '105', '108',
       '111', '127', '128', '131', '136', '144', '149', '153', '155', '161',
       '170', '184', '185', '191', '195', '197', '200', '209', '213', '228',
       '239', '241', '272', '277', '279', '294'],
      dtype='object')",False,1000,True,10,1.0,1.0,548d78a7cd
51,./expes/v3_2021-01-29_di_300-prng-1-w1-p10,daily_issda-300,300,first-300,105,35,rng,num-start-51,51,536,classic,1001.792857646942,False,,False,0.0,,,0,"Index(['1', '4', '7', '9', '10', '12', '15', '19', '24', '28',
       ...
       '269', '271', '276', '277', '284', '286', '287', '289', '294', '295'],
      dtype='object', length=105)",True,1000,True,10,0.0,0.0,8ec97f2693
52,./expes/v3_2021-01-29_di_300-prng-1-w1-p10,daily_issda-300,300,first-300,140,46,rng,num-start-81,81,536,classic,1002.7789018154144,False,,False,0.0,,,0,"Index(['3', '4', '5', '6', '10', '24', '30', '34', '39', '40',
       ...
       '283', '285', '286', '287', '290', '291', '293', '294', '295', '297'],
      dtype='object', length=140)",True,1000,True,10,0.0,0.0,2b235cd180
53,./expes/v3_2021-01-29_di_300-prng-1-w1-p10,daily_issda-300,300,first-300,98,32,rng,num-start-121,121,536,classic,12.393975496292114,True,,True,1.0,1.0,1.0,1,"Index(['3', '5', '10', '11', '14', '26', '27', '28', '30', '32', '33', '36',
       '39', '42', '44', '48', '49', '57', '60', '64', '67', '71', '72', '73',
       '78', '83', '88', '90', '94', '99', '101', '102', '108', '109', '110',
       '116', '123', '124', '128', '129', '130', '133', '137', '140', '142',
       '143', '149', '156', '157', '158', '159', '160', '162', '163', '164',
       '170', '171', '172', '173', '179', '182', '185', '188', '191', '192',
       '197', '201', '206', '207', '208', '210', '213', '215', '222', '240',
       '243', '245', '246', '249', '257', '260', '268', '269', '270', '273',
       '275', '277', '278', '279', '283', '284', '285', '286', '287', '289',
       '293', '295', '297'],
      dtype='object')",False,1000,True,10,1.0,1.0,1f0f2bd7b7
54,./expes/v3_2021-01-29_di_300-prng-1-w1-p10,daily_issda-300,300,first-300,126,42,rng,num-start-31,31,536,classic,1001.1290469169616,False,,False,0.0,,,0,"Index(['2', '3', '8', '13', '17', '18', '19', '23', '26', '33',
       ...
       '278', '279', '282', '287', '291', '293', '295', '296', '299', '300'],
      dtype='object', length=126)",True,1000,True,10,0.0,0.0,4cfb77a8bb
55,./expes/v3_2021-01-29_di_300-prng-1-w1-p10,daily_issda-300,300,first-300,63,21,rng,num-start-61,61,536,classic,1002.2156517505646,False,,False,0.0,,,0,"Index(['11', '16', '20', '23', '30', '33', '44', '45', '46', '50', '56', '59',
       '65', '70', '71', '73', '76', '82', '99', '100', '107', '108', '117',
       '120', '121', '127', '133', '137', '147', '161', '174', '183', '190',
       '193', '194', '195', '198', '200', '206', '207', '209', '219', '228',
       '233', '234', '236', '243', '249', '250', '251', '254', '255', '258',
       '260', '265', '267', '273', '277', '286', '294', '297', '298', '300'],
      dtype='object')",True,1000,True,10,0.0,0.0,e28e8402f8
56,./expes/v3_2021-01-29_di_300-prng-1-w1-p10,daily_issda-300,300,first-300,119,39,rng,num-start-181,181,536,classic,8.839087963104248,True,,True,1.0,1.0,1.0,1,"Index(['3', '5', '10', '11', '14', '15', '26', '27', '28', '30',
       ...
       '284', '285', '286', '287', '289', '291', '293', '295', '296', '297'],
      dtype='object', length=119)",False,1000,True,10,1.0,1.0,ade257f6c7
57,./expes/v3_2021-01-29_di_300-prng-1-w1-p10,daily_issda-300,300,first-300,7,2,rng,num-start-31,31,536,classic,1.9874391555786133,True,,True,1.0,1.0,1.0,1,"Index(['15', '27', '128', '131', '184', '239', '272'], dtype='object')",False,1000,True,10,1.0,1.0,ca8461a2a2
58,./expes/v3_2021-01-29_di_300-prng-1-w1-p10,daily_issda-300,300,first-300,91,30,rng,num-start-121,121,536,classic,12.115849256515505,True,,True,1.0,1.0,1.0,1,"Index(['2', '8', '16', '20', '22', '23', '36', '37', '38', '44', '48', '58',
       '61', '65', '67', '68', '70', '71', '72', '73', '76', '82', '85', '86',
       '91', '92', '94', '96', '99', '100', '104', '109', '110', '116', '119',
       '120', '121', '122', '129', '130', '132', '133', '135', '142', '144',
       '149', '151', '152', '160', '161', '175', '176', '178', '180', '183',
       '184', '187', '188', '191', '192', '200', '203', '212', '218', '220',
       '221', '224', '226', '228', '230', '231', '236', '238', '250', '252',
       '255', '267', '268', '270', '273', '275', '279', '282', '284', '285',
       '289', '290', '292', '296', '298', '299'],
      dtype='object')",False,1000,True,10,1.0,1.0,c95c2158b0
59,./expes/v3_2021-01-29_di_300-prng-1-w1-p10,daily_issda-300,300,first-300,42,14,rng,num-start-231,231,536,classic,9.549108266830444,True,,True,1.0,1.0,1.0,1,"Index(['2', '5', '12', '14', '15', '16', '33', '49', '52', '53', '61', '69',
       '108', '111', '113', '114', '118', '119', '120', '131', '137', '149',
       '163', '177', '195', '196', '200', '214', '217', '222', '225', '229',
       '231', '236', '242', '250', '254', '271', '278', '284', '285', '292'],
      dtype='object')",False,1000,True,10,1.0,1.0,6d3d24fba0
60,./expes/v3_2021-01-29_di_300-prng-1-w1-p10,daily_issda-300,300,first-300,77,25,rng,num-start-231,231,536,classic,10.08726406097412,True,,True,1.0,1.0,1.0,1,"Index(['1', '8', '17', '21', '32', '33', '36', '38', '42', '46', '47', '48',
       '49', '51', '52', '56', '64', '67', '72', '73', '76', '77', '95', '96',
       '97', '98', '105', '112', '114', '123', '124', '125', '129', '133',
       '134', '145', '148', '149', '150', '155', '156', '159', '162', '163',
       '164', '167', '170', '171', '182', '184', '198', '205', '208', '216',
       '223', '227', '228', '230', '242', '244', '245', '249', '251', '253',
       '259', '261', '262', '267', '273', '277', '279', '281', '283', '287',
       '291', '295', '299'],
      dtype='object')",False,1000,True,10,1.0,1.0,9452cfb74e
61,./expes/v3_2021-01-29_di_300-prng-1-w1-p10,daily_issda-300,300,first-300,126,42,rng,num-start-91,91,536,classic,1003.236613035202,False,,False,0.0,,,0,"Index(['1', '4', '7', '8', '9', '10', '12', '15', '16', '19',
       ...
       '276', '277', '283', '284', '286', '287', '289', '292', '294', '295'],
      dtype='object', length=126)",True,1000,True,10,0.0,0.0,186b4264e3
62,./expes/v3_2021-01-29_di_300-prng-1-w1-p10,daily_issda-300,300,first-300,126,42,rng,num-start-71,71,536,classic,1002.525826215744,False,,False,0.0,,,0,"Index(['3', '4', '5', '6', '7', '8', '11', '12', '15', '16',
       ...
       '265', '268', '270', '274', '277', '278', '289', '294', '297', '299'],
      dtype='object', length=126)",True,1000,True,10,0.0,0.0,63caeed322
63,./expes/v3_2021-01-29_di_300-prng-1-w1-p10,daily_issda-300,300,first-300,84,28,rng,num-start-61,61,536,classic,1002.1012439727784,False,,False,0.0,,,0,"Index(['1', '7', '9', '12', '15', '19', '24', '28', '40', '42', '44', '46',
       '48', '49', '50', '60', '62', '65', '71', '75', '87', '89', '95', '97',
       '99', '100', '101', '102', '103', '108', '115', '126', '129', '134',
       '136', '137', '138', '140', '149', '150', '156', '157', '160', '164',
       '171', '172', '183', '185', '186', '192', '194', '195', '200', '204',
       '210', '212', '217', '218', '219', '221', '226', '228', '229', '232',
       '241', '242', '248', '249', '250', '251', '257', '258', '264', '265',
       '268', '269', '271', '276', '277', '284', '286', '289', '294', '295'],
      dtype='object')",True,1000,True,10,0.0,0.0,33080d0e02
64,./expes/v3_2021-01-29_di_300-prng-1-w1-p10,daily_issda-300,300,first-300,28,9,rng,num-start-41,41,536,classic,862.9302299022675,True,,True,1.0,1.0,1.0,1,"Index(['2', '5', '12', '14', '15', '16', '33', '49', '53', '61', '69', '108',
       '111', '118', '131', '137', '163', '195', '196', '200', '222', '229',
       '231', '242', '250', '254', '278', '292'],
      dtype='object')",False,1000,True,10,1.0,1.0,cd7f8367dc
65,./expes/v3_2021-01-29_di_300-prng-1-w1-p10,daily_issda-300,300,first-300,21,7,rng,num-start-141,141,536,classic,5.840892553329468,True,,True,1.0,1.0,1.0,1,"Index(['61', '63', '87', '90', '93', '94', '101', '102', '121', '123', '130',
       '136', '152', '167', '172', '230', '235', '246', '251', '253', '268'],
      dtype='object')",False,1000,True,10,1.0,1.0,9d8402e656
66,./expes/v3_2021-01-29_di_300-prng-1-w1-p10,daily_issda-300,300,first-300,91,30,rng,num-start-201,201,536,classic,8.987872123718262,True,,True,1.0,1.0,1.0,1,"Index(['4', '10', '11', '14', '22', '23', '24', '31', '32', '35', '42', '43',
       '45', '46', '47', '52', '53', '55', '63', '75', '79', '80', '83', '85',
       '89', '91', '92', '95', '100', '101', '102', '104', '110', '114', '118',
       '120', '121', '122', '127', '128', '133', '134', '135', '140', '142',
       '143', '144', '147', '148', '149', '150', '154', '156', '157', '159',
       '160', '165', '166', '168', '170', '173', '176', '183', '185', '191',
       '199', '203', '206', '211', '212', '217', '221', '224', '226', '232',
       '236', '237', '242', '243', '246', '260', '261', '266', '267', '274',
       '275', '281', '282', '286', '294', '299'],
      dtype='object')",False,1000,True,10,1.0,1.0,4623bc7301
67,./expes/v3_2021-01-29_di_300-prng-1-w1-p10,daily_issda-300,300,first-300,35,11,rng,num-start-181,181,536,classic,7.944984912872314,True,,True,1.0,1.0,1.0,1,"Index(['11', '14', '31', '35', '45', '47', '53', '55', '80', '85', '89', '92',
       '100', '110', '114', '121', '128', '134', '135', '140', '142', '149',
       '156', '159', '173', '185', '191', '199', '203', '206', '246', '260',
       '267', '275', '282'],
      dtype='object')",False,1000,True,10,1.0,1.0,8cbcea2796
68,./expes/v3_2021-01-29_di_300-prng-1-w1-p10,daily_issda-300,300,first-300,7,2,rng,num-start-241,241,536,classic,9.096795558929443,True,,True,1.0,1.0,1.0,1,"Index(['6', '9', '19', '81', '107', '123', '267'], dtype='object')",False,1000,True,10,1.0,1.0,2b124bdb0e
69,./expes/v3_2021-01-29_di_300-prng-1-w1-p10,daily_issda-300,300,first-300,21,7,rng,num-start-291,291,536,classic,10.974600553512571,True,,True,1.0,1.0,1.0,1,"Index(['8', '16', '37', '44', '65', '67', '72', '76', '96', '110', '116',
       '119', '133', '135', '142', '149', '151', '221', '224', '231', '273'],
      dtype='object')",False,1000,True,10,1.0,1.0,36767b401c
70,./expes/v3_2021-01-29_di_300-prng-1-w1-p10,daily_issda-300,300,first-300,126,42,rng,num-start-41,41,536,classic,1001.524586200714,False,,False,0.0,,,0,"Index(['1', '3', '5', '6', '8', '9', '11', '16', '19', '20',
       ...
       '271', '276', '283', '284', '287', '289', '290', '295', '296', '299'],
      dtype='object', length=126)",True,1000,True,10,0.0,0.0,f2642e238e
71,./expes/v3_2021-01-29_di_300-prng-1-w1-p10,daily_issda-300,300,first-300,77,25,rng,num-start-151,151,536,classic,7.0383617877960205,True,,True,1.0,1.0,1.0,1,"Index(['7', '11', '16', '20', '23', '30', '33', '37', '44', '45', '46', '50',
       '56', '59', '65', '70', '71', '73', '76', '77', '82', '99', '100',
       '102', '107', '108', '113', '117', '120', '121', '125', '127', '133',
       '137', '146', '147', '152', '159', '161', '174', '176', '177', '183',
       '190', '193', '194', '195', '198', '200', '206', '207', '209', '219',
       '228', '233', '234', '236', '243', '249', '250', '251', '254', '255',
       '258', '260', '262', '265', '267', '271', '273', '277', '280', '286',
       '294', '297', '298', '300'],
      dtype='object')",False,1000,True,10,1.0,1.0,f305ccdd43
72,./expes/v3_2021-01-29_di_300-prng-1-w1-p10,daily_issda-300,300,first-300,77,25,rng,num-start-121,121,536,classic,11.566340684890749,True,,True,1.0,1.0,1.0,1,"Index(['1', '8', '17', '21', '32', '33', '36', '38', '42', '46', '47', '48',
       '49', '51', '52', '56', '64', '67', '72', '73', '76', '77', '95', '96',
       '97', '98', '105', '112', '114', '123', '124', '125', '129', '133',
       '134', '145', '148', '149', '150', '155', '156', '159', '162', '163',
       '164', '167', '170', '171', '182', '184', '198', '205', '208', '216',
       '223', '227', '228', '230', '242', '244', '245', '249', '251', '253',
       '259', '261', '262', '267', '273', '277', '279', '281', '283', '287',
       '291', '295', '299'],
      dtype='object')",False,1000,True,10,1.0,1.0,10f7e23d8a
73,./expes/v3_2021-01-29_di_300-prng-1-w1-p10,daily_issda-300,300,first-300,35,11,rng,num-start-1,1,536,classic,10.578014850616457,False,,True,0.5379436042499178,0.5231092901262601,0.5595684694411991,100,"Index(['3', '8', '17', '18', '23', '39', '69', '72', '83', '90', '106', '123',
       '128', '135', '143', '146', '156', '168', '182', '185', '186', '193',
       '196', '216', '220', '226', '234', '237', '248', '251', '252', '267',
       '293', '296', '299'],
      dtype='object')",False,1000,True,10,1.0,1.0,390aaf7b32
74,./expes/v3_2021-01-29_di_300-prng-1-w1-p10,daily_issda-300,300,first-300,35,11,rng,num-start-121,121,536,classic,5.0281291007995605,True,,True,1.0,1.0,1.0,1,"Index(['3', '8', '16', '19', '22', '31', '33', '44', '47', '49', '73', '81',
       '95', '96', '98', '101', '120', '124', '151', '156', '168', '203',
       '226', '229', '232', '238', '239', '244', '256', '261', '263', '266',
       '271', '276', '287'],
      dtype='object')",False,1000,True,10,1.0,1.0,fc91c8e951
75,./expes/v3_2021-01-29_di_300-prng-1-w1-p10,daily_issda-300,300,first-300,140,46,rng,num-start-141,141,536,classic,6.586583614349365,True,,True,1.0,1.0,1.0,1,"Index(['1', '2', '3', '4', '5', '7', '8', '9', '10', '13',
       ...
       '277', '284', '285', '287', '288', '290', '294', '295', '297', '300'],
      dtype='object', length=140)",False,1000,True,10,1.0,1.0,4a0e1649b3
76,./expes/v3_2021-01-29_di_300-prng-1-w1-p10,daily_issda-300,300,first-300,77,25,rng,num-start-101,101,536,classic,9.225330114364624,True,,True,1.0,1.0,1.0,1,"Index(['20', '21', '24', '25', '26', '30', '31', '32', '33', '36', '38', '40',
       '42', '45', '47', '49', '50', '53', '61', '64', '69', '74', '78', '85',
       '93', '97', '106', '110', '114', '115', '124', '125', '128', '148',
       '149', '154', '158', '161', '166', '175', '176', '180', '186', '188',
       '191', '203', '204', '215', '216', '218', '219', '223', '230', '233',
       '239', '251', '254', '255', '260', '263', '269', '273', '275', '277',
       '281', '283', '286', '287', '289', '290', '293', '294', '295', '296',
       '298', '299', '300'],
      dtype='object')",False,1000,True,10,1.0,1.0,0413ed3031
77,./expes/v3_2021-01-29_di_300-prng-1-w1-p10,daily_issda-300,300,first-300,14,4,rng,num-start-51,51,536,classic,2.978025197982788,True,,True,1.0,1.0,1.0,1,"Index(['63', '93', '94', '101', '102', '123', '136', '152', '172', '230',
       '235', '246', '251', '253'],
      dtype='object')",False,1000,True,10,1.0,1.0,e8b078adc0
78,./expes/v3_2021-01-29_di_300-prng-1-w1-p10,daily_issda-300,300,first-300,126,42,rng,num-start-161,161,536,classic,7.963612556457519,True,,True,1.0,1.0,1.0,1,"Index(['1', '3', '5', '6', '8', '9', '11', '16', '19', '20',
       ...
       '271', '276', '283', '284', '287', '289', '290', '295', '296', '299'],
      dtype='object', length=126)",False,1000,True,10,1.0,1.0,4b278db834
79,./expes/v3_2021-01-29_di_300-prng-1-w1-p10,daily_issda-300,300,first-300,140,46,rng,num-start-71,71,536,classic,1002.4707880020142,False,,False,0.0,,,0,"Index(['1', '2', '3', '5', '7', '10', '12', '15', '17', '18',
       ...
       '274', '277', '279', '280', '281', '282', '287', '289', '294', '297'],
      dtype='object', length=140)",True,1000,True,10,0.0,0.0,f4955e4322
80,./expes/v3_2021-01-29_di_300-prng-1-w1-p10,daily_issda-300,300,first-300,14,4,rng,num-start-171,171,536,classic,6.861772537231445,True,,True,1.0,1.0,1.0,1,"Index(['19', '29', '44', '47', '82', '87', '109', '129', '158', '185', '202',
       '221', '261', '298'],
      dtype='object')",False,1000,True,10,1.0,1.0,686df33dd2
81,./expes/v3_2021-01-29_di_300-prng-1-w1-p10,daily_issda-300,300,first-300,56,18,rng,num-start-101,101,536,classic,6.789944410324097,True,,True,1.0,1.0,1.0,1,"Index(['3', '10', '14', '26', '27', '30', '32', '36', '42', '57', '60', '64',
       '71', '72', '73', '78', '90', '101', '108', '110', '123', '128', '130',
       '137', '143', '149', '156', '159', '163', '170', '173', '182', '185',
       '188', '191', '192', '197', '206', '208', '210', '213', '215', '222',
       '243', '245', '257', '260', '268', '270', '273', '277', '283', '286',
       '287', '293', '297'],
      dtype='object')",False,1000,True,10,1.0,1.0,0c06f8d7e4
82,./expes/v3_2021-01-29_di_300-prng-1-w1-p10,daily_issda-300,300,first-300,42,14,rng,num-start-211,211,536,classic,8.902053356170654,True,,True,1.0,1.0,1.0,1,"Index(['3', '8', '16', '19', '22', '31', '33', '43', '44', '47', '49', '73',
       '81', '95', '96', '98', '101', '120', '124', '131', '143', '151', '156',
       '162', '168', '203', '209', '226', '229', '232', '235', '238', '239',
       '244', '256', '261', '263', '266', '271', '276', '283', '287'],
      dtype='object')",False,1000,True,10,1.0,1.0,4c9019a6ff
83,./expes/v3_2021-01-29_di_300-prng-1-w1-p10,daily_issda-300,300,first-300,91,30,rng,num-start-161,161,536,classic,7.376641035079956,True,,True,1.0,1.0,1.0,1,"Index(['1', '7', '9', '10', '12', '15', '19', '24', '28', '40', '42', '44',
       '46', '48', '49', '50', '60', '62', '64', '65', '71', '75', '87', '89',
       '95', '97', '99', '100', '101', '102', '103', '108', '115', '126',
       '129', '131', '132', '134', '136', '137', '138', '140', '149', '150',
       '156', '157', '160', '164', '169', '171', '172', '183', '185', '186',
       '192', '194', '195', '200', '204', '210', '211', '212', '216', '217',
       '218', '219', '221', '226', '228', '229', '232', '241', '242', '248',
       '249', '250', '251', '257', '258', '264', '265', '268', '269', '271',
       '276', '277', '284', '286', '289', '294', '295'],
      dtype='object')",False,1000,True,10,1.0,1.0,cf4ae878e1
84,./expes/v3_2021-01-29_di_300-prng-1-w1-p10,daily_issda-300,300,first-300,77,25,rng,num-start-71,71,536,classic,1002.5286030769348,False,,False,0.0,,,0,"Index(['2', '3', '4', '5', '9', '13', '18', '21', '22', '23', '27', '28', '29',
       '33', '36', '42', '43', '44', '45', '48', '53', '57', '58', '63', '68',
       '69', '71', '72', '75', '77', '81', '83', '87', '89', '96', '99', '102',
       '103', '104', '105', '108', '115', '122', '137', '138', '139', '144',
       '150', '170', '172', '174', '175', '192', '194', '195', '197', '204',
       '207', '211', '216', '217', '218', '232', '238', '252', '255', '257',
       '258', '259', '260', '276', '277', '284', '285', '294', '295', '297'],
      dtype='object')",True,1000,True,10,0.0,0.0,942641c9d6
85,./expes/v3_2021-01-29_di_300-prng-1-w1-p10,daily_issda-300,300,first-300,84,28,rng,num-start-51,51,536,classic,1001.8360347747804,False,,False,0.0,,,0,"Index(['1', '7', '9', '12', '15', '19', '24', '28', '40', '42', '44', '46',
       '48', '49', '50', '60', '62', '65', '71', '75', '87', '89', '95', '97',
       '99', '100', '101', '102', '103', '108', '115', '126', '129', '134',
       '136', '137', '138', '140', '149', '150', '156', '157', '160', '164',
       '171', '172', '183', '185', '186', '192', '194', '195', '200', '204',
       '210', '212', '217', '218', '219', '221', '226', '228', '229', '232',
       '241', '242', '248', '249', '250', '251', '257', '258', '264', '265',
       '268', '269', '271', '276', '277', '284', '286', '289', '294', '295'],
      dtype='object')",True,1000,True,10,0.0,0.0,5c7c907bf0
86,./expes/v3_2021-01-29_di_300-prng-1-w1-p10,daily_issda-300,300,first-300,140,46,rng,num-start-201,201,536,classic,9.642585754394531,True,,True,1.0,1.0,1.0,1,"Index(['1', '2', '3', '4', '5', '7', '8', '9', '10', '13',
       ...
       '277', '284', '285', '287', '288', '290', '294', '295', '297', '300'],
      dtype='object', length=140)",False,1000,True,10,1.0,1.0,6235b0072c
87,./expes/v3_2021-01-29_di_300-prng-1-w1-p10,daily_issda-300,300,first-300,49,16,rng,num-start-81,81,536,classic,6.120277166366577,True,,True,1.0,1.0,1.0,1,"Index(['6', '15', '36', '38', '43', '49', '55', '58', '61', '63', '77', '83',
       '85', '93', '100', '105', '112', '115', '127', '131', '134', '135',
       '139', '141', '145', '150', '156', '162', '173', '184', '185', '187',
       '196', '202', '204', '207', '225', '231', '232', '239', '249', '250',
       '257', '264', '265', '270', '283', '297', '299'],
      dtype='object')",False,1000,True,10,1.0,1.0,cd630efa90
88,./expes/v3_2021-01-29_di_300-prng-1-w1-p10,daily_issda-300,300,first-300,77,25,rng,num-start-221,221,536,classic,9.56076192855835,True,,True,1.0,1.0,1.0,1,"Index(['3', '5', '10', '14', '26', '27', '28', '30', '32', '33', '36', '42',
       '49', '57', '60', '64', '67', '71', '72', '73', '78', '88', '90', '99',
       '101', '102', '108', '110', '123', '128', '129', '130', '133', '137',
       '140', '142', '143', '149', '156', '158', '159', '163', '164', '170',
       '171', '172', '173', '179', '182', '185', '188', '191', '192', '197',
       '206', '208', '210', '213', '215', '222', '240', '243', '245', '257',
       '260', '268', '270', '273', '277', '283', '284', '285', '286', '287',
       '293', '295', '297'],
      dtype='object')",False,1000,True,10,1.0,1.0,c92c7be1ca
89,./expes/v3_2021-01-29_di_300-prng-1-w1-p10,daily_issda-300,300,first-300,21,7,rng,num-start-201,201,536,classic,7.991812944412231,True,,True,1.0,1.0,1.0,1,"Index(['61', '63', '87', '90', '93', '94', '101', '102', '121', '123', '130',
       '136', '152', '167', '172', '230', '235', '246', '251', '253', '268'],
      dtype='object')",False,1000,True,10,1.0,1.0,48ad2fe0a8
90,./expes/v3_2021-01-29_di_300-prng-1-w1-p10,daily_issda-300,300,first-300,126,42,rng,num-start-161,161,536,classic,7.810179471969604,True,,True,1.0,1.0,1.0,1,"Index(['1', '2', '3', '5', '7', '10', '12', '15', '17', '19',
       ...
       '272', '273', '274', '277', '279', '280', '282', '289', '294', '297'],
      dtype='object', length=126)",False,1000,True,10,1.0,1.0,476a2501ec
91,./expes/v3_2021-01-29_di_300-prng-1-w1-p10,daily_issda-300,300,first-300,91,30,rng,num-start-181,181,536,classic,9.253112077713013,True,,True,1.0,1.0,1.0,1,"Index(['2', '4', '9', '12', '14', '23', '24', '35', '37', '38', '39', '40',
       '44', '47', '51', '52', '54', '56', '59', '62', '66', '69', '71', '76',
       '82', '88', '90', '94', '99', '103', '104', '107', '108', '120', '126',
       '134', '135', '138', '141', '146', '149', '151', '154', '155', '158',
       '160', '167', '168', '178', '189', '193', '199', '200', '202', '203',
       '207', '209', '211', '213', '216', '217', '220', '224', '225', '226',
       '231', '232', '233', '234', '235', '237', '238', '239', '240', '244',
       '246', '253', '257', '258', '259', '262', '267', '271', '278', '280',
       '281', '292', '293', '296', '297', '300'],
      dtype='object')",False,1000,True,10,1.0,1.0,c05fc6c868
92,./expes/v3_2021-01-29_di_300-prng-1-w1-p10,daily_issda-300,300,first-300,42,14,rng,num-start-271,271,536,classic,11.375701427459717,True,,True,1.0,1.0,1.0,1,"Index(['4', '59', '61', '63', '87', '90', '93', '94', '101', '102', '103',
       '104', '111', '113', '121', '122', '123', '130', '136', '139', '140',
       '152', '154', '156', '167', '172', '176', '178', '188', '208', '230',
       '235', '246', '251', '253', '260', '268', '270', '276', '283', '294',
       '295'],
      dtype='object')",False,1000,True,10,1.0,1.0,bf3c59b20d
93,./expes/v3_2021-01-29_di_300-prng-1-w1-p10,daily_issda-300,300,first-300,35,11,rng,num-start-111,111,536,classic,4.557493686676025,True,,True,1.0,1.0,1.0,1,"Index(['4', '21', '23', '27', '33', '42', '45', '53', '57', '68', '71', '81',
       '87', '96', '105', '108', '115', '122', '137', '144', '150', '172',
       '174', '175', '192', '195', '197', '204', '216', '217', '232', '238',
       '258', '260', '284'],
      dtype='object')",False,1000,True,10,1.0,1.0,38a04b4695
94,./expes/v3_2021-01-29_di_300-prng-1-w1-p10,daily_issda-300,300,first-300,7,2,rng,num-start-41,41,536,classic,1.886716365814209,True,,True,1.0,1.0,1.0,1,"Index(['117', '146', '186', '214', '229', '241', '247'], dtype='object')",False,1000,True,10,1.0,1.0,f0d23e568a
95,./expes/v3_2021-01-29_di_300-prng-1-w1-p10,daily_issda-300,300,first-300,119,39,rng,num-start-231,231,536,classic,10.600049018859863,True,,True,1.0,1.0,1.0,1,"Index(['3', '5', '10', '11', '14', '15', '26', '27', '28', '30',
       ...
       '284', '285', '286', '287', '289', '291', '293', '295', '296', '297'],
      dtype='object', length=119)",False,1000,True,10,1.0,1.0,464c3ef1ef
96,./expes/v3_2021-01-29_di_300-prng-1-w1-p10,daily_issda-300,300,first-300,84,28,rng,num-start-161,161,536,classic,7.196370363235474,True,,True,1.0,1.0,1.0,1,"Index(['2', '3', '4', '5', '9', '10', '13', '18', '21', '22', '23', '27', '28',
       '29', '33', '36', '42', '43', '44', '45', '48', '53', '57', '58', '63',
       '68', '69', '71', '72', '75', '77', '81', '83', '87', '89', '96', '99',
       '102', '103', '104', '105', '108', '115', '122', '137', '138', '139',
       '144', '150', '170', '172', '174', '175', '178', '188', '192', '194',
       '195', '197', '204', '206', '207', '211', '216', '217', '218', '232',
       '238', '252', '255', '257', '258', '259', '260', '268', '276', '277',
       '284', '285', '290', '294', '295', '297', '300'],
      dtype='object')",False,1000,True,10,1.0,1.0,06583c0f4c
97,./expes/v3_2021-01-29_di_300-prng-1-w1-p10,daily_issda-300,300,first-300,126,42,rng,num-start-281,281,536,classic,13.474066734313965,True,,True,1.0,1.0,1.0,1,"Index(['4', '5', '10', '11', '14', '19', '21', '22', '23', '24',
       ...
       '271', '274', '275', '280', '281', '282', '286', '293', '294', '299'],
      dtype='object', length=126)",False,1000,True,10,1.0,1.0,773867f0c1
98,./expes/v3_2021-01-29_di_300-prng-1-w1-p10,daily_issda-300,300,first-300,70,23,rng,num-start-151,151,536,classic,6.75249719619751,True,,True,1.0,1.0,1.0,1,"Index(['1', '3', '8', '9', '16', '19', '22', '27', '31', '33', '35', '36',
       '38', '43', '44', '45', '47', '49', '56', '61', '73', '81', '95', '96',
       '98', '101', '102', '108', '110', '118', '120', '124', '131', '139',
       '143', '148', '149', '151', '156', '160', '162', '168', '171', '173',
       '193', '198', '203', '204', '206', '209', '210', '215', '226', '229',
       '232', '235', '238', '239', '241', '244', '256', '261', '263', '266',
       '271', '276', '283', '287', '289', '290'],
      dtype='object')",False,1000,True,10,1.0,1.0,a52469f030
99,./expes/v3_2021-01-29_di_300-prng-1-w1-p10,daily_issda-300,300,first-300,98,32,rng,num-start-121,121,536,classic,12.034092664718628,True,,True,1.0,1.0,1.0,1,"Index(['1', '2', '3', '5', '7', '10', '12', '15', '19', '24', '27', '30', '34',
       '37', '41', '47', '48', '53', '56', '58', '61', '65', '68', '72', '75',
       '76', '77', '81', '82', '83', '85', '86', '91', '93', '94', '95', '101',
       '102', '105', '107', '108', '111', '126', '127', '128', '129', '131',
       '132', '136', '142', '144', '149', '152', '153', '155', '157', '159',
       '160', '161', '162', '163', '170', '174', '175', '177', '182', '184',
       '185', '186', '188', '189', '191', '193', '195', '197', '200', '207',
       '209', '213', '215', '222', '228', '232', '237', '239', '241', '242',
       '247', '248', '263', '269', '272', '277', '279', '280', '282', '294',
       '297'],
      dtype='object')",False,1000,True,10,1.0,1.0,ba53210b57
100,./expes/v3_2021-01-29_di_300-prng-1-w1-p10,daily_issda-300,300,first-300,42,14,rng,num-start-51,51,536,classic,22.70233917236328,True,,True,1.0,1.0,1.0,1,"Index(['6', '9', '19', '29', '34', '41', '60', '76', '81', '106', '107', '115',
       '118', '119', '123', '135', '144', '157', '161', '162', '174', '177',
       '182', '183', '185', '189', '201', '208', '215', '216', '225', '231',
       '234', '237', '239', '251', '252', '262', '267', '290', '292', '296'],
      dtype='object')",False,1000,True,10,1.0,1.0,58449313d3
101,./expes/v3_2021-01-29_di_300-prng-1-w1-p10,daily_issda-300,300,first-300,14,4,rng,num-start-11,11,536,classic,1000.4908752441406,False,,False,0.0,,,0,"Index(['19', '29', '44', '47', '82', '87', '109', '129', '158', '185', '202',
       '221', '261', '298'],
      dtype='object')",True,1000,True,10,0.0,0.0,bb135f63c6
102,./expes/v3_2021-01-29_di_300-prng-1-w1-p10,daily_issda-300,300,first-300,21,7,rng,num-start-191,191,536,classic,7.916838645935059,True,,True,1.0,1.0,1.0,1,"Index(['7', '15', '27', '53', '58', '81', '94', '111', '127', '128', '131',
       '144', '184', '191', '195', '209', '239', '241', '272', '279', '294'],
      dtype='object')",False,1000,True,10,1.0,1.0,72a0f762c2
103,./expes/v3_2021-01-29_di_300-prng-1-w1-p10,daily_issda-300,300,first-300,119,39,rng,num-start-1,1,536,classic,10.297629356384276,False,,True,0.318406798123478,0.296449520224758,0.340619526604213,100,"Index(['4', '6', '7', '8', '11', '12', '15', '16', '17', '19',
       ...
       '282', '283', '287', '292', '293', '294', '296', '297', '298', '300'],
      dtype='object', length=119)",False,1000,True,10,1.0,1.0,8a899b8e7a
104,./expes/v3_2021-01-29_di_300-prng-1-w1-p10,daily_issda-300,300,first-300,70,23,rng,num-start-71,71,536,classic,1002.6995639801024,False,,False,0.0,,,0,"Index(['4', '11', '14', '23', '24', '31', '35', '42', '45', '46', '47', '53',
       '55', '75', '80', '83', '85', '89', '92', '95', '100', '101', '104',
       '110', '114', '120', '121', '127', '128', '133', '134', '135', '140',
       '142', '144', '148', '149', '150', '154', '156', '157', '159', '160',
       '173', '176', '183', '185', '191', '199', '203', '206', '212', '217',
       '221', '224', '226', '232', '237', '242', '243', '246', '260', '261',
       '266', '267', '274', '275', '281', '282', '294'],
      dtype='object')",True,1000,True,10,0.0,0.0,5921340c70
105,./expes/v3_2021-01-29_di_300-prng-1-w1-p10,daily_issda-300,300,first-300,140,46,rng,num-start-101,101,536,classic,273.306325674057,True,,True,1.0,1.0,1.0,1,"Index(['1', '2', '3', '4', '5', '7', '8', '9', '10', '13',
       ...
       '277', '284', '285', '287', '288', '290', '294', '295', '297', '300'],
      dtype='object', length=140)",False,1000,True,10,1.0,1.0,bc9a3f0c32
106,./expes/v3_2021-01-29_di_300-prng-1-w1-p10,daily_issda-300,300,first-300,119,39,rng,num-start-201,201,536,classic,9.592519521713257,True,,True,1.0,1.0,1.0,1,"Index(['1', '6', '10', '11', '13', '15', '17', '18', '22', '35',
       ...
       '274', '280', '283', '284', '287', '288', '292', '293', '297', '299'],
      dtype='object', length=119)",False,1000,True,10,1.0,1.0,08983ec1da
107,./expes/v3_2021-01-29_di_300-prng-1-w1-p10,daily_issda-300,300,first-300,56,18,rng,num-start-121,121,536,classic,5.388750791549683,True,,True,1.0,1.0,1.0,1,"Index(['6', '15', '36', '38', '43', '46', '48', '49', '53', '55', '58', '59',
       '61', '63', '77', '83', '85', '93', '100', '105', '112', '115', '127',
       '131', '134', '135', '139', '141', '143', '144', '145', '150', '156',
       '162', '173', '184', '185', '187', '196', '202', '204', '207', '211',
       '225', '231', '232', '239', '249', '250', '257', '264', '265', '270',
       '283', '297', '299'],
      dtype='object')",False,1000,True,10,1.0,1.0,e0f7104125
108,./expes/v3_2021-01-29_di_300-prng-1-w1-p10,daily_issda-300,300,first-300,35,11,rng,num-start-251,251,536,classic,10.28776788711548,True,,True,1.0,1.0,1.0,1,"Index(['7', '8', '16', '22', '33', '34', '67', '69', '78', '82', '99', '119',
       '120', '122', '133', '138', '155', '188', '190', '199', '200', '203',
       '204', '219', '228', '241', '243', '244', '268', '277', '279', '282',
       '283', '296', '298'],
      dtype='object')",False,1000,True,10,1.0,1.0,c800eb38f6
109,./expes/v3_2021-01-29_di_300-prng-1-w1-p10,daily_issda-300,300,first-300,105,35,rng,num-start-51,51,536,classic,1001.892763376236,False,,False,0.0,,,0,"Index(['3', '4', '5', '6', '7', '8', '11', '12', '15', '16',
       ...
       '258', '262', '265', '268', '270', '277', '278', '289', '297', '299'],
      dtype='object', length=105)",True,1000,True,10,0.0,0.0,e44417362f
110,./expes/v3_2021-01-29_di_300-prng-1-w1-p10,daily_issda-300,300,first-300,49,16,rng,num-start-51,51,536,classic,1001.7506239414216,False,,False,0.0,,,0,"Index(['2', '5', '12', '14', '15', '16', '33', '49', '52', '53', '61', '62',
       '69', '96', '98', '108', '111', '113', '114', '118', '119', '120',
       '131', '137', '149', '152', '163', '171', '177', '195', '196', '200',
       '214', '217', '222', '225', '229', '231', '236', '242', '250', '254',
       '257', '260', '271', '278', '284', '285', '292'],
      dtype='object')",True,1000,True,10,0.0,0.0,5a00a2bc7d
111,./expes/v3_2021-01-29_di_300-prng-1-w1-p10,daily_issda-300,300,first-300,84,28,rng,num-start-141,141,536,classic,6.460350275039673,True,,True,1.0,1.0,1.0,1,"Index(['1', '3', '6', '8', '9', '11', '16', '19', '22', '27', '31', '33', '35',
       '36', '38', '43', '44', '45', '47', '49', '52', '56', '60', '61', '68',
       '69', '73', '81', '91', '95', '96', '97', '98', '101', '102', '108',
       '109', '110', '118', '120', '124', '127', '131', '139', '143', '148',
       '149', '151', '156', '160', '162', '168', '171', '173', '193', '197',
       '198', '203', '204', '206', '209', '210', '215', '216', '226', '229',
       '230', '232', '235', '238', '239', '241', '244', '250', '256', '261',
       '263', '266', '271', '276', '283', '287', '289', '290'],
      dtype='object')",False,1000,True,10,1.0,1.0,d71020a432
112,./expes/v3_2021-01-29_di_300-prng-1-w1-p10,daily_issda-300,300,first-300,63,21,rng,num-start-171,171,536,classic,8.01106595993042,True,,True,1.0,1.0,1.0,1,"Index(['6', '15', '36', '38', '43', '46', '48', '49', '53', '55', '58', '59',
       '61', '63', '77', '83', '85', '87', '93', '100', '105', '112', '115',
       '127', '131', '134', '135', '139', '141', '143', '144', '145', '150',
       '156', '159', '162', '173', '184', '185', '187', '196', '198', '202',
       '204', '207', '211', '218', '225', '231', '232', '234', '239', '246',
       '249', '250', '257', '264', '265', '270', '274', '283', '297', '299'],
      dtype='object')",False,1000,True,10,1.0,1.0,cb9b05ece8
113,./expes/v3_2021-01-29_di_300-prng-1-w1-p10,daily_issda-300,300,first-300,77,25,rng,num-start-281,281,536,classic,11.850409984588625,True,,True,1.0,1.0,1.0,1,"Index(['4', '11', '14', '23', '24', '31', '32', '35', '42', '45', '46', '47',
       '52', '53', '55', '75', '80', '83', '85', '89', '92', '95', '100',
       '101', '102', '104', '110', '114', '118', '120', '121', '127', '128',
       '133', '134', '135', '140', '142', '144', '148', '149', '150', '154',
       '156', '157', '159', '160', '165', '166', '173', '176', '183', '185',
       '191', '199', '203', '206', '212', '217', '221', '224', '226', '232',
       '237', '242', '243', '246', '260', '261', '266', '267', '274', '275',
       '281', '282', '286', '294'],
      dtype='object')",False,1000,True,10,1.0,1.0,a3f7f7beb6
114,./expes/v3_2021-01-29_di_300-prng-1-w1-p10,daily_issda-300,300,first-300,140,46,rng,num-start-71,71,536,classic,1002.4032607078552,False,,False,0.0,,,0,"Index(['4', '5', '10', '11', '14', '17', '19', '21', '22', '23',
       ...
       '274', '275', '280', '281', '282', '286', '290', '293', '294', '299'],
      dtype='object', length=140)",True,1000,True,10,0.0,0.0,3989d0b788
115,./expes/v3_2021-01-29_di_300-prng-1-w1-p10,daily_issda-300,300,first-300,28,9,rng,num-start-251,251,536,classic,10.508358716964722,True,,True,1.0,1.0,1.0,1,"Index(['8', '17', '18', '23', '39', '72', '83', '90', '106', '128', '135',
       '143', '146', '156', '168', '182', '185', '196', '216', '220', '234',
       '237', '248', '251', '252', '267', '293', '296'],
      dtype='object')",False,1000,True,10,1.0,1.0,3efa8ef5ef
116,./expes/v3_2021-01-29_di_300-prng-1-w1-p10,daily_issda-300,300,first-300,140,46,rng,num-start-41,41,536,classic,1001.4051795005798,False,,False,0.0,,,0,"Index(['2', '3', '8', '13', '17', '18', '19', '23', '24', '26',
       ...
       '278', '279', '282', '287', '291', '293', '295', '296', '299', '300'],
      dtype='object', length=140)",True,1000,True,10,0.0,0.0,6141cc8845
117,./expes/v3_2021-01-29_di_300-prng-1-w1-p10,daily_issda-300,300,first-300,84,28,rng,num-start-101,101,536,classic,7.855931282043457,True,,True,1.0,1.0,1.0,1,"Index(['6', '8', '9', '10', '19', '22', '25', '29', '33', '34', '38', '41',
       '48', '52', '60', '72', '73', '76', '78', '81', '85', '89', '92', '101',
       '106', '107', '115', '118', '119', '121', '123', '134', '135', '140',
       '144', '147', '148', '152', '157', '159', '160', '161', '162', '163',
       '173', '174', '177', '182', '183', '185', '189', '193', '199', '200',
       '201', '203', '206', '208', '215', '216', '225', '227', '231', '234',
       '237', '239', '240', '243', '244', '251', '252', '253', '254', '257',
       '258', '262', '267', '272', '274', '279', '285', '290', '292', '296'],
      dtype='object')",False,1000,True,10,1.0,1.0,5e94dc0f70
118,./expes/v3_2021-01-29_di_300-prng-1-w1-p10,daily_issda-300,300,first-300,14,4,rng,num-start-231,231,536,classic,8.481825351715088,True,,True,1.0,1.0,1.0,1,"Index(['15', '27', '58', '81', '127', '128', '131', '184', '191', '195', '239',
       '241', '272', '279'],
      dtype='object')",False,1000,True,10,1.0,1.0,48d8c47d8d
119,./expes/v3_2021-01-29_di_300-prng-1-w1-p10,daily_issda-300,300,first-300,105,35,rng,num-start-241,241,536,classic,10.969055414199827,True,,True,1.0,1.0,1.0,1,"Index(['3', '4', '5', '10', '41', '45', '46', '48', '52', '59',
       ...
       '281', '283', '285', '286', '287', '291', '293', '294', '295', '297'],
      dtype='object', length=105)",False,1000,True,10,1.0,1.0,987de55868
120,./expes/v3_2021-01-29_di_300-prng-1-w1-p10,daily_issda-300,300,first-300,84,28,rng,num-start-221,221,536,classic,10.103013515472412,True,,True,1.0,1.0,1.0,1,"Index(['1', '6', '10', '14', '15', '16', '17', '19', '23', '27', '31', '32',
       '39', '40', '43', '45', '47', '53', '58', '59', '70', '74', '75', '84',
       '88', '92', '99', '103', '105', '108', '113', '114', '115', '117',
       '121', '130', '134', '138', '141', '142', '159', '161', '172', '173',
       '174', '180', '183', '186', '187', '189', '191', '192', '196', '197',
       '198', '199', '206', '208', '215', '217', '219', '221', '222', '226',
       '228', '236', '241', '243', '245', '248', '257', '260', '261', '262',
       '263', '266', '271', '277', '278', '282', '285', '286', '294', '296'],
      dtype='object')",False,1000,True,10,1.0,1.0,2e383909a0
121,./expes/v3_2021-01-29_di_300-prng-1-w1-p10,daily_issda-300,300,first-300,126,42,rng,num-start-51,51,536,classic,1001.6509618759156,False,,False,0.0,,,0,"Index(['2', '3', '8', '13', '17', '18', '19', '23', '26', '33',
       ...
       '278', '279', '282', '287', '291', '293', '295', '296', '299', '300'],
      dtype='object', length=126)",True,1000,True,10,0.0,0.0,acd0195f64
122,./expes/v3_2021-01-29_di_300-prng-1-w1-p10,daily_issda-300,300,first-300,14,4,rng,num-start-61,61,536,classic,2.3765358924865723,True,,True,1.0,1.0,1.0,1,"Index(['6', '9', '19', '29', '60', '76', '81', '107', '123', '174', '183',
       '189', '239', '267'],
      dtype='object')",False,1000,True,10,1.0,1.0,14f91dcfad
123,./expes/v3_2021-01-29_di_300-prng-1-w1-p10,daily_issda-300,300,first-300,112,37,rng,num-start-281,281,536,classic,12.245877265930176,True,,True,1.0,1.0,1.0,1,"Index(['1', '3', '5', '6', '8', '9', '11', '16', '19', '22',
       ...
       '271', '276', '283', '284', '287', '289', '290', '295', '296', '299'],
      dtype='object', length=112)",False,1000,True,10,1.0,1.0,f34f69ee87
124,./expes/v3_2021-01-29_di_300-prng-1-w1-p10,daily_issda-300,300,first-300,91,30,rng,num-start-171,171,536,classic,7.29387640953064,True,,True,1.0,1.0,1.0,1,"Index(['2', '4', '9', '12', '14', '23', '24', '35', '37', '38', '39', '40',
       '44', '47', '51', '52', '54', '56', '59', '62', '66', '69', '71', '76',
       '82', '88', '90', '94', '99', '103', '104', '107', '108', '120', '126',
       '134', '135', '138', '141', '146', '149', '151', '154', '155', '158',
       '160', '167', '168', '178', '189', '193', '199', '200', '202', '203',
       '207', '209', '211', '213', '216', '217', '220', '224', '225', '226',
       '231', '232', '233', '234', '235', '237', '238', '239', '240', '244',
       '246', '253', '257', '258', '259', '262', '267', '271', '278', '280',
       '281', '292', '293', '296', '297', '300'],
      dtype='object')",False,1000,True,10,1.0,1.0,70a5fd1710
125,./expes/v3_2021-01-29_di_300-prng-1-w1-p10,daily_issda-300,300,first-300,119,39,rng,num-start-41,41,536,classic,1001.415643453598,False,,False,0.0,,,0,"Index(['1', '3', '5', '11', '13', '15', '16', '17', '19', '21',
       ...
       '270', '272', '279', '283', '286', '287', '288', '291', '295', '298'],
      dtype='object', length=119)",True,1000,True,10,0.0,0.0,54db3b731c
126,./expes/v3_2021-01-29_di_300-prng-1-w1-p10,daily_issda-300,300,first-300,56,18,rng,num-start-151,151,536,classic,7.659273862838745,True,,True,1.0,1.0,1.0,1,"Index(['4', '52', '59', '61', '63', '68', '75', '83', '87', '90', '93', '94',
       '98', '101', '102', '103', '104', '106', '111', '113', '121', '122',
       '123', '130', '136', '139', '140', '145', '152', '154', '156', '167',
       '172', '176', '178', '188', '208', '209', '224', '230', '235', '245',
       '246', '251', '253', '254', '257', '260', '263', '268', '270', '276',
       '283', '291', '294', '295'],
      dtype='object')",False,1000,True,10,1.0,1.0,f1df244346
127,./expes/v3_2021-01-29_di_300-prng-1-w1-p10,daily_issda-300,300,first-300,35,11,rng,num-start-111,111,536,classic,4.674458742141724,True,,True,1.0,1.0,1.0,1,"Index(['7', '8', '16', '22', '33', '34', '67', '69', '78', '82', '99', '119',
       '120', '122', '133', '138', '155', '188', '190', '199', '200', '203',
       '204', '219', '228', '241', '243', '244', '268', '277', '279', '282',
       '283', '296', '298'],
      dtype='object')",False,1000,True,10,1.0,1.0,3435bf61f0
128,./expes/v3_2021-01-29_di_300-prng-1-w1-p10,daily_issda-300,300,first-300,112,37,rng,num-start-11,11,536,classic,1000.4391958713531,False,,False,0.0,,,0,"Index(['4', '6', '7', '8', '11', '12', '15', '16', '17', '19',
       ...
       '282', '283', '287', '292', '293', '294', '296', '297', '298', '300'],
      dtype='object', length=112)",True,1000,True,10,0.0,0.0,6646a70387
129,./expes/v3_2021-01-29_di_300-prng-1-w1-p10,daily_issda-300,300,first-300,133,44,rng,num-start-161,161,536,classic,7.183652400970459,True,,True,1.0,1.0,1.0,1,"Index(['1', '2', '3', '4', '5', '7', '8', '9', '10', '13',
       ...
       '277', '284', '285', '287', '288', '290', '294', '295', '297', '300'],
      dtype='object', length=133)",False,1000,True,10,1.0,1.0,095987f16b
130,./expes/v3_2021-01-29_di_300-prng-1-w1-p10,daily_issda-300,300,first-300,21,7,rng,num-start-181,181,536,classic,7.578420162200928,True,,True,1.0,1.0,1.0,1,"Index(['8', '22', '33', '47', '49', '73', '81', '95', '96', '98', '156', '203',
       '229', '232', '239', '244', '261', '263', '271', '276', '287'],
      dtype='object')",False,1000,True,10,1.0,1.0,74fbc3b4cc
131,./expes/v3_2021-01-29_di_300-prng-1-w1-p10,daily_issda-300,300,first-300,35,11,rng,num-start-271,271,536,classic,10.33181929588318,True,,True,1.0,1.0,1.0,1,"Index(['11', '16', '23', '33', '44', '46', '50', '59', '65', '71', '99', '108',
       '117', '120', '127', '133', '137', '190', '193', '194', '195', '198',
       '200', '206', '207', '209', '233', '236', '243', '249', '250', '254',
       '260', '267', '294'],
      dtype='object')",False,1000,True,10,1.0,1.0,a774f9f260
132,./expes/v3_2021-01-29_di_300-prng-1-w1-p10,daily_issda-300,300,first-300,14,4,rng,num-start-271,271,536,classic,9.791048526763916,True,,True,1.0,1.0,1.0,1,"Index(['14', '57', '90', '128', '130', '143', '149', '156', '188', '197',
       '213', '215', '268', '277'],
      dtype='object')",False,1000,True,10,1.0,1.0,ab1d1b243f
133,./expes/v3_2021-01-29_di_300-prng-1-w1-p10,daily_issda-300,300,first-300,56,18,rng,num-start-171,171,536,classic,7.404680252075195,True,,True,1.0,1.0,1.0,1,"Index(['7', '8', '15', '16', '19', '22', '33', '34', '50', '67', '69', '70',
       '78', '82', '84', '99', '112', '119', '120', '122', '133', '138', '144',
       '155', '168', '173', '180', '188', '190', '198', '199', '200', '203',
       '204', '209', '216', '219', '224', '228', '241', '243', '244', '254',
       '260', '268', '274', '277', '278', '279', '282', '283', '293', '294',
       '296', '298', '300'],
      dtype='object')",False,1000,True,10,1.0,1.0,70c936706e
134,./expes/v3_2021-01-29_di_300-prng-1-w1-p10,daily_issda-300,300,first-300,70,23,rng,num-start-71,71,536,classic,1002.5505955219268,False,,False,0.0,,,0,"Index(['1', '8', '21', '32', '33', '38', '42', '47', '48', '49', '51', '52',
       '56', '64', '72', '73', '76', '95', '97', '98', '105', '112', '114',
       '123', '124', '125', '129', '133', '134', '145', '148', '149', '150',
       '155', '156', '159', '162', '163', '164', '167', '170', '171', '182',
       '184', '198', '205', '208', '216', '223', '227', '228', '230', '242',
       '245', '249', '251', '253', '259', '261', '262', '267', '273', '277',
       '279', '281', '283', '287', '291', '295', '299'],
      dtype='object')",True,1000,True,10,0.0,0.0,7d2b4e426b
135,./expes/v3_2021-01-29_di_300-prng-1-w1-p10,daily_issda-300,300,first-300,105,35,rng,num-start-11,11,536,classic,1000.4898092746736,False,,False,0.0,,,0,"Index(['2', '4', '5', '9', '12', '14', '21', '23', '24', '35',
       ...
       '267', '271', '278', '280', '281', '292', '293', '296', '297', '300'],
      dtype='object', length=105)",True,1000,True,10,0.0,0.0,ddde97e4e7
136,./expes/v3_2021-01-29_di_300-prng-1-w1-p10,daily_issda-300,300,first-300,126,42,rng,num-start-81,81,536,classic,1002.6999855041504,False,,False,0.0,,,0,"Index(['2', '3', '8', '13', '17', '18', '19', '23', '26', '33',
       ...
       '278', '279', '282', '287', '291', '293', '295', '296', '299', '300'],
      dtype='object', length=126)",True,1000,True,10,0.0,0.0,7532498864
137,./expes/v3_2021-01-29_di_300-prng-1-w1-p10,daily_issda-300,300,first-300,126,42,rng,num-start-271,271,536,classic,12.516195058822632,True,,True,1.0,1.0,1.0,1,"Index(['3', '5', '10', '11', '14', '15', '26', '27', '28', '30',
       ...
       '284', '285', '286', '287', '289', '291', '293', '295', '296', '297'],
      dtype='object', length=126)",False,1000,True,10,1.0,1.0,a73c4b18bf
138,./expes/v3_2021-01-29_di_300-prng-1-w1-p10,daily_issda-300,300,first-300,42,14,rng,num-start-291,291,536,classic,11.856796264648438,True,,True,1.0,1.0,1.0,1,"Index(['3', '4', '21', '23', '27', '29', '33', '42', '45', '53', '57', '68',
       '71', '72', '81', '87', '96', '103', '105', '108', '115', '122', '137',
       '144', '150', '172', '174', '175', '192', '194', '195', '197', '204',
       '211', '216', '217', '232', '238', '252', '258', '260', '284'],
      dtype='object')",False,1000,True,10,1.0,1.0,ff55e33ff1
139,./expes/v3_2021-01-29_di_300-prng-1-w1-p10,daily_issda-300,300,first-300,98,32,rng,num-start-71,71,536,classic,1002.5268585681916,False,,False,0.0,,,0,"Index(['1', '2', '3', '5', '7', '10', '12', '15', '19', '24', '27', '30', '34',
       '37', '41', '47', '48', '53', '56', '58', '61', '65', '68', '72', '75',
       '76', '77', '81', '82', '83', '85', '86', '91', '93', '94', '95', '101',
       '102', '105', '107', '108', '111', '126', '127', '128', '129', '131',
       '132', '136', '142', '144', '149', '152', '153', '155', '157', '159',
       '160', '161', '162', '163', '170', '174', '175', '177', '182', '184',
       '185', '186', '188', '189', '191', '193', '195', '197', '200', '207',
       '209', '213', '215', '222', '228', '232', '237', '239', '241', '242',
       '247', '248', '263', '269', '272', '277', '279', '280', '282', '294',
       '297'],
      dtype='object')",True,1000,True,10,0.0,0.0,7f866799b2
140,./expes/v3_2021-01-29_di_300-prng-1-w1-p10,daily_issda-300,300,first-300,119,39,rng,num-start-261,261,536,classic,11.711762428283691,True,,True,1.0,1.0,1.0,1,"Index(['1', '3', '5', '6', '8', '9', '11', '16', '19', '20',
       ...
       '271', '276', '283', '284', '287', '289', '290', '295', '296', '299'],
      dtype='object', length=119)",False,1000,True,10,1.0,1.0,063013abe6
141,./expes/v3_2021-01-29_di_300-prng-1-w1-p10,daily_issda-300,300,first-300,28,9,rng,num-start-191,191,536,classic,7.413926601409912,True,,True,1.0,1.0,1.0,1,"Index(['4', '21', '27', '33', '42', '53', '57', '68', '71', '81', '87', '96',
       '105', '115', '122', '137', '150', '172', '174', '192', '195', '197',
       '217', '232', '238', '258', '260', '284'],
      dtype='object')",False,1000,True,10,1.0,1.0,771f9d3359
142,./expes/v3_2021-01-29_di_300-prng-1-w1-p10,daily_issda-300,300,first-300,49,16,rng,num-start-11,11,536,classic,1000.4638168811798,False,,False,0.0,,,0,"Index(['1', '8', '21', '32', '33', '38', '48', '49', '51', '52', '72', '76',
       '98', '105', '112', '114', '123', '125', '129', '133', '134', '145',
       '156', '159', '162', '167', '170', '171', '182', '184', '198', '205',
       '208', '216', '223', '227', '242', '245', '249', '253', '259', '262',
       '267', '273', '281', '283', '287', '291', '299'],
      dtype='object')",True,1000,True,10,0.0,0.0,030c4c5563
143,./expes/v3_2021-01-29_di_300-prng-1-w1-p10,daily_issda-300,300,first-300,42,14,rng,num-start-1,1,536,classic,9.787098169326782,False,,True,0.5073864198403932,0.4763135559909957,0.5373480544270078,100,"Index(['4', '11', '14', '31', '35', '45', '46', '47', '53', '55', '80', '85',
       '89', '92', '100', '110', '114', '121', '127', '128', '134', '135',
       '140', '142', '144', '149', '154', '156', '159', '173', '185', '191',
       '199', '203', '206', '243', '246', '260', '267', '275', '281', '282'],
      dtype='object')",False,1000,True,10,1.0,1.0,c45fb3e80a
144,./expes/v3_2021-01-29_di_300-prng-1-w1-p10,daily_issda-300,300,first-300,49,16,rng,num-start-241,241,536,classic,9.721475601196287,True,,True,1.0,1.0,1.0,1,"Index(['9', '12', '23', '37', '38', '51', '54', '56', '59', '62', '69', '71',
       '76', '82', '99', '103', '104', '107', '120', '134', '138', '149',
       '154', '160', '167', '168', '178', '199', '200', '202', '203', '209',
       '211', '213', '217', '226', '234', '253', '258', '262', '267', '271',
       '278', '280', '292', '293', '296', '297', '300'],
      dtype='object')",False,1000,True,10,1.0,1.0,68c3bb7327
145,./expes/v3_2021-01-29_di_300-prng-1-w1-p10,daily_issda-300,300,first-300,105,35,rng,num-start-201,201,536,classic,8.850341320037842,True,,True,1.0,1.0,1.0,1,"Index(['1', '8', '9', '14', '17', '20', '21', '24', '32', '33',
       ...
       '277', '279', '281', '283', '287', '291', '294', '295', '297', '299'],
      dtype='object', length=105)",False,1000,True,10,1.0,1.0,a445c66c9e
146,./expes/v3_2021-01-29_di_300-prng-1-w1-p10,daily_issda-300,300,first-300,91,30,rng,num-start-261,261,536,classic,10.869221448898315,True,,True,1.0,1.0,1.0,1,"Index(['1', '7', '9', '10', '12', '15', '19', '24', '28', '40', '42', '44',
       '46', '48', '49', '50', '60', '62', '64', '65', '71', '75', '87', '89',
       '95', '97', '99', '100', '101', '102', '103', '108', '115', '126',
       '129', '131', '132', '134', '136', '137', '138', '140', '149', '150',
       '156', '157', '160', '164', '169', '171', '172', '183', '185', '186',
       '192', '194', '195', '200', '204', '210', '211', '212', '216', '217',
       '218', '219', '221', '226', '228', '229', '232', '241', '242', '248',
       '249', '250', '251', '257', '258', '264', '265', '268', '269', '271',
       '276', '277', '284', '286', '289', '294', '295'],
      dtype='object')",False,1000,True,10,1.0,1.0,ad8cf3035d
147,./expes/v3_2021-01-29_di_300-prng-1-w1-p10,daily_issda-300,300,first-300,14,4,rng,num-start-81,81,536,classic,3.132514238357544,True,,True,1.0,1.0,1.0,1,"Index(['47', '49', '73', '95', '96', '98', '156', '229', '232', '239', '244',
       '261', '263', '287'],
      dtype='object')",False,1000,True,10,1.0,1.0,b4b9f4d154
148,./expes/v3_2021-01-29_di_300-prng-1-w1-p10,daily_issda-300,300,first-300,119,39,rng,num-start-201,201,536,classic,9.194868803024292,True,,True,1.0,1.0,1.0,1,"Index(['3', '4', '5', '10', '30', '34', '40', '41', '45', '46',
       ...
       '281', '283', '285', '286', '287', '291', '293', '294', '295', '297'],
      dtype='object', length=119)",False,1000,True,10,1.0,1.0,49bf3c70df
149,./expes/v3_2021-01-29_di_300-prng-1-w1-p10,daily_issda-300,300,first-300,112,37,rng,num-start-71,71,536,classic,1002.3308339118958,False,,False,0.0,,,0,"Index(['1', '4', '7', '9', '10', '12', '15', '16', '19', '24',
       ...
       '271', '276', '277', '284', '286', '287', '289', '292', '294', '295'],
      dtype='object', length=112)",True,1000,True,10,0.0,0.0,06959e7cec
