,expe,clients,clients_size,clients_subset,agg_size,agg_size_pc,method,days,days_size,days_total,noise_method,time,valid,valid_sum,success,score_avg,score_min,score_max,nsols,oracle,wall_hit,wall_time,pooled,pool_size,optimal,valid_sums,uuid
0,./expes/v3_2021-01-29_di_300-prng-1-w1-p10,daily_issda-300,300,first-300,105,35,rng,num-start-41,41,536,classic,1001.2776925563812,False,,False,0.0,,,0,"Index(['4', '6', '7', '8', '11', '15', '16', '17', '19', '22',
       ...
       '282', '283', '287', '292', '293', '294', '296', '297', '298', '300'],
      dtype='object', length=105)",True,1000,True,10,0.0,0.0,cfe2d3c9a1
1,./expes/v3_2021-01-29_di_300-prng-1-w1-p10,daily_issda-300,300,first-300,112,37,rng,num-start-211,211,536,classic,7.458109617233276,True,,True,1.0,1.0,1.0,1,"Index(['1', '2', '3', '5', '7', '12', '14', '15', '16', '17',
       ...
       '281', '282', '283', '284', '285', '288', '292', '296', '297', '300'],
      dtype='object', length=112)",False,1000,True,10,1.0,1.0,6d7eba824b
2,./expes/v3_2021-01-29_di_300-prng-1-w1-p10,daily_issda-300,300,first-300,119,39,rng,num-start-291,291,536,classic,8.249593257904053,True,,True,1.0,1.0,1.0,1,"Index(['3', '4', '5', '6', '7', '8', '11', '12', '15', '16',
       ...
       '262', '265', '268', '270', '277', '278', '289', '294', '297', '299'],
      dtype='object', length=119)",False,1000,True,10,1.0,1.0,f31bcdfd84
3,./expes/v3_2021-01-29_di_300-prng-1-w1-p10,daily_issda-300,300,first-300,91,30,rng,num-start-1,1,536,classic,8.155890464782715,False,,True,0.351945359678424,0.325574690326824,0.3717891839267345,100,"Index(['6', '10', '11', '15', '22', '35', '36', '38', '43', '46', '48', '49',
       '53', '55', '58', '59', '61', '63', '74', '77', '83', '85', '87', '93',
       '97', '100', '105', '112', '115', '121', '127', '131', '132', '134',
       '135', '137', '139', '141', '143', '144', '145', '150', '155', '156',
       '159', '162', '173', '178', '183', '184', '185', '187', '189', '196',
       '198', '199', '202', '204', '207', '208', '211', '214', '217', '218',
       '224', '225', '226', '231', '232', '234', '236', '239', '241', '242',
       '243', '246', '249', '250', '251', '257', '264', '265', '270', '272',
       '274', '283', '287', '292', '293', '297', '299'],
      dtype='object')",False,1000,True,10,1.0,1.0,5abb696339
4,./expes/v3_2021-01-29_di_300-prng-1-w1-p10,daily_issda-300,300,first-300,105,35,rng,num-start-91,91,536,classic,1002.0923936367036,False,,False,0.0,,,0,"Index(['1', '6', '10', '11', '13', '15', '18', '22', '35', '36',
       ...
       '268', '270', '272', '274', '283', '287', '292', '293', '297', '299'],
      dtype='object', length=105)",True,1000,True,10,0.0,0.0,d14bf6d081
5,./expes/v3_2021-01-29_di_300-prng-1-w1-p10,daily_issda-300,300,first-300,105,35,rng,num-start-41,41,536,classic,1001.0999326705931,False,,False,0.0,,,0,"Index(['1', '4', '7', '9', '10', '12', '15', '19', '24', '28',
       ...
       '269', '271', '276', '277', '284', '286', '287', '289', '294', '295'],
      dtype='object', length=105)",True,1000,True,10,0.0,0.0,e35736deea
6,./expes/v3_2021-01-29_di_300-prng-1-w1-p10,daily_issda-300,300,first-300,7,2,rng,num-start-271,271,536,classic,8.665906190872192,True,,True,1.0,1.0,1.0,1,"Index(['95', '98', '232', '239', '261', '263', '287'], dtype='object')",False,1000,True,10,1.0,1.0,ef0211cfc7
7,./expes/v3_2021-01-29_di_300-prng-1-w1-p10,daily_issda-300,300,first-300,112,37,rng,num-start-281,281,536,classic,8.885965824127197,True,,True,1.0,1.0,1.0,1,"Index(['1', '2', '3', '5', '7', '10', '12', '15', '17', '19',
       ...
       '269', '272', '274', '277', '279', '280', '282', '289', '294', '297'],
      dtype='object', length=112)",False,1000,True,10,1.0,1.0,6c890d7ec7
8,./expes/v3_2021-01-29_di_300-prng-1-w1-p10,daily_issda-300,300,first-300,56,18,rng,num-start-21,21,536,classic,1000.9150688648224,False,,False,0.0,,,0,"Index(['6', '9', '10', '19', '25', '29', '34', '38', '41', '52', '60', '72',
       '76', '78', '81', '89', '101', '106', '107', '115', '118', '119', '123',
       '135', '144', '147', '157', '161', '162', '174', '177', '182', '183',
       '185', '189', '201', '203', '208', '215', '216', '225', '231', '234',
       '237', '239', '240', '251', '252', '254', '262', '267', '272', '274',
       '290', '292', '296'],
      dtype='object')",True,1000,True,10,0.0,0.0,db84d0a2f6
9,./expes/v3_2021-01-29_di_300-prng-1-w1-p10,daily_issda-300,300,first-300,133,44,rng,num-start-241,241,536,classic,8.116915225982666,True,,True,1.0,1.0,1.0,1,"Index(['4', '6', '7', '8', '11', '12', '14', '15', '16', '17',
       ...
       '282', '283', '287', '292', '293', '294', '296', '297', '298', '300'],
      dtype='object', length=133)",False,1000,True,10,1.0,1.0,94f0954a8a
10,./expes/v3_2021-01-29_di_300-prng-1-w1-p10,daily_issda-300,300,first-300,42,14,rng,num-start-291,291,536,classic,8.649759531021118,True,,True,1.0,1.0,1.0,1,"Index(['6', '15', '36', '38', '43', '49', '55', '58', '61', '63', '77', '83',
       '85', '93', '105', '115', '127', '131', '134', '135', '139', '141',
       '150', '156', '162', '173', '184', '185', '187', '196', '202', '204',
       '207', '225', '231', '239', '250', '265', '270', '283', '297', '299'],
      dtype='object')",False,1000,True,10,1.0,1.0,e8538dfe7f
11,./expes/v3_2021-01-29_di_300-prng-1-w1-p10,daily_issda-300,300,first-300,126,42,rng,num-start-31,31,536,classic,1000.9085688591005,False,,False,0.0,,,0,"Index(['2', '3', '8', '16', '17', '19', '20', '22', '23', '24',
       ...
       '282', '284', '285', '287', '289', '290', '292', '296', '298', '299'],
      dtype='object', length=126)",True,1000,True,10,0.0,0.0,b36deaf1b2
12,./expes/v3_2021-01-29_di_300-prng-1-w1-p10,daily_issda-300,300,first-300,91,30,rng,num-start-231,231,536,classic,8.242020606994629,True,,True,1.0,1.0,1.0,1,"Index(['2', '3', '5', '7', '12', '14', '15', '16', '18', '23', '33', '45',
       '49', '52', '53', '56', '61', '62', '67', '69', '84', '87', '88', '89',
       '96', '98', '103', '108', '111', '113', '114', '117', '118', '119',
       '120', '125', '131', '137', '138', '146', '149', '152', '156', '158',
       '163', '171', '177', '181', '188', '190', '192', '195', '196', '197',
       '200', '202', '207', '208', '213', '214', '217', '222', '225', '229',
       '231', '236', '241', '242', '246', '250', '251', '254', '256', '257',
       '258', '259', '260', '261', '263', '264', '266', '267', '271', '277',
       '278', '281', '284', '285', '292', '296', '297'],
      dtype='object')",False,1000,True,10,1.0,1.0,3f43db499f
13,./expes/v3_2021-01-29_di_300-prng-1-w1-p10,daily_issda-300,300,first-300,91,30,rng,num-start-131,131,536,classic,9.03897213935852,True,,True,1.0,1.0,1.0,1,"Index(['1', '2', '3', '5', '7', '10', '12', '15', '19', '24', '27', '30', '34',
       '37', '47', '53', '56', '58', '61', '65', '68', '72', '75', '76', '81',
       '82', '85', '86', '91', '93', '94', '95', '101', '102', '105', '107',
       '108', '111', '126', '127', '128', '129', '131', '132', '136', '142',
       '144', '149', '152', '153', '155', '157', '159', '161', '162', '170',
       '174', '175', '177', '182', '184', '185', '186', '188', '189', '191',
       '193', '195', '197', '200', '207', '209', '213', '215', '222', '228',
       '232', '237', '239', '241', '242', '247', '263', '269', '272', '277',
       '279', '280', '282', '294', '297'],
      dtype='object')",False,1000,True,10,1.0,1.0,81427bd07b
14,./expes/v3_2021-01-29_di_300-prng-1-w1-p10,daily_issda-300,300,first-300,84,28,rng,num-start-151,151,536,classic,5.359314203262329,True,,True,1.0,1.0,1.0,1,"Index(['20', '21', '24', '25', '26', '30', '31', '32', '33', '34', '36', '38',
       '40', '42', '45', '47', '48', '49', '50', '53', '61', '64', '69', '74',
       '78', '85', '93', '97', '106', '110', '114', '115', '124', '125', '128',
       '139', '148', '149', '154', '158', '159', '161', '166', '175', '176',
       '180', '186', '188', '191', '203', '204', '215', '216', '218', '219',
       '223', '230', '233', '234', '239', '243', '251', '254', '255', '260',
       '263', '269', '273', '275', '277', '281', '283', '286', '287', '289',
       '290', '293', '294', '295', '296', '297', '298', '299', '300'],
      dtype='object')",False,1000,True,10,1.0,1.0,a7a8a38ba4
15,./expes/v3_2021-01-29_di_300-prng-1-w1-p10,daily_issda-300,300,first-300,119,39,rng,num-start-161,161,536,classic,5.93164849281311,True,,True,1.0,1.0,1.0,1,"Index(['3', '5', '10', '11', '14', '15', '26', '27', '28', '30',
       ...
       '284', '285', '286', '287', '289', '291', '293', '295', '296', '297'],
      dtype='object', length=119)",False,1000,True,10,1.0,1.0,bc912d32e3
16,./expes/v3_2021-01-29_di_300-prng-1-w1-p10,daily_issda-300,300,first-300,42,14,rng,num-start-251,251,536,classic,6.862426280975342,True,,True,1.0,1.0,1.0,1,"Index(['7', '8', '16', '19', '22', '33', '34', '50', '67', '69', '70', '78',
       '82', '99', '112', '119', '120', '122', '133', '138', '155', '188',
       '190', '199', '200', '203', '204', '216', '219', '224', '228', '241',
       '243', '244', '254', '268', '277', '279', '282', '283', '296', '298'],
      dtype='object')",False,1000,True,10,1.0,1.0,9c6eabaf19
17,./expes/v3_2021-01-29_di_300-prng-1-w1-p10,daily_issda-300,300,first-300,35,11,rng,num-start-291,291,536,classic,7.43406867980957,True,,True,1.0,1.0,1.0,1,"Index(['2', '5', '12', '14', '15', '16', '33', '49', '53', '61', '69', '108',
       '111', '114', '118', '120', '131', '137', '163', '177', '195', '196',
       '200', '217', '222', '225', '229', '231', '242', '250', '254', '271',
       '278', '284', '292'],
      dtype='object')",False,1000,True,10,1.0,1.0,3abb27766f
18,./expes/v3_2021-01-29_di_300-prng-1-w1-p10,daily_issda-300,300,first-300,42,14,rng,num-start-141,141,536,classic,4.3690385818481445,True,,True,1.0,1.0,1.0,1,"Index(['20', '24', '25', '26', '30', '31', '32', '36', '38', '45', '47', '49',
       '61', '64', '69', '74', '78', '93', '110', '114', '115', '124', '149',
       '158', '166', '188', '203', '204', '215', '218', '223', '260', '275',
       '277', '283', '286', '287', '290', '293', '296', '299', '300'],
      dtype='object')",False,1000,True,10,1.0,1.0,53161f4092
19,./expes/v3_2021-01-29_di_300-prng-1-w1-p10,daily_issda-300,300,first-300,91,30,rng,num-start-281,281,536,classic,8.614964723587036,True,,True,1.0,1.0,1.0,1,"Index(['2', '8', '16', '20', '22', '23', '36', '37', '38', '44', '48', '58',
       '61', '65', '67', '68', '70', '71', '72', '73', '76', '82', '85', '86',
       '91', '92', '94', '96', '99', '100', '104', '109', '110', '116', '119',
       '120', '121', '122', '129', '130', '132', '133', '135', '142', '144',
       '149', '151', '152', '160', '161', '175', '176', '178', '180', '183',
       '184', '187', '188', '191', '192', '200', '203', '212', '218', '220',
       '221', '224', '226', '228', '230', '231', '236', '238', '250', '252',
       '255', '267', '268', '270', '273', '275', '279', '282', '284', '285',
       '289', '290', '292', '296', '298', '299'],
      dtype='object')",False,1000,True,10,1.0,1.0,143e3b14c7
20,./expes/v3_2021-01-29_di_300-prng-1-w1-p10,daily_issda-300,300,first-300,126,42,rng,num-start-21,21,536,classic,1000.494469165802,False,,False,0.0,,,0,"Index(['2', '7', '9', '11', '14', '16', '17', '18', '20', '23',
       ...
       '273', '277', '280', '286', '289', '292', '294', '297', '298', '300'],
      dtype='object', length=126)",True,1000,True,10,0.0,0.0,b4cef93309
21,./expes/v3_2021-01-29_di_300-prng-1-w1-p10,daily_issda-300,300,first-300,21,7,rng,num-start-11,11,536,classic,1003.6603457927704,False,,False,0.0,,,0,"Index(['1', '12', '19', '42', '49', '75', '99', '102', '134', '140', '164',
       '192', '212', '241', '249', '251', '276', '277', '284', '289', '294'],
      dtype='object')",True,1000,True,10,0.0,0.0,fa17bd925a
22,./expes/v3_2021-01-29_di_300-prng-1-w1-p10,daily_issda-300,300,first-300,126,42,rng,num-start-11,11,536,classic,1000.3278875350952,False,,False,0.0,,,0,"Index(['2', '4', '5', '9', '12', '13', '14', '21', '23', '24',
       ...
       '271', '278', '280', '281', '288', '292', '293', '296', '297', '300'],
      dtype='object', length=126)",True,1000,True,10,0.0,0.0,ee08bf3559
23,./expes/v3_2021-01-29_di_300-prng-1-w1-p10,daily_issda-300,300,first-300,119,39,rng,num-start-121,121,536,classic,9.46087908744812,True,,True,1.0,1.0,1.0,1,"Index(['2', '5', '6', '8', '9', '10', '16', '19', '22', '23',
       ...
       '266', '267', '272', '274', '279', '281', '285', '290', '292', '296'],
      dtype='object', length=119)",False,1000,True,10,1.0,1.0,0e3573a675
24,./expes/v3_2021-01-29_di_300-prng-1-w1-p10,daily_issda-300,300,first-300,77,25,rng,num-start-251,251,536,classic,7.743859529495239,True,,True,1.0,1.0,1.0,1,"Index(['1', '8', '17', '21', '32', '33', '36', '38', '42', '46', '47', '48',
       '49', '51', '52', '56', '64', '67', '72', '73', '76', '77', '95', '96',
       '97', '98', '105', '112', '114', '123', '124', '125', '129', '133',
       '134', '145', '148', '149', '150', '155', '156', '159', '162', '163',
       '164', '167', '170', '171', '182', '184', '198', '205', '208', '216',
       '223', '227', '228', '230', '242', '244', '245', '249', '251', '253',
       '259', '261', '262', '267', '273', '277', '279', '281', '283', '287',
       '291', '295', '299'],
      dtype='object')",False,1000,True,10,1.0,1.0,5bbe77d464
25,./expes/v3_2021-01-29_di_300-prng-1-w1-p10,daily_issda-300,300,first-300,49,16,rng,num-start-281,281,536,classic,7.552034378051758,True,,True,1.0,1.0,1.0,1,"Index(['6', '9', '10', '19', '29', '34', '41', '60', '72', '76', '81', '89',
       '101', '106', '107', '115', '118', '119', '123', '135', '144', '147',
       '157', '161', '162', '174', '177', '182', '183', '185', '189', '201',
       '208', '215', '216', '225', '231', '234', '237', '239', '251', '252',
       '262', '267', '272', '274', '290', '292', '296'],
      dtype='object')",False,1000,True,10,1.0,1.0,1a16547d9c
26,./expes/v3_2021-01-29_di_300-prng-1-w1-p10,daily_issda-300,300,first-300,126,42,rng,num-start-141,141,536,classic,13.531404495239258,True,,True,1.0,1.0,1.0,1,"Index(['1', '4', '5', '6', '10', '13', '14', '15', '16', '17',
       ...
       '270', '271', '277', '278', '280', '282', '285', '286', '294', '296'],
      dtype='object', length=126)",False,1000,True,10,1.0,1.0,ec3c790260
27,./expes/v3_2021-01-29_di_300-prng-1-w1-p10,daily_issda-300,300,first-300,126,42,rng,num-start-11,11,536,classic,1000.4173662662506,False,,False,0.0,,,0,"Index(['1', '3', '5', '6', '8', '9', '11', '16', '19', '20',
       ...
       '271', '276', '283', '284', '287', '289', '290', '295', '296', '299'],
      dtype='object', length=126)",True,1000,True,10,0.0,0.0,eec99188b2
28,./expes/v3_2021-01-29_di_300-prng-1-w1-p10,daily_issda-300,300,first-300,91,30,rng,num-start-11,11,536,classic,1000.3375520706176,False,,False,0.0,,,0,"Index(['2', '4', '9', '12', '14', '23', '24', '35', '37', '38', '39', '40',
       '44', '47', '51', '52', '54', '56', '59', '62', '66', '69', '71', '76',
       '82', '88', '90', '94', '99', '103', '104', '107', '108', '120', '126',
       '134', '135', '138', '141', '146', '149', '151', '154', '155', '158',
       '160', '167', '168', '178', '189', '193', '199', '200', '202', '203',
       '207', '209', '211', '213', '216', '217', '220', '224', '225', '226',
       '231', '232', '233', '234', '235', '237', '238', '239', '240', '244',
       '246', '253', '257', '258', '259', '262', '267', '271', '278', '280',
       '281', '292', '293', '296', '297', '300'],
      dtype='object')",True,1000,True,10,0.0,0.0,c22c8fd45b
29,./expes/v3_2021-01-29_di_300-prng-1-w1-p10,daily_issda-300,300,first-300,119,39,rng,num-start-161,161,536,classic,5.511035680770874,True,,True,1.0,1.0,1.0,1,"Index(['2', '7', '9', '11', '14', '16', '17', '18', '20', '23',
       ...
       '273', '277', '280', '286', '289', '292', '294', '297', '298', '300'],
      dtype='object', length=119)",False,1000,True,10,1.0,1.0,7c4c8dfdc3
30,./expes/v3_2021-01-29_di_300-prng-1-w1-p10,daily_issda-300,300,first-300,126,42,rng,num-start-131,131,536,classic,10.651373386383057,True,,True,1.0,1.0,1.0,1,"Index(['1', '8', '9', '12', '14', '17', '19', '20', '21', '24',
       ...
       '279', '281', '283', '287', '291', '292', '294', '295', '297', '299'],
      dtype='object', length=126)",False,1000,True,10,1.0,1.0,ab83f1b463
31,./expes/v3_2021-01-29_di_300-prng-1-w1-p10,daily_issda-300,300,first-300,14,4,rng,num-start-271,271,536,classic,6.58189845085144,True,,True,1.0,1.0,1.0,1,"Index(['23', '56', '62', '76', '103', '134', '149', '178', '202', '211', '262',
       '267', '271', '300'],
      dtype='object')",False,1000,True,10,1.0,1.0,47fffa8f13
32,./expes/v3_2021-01-29_di_300-prng-1-w1-p10,daily_issda-300,300,first-300,133,44,rng,num-start-31,31,536,classic,1000.7440297603608,False,,False,0.0,,,0,"Index(['1', '7', '8', '9', '12', '14', '17', '19', '20', '21',
       ...
       '279', '281', '283', '287', '291', '292', '294', '295', '297', '299'],
      dtype='object', length=133)",True,1000,True,10,0.0,0.0,760af6c862
33,./expes/v3_2021-01-29_di_300-prng-1-w1-p10,daily_issda-300,300,first-300,77,25,rng,num-start-141,141,536,classic,4.362825155258179,True,,True,1.0,1.0,1.0,1,"Index(['20', '21', '24', '25', '26', '30', '31', '32', '33', '36', '38', '40',
       '42', '45', '47', '49', '50', '53', '61', '64', '69', '74', '78', '85',
       '93', '97', '106', '110', '114', '115', '124', '125', '128', '148',
       '149', '154', '158', '161', '166', '175', '176', '180', '186', '188',
       '191', '203', '204', '215', '216', '218', '219', '223', '230', '233',
       '239', '251', '254', '255', '260', '263', '269', '273', '275', '277',
       '281', '283', '286', '287', '289', '290', '293', '294', '295', '296',
       '298', '299', '300'],
      dtype='object')",False,1000,True,10,1.0,1.0,f4bccb23e7
34,./expes/v3_2021-01-29_di_300-prng-1-w1-p10,daily_issda-300,300,first-300,126,42,rng,num-start-171,171,536,classic,5.863987445831299,True,,True,1.0,1.0,1.0,1,"Index(['1', '3', '5', '6', '8', '9', '11', '16', '19', '20',
       ...
       '271', '276', '283', '284', '287', '289', '290', '295', '296', '299'],
      dtype='object', length=126)",False,1000,True,10,1.0,1.0,4e4a4755a8
35,./expes/v3_2021-01-29_di_300-prng-1-w1-p10,daily_issda-300,300,first-300,42,14,rng,num-start-51,51,536,classic,1001.1554250717164,False,,False,0.0,,,0,"Index(['10', '14', '27', '32', '36', '42', '57', '64', '71', '72', '73', '78',
       '90', '101', '108', '128', '130', '143', '149', '156', '159', '163',
       '170', '173', '182', '188', '191', '197', '206', '210', '213', '215',
       '222', '243', '257', '260', '268', '273', '277', '283', '287', '293'],
      dtype='object')",True,1000,True,10,0.0,0.0,ba012cd3f2
