expe,clients,clients_size,clients_subset,agg_size,method,days,days_size,days_total,time,valid,valid_sum,success,nsols,wall_hit,wall_time,pooled,valid_sums
./expes/v2_2020-11-27_di_500-prng-3,daily_issda_500,500,first-500,11,rng,num-start-71,71,536,3.988520622253418,True,,True,1,False,1000,True,1.0
./expes/v2_2020-11-27_di_500-prng-3,daily_issda_500,500,first-500,491,rng,num-start-241,241,536,11.29899549484253,True,,True,1,False,1000,True,1.0
./expes/v2_2020-11-27_di_500-prng-3,daily_issda_500,500,first-500,21,rng,num-start-11,11,536,1000.5807638168335,False,,False,0,True,1000,True,0.0
./expes/v2_2020-11-27_di_500-prng-3,daily_issda_500,500,first-500,81,rng,num-start-281,281,536,24.667839765548706,True,,True,1,False,1000,True,1.0
./expes/v2_2020-11-27_di_500-prng-3,daily_issda_500,500,first-500,41,rng,num-start-171,171,536,10.92805027961731,True,,True,1,False,1000,True,1.0
./expes/v2_2020-11-27_di_500-prng-3,daily_issda_500,500,first-500,411,rng,num-start-51,51,536,1002.4250197410583,False,,False,0,True,1000,True,0.0
./expes/v2_2020-11-27_di_500-prng-3,daily_issda_500,500,first-500,61,rng,num-start-141,141,536,15.519880294799805,True,,True,1,False,1000,True,1.0
./expes/v2_2020-11-27_di_500-prng-3,daily_issda_500,500,first-500,241,rng,num-start-111,111,536,1004.7323405742645,False,,False,0,True,1000,True,0.0
./expes/v2_2020-11-27_di_500-prng-3,daily_issda_500,500,first-500,481,rng,num-start-61,61,536,11.507635116577148,True,,True,1,False,1000,True,1.0
./expes/v2_2020-11-27_di_500-prng-3,daily_issda_500,500,first-500,61,rng,num-start-181,181,536,11.765451192855835,True,,True,1,False,1000,True,1.0
./expes/v2_2020-11-27_di_500-prng-3,daily_issda_500,500,first-500,61,rng,num-start-161,161,536,10.090769529342651,True,,True,1,False,1000,True,1.0
./expes/v2_2020-11-27_di_500-prng-3,daily_issda_500,500,first-500,81,rng,num-start-111,111,536,1005.0689146518707,False,,False,0,True,1000,True,0.0
./expes/v2_2020-11-27_di_500-prng-3,daily_issda_500,500,first-500,421,rng,num-start-211,211,536,15.160613775253296,True,,True,1,False,1000,True,1.0
./expes/v2_2020-11-27_di_500-prng-3,daily_issda_500,500,first-500,361,rng,num-start-241,241,536,19.52654457092285,True,,True,1,False,1000,True,1.0
./expes/v2_2020-11-27_di_500-prng-3,daily_issda_500,500,first-500,491,rng,num-start-131,131,536,6.666722297668457,True,,True,1,False,1000,True,1.0
./expes/v2_2020-11-27_di_500-prng-3,daily_issda_500,500,first-500,451,rng,num-start-271,271,536,15.47249460220337,True,,True,1,False,1000,True,1.0
./expes/v2_2020-11-27_di_500-prng-3,daily_issda_500,500,first-500,381,rng,num-start-91,91,536,1004.1982893943787,False,,False,0,True,1000,True,0.0
./expes/v2_2020-11-27_di_500-prng-3,daily_issda_500,500,first-500,281,rng,num-start-141,141,536,1006.3854796886444,False,,False,0,True,1000,True,0.0
./expes/v2_2020-11-27_di_500-prng-3,daily_issda_500,500,first-500,471,rng,num-start-241,241,536,12.782580614089966,True,,True,1,False,1000,True,1.0
./expes/v2_2020-11-27_di_500-prng-3,daily_issda_500,500,first-500,81,rng,num-start-211,211,536,14.109489679336548,True,,True,1,False,1000,True,1.0
./expes/v2_2020-11-27_di_500-prng-3,daily_issda_500,500,first-500,41,rng,num-start-171,171,536,10.960029363632202,True,,True,1,False,1000,True,1.0
./expes/v2_2020-11-27_di_500-prng-3,daily_issda_500,500,first-500,231,rng,num-start-221,221,536,40.29253578186035,True,,True,1,False,1000,True,1.0
./expes/v2_2020-11-27_di_500-prng-3,daily_issda_500,500,first-500,451,rng,num-start-121,121,536,12.318426370620728,True,,True,1,False,1000,True,1.0
./expes/v2_2020-11-27_di_500-prng-3,daily_issda_500,500,first-500,381,rng,num-start-111,111,536,1005.0762305259705,False,,False,0,True,1000,True,0.0
./expes/v2_2020-11-27_di_500-prng-3,daily_issda_500,500,first-500,151,rng,num-start-241,241,536,20.376380920410156,True,,True,1,False,1000,True,1.0
./expes/v2_2020-11-27_di_500-prng-3,daily_issda_500,500,first-500,211,rng,num-start-281,281,536,21.898314952850342,True,,True,1,False,1000,True,1.0
./expes/v2_2020-11-27_di_500-prng-3,daily_issda_500,500,first-500,261,rng,num-start-171,171,536,1007.7019836902618,False,,False,0,True,1000,True,0.0
./expes/v2_2020-11-27_di_500-prng-3,daily_issda_500,500,first-500,441,rng,num-start-261,261,536,15.011922836303711,True,,True,1,False,1000,True,1.0
./expes/v2_2020-11-27_di_500-prng-3,daily_issda_500,500,first-500,491,rng,num-start-201,201,536,10.968398332595825,True,,True,1,False,1000,True,1.0
./expes/v2_2020-11-27_di_500-prng-3,daily_issda_500,500,first-500,311,rng,num-start-171,171,536,1007.8025221824646,False,,False,0,True,1000,True,0.0
./expes/v2_2020-11-27_di_500-prng-3,daily_issda_500,500,first-500,11,rng,num-start-1,1,536,1.0267529487609863,False,,False,2,False,1000,True,1.0
./expes/v2_2020-11-27_di_500-prng-3,daily_issda_500,500,first-500,311,rng,num-start-51,51,536,1002.8005049228668,False,,False,0,True,1000,True,0.0
./expes/v2_2020-11-27_di_500-prng-3,daily_issda_500,500,first-500,111,rng,num-start-21,21,536,1001.0597386360168,False,,False,0,True,1000,True,0.0
./expes/v2_2020-11-27_di_500-prng-3,daily_issda_500,500,first-500,201,rng,num-start-271,271,536,19.139299154281616,True,,True,1,False,1000,True,1.0
./expes/v2_2020-11-27_di_500-prng-3,daily_issda_500,500,first-500,401,rng,num-start-181,181,536,33.6103093624115,True,,True,1,False,1000,True,1.0
./expes/v2_2020-11-27_di_500-prng-3,daily_issda_500,500,first-500,491,rng,num-start-281,281,536,14.350608348846436,True,,True,1,False,1000,True,1.0
./expes/v2_2020-11-27_di_500-prng-3,daily_issda_500,500,first-500,351,rng,num-start-281,281,536,20.291016340255737,True,,True,1,False,1000,True,1.0
./expes/v2_2020-11-27_di_500-prng-3,daily_issda_500,500,first-500,421,rng,num-start-191,191,536,12.241448640823364,True,,True,1,False,1000,True,1.0
./expes/v2_2020-11-27_di_500-prng-3,daily_issda_500,500,first-500,41,rng,num-start-161,161,536,10.649975538253784,True,,True,1,False,1000,True,1.0
./expes/v2_2020-11-27_di_500-prng-3,daily_issda_500,500,first-500,131,rng,num-start-41,41,536,1001.8961398601532,False,,False,0,True,1000,True,0.0
./expes/v2_2020-11-27_di_500-prng-3,daily_issda_500,500,first-500,251,rng,num-start-41,41,536,1001.9398837089539,False,,False,0,True,1000,True,0.0
./expes/v2_2020-11-27_di_500-prng-3,daily_issda_500,500,first-500,201,rng,num-start-271,271,536,18.391732931137085,True,,True,1,False,1000,True,1.0
./expes/v2_2020-11-27_di_500-prng-3,daily_issda_500,500,first-500,451,rng,num-start-31,31,536,1001.6982607841492,False,,False,0,True,1000,True,0.0
./expes/v2_2020-11-27_di_500-prng-3,daily_issda_500,500,first-500,161,rng,num-start-21,21,536,1001.1030166149139,False,,False,0,True,1000,True,0.0
./expes/v2_2020-11-27_di_500-prng-3,daily_issda_500,500,first-500,31,rng,num-start-71,71,536,14.838645219802856,True,,True,1,False,1000,True,1.0
./expes/v2_2020-11-27_di_500-prng-3,daily_issda_500,500,first-500,231,rng,num-start-81,81,536,1003.4880337715149,False,,False,0,True,1000,True,0.0
./expes/v2_2020-11-27_di_500-prng-3,daily_issda_500,500,first-500,341,rng,num-start-131,131,536,1006.0437042713165,False,,False,0,True,1000,True,0.0
./expes/v2_2020-11-27_di_500-prng-3,daily_issda_500,500,first-500,361,rng,num-start-131,131,536,1005.8552489280701,False,,False,0,True,1000,True,0.0
./expes/v2_2020-11-27_di_500-prng-3,daily_issda_500,500,first-500,451,rng,num-start-201,201,536,11.247573375701904,True,,True,1,False,1000,True,1.0
./expes/v2_2020-11-27_di_500-prng-3,daily_issda_500,500,first-500,1,rng,num-start-21,21,536,0.9746847152709961,True,,True,1,False,1000,True,1.0
./expes/v2_2020-11-27_di_500-prng-3,daily_issda_500,500,first-500,481,rng,num-start-251,251,536,12.121572971343994,True,,True,1,False,1000,True,1.0
./expes/v2_2020-11-27_di_500-prng-3,daily_issda_500,500,first-500,91,rng,num-start-1,1,536,3.5473735332489014,False,,False,2,False,1000,True,1.0
./expes/v2_2020-11-27_di_500-prng-3,daily_issda_500,500,first-500,431,rng,num-start-91,91,536,1004.1853404045105,False,,False,0,True,1000,True,0.0
./expes/v2_2020-11-27_di_500-prng-3,daily_issda_500,500,first-500,401,rng,num-start-101,101,536,1004.404004573822,False,,False,0,True,1000,True,0.0
./expes/v2_2020-11-27_di_500-prng-3,daily_issda_500,500,first-500,21,rng,num-start-21,21,536,1001.0846965312958,False,,False,0,True,1000,True,0.0
./expes/v2_2020-11-27_di_500-prng-3,daily_issda_500,500,first-500,31,rng,num-start-121,121,536,10.318440914154053,True,,True,1,False,1000,True,1.0
./expes/v2_2020-11-27_di_500-prng-3,daily_issda_500,500,first-500,101,rng,num-start-31,31,536,1001.476464509964,False,,False,0,True,1000,True,0.0
./expes/v2_2020-11-27_di_500-prng-3,daily_issda_500,500,first-500,381,rng,num-start-221,221,536,17.14641833305359,True,,True,1,False,1000,True,1.0
./expes/v2_2020-11-27_di_500-prng-3,daily_issda_500,500,first-500,261,rng,num-start-151,151,536,1007.2115080356598,False,,False,0,True,1000,True,0.0
./expes/v2_2020-11-27_di_500-prng-3,daily_issda_500,500,first-500,271,rng,num-start-161,161,536,1007.5375556945801,False,,False,0,True,1000,True,0.0
./expes/v2_2020-11-27_di_500-prng-3,daily_issda_500,500,first-500,381,rng,num-start-191,191,536,39.23649263381958,True,,True,1,False,1000,True,1.0
./expes/v2_2020-11-27_di_500-prng-3,daily_issda_500,500,first-500,351,rng,num-start-51,51,536,1002.4560668468475,False,,False,0,True,1000,True,0.0
./expes/v2_2020-11-27_di_500-prng-3,daily_issda_500,500,first-500,71,rng,num-start-11,11,536,1000.5821175575256,False,,False,0,True,1000,True,0.0
./expes/v2_2020-11-27_di_500-prng-3,daily_issda_500,500,first-500,331,rng,num-start-121,121,536,1005.5369913578033,False,,False,0,True,1000,True,0.0
./expes/v2_2020-11-27_di_500-prng-3,daily_issda_500,500,first-500,261,rng,num-start-241,241,536,33.37145447731018,True,,True,1,False,1000,True,1.0
./expes/v2_2020-11-27_di_500-prng-3,daily_issda_500,500,first-500,131,rng,num-start-21,21,536,1001.2365379333496,False,,False,0,True,1000,True,0.0
./expes/v2_2020-11-27_di_500-prng-3,daily_issda_500,500,first-500,431,rng,num-start-81,81,536,1003.7848298549652,False,,False,0,True,1000,True,0.0
./expes/v2_2020-11-27_di_500-prng-3,daily_issda_500,500,first-500,361,rng,num-start-241,241,536,14.703611850738525,True,,True,1,False,1000,True,1.0
./expes/v2_2020-11-27_di_500-prng-3,daily_issda_500,500,first-500,351,rng,num-start-41,41,536,1001.8555812835693,False,,False,0,True,1000,True,0.0
./expes/v2_2020-11-27_di_500-prng-3,daily_issda_500,500,first-500,431,rng,num-start-211,211,536,14.598567485809326,True,,True,1,False,1000,True,1.0
./expes/v2_2020-11-27_di_500-prng-3,daily_issda_500,500,first-500,81,rng,num-start-21,21,536,1001.1944446563721,False,,False,0,True,1000,True,0.0
./expes/v2_2020-11-27_di_500-prng-3,daily_issda_500,500,first-500,471,rng,num-start-241,241,536,13.240362167358398,True,,True,1,False,1000,True,1.0
./expes/v2_2020-11-27_di_500-prng-3,daily_issda_500,500,first-500,91,rng,num-start-281,281,536,18.80184292793274,True,,True,1,False,1000,True,1.0
./expes/v2_2020-11-27_di_500-prng-3,daily_issda_500,500,first-500,1,rng,num-start-71,71,536,3.410949468612671,True,,True,1,False,1000,True,1.0
./expes/v2_2020-11-27_di_500-prng-3,daily_issda_500,500,first-500,71,rng,num-start-171,171,536,25.6924250125885,True,,True,1,False,1000,True,1.0
./expes/v2_2020-11-27_di_500-prng-3,daily_issda_500,500,first-500,131,rng,num-start-291,291,536,23.31849980354309,True,,True,1,False,1000,True,1.0
./expes/v2_2020-11-27_di_500-prng-3,daily_issda_500,500,first-500,431,rng,num-start-161,161,536,9.338000059127808,True,,True,1,False,1000,True,1.0
./expes/v2_2020-11-27_di_500-prng-3,daily_issda_500,500,first-500,481,rng,num-start-211,211,536,11.14037537574768,True,,True,1,False,1000,True,1.0
./expes/v2_2020-11-27_di_500-prng-3,daily_issda_500,500,first-500,281,rng,num-start-51,51,536,1002.3039524555206,False,,False,0,True,1000,True,0.0
./expes/v2_2020-11-27_di_500-prng-3,daily_issda_500,500,first-500,281,rng,num-start-231,231,536,28.264937162399292,True,,True,1,False,1000,True,1.0
./expes/v2_2020-11-27_di_500-prng-3,daily_issda_500,500,first-500,251,rng,num-start-161,161,536,1006.9868900775909,False,,False,0,True,1000,True,0.0
./expes/v2_2020-11-27_di_500-prng-3,daily_issda_500,500,first-500,291,rng,num-start-181,181,536,1008.0696215629578,False,,False,0,True,1000,True,0.0
./expes/v2_2020-11-27_di_500-prng-3,daily_issda_500,500,first-500,371,rng,num-start-1,1,536,1.410613775253296,False,,False,2,False,1000,True,1.0
./expes/v2_2020-11-27_di_500-prng-3,daily_issda_500,500,first-500,471,rng,num-start-61,61,536,6.899571418762207,True,,True,1,False,1000,True,1.0
./expes/v2_2020-11-27_di_500-prng-3,daily_issda_500,500,first-500,91,rng,num-start-51,51,536,1002.9717493057251,False,,False,0,True,1000,True,0.0
./expes/v2_2020-11-27_di_500-prng-3,daily_issda_500,500,first-500,461,rng,num-start-271,271,536,14.675277709960938,True,,True,1,False,1000,True,1.0
./expes/v2_2020-11-27_di_500-prng-3,daily_issda_500,500,first-500,401,rng,num-start-81,81,536,1003.6229796409607,False,,False,0,True,1000,True,0.0
./expes/v2_2020-11-27_di_500-prng-3,daily_issda_500,500,first-500,21,rng,num-start-161,161,536,8.75836968421936,True,,True,1,False,1000,True,1.0
./expes/v2_2020-11-27_di_500-prng-3,daily_issda_500,500,first-500,111,rng,num-start-251,251,536,18.73944640159607,True,,True,1,False,1000,True,1.0
./expes/v2_2020-11-27_di_500-prng-3,daily_issda_500,500,first-500,251,rng,num-start-281,281,536,21.159499168395996,True,,True,1,False,1000,True,1.0
./expes/v2_2020-11-27_di_500-prng-3,daily_issda_500,500,first-500,381,rng,num-start-271,271,536,16.571511030197144,True,,True,1,False,1000,True,1.0
./expes/v2_2020-11-27_di_500-prng-3,daily_issda_500,500,first-500,401,rng,num-start-241,241,536,15.605051040649414,True,,True,1,False,1000,True,1.0
./expes/v2_2020-11-27_di_500-prng-3,daily_issda_500,500,first-500,51,rng,num-start-11,11,536,1000.6622319221497,False,,False,0,True,1000,True,0.0
./expes/v2_2020-11-27_di_500-prng-3,daily_issda_500,500,first-500,211,rng,num-start-21,21,536,1001.1677131652832,False,,False,0,True,1000,True,0.0
./expes/v2_2020-11-27_di_500-prng-3,daily_issda_500,500,first-500,51,rng,num-start-111,111,536,12.057116270065308,True,,True,1,False,1000,True,1.0
./expes/v2_2020-11-27_di_500-prng-3,daily_issda_500,500,first-500,331,rng,num-start-11,11,536,1000.9968383312225,False,,False,0,True,1000,True,0.0
./expes/v2_2020-11-27_di_500-prng-3,daily_issda_500,500,first-500,21,rng,num-start-271,271,536,13.705091714859009,True,,True,1,False,1000,True,1.0
./expes/v2_2020-11-27_di_500-prng-3,daily_issda_500,500,first-500,141,rng,num-start-241,241,536,18.815627813339233,True,,True,1,False,1000,True,1.0
./expes/v2_2020-11-27_di_500-prng-3,daily_issda_500,500,first-500,461,rng,num-start-271,271,536,14.521116495132446,True,,True,1,False,1000,True,1.0
./expes/v2_2020-11-27_di_500-prng-3,daily_issda_500,500,first-500,71,rng,num-start-271,271,536,15.853737592697144,True,,True,1,False,1000,True,1.0
./expes/v2_2020-11-27_di_500-prng-3,daily_issda_500,500,first-500,91,rng,num-start-121,121,536,1005.329178571701,False,,False,0,True,1000,True,0.0
./expes/v2_2020-11-27_di_500-prng-3,daily_issda_500,500,first-500,201,rng,num-start-21,21,536,1001.2361741065979,False,,False,0,True,1000,True,0.0
./expes/v2_2020-11-27_di_500-prng-3,daily_issda_500,500,first-500,431,rng,num-start-141,141,536,21.066086053848267,True,,True,1,False,1000,True,1.0
./expes/v2_2020-11-27_di_500-prng-3,daily_issda_500,500,first-500,81,rng,num-start-281,281,536,19.990654230117798,True,,True,1,False,1000,True,1.0
./expes/v2_2020-11-27_di_500-prng-3,daily_issda_500,500,first-500,101,rng,num-start-151,151,536,180.32333517074585,True,,True,1,False,1000,True,1.0
./expes/v2_2020-11-27_di_500-prng-3,daily_issda_500,500,first-500,111,rng,num-start-261,261,536,17.244180917739868,True,,True,1,False,1000,True,1.0
./expes/v2_2020-11-27_di_500-prng-3,daily_issda_500,500,first-500,41,rng,num-start-221,221,536,13.146852016448975,True,,True,1,False,1000,True,1.0
./expes/v2_2020-11-27_di_500-prng-3,daily_issda_500,500,first-500,171,rng,num-start-21,21,536,1001.1937084197998,False,,False,0,True,1000,True,0.0
./expes/v2_2020-11-27_di_500-prng-3,daily_issda_500,500,first-500,361,rng,num-start-261,261,536,19.868034601211548,True,,True,1,False,1000,True,1.0
./expes/v2_2020-11-27_di_500-prng-3,daily_issda_500,500,first-500,31,rng,num-start-131,131,536,7.82545018196106,True,,True,1,False,1000,True,1.0
./expes/v2_2020-11-27_di_500-prng-3,daily_issda_500,500,first-500,441,rng,num-start-111,111,536,14.801478147506714,True,,True,1,False,1000,True,1.0
./expes/v2_2020-11-27_di_500-prng-3,daily_issda_500,500,first-500,341,rng,num-start-101,101,536,1004.6383588314056,False,,False,0,True,1000,True,0.0
./expes/v2_2020-11-27_di_500-prng-3,daily_issda_500,500,first-500,51,rng,num-start-61,61,536,1002.8187732696533,False,,False,0,True,1000,True,0.0
./expes/v2_2020-11-27_di_500-prng-3,daily_issda_500,500,first-500,121,rng,num-start-271,271,536,19.308937311172485,True,,True,1,False,1000,True,1.0
./expes/v2_2020-11-27_di_500-prng-3,daily_issda_500,500,first-500,441,rng,num-start-191,191,536,12.916865825653076,True,,True,1,False,1000,True,1.0
./expes/v2_2020-11-27_di_500-prng-3,daily_issda_500,500,first-500,211,rng,num-start-261,261,536,20.07293963432312,True,,True,1,False,1000,True,1.0
./expes/v2_2020-11-27_di_500-prng-3,daily_issda_500,500,first-500,61,rng,num-start-201,201,536,14.199186086654663,True,,True,1,False,1000,True,1.0
./expes/v2_2020-11-27_di_500-prng-3,daily_issda_500,500,first-500,351,rng,num-start-131,131,536,1006.2312562465668,False,,False,0,True,1000,True,0.0
./expes/v2_2020-11-27_di_500-prng-3,daily_issda_500,500,first-500,81,rng,num-start-221,221,536,15.633607864379883,True,,True,1,False,1000,True,1.0
./expes/v2_2020-11-27_di_500-prng-3,daily_issda_500,500,first-500,21,rng,num-start-61,61,536,11.188350200653076,True,,True,1,False,1000,True,1.0
./expes/v2_2020-11-27_di_500-prng-3,daily_issda_500,500,first-500,211,rng,num-start-171,171,536,1007.8584232330322,False,,False,0,True,1000,True,0.0
./expes/v2_2020-11-27_di_500-prng-3,daily_issda_500,500,first-500,121,rng,num-start-61,61,536,1002.8152599334717,False,,False,0,True,1000,True,0.0
./expes/v2_2020-11-27_di_500-prng-3,daily_issda_500,500,first-500,201,rng,num-start-21,21,536,1001.056853055954,False,,False,0,True,1000,True,0.0
./expes/v2_2020-11-27_di_500-prng-3,daily_issda_500,500,first-500,461,rng,num-start-101,101,536,15.71512484550476,True,,True,1,False,1000,True,1.0
./expes/v2_2020-11-27_di_500-prng-3,daily_issda_500,500,first-500,91,rng,num-start-11,11,536,1000.9533128738403,False,,False,0,True,1000,True,0.0
./expes/v2_2020-11-27_di_500-prng-3,daily_issda_500,500,first-500,431,rng,num-start-261,261,536,15.667690992355347,True,,True,1,False,1000,True,1.0
./expes/v2_2020-11-27_di_500-prng-3,daily_issda_500,500,first-500,381,rng,num-start-81,81,536,1003.8967034816742,False,,False,0,True,1000,True,0.0
./expes/v2_2020-11-27_di_500-prng-3,daily_issda_500,500,first-500,61,rng,num-start-71,71,536,1003.3498342037201,False,,False,0,True,1000,True,0.0
./expes/v2_2020-11-27_di_500-prng-3,daily_issda_500,500,first-500,221,rng,num-start-241,241,536,33.14463949203491,True,,True,1,False,1000,True,1.0
./expes/v2_2020-11-27_di_500-prng-3,daily_issda_500,500,first-500,171,rng,num-start-151,151,536,1007.1116280555725,False,,False,0,True,1000,True,0.0
./expes/v2_2020-11-27_di_500-prng-3,daily_issda_500,500,first-500,201,rng,num-start-31,31,536,1001.6969275474548,False,,False,0,True,1000,True,0.0
./expes/v2_2020-11-27_di_500-prng-3,daily_issda_500,500,first-500,461,rng,num-start-161,161,536,10.255172967910767,True,,True,1,False,1000,True,1.0
./expes/v2_2020-11-27_di_500-prng-3,daily_issda_500,500,first-500,381,rng,num-start-111,111,536,1005.0793907642365,False,,False,0,True,1000,True,0.0
./expes/v2_2020-11-27_di_500-prng-3,daily_issda_500,500,first-500,431,rng,num-start-91,91,536,1004.1275765895844,False,,False,0,True,1000,True,0.0
./expes/v2_2020-11-27_di_500-prng-3,daily_issda_500,500,first-500,221,rng,num-start-201,201,536,300.68290758132935,True,,True,1,False,1000,True,1.0
./expes/v2_2020-11-27_di_500-prng-3,daily_issda_500,500,first-500,291,rng,num-start-201,201,536,33.11210227012634,True,,True,1,False,1000,True,1.0
./expes/v2_2020-11-27_di_500-prng-3,daily_issda_500,500,first-500,491,rng,num-start-191,191,536,10.160038948059082,True,,True,1,False,1000,True,1.0
./expes/v2_2020-11-27_di_500-prng-3,daily_issda_500,500,first-500,221,rng,num-start-151,151,536,1006.7251627445221,False,,False,0,True,1000,True,0.0
./expes/v2_2020-11-27_di_500-prng-3,daily_issda_500,500,first-500,31,rng,num-start-171,171,536,10.97010850906372,True,,True,1,False,1000,True,1.0
./expes/v2_2020-11-27_di_500-prng-3,daily_issda_500,500,first-500,191,rng,num-start-11,11,536,1000.7666764259338,False,,False,0,True,1000,True,0.0
./expes/v2_2020-11-27_di_500-prng-3,daily_issda_500,500,first-500,31,rng,num-start-131,131,536,8.187054872512817,True,,True,1,False,1000,True,1.0
./expes/v2_2020-11-27_di_500-prng-3,daily_issda_500,500,first-500,71,rng,num-start-51,51,536,1002.3628718852997,False,,False,0,True,1000,True,0.0
./expes/v2_2020-11-27_di_500-prng-3,daily_issda_500,500,first-500,111,rng,num-start-181,181,536,16.156625747680664,True,,True,1,False,1000,True,1.0
./expes/v2_2020-11-27_di_500-prng-3,daily_issda_500,500,first-500,361,rng,num-start-271,271,536,16.801127672195435,True,,True,1,False,1000,True,1.0
./expes/v2_2020-11-27_di_500-prng-3,daily_issda_500,500,first-500,111,rng,num-start-251,251,536,18.851138591766357,True,,True,1,False,1000,True,1.0
./expes/v2_2020-11-27_di_500-prng-3,daily_issda_500,500,first-500,61,rng,num-start-51,51,536,1002.2937586307526,False,,False,0,True,1000,True,0.0
./expes/v2_2020-11-27_di_500-prng-3,daily_issda_500,500,first-500,181,rng,num-start-261,261,536,17.585471630096436,True,,True,1,False,1000,True,1.0
./expes/v2_2020-11-27_di_500-prng-3,daily_issda_500,500,first-500,51,rng,num-start-121,121,536,17.34533405303955,True,,True,1,False,1000,True,1.0
./expes/v2_2020-11-27_di_500-prng-3,daily_issda_500,500,first-500,411,rng,num-start-51,51,536,1002.4408850669861,False,,False,0,True,1000,True,0.0
./expes/v2_2020-11-27_di_500-prng-3,daily_issda_500,500,first-500,41,rng,num-start-61,61,536,1002.819757938385,False,,False,0,True,1000,True,0.0
./expes/v2_2020-11-27_di_500-prng-3,daily_issda_500,500,first-500,111,rng,num-start-191,191,536,19.77669095993042,True,,True,1,False,1000,True,1.0
./expes/v2_2020-11-27_di_500-prng-3,daily_issda_500,500,first-500,171,rng,num-start-201,201,536,57.21865963935852,True,,True,1,False,1000,True,1.0
./expes/v2_2020-11-27_di_500-prng-3,daily_issda_500,500,first-500,341,rng,num-start-261,261,536,18.645517349243164,True,,True,1,False,1000,True,1.0
./expes/v2_2020-11-27_di_500-prng-3,daily_issda_500,500,first-500,381,rng,num-start-271,271,536,19.426309823989868,True,,True,1,False,1000,True,1.0
./expes/v2_2020-11-27_di_500-prng-3,daily_issda_500,500,first-500,151,rng,num-start-231,231,536,15.721230745315552,True,,True,1,False,1000,True,1.0
./expes/v2_2020-11-27_di_500-prng-3,daily_issda_500,500,first-500,191,rng,num-start-11,11,536,1000.5851366519928,False,,False,0,True,1000,True,0.0
./expes/v2_2020-11-27_di_500-prng-3,daily_issda_500,500,first-500,201,rng,num-start-221,221,536,67.49237871170044,True,,True,1,False,1000,True,1.0
./expes/v2_2020-11-27_di_500-prng-3,daily_issda_500,500,first-500,81,rng,num-start-191,191,536,13.322946786880493,True,,True,1,False,1000,True,1.0
./expes/v2_2020-11-27_di_500-prng-3,daily_issda_500,500,first-500,291,rng,num-start-281,281,536,19.32517910003662,True,,True,1,False,1000,True,1.0
./expes/v2_2020-11-27_di_500-prng-3,daily_issda_500,500,first-500,471,rng,num-start-61,61,536,1002.8676478862762,False,,False,1,True,1000,True,0.0
./expes/v2_2020-11-27_di_500-prng-3,daily_issda_500,500,first-500,461,rng,num-start-31,31,536,1001.5338110923767,False,,False,0,True,1000,True,0.0
./expes/v2_2020-11-27_di_500-prng-3,daily_issda_500,500,first-500,221,rng,num-start-81,81,536,1003.7939789295197,False,,False,0,True,1000,True,0.0
./expes/v2_2020-11-27_di_500-prng-3,daily_issda_500,500,first-500,401,rng,num-start-241,241,536,14.579939126968384,True,,True,1,False,1000,True,1.0
./expes/v2_2020-11-27_di_500-prng-3,daily_issda_500,500,first-500,21,rng,num-start-71,71,536,3.941823720932007,True,,True,1,False,1000,True,1.0
./expes/v2_2020-11-27_di_500-prng-3,daily_issda_500,500,first-500,451,rng,num-start-231,231,536,12.405511617660522,True,,True,1,False,1000,True,1.0
./expes/v2_2020-11-27_di_500-prng-3,daily_issda_500,500,first-500,421,rng,num-start-181,181,536,10.867489576339722,True,,True,1,False,1000,True,1.0
./expes/v2_2020-11-27_di_500-prng-3,daily_issda_500,500,first-500,231,rng,num-start-81,81,536,1003.7636387348175,False,,False,0,True,1000,True,0.0
./expes/v2_2020-11-27_di_500-prng-3,daily_issda_500,500,first-500,371,rng,num-start-151,151,536,1007.0351467132568,False,,False,0,True,1000,True,0.0
./expes/v2_2020-11-27_di_500-prng-3,daily_issda_500,500,first-500,71,rng,num-start-161,161,536,10.105997085571289,True,,True,1,False,1000,True,1.0
./expes/v2_2020-11-27_di_500-prng-3,daily_issda_500,500,first-500,391,rng,num-start-271,271,536,17.95819115638733,True,,True,1,False,1000,True,1.0
./expes/v2_2020-11-27_di_500-prng-3,daily_issda_500,500,first-500,181,rng,num-start-71,71,536,1003.4138448238373,False,,False,0,True,1000,True,0.0
./expes/v2_2020-11-27_di_500-prng-3,daily_issda_500,500,first-500,251,rng,num-start-51,51,536,1002.3970632553101,False,,False,0,True,1000,True,0.0
./expes/v2_2020-11-27_di_500-prng-3,daily_issda_500,500,first-500,341,rng,num-start-131,131,536,1006.0364377498627,False,,False,0,True,1000,True,0.0
./expes/v2_2020-11-27_di_500-prng-3,daily_issda_500,500,first-500,351,rng,num-start-161,161,536,162.839111328125,True,,True,1,False,1000,True,1.0
./expes/v2_2020-11-27_di_500-prng-3,daily_issda_500,500,first-500,1,rng,num-start-261,261,536,11.658086776733398,True,,True,1,False,1000,True,1.0
./expes/v2_2020-11-27_di_500-prng-3,daily_issda_500,500,first-500,181,rng,num-start-91,91,536,1004.0041947364807,False,,False,0,True,1000,True,0.0
./expes/v2_2020-11-27_di_500-prng-3,daily_issda_500,500,first-500,211,rng,num-start-21,21,536,1001.1608760356903,False,,False,0,True,1000,True,0.0
./expes/v2_2020-11-27_di_500-prng-3,daily_issda_500,500,first-500,301,rng,num-start-251,251,536,26.130720853805542,True,,True,1,False,1000,True,1.0
./expes/v2_2020-11-27_di_500-prng-3,daily_issda_500,500,first-500,191,rng,num-start-181,181,536,1008.0740022659302,False,,False,0,True,1000,True,0.0
./expes/v2_2020-11-27_di_500-prng-3,daily_issda_500,500,first-500,201,rng,num-start-161,161,536,1007.5291957855225,False,,False,0,True,1000,True,0.0
./expes/v2_2020-11-27_di_500-prng-3,daily_issda_500,500,first-500,1,rng,num-start-251,251,536,11.625616073608398,True,,True,1,False,1000,True,1.0
./expes/v2_2020-11-27_di_500-prng-3,daily_issda_500,500,first-500,361,rng,num-start-51,51,536,1002.4246454238892,False,,False,0,True,1000,True,0.0
./expes/v2_2020-11-27_di_500-prng-3,daily_issda_500,500,first-500,51,rng,num-start-221,221,536,21.05281686782837,True,,True,1,False,1000,True,1.0
./expes/v2_2020-11-27_di_500-prng-3,daily_issda_500,500,first-500,231,rng,num-start-111,111,536,1005.3354189395905,False,,False,0,True,1000,True,0.0
./expes/v2_2020-11-27_di_500-prng-3,daily_issda_500,500,first-500,31,rng,num-start-281,281,536,16.346611738204956,True,,True,1,False,1000,True,1.0
./expes/v2_2020-11-27_di_500-prng-3,daily_issda_500,500,first-500,81,rng,num-start-291,291,536,19.899522066116333,True,,True,1,False,1000,True,1.0
./expes/v2_2020-11-27_di_500-prng-3,daily_issda_500,500,first-500,91,rng,num-start-111,111,536,1005.2312915325165,False,,False,0,True,1000,True,0.0
./expes/v2_2020-11-27_di_500-prng-3,daily_issda_500,500,first-500,231,rng,num-start-121,121,536,1005.72749376297,False,,False,0,True,1000,True,0.0
./expes/v2_2020-11-27_di_500-prng-3,daily_issda_500,500,first-500,211,rng,num-start-281,281,536,22.27703094482422,True,,True,1,False,1000,True,1.0
./expes/v2_2020-11-27_di_500-prng-3,daily_issda_500,500,first-500,201,rng,num-start-91,91,536,1004.2493958473206,False,,False,0,True,1000,True,0.0
./expes/v2_2020-11-27_di_500-prng-3,daily_issda_500,500,first-500,351,rng,num-start-131,131,536,1005.9953842163086,False,,False,0,True,1000,True,0.0
./expes/v2_2020-11-27_di_500-prng-3,daily_issda_500,500,first-500,491,rng,num-start-31,31,536,2.56514573097229,True,,True,1,False,1000,True,1.0
./expes/v2_2020-11-27_di_500-prng-3,daily_issda_500,500,first-500,351,rng,num-start-251,251,536,17.70695400238037,True,,True,1,False,1000,True,1.0
./expes/v2_2020-11-27_di_500-prng-3,daily_issda_500,500,first-500,391,rng,num-start-171,171,536,25.595791339874268,True,,True,1,False,1000,True,1.0
./expes/v2_2020-11-27_di_500-prng-3,daily_issda_500,500,first-500,101,rng,num-start-291,291,536,16.27468967437744,True,,True,1,False,1000,True,1.0
./expes/v2_2020-11-27_di_500-prng-3,daily_issda_500,500,first-500,201,rng,num-start-291,291,536,19.642563581466675,True,,True,1,False,1000,True,1.0
./expes/v2_2020-11-27_di_500-prng-3,daily_issda_500,500,first-500,181,rng,num-start-141,141,536,1006.3314399719238,False,,False,0,True,1000,True,0.0
./expes/v2_2020-11-27_di_500-prng-3,daily_issda_500,500,first-500,71,rng,num-start-241,241,536,14.686917781829834,True,,True,1,False,1000,True,1.0
./expes/v2_2020-11-27_di_500-prng-3,daily_issda_500,500,first-500,331,rng,num-start-181,181,536,1008.2148792743683,False,,False,0,True,1000,True,0.0
./expes/v2_2020-11-27_di_500-prng-3,daily_issda_500,500,first-500,231,rng,num-start-1,1,536,3.7372708320617676,False,,False,2,False,1000,True,1.0
./expes/v2_2020-11-27_di_500-prng-3,daily_issda_500,500,first-500,411,rng,num-start-251,251,536,15.663275003433228,True,,True,1,False,1000,True,1.0
./expes/v2_2020-11-27_di_500-prng-3,daily_issda_500,500,first-500,341,rng,num-start-271,271,536,21.108871698379517,True,,True,1,False,1000,True,1.0
