expe,clients,clients_size,clients_subset,agg_size,method,days,days_size,days_total,time,valid,valid_sum,success,nsols,wall_hit,wall_time,pooled,valid_sums
./expes/v2_2020-11-27_di_500-prng-3,daily_issda_500,500,first-500,101,rng,num-start-151,151,536,73.08614158630371,True,,True,1,False,1000,True,1.0
./expes/v2_2020-11-27_di_500-prng-3,daily_issda_500,500,first-500,431,rng,num-start-1,1,536,8.333485126495361,False,,False,2,False,1000,True,1.0
./expes/v2_2020-11-27_di_500-prng-3,daily_issda_500,500,first-500,281,rng,num-start-101,101,536,1004.8095853328705,False,,False,0,True,1000,True,0.0
./expes/v2_2020-11-27_di_500-prng-3,daily_issda_500,500,first-500,41,rng,num-start-1,1,536,4.336697578430176,False,,False,2,False,1000,True,0.0
./expes/v2_2020-11-27_di_500-prng-3,daily_issda_500,500,first-500,1,rng,num-start-11,11,536,0.5148782730102539,True,,True,1,False,1000,True,1.0
./expes/v2_2020-11-27_di_500-prng-3,daily_issda_500,500,first-500,281,rng,num-start-51,51,536,1002.4700412750244,False,,False,0,True,1000,True,0.0
./expes/v2_2020-11-27_di_500-prng-3,daily_issda_500,500,first-500,191,rng,num-start-211,211,536,66.64799523353577,True,,True,1,False,1000,True,1.0
./expes/v2_2020-11-27_di_500-prng-3,daily_issda_500,500,first-500,51,rng,num-start-41,41,536,1002.0153713226318,False,,False,0,True,1000,True,0.0
./expes/v2_2020-11-27_di_500-prng-3,daily_issda_500,500,first-500,171,rng,num-start-281,281,536,22.842830657958984,True,,True,1,False,1000,True,1.0
./expes/v2_2020-11-27_di_500-prng-3,daily_issda_500,500,first-500,371,rng,num-start-151,151,536,1006.7474455833435,False,,False,0,True,1000,True,0.0
./expes/v2_2020-11-27_di_500-prng-3,daily_issda_500,500,first-500,91,rng,num-start-81,81,536,1003.8731565475464,False,,False,0,True,1000,True,0.0
./expes/v2_2020-11-27_di_500-prng-3,daily_issda_500,500,first-500,381,rng,num-start-21,21,536,1001.1930437088013,False,,False,0,True,1000,True,0.0
./expes/v2_2020-11-27_di_500-prng-3,daily_issda_500,500,first-500,31,rng,num-start-231,231,536,14.109700679779053,True,,True,1,False,1000,True,1.0
./expes/v2_2020-11-27_di_500-prng-3,daily_issda_500,500,first-500,231,rng,num-start-31,31,536,1001.5713119506836,False,,False,0,True,1000,True,0.0
./expes/v2_2020-11-27_di_500-prng-3,daily_issda_500,500,first-500,71,rng,num-start-231,231,536,20.324437856674194,True,,True,1,False,1000,True,1.0
./expes/v2_2020-11-27_di_500-prng-3,daily_issda_500,500,first-500,321,rng,num-start-221,221,536,27.29413080215454,True,,True,1,False,1000,True,1.0
./expes/v2_2020-11-27_di_500-prng-3,daily_issda_500,500,first-500,151,rng,num-start-21,21,536,1001.1278586387634,False,,False,0,True,1000,True,0.0
./expes/v2_2020-11-27_di_500-prng-3,daily_issda_500,500,first-500,191,rng,num-start-131,131,536,1006.0894505977631,False,,False,0,True,1000,True,0.0
./expes/v2_2020-11-27_di_500-prng-3,daily_issda_500,500,first-500,411,rng,num-start-221,221,536,16.487650394439697,True,,True,1,False,1000,True,1.0
./expes/v2_2020-11-27_di_500-prng-3,daily_issda_500,500,first-500,191,rng,num-start-251,251,536,20.046196937561035,True,,True,1,False,1000,True,1.0
./expes/v2_2020-11-27_di_500-prng-3,daily_issda_500,500,first-500,81,rng,num-start-171,171,536,23.0684916973114,True,,True,1,False,1000,True,1.0
./expes/v2_2020-11-27_di_500-prng-3,daily_issda_500,500,first-500,151,rng,num-start-101,101,536,1005.7877440452576,False,,False,0,True,1000,True,0.0
./expes/v2_2020-11-27_di_500-prng-3,daily_issda_500,500,first-500,101,rng,num-start-81,81,536,1003.8383865356445,False,,False,0,True,1000,True,0.0
./expes/v2_2020-11-27_di_500-prng-3,daily_issda_500,500,first-500,61,rng,num-start-171,171,536,11.52800464630127,True,,True,1,False,1000,True,1.0
./expes/v2_2020-11-27_di_500-prng-3,daily_issda_500,500,first-500,271,rng,num-start-121,121,536,1005.7541034221649,False,,False,0,True,1000,True,0.0
./expes/v2_2020-11-27_di_500-prng-3,daily_issda_500,500,first-500,221,rng,num-start-61,61,536,1002.8612804412842,False,,False,0,True,1000,True,0.0
./expes/v2_2020-11-27_di_500-prng-3,daily_issda_500,500,first-500,21,rng,num-start-81,81,536,4.5624613761901855,True,,True,1,False,1000,True,1.0
./expes/v2_2020-11-27_di_500-prng-3,daily_issda_500,500,first-500,21,rng,num-start-51,51,536,1002.5534768104553,False,,False,0,True,1000,True,0.0
./expes/v2_2020-11-27_di_500-prng-3,daily_issda_500,500,first-500,111,rng,num-start-211,211,536,14.861402750015259,True,,True,1,False,1000,True,1.0
./expes/v2_2020-11-27_di_500-prng-3,daily_issda_500,500,first-500,251,rng,num-start-231,231,536,33.308297872543335,True,,True,1,False,1000,True,1.0
./expes/v2_2020-11-27_di_500-prng-3,daily_issda_500,500,first-500,71,rng,num-start-131,131,536,36.730642557144165,True,,True,1,False,1000,True,1.0
./expes/v2_2020-11-27_di_500-prng-3,daily_issda_500,500,first-500,111,rng,num-start-11,11,536,1000.702125787735,False,,False,0,True,1000,True,0.0
./expes/v2_2020-11-27_di_500-prng-3,daily_issda_500,500,first-500,401,rng,num-start-211,211,536,14.474954843521118,True,,True,1,False,1000,True,1.0
./expes/v2_2020-11-27_di_500-prng-3,daily_issda_500,500,first-500,481,rng,num-start-261,261,536,15.336309432983398,True,,True,1,False,1000,True,1.0
./expes/v2_2020-11-27_di_500-prng-3,daily_issda_500,500,first-500,461,rng,num-start-101,101,536,7.136268138885498,True,,True,1,False,1000,True,1.0
./expes/v2_2020-11-27_di_500-prng-3,daily_issda_500,500,first-500,201,rng,num-start-51,51,536,1002.421070098877,False,,False,0,True,1000,True,0.0
./expes/v2_2020-11-27_di_500-prng-3,daily_issda_500,500,first-500,391,rng,num-start-21,21,536,1001.1363151073456,False,,False,0,True,1000,True,0.0
./expes/v2_2020-11-27_di_500-prng-3,daily_issda_500,500,first-500,411,rng,num-start-211,211,536,16.874154090881348,True,,True,1,False,1000,True,1.0
./expes/v2_2020-11-27_di_500-prng-3,daily_issda_500,500,first-500,371,rng,num-start-51,51,536,1002.578691482544,False,,False,0,True,1000,True,0.0
./expes/v2_2020-11-27_di_500-prng-3,daily_issda_500,500,first-500,331,rng,num-start-151,151,536,1007.198303937912,False,,False,0,True,1000,True,0.0
./expes/v2_2020-11-27_di_500-prng-3,daily_issda_500,500,first-500,31,rng,num-start-101,101,536,7.407285690307617,True,,True,1,False,1000,True,1.0
./expes/v2_2020-11-27_di_500-prng-3,daily_issda_500,500,first-500,41,rng,num-start-111,111,536,12.744081735610962,True,,True,1,False,1000,True,1.0
./expes/v2_2020-11-27_di_500-prng-3,daily_issda_500,500,first-500,481,rng,num-start-271,271,536,14.608669996261597,True,,True,1,False,1000,True,1.0
./expes/v2_2020-11-27_di_500-prng-3,daily_issda_500,500,first-500,371,rng,num-start-221,221,536,33.05388140678406,True,,True,1,False,1000,True,1.0
./expes/v2_2020-11-27_di_500-prng-3,daily_issda_500,500,first-500,221,rng,num-start-1,1,536,1.4283978939056396,False,,False,2,False,1000,True,1.0
./expes/v2_2020-11-27_di_500-prng-3,daily_issda_500,500,first-500,421,rng,num-start-271,271,536,20.164828777313232,True,,True,1,False,1000,True,1.0
./expes/v2_2020-11-27_di_500-prng-3,daily_issda_500,500,first-500,461,rng,num-start-201,201,536,11.415571212768555,True,,True,1,False,1000,True,1.0
./expes/v2_2020-11-27_di_500-prng-3,daily_issda_500,500,first-500,241,rng,num-start-71,71,536,1003.5030250549316,False,,False,0,True,1000,True,0.0
./expes/v2_2020-11-27_di_500-prng-3,daily_issda_500,500,first-500,431,rng,num-start-161,161,536,9.708560943603516,True,,True,1,False,1000,True,1.0
./expes/v2_2020-11-27_di_500-prng-3,daily_issda_500,500,first-500,121,rng,num-start-131,131,536,1005.8825645446777,False,,False,0,True,1000,True,0.0
./expes/v2_2020-11-27_di_500-prng-3,daily_issda_500,500,first-500,1,rng,num-start-201,201,536,9.723810911178589,True,,True,1,False,1000,True,1.0
./expes/v2_2020-11-27_di_500-prng-3,daily_issda_500,500,first-500,341,rng,num-start-101,101,536,1004.7264606952667,False,,False,0,True,1000,True,0.0
./expes/v2_2020-11-27_di_500-prng-3,daily_issda_500,500,first-500,341,rng,num-start-31,31,536,1001.4971058368683,False,,False,0,True,1000,True,0.0
./expes/v2_2020-11-27_di_500-prng-3,daily_issda_500,500,first-500,141,rng,num-start-261,261,536,18.46573805809021,True,,True,1,False,1000,True,1.0
./expes/v2_2020-11-27_di_500-prng-3,daily_issda_500,500,first-500,81,rng,num-start-71,71,536,1003.3633005619049,False,,False,0,True,1000,True,0.0
./expes/v2_2020-11-27_di_500-prng-3,daily_issda_500,500,first-500,321,rng,num-start-171,171,536,1007.7534685134888,False,,False,0,True,1000,True,0.0
./expes/v2_2020-11-27_di_500-prng-3,daily_issda_500,500,first-500,31,rng,num-start-131,131,536,7.568240165710449,True,,True,1,False,1000,True,1.0
./expes/v2_2020-11-27_di_500-prng-3,daily_issda_500,500,first-500,201,rng,num-start-281,281,536,20.757103204727173,True,,True,1,False,1000,True,1.0
./expes/v2_2020-11-27_di_500-prng-3,daily_issda_500,500,first-500,471,rng,num-start-11,11,536,1000.5817360877991,False,,False,0,True,1000,True,0.0
./expes/v2_2020-11-27_di_500-prng-3,daily_issda_500,500,first-500,331,rng,num-start-31,31,536,1001.5968809127808,False,,False,0,True,1000,True,0.0
./expes/v2_2020-11-27_di_500-prng-3,daily_issda_500,500,first-500,451,rng,num-start-191,191,536,11.125279188156128,True,,True,1,False,1000,True,1.0
./expes/v2_2020-11-27_di_500-prng-3,daily_issda_500,500,first-500,491,rng,num-start-101,101,536,5.3717286586761475,True,,True,1,False,1000,True,1.0
./expes/v2_2020-11-27_di_500-prng-3,daily_issda_500,500,first-500,391,rng,num-start-51,51,536,1002.4467022418976,False,,False,0,True,1000,True,0.0
./expes/v2_2020-11-27_di_500-prng-3,daily_issda_500,500,first-500,311,rng,num-start-171,171,536,1008.2438523769379,False,,False,0,True,1000,True,0.0
./expes/v2_2020-11-27_di_500-prng-3,daily_issda_500,500,first-500,151,rng,num-start-51,51,536,1002.4954445362091,False,,False,0,True,1000,True,0.0
./expes/v2_2020-11-27_di_500-prng-3,daily_issda_500,500,first-500,411,rng,num-start-251,251,536,23.93347477912903,True,,True,1,False,1000,True,1.0
./expes/v2_2020-11-27_di_500-prng-3,daily_issda_500,500,first-500,81,rng,num-start-151,151,536,16.7225558757782,True,,True,1,False,1000,True,1.0
./expes/v2_2020-11-27_di_500-prng-3,daily_issda_500,500,first-500,41,rng,num-start-191,191,536,16.178569316864014,True,,True,1,False,1000,True,1.0
./expes/v2_2020-11-27_di_500-prng-3,daily_issda_500,500,first-500,321,rng,num-start-261,261,536,22.72873830795288,True,,True,1,False,1000,True,1.0
./expes/v2_2020-11-27_di_500-prng-3,daily_issda_500,500,first-500,351,rng,num-start-41,41,536,1002.002799987793,False,,False,0,True,1000,True,0.0
./expes/v2_2020-11-27_di_500-prng-3,daily_issda_500,500,first-500,31,rng,num-start-161,161,536,10.135572910308838,True,,True,1,False,1000,True,1.0
./expes/v2_2020-11-27_di_500-prng-3,daily_issda_500,500,first-500,61,rng,num-start-71,71,536,1003.2974934577942,False,,False,0,True,1000,True,0.0
./expes/v2_2020-11-27_di_500-prng-3,daily_issda_500,500,first-500,221,rng,num-start-171,171,536,1008.0904929637909,False,,False,0,True,1000,True,0.0
./expes/v2_2020-11-27_di_500-prng-3,daily_issda_500,500,first-500,331,rng,num-start-291,291,536,21.222519874572754,True,,True,1,False,1000,True,1.0
./expes/v2_2020-11-27_di_500-prng-3,daily_issda_500,500,first-500,81,rng,num-start-11,11,536,1000.5857911109924,False,,False,0,True,1000,True,0.0
./expes/v2_2020-11-27_di_500-prng-3,daily_issda_500,500,first-500,31,rng,num-start-31,31,536,1002.304874420166,False,,False,0,True,1000,True,0.0
./expes/v2_2020-11-27_di_500-prng-3,daily_issda_500,500,first-500,221,rng,num-start-61,61,536,1002.8200423717499,False,,False,0,True,1000,True,0.0
./expes/v2_2020-11-27_di_500-prng-3,daily_issda_500,500,first-500,161,rng,num-start-231,231,536,43.463775396347046,True,,True,1,False,1000,True,1.0
./expes/v2_2020-11-27_di_500-prng-3,daily_issda_500,500,first-500,121,rng,num-start-21,21,536,1001.0239112377167,False,,False,0,True,1000,True,0.0
./expes/v2_2020-11-27_di_500-prng-3,daily_issda_500,500,first-500,431,rng,num-start-61,61,536,1003.0969142913818,False,,False,0,True,1000,True,0.0
./expes/v2_2020-11-27_di_500-prng-3,daily_issda_500,500,first-500,61,rng,num-start-191,191,536,15.392706394195557,True,,True,1,False,1000,True,1.0
./expes/v2_2020-11-27_di_500-prng-3,daily_issda_500,500,first-500,201,rng,num-start-151,151,536,1007.0232660770416,False,,False,0,True,1000,True,0.0
./expes/v2_2020-11-27_di_500-prng-3,daily_issda_500,500,first-500,111,rng,num-start-171,171,536,23.11928915977478,True,,True,1,False,1000,True,1.0
./expes/v2_2020-11-27_di_500-prng-3,daily_issda_500,500,first-500,71,rng,num-start-61,61,536,1002.9777917861938,False,,False,0,True,1000,True,0.0
./expes/v2_2020-11-27_di_500-prng-3,daily_issda_500,500,first-500,51,rng,num-start-171,171,536,10.37798023223877,True,,True,1,False,1000,True,1.0
./expes/v2_2020-11-27_di_500-prng-3,daily_issda_500,500,first-500,331,rng,num-start-281,281,536,21.20167088508606,True,,True,1,False,1000,True,1.0
./expes/v2_2020-11-27_di_500-prng-3,daily_issda_500,500,first-500,451,rng,num-start-281,281,536,17.083004474639893,True,,True,1,False,1000,True,1.0
./expes/v2_2020-11-27_di_500-prng-3,daily_issda_500,500,first-500,131,rng,num-start-101,101,536,1004.6263401508331,False,,False,0,True,1000,True,0.0
./expes/v2_2020-11-27_di_500-prng-3,daily_issda_500,500,first-500,221,rng,num-start-141,141,536,1006.7982456684113,False,,False,0,True,1000,True,0.0
./expes/v2_2020-11-27_di_500-prng-3,daily_issda_500,500,first-500,221,rng,num-start-41,41,536,1001.9839749336243,False,,False,0,True,1000,True,0.0
./expes/v2_2020-11-27_di_500-prng-3,daily_issda_500,500,first-500,391,rng,num-start-61,61,536,1002.9237546920776,False,,False,0,True,1000,True,0.0
./expes/v2_2020-11-27_di_500-prng-3,daily_issda_500,500,first-500,171,rng,num-start-171,171,536,43.9716260433197,True,,True,1,False,1000,True,1.0
./expes/v2_2020-11-27_di_500-prng-3,daily_issda_500,500,first-500,281,rng,num-start-11,11,536,1000.7925112247467,False,,False,0,True,1000,True,0.0
./expes/v2_2020-11-27_di_500-prng-3,daily_issda_500,500,first-500,111,rng,num-start-231,231,536,16.511603593826294,True,,True,1,False,1000,True,1.0
./expes/v2_2020-11-27_di_500-prng-3,daily_issda_500,500,first-500,11,rng,num-start-211,211,536,12.61407732963562,True,,True,1,False,1000,True,1.0
./expes/v2_2020-11-27_di_500-prng-3,daily_issda_500,500,first-500,81,rng,num-start-1,1,536,1.2306971549987793,False,,False,2,False,1000,True,1.0
./expes/v2_2020-11-27_di_500-prng-3,daily_issda_500,500,first-500,311,rng,num-start-71,71,536,1003.399275302887,False,,False,0,True,1000,True,0.0
./expes/v2_2020-11-27_di_500-prng-3,daily_issda_500,500,first-500,471,rng,num-start-121,121,536,6.583892345428467,True,,True,1,False,1000,True,1.0
./expes/v2_2020-11-27_di_500-prng-3,daily_issda_500,500,first-500,461,rng,num-start-81,81,536,17.28149676322937,True,,True,1,False,1000,True,1.0
./expes/v2_2020-11-27_di_500-prng-3,daily_issda_500,500,first-500,91,rng,num-start-261,261,536,17.591819286346436,True,,True,1,False,1000,True,1.0
./expes/v2_2020-11-27_di_500-prng-3,daily_issda_500,500,first-500,421,rng,num-start-191,191,536,11.628990888595581,True,,True,1,False,1000,True,1.0
./expes/v2_2020-11-27_di_500-prng-3,daily_issda_500,500,first-500,321,rng,num-start-291,291,536,23.972804307937622,True,,True,1,False,1000,True,1.0
./expes/v2_2020-11-27_di_500-prng-3,daily_issda_500,500,first-500,61,rng,num-start-141,141,536,16.046440362930298,True,,True,1,False,1000,True,1.0
./expes/v2_2020-11-27_di_500-prng-3,daily_issda_500,500,first-500,351,rng,num-start-71,71,536,1003.334282875061,False,,False,0,True,1000,True,0.0
./expes/v2_2020-11-27_di_500-prng-3,daily_issda_500,500,first-500,1,rng,num-start-31,31,536,1.5321753025054932,True,,True,1,False,1000,True,1.0
./expes/v2_2020-11-27_di_500-prng-3,daily_issda_500,500,first-500,481,rng,num-start-191,191,536,11.24881386756897,True,,True,1,False,1000,True,1.0
./expes/v2_2020-11-27_di_500-prng-3,daily_issda_500,500,first-500,341,rng,num-start-221,221,536,40.216928482055664,True,,True,1,False,1000,True,1.0
./expes/v2_2020-11-27_di_500-prng-3,daily_issda_500,500,first-500,91,rng,num-start-291,291,536,17.31801724433899,True,,True,1,False,1000,True,1.0
./expes/v2_2020-11-27_di_500-prng-3,daily_issda_500,500,first-500,131,rng,num-start-271,271,536,20.00493288040161,True,,True,1,False,1000,True,1.0
./expes/v2_2020-11-27_di_500-prng-3,daily_issda_500,500,first-500,121,rng,num-start-221,221,536,18.25932240486145,True,,True,1,False,1000,True,1.0
./expes/v2_2020-11-27_di_500-prng-3,daily_issda_500,500,first-500,311,rng,num-start-251,251,536,18.99886202812195,True,,True,1,False,1000,True,1.0
./expes/v2_2020-11-27_di_500-prng-3,daily_issda_500,500,first-500,331,rng,num-start-211,211,536,29.375216484069824,True,,True,1,False,1000,True,1.0
./expes/v2_2020-11-27_di_500-prng-3,daily_issda_500,500,first-500,301,rng,num-start-231,231,536,35.67810344696045,True,,True,1,False,1000,True,1.0
./expes/v2_2020-11-27_di_500-prng-3,daily_issda_500,500,first-500,431,rng,num-start-231,231,536,15.137019395828247,True,,True,1,False,1000,True,1.0
./expes/v2_2020-11-27_di_500-prng-3,daily_issda_500,500,first-500,291,rng,num-start-41,41,536,1002.0694904327393,False,,False,0,True,1000,True,0.0
./expes/v2_2020-11-27_di_500-prng-3,daily_issda_500,500,first-500,211,rng,num-start-61,61,536,1003.0008490085602,False,,False,0,True,1000,True,0.0
./expes/v2_2020-11-27_di_500-prng-3,daily_issda_500,500,first-500,391,rng,num-start-181,181,536,26.66406559944153,True,,True,1,False,1000,True,1.0
./expes/v2_2020-11-27_di_500-prng-3,daily_issda_500,500,first-500,221,rng,num-start-171,171,536,1007.9464893341064,False,,False,0,True,1000,True,0.0
./expes/v2_2020-11-27_di_500-prng-3,daily_issda_500,500,first-500,71,rng,num-start-111,111,536,76.16924977302551,True,,True,1,False,1000,True,1.0
./expes/v2_2020-11-27_di_500-prng-3,daily_issda_500,500,first-500,371,rng,num-start-151,151,536,1007.0648918151855,False,,False,1,True,1000,True,0.0
./expes/v2_2020-11-27_di_500-prng-3,daily_issda_500,500,first-500,111,rng,num-start-281,281,536,23.86236310005188,True,,True,1,False,1000,True,1.0
./expes/v2_2020-11-27_di_500-prng-3,daily_issda_500,500,first-500,101,rng,num-start-231,231,536,17.19192910194397,True,,True,1,False,1000,True,1.0
./expes/v2_2020-11-27_di_500-prng-3,daily_issda_500,500,first-500,21,rng,num-start-171,171,536,9.958248138427734,True,,True,1,False,1000,True,1.0
./expes/v2_2020-11-27_di_500-prng-3,daily_issda_500,500,first-500,451,rng,num-start-81,81,536,1003.8538510799408,False,,False,0,True,1000,True,0.0
./expes/v2_2020-11-27_di_500-prng-3,daily_issda_500,500,first-500,431,rng,num-start-131,131,536,14.882592916488647,True,,True,1,False,1000,True,1.0
./expes/v2_2020-11-27_di_500-prng-3,daily_issda_500,500,first-500,431,rng,num-start-181,181,536,12.054656505584717,True,,True,1,False,1000,True,1.0
./expes/v2_2020-11-27_di_500-prng-3,daily_issda_500,500,first-500,461,rng,num-start-151,151,536,8.687576293945312,True,,True,1,False,1000,True,1.0
./expes/v2_2020-11-27_di_500-prng-3,daily_issda_500,500,first-500,151,rng,num-start-11,11,536,1000.7300448417664,False,,False,0,True,1000,True,0.0
./expes/v2_2020-11-27_di_500-prng-3,daily_issda_500,500,first-500,301,rng,num-start-81,81,536,1003.859256029129,False,,False,0,True,1000,True,0.0
./expes/v2_2020-11-27_di_500-prng-3,daily_issda_500,500,first-500,391,rng,num-start-11,11,536,1000.6244916915894,False,,False,0,True,1000,True,0.0
./expes/v2_2020-11-27_di_500-prng-3,daily_issda_500,500,first-500,31,rng,num-start-171,171,536,11.395347833633423,True,,True,1,False,1000,True,1.0
./expes/v2_2020-11-27_di_500-prng-3,daily_issda_500,500,first-500,161,rng,num-start-171,171,536,1008.2931995391846,False,,False,0,True,1000,True,0.0
./expes/v2_2020-11-27_di_500-prng-3,daily_issda_500,500,first-500,181,rng,num-start-201,201,536,42.768391132354736,True,,True,1,False,1000,True,1.0
./expes/v2_2020-11-27_di_500-prng-3,daily_issda_500,500,first-500,211,rng,num-start-121,121,536,1005.7594339847565,False,,False,0,True,1000,True,0.0
./expes/v2_2020-11-27_di_500-prng-3,daily_issda_500,500,first-500,61,rng,num-start-191,191,536,14.045315027236938,True,,True,1,False,1000,True,1.0
./expes/v2_2020-11-27_di_500-prng-3,daily_issda_500,500,first-500,301,rng,num-start-1,1,536,1.531005859375,False,,False,2,False,1000,True,1.0
./expes/v2_2020-11-27_di_500-prng-3,daily_issda_500,500,first-500,111,rng,num-start-191,191,536,23.10593605041504,True,,True,1,False,1000,True,1.0
./expes/v2_2020-11-27_di_500-prng-3,daily_issda_500,500,first-500,321,rng,num-start-41,41,536,1001.991959810257,False,,False,0,True,1000,True,0.0
./expes/v2_2020-11-27_di_500-prng-3,daily_issda_500,500,first-500,11,rng,num-start-261,261,536,13.883164167404175,True,,True,1,False,1000,True,1.0
./expes/v2_2020-11-27_di_500-prng-3,daily_issda_500,500,first-500,11,rng,num-start-261,261,536,13.412426948547363,True,,True,1,False,1000,True,1.0
./expes/v2_2020-11-27_di_500-prng-3,daily_issda_500,500,first-500,161,rng,num-start-131,131,536,1006.2168526649475,False,,False,0,True,1000,True,0.0
./expes/v2_2020-11-27_di_500-prng-3,daily_issda_500,500,first-500,1,rng,num-start-221,221,536,10.041955709457397,True,,True,1,False,1000,True,1.0
./expes/v2_2020-11-27_di_500-prng-3,daily_issda_500,500,first-500,101,rng,num-start-141,141,536,1006.374922990799,False,,False,0,True,1000,True,0.0
./expes/v2_2020-11-27_di_500-prng-3,daily_issda_500,500,first-500,481,rng,num-start-11,11,536,1001.1958141326904,False,,False,0,True,1000,True,0.0
./expes/v2_2020-11-27_di_500-prng-3,daily_issda_500,500,first-500,141,rng,num-start-291,291,536,20.63615918159485,True,,True,1,False,1000,True,1.0
./expes/v2_2020-11-27_di_500-prng-3,daily_issda_500,500,first-500,291,rng,num-start-191,191,536,29.732160329818726,True,,True,1,False,1000,True,1.0
./expes/v2_2020-11-27_di_500-prng-3,daily_issda_500,500,first-500,281,rng,num-start-61,61,536,1002.9562544822693,False,,False,0,True,1000,True,0.0
./expes/v2_2020-11-27_di_500-prng-3,daily_issda_500,500,first-500,351,rng,num-start-1,1,536,3.753199577331543,False,,False,2,False,1000,True,1.0
./expes/v2_2020-11-27_di_500-prng-3,daily_issda_500,500,first-500,141,rng,num-start-141,141,536,1006.8112895488739,False,,False,0,True,1000,True,0.0
./expes/v2_2020-11-27_di_500-prng-3,daily_issda_500,500,first-500,391,rng,num-start-161,161,536,51.97093486785889,True,,True,1,False,1000,True,1.0
./expes/v2_2020-11-27_di_500-prng-3,daily_issda_500,500,first-500,121,rng,num-start-161,161,536,1007.3719294071198,False,,False,0,True,1000,True,0.0
./expes/v2_2020-11-27_di_500-prng-3,daily_issda_500,500,first-500,51,rng,num-start-171,171,536,11.139472007751465,True,,True,1,False,1000,True,1.0
./expes/v2_2020-11-27_di_500-prng-3,daily_issda_500,500,first-500,351,rng,num-start-261,261,536,20.729913473129272,True,,True,1,False,1000,True,1.0
./expes/v2_2020-11-27_di_500-prng-3,daily_issda_500,500,first-500,481,rng,num-start-1,1,536,2.807695150375366,False,,False,2,False,1000,True,1.0
./expes/v2_2020-11-27_di_500-prng-3,daily_issda_500,500,first-500,91,rng,num-start-11,11,536,1000.837828874588,False,,False,0,True,1000,True,0.0
./expes/v2_2020-11-27_di_500-prng-3,daily_issda_500,500,first-500,141,rng,num-start-271,271,536,17.99823307991028,True,,True,1,False,1000,True,1.0
./expes/v2_2020-11-27_di_500-prng-3,daily_issda_500,500,first-500,11,rng,num-start-71,71,536,3.839259624481201,True,,True,1,False,1000,True,1.0
./expes/v2_2020-11-27_di_500-prng-3,daily_issda_500,500,first-500,111,rng,num-start-11,11,536,1000.8869228363037,False,,False,0,True,1000,True,0.0
./expes/v2_2020-11-27_di_500-prng-3,daily_issda_500,500,first-500,321,rng,num-start-221,221,536,39.06529998779297,True,,True,1,False,1000,True,1.0
./expes/v2_2020-11-27_di_500-prng-3,daily_issda_500,500,first-500,261,rng,num-start-11,11,536,1000.7294194698334,False,,False,0,True,1000,True,0.0
./expes/v2_2020-11-27_di_500-prng-3,daily_issda_500,500,first-500,311,rng,num-start-221,221,536,37.13328170776367,True,,True,1,False,1000,True,1.0
./expes/v2_2020-11-27_di_500-prng-3,daily_issda_500,500,first-500,121,rng,num-start-121,121,536,1005.6510941982269,False,,False,0,True,1000,True,0.0
./expes/v2_2020-11-27_di_500-prng-3,daily_issda_500,500,first-500,271,rng,num-start-131,131,536,1006.2384059429169,False,,False,0,True,1000,True,0.0
./expes/v2_2020-11-27_di_500-prng-3,daily_issda_500,500,first-500,371,rng,num-start-191,191,536,194.74061274528503,True,,True,1,False,1000,True,1.0
./expes/v2_2020-11-27_di_500-prng-3,daily_issda_500,500,first-500,171,rng,num-start-41,41,536,1001.9495878219604,False,,False,0,True,1000,True,0.0
./expes/v2_2020-11-27_di_500-prng-3,daily_issda_500,500,first-500,251,rng,num-start-281,281,536,23.304211616516113,True,,True,1,False,1000,True,1.0
./expes/v2_2020-11-27_di_500-prng-3,daily_issda_500,500,first-500,271,rng,num-start-41,41,536,1001.9588782787323,False,,False,0,True,1000,True,0.0
./expes/v2_2020-11-27_di_500-prng-3,daily_issda_500,500,first-500,51,rng,num-start-21,21,536,1001.3257300853729,False,,False,0,True,1000,True,0.0
./expes/v2_2020-11-27_di_500-prng-3,daily_issda_500,500,first-500,341,rng,num-start-51,51,536,1002.4012036323547,False,,False,0,True,1000,True,0.0
./expes/v2_2020-11-27_di_500-prng-3,daily_issda_500,500,first-500,461,rng,num-start-241,241,536,12.8113534450531,True,,True,1,False,1000,True,1.0
./expes/v2_2020-11-27_di_500-prng-3,daily_issda_500,500,first-500,361,rng,num-start-61,61,536,1002.9489359855652,False,,False,0,True,1000,True,0.0
./expes/v2_2020-11-27_di_500-prng-3,daily_issda_500,500,first-500,341,rng,num-start-281,281,536,21.395902395248413,True,,True,1,False,1000,True,1.0
./expes/v2_2020-11-27_di_500-prng-3,daily_issda_500,500,first-500,401,rng,num-start-1,1,536,2.458096981048584,False,,False,2,False,1000,True,1.0
./expes/v2_2020-11-27_di_500-prng-3,daily_issda_500,500,first-500,451,rng,num-start-241,241,536,14.160829544067383,True,,True,1,False,1000,True,1.0
./expes/v2_2020-11-27_di_500-prng-3,daily_issda_500,500,first-500,371,rng,num-start-11,11,536,1000.8097729682922,False,,False,0,True,1000,True,0.0
./expes/v2_2020-11-27_di_500-prng-3,daily_issda_500,500,first-500,401,rng,num-start-161,161,536,21.484474420547485,True,,True,1,False,1000,True,1.0
./expes/v2_2020-11-27_di_500-prng-3,daily_issda_500,500,first-500,121,rng,num-start-281,281,536,21.716349601745605,True,,True,1,False,1000,True,1.0
./expes/v2_2020-11-27_di_500-prng-3,daily_issda_500,500,first-500,451,rng,num-start-281,281,536,15.279547691345215,True,,True,1,False,1000,True,1.0
./expes/v2_2020-11-27_di_500-prng-3,daily_issda_500,500,first-500,291,rng,num-start-31,31,536,1001.5082650184631,False,,False,0,True,1000,True,0.0
./expes/v2_2020-11-27_di_500-prng-3,daily_issda_500,500,first-500,111,rng,num-start-151,151,536,242.09457659721375,True,,True,1,False,1000,True,1.0
./expes/v2_2020-11-27_di_500-prng-3,daily_issda_500,500,first-500,351,rng,num-start-101,101,536,1004.7882859706879,False,,False,0,True,1000,True,0.0
./expes/v2_2020-11-27_di_500-prng-3,daily_issda_500,500,first-500,81,rng,num-start-141,141,536,16.48830556869507,True,,True,1,False,1000,True,1.0
./expes/v2_2020-11-27_di_500-prng-3,daily_issda_500,500,first-500,491,rng,num-start-141,141,536,7.2992401123046875,True,,True,1,False,1000,True,1.0
./expes/v2_2020-11-27_di_500-prng-3,daily_issda_500,500,first-500,11,rng,num-start-241,241,536,12.582012176513672,True,,True,1,False,1000,True,1.0
./expes/v2_2020-11-27_di_500-prng-3,daily_issda_500,500,first-500,331,rng,num-start-221,221,536,38.952253341674805,True,,True,1,False,1000,True,1.0
./expes/v2_2020-11-27_di_500-prng-3,daily_issda_500,500,first-500,141,rng,num-start-181,181,536,113.74923586845398,True,,True,1,False,1000,True,1.0
./expes/v2_2020-11-27_di_500-prng-3,daily_issda_500,500,first-500,341,rng,num-start-51,51,536,1002.4426395893097,False,,False,0,True,1000,True,0.0
./expes/v2_2020-11-27_di_500-prng-3,daily_issda_500,500,first-500,481,rng,num-start-11,11,536,1001.5692410469055,False,,False,0,True,1000,True,0.0
./expes/v2_2020-11-27_di_500-prng-3,daily_issda_500,500,first-500,151,rng,num-start-181,181,536,1008.4137101173401,False,,False,0,True,1000,True,0.0
./expes/v2_2020-11-27_di_500-prng-3,daily_issda_500,500,first-500,421,rng,num-start-181,181,536,11.48587942123413,True,,True,1,False,1000,True,1.0
./expes/v2_2020-11-27_di_500-prng-3,daily_issda_500,500,first-500,471,rng,num-start-271,271,536,13.76871132850647,True,,True,1,False,1000,True,1.0
./expes/v2_2020-11-27_di_500-prng-3,daily_issda_500,500,first-500,251,rng,num-start-61,61,536,1002.8263392448425,False,,False,0,True,1000,True,0.0
./expes/v2_2020-11-27_di_500-prng-3,daily_issda_500,500,first-500,311,rng,num-start-251,251,536,18.040912866592407,True,,True,1,False,1000,True,1.0
./expes/v2_2020-11-27_di_500-prng-3,daily_issda_500,500,first-500,281,rng,num-start-111,111,536,1005.1586351394653,False,,False,0,True,1000,True,0.0
