expe,clients,clients_size,clients_subset,agg_size,method,days,days_size,days_total,time,valid,valid_sum,success,nsols,wall_hit,wall_time,pooled,valid_sums
./expes/v2_2020-11-04_hbh_150-prng-1,30_base_hphc_150,150,first-150,121,rng,num-start-691,691,17520,6.514088869094849,True,,True,1,False,1000,True,1.0
./expes/v2_2020-11-04_hbh_150-prng-1,30_base_hphc_150,150,first-150,111,rng,num-start-221,221,17520,2.252612829208374,True,,True,1,False,1000,True,1.0
./expes/v2_2020-11-04_hbh_150-prng-1,30_base_hphc_150,150,first-150,91,rng,num-start-851,851,17520,8.099006652832031,True,,True,1,False,1000,True,1.0
./expes/v2_2020-11-04_hbh_150-prng-1,30_base_hphc_150,150,first-150,131,rng,num-start-291,291,17520,2.9057044982910156,True,,True,1,False,1000,True,1.0
./expes/v2_2020-11-04_hbh_150-prng-1,30_base_hphc_150,150,first-150,51,rng,num-start-361,361,17520,3.6261651515960693,True,,True,1,False,1000,True,1.0
./expes/v2_2020-11-04_hbh_150-prng-1,30_base_hphc_150,150,first-150,121,rng,num-start-811,811,17520,8.609134197235107,True,,True,1,False,1000,True,1.0
./expes/v2_2020-11-04_hbh_150-prng-1,30_base_hphc_150,150,first-150,71,rng,num-start-261,261,17520,2.8460445404052734,True,,True,1,False,1000,True,1.0
./expes/v2_2020-11-04_hbh_150-prng-1,30_base_hphc_150,150,first-150,141,rng,num-start-471,471,17520,4.49196982383728,True,,True,1,False,1000,True,1.0
./expes/v2_2020-11-04_hbh_150-prng-1,30_base_hphc_150,150,first-150,1,rng,num-start-121,121,17520,0.9614019393920898,True,,True,1,False,1000,True,1.0
./expes/v2_2020-11-04_hbh_150-prng-1,30_base_hphc_150,150,first-150,71,rng,num-start-731,731,17520,7.6189820766448975,True,,True,1,False,1000,True,1.0
./expes/v2_2020-11-04_hbh_150-prng-1,30_base_hphc_150,150,first-150,131,rng,num-start-321,321,17520,3.063220739364624,True,,True,1,False,1000,True,1.0
./expes/v2_2020-11-04_hbh_150-prng-1,30_base_hphc_150,150,first-150,81,rng,num-start-561,561,17520,5.737524509429932,True,,True,1,False,1000,True,1.0
./expes/v2_2020-11-04_hbh_150-prng-1,30_base_hphc_150,150,first-150,101,rng,num-start-451,451,17520,4.703842878341675,True,,True,1,False,1000,True,1.0
./expes/v2_2020-11-04_hbh_150-prng-1,30_base_hphc_150,150,first-150,91,rng,num-start-801,801,17520,8.476285934448242,True,,True,1,False,1000,True,1.0
./expes/v2_2020-11-04_hbh_150-prng-1,30_base_hphc_150,150,first-150,131,rng,num-start-611,611,17520,6.304888486862183,True,,True,1,False,1000,True,1.0
./expes/v2_2020-11-04_hbh_150-prng-1,30_base_hphc_150,150,first-150,21,rng,num-start-721,721,17520,7.655533313751221,True,,True,1,False,1000,True,1.0
./expes/v2_2020-11-04_hbh_150-prng-1,30_base_hphc_150,150,first-150,91,rng,num-start-301,301,17520,3.2753450870513916,True,,True,1,False,1000,True,1.0
./expes/v2_2020-11-04_hbh_150-prng-1,30_base_hphc_150,150,first-150,1,rng,num-start-801,801,17520,6.590016603469849,True,,True,1,False,1000,True,1.0
./expes/v2_2020-11-04_hbh_150-prng-1,30_base_hphc_150,150,first-150,31,rng,num-start-441,441,17520,4.929952383041382,True,,True,1,False,1000,True,1.0
./expes/v2_2020-11-04_hbh_150-prng-1,30_base_hphc_150,150,first-150,141,rng,num-start-381,381,17520,3.761308193206787,True,,True,1,False,1000,True,1.0
./expes/v2_2020-11-04_hbh_150-prng-1,30_base_hphc_150,150,first-150,91,rng,num-start-381,381,17520,3.993147611618042,True,,True,1,False,1000,True,1.0
./expes/v2_2020-11-04_hbh_150-prng-1,30_base_hphc_150,150,first-150,81,rng,num-start-271,271,17520,2.9082469940185547,True,,True,1,False,1000,True,1.0
./expes/v2_2020-11-04_hbh_150-prng-1,30_base_hphc_150,150,first-150,141,rng,num-start-991,991,17520,8.437520027160645,True,,True,1,False,1000,True,1.0
./expes/v2_2020-11-04_hbh_150-prng-1,30_base_hphc_150,150,first-150,131,rng,num-start-851,851,17520,8.636290311813354,True,,True,1,False,1000,True,1.0
./expes/v2_2020-11-04_hbh_150-prng-1,30_base_hphc_150,150,first-150,111,rng,num-start-691,691,17520,7.493078231811523,True,,True,1,False,1000,True,1.0
./expes/v2_2020-11-04_hbh_150-prng-1,30_base_hphc_150,150,first-150,31,rng,num-start-291,291,17520,3.4393558502197266,True,,True,1,False,1000,True,1.0
./expes/v2_2020-11-04_hbh_150-prng-1,30_base_hphc_150,150,first-150,131,rng,num-start-111,111,17520,1.240945816040039,True,,True,1,False,1000,True,1.0
./expes/v2_2020-11-04_hbh_150-prng-1,30_base_hphc_150,150,first-150,21,rng,num-start-681,681,17520,7.4402689933776855,True,,True,1,False,1000,True,1.0
./expes/v2_2020-11-04_hbh_150-prng-1,30_base_hphc_150,150,first-150,61,rng,num-start-521,521,17520,6.08505654335022,True,,True,1,False,1000,True,1.0
./expes/v2_2020-11-04_hbh_150-prng-1,30_base_hphc_150,150,first-150,111,rng,num-start-141,141,17520,1.630112886428833,True,,True,1,False,1000,True,1.0
./expes/v2_2020-11-04_hbh_150-prng-1,30_base_hphc_150,150,first-150,141,rng,num-start-351,351,17520,3.618875741958618,True,,True,1,False,1000,True,1.0
./expes/v2_2020-11-04_hbh_150-prng-1,30_base_hphc_150,150,first-150,91,rng,num-start-661,661,17520,7.100064992904663,True,,True,1,False,1000,True,1.0
./expes/v2_2020-11-04_hbh_150-prng-1,30_base_hphc_150,150,first-150,31,rng,num-start-321,321,17520,3.5316333770751953,True,,True,1,False,1000,True,1.0
./expes/v2_2020-11-04_hbh_150-prng-1,30_base_hphc_150,150,first-150,31,rng,num-start-421,421,17520,4.911192178726196,True,,True,1,False,1000,True,1.0
./expes/v2_2020-11-04_hbh_150-prng-1,30_base_hphc_150,150,first-150,141,rng,num-start-861,861,17520,8.108465194702148,True,,True,1,False,1000,True,1.0
./expes/v2_2020-11-04_hbh_150-prng-1,30_base_hphc_150,150,first-150,91,rng,num-start-481,481,17520,5.424106121063232,True,,True,1,False,1000,True,1.0
./expes/v2_2020-11-04_hbh_150-prng-1,30_base_hphc_150,150,first-150,111,rng,num-start-871,871,17520,10.039052963256836,True,,True,1,False,1000,True,1.0
./expes/v2_2020-11-04_hbh_150-prng-1,30_base_hphc_150,150,first-150,91,rng,num-start-201,201,17520,2.4764275550842285,True,,True,1,False,1000,True,1.0
./expes/v2_2020-11-04_hbh_150-prng-1,30_base_hphc_150,150,first-150,61,rng,num-start-661,661,17520,8.016807794570923,True,,True,1,False,1000,True,1.0
./expes/v2_2020-11-04_hbh_150-prng-1,30_base_hphc_150,150,first-150,61,rng,num-start-211,211,17520,2.5261340141296387,True,,True,1,False,1000,True,1.0
./expes/v2_2020-11-04_hbh_150-prng-1,30_base_hphc_150,150,first-150,61,rng,num-start-771,771,17520,8.745410203933716,True,,True,1,False,1000,True,1.0
./expes/v2_2020-11-04_hbh_150-prng-1,30_base_hphc_150,150,first-150,41,rng,num-start-791,791,17520,9.156732559204102,True,,True,1,False,1000,True,1.0
./expes/v2_2020-11-04_hbh_150-prng-1,30_base_hphc_150,150,first-150,101,rng,num-start-761,761,17520,8.032217741012573,True,,True,1,False,1000,True,1.0
./expes/v2_2020-11-04_hbh_150-prng-1,30_base_hphc_150,150,first-150,101,rng,num-start-11,11,17520,1000.15460896492,False,,False,0,True,1000,True,0.0
