expe,clients,clients_size,clients_subset,agg_size,method,days,days_size,days_total,time,valid,valid_sum,success,nsols,wall_hit,wall_time,pooled,valid_sums
./expes/v2_2020-11-04_hbh_150-prng-1,30_base_hphc_150,150,first-150,81,rng,num-start-581,581,17520,6.200087070465088,True,,True,1,False,1000,True,1.0
./expes/v2_2020-11-04_hbh_150-prng-1,30_base_hphc_150,150,first-150,131,rng,num-start-711,711,17520,7.077646493911743,True,,True,1,False,1000,True,1.0
./expes/v2_2020-11-04_hbh_150-prng-1,30_base_hphc_150,150,first-150,51,rng,num-start-591,591,17520,5.834754943847656,True,,True,1,False,1000,True,1.0
./expes/v2_2020-11-04_hbh_150-prng-1,30_base_hphc_150,150,first-150,81,rng,num-start-51,51,17520,1.3228411674499512,True,,True,1,False,1000,True,1.0
./expes/v2_2020-11-04_hbh_150-prng-1,30_base_hphc_150,150,first-150,31,rng,num-start-401,401,17520,4.210376977920532,True,,True,1,False,1000,True,1.0
./expes/v2_2020-11-04_hbh_150-prng-1,30_base_hphc_150,150,first-150,111,rng,num-start-891,891,17520,9.300423622131348,True,,True,1,False,1000,True,1.0
./expes/v2_2020-11-04_hbh_150-prng-1,30_base_hphc_150,150,first-150,71,rng,num-start-221,221,17520,2.281748056411743,True,,True,1,False,1000,True,1.0
./expes/v2_2020-11-04_hbh_150-prng-1,30_base_hphc_150,150,first-150,91,rng,num-start-811,811,17520,8.890165090560913,True,,True,1,False,1000,True,1.0
./expes/v2_2020-11-04_hbh_150-prng-1,30_base_hphc_150,150,first-150,41,rng,num-start-821,821,17520,8.588845252990723,True,,True,1,False,1000,True,1.0
./expes/v2_2020-11-04_hbh_150-prng-1,30_base_hphc_150,150,first-150,21,rng,num-start-571,571,17520,6.033792734146118,True,,True,1,False,1000,True,1.0
./expes/v2_2020-11-04_hbh_150-prng-1,30_base_hphc_150,150,first-150,21,rng,num-start-591,591,17520,6.227370262145996,True,,True,1,False,1000,True,1.0
./expes/v2_2020-11-04_hbh_150-prng-1,30_base_hphc_150,150,first-150,71,rng,num-start-851,851,17520,8.331088304519653,True,,True,1,False,1000,True,1.0
./expes/v2_2020-11-04_hbh_150-prng-1,30_base_hphc_150,150,first-150,1,rng,num-start-411,411,17520,3.2690412998199463,True,,True,1,False,1000,True,1.0
./expes/v2_2020-11-04_hbh_150-prng-1,30_base_hphc_150,150,first-150,71,rng,num-start-541,541,17520,5.454428434371948,True,,True,1,False,1000,True,1.0
./expes/v2_2020-11-04_hbh_150-prng-1,30_base_hphc_150,150,first-150,81,rng,num-start-151,151,17520,1.9286065101623535,True,,True,1,False,1000,True,1.0
./expes/v2_2020-11-04_hbh_150-prng-1,30_base_hphc_150,150,first-150,101,rng,num-start-581,581,17520,6.165930509567261,True,,True,1,False,1000,True,1.0
./expes/v2_2020-11-04_hbh_150-prng-1,30_base_hphc_150,150,first-150,121,rng,num-start-191,191,17520,2.075775384902954,True,,True,1,False,1000,True,1.0
./expes/v2_2020-11-04_hbh_150-prng-1,30_base_hphc_150,150,first-150,11,rng,num-start-561,561,17520,5.584246397018433,True,,True,1,False,1000,True,1.0
./expes/v2_2020-11-04_hbh_150-prng-1,30_base_hphc_150,150,first-150,91,rng,num-start-31,31,17520,1001.509779214859,False,,False,0,True,1000,True,0.0
