,expe,clients,clients_size,clients_subset,agg_size,agg_size_pc,method,days,days_size,days_total,noise_method,time,valid,valid_sum,success,score_avg,score_min,score_max,nsols,oracle,wall_hit,wall_time,pooled,pool_size,optimal,valid_sums,uuid
0,./expes/v3_2021-01-29_hi_300-prng-1-w1-p100,30_issda-300,300,first-300,119,39,rng,num-start-241,241,25726,classic,9.676461935043337,True,,True,1.0,1.0,1.0,1,"Index(['1', '6', '10', '11', '13', '15', '17', '18', '22', '35',
       ...
       '274', '280', '283', '284', '287', '288', '292', '293', '297', '299'],
      dtype='object', length=119)",False,1000,True,100,1.0,1.0,9e0b74ab64
1,./expes/v3_2021-01-29_hi_300-prng-1-w1-p100,30_issda-300,300,first-300,98,32,rng,num-start-3300,3300,25726,classic,120.82539558410645,True,,True,1.0,1.0,1.0,1,"Index(['1', '4', '6', '10', '14', '15', '16', '17', '19', '23', '27', '31',
       '32', '39', '40', '43', '45', '47', '53', '58', '59', '70', '74', '75',
       '84', '86', '88', '92', '94', '97', '99', '103', '105', '107', '108',
       '113', '114', '115', '117', '121', '123', '130', '134', '138', '141',
       '142', '145', '159', '161', '172', '173', '174', '177', '180', '183',
       '186', '187', '189', '191', '192', '196', '197', '198', '199', '206',
       '208', '215', '217', '219', '221', '222', '226', '228', '234', '236',
       '238', '241', '243', '244', '245', '247', '248', '256', '257', '260',
       '261', '262', '263', '264', '266', '271', '277', '278', '282', '285',
       '286', '294', '296'],
      dtype='object')",False,1000,True,100,1.0,1.0,3cbeef910c
2,./expes/v3_2021-01-29_hi_300-prng-1-w1-p100,30_issda-300,300,first-300,28,9,rng,num-start-2300,2300,25726,classic,92.16794157028198,True,,True,1.0,1.0,1.0,1,"Index(['8', '16', '37', '44', '65', '67', '72', '76', '96', '110', '116',
       '119', '120', '132', '133', '135', '142', '149', '151', '183', '220',
       '221', '224', '231', '250', '273', '282', '289'],
      dtype='object')",False,1000,True,100,1.0,1.0,837e5968c3
3,./expes/v3_2021-01-29_hi_300-prng-1-w1-p100,30_issda-300,300,first-300,119,39,rng,num-start-131,131,25726,classic,10.499165534973145,True,,True,1.0,1.0,1.0,1,"Index(['1', '4', '5', '6', '10', '13', '14', '15', '16', '17',
       ...
       '270', '271', '277', '278', '280', '282', '285', '286', '294', '296'],
      dtype='object', length=119)",False,1000,True,100,1.0,1.0,621fa7ccff
4,./expes/v3_2021-01-29_hi_300-prng-1-w1-p100,30_issda-300,300,first-300,7,2,rng,num-start-91,91,25726,classic,3.1156561374664307,True,,True,1.0,1.0,1.0,1,"Index(['1', '19', '42', '75', '134', '249', '294'], dtype='object')",False,1000,True,100,1.0,1.0,6a37b78448
5,./expes/v3_2021-01-29_hi_300-prng-1-w1-p100,30_issda-300,300,first-300,56,18,rng,num-start-15300,15300,25726,classic,574.7744467258453,True,,True,1.0,1.0,1.0,1,"Index(['3', '4', '6', '7', '8', '11', '12', '15', '23', '34', '43', '45', '73',
       '79', '80', '85', '89', '113', '114', '115', '117', '121', '122', '130',
       '133', '145', '146', '151', '152', '155', '156', '159', '163', '172',
       '179', '186', '192', '210', '214', '216', '217', '228', '229', '233',
       '234', '236', '238', '241', '247', '251', '252', '254', '265', '268',
       '289', '297'],
      dtype='object')",False,1000,True,100,1.0,1.0,3736397937
6,./expes/v3_2021-01-29_hi_300-prng-1-w1-p100,30_issda-300,300,first-300,70,23,rng,num-start-281,281,25726,classic,10.46566390991211,True,,True,1.0,1.0,1.0,1,"Index(['7', '8', '11', '15', '16', '19', '22', '33', '34', '35', '46', '50',
       '54', '64', '67', '69', '70', '78', '82', '84', '99', '109', '112',
       '119', '120', '122', '133', '137', '138', '144', '146', '151', '155',
       '168', '173', '177', '180', '188', '190', '198', '199', '200', '203',
       '204', '209', '211', '216', '219', '224', '228', '241', '243', '244',
       '247', '248', '254', '260', '268', '274', '277', '278', '279', '282',
       '283', '292', '293', '294', '296', '298', '300'],
      dtype='object')",False,1000,True,100,1.0,1.0,1712a73b05
7,./expes/v3_2021-01-29_hi_300-prng-1-w1-p100,30_issda-300,300,first-300,42,14,rng,num-start-191,191,25726,classic,7.144059419631958,True,,True,1.0,1.0,1.0,1,"Index(['3', '4', '6', '11', '12', '15', '23', '43', '45', '73', '79', '89',
       '113', '114', '115', '117', '122', '130', '133', '145', '146', '151',
       '152', '155', '159', '172', '179', '186', '210', '214', '216', '217',
       '229', '234', '238', '241', '247', '254', '265', '268', '289', '297'],
      dtype='object')",False,1000,True,100,1.0,1.0,f9d67c5146
8,./expes/v3_2021-01-29_hi_300-prng-1-w1-p100,30_issda-300,300,first-300,112,37,rng,num-start-71,71,25726,classic,1002.3613986968994,False,,False,0.0,,,0,"Index(['2', '5', '6', '8', '9', '10', '16', '19', '22', '23',
       ...
       '266', '267', '272', '274', '279', '281', '285', '290', '292', '296'],
      dtype='object', length=112)",True,1000,True,100,0.0,0.0,c50cb9d6c0
9,./expes/v3_2021-01-29_hi_300-prng-1-w1-p100,30_issda-300,300,first-300,105,35,rng,num-start-261,261,25726,classic,9.858914613723757,True,,True,1.0,1.0,1.0,1,"Index(['1', '4', '7', '9', '10', '12', '15', '19', '24', '28',
       ...
       '269', '271', '276', '277', '284', '286', '287', '289', '294', '295'],
      dtype='object', length=105)",False,1000,True,100,1.0,1.0,268d1af834
10,./expes/v3_2021-01-29_hi_300-prng-1-w1-p100,30_issda-300,300,first-300,7,2,rng,num-start-91,91,25726,classic,3.426377534866333,True,,True,1.0,1.0,1.0,1,"Index(['23', '44', '65', '99', '117', '190', '193'], dtype='object')",False,1000,True,100,1.0,1.0,4453252cc4
11,./expes/v3_2021-01-29_hi_300-prng-1-w1-p100,30_issda-300,300,first-300,70,23,rng,num-start-271,271,25726,classic,11.119672536849976,True,,True,1.0,1.0,1.0,1,"Index(['7', '8', '11', '15', '16', '19', '22', '33', '34', '35', '46', '50',
       '54', '64', '67', '69', '70', '78', '82', '84', '99', '109', '112',
       '119', '120', '122', '133', '137', '138', '144', '146', '151', '155',
       '168', '173', '177', '180', '188', '190', '198', '199', '200', '203',
       '204', '209', '211', '216', '219', '224', '228', '241', '243', '244',
       '247', '248', '254', '260', '268', '274', '277', '278', '279', '282',
       '283', '292', '293', '294', '296', '298', '300'],
      dtype='object')",False,1000,True,100,1.0,1.0,67186a477e
12,./expes/v3_2021-01-29_hi_300-prng-1-w1-p100,30_issda-300,300,first-300,133,44,rng,num-start-10300,10300,25726,classic,398.41504096984863,True,,True,1.0,1.0,1.0,1,"Index(['2', '3', '5', '6', '8', '9', '10', '16', '19', '22',
       ...
       '274', '279', '281', '285', '290', '292', '293', '295', '296', '298'],
      dtype='object', length=133)",False,1000,True,100,1.0,1.0,314a7c501a
13,./expes/v3_2021-01-29_hi_300-prng-1-w1-p100,30_issda-300,300,first-300,77,25,rng,num-start-281,281,25726,classic,10.807761907577516,True,,True,1.0,1.0,1.0,1,"Index(['2', '4', '9', '12', '14', '23', '37', '38', '47', '51', '54', '56',
       '59', '62', '66', '69', '71', '76', '82', '88', '94', '99', '103',
       '104', '107', '120', '126', '134', '135', '138', '146', '149', '151',
       '154', '155', '158', '160', '167', '168', '178', '189', '193', '199',
       '200', '202', '203', '207', '209', '211', '213', '217', '220', '225',
       '226', '231', '232', '233', '234', '235', '237', '239', '244', '246',
       '253', '257', '258', '262', '267', '271', '278', '280', '281', '292',
       '293', '296', '297', '300'],
      dtype='object')",False,1000,True,100,1.0,1.0,108e422815
14,./expes/v3_2021-01-29_hi_300-prng-1-w1-p100,30_issda-300,300,first-300,7,2,rng,num-start-221,221,25726,classic,7.386953592300415,True,,True,1.0,1.0,1.0,1,"Index(['23', '62', '103', '178', '202', '262', '267'], dtype='object')",False,1000,True,100,1.0,1.0,4c3329e6b9
15,./expes/v3_2021-01-29_hi_300-prng-1-w1-p100,30_issda-300,300,first-300,84,28,rng,num-start-3300,3300,25726,classic,122.08024907112122,True,,True,1.0,1.0,1.0,1,"Index(['2', '4', '9', '12', '14', '23', '24', '35', '37', '38', '40', '47',
       '51', '52', '54', '56', '59', '62', '66', '69', '71', '76', '82', '88',
       '94', '99', '103', '104', '107', '108', '120', '126', '134', '135',
       '138', '146', '149', '151', '154', '155', '158', '160', '167', '168',
       '178', '189', '193', '199', '200', '202', '203', '207', '209', '211',
       '213', '216', '217', '220', '225', '226', '231', '232', '233', '234',
       '235', '237', '238', '239', '244', '246', '253', '257', '258', '262',
       '267', '271', '278', '280', '281', '292', '293', '296', '297', '300'],
      dtype='object')",False,1000,True,100,1.0,1.0,7c86fdf567
