expe,clients,clients_size,clients_subset,agg_size,method,days,days_size,days_total,time,valid,valid_sum,success,nsols,wall_hit,wall_time,pooled,valid_sums
./expes/v2_2020-12-17_dh_1000-prng-1,30_issda_1000,1000,rng-1000,1,rng,num-start-1001,1001,25726,89.11551785469055,True,,True,1,False,5000,True,1.0
./expes/v2_2020-12-17_dh_1000-prng-1,30_issda_1000,1000,rng-1000,1,rng,num-start-13001,13001,25726,1183.4950015544891,True,,True,1,False,5000,True,1.0
./expes/v2_2020-12-17_dh_1000-prng-1,30_issda_1000,1000,rng-1000,701,rng,num-start-16001,16001,25726,4101.102893829346,True,,True,1,False,5000,True,1.0
./expes/v2_2020-12-17_dh_1000-prng-1,30_issda_1000,1000,rng-1000,701,rng,num-start-14001,14001,25726,3115.4960391521454,True,,True,1,False,5000,True,1.0
./expes/v2_2020-12-17_dh_1000-prng-1,30_issda_1000,1000,rng-1000,701,rng,num-start-12001,12001,25726,2223.1032168865204,True,,True,1,False,5000,True,1.0
./expes/v2_2020-12-17_dh_1000-prng-1,30_issda_1000,1000,rng-1000,901,rng,num-start-2001,2001,25726,334.0183815956116,True,,True,1,False,5000,True,1.0
./expes/v2_2020-12-17_dh_1000-prng-1,30_issda_1000,1000,rng-1000,701,rng,num-start-10001,10001,25726,2378.3666405677795,True,,True,1,False,5000,True,1.0
./expes/v2_2020-12-17_dh_1000-prng-1,30_issda_1000,1000,rng-1000,501,rng,num-start-12001,12001,25726,2640.317090034485,True,,True,1,False,5000,True,1.0
./expes/v2_2020-12-17_dh_1000-prng-1,30_issda_1000,1000,rng-1000,201,rng,num-start-3001,3001,25726,506.4408280849457,True,,True,1,False,5000,True,1.0
./expes/v2_2020-12-17_dh_1000-prng-1,30_issda_1000,1000,rng-1000,801,rng,num-start-6001,6001,25726,1354.5988945960999,True,,True,1,False,5000,True,1.0
./expes/v2_2020-12-17_dh_1000-prng-1,30_issda_1000,1000,rng-1000,501,rng,num-start-11001,11001,25726,2280.75532078743,True,,True,1,False,5000,True,1.0
./expes/v2_2020-12-17_dh_1000-prng-1,30_issda_1000,1000,rng-1000,501,rng,num-start-12001,12001,25726,2777.62108874321,True,,True,1,False,5000,True,1.0
./expes/v2_2020-12-17_dh_1000-prng-1,30_issda_1000,1000,rng-1000,801,rng,num-start-8001,8001,25726,1545.3928072452545,True,,True,1,False,5000,True,1.0
./expes/v2_2020-12-17_dh_1000-prng-1,30_issda_1000,1000,rng-1000,301,rng,num-start-1001,1001,25726,153.74890613555908,True,,True,1,False,5000,True,1.0
./expes/v2_2020-12-17_dh_1000-prng-1,30_issda_1000,1000,rng-1000,501,rng,num-start-14001,14001,25726,3022.1390874385834,True,,True,1,False,5000,True,1.0
./expes/v2_2020-12-17_dh_1000-prng-1,30_issda_1000,1000,rng-1000,601,rng,num-start-13001,13001,25726,2922.53311419487,True,,True,1,False,5000,True,1.0
./expes/v2_2020-12-17_dh_1000-prng-1,30_issda_1000,1000,rng-1000,1,rng,num-start-4001,4001,25726,363.506174325943,True,,True,1,False,5000,True,1.0
./expes/v2_2020-12-17_dh_1000-prng-1,30_issda_1000,1000,rng-1000,401,rng,num-start-7001,7001,25726,1556.1290063858032,True,,True,1,False,5000,True,1.0
./expes/v2_2020-12-17_dh_1000-prng-1,30_issda_1000,1000,rng-1000,601,rng,num-start-16001,16001,25726,3370.2458395957947,True,,True,1,False,5000,True,1.0
./expes/v2_2020-12-17_dh_1000-prng-1,30_issda_1000,1000,rng-1000,301,rng,num-start-9001,9001,25726,1745.6419804096222,True,,True,1,False,5000,True,1.0
./expes/v2_2020-12-17_dh_1000-prng-1,30_issda_1000,1000,rng-1000,1,rng,num-start-1,1,25726,0.1745142936706543,True,,False,2,False,5000,True,1.0
./expes/v2_2020-12-17_dh_1000-prng-1,30_issda_1000,1000,rng-1000,1,rng,num-start-6001,6001,25726,545.4255938529968,True,,True,1,False,5000,True,1.0
./expes/v2_2020-12-17_dh_1000-prng-1,30_issda_1000,1000,rng-1000,901,rng,num-start-4001,4001,25726,666.2039885520935,True,,True,1,False,5000,True,1.0
./expes/v2_2020-12-17_dh_1000-prng-1,30_issda_1000,1000,rng-1000,201,rng,num-start-1,1,25726,0.15264105796813965,False,,False,2,False,5000,True,1.0
./expes/v2_2020-12-17_dh_1000-prng-1,30_issda_1000,1000,rng-1000,801,rng,num-start-12001,12001,25726,2495.585449695587,True,,True,1,False,5000,True,1.0
./expes/v2_2020-12-17_dh_1000-prng-1,30_issda_1000,1000,rng-1000,701,rng,num-start-2001,2001,25726,381.18601059913635,True,,True,1,False,5000,True,1.0
./expes/v2_2020-12-17_dh_1000-prng-1,30_issda_1000,1000,rng-1000,301,rng,num-start-4001,4001,25726,929.1556656360626,True,,True,1,False,5000,True,1.0
./expes/v2_2020-12-17_dh_1000-prng-1,30_issda_1000,1000,rng-1000,701,rng,num-start-5001,5001,25726,1164.4556283950806,True,,True,1,False,5000,True,1.0
./expes/v2_2020-12-17_dh_1000-prng-1,30_issda_1000,1000,rng-1000,301,rng,num-start-7001,7001,25726,1420.9732060432434,True,,True,1,False,5000,True,1.0
./expes/v2_2020-12-17_dh_1000-prng-1,30_issda_1000,1000,rng-1000,201,rng,num-start-3001,3001,25726,602.0329022407532,True,,True,1,False,5000,True,1.0
./expes/v2_2020-12-17_dh_1000-prng-1,30_issda_1000,1000,rng-1000,101,rng,num-start-11001,11001,25726,1512.7961556911469,True,,True,1,False,5000,True,1.0
./expes/v2_2020-12-17_dh_1000-prng-1,30_issda_1000,1000,rng-1000,201,rng,num-start-6001,6001,25726,1089.4498345851898,True,,True,1,False,5000,True,1.0
./expes/v2_2020-12-17_dh_1000-prng-1,30_issda_1000,1000,rng-1000,801,rng,num-start-1001,1001,25726,167.5883297920227,True,,True,1,False,5000,True,1.0
./expes/v2_2020-12-17_dh_1000-prng-1,30_issda_1000,1000,rng-1000,1,rng,num-start-6001,6001,25726,534.7275967597961,True,,True,1,False,5000,True,1.0
./expes/v2_2020-12-17_dh_1000-prng-1,30_issda_1000,1000,rng-1000,1,rng,num-start-1,1,25726,0.25799059867858887,True,,False,2,False,5000,True,1.0
./expes/v2_2020-12-17_dh_1000-prng-1,30_issda_1000,1000,rng-1000,401,rng,num-start-10001,10001,25726,1864.0999557971954,True,,True,1,False,5000,True,1.0
./expes/v2_2020-12-17_dh_1000-prng-1,30_issda_1000,1000,rng-1000,601,rng,num-start-3001,3001,25726,702.7148773670197,True,,True,1,False,5000,True,1.0
./expes/v2_2020-12-17_dh_1000-prng-1,30_issda_1000,1000,rng-1000,901,rng,num-start-14001,14001,25726,2529.7096190452576,True,,True,1,False,5000,True,1.0
./expes/v2_2020-12-17_dh_1000-prng-1,30_issda_1000,1000,rng-1000,501,rng,num-start-4001,4001,25726,867.9057793617249,True,,True,1,False,5000,True,1.0
./expes/v2_2020-12-17_dh_1000-prng-1,30_issda_1000,1000,rng-1000,101,rng,num-start-6001,6001,25726,982.2267963886261,True,,True,1,False,5000,True,1.0
./expes/v2_2020-12-17_dh_1000-prng-1,30_issda_1000,1000,rng-1000,101,rng,num-start-10001,10001,25726,1588.318848848343,True,,True,1,False,5000,True,1.0
./expes/v2_2020-12-17_dh_1000-prng-1,30_issda_1000,1000,rng-1000,801,rng,num-start-14001,14001,25726,2381.811551094055,True,,True,1,False,5000,True,1.0
./expes/v2_2020-12-17_dh_1000-prng-1,30_issda_1000,1000,rng-1000,801,rng,num-start-1,1,25726,0.20636892318725586,False,,False,2,False,5000,True,1.0
./expes/v2_2020-12-17_dh_1000-prng-1,30_issda_1000,1000,rng-1000,401,rng,num-start-5001,5001,25726,998.347932100296,True,,True,1,False,5000,True,1.0
./expes/v2_2020-12-17_dh_1000-prng-1,30_issda_1000,1000,rng-1000,901,rng,num-start-15001,15001,25726,2983.366956949234,True,,True,1,False,5000,True,1.0
./expes/v2_2020-12-17_dh_1000-prng-1,30_issda_1000,1000,rng-1000,701,rng,num-start-7001,7001,25726,1417.3421409130096,True,,True,1,False,5000,True,1.0
./expes/v2_2020-12-17_dh_1000-prng-1,30_issda_1000,1000,rng-1000,901,rng,num-start-4001,4001,25726,594.1016628742218,True,,True,1,False,5000,True,1.0
./expes/v2_2020-12-17_dh_1000-prng-1,30_issda_1000,1000,rng-1000,801,rng,num-start-15001,15001,25726,2589.3134920597076,True,,True,1,False,5000,True,1.0
./expes/v2_2020-12-17_dh_1000-prng-1,30_issda_1000,1000,rng-1000,1,rng,num-start-2001,2001,25726,189.57946801185608,True,,True,1,False,5000,True,1.0
./expes/v2_2020-12-17_dh_1000-prng-1,30_issda_1000,1000,rng-1000,1,rng,num-start-1,1,25726,0.14864349365234375,True,,True,1,False,5000,True,1.0
./expes/v2_2020-12-17_dh_1000-prng-1,30_issda_1000,1000,rng-1000,601,rng,num-start-5001,5001,25726,1109.3580121994019,True,,True,1,False,5000,True,1.0
./expes/v2_2020-12-17_dh_1000-prng-1,30_issda_1000,1000,rng-1000,301,rng,num-start-7001,7001,25726,1361.3993465900421,True,,True,1,False,5000,True,1.0
./expes/v2_2020-12-17_dh_1000-prng-1,30_issda_1000,1000,rng-1000,801,rng,num-start-12001,12001,25726,2227.079961538315,True,,True,1,False,5000,True,1.0
./expes/v2_2020-12-17_dh_1000-prng-1,30_issda_1000,1000,rng-1000,301,rng,num-start-11001,11001,25726,2217.808693408966,True,,True,1,False,5000,True,1.0
./expes/v2_2020-12-17_dh_1000-prng-1,30_issda_1000,1000,rng-1000,601,rng,num-start-11001,11001,25726,2572.5099034309387,True,,True,1,False,5000,True,1.0
./expes/v2_2020-12-17_dh_1000-prng-1,30_issda_1000,1000,rng-1000,301,rng,num-start-11001,11001,25726,2296.5310287475586,True,,True,1,False,5000,True,1.0
./expes/v2_2020-12-17_dh_1000-prng-1,30_issda_1000,1000,rng-1000,701,rng,num-start-13001,13001,25726,2540.284887313843,True,,True,1,False,5000,True,1.0
./expes/v2_2020-12-17_dh_1000-prng-1,30_issda_1000,1000,rng-1000,601,rng,num-start-12001,12001,25726,2623.748412847519,True,,True,1,False,5000,True,1.0
./expes/v2_2020-12-17_dh_1000-prng-1,30_issda_1000,1000,rng-1000,901,rng,num-start-9001,9001,25726,1562.0332651138306,True,,True,1,False,5000,True,1.0
./expes/v2_2020-12-17_dh_1000-prng-1,30_issda_1000,1000,rng-1000,701,rng,num-start-3001,3001,25726,582.3247716426849,True,,True,1,False,5000,True,1.0
./expes/v2_2020-12-17_dh_1000-prng-1,30_issda_1000,1000,rng-1000,901,rng,num-start-5001,5001,25726,769.7297792434692,True,,True,1,False,5000,True,1.0
./expes/v2_2020-12-17_dh_1000-prng-1,30_issda_1000,1000,rng-1000,101,rng,num-start-12001,12001,25726,2914.3318128585815,True,,True,1,False,5000,True,1.0
./expes/v2_2020-12-17_dh_1000-prng-1,30_issda_1000,1000,rng-1000,801,rng,num-start-11001,11001,25726,1965.595971107483,True,,True,1,False,5000,True,1.0
./expes/v2_2020-12-17_dh_1000-prng-1,30_issda_1000,1000,rng-1000,801,rng,num-start-3001,3001,25726,625.1951475143433,True,,True,1,False,5000,True,1.0
./expes/v2_2020-12-17_dh_1000-prng-1,30_issda_1000,1000,rng-1000,201,rng,num-start-9001,9001,25726,1721.98681306839,True,,True,1,False,5000,True,1.0
./expes/v2_2020-12-17_dh_1000-prng-1,30_issda_1000,1000,rng-1000,1,rng,num-start-5001,5001,25726,464.0474877357483,True,,True,1,False,5000,True,1.0
./expes/v2_2020-12-17_dh_1000-prng-1,30_issda_1000,1000,rng-1000,801,rng,num-start-1,1,25726,0.20562529563903809,False,,False,2,False,5000,True,1.0
./expes/v2_2020-12-17_dh_1000-prng-1,30_issda_1000,1000,rng-1000,801,rng,num-start-2001,2001,25726,373.83719420433044,True,,True,1,False,5000,True,1.0
./expes/v2_2020-12-17_dh_1000-prng-1,30_issda_1000,1000,rng-1000,1,rng,num-start-1001,1001,25726,88.44721460342407,True,,True,1,False,5000,True,1.0
./expes/v2_2020-12-17_dh_1000-prng-1,30_issda_1000,1000,rng-1000,401,rng,num-start-2001,2001,25726,423.4278779029846,True,,True,1,False,5000,True,1.0
./expes/v2_2020-12-17_dh_1000-prng-1,30_issda_1000,1000,rng-1000,901,rng,num-start-5001,5001,25726,1105.9754164218903,True,,True,1,False,5000,True,1.0
./expes/v2_2020-12-17_dh_1000-prng-1,30_issda_1000,1000,rng-1000,1,rng,num-start-16001,16001,25726,1447.0333440303802,True,,True,1,False,5000,True,1.0
./expes/v2_2020-12-17_dh_1000-prng-1,30_issda_1000,1000,rng-1000,101,rng,num-start-15001,15001,25726,2391.27374958992,True,,True,1,False,5000,True,1.0
./expes/v2_2020-12-17_dh_1000-prng-1,30_issda_1000,1000,rng-1000,701,rng,num-start-1001,1001,25726,296.56301951408386,True,,True,1,False,5000,True,1.0
./expes/v2_2020-12-17_dh_1000-prng-1,30_issda_1000,1000,rng-1000,101,rng,num-start-3001,3001,25726,471.868629693985,True,,True,1,False,5000,True,1.0
./expes/v2_2020-12-17_dh_1000-prng-1,30_issda_1000,1000,rng-1000,801,rng,num-start-13001,13001,25726,1963.9624671936035,True,,True,1,False,5000,True,1.0
./expes/v2_2020-12-17_dh_1000-prng-1,30_issda_1000,1000,rng-1000,801,rng,num-start-3001,3001,25726,538.4032232761383,True,,True,1,False,5000,True,1.0
./expes/v2_2020-12-17_dh_1000-prng-1,30_issda_1000,1000,rng-1000,801,rng,num-start-11001,11001,25726,2206.427756547928,True,,True,1,False,5000,True,1.0
./expes/v2_2020-12-17_dh_1000-prng-1,30_issda_1000,1000,rng-1000,101,rng,num-start-2001,2001,25726,316.5475494861603,True,,True,1,False,5000,True,1.0
./expes/v2_2020-12-17_dh_1000-prng-1,30_issda_1000,1000,rng-1000,601,rng,num-start-11001,11001,25726,2319.9034447669983,True,,True,1,False,5000,True,1.0
./expes/v2_2020-12-17_dh_1000-prng-1,30_issda_1000,1000,rng-1000,501,rng,num-start-14001,14001,25726,2635.123456478119,True,,True,1,False,5000,True,1.0
./expes/v2_2020-12-17_dh_1000-prng-1,30_issda_1000,1000,rng-1000,101,rng,num-start-7001,7001,25726,1082.4437737464905,True,,True,1,False,5000,True,1.0
./expes/v2_2020-12-17_dh_1000-prng-1,30_issda_1000,1000,rng-1000,201,rng,num-start-1,1,25726,1.4280502796173096,False,,False,2,False,5000,True,1.0
./expes/v2_2020-12-17_dh_1000-prng-1,30_issda_1000,1000,rng-1000,801,rng,num-start-14001,14001,25726,2511.527111530304,True,,True,1,False,5000,True,1.0
./expes/v2_2020-12-17_dh_1000-prng-1,30_issda_1000,1000,rng-1000,301,rng,num-start-10001,10001,25726,1921.7628908157349,True,,True,1,False,5000,True,1.0
