expe,clients,clients_size,clients_subset,agg_size,method,days,days_size,days_total,time,valid,valid_sum,success,nsols,wall_hit,wall_time,pooled,valid_sums
./expes/v2_2020-12-17_dh_1000-prng-1-w5,30_issda_1000,1000,rng-1000,501,rng,num-start-2001,2001,25726,788.056209564209,True,,True,1,False,5000,True,1.0
./expes/v2_2020-12-17_dh_1000-prng-1-w5,30_issda_1000,1000,rng-1000,301,rng,num-start-14001,14001,25726,4041.7507388591766,True,,True,1,False,5000,True,1.0
./expes/v2_2020-12-17_dh_1000-prng-1-w5,30_issda_1000,1000,rng-1000,401,rng,num-start-4001,4001,25726,1014.7660875320435,True,,True,1,False,5000,True,1.0
./expes/v2_2020-12-17_dh_1000-prng-1-w5,30_issda_1000,1000,rng-1000,601,rng,num-start-1,1,25726,0.14337730407714844,False,,False,2,False,5000,True,1.0
./expes/v2_2020-12-17_dh_1000-prng-1-w5,30_issda_1000,1000,rng-1000,701,rng,num-start-15001,15001,25726,4046.1857566833496,True,,True,1,False,5000,True,1.0
./expes/v2_2020-12-17_dh_1000-prng-1-w5,30_issda_1000,1000,rng-1000,101,rng,num-start-4001,4001,25726,711.9216537475586,True,,True,1,False,5000,True,1.0
./expes/v2_2020-12-17_dh_1000-prng-1-w5,30_issda_1000,1000,rng-1000,201,rng,num-start-10001,10001,25726,1798.391165971756,True,,True,1,False,5000,True,1.0
./expes/v2_2020-12-17_dh_1000-prng-1-w5,30_issda_1000,1000,rng-1000,601,rng,num-start-16001,16001,25726,5526.843049287796,True,,True,1,False,5000,True,1.0
./expes/v2_2020-12-17_dh_1000-prng-1-w5,30_issda_1000,1000,rng-1000,301,rng,num-start-11001,11001,25726,3038.618611097336,True,,True,1,False,5000,True,1.0
./expes/v2_2020-12-17_dh_1000-prng-1-w5,30_issda_1000,1000,rng-1000,701,rng,num-start-16001,16001,25726,3982.44641661644,True,,True,1,False,5000,True,1.0
./expes/v2_2020-12-17_dh_1000-prng-1-w5,30_issda_1000,1000,rng-1000,501,rng,num-start-12001,12001,25726,3212.748279809952,True,,True,1,False,5000,True,1.0
./expes/v2_2020-12-17_dh_1000-prng-1-w5,30_issda_1000,1000,rng-1000,201,rng,num-start-12001,12001,25726,2622.8763267993927,True,,True,1,False,5000,True,1.0
./expes/v2_2020-12-17_dh_1000-prng-1-w5,30_issda_1000,1000,rng-1000,301,rng,num-start-13001,13001,25726,3022.969260454178,True,,True,1,False,5000,True,1.0
./expes/v2_2020-12-17_dh_1000-prng-1-w5,30_issda_1000,1000,rng-1000,601,rng,num-start-2001,2001,25726,537.9978442192078,True,,True,1,False,5000,True,1.0
./expes/v2_2020-12-17_dh_1000-prng-1-w5,30_issda_1000,1000,rng-1000,201,rng,num-start-6001,6001,25726,1356.040164232254,True,,True,1,False,5000,True,1.0
./expes/v2_2020-12-17_dh_1000-prng-1-w5,30_issda_1000,1000,rng-1000,501,rng,num-start-7001,7001,25726,2065.3677463531494,True,,True,1,False,5000,True,1.0
./expes/v2_2020-12-17_dh_1000-prng-1-w5,30_issda_1000,1000,rng-1000,1,rng,num-start-5001,5001,25726,330.0922749042511,True,,True,1,False,5000,True,1.0
./expes/v2_2020-12-17_dh_1000-prng-1-w5,30_issda_1000,1000,rng-1000,901,rng,num-start-16001,16001,25726,2438.8929159641266,True,,True,1,False,5000,True,1.0
./expes/v2_2020-12-17_dh_1000-prng-1-w5,30_issda_1000,1000,rng-1000,701,rng,num-start-10001,10001,25726,2265.1706836223602,True,,True,1,False,5000,True,1.0
./expes/v2_2020-12-17_dh_1000-prng-1-w5,30_issda_1000,1000,rng-1000,101,rng,num-start-9001,9001,25726,1552.433426618576,True,,True,1,False,5000,True,1.0
./expes/v2_2020-12-17_dh_1000-prng-1-w5,30_issda_1000,1000,rng-1000,601,rng,num-start-3001,3001,25726,687.4380855560303,True,,True,1,False,5000,True,1.0
./expes/v2_2020-12-17_dh_1000-prng-1-w5,30_issda_1000,1000,rng-1000,301,rng,num-start-15001,15001,25726,3984.4478538036346,True,,True,1,False,5000,True,1.0
./expes/v2_2020-12-17_dh_1000-prng-1-w5,30_issda_1000,1000,rng-1000,1,rng,num-start-1,1,25726,0.10201311111450195,False,,False,2,False,5000,True,1.0
./expes/v2_2020-12-17_dh_1000-prng-1-w5,30_issda_1000,1000,rng-1000,301,rng,num-start-1001,1001,25726,233.5178291797638,True,,True,1,False,5000,True,1.0
./expes/v2_2020-12-17_dh_1000-prng-1-w5,30_issda_1000,1000,rng-1000,1,rng,num-start-13001,13001,25726,827.4808759689331,True,,True,1,False,5000,True,1.0
./expes/v2_2020-12-17_dh_1000-prng-1-w5,30_issda_1000,1000,rng-1000,201,rng,num-start-3001,3001,25726,662.466460943222,True,,True,1,False,5000,True,1.0
./expes/v2_2020-12-17_dh_1000-prng-1-w5,30_issda_1000,1000,rng-1000,701,rng,num-start-8001,8001,25726,2162.652644634247,True,,True,1,False,5000,True,1.0
./expes/v2_2020-12-17_dh_1000-prng-1-w5,30_issda_1000,1000,rng-1000,801,rng,num-start-1001,1001,25726,175.38667225837708,True,,True,1,False,5000,True,1.0
./expes/v2_2020-12-17_dh_1000-prng-1-w5,30_issda_1000,1000,rng-1000,801,rng,num-start-10001,10001,25726,1777.2834572792053,True,,True,1,False,5000,True,1.0
./expes/v2_2020-12-17_dh_1000-prng-1-w5,30_issda_1000,1000,rng-1000,401,rng,num-start-6001,6001,25726,1834.7985920906067,True,,True,1,False,5000,True,1.0
./expes/v2_2020-12-17_dh_1000-prng-1-w5,30_issda_1000,1000,rng-1000,501,rng,num-start-9001,9001,25726,2584.5192246437073,True,,True,1,False,5000,True,1.0
./expes/v2_2020-12-17_dh_1000-prng-1-w5,30_issda_1000,1000,rng-1000,401,rng,num-start-5001,5001,25726,1251.508127450943,True,,True,1,False,5000,True,1.0
./expes/v2_2020-12-17_dh_1000-prng-1-w5,30_issda_1000,1000,rng-1000,201,rng,num-start-3001,3001,25726,630.9529531002045,True,,True,1,False,5000,True,1.0
./expes/v2_2020-12-17_dh_1000-prng-1-w5,30_issda_1000,1000,rng-1000,601,rng,num-start-3001,3001,25726,825.52565574646,True,,True,1,False,5000,True,1.0
./expes/v2_2020-12-17_dh_1000-prng-1-w5,30_issda_1000,1000,rng-1000,401,rng,num-start-2001,2001,25726,433.8209557533264,False,,False,2,False,5000,True,1.0
./expes/v2_2020-12-17_dh_1000-prng-1-w5,30_issda_1000,1000,rng-1000,101,rng,num-start-8001,8001,25726,1138.2233345508575,True,,True,1,False,5000,True,1.0
./expes/v2_2020-12-17_dh_1000-prng-1-w5,30_issda_1000,1000,rng-1000,701,rng,num-start-13001,13001,25726,4691.586888074875,True,,True,1,False,5000,True,1.0
./expes/v2_2020-12-17_dh_1000-prng-1-w5,30_issda_1000,1000,rng-1000,101,rng,num-start-16001,16001,25726,3079.2556896209717,True,,True,1,False,5000,True,1.0
./expes/v2_2020-12-17_dh_1000-prng-1-w5,30_issda_1000,1000,rng-1000,1,rng,num-start-2001,2001,25726,131.9122805595398,True,,True,1,False,5000,True,1.0
./expes/v2_2020-12-17_dh_1000-prng-1-w5,30_issda_1000,1000,rng-1000,301,rng,num-start-8001,8001,25726,1645.7406151294708,True,,True,1,False,5000,True,1.0
./expes/v2_2020-12-17_dh_1000-prng-1-w5,30_issda_1000,1000,rng-1000,601,rng,num-start-6001,6001,25726,1354.182933330536,True,,True,1,False,5000,True,1.0
./expes/v2_2020-12-17_dh_1000-prng-1-w5,30_issda_1000,1000,rng-1000,901,rng,num-start-15001,15001,25726,2135.173296689987,True,,True,1,False,5000,True,1.0
./expes/v2_2020-12-17_dh_1000-prng-1-w5,30_issda_1000,1000,rng-1000,1,rng,num-start-9001,9001,25726,595.8949882984161,True,,True,1,False,5000,True,1.0
./expes/v2_2020-12-17_dh_1000-prng-1-w5,30_issda_1000,1000,rng-1000,801,rng,num-start-2001,2001,25726,409.32138323783875,True,,True,1,False,5000,True,1.0
./expes/v2_2020-12-17_dh_1000-prng-1-w5,30_issda_1000,1000,rng-1000,201,rng,num-start-3001,3001,25726,749.5933105945587,True,,True,1,False,5000,True,1.0
./expes/v2_2020-12-17_dh_1000-prng-1-w5,30_issda_1000,1000,rng-1000,801,rng,num-start-15001,15001,25726,2777.249876499176,True,,True,1,False,5000,True,1.0
./expes/v2_2020-12-17_dh_1000-prng-1-w5,30_issda_1000,1000,rng-1000,901,rng,num-start-11001,11001,25726,3416.024600505829,True,,True,1,False,5000,True,1.0
