expe,clients,clients_size,clients_subset,agg_size,agg_size_pc,method,days,days_size,days_total,noise_method,time,valid,valid_sum,success,score_avg,score_min,score_max,nsols,oracle,wall_hit,wall_time,pooled,pool_size,uuid,infeasible,optimal,valid_sums
./expes/v2_2021-03-23_issda-30_2000-prng-1-w8-p2,30_issda-2000,2000,first-2000,400,20,rng,num-start-1800,1800,25726,classic,1791.248750448227,True,,True,1.0,1.0,1.0,1,"['2', '4', '7', '11', '19', '24', '27', '38', '45', '47', '57', '60', '66', '68', '71', '74', '76', '86', '96', '100', '107', '111', '115', '117', '121', '130', '134', '136', '148', '161', '162', '166', '183', '187', '189', '195', '209', '219', '222', '227', '231', '232', '236', '244', '260', '268', '271', '272', '274', '285', '290', '291', '299', '301', '304', '305', '306', '322', '327', '328', '331', '340', '341', '346', '347', '352', '354', '361', '364', '366', '368', '369', '370', '371', '372', '373', '379', '397', '401', '403', '404', '407', '408', '419', '420', '425', '427', '429', '442', '444', '449', '464', '487', '488', '504', '505', '511', '513', '514', '524', '525', '541', '543', '555', '558', '561', '562', '565', '571', '573', '576', '580', '592', '593', '597', '602', '604', '605', '606', '612', '618', '620', '627', '628', '634', '635', '640', '643', '647', '649', '650', '651', '668', '680', '685', '693', '694', '696', '697', '698', '705', '706', '708', '713', '717', '718', '720', '727', '728', '729', '731', '733', '735', '740', '742', '743', '745', '747', '750', '753', '762', '764', '766', '771', '773', '779', '780', '785', '798', '827', '828', '831', '832', '836', '837', '840', '848', '850', '851', '854', '858', '862', '864', '887', '890', '904', '912', '922', '928', '929', '934', '947', '948', '949', '953', '954', '961', '963', '966', '968', '972', '978', '982', '985', '986', '989', '991', '995', '1000', '1008', '1011', '1023', '1025', '1030', '1050', '1051', '1056', '1058', '1062', '1070', '1075', '1085', '1086', '1090', '1093', '1105', '1114', '1117', '1121', '1123', '1125', '1127', '1133', '1146', '1156', '1176', '1185', '1190', '1201', '1202', '1204', '1208', '1209', '1217', '1221', '1231', '1236', '1251', '1253', '1257', '1264', '1265', '1266', '1271', '1276', '1278', '1279', '1282', '1284', '1285', '1292', '1293', '1305', '1308', '1320', '1326', '1330', '1331', '1332', '1334', '1336', '1357', '1360', '1364', '1369', '1374', '1376', '1380', '1389', '1405', '1410', '1411', '1412', '1415', '1417', '1423', '1427', '1439', '1443', '1444', '1450', '1467', '1471', '1472', '1474', '1475', '1476', '1477', '1495', '1496', '1498', '1499', '1512', '1516', '1517', '1520', '1533', '1536', '1548', '1555', '1556', '1561', '1569', '1577', '1585', '1587', '1589', '1590', '1599', '1600', '1602', '1610', '1614', '1629', '1633', '1634', '1636', '1642', '1673', '1675', '1677', '1679', '1684', '1693', '1697', '1703', '1711', '1714', '1718', '1722', '1723', '1724', '1727', '1731', '1745', '1746', '1749', '1753', '1761', '1775', '1776', '1777', '1778', '1779', '1782', '1785', '1787', '1795', '1827', '1829', '1831', '1837', '1846', '1848', '1850', '1877', '1881', '1889', '1892', '1893', '1904', '1917', '1918', '1920', '1921', '1924', '1928', '1930', '1931', '1932', '1937', '1945', '1946', '1950', '1955', '1957', '1959', '1960', '1966', '1967', '1970', '1976', '1977', '1980', '1983', '1984', '1992', '1998', '1999', '2000']",False,8000,True,2,30576ca32a,0.0,1.0,1.0
./expes/v2_2021-03-23_issda-30_2000-prng-1-w8-p2,30_issda-2000,2000,first-2000,100,5,rng,num-start-3600,3600,25726,classic,1528.6864790916443,True,,True,1.0,1.0,1.0,1,"['12', '13', '21', '27', '29', '42', '46', '57', '91', '135', '172', '177', '252', '291', '316', '317', '337', '353', '452', '456', '460', '465', '481', '488', '520', '529', '531', '580', '584', '601', '607', '608', '619', '624', '633', '635', '636', '649', '687', '713', '741', '765', '839', '854', '861', '867', '912', '915', '929', '931', '936', '944', '952', '961', '973', '985', '988', '1004', '1007', '1013', '1059', '1072', '1153', '1186', '1227', '1234', '1235', '1242', '1284', '1293', '1301', '1317', '1347', '1366', '1367', '1432', '1433', '1441', '1457', '1491', '1523', '1603', '1614', '1617', '1619', '1630', '1655', '1669', '1706', '1721', '1726', '1741', '1750', '1771', '1830', '1882', '1943', '1950', '1959', '1995']",False,8000,True,2,e4510a9929,0.0,1.0,1.0
