expe,clients,clients_size,clients_subset,agg_size,method,days,days_size,days_total,time,valid,valid_sum,success,nsols,wall_hit,wall_time,pooled,valid_sums
./expes/v2_2020-11-04_hbh_250-prng-1,30_base_hphc_250,250,first-250,141,rng,num-start-291,291,17520,11.530384063720703,True,,True,1,False,1000,True,1.0
./expes/v2_2020-11-04_hbh_250-prng-1,30_base_hphc_250,250,first-250,41,rng,num-start-751,751,17520,29.177186727523804,True,,True,1,False,1000,True,1.0
./expes/v2_2020-11-04_hbh_250-prng-1,30_base_hphc_250,250,first-250,221,rng,num-start-991,991,17520,34.00308275222778,True,,True,1,False,1000,True,1.0
./expes/v2_2020-11-04_hbh_250-prng-1,30_base_hphc_250,250,first-250,161,rng,num-start-21,21,17520,1000.6893601417542,False,,False,0,True,1000,True,0.0
./expes/v2_2020-11-04_hbh_250-prng-1,30_base_hphc_250,250,first-250,31,rng,num-start-521,521,17520,16.80102014541626,True,,True,1,False,1000,True,1.0
./expes/v2_2020-11-04_hbh_250-prng-1,30_base_hphc_250,250,first-250,161,rng,num-start-401,401,17520,14.242888927459717,True,,True,1,False,1000,True,1.0
./expes/v2_2020-11-04_hbh_250-prng-1,30_base_hphc_250,250,first-250,121,rng,num-start-111,111,17520,8.190982103347778,True,,True,1,False,1000,True,1.0
./expes/v2_2020-11-04_hbh_250-prng-1,30_base_hphc_250,250,first-250,141,rng,num-start-461,461,17520,17.11580467224121,True,,True,1,False,1000,True,1.0
./expes/v2_2020-11-04_hbh_250-prng-1,30_base_hphc_250,250,first-250,181,rng,num-start-321,321,17520,11.519735097885132,True,,True,1,False,1000,True,1.0
./expes/v2_2020-11-04_hbh_250-prng-1,30_base_hphc_250,250,first-250,111,rng,num-start-411,411,17520,14.61413025856018,True,,True,1,False,1000,True,1.0
./expes/v2_2020-11-04_hbh_250-prng-1,30_base_hphc_250,250,first-250,151,rng,num-start-431,431,17520,15.263761758804321,True,,True,1,False,1000,True,1.0
./expes/v2_2020-11-04_hbh_250-prng-1,30_base_hphc_250,250,first-250,141,rng,num-start-661,661,17520,23.533679485321045,True,,True,1,False,1000,True,1.0
./expes/v2_2020-11-04_hbh_250-prng-1,30_base_hphc_250,250,first-250,171,rng,num-start-811,811,17520,27.864685773849487,True,,True,1,False,1000,True,1.0
./expes/v2_2020-11-04_hbh_250-prng-1,30_base_hphc_250,250,first-250,231,rng,num-start-211,211,17520,7.090308666229248,True,,True,1,False,1000,True,1.0
./expes/v2_2020-11-04_hbh_250-prng-1,30_base_hphc_250,250,first-250,151,rng,num-start-801,801,17520,29.890089750289917,True,,True,1,False,1000,True,1.0
./expes/v2_2020-11-04_hbh_250-prng-1,30_base_hphc_250,250,first-250,161,rng,num-start-661,661,17520,24.803921461105347,True,,True,1,False,1000,True,1.0
./expes/v2_2020-11-04_hbh_250-prng-1,30_base_hphc_250,250,first-250,131,rng,num-start-651,651,17520,23.975653171539307,True,,True,1,False,1000,True,1.0
./expes/v2_2020-11-04_hbh_250-prng-1,30_base_hphc_250,250,first-250,51,rng,num-start-261,261,17520,9.479622602462769,True,,True,1,False,1000,True,1.0
./expes/v2_2020-11-04_hbh_250-prng-1,30_base_hphc_250,250,first-250,211,rng,num-start-201,201,17520,6.814134836196899,True,,True,1,False,1000,True,1.0
./expes/v2_2020-11-04_hbh_250-prng-1,30_base_hphc_250,250,first-250,81,rng,num-start-841,841,17520,32.40644454956055,True,,True,1,False,1000,True,1.0
./expes/v2_2020-11-04_hbh_250-prng-1,30_base_hphc_250,250,first-250,91,rng,num-start-941,941,17520,34.25600290298462,True,,True,1,False,1000,True,1.0
./expes/v2_2020-11-04_hbh_250-prng-1,30_base_hphc_250,250,first-250,71,rng,num-start-711,711,17520,26.862812757492065,True,,True,1,False,1000,True,1.0
./expes/v2_2020-11-04_hbh_250-prng-1,30_base_hphc_250,250,first-250,211,rng,num-start-661,661,17520,23.457807779312134,True,,True,1,False,1000,True,1.0
./expes/v2_2020-11-04_hbh_250-prng-1,30_base_hphc_250,250,first-250,121,rng,num-start-531,531,17520,19.967304706573486,True,,True,1,False,1000,True,1.0
./expes/v2_2020-11-04_hbh_250-prng-1,30_base_hphc_250,250,first-250,81,rng,num-start-671,671,17520,24.832828760147095,True,,True,1,False,1000,True,1.0
./expes/v2_2020-11-04_hbh_250-prng-1,30_base_hphc_250,250,first-250,151,rng,num-start-41,41,17520,1001.2612149715424,False,,False,0,True,1000,True,0.0
./expes/v2_2020-11-04_hbh_250-prng-1,30_base_hphc_250,250,first-250,91,rng,num-start-91,91,17520,1002.7253646850586,False,,False,1,True,1000,True,0.0
