expe,clients,clients_size,clients_subset,agg_size,method,days,days_size,days_total,time,valid,valid_sum,success,nsols,wall_hit,wall_time,pooled,valid_sums
./expes/v2_2020-11-04_hbh_250-prng-1,30_base_hphc_250,250,first-250,41,rng,num-start-771,771,17520,22.294825077056885,True,,True,1,False,1000,True,1.0
./expes/v2_2020-11-04_hbh_250-prng-1,30_base_hphc_250,250,first-250,201,rng,num-start-981,981,17520,28.95362663269043,True,,True,1,False,1000,True,1.0
./expes/v2_2020-11-04_hbh_250-prng-1,30_base_hphc_250,250,first-250,1,rng,num-start-1,1,17520,0.03521299362182617,True,,False,2,False,1000,True,1.0
./expes/v2_2020-11-04_hbh_250-prng-1,30_base_hphc_250,250,first-250,21,rng,num-start-401,401,17520,11.519739389419556,True,,True,1,False,1000,True,1.0
./expes/v2_2020-11-04_hbh_250-prng-1,30_base_hphc_250,250,first-250,121,rng,num-start-961,961,17520,28.1032657623291,True,,True,1,False,1000,True,1.0
./expes/v2_2020-11-04_hbh_250-prng-1,30_base_hphc_250,250,first-250,181,rng,num-start-571,571,17520,16.940500736236572,True,,True,1,False,1000,True,1.0
./expes/v2_2020-11-04_hbh_250-prng-1,30_base_hphc_250,250,first-250,171,rng,num-start-591,591,17520,17.660717010498047,True,,True,1,False,1000,True,1.0
./expes/v2_2020-11-04_hbh_250-prng-1,30_base_hphc_250,250,first-250,121,rng,num-start-601,601,17520,18.109834909439087,True,,True,1,False,1000,True,1.0
./expes/v2_2020-11-04_hbh_250-prng-1,30_base_hphc_250,250,first-250,111,rng,num-start-251,251,17520,7.700342655181885,True,,True,1,False,1000,True,1.0
./expes/v2_2020-11-04_hbh_250-prng-1,30_base_hphc_250,250,first-250,181,rng,num-start-841,841,17520,25.375772953033447,True,,True,1,False,1000,True,1.0
./expes/v2_2020-11-04_hbh_250-prng-1,30_base_hphc_250,250,first-250,61,rng,num-start-911,911,17520,27.32708740234375,True,,True,1,False,1000,True,1.0
./expes/v2_2020-11-04_hbh_250-prng-1,30_base_hphc_250,250,first-250,221,rng,num-start-391,391,17520,11.113651514053345,True,,True,1,False,1000,True,1.0
./expes/v2_2020-11-04_hbh_250-prng-1,30_base_hphc_250,250,first-250,31,rng,num-start-1,1,17520,0.05180549621582031,False,,False,2,False,1000,True,1.0
./expes/v2_2020-11-04_hbh_250-prng-1,30_base_hphc_250,250,first-250,191,rng,num-start-821,821,17520,24.150140523910522,True,,True,1,False,1000,True,1.0
./expes/v2_2020-11-04_hbh_250-prng-1,30_base_hphc_250,250,first-250,161,rng,num-start-591,591,17520,18.701998472213745,True,,True,1,False,1000,True,1.0
./expes/v2_2020-11-04_hbh_250-prng-1,30_base_hphc_250,250,first-250,21,rng,num-start-191,191,17520,6.004878997802734,True,,True,1,False,1000,True,1.0
./expes/v2_2020-11-04_hbh_250-prng-1,30_base_hphc_250,250,first-250,61,rng,num-start-411,411,17520,12.815217018127441,True,,True,1,False,1000,True,1.0
./expes/v2_2020-11-04_hbh_250-prng-1,30_base_hphc_250,250,first-250,11,rng,num-start-521,521,17520,15.017279148101807,True,,True,1,False,1000,True,1.0
./expes/v2_2020-11-04_hbh_250-prng-1,30_base_hphc_250,250,first-250,91,rng,num-start-431,431,17520,13.065147161483765,True,,True,1,False,1000,True,1.0
./expes/v2_2020-11-04_hbh_250-prng-1,30_base_hphc_250,250,first-250,241,rng,num-start-571,571,17520,17.1119327545166,True,,True,1,False,1000,True,1.0
./expes/v2_2020-11-04_hbh_250-prng-1,30_base_hphc_250,250,first-250,101,rng,num-start-471,471,17520,14.345163822174072,True,,True,1,False,1000,True,1.0
./expes/v2_2020-11-04_hbh_250-prng-1,30_base_hphc_250,250,first-250,121,rng,num-start-721,721,17520,22.000514030456543,True,,True,1,False,1000,True,1.0
./expes/v2_2020-11-04_hbh_250-prng-1,30_base_hphc_250,250,first-250,131,rng,num-start-371,371,17520,11.648132562637329,True,,True,1,False,1000,True,1.0
./expes/v2_2020-11-04_hbh_250-prng-1,30_base_hphc_250,250,first-250,101,rng,num-start-71,71,17520,1001.9192843437195,False,,False,0,True,1000,True,0.0
./expes/v2_2020-11-04_hbh_250-prng-1,30_base_hphc_250,250,first-250,91,rng,num-start-641,641,17520,18.50638771057129,True,,True,1,False,1000,True,1.0
./expes/v2_2020-11-04_hbh_250-prng-1,30_base_hphc_250,250,first-250,21,rng,num-start-431,431,17520,11.996531009674072,True,,True,1,False,1000,True,1.0
./expes/v2_2020-11-04_hbh_250-prng-1,30_base_hphc_250,250,first-250,71,rng,num-start-551,551,17520,16.07770562171936,True,,True,1,False,1000,True,1.0
./expes/v2_2020-11-04_hbh_250-prng-1,30_base_hphc_250,250,first-250,81,rng,num-start-111,111,17520,8.879172563552856,True,,True,1,False,1000,True,1.0
./expes/v2_2020-11-04_hbh_250-prng-1,30_base_hphc_250,250,first-250,161,rng,num-start-311,311,17520,9.759629011154175,True,,True,1,False,1000,True,1.0
./expes/v2_2020-11-04_hbh_250-prng-1,30_base_hphc_250,250,first-250,131,rng,num-start-441,441,17520,13.96734619140625,True,,True,1,False,1000,True,1.0
./expes/v2_2020-11-04_hbh_250-prng-1,30_base_hphc_250,250,first-250,141,rng,num-start-21,21,17520,1000.5776419639587,False,,False,0,True,1000,True,0.0
./expes/v2_2020-11-04_hbh_250-prng-1,30_base_hphc_250,250,first-250,201,rng,num-start-221,221,17520,6.3761513233184814,True,,True,1,False,1000,True,1.0
./expes/v2_2020-11-04_hbh_250-prng-1,30_base_hphc_250,250,first-250,51,rng,num-start-151,151,17520,4.527683734893799,True,,True,1,False,1000,True,1.0
./expes/v2_2020-11-04_hbh_250-prng-1,30_base_hphc_250,250,first-250,131,rng,num-start-551,551,17520,16.73944115638733,True,,True,1,False,1000,True,1.0
./expes/v2_2020-11-04_hbh_250-prng-1,30_base_hphc_250,250,first-250,41,rng,num-start-331,331,17520,9.44662618637085,True,,True,1,False,1000,True,1.0
./expes/v2_2020-11-04_hbh_250-prng-1,30_base_hphc_250,250,first-250,31,rng,num-start-191,191,17520,5.5930702686309814,True,,True,1,False,1000,True,1.0
./expes/v2_2020-11-04_hbh_250-prng-1,30_base_hphc_250,250,first-250,21,rng,num-start-871,871,17520,23.460723638534546,True,,True,1,False,1000,True,1.0
./expes/v2_2020-11-04_hbh_250-prng-1,30_base_hphc_250,250,first-250,91,rng,num-start-111,111,17520,3.4244673252105713,True,,True,1,False,1000,True,1.0
./expes/v2_2020-11-04_hbh_250-prng-1,30_base_hphc_250,250,first-250,161,rng,num-start-621,621,17520,18.02770233154297,True,,True,1,False,1000,True,1.0
./expes/v2_2020-11-04_hbh_250-prng-1,30_base_hphc_250,250,first-250,121,rng,num-start-191,191,17520,6.029201984405518,True,,True,1,False,1000,True,1.0
./expes/v2_2020-11-04_hbh_250-prng-1,30_base_hphc_250,250,first-250,21,rng,num-start-371,371,17520,10.814216375350952,True,,True,1,False,1000,True,1.0
./expes/v2_2020-11-04_hbh_250-prng-1,30_base_hphc_250,250,first-250,51,rng,num-start-781,781,17520,21.89560842514038,True,,True,1,False,1000,True,1.0
./expes/v2_2020-11-04_hbh_250-prng-1,30_base_hphc_250,250,first-250,41,rng,num-start-971,971,17520,26.973662853240967,True,,True,1,False,1000,True,1.0
./expes/v2_2020-11-04_hbh_250-prng-1,30_base_hphc_250,250,first-250,11,rng,num-start-541,541,17520,15.65129828453064,True,,True,1,False,1000,True,1.0
./expes/v2_2020-11-04_hbh_250-prng-1,30_base_hphc_250,250,first-250,191,rng,num-start-501,501,17520,13.96004343032837,True,,True,1,False,1000,True,1.0
./expes/v2_2020-11-04_hbh_250-prng-1,30_base_hphc_250,250,first-250,111,rng,num-start-801,801,17520,22.37802004814148,True,,True,1,False,1000,True,1.0
./expes/v2_2020-11-04_hbh_250-prng-1,30_base_hphc_250,250,first-250,161,rng,num-start-371,371,17520,10.570204496383667,True,,True,1,False,1000,True,1.0
./expes/v2_2020-11-04_hbh_250-prng-1,30_base_hphc_250,250,first-250,201,rng,num-start-231,231,17520,6.595168113708496,True,,True,1,False,1000,True,1.0
./expes/v2_2020-11-04_hbh_250-prng-1,30_base_hphc_250,250,first-250,61,rng,num-start-141,141,17520,4.344729900360107,True,,True,1,False,1000,True,1.0
./expes/v2_2020-11-04_hbh_250-prng-1,30_base_hphc_250,250,first-250,91,rng,num-start-461,461,17520,12.81719708442688,True,,True,1,False,1000,True,1.0
./expes/v2_2020-11-04_hbh_250-prng-1,30_base_hphc_250,250,first-250,101,rng,num-start-81,81,17520,1002.0420074462891,False,,False,0,True,1000,True,0.0
