expe,clients,clients_size,clients_subset,agg_size,agg_size_pc,method,days,days_size,days_total,noise_method,time,valid,valid_sum,success,score_avg,score_min,score_max,nsols,oracle,wall_hit,wall_time,pooled,pool_size,uuid,infeasible,optimal,valid_sums
./expes/v2_2021-03-19_issda-30_2000-prng-1-w5-p2,30_issda-2000,2000,first-2000,500,25,rng,num-start-400,400,25726,classic,5035.930307388306,False,,False,0,,,0,"['11', '15', '16', '17', '20', '22', '25', '32', '37', '40', '43', '54', '56', '57', '59', '62', '69', '73', '101', '102', '103', '104', '106', '107', '110', '111', '120', '123', '124', '128', '132', '135', '142', '145', '150', '151', '154', '158', '159', '162', '166', '168', '171', '175', '178', '191', '192', '193', '202', '203', '214', '217', '226', '227', '232', '240', '241', '251', '252', '253', '256', '261', '263', '264', '266', '281', '282', '284', '287', '291', '293', '294', '305', '307', '309', '310', '311', '316', '331', '333', '335', '337', '346', '347', '349', '350', '353', '358', '367', '376', '377', '386', '387', '388', '392', '394', '395', '401', '403', '407', '411', '417', '418', '427', '431', '433', '435', '437', '438', '444', '448', '455', '456', '461', '470', '474', '483', '484', '486', '490', '496', '497', '499', '500', '510', '512', '513', '514', '515', '517', '523', '528', '529', '532', '538', '540', '544', '545', '548', '552', '554', '559', '565', '570', '577', '581', '584', '591', '592', '594', '602', '603', '605', '608', '618', '620', '622', '625', '630', '631', '632', '634', '635', '636', '639', '642', '647', '648', '650', '651', '652', '654', '659', '667', '674', '678', '681', '685', '687', '689', '691', '695', '696', '712', '713', '721', '727', '729', '731', '737', '743', '746', '749', '754', '757', '763', '768', '769', '775', '786', '787', '796', '802', '805', '820', '823', '826', '827', '828', '829', '831', '834', '836', '837', '840', '849', '850', '854', '859', '860', '862', '866', '867', '875', '877', '882', '887', '889', '893', '894', '897', '907', '908', '912', '913', '920', '921', '928', '933', '941', '948', '950', '957', '958', '967', '971', '973', '978', '984', '989', '990', '994', '997', '1008', '1010', '1011', '1013', '1016', '1028', '1029', '1033', '1034', '1037', '1039', '1053', '1056', '1057', '1061', '1063', '1064', '1070', '1072', '1076', '1077', '1080', '1082', '1091', '1092', '1096', '1099', '1100', '1103', '1104', '1105', '1106', '1107', '1111', '1113', '1114', '1116', '1121', '1126', '1129', '1134', '1135', '1138', '1139', '1141', '1145', '1146', '1156', '1164', '1166', '1171', '1172', '1178', '1180', '1184', '1185', '1188', '1191', '1193', '1201', '1202', '1209', '1212', '1226', '1229', '1237', '1238', '1250', '1254', '1256', '1264', '1272', '1282', '1283', '1284', '1295', '1297', '1302', '1304', '1309', '1312', '1325', '1330', '1332', '1340', '1347', '1349', '1355', '1359', '1367', '1383', '1386', '1395', '1398', '1402', '1403', '1405', '1412', '1416', '1433', '1442', '1443', '1445', '1446', '1455', '1458', '1465', '1466', '1484', '1485', '1489', '1493', '1497', '1499', '1510', '1513', '1514', '1523', '1525', '1526', '1529', '1531', '1533', '1535', '1537', '1540', '1541', '1543', '1546', '1547', '1552', '1553', '1556', '1557', '1564', '1567', '1569', '1579', '1582', '1585', '1586', '1594', '1598', '1600', '1603', '1607', '1611', '1613', '1622', '1626', '1627', '1637', '1642', '1643', '1644', '1645', '1649', '1653', '1661', '1664', '1665', '1666', '1670', '1673', '1676', '1679', '1680', '1682', '1684', '1689', '1693', '1698', '1702', '1705', '1715', '1719', '1725', '1734', '1742', '1749', '1753', '1759', '1761', '1769', '1772', '1777', '1778', '1780', '1789', '1793', '1805', '1808', '1819', '1823', '1829', '1830', '1837', '1838', '1840', '1841', '1844', '1847', '1848', '1856', '1858', '1859', '1861', '1862', '1864', '1870', '1878', '1880', '1885', '1888', '1892', '1893', '1897', '1905', '1907', '1911', '1917', '1923', '1925', '1926', '1927', '1930', '1936', '1944', '1949', '1957', '1958', '1960', '1961', '1962', '1966', '1968', '1970', '1975', '1976', '1982', '1987', '1990', '1992', '1994', '1996', '1997', '1998']",True,5000,True,2,d571461c80,0.0,0.0,0.0
./expes/v2_2021-03-19_issda-30_2000-prng-1-w5-p2,30_issda-2000,2000,first-2000,500,25,rng,num-start-600,600,25726,classic,5057.835418224335,False,,False,0,,,0,"['1', '2', '4', '10', '16', '22', '32', '36', '40', '41', '43', '49', '52', '53', '57', '58', '60', '63', '65', '72', '83', '88', '92', '95', '98', '103', '105', '106', '112', '114', '122', '127', '137', '140', '141', '143', '144', '149', '153', '154', '158', '167', '171', '184', '185', '186', '191', '194', '195', '196', '199', '201', '210', '212', '218', '219', '220', '227', '229', '230', '232', '234', '235', '236', '243', '247', '249', '252', '253', '258', '264', '267', '270', '273', '277', '281', '289', '294', '300', '301', '307', '316', '325', '330', '332', '338', '345', '350', '352', '353', '358', '360', '364', '372', '374', '377', '387', '389', '395', '397', '400', '405', '407', '408', '409', '411', '415', '419', '421', '426', '429', '434', '443', '447', '455', '456', '458', '461', '464', '468', '472', '483', '484', '496', '501', '502', '505', '506', '507', '509', '510', '513', '516', '517', '522', '523', '524', '525', '526', '530', '534', '539', '540', '542', '545', '547', '555', '556', '558', '562', '564', '571', '575', '577', '578', '579', '580', '597', '601', '606', '607', '616', '620', '621', '625', '626', '629', '634', '637', '640', '644', '647', '661', '680', '683', '684', '687', '691', '696', '697', '709', '712', '714', '718', '720', '722', '724', '729', '734', '739', '746', '748', '749', '751', '754', '755', '756', '764', '772', '777', '780', '783', '784', '787', '788', '791', '792', '795', '807', '808', '813', '815', '825', '827', '831', '833', '844', '856', '858', '866', '867', '869', '871', '874', '880', '886', '896', '898', '899', '904', '905', '907', '912', '913', '917', '921', '922', '927', '929', '933', '942', '944', '956', '960', '961', '962', '963', '965', '969', '972', '974', '975', '984', '993', '994', '996', '997', '998', '1000', '1002', '1005', '1015', '1020', '1025', '1026', '1038', '1039', '1041', '1049', '1053', '1058', '1065', '1068', '1069', '1073', '1077', '1080', '1082', '1086', '1094', '1095', '1096', '1103', '1109', '1111', '1113', '1116', '1117', '1119', '1124', '1130', '1134', '1138', '1142', '1144', '1147', '1150', '1161', '1166', '1167', '1171', '1182', '1184', '1186', '1195', '1197', '1201', '1206', '1207', '1211', '1216', '1218', '1219', '1220', '1221', '1232', '1234', '1237', '1240', '1245', '1249', '1255', '1261', '1262', '1279', '1281', '1287', '1294', '1296', '1298', '1301', '1304', '1306', '1313', '1315', '1318', '1321', '1322', '1323', '1324', '1325', '1327', '1331', '1335', '1336', '1345', '1346', '1349', '1356', '1360', '1363', '1369', '1374', '1377', '1383', '1386', '1393', '1394', '1395', '1396', '1398', '1402', '1404', '1406', '1407', '1416', '1418', '1439', '1441', '1442', '1444', '1446', '1454', '1466', '1471', '1472', '1478', '1484', '1485', '1486', '1504', '1506', '1514', '1515', '1517', '1519', '1525', '1530', '1540', '1546', '1547', '1551', '1557', '1560', '1564', '1565', '1575', '1577', '1578', '1585', '1587', '1588', '1593', '1602', '1607', '1608', '1613', '1621', '1623', '1626', '1627', '1632', '1634', '1635', '1648', '1652', '1654', '1655', '1656', '1660', '1664', '1668', '1676', '1680', '1682', '1685', '1686', '1687', '1691', '1694', '1696', '1697', '1698', '1711', '1720', '1724', '1739', '1740', '1741', '1748', '1750', '1752', '1756', '1761', '1762', '1765', '1768', '1770', '1771', '1772', '1773', '1776', '1784', '1788', '1791', '1792', '1795', '1810', '1815', '1816', '1835', '1836', '1837', '1840', '1841', '1842', '1845', '1846', '1847', '1848', '1852', '1853', '1861', '1862', '1864', '1875', '1879', '1886', '1888', '1902', '1908', '1910', '1911', '1912', '1913', '1914', '1917', '1918', '1924', '1926', '1930', '1934', '1951', '1959', '1965', '1967', '1983', '1990', '1995', '2000']",True,5000,True,2,1877c10a6c,0.0,0.0,0.0
./expes/v2_2021-03-19_issda-30_2000-prng-1-w5-p2,30_issda-2000,2000,first-2000,900,45,rng,num-start-800,800,25726,classic,5081.094483137131,False,,False,0,,,0,"['7', '10', '11', '12', '15', '16', '17', '19', '20', '22', '24', '25', '32', '35', '37', '38', '40', '43', '49', '54', '55', '56', '57', '59', '61', '62', '63', '64', '67', '69', '70', '73', '74', '77', '80', '83', '84', '90', '94', '97', '101', '102', '103', '104', '105', '106', '107', '108', '110', '111', '114', '116', '117', '118', '120', '123', '124', '128', '131', '132', '135', '142', '145', '146', '147', '150', '151', '152', '154', '158', '159', '162', '163', '166', '168', '171', '174', '175', '178', '179', '180', '182', '183', '184', '191', '192', '193', '197', '201', '202', '203', '204', '206', '210', '213', '214', '216', '217', '218', '221', '222', '225', '226', '227', '232', '233', '234', '236', '240', '241', '250', '251', '252', '253', '255', '256', '257', '261', '263', '264', '265', '266', '269', '273', '277', '281', '282', '284', '287', '288', '289', '291', '293', '294', '295', '301', '305', '307', '308', '309', '310', '311', '314', '316', '319', '322', '331', '332', '333', '334', '335', '336', '337', '344', '346', '347', '349', '350', '353', '354', '355', '356', '357', '358', '359', '367', '376', '377', '383', '386', '387', '388', '392', '393', '394', '395', '396', '401', '402', '403', '404', '405', '407', '408', '411', '415', '417', '418', '420', '427', '430', '431', '433', '435', '437', '438', '439', '443', '444', '446', '448', '450', '452', '453', '455', '456', '461', '464', '466', '467', '470', '472', '474', '475', '479', '483', '484', '486', '489', '490', '496', '497', '499', '500', '508', '509', '510', '511', '512', '513', '514', '515', '517', '523', '526', '528', '529', '531', '532', '533', '535', '536', '538', '540', '541', '542', '543', '544', '545', '548', '549', '550', '552', '554', '559', '561', '563', '565', '566', '570', '574', '577', '581', '582', '584', '587', '591', '592', '594', '597', '599', '601', '602', '603', '604', '605', '607', '608', '609', '616', '618', '620', '621', '622', '623', '625', '630', '631', '632', '633', '634', '635', '636', '638', '639', '642', '645', '647', '648', '650', '651', '652', '654', '655', '658', '659', '660', '662', '663', '664', '667', '669', '670', '674', '675', '677', '678', '679', '681', '684', '685', '686', '687', '689', '691', '695', '696', '698', '703', '712', '713', '714', '720', '721', '726', '727', '728', '729', '731', '733', '734', '737', '741', '743', '746', '749', '752', '754', '757', '758', '762', '763', '768', '769', '770', '775', '776', '778', '781', '783', '784', '786', '787', '791', '792', '794', '796', '801', '802', '803', '805', '807', '817', '820', '823', '826', '827', '828', '829', '830', '831', '833', '834', '836', '837', '840', '842', '846', '848', '849', '850', '854', '858', '859', '860', '862', '865', '866', '867', '875', '876', '877', '878', '882', '887', '889', '893', '894', '895', '896', '897', '901', '904', '905', '907', '908', '912', '913', '915', '916', '920', '921', '924', '927', '928', '930', '933', '940', '941', '942', '945', '948', '950', '952', '954', '957', '958', '959', '962', '965', '967', '969', '970', '971', '972', '973', '974', '975', '978', '981', '984', '987', '989', '990', '992', '994', '996', '997', '998', '1001', '1002', '1003', '1008', '1010', '1011', '1012', '1013', '1016', '1018', '1021', '1025', '1026', '1027', '1028', '1029', '1033', '1034', '1037', '1039', '1040', '1042', '1053', '1054', '1056', '1057', '1060', '1061', '1063', '1064', '1065', '1068', '1070', '1072', '1075', '1076', '1077', '1080', '1082', '1083', '1087', '1089', '1090', '1091', '1092', '1095', '1096', '1099', '1100', '1103', '1104', '1105', '1106', '1107', '1109', '1111', '1113', '1114', '1115', '1116', '1121', '1122', '1126', '1129', '1132', '1133', '1134', '1135', '1138', '1139', '1141', '1143', '1145', '1146', '1147', '1153', '1154', '1155', '1156', '1161', '1164', '1166', '1171', '1172', '1178', '1180', '1182', '1184', '1185', '1188', '1190', '1191', '1192', '1193', '1197', '1200', '1201', '1202', '1209', '1211', '1212', '1213', '1215', '1226', '1227', '1228', '1229', '1231', '1234', '1237', '1238', '1241', '1243', '1245', '1247', '1250', '1252', '1253', '1254', '1255', '1256', '1262', '1264', '1265', '1267', '1271', '1272', '1280', '1281', '1282', '1283', '1284', '1288', '1295', '1296', '1297', '1298', '1300', '1302', '1304', '1309', '1312', '1315', '1320', '1324', '1325', '1326', '1327', '1330', '1332', '1333', '1339', '1340', '1345', '1347', '1348', '1349', '1350', '1353', '1355', '1359', '1365', '1367', '1383', '1386', '1388', '1390', '1393', '1395', '1398', '1402', '1403', '1404', '1405', '1412', '1416', '1419', '1433', '1434', '1435', '1442', '1443', '1445', '1446', '1447', '1449', '1453', '1455', '1456', '1458', '1459', '1460', '1462', '1464', '1465', '1466', '1472', '1476', '1478', '1482', '1484', '1485', '1489', '1493', '1497', '1499', '1505', '1507', '1508', '1510', '1511', '1513', '1514', '1522', '1523', '1525', '1526', '1529', '1531', '1532', '1533', '1534', '1535', '1537', '1540', '1541', '1543', '1546', '1547', '1550', '1552', '1553', '1554', '1556', '1557', '1561', '1563', '1564', '1565', '1566', '1567', '1568', '1569', '1572', '1573', '1575', '1579', '1581', '1582', '1584', '1585', '1586', '1591', '1594', '1598', '1600', '1602', '1603', '1604', '1607', '1610', '1611', '1613', '1614', '1618', '1619', '1622', '1626', '1627', '1628', '1630', '1635', '1636', '1637', '1640', '1642', '1643', '1644', '1645', '1647', '1649', '1653', '1655', '1657', '1658', '1659', '1661', '1662', '1664', '1665', '1666', '1668', '1669', '1670', '1671', '1673', '1676', '1679', '1680', '1682', '1684', '1688', '1689', '1692', '1693', '1696', '1698', '1699', '1702', '1703', '1705', '1710', '1711', '1715', '1718', '1719', '1724', '1725', '1727', '1731', '1732', '1734', '1738', '1742', '1744', '1745', '1746', '1747', '1749', '1753', '1755', '1756', '1757', '1759', '1761', '1769', '1772', '1774', '1776', '1777', '1778', '1779', '1780', '1783', '1786', '1789', '1791', '1793', '1794', '1795', '1800', '1804', '1805', '1808', '1813', '1814', '1815', '1819', '1821', '1822', '1823', '1829', '1830', '1835', '1837', '1838', '1840', '1841', '1842', '1844', '1845', '1847', '1848', '1849', '1856', '1857', '1858', '1859', '1861', '1862', '1864', '1870', '1872', '1878', '1880', '1881', '1884', '1885', '1888', '1891', '1892', '1893', '1897', '1898', '1900', '1903', '1904', '1905', '1907', '1911', '1917', '1920', '1923', '1924', '1925', '1926', '1927', '1930', '1931', '1936', '1943', '1944', '1948', '1949', '1951', '1952', '1955', '1957', '1958', '1960', '1961', '1962', '1964', '1966', '1968', '1970', '1971', '1974', '1975', '1976', '1978', '1981', '1982', '1987', '1990', '1992', '1994', '1995', '1996', '1997', '1998']",True,5000,True,2,60130b83e3,0.0,0.0,0.0
./expes/v2_2021-03-19_issda-30_2000-prng-1-w5-p2,30_issda-2000,2000,first-2000,200,10,rng,num-start-400,400,25726,classic,5037.443878650665,False,,False,0,,,0,"['12', '13', '19', '21', '23', '27', '29', '42', '46', '47', '57', '63', '68', '80', '89', '91', '96', '99', '122', '135', '146', '161', '172', '177', '191', '207', '212', '214', '222', '233', '238', '249', '252', '290', '291', '295', '302', '314', '316', '317', '337', '353', '365', '406', '443', '452', '456', '460', '465', '467', '476', '481', '488', '490', '491', '498', '501', '520', '523', '524', '529', '531', '533', '549', '580', '582', '584', '601', '607', '608', '619', '624', '633', '635', '636', '649', '655', '656', '687', '713', '741', '757', '765', '787', '796', '805', '808', '819', '820', '830', '832', '834', '839', '852', '854', '861', '867', '876', '889', '912', '915', '929', '931', '934', '936', '944', '952', '956', '961', '973', '978', '985', '988', '1004', '1007', '1013', '1023', '1030', '1047', '1059', '1072', '1077', '1105', '1110', '1153', '1186', '1193', '1227', '1234', '1235', '1237', '1242', '1256', '1282', '1284', '1293', '1296', '1301', '1308', '1313', '1317', '1332', '1341', '1343', '1347', '1351', '1366', '1367', '1370', '1395', '1407', '1421', '1432', '1433', '1441', '1449', '1450', '1457', '1491', '1496', '1512', '1523', '1568', '1603', '1604', '1614', '1617', '1619', '1630', '1655', '1664', '1667', '1669', '1674', '1700', '1706', '1721', '1722', '1726', '1727', '1735', '1741', '1750', '1771', '1810', '1830', '1837', '1843', '1882', '1883', '1884', '1895', '1927', '1943', '1950', '1952', '1959', '1981', '1983', '1995']",True,5000,True,2,e12ff385c7,0.0,0.0,0.0
./expes/v2_2021-03-19_issda-30_2000-prng-1-w5-p2,30_issda-2000,2000,first-2000,700,35,rng,num-start-800,800,25726,classic,5075.1704614162445,False,,False,0,,,0,"['2', '7', '8', '11', '12', '14', '15', '17', '18', '20', '21', '23', '24', '25', '27', '29', '31', '32', '36', '38', '40', '42', '46', '49', '53', '54', '56', '58', '59', '60', '61', '62', '68', '70', '71', '74', '80', '84', '85', '86', '87', '89', '97', '100', '102', '104', '105', '106', '108', '109', '111', '113', '116', '119', '121', '124', '125', '130', '132', '133', '135', '136', '137', '141', '142', '147', '153', '155', '156', '157', '161', '166', '167', '170', '171', '172', '173', '174', '176', '178', '180', '182', '183', '188', '189', '192', '194', '197', '198', '203', '204', '205', '209', '212', '213', '218', '223', '226', '227', '228', '229', '230', '242', '246', '247', '249', '253', '263', '266', '271', '272', '273', '276', '277', '282', '283', '284', '285', '288', '289', '292', '295', '298', '301', '304', '305', '306', '312', '322', '329', '332', '333', '335', '337', '341', '345', '347', '350', '351', '352', '354', '355', '361', '365', '367', '371', '372', '374', '382', '383', '387', '388', '391', '394', '405', '406', '408', '409', '411', '414', '416', '420', '421', '423', '428', '430', '431', '432', '433', '438', '444', '452', '453', '455', '456', '457', '459', '460', '462', '466', '473', '474', '476', '484', '485', '488', '498', '499', '503', '507', '509', '515', '519', '520', '522', '526', '530', '531', '533', '535', '538', '539', '547', '548', '550', '553', '557', '559', '562', '564', '567', '569', '571', '576', '581', '583', '584', '585', '595', '597', '603', '605', '607', '610', '615', '616', '617', '620', '627', '630', '633', '636', '638', '644', '645', '646', '651', '657', '659', '662', '663', '666', '673', '674', '675', '677', '678', '684', '685', '687', '688', '692', '693', '694', '698', '700', '706', '709', '711', '712', '714', '715', '724', '727', '732', '736', '747', '749', '750', '757', '758', '761', '763', '764', '765', '766', '776', '777', '782', '785', '786', '789', '791', '796', '797', '798', '810', '811', '813', '816', '817', '818', '822', '824', '825', '826', '827', '832', '833', '840', '843', '850', '853', '854', '855', '861', '864', '866', '867', '870', '871', '875', '878', '881', '888', '893', '896', '900', '901', '910', '916', '920', '923', '925', '926', '929', '930', '934', '936', '940', '946', '949', '950', '951', '952', '956', '958', '962', '964', '971', '973', '974', '980', '981', '985', '987', '988', '1004', '1007', '1008', '1013', '1016', '1017', '1018', '1019', '1021', '1026', '1028', '1029', '1030', '1035', '1037', '1042', '1044', '1045', '1050', '1053', '1056', '1059', '1060', '1061', '1064', '1066', '1070', '1071', '1072', '1073', '1077', '1080', '1083', '1084', '1088', '1093', '1097', '1100', '1101', '1102', '1106', '1110', '1111', '1113', '1114', '1115', '1118', '1121', '1124', '1132', '1133', '1136', '1137', '1139', '1146', '1148', '1151', '1154', '1158', '1160', '1162', '1165', '1169', '1174', '1176', '1177', '1179', '1185', '1186', '1188', '1190', '1191', '1197', '1199', '1202', '1204', '1205', '1206', '1209', '1210', '1212', '1215', '1223', '1224', '1228', '1231', '1235', '1238', '1239', '1240', '1242', '1243', '1245', '1246', '1247', '1248', '1251', '1252', '1253', '1255', '1256', '1263', '1264', '1275', '1280', '1281', '1284', '1290', '1295', '1300', '1303', '1305', '1308', '1309', '1315', '1317', '1322', '1325', '1327', '1330', '1334', '1347', '1350', '1357', '1359', '1364', '1367', '1368', '1370', '1371', '1372', '1373', '1375', '1381', '1386', '1387', '1389', '1390', '1391', '1393', '1394', '1396', '1399', '1400', '1402', '1405', '1409', '1410', '1414', '1419', '1421', '1423', '1426', '1428', '1433', '1434', '1436', '1441', '1442', '1445', '1449', '1452', '1453', '1457', '1458', '1466', '1468', '1469', '1474', '1476', '1485', '1487', '1489', '1490', '1492', '1495', '1503', '1508', '1510', '1511', '1513', '1518', '1520', '1523', '1527', '1528', '1529', '1531', '1532', '1533', '1542', '1546', '1551', '1558', '1559', '1560', '1561', '1564', '1565', '1566', '1567', '1572', '1580', '1581', '1582', '1583', '1585', '1586', '1587', '1589', '1592', '1593', '1595', '1597', '1598', '1599', '1604', '1606', '1611', '1618', '1625', '1628', '1629', '1631', '1636', '1637', '1638', '1639', '1645', '1654', '1656', '1658', '1659', '1669', '1681', '1684', '1686', '1688', '1703', '1705', '1706', '1708', '1713', '1715', '1719', '1720', '1721', '1728', '1731', '1732', '1733', '1734', '1738', '1741', '1743', '1744', '1745', '1746', '1749', '1760', '1762', '1763', '1770', '1774', '1775', '1776', '1777', '1779', '1780', '1786', '1791', '1792', '1794', '1796', '1797', '1800', '1801', '1803', '1804', '1806', '1809', '1810', '1813', '1816', '1817', '1818', '1820', '1821', '1822', '1825', '1828', '1829', '1834', '1835', '1837', '1840', '1841', '1847', '1849', '1856', '1857', '1861', '1863', '1867', '1874', '1875', '1880', '1883', '1885', '1887', '1889', '1891', '1893', '1894', '1903', '1907', '1908', '1911', '1918', '1922', '1925', '1927', '1928', '1932', '1933', '1934', '1938', '1939', '1940', '1945', '1947', '1948', '1949', '1954', '1957', '1958', '1963', '1967', '1968', '1970', '1971', '1972', '1975', '1976', '1980', '1982', '1984', '1985', '1988', '1992', '1997', '1998', '2000']",True,5000,True,2,720b96c4f6,0.0,0.0,0.0
./expes/v2_2021-03-19_issda-30_2000-prng-1-w5-p2,30_issda-2000,2000,first-2000,500,25,rng,num-start-1400,1400,25726,classic,1887.70290017128,True,,True,1.0,1.0,1.0,1,"['7', '10', '14', '25', '28', '35', '41', '46', '47', '53', '63', '68', '69', '70', '76', '77', '80', '90', '93', '101', '105', '118', '119', '125', '129', '130', '132', '134', '136', '141', '144', '147', '154', '164', '165', '168', '169', '170', '171', '172', '173', '175', '177', '179', '184', '186', '190', '192', '195', '196', '199', '200', '205', '217', '219', '221', '222', '223', '224', '228', '229', '233', '234', '239', '240', '248', '250', '259', '272', '277', '281', '282', '285', '288', '292', '304', '305', '308', '315', '317', '322', '325', '328', '330', '335', '341', '347', '349', '350', '353', '357', '359', '362', '364', '365', '384', '389', '392', '394', '396', '398', '401', '402', '405', '408', '411', '414', '421', '426', '429', '431', '433', '447', '451', '456', '459', '462', '465', '470', '473', '475', '480', '481', '497', '500', '501', '504', '507', '508', '512', '522', '523', '530', '542', '545', '547', '551', '555', '562', '568', '579', '583', '586', '589', '592', '594', '595', '598', '601', '605', '606', '608', '612', '614', '615', '619', '633', '639', '643', '654', '656', '658', '664', '667', '670', '691', '692', '694', '698', '701', '703', '705', '713', '720', '729', '731', '732', '733', '738', '739', '741', '742', '746', '750', '751', '754', '757', '758', '759', '762', '769', '772', '773', '776', '777', '780', '781', '786', '787', '792', '795', '798', '800', '807', '812', '814', '821', '825', '826', '834', '835', '836', '840', '844', '850', '854', '856', '860', '868', '873', '876', '883', '884', '886', '890', '893', '895', '901', '902', '905', '912', '914', '919', '928', '929', '933', '935', '938', '941', '942', '948', '966', '970', '972', '975', '981', '994', '999', '1000', '1001', '1003', '1004', '1014', '1018', '1019', '1020', '1021', '1022', '1025', '1028', '1030', '1032', '1033', '1034', '1035', '1038', '1039', '1040', '1045', '1054', '1058', '1059', '1065', '1066', '1067', '1073', '1076', '1077', '1080', '1082', '1083', '1084', '1090', '1095', '1106', '1117', '1121', '1139', '1142', '1146', '1153', '1155', '1156', '1160', '1161', '1166', '1174', '1175', '1185', '1186', '1188', '1190', '1191', '1197', '1199', '1200', '1206', '1222', '1229', '1230', '1231', '1232', '1238', '1239', '1240', '1243', '1244', '1249', '1250', '1253', '1256', '1257', '1265', '1271', '1278', '1280', '1281', '1295', '1296', '1310', '1315', '1319', '1323', '1326', '1327', '1331', '1335', '1337', '1339', '1341', '1342', '1346', '1347', '1349', '1354', '1358', '1359', '1368', '1371', '1379', '1385', '1393', '1402', '1403', '1407', '1414', '1415', '1416', '1418', '1424', '1436', '1437', '1438', '1444', '1445', '1451', '1455', '1466', '1469', '1472', '1474', '1477', '1478', '1485', '1486', '1487', '1491', '1492', '1493', '1502', '1505', '1508', '1510', '1518', '1523', '1524', '1525', '1531', '1534', '1535', '1536', '1548', '1555', '1556', '1561', '1566', '1570', '1597', '1598', '1600', '1602', '1605', '1611', '1619', '1620', '1625', '1632', '1648', '1653', '1655', '1656', '1661', '1662', '1666', '1668', '1669', '1673', '1678', '1682', '1685', '1690', '1691', '1697', '1699', '1700', '1701', '1703', '1707', '1709', '1712', '1713', '1717', '1726', '1728', '1729', '1733', '1735', '1742', '1746', '1752', '1755', '1760', '1762', '1772', '1775', '1779', '1780', '1793', '1799', '1805', '1807', '1809', '1818', '1820', '1826', '1830', '1834', '1837', '1838', '1844', '1847', '1848', '1850', '1851', '1854', '1855', '1857', '1858', '1860', '1862', '1864', '1867', '1870', '1877', '1882', '1883', '1884', '1886', '1890', '1895', '1896', '1900', '1902', '1908', '1910', '1918', '1929', '1937', '1938', '1946', '1961', '1964', '1971', '1977', '1978', '1981', '1983', '1987', '1993', '1997']",False,5000,True,2,65957d2ee5,0.0,1.0,1.0
./expes/v2_2021-03-19_issda-30_2000-prng-1-w5-p2,30_issda-2000,2000,first-2000,100,5,rng,num-start-1600,1600,25726,classic,633.826898097992,True,,True,1.0,1.0,1.0,1,"['11', '37', '56', '104', '106', '120', '128', '132', '142', '168', '226', '240', '253', '282', '287', '291', '310', '358', '403', '431', '438', '490', '510', '517', '548', '570', '594', '622', '634', '651', '678', '689', '727', '737', '749', '763', '768', '787', '823', '831', '837', '840', '849', '860', '887', '971', '978', '1028', '1037', '1039', '1070', '1080', '1092', '1106', '1107', '1129', '1141', '1145', '1171', '1188', '1229', '1309', '1312', '1355', '1398', '1402', '1405', '1443', '1445', '1446', '1466', '1484', '1514', '1529', '1541', '1569', '1586', '1622', '1643', '1644', '1653', '1664', '1665', '1666', '1670', '1734', '1759', '1761', '1778', '1793', '1808', '1837', '1880', '1885', '1925', '1936', '1957', '1961', '1966', '1968']",False,5000,True,2,17c05be869,0.0,1.0,1.0
./expes/v2_2021-03-19_issda-30_2000-prng-1-w5-p2,30_issda-2000,2000,first-2000,500,25,rng,num-start-600,600,25726,classic,5060.430829048157,False,,False,0,,,0,"['5', '7', '8', '9', '11', '12', '20', '27', '30', '32', '45', '46', '56', '60', '62', '63', '66', '69', '71', '74', '79', '80', '84', '88', '89', '90', '94', '97', '101', '105', '107', '108', '110', '112', '114', '116', '126', '141', '142', '145', '146', '151', '159', '166', '174', '178', '184', '187', '190', '191', '193', '194', '205', '206', '211', '214', '220', '225', '230', '237', '241', '249', '257', '258', '259', '260', '263', '265', '267', '268', '269', '273', '274', '277', '281', '286', '291', '294', '300', '301', '302', '304', '306', '307', '309', '315', '318', '321', '322', '328', '329', '337', '342', '343', '362', '366', '367', '368', '374', '381', '384', '390', '391', '396', '398', '399', '400', '415', '416', '418', '425', '434', '438', '439', '441', '448', '452', '457', '461', '462', '463', '464', '465', '473', '480', '483', '487', '488', '489', '500', '501', '507', '509', '515', '519', '520', '526', '527', '528', '530', '531', '535', '536', '537', '538', '539', '541', '549', '551', '556', '565', '566', '574', '581', '589', '593', '595', '596', '601', '604', '605', '606', '608', '611', '614', '617', '618', '622', '628', '630', '631', '632', '637', '643', '648', '650', '655', '661', '680', '682', '684', '686', '697', '700', '703', '707', '709', '712', '719', '722', '729', '730', '736', '740', '746', '751', '755', '756', '760', '761', '762', '764', '768', '770', '771', '794', '796', '799', '806', '811', '813', '815', '831', '836', '839', '847', '853', '869', '870', '871', '872', '875', '877', '878', '879', '880', '881', '882', '884', '890', '891', '895', '901', '902', '903', '905', '909', '912', '919', '921', '922', '924', '941', '944', '945', '949', '950', '956', '963', '966', '972', '976', '981', '985', '988', '992', '997', '1006', '1017', '1018', '1020', '1026', '1027', '1033', '1045', '1048', '1059', '1065', '1066', '1068', '1070', '1071', '1074', '1075', '1078', '1079', '1082', '1087', '1089', '1090', '1092', '1093', '1094', '1096', '1098', '1100', '1113', '1117', '1118', '1120', '1121', '1126', '1127', '1136', '1138', '1140', '1147', '1156', '1158', '1168', '1170', '1171', '1174', '1175', '1183', '1185', '1190', '1195', '1199', '1205', '1207', '1210', '1211', '1213', '1218', '1219', '1222', '1224', '1229', '1236', '1241', '1246', '1247', '1250', '1252', '1257', '1265', '1269', '1271', '1275', '1285', '1289', '1292', '1298', '1308', '1309', '1313', '1315', '1318', '1322', '1330', '1332', '1334', '1336', '1338', '1339', '1342', '1346', '1365', '1366', '1367', '1372', '1374', '1381', '1387', '1395', '1396', '1401', '1402', '1404', '1416', '1424', '1430', '1432', '1435', '1436', '1437', '1438', '1442', '1445', '1460', '1463', '1467', '1468', '1472', '1473', '1477', '1481', '1485', '1488', '1489', '1491', '1493', '1500', '1502', '1504', '1506', '1508', '1513', '1515', '1517', '1526', '1527', '1533', '1538', '1547', '1553', '1557', '1561', '1564', '1570', '1583', '1585', '1592', '1608', '1611', '1613', '1626', '1627', '1635', '1636', '1641', '1643', '1645', '1646', '1651', '1653', '1657', '1659', '1664', '1674', '1679', '1682', '1683', '1687', '1688', '1689', '1691', '1693', '1696', '1703', '1707', '1709', '1710', '1713', '1716', '1717', '1720', '1733', '1739', '1740', '1741', '1745', '1749', '1765', '1766', '1769', '1775', '1777', '1778', '1779', '1781', '1785', '1795', '1797', '1813', '1815', '1816', '1817', '1820', '1822', '1823', '1827', '1829', '1833', '1839', '1840', '1845', '1847', '1848', '1851', '1855', '1857', '1858', '1863', '1865', '1866', '1869', '1873', '1881', '1886', '1887', '1897', '1909', '1911', '1916', '1920', '1922', '1931', '1945', '1949', '1951', '1954', '1963', '1965', '1970', '1982', '1987', '1989', '1990']",True,5000,True,2,3da9896d48,0.0,0.0,0.0
