expe,clients,clients_size,clients_subset,agg_size,agg_size_pc,method,days,days_size,days_total,noise_method,time,valid,valid_sum,success,score_avg,score_min,score_max,nsols,oracle,wall_hit,wall_time,pooled,pool_size,uuid,infeasible,optimal,valid_sums
./expes/v2_2021-03-19_issda-30_2000-prng-1-w5-p2,30_issda-2000,2000,first-2000,300,15,rng,num-start-1200,1200,25726,classic,5106.949959754944,True,,False,1.0,1.0,1.0,1,"['15', '20', '38', '41', '53', '65', '73', '76', '83', '84', '88', '89', '92', '95', '106', '114', '121', '122', '127', '128', '137', '153', '160', '167', '170', '178', '183', '185', '191', '199', '207', '212', '218', '233', '240', '251', '280', '291', '298', '307', '314', '318', '326', '331', '338', '339', '346', '348', '354', '364', '365', '377', '385', '393', '397', '400', '401', '407', '411', '414', '416', '425', '426', '427', '432', '440', '441', '442', '449', '455', '469', '475', '478', '484', '487', '496', '497', '507', '510', '511', '513', '519', '521', '532', '534', '536', '537', '550', '557', '566', '567', '569', '574', '575', '586', '591', '592', '593', '594', '595', '596', '598', '599', '600', '601', '607', '615', '622', '625', '635', '639', '645', '646', '657', '659', '662', '663', '666', '670', '679', '690', '692', '694', '703', '729', '732', '738', '743', '745', '748', '763', '782', '794', '795', '804', '812', '823', '826', '839', '841', '846', '848', '855', '861', '863', '868', '869', '877', '881', '883', '893', '899', '900', '904', '909', '910', '925', '932', '941', '948', '966', '970', '979', '981', '1005', '1008', '1013', '1017', '1022', '1037', '1042', '1063', '1066', '1077', '1082', '1084', '1095', '1100', '1119', '1122', '1126', '1144', '1158', '1167', '1171', '1173', '1174', '1193', '1194', '1206', '1220', '1227', '1241', '1243', '1261', '1266', '1271', '1283', '1285', '1286', '1296', '1300', '1301', '1313', '1316', '1326', '1328', '1335', '1336', '1338', '1340', '1341', '1346', '1376', '1380', '1383', '1387', '1393', '1405', '1429', '1436', '1444', '1451', '1470', '1478', '1499', '1506', '1510', '1526', '1530', '1568', '1582', '1585', '1588', '1597', '1606', '1620', '1634', '1638', '1640', '1641', '1642', '1648', '1653', '1665', '1669', '1676', '1694', '1698', '1702', '1710', '1720', '1722', '1731', '1737', '1738', '1751', '1759', '1765', '1766', '1773', '1777', '1781', '1782', '1784', '1790', '1803', '1807', '1822', '1825', '1832', '1835', '1843', '1845', '1846', '1853', '1862', '1871', '1878', '1880', '1890', '1894', '1900', '1901', '1905', '1915', '1930', '1932', '1934', '1935', '1956', '1959', '1966', '1968', '1970', '1972', '1976', '1979', '1988', '1989']",True,5000,True,2,2bcd677181,0.0,0.0,1.0
./expes/v2_2021-03-19_issda-30_2000-prng-1-w5-p2,30_issda-2000,2000,first-2000,900,45,rng,num-start-200,200,25726,classic,5017.876519918442,False,,False,0,,,0,"['2', '7', '8', '11', '12', '14', '15', '17', '18', '19', '20', '21', '23', '24', '25', '26', '27', '29', '31', '32', '36', '38', '40', '42', '44', '46', '49', '53', '54', '56', '58', '59', '60', '61', '62', '68', '70', '71', '74', '80', '84', '85', '86', '87', '89', '97', '100', '102', '104', '105', '106', '108', '109', '110', '111', '113', '116', '117', '119', '120', '121', '122', '123', '124', '125', '130', '131', '132', '133', '134', '135', '136', '137', '141', '142', '143', '147', '152', '153', '155', '156', '157', '161', '162', '164', '166', '167', '168', '170', '171', '172', '173', '174', '176', '178', '179', '180', '181', '182', '183', '188', '189', '192', '193', '194', '197', '198', '203', '204', '205', '209', '210', '212', '213', '217', '218', '223', '226', '227', '228', '229', '230', '239', '242', '243', '244', '246', '247', '249', '251', '253', '263', '266', '271', '272', '273', '275', '276', '277', '282', '283', '284', '285', '288', '289', '292', '295', '298', '301', '304', '305', '306', '307', '311', '312', '319', '322', '326', '329', '331', '332', '333', '334', '335', '337', '341', '345', '346', '347', '348', '350', '351', '352', '354', '355', '360', '361', '362', '365', '367', '371', '372', '373', '374', '375', '377', '382', '383', '387', '388', '391', '394', '398', '400', '402', '405', '406', '408', '409', '410', '411', '412', '414', '416', '420', '421', '423', '428', '429', '430', '431', '432', '433', '438', '444', '452', '453', '455', '456', '457', '459', '460', '462', '466', '473', '474', '476', '477', '484', '485', '488', '496', '497', '498', '499', '503', '507', '509', '514', '515', '519', '520', '522', '523', '524', '526', '530', '531', '532', '533', '535', '538', '539', '543', '546', '547', '548', '550', '552', '553', '557', '559', '562', '564', '565', '567', '569', '571', '576', '581', '583', '584', '585', '589', '590', '595', '596', '597', '599', '603', '605', '607', '610', '615', '616', '617', '620', '625', '626', '627', '630', '631', '633', '636', '638', '642', '644', '645', '646', '650', '651', '653', '657', '659', '661', '662', '663', '664', '666', '667', '673', '674', '675', '676', '677', '678', '681', '684', '685', '687', '688', '689', '691', '692', '693', '694', '698', '700', '706', '709', '711', '712', '714', '715', '723', '724', '727', '732', '734', '736', '746', '747', '748', '749', '750', '757', '758', '761', '763', '764', '765', '766', '767', '771', '776', '777', '780', '782', '785', '786', '789', '791', '795', '796', '797', '798', '799', '806', '808', '810', '811', '813', '816', '817', '818', '822', '824', '825', '826', '827', '832', '833', '835', '836', '837', '838', '840', '843', '846', '850', '853', '854', '855', '861', '863', '864', '866', '867', '868', '870', '871', '873', '875', '878', '881', '888', '892', '893', '894', '896', '897', '899', '900', '901', '903', '906', '910', '916', '920', '923', '925', '926', '929', '930', '933', '934', '936', '937', '940', '946', '949', '950', '951', '952', '956', '958', '962', '964', '965', '969', '971', '973', '974', '977', '978', '980', '981', '985', '987', '988', '1001', '1004', '1007', '1008', '1010', '1013', '1016', '1017', '1018', '1019', '1021', '1024', '1026', '1028', '1029', '1030', '1035', '1036', '1037', '1041', '1042', '1044', '1045', '1046', '1047', '1050', '1053', '1056', '1057', '1059', '1060', '1061', '1062', '1063', '1064', '1066', '1070', '1071', '1072', '1073', '1075', '1077', '1079', '1080', '1083', '1084', '1088', '1089', '1091', '1092', '1093', '1097', '1098', '1100', '1101', '1102', '1106', '1110', '1111', '1113', '1114', '1115', '1118', '1119', '1121', '1124', '1132', '1133', '1136', '1137', '1139', '1141', '1142', '1146', '1148', '1151', '1153', '1154', '1158', '1160', '1162', '1165', '1168', '1169', '1173', '1174', '1176', '1177', '1179', '1183', '1185', '1186', '1188', '1190', '1191', '1195', '1197', '1198', '1199', '1202', '1204', '1205', '1206', '1209', '1210', '1212', '1215', '1223', '1224', '1225', '1228', '1230', '1231', '1235', '1238', '1239', '1240', '1241', '1242', '1243', '1245', '1246', '1247', '1248', '1249', '1251', '1252', '1253', '1255', '1256', '1262', '1263', '1264', '1275', '1280', '1281', '1284', '1289', '1290', '1295', '1300', '1303', '1305', '1308', '1309', '1312', '1315', '1317', '1320', '1322', '1325', '1327', '1328', '1330', '1334', '1338', '1347', '1349', '1350', '1357', '1358', '1359', '1360', '1362', '1364', '1367', '1368', '1370', '1371', '1372', '1373', '1375', '1381', '1386', '1387', '1389', '1390', '1391', '1393', '1394', '1395', '1396', '1399', '1400', '1402', '1405', '1406', '1409', '1410', '1414', '1415', '1419', '1421', '1423', '1424', '1426', '1427', '1428', '1429', '1432', '1433', '1434', '1436', '1438', '1439', '1441', '1442', '1445', '1446', '1449', '1450', '1451', '1452', '1453', '1454', '1455', '1457', '1458', '1464', '1466', '1468', '1469', '1474', '1476', '1481', '1483', '1485', '1487', '1489', '1490', '1491', '1492', '1495', '1503', '1508', '1510', '1511', '1513', '1518', '1520', '1523', '1524', '1526', '1527', '1528', '1529', '1531', '1532', '1533', '1540', '1541', '1542', '1545', '1546', '1551', '1556', '1558', '1559', '1560', '1561', '1564', '1565', '1566', '1567', '1572', '1574', '1580', '1581', '1582', '1583', '1584', '1585', '1586', '1587', '1589', '1592', '1593', '1594', '1595', '1597', '1598', '1599', '1604', '1606', '1611', '1618', '1625', '1628', '1629', '1630', '1631', '1634', '1636', '1637', '1638', '1639', '1645', '1653', '1654', '1656', '1657', '1658', '1659', '1669', '1670', '1681', '1682', '1684', '1686', '1688', '1703', '1704', '1705', '1706', '1708', '1709', '1713', '1715', '1719', '1720', '1721', '1724', '1728', '1730', '1731', '1732', '1733', '1734', '1738', '1741', '1743', '1744', '1745', '1746', '1749', '1755', '1760', '1762', '1763', '1770', '1774', '1775', '1776', '1777', '1779', '1780', '1786', '1789', '1791', '1792', '1794', '1796', '1797', '1800', '1801', '1803', '1804', '1806', '1808', '1809', '1810', '1811', '1813', '1816', '1817', '1818', '1820', '1821', '1822', '1825', '1828', '1829', '1831', '1834', '1835', '1837', '1838', '1840', '1841', '1847', '1849', '1853', '1856', '1857', '1861', '1863', '1867', '1874', '1875', '1880', '1883', '1885', '1887', '1889', '1891', '1893', '1894', '1903', '1906', '1907', '1908', '1911', '1918', '1922', '1925', '1927', '1928', '1930', '1932', '1933', '1934', '1936', '1938', '1939', '1940', '1941', '1945', '1947', '1948', '1949', '1951', '1952', '1953', '1954', '1957', '1958', '1960', '1963', '1967', '1968', '1970', '1971', '1972', '1975', '1976', '1977', '1979', '1980', '1982', '1984', '1985', '1986', '1988', '1991', '1992', '1994', '1995', '1997', '1998', '2000']",True,5000,True,2,b82b0afce6,0.0,0.0,0.0
./expes/v2_2021-03-19_issda-30_2000-prng-1-w5-p2,30_issda-2000,2000,first-2000,500,25,rng,num-start-1200,1200,25726,classic,5101.566788196564,True,,False,1.0,1.0,1.0,1,"['1', '2', '10', '14', '20', '23', '24', '26', '30', '31', '32', '34', '35', '37', '40', '41', '44', '46', '51', '61', '62', '65', '69', '72', '74', '75', '80', '84', '85', '86', '87', '92', '96', '97', '98', '108', '122', '123', '124', '130', '132', '137', '138', '141', '142', '144', '148', '149', '150', '151', '152', '153', '154', '155', '160', '161', '165', '171', '172', '174', '175', '179', '180', '185', '186', '189', '193', '203', '206', '207', '213', '221', '222', '224', '232', '237', '239', '242', '259', '261', '266', '267', '269', '270', '276', '278', '279', '280', '284', '288', '289', '291', '294', '300', '316', '323', '325', '327', '347', '348', '360', '361', '364', '366', '367', '375', '379', '382', '384', '386', '389', '390', '391', '401', '403', '404', '406', '407', '409', '411', '415', '418', '420', '428', '430', '432', '435', '436', '437', '438', '439', '450', '459', '464', '468', '471', '472', '479', '487', '489', '495', '496', '498', '505', '511', '514', '521', '523', '524', '525', '527', '529', '546', '552', '553', '558', '564', '567', '570', '574', '576', '578', '592', '596', '601', '603', '607', '617', '622', '623', '633', '636', '637', '638', '639', '646', '649', '654', '657', '669', '670', '674', '677', '678', '682', '690', '700', '702', '703', '709', '719', '721', '726', '733', '742', '754', '756', '762', '769', '772', '777', '784', '786', '788', '791', '792', '795', '796', '803', '806', '808', '809', '812', '814', '821', '829', '830', '834', '840', '841', '843', '848', '853', '855', '859', '860', '862', '864', '883', '903', '905', '906', '913', '915', '917', '923', '926', '927', '928', '929', '932', '937', '938', '948', '950', '951', '953', '954', '963', '966', '968', '970', '973', '974', '975', '982', '985', '988', '989', '991', '996', '998', '1006', '1012', '1017', '1019', '1021', '1024', '1025', '1030', '1041', '1043', '1049', '1050', '1051', '1054', '1062', '1063', '1064', '1065', '1066', '1069', '1083', '1088', '1096', '1097', '1104', '1106', '1109', '1119', '1127', '1129', '1135', '1146', '1147', '1154', '1156', '1160', '1165', '1169', '1172', '1174', '1177', '1182', '1190', '1194', '1195', '1197', '1203', '1209', '1211', '1214', '1220', '1222', '1226', '1229', '1232', '1233', '1237', '1245', '1247', '1250', '1251', '1253', '1258', '1259', '1261', '1262', '1275', '1277', '1280', '1282', '1285', '1289', '1290', '1291', '1299', '1300', '1303', '1304', '1310', '1311', '1312', '1313', '1315', '1319', '1330', '1332', '1334', '1337', '1339', '1340', '1342', '1346', '1352', '1357', '1364', '1377', '1383', '1389', '1390', '1397', '1402', '1403', '1404', '1407', '1416', '1421', '1422', '1429', '1431', '1434', '1436', '1442', '1443', '1448', '1450', '1452', '1457', '1463', '1467', '1476', '1479', '1480', '1486', '1492', '1497', '1499', '1501', '1506', '1510', '1514', '1515', '1516', '1534', '1537', '1544', '1546', '1547', '1549', '1553', '1570', '1576', '1583', '1594', '1595', '1596', '1598', '1600', '1620', '1622', '1625', '1632', '1633', '1646', '1647', '1651', '1654', '1659', '1675', '1676', '1679', '1684', '1687', '1688', '1698', '1700', '1701', '1702', '1704', '1705', '1715', '1717', '1719', '1721', '1725', '1726', '1734', '1736', '1739', '1746', '1750', '1752', '1755', '1756', '1769', '1771', '1774', '1775', '1785', '1788', '1801', '1802', '1803', '1807', '1813', '1818', '1824', '1825', '1827', '1829', '1835', '1836', '1844', '1845', '1854', '1855', '1856', '1861', '1864', '1865', '1873', '1874', '1879', '1886', '1890', '1892', '1893', '1896', '1899', '1904', '1906', '1909', '1910', '1914', '1918', '1926', '1934', '1940', '1946', '1961', '1963', '1965', '1972', '1974', '1975', '1976', '1989', '1993', '1997']",True,5000,True,2,59af9718d0,0.0,0.0,1.0
./expes/v2_2021-03-19_issda-30_2000-prng-1-w5-p2,30_issda-2000,2000,first-2000,500,25,rng,num-start-1800,1800,25726,classic,2036.1222236156464,True,,True,1.0,1.0,1.0,1,"['11', '15', '16', '17', '20', '22', '25', '32', '37', '40', '43', '54', '56', '57', '59', '62', '69', '73', '101', '102', '103', '104', '106', '107', '110', '111', '120', '123', '124', '128', '132', '135', '142', '145', '150', '151', '154', '158', '159', '162', '166', '168', '171', '175', '178', '191', '192', '193', '202', '203', '214', '217', '226', '227', '232', '240', '241', '251', '252', '253', '256', '261', '263', '264', '266', '281', '282', '284', '287', '291', '293', '294', '305', '307', '309', '310', '311', '316', '331', '333', '335', '337', '346', '347', '349', '350', '353', '358', '367', '376', '377', '386', '387', '388', '392', '394', '395', '401', '403', '407', '411', '417', '418', '427', '431', '433', '435', '437', '438', '444', '448', '455', '456', '461', '470', '474', '483', '484', '486', '490', '496', '497', '499', '500', '510', '512', '513', '514', '515', '517', '523', '528', '529', '532', '538', '540', '544', '545', '548', '552', '554', '559', '565', '570', '577', '581', '584', '591', '592', '594', '602', '603', '605', '608', '618', '620', '622', '625', '630', '631', '632', '634', '635', '636', '639', '642', '647', '648', '650', '651', '652', '654', '659', '667', '674', '678', '681', '685', '687', '689', '691', '695', '696', '712', '713', '721', '727', '729', '731', '737', '743', '746', '749', '754', '757', '763', '768', '769', '775', '786', '787', '796', '802', '805', '820', '823', '826', '827', '828', '829', '831', '834', '836', '837', '840', '849', '850', '854', '859', '860', '862', '866', '867', '875', '877', '882', '887', '889', '893', '894', '897', '907', '908', '912', '913', '920', '921', '928', '933', '941', '948', '950', '957', '958', '967', '971', '973', '978', '984', '989', '990', '994', '997', '1008', '1010', '1011', '1013', '1016', '1028', '1029', '1033', '1034', '1037', '1039', '1053', '1056', '1057', '1061', '1063', '1064', '1070', '1072', '1076', '1077', '1080', '1082', '1091', '1092', '1096', '1099', '1100', '1103', '1104', '1105', '1106', '1107', '1111', '1113', '1114', '1116', '1121', '1126', '1129', '1134', '1135', '1138', '1139', '1141', '1145', '1146', '1156', '1164', '1166', '1171', '1172', '1178', '1180', '1184', '1185', '1188', '1191', '1193', '1201', '1202', '1209', '1212', '1226', '1229', '1237', '1238', '1250', '1254', '1256', '1264', '1272', '1282', '1283', '1284', '1295', '1297', '1302', '1304', '1309', '1312', '1325', '1330', '1332', '1340', '1347', '1349', '1355', '1359', '1367', '1383', '1386', '1395', '1398', '1402', '1403', '1405', '1412', '1416', '1433', '1442', '1443', '1445', '1446', '1455', '1458', '1465', '1466', '1484', '1485', '1489', '1493', '1497', '1499', '1510', '1513', '1514', '1523', '1525', '1526', '1529', '1531', '1533', '1535', '1537', '1540', '1541', '1543', '1546', '1547', '1552', '1553', '1556', '1557', '1564', '1567', '1569', '1579', '1582', '1585', '1586', '1594', '1598', '1600', '1603', '1607', '1611', '1613', '1622', '1626', '1627', '1637', '1642', '1643', '1644', '1645', '1649', '1653', '1661', '1664', '1665', '1666', '1670', '1673', '1676', '1679', '1680', '1682', '1684', '1689', '1693', '1698', '1702', '1705', '1715', '1719', '1725', '1734', '1742', '1749', '1753', '1759', '1761', '1769', '1772', '1777', '1778', '1780', '1789', '1793', '1805', '1808', '1819', '1823', '1829', '1830', '1837', '1838', '1840', '1841', '1844', '1847', '1848', '1856', '1858', '1859', '1861', '1862', '1864', '1870', '1878', '1880', '1885', '1888', '1892', '1893', '1897', '1905', '1907', '1911', '1917', '1923', '1925', '1926', '1927', '1930', '1936', '1944', '1949', '1957', '1958', '1960', '1961', '1962', '1966', '1968', '1970', '1975', '1976', '1982', '1987', '1990', '1992', '1994', '1996', '1997', '1998']",False,5000,True,2,2a716fcd96,0.0,1.0,1.0
./expes/v2_2021-03-19_issda-30_2000-prng-1-w5-p2,30_issda-2000,2000,first-2000,200,10,rng,num-start-1200,1200,25726,classic,1120.1691002845764,True,,True,1.0,1.0,1.0,1,"['3', '29', '34', '68', '80', '83', '128', '129', '142', '152', '165', '169', '184', '187', '188', '192', '195', '203', '207', '224', '237', '240', '256', '267', '286', '287', '292', '301', '307', '350', '377', '383', '388', '390', '392', '417', '419', '441', '448', '452', '455', '483', '489', '496', '498', '500', '514', '531', '533', '534', '556', '564', '565', '578', '590', '595', '597', '618', '622', '636', '648', '650', '656', '665', '667', '677', '682', '683', '687', '725', '732', '734', '762', '789', '802', '817', '830', '859', '862', '890', '907', '912', '918', '923', '967', '976', '977', '996', '997', '1003', '1009', '1011', '1034', '1041', '1048', '1068', '1069', '1075', '1091', '1107', '1108', '1113', '1121', '1122', '1124', '1129', '1132', '1147', '1163', '1179', '1188', '1195', '1203', '1204', '1208', '1222', '1233', '1236', '1252', '1254', '1255', '1267', '1281', '1291', '1312', '1314', '1345', '1353', '1369', '1391', '1392', '1400', '1401', '1433', '1435', '1442', '1445', '1448', '1455', '1474', '1495', '1496', '1499', '1548', '1552', '1553', '1606', '1608', '1625', '1628', '1635', '1638', '1645', '1646', '1649', '1660', '1663', '1669', '1683', '1690', '1691', '1696', '1699', '1700', '1716', '1721', '1726', '1730', '1731', '1740', '1742', '1773', '1777', '1783', '1793', '1796', '1824', '1827', '1834', '1840', '1841', '1848', '1860', '1864', '1870', '1876', '1878', '1879', '1881', '1882', '1889', '1891', '1892', '1911', '1946', '1974', '1978', '1980', '1982', '1983']",False,5000,True,2,d5a997ad90,0.0,1.0,1.0
./expes/v2_2021-03-19_issda-30_2000-prng-1-w5-p2,30_issda-2000,2000,first-2000,900,45,rng,num-start-200,200,25726,classic,5017.708604812622,False,,False,0,,,0,"['1', '2', '4', '6', '8', '10', '16', '21', '22', '25', '29', '30', '31', '32', '34', '36', '37', '38', '40', '41', '43', '47', '49', '52', '53', '57', '58', '59', '60', '62', '63', '65', '71', '72', '80', '81', '82', '83', '85', '86', '88', '92', '95', '98', '102', '103', '105', '106', '107', '108', '112', '113', '114', '116', '122', '123', '127', '128', '131', '132', '133', '137', '140', '141', '143', '144', '149', '153', '154', '155', '158', '159', '166', '167', '171', '175', '176', '180', '182', '184', '185', '186', '191', '192', '193', '194', '195', '196', '199', '201', '203', '204', '210', '211', '212', '214', '218', '219', '220', '226', '227', '229', '230', '231', '232', '234', '235', '236', '239', '243', '244', '245', '247', '249', '250', '252', '253', '255', '258', '260', '262', '264', '267', '268', '270', '273', '274', '277', '281', '284', '289', '290', '294', '300', '301', '305', '307', '310', '314', '316', '319', '325', '329', '330', '331', '332', '334', '338', '339', '344', '345', '349', '350', '352', '353', '358', '360', '363', '364', '366', '370', '371', '372', '374', '377', '379', '380', '381', '387', '388', '389', '393', '394', '395', '397', '400', '403', '405', '407', '408', '409', '410', '411', '415', '416', '419', '420', '421', '422', '425', '426', '429', '431', '434', '438', '443', '444', '447', '451', '455', '456', '458', '461', '463', '464', '468', '469', '471', '472', '473', '477', '478', '480', '483', '484', '485', '494', '495', '496', '498', '500', '501', '502', '505', '506', '507', '509', '510', '512', '513', '515', '516', '517', '519', '522', '523', '524', '525', '526', '530', '533', '534', '539', '540', '542', '544', '545', '547', '550', '552', '555', '556', '557', '558', '559', '560', '561', '562', '564', '565', '570', '571', '573', '575', '576', '577', '578', '579', '580', '581', '582', '587', '588', '594', '596', '597', '598', '601', '602', '603', '606', '607', '608', '614', '615', '616', '617', '620', '621', '625', '626', '628', '629', '634', '636', '637', '640', '641', '644', '647', '648', '650', '652', '653', '654', '657', '659', '660', '661', '662', '663', '666', '667', '672', '675', '677', '680', '683', '684', '685', '686', '687', '688', '691', '694', '696', '697', '701', '703', '704', '709', '712', '714', '718', '720', '722', '724', '726', '729', '731', '734', '738', '739', '740', '745', '746', '748', '749', '751', '754', '755', '756', '764', '771', '772', '774', '776', '777', '780', '781', '782', '783', '784', '787', '788', '789', '791', '792', '793', '794', '795', '798', '800', '805', '807', '808', '813', '814', '815', '818', '819', '822', '825', '827', '831', '832', '833', '837', '844', '845', '847', '849', '850', '856', '858', '859', '862', '863', '864', '866', '867', '869', '871', '873', '874', '879', '880', '881', '884', '886', '893', '896', '898', '899', '904', '905', '907', '910', '912', '913', '914', '917', '920', '921', '922', '925', '927', '929', '931', '932', '933', '937', '942', '944', '956', '958', '960', '961', '962', '963', '965', '966', '969', '970', '972', '973', '974', '975', '977', '979', '981', '984', '986', '987', '992', '993', '994', '995', '996', '997', '998', '1000', '1002', '1005', '1006', '1012', '1014', '1015', '1020', '1022', '1025', '1026', '1029', '1031', '1034', '1035', '1038', '1039', '1041', '1044', '1046', '1048', '1049', '1053', '1058', '1062', '1065', '1066', '1068', '1069', '1073', '1077', '1078', '1080', '1082', '1086', '1089', '1090', '1092', '1094', '1095', '1096', '1098', '1101', '1103', '1107', '1109', '1110', '1111', '1113', '1115', '1116', '1117', '1119', '1120', '1121', '1122', '1124', '1126', '1128', '1130', '1132', '1134', '1136', '1138', '1140', '1142', '1143', '1144', '1145', '1146', '1147', '1150', '1161', '1162', '1163', '1166', '1167', '1168', '1169', '1171', '1174', '1182', '1184', '1186', '1192', '1195', '1197', '1201', '1205', '1206', '1207', '1211', '1216', '1218', '1219', '1220', '1221', '1222', '1232', '1234', '1235', '1237', '1240', '1244', '1245', '1248', '1249', '1253', '1255', '1261', '1262', '1265', '1267', '1270', '1272', '1279', '1281', '1283', '1285', '1286', '1287', '1294', '1296', '1297', '1298', '1301', '1304', '1306', '1310', '1311', '1313', '1315', '1318', '1321', '1322', '1323', '1324', '1325', '1326', '1327', '1329', '1330', '1331', '1335', '1336', '1339', '1343', '1344', '1345', '1346', '1348', '1349', '1351', '1352', '1356', '1359', '1360', '1363', '1365', '1369', '1373', '1374', '1377', '1379', '1380', '1383', '1386', '1388', '1393', '1394', '1395', '1396', '1398', '1402', '1403', '1404', '1406', '1407', '1409', '1416', '1417', '1418', '1427', '1437', '1439', '1440', '1441', '1442', '1443', '1444', '1446', '1454', '1456', '1457', '1460', '1463', '1464', '1465', '1466', '1470', '1471', '1472', '1478', '1480', '1484', '1485', '1486', '1487', '1488', '1489', '1496', '1497', '1504', '1506', '1514', '1515', '1516', '1517', '1519', '1525', '1527', '1529', '1530', '1532', '1533', '1539', '1540', '1541', '1542', '1546', '1547', '1548', '1551', '1552', '1555', '1557', '1558', '1559', '1560', '1563', '1564', '1565', '1567', '1571', '1575', '1577', '1578', '1580', '1584', '1585', '1587', '1588', '1590', '1593', '1597', '1602', '1603', '1606', '1607', '1608', '1610', '1613', '1615', '1621', '1623', '1624', '1626', '1627', '1632', '1634', '1635', '1639', '1641', '1646', '1648', '1650', '1651', '1652', '1654', '1655', '1656', '1658', '1659', '1660', '1661', '1664', '1668', '1670', '1673', '1676', '1678', '1680', '1681', '1682', '1683', '1685', '1686', '1687', '1688', '1691', '1694', '1696', '1697', '1698', '1701', '1702', '1703', '1704', '1705', '1710', '1711', '1714', '1720', '1724', '1732', '1735', '1737', '1739', '1740', '1741', '1745', '1747', '1748', '1750', '1752', '1754', '1756', '1761', '1762', '1765', '1768', '1770', '1771', '1772', '1773', '1776', '1777', '1779', '1781', '1784', '1785', '1786', '1787', '1788', '1790', '1791', '1792', '1795', '1800', '1802', '1803', '1807', '1810', '1814', '1815', '1816', '1819', '1820', '1821', '1835', '1836', '1837', '1840', '1841', '1842', '1845', '1846', '1847', '1848', '1849', '1852', '1853', '1861', '1862', '1864', '1865', '1875', '1877', '1879', '1884', '1886', '1887', '1888', '1889', '1891', '1894', '1895', '1896', '1898', '1900', '1901', '1902', '1903', '1906', '1907', '1908', '1910', '1911', '1912', '1913', '1914', '1917', '1918', '1920', '1921', '1924', '1926', '1930', '1932', '1934', '1935', '1937', '1938', '1940', '1946', '1948', '1949', '1950', '1951', '1955', '1959', '1962', '1964', '1965', '1967', '1968', '1969', '1972', '1974', '1977', '1980', '1983', '1984', '1990', '1991', '1992', '1993', '1995', '2000']",True,5000,True,2,88e747be6c,0.0,0.0,0.0
./expes/v2_2021-03-19_issda-30_2000-prng-1-w5-p2,30_issda-2000,2000,first-2000,1000,50,rng,num-start-600,600,25726,classic,5050.75652217865,False,,False,0,,,0,"['1', '2', '3', '5', '7', '8', '9', '10', '12', '13', '16', '17', '19', '21', '23', '27', '28', '29', '30', '32', '35', '37', '40', '41', '42', '44', '45', '46', '47', '48', '50', '51', '54', '57', '58', '63', '66', '67', '68', '69', '73', '75', '77', '78', '80', '81', '84', '88', '89', '90', '91', '96', '98', '99', '106', '108', '110', '111', '113', '114', '115', '116', '119', '120', '122', '123', '125', '127', '131', '133', '134', '135', '137', '146', '147', '148', '150', '152', '153', '157', '161', '162', '163', '164', '165', '169', '172', '177', '178', '179', '182', '183', '184', '186', '187', '189', '190', '191', '192', '196', '198', '199', '202', '205', '207', '208', '211', '212', '213', '214', '215', '218', '219', '220', '221', '222', '223', '231', '233', '236', '238', '239', '241', '242', '245', '247', '249', '252', '253', '254', '255', '256', '257', '258', '261', '268', '269', '271', '274', '276', '280', '285', '290', '291', '292', '294', '295', '296', '301', '302', '303', '304', '309', '311', '313', '314', '315', '316', '317', '318', '319', '321', '322', '323', '324', '325', '326', '327', '328', '330', '337', '338', '342', '344', '347', '348', '349', '352', '353', '354', '355', '357', '360', '365', '368', '369', '373', '374', '379', '381', '384', '387', '389', '391', '392', '393', '395', '397', '400', '401', '402', '405', '406', '407', '408', '410', '413', '416', '417', '418', '419', '420', '421', '424', '427', '428', '429', '430', '432', '434', '435', '436', '437', '440', '443', '445', '446', '447', '448', '449', '452', '454', '456', '457', '459', '460', '461', '465', '467', '471', '476', '479', '481', '482', '483', '485', '486', '487', '488', '490', '491', '494', '495', '497', '498', '500', '501', '502', '503', '504', '505', '506', '509', '512', '513', '519', '520', '523', '524', '527', '529', '531', '533', '535', '538', '539', '540', '541', '545', '548', '549', '551', '552', '553', '554', '556', '558', '560', '561', '565', '567', '571', '573', '577', '579', '580', '581', '582', '583', '584', '587', '588', '591', '593', '594', '595', '596', '597', '601', '602', '603', '605', '607', '608', '609', '610', '612', '613', '614', '616', '619', '620', '621', '624', '625', '626', '627', '629', '631', '632', '633', '634', '635', '636', '641', '642', '643', '645', '646', '647', '649', '650', '655', '656', '658', '659', '660', '662', '664', '667', '673', '681', '683', '684', '685', '686', '687', '689', '690', '692', '693', '696', '700', '703', '704', '705', '706', '707', '711', '713', '715', '716', '717', '719', '723', '724', '725', '726', '727', '728', '731', '733', '736', '738', '740', '741', '743', '747', '751', '756', '757', '761', '763', '764', '765', '766', '767', '769', '771', '773', '774', '778', '779', '780', '783', '784', '785', '786', '787', '790', '792', '793', '795', '796', '802', '805', '808', '810', '811', '815', '817', '819', '820', '823', '825', '826', '827', '829', '830', '832', '833', '834', '836', '837', '838', '839', '840', '843', '844', '845', '846', '848', '850', '852', '854', '855', '856', '857', '858', '859', '860', '861', '863', '865', '867', '869', '874', '875', '876', '877', '878', '879', '880', '884', '885', '887', '889', '891', '892', '893', '894', '896', '899', '901', '902', '904', '906', '910', '911', '912', '914', '915', '916', '917', '922', '926', '929', '931', '934', '936', '941', '942', '943', '944', '946', '947', '952', '954', '956', '960', '961', '966', '968', '971', '972', '973', '978', '985', '986', '988', '991', '994', '995', '999', '1000', '1001', '1003', '1004', '1005', '1007', '1009', '1012', '1013', '1015', '1016', '1017', '1019', '1020', '1022', '1023', '1024', '1027', '1028', '1030', '1032', '1041', '1044', '1045', '1046', '1047', '1049', '1052', '1053', '1058', '1059', '1060', '1061', '1062', '1067', '1072', '1073', '1077', '1078', '1081', '1083', '1087', '1089', '1090', '1092', '1094', '1095', '1097', '1099', '1101', '1102', '1103', '1105', '1106', '1110', '1111', '1112', '1125', '1127', '1129', '1132', '1133', '1134', '1136', '1142', '1144', '1146', '1149', '1150', '1152', '1153', '1157', '1162', '1163', '1166', '1168', '1169', '1171', '1173', '1176', '1177', '1184', '1186', '1189', '1193', '1202', '1203', '1207', '1208', '1209', '1211', '1212', '1213', '1215', '1216', '1217', '1218', '1219', '1220', '1222', '1223', '1224', '1225', '1227', '1234', '1235', '1237', '1238', '1241', '1242', '1243', '1245', '1248', '1250', '1251', '1252', '1253', '1255', '1256', '1257', '1258', '1260', '1263', '1264', '1267', '1269', '1271', '1273', '1275', '1276', '1277', '1280', '1281', '1282', '1284', '1285', '1287', '1288', '1293', '1295', '1296', '1297', '1301', '1302', '1304', '1305', '1307', '1308', '1311', '1312', '1313', '1314', '1317', '1318', '1319', '1320', '1321', '1329', '1332', '1334', '1335', '1337', '1339', '1341', '1342', '1343', '1344', '1347', '1349', '1351', '1352', '1353', '1355', '1356', '1357', '1358', '1364', '1365', '1366', '1367', '1369', '1370', '1371', '1374', '1380', '1381', '1391', '1392', '1394', '1395', '1397', '1402', '1407', '1408', '1411', '1413', '1415', '1417', '1421', '1425', '1426', '1429', '1430', '1432', '1433', '1434', '1435', '1441', '1442', '1443', '1448', '1449', '1450', '1452', '1457', '1460', '1463', '1469', '1471', '1472', '1473', '1474', '1475', '1477', '1478', '1480', '1483', '1485', '1487', '1491', '1496', '1497', '1499', '1500', '1502', '1506', '1508', '1509', '1510', '1511', '1512', '1513', '1516', '1521', '1522', '1523', '1525', '1528', '1533', '1535', '1536', '1540', '1542', '1547', '1548', '1549', '1551', '1553', '1554', '1556', '1558', '1559', '1560', '1562', '1564', '1565', '1566', '1567', '1568', '1574', '1576', '1580', '1583', '1584', '1586', '1589', '1591', '1595', '1596', '1597', '1598', '1599', '1600', '1602', '1603', '1604', '1605', '1607', '1609', '1610', '1611', '1612', '1614', '1616', '1617', '1618', '1619', '1624', '1628', '1629', '1630', '1631', '1635', '1636', '1637', '1638', '1645', '1646', '1647', '1648', '1650', '1651', '1652', '1653', '1654', '1655', '1656', '1658', '1659', '1660', '1664', '1667', '1669', '1671', '1674', '1677', '1678', '1680', '1683', '1686', '1688', '1689', '1692', '1693', '1694', '1696', '1697', '1700', '1703', '1704', '1706', '1707', '1709', '1710', '1711', '1712', '1714', '1717', '1721', '1722', '1724', '1725', '1726', '1727', '1729', '1731', '1732', '1735', '1736', '1738', '1741', '1745', '1746', '1748', '1750', '1752', '1754', '1760', '1762', '1763', '1764', '1765', '1770', '1771', '1772', '1773', '1776', '1777', '1778', '1784', '1785', '1786', '1787', '1788', '1789', '1791', '1795', '1801', '1803', '1806', '1809', '1810', '1811', '1812', '1813', '1814', '1816', '1820', '1825', '1830', '1831', '1833', '1836', '1837', '1839', '1842', '1843', '1847', '1848', '1849', '1852', '1855', '1857', '1858', '1865', '1872', '1873', '1874', '1875', '1877', '1879', '1880', '1882', '1883', '1884', '1885', '1886', '1888', '1892', '1895', '1896', '1897', '1900', '1901', '1902', '1905', '1908', '1909', '1913', '1915', '1921', '1925', '1927', '1930', '1931', '1932', '1933', '1934', '1940', '1941', '1942', '1943', '1947', '1948', '1949', '1950', '1952', '1953', '1954', '1955', '1956', '1957', '1959', '1961', '1962', '1965', '1970', '1971', '1973', '1976', '1978', '1979', '1981', '1982', '1983', '1984', '1985', '1986', '1987', '1988', '1989', '1990', '1991', '1993', '1995', '1996']",True,5000,True,2,84cc7cf08a,0.0,0.0,0.0
./expes/v2_2021-03-19_issda-30_2000-prng-1-w5-p2,30_issda-2000,2000,first-2000,900,45,rng,num-start-2000,2000,25726,classic,2066.6991567611694,True,,True,1.0,1.0,1.0,1,"['2', '4', '5', '8', '9', '12', '16', '18', '19', '21', '22', '23', '26', '28', '30', '35', '36', '37', '38', '39', '41', '42', '43', '44', '45', '46', '49', '50', '53', '56', '58', '59', '60', '61', '63', '64', '66', '67', '71', '73', '77', '78', '81', '82', '83', '84', '85', '90', '93', '94', '98', '99', '100', '107', '115', '121', '128', '129', '130', '132', '134', '138', '139', '141', '143', '145', '146', '147', '149', '150', '151', '154', '157', '158', '167', '168', '171', '172', '174', '175', '178', '183', '184', '186', '188', '189', '191', '193', '198', '202', '203', '205', '206', '207', '210', '211', '214', '219', '221', '222', '223', '225', '229', '232', '234', '235', '236', '237', '242', '245', '248', '250', '253', '254', '257', '258', '259', '265', '268', '273', '276', '277', '278', '280', '284', '285', '290', '291', '300', '302', '304', '307', '312', '316', '320', '322', '324', '325', '326', '327', '329', '332', '336', '337', '338', '339', '342', '343', '345', '346', '348', '349', '352', '353', '355', '362', '363', '364', '365', '368', '371', '376', '379', '381', '383', '385', '386', '389', '398', '405', '408', '409', '410', '411', '412', '418', '420', '421', '422', '424', '426', '428', '429', '430', '435', '437', '441', '444', '446', '449', '450', '451', '452', '455', '458', '459', '461', '462', '463', '465', '466', '469', '471', '473', '476', '478', '479', '481', '482', '486', '489', '491', '494', '495', '497', '498', '500', '502', '504', '505', '507', '508', '509', '512', '513', '514', '517', '518', '519', '520', '523', '529', '530', '531', '532', '534', '542', '546', '547', '548', '549', '551', '552', '554', '555', '559', '560', '564', '565', '568', '569', '576', '577', '582', '584', '594', '595', '596', '597', '602', '603', '604', '606', '607', '608', '611', '612', '613', '614', '621', '622', '624', '625', '626', '628', '629', '630', '632', '636', '638', '639', '641', '642', '645', '648', '649', '650', '651', '655', '656', '657', '658', '660', '663', '667', '671', '672', '679', '681', '682', '684', '685', '689', '691', '694', '695', '696', '697', '699', '704', '705', '706', '708', '709', '711', '713', '716', '718', '724', '727', '728', '729', '731', '732', '736', '737', '739', '747', '748', '752', '754', '755', '756', '759', '762', '766', '768', '773', '774', '775', '776', '777', '778', '779', '781', '784', '785', '786', '787', '792', '798', '799', '800', '802', '806', '807', '809', '811', '814', '815', '817', '818', '822', '823', '824', '828', '829', '830', '833', '834', '837', '838', '843', '845', '847', '849', '853', '854', '861', '863', '865', '866', '873', '874', '880', '881', '884', '885', '887', '892', '896', '897', '898', '899', '900', '906', '907', '912', '913', '915', '918', '921', '922', '924', '928', '929', '932', '934', '938', '939', '941', '942', '944', '946', '947', '952', '957', '959', '961', '962', '968', '971', '977', '981', '984', '986', '993', '994', '995', '996', '1000', '1002', '1003', '1006', '1009', '1010', '1011', '1014', '1015', '1016', '1017', '1023', '1024', '1025', '1026', '1027', '1029', '1031', '1033', '1034', '1035', '1037', '1039', '1040', '1042', '1043', '1045', '1046', '1047', '1048', '1050', '1053', '1054', '1055', '1058', '1059', '1063', '1067', '1072', '1073', '1074', '1078', '1081', '1082', '1083', '1088', '1091', '1094', '1095', '1101', '1102', '1103', '1105', '1106', '1107', '1109', '1110', '1111', '1112', '1115', '1116', '1117', '1118', '1122', '1123', '1124', '1125', '1127', '1128', '1129', '1132', '1133', '1136', '1140', '1141', '1143', '1146', '1148', '1149', '1150', '1154', '1156', '1157', '1160', '1166', '1167', '1168', '1169', '1170', '1171', '1173', '1175', '1177', '1180', '1184', '1185', '1186', '1187', '1188', '1197', '1200', '1202', '1204', '1207', '1210', '1211', '1212', '1215', '1216', '1218', '1221', '1222', '1226', '1229', '1230', '1231', '1232', '1233', '1237', '1240', '1241', '1242', '1245', '1248', '1252', '1253', '1254', '1255', '1257', '1260', '1264', '1266', '1270', '1274', '1275', '1276', '1277', '1280', '1286', '1288', '1289', '1290', '1292', '1293', '1298', '1302', '1303', '1305', '1309', '1312', '1316', '1318', '1322', '1324', '1326', '1327', '1328', '1329', '1330', '1331', '1335', '1336', '1339', '1345', '1346', '1350', '1351', '1352', '1353', '1356', '1360', '1362', '1363', '1364', '1368', '1370', '1373', '1374', '1377', '1379', '1381', '1382', '1383', '1387', '1388', '1389', '1390', '1395', '1396', '1397', '1400', '1403', '1406', '1407', '1408', '1410', '1411', '1413', '1415', '1417', '1419', '1424', '1426', '1432', '1433', '1435', '1437', '1439', '1440', '1441', '1442', '1444', '1451', '1453', '1455', '1457', '1458', '1459', '1460', '1464', '1465', '1469', '1471', '1473', '1474', '1478', '1480', '1483', '1484', '1486', '1487', '1488', '1492', '1494', '1495', '1496', '1498', '1501', '1503', '1509', '1510', '1511', '1512', '1513', '1517', '1522', '1524', '1526', '1528', '1529', '1531', '1534', '1536', '1538', '1543', '1545', '1548', '1552', '1554', '1555', '1559', '1562', '1564', '1565', '1569', '1572', '1573', '1576', '1578', '1579', '1589', '1590', '1593', '1594', '1595', '1596', '1597', '1598', '1602', '1603', '1604', '1605', '1608', '1609', '1611', '1612', '1615', '1616', '1618', '1621', '1623', '1624', '1625', '1629', '1631', '1633', '1634', '1635', '1636', '1643', '1644', '1646', '1647', '1648', '1650', '1652', '1654', '1655', '1656', '1657', '1658', '1661', '1662', '1666', '1670', '1673', '1674', '1676', '1679', '1680', '1681', '1682', '1683', '1692', '1696', '1697', '1698', '1699', '1700', '1702', '1705', '1706', '1710', '1711', '1712', '1713', '1716', '1721', '1722', '1723', '1724', '1725', '1731', '1732', '1734', '1735', '1736', '1738', '1739', '1742', '1743', '1744', '1748', '1752', '1753', '1754', '1756', '1757', '1759', '1760', '1762', '1764', '1766', '1767', '1773', '1774', '1777', '1778', '1782', '1786', '1790', '1794', '1797', '1800', '1801', '1805', '1806', '1808', '1809', '1813', '1815', '1818', '1825', '1826', '1829', '1830', '1831', '1835', '1837', '1839', '1843', '1845', '1847', '1850', '1851', '1852', '1858', '1862', '1863', '1864', '1865', '1866', '1870', '1871', '1873', '1877', '1879', '1880', '1883', '1885', '1886', '1887', '1888', '1889', '1891', '1893', '1895', '1896', '1897', '1898', '1905', '1907', '1910', '1911', '1918', '1920', '1921', '1922', '1924', '1926', '1927', '1928', '1929', '1933', '1934', '1936', '1938', '1945', '1946', '1950', '1951', '1955', '1956', '1959', '1961', '1965', '1966', '1967', '1971', '1974', '1976', '1977', '1978', '1980', '1981', '1982', '1983', '1985', '1987', '1988', '1990', '1992', '1993', '1994', '1995', '1996', '1997', '1998', '1999', '2000']",False,5000,True,2,9dab10a16c,0.0,1.0,1.0
./expes/v2_2021-03-19_issda-30_2000-prng-1-w5-p2,30_issda-2000,2000,first-2000,900,45,rng,num-start-2000,2000,25726,classic,2068.720212697983,True,,True,1.0,1.0,1.0,1,"['4', '5', '6', '8', '10', '11', '15', '16', '24', '27', '32', '37', '39', '41', '42', '44', '46', '48', '49', '53', '55', '56', '57', '58', '59', '61', '62', '64', '65', '67', '68', '70', '72', '73', '74', '75', '76', '77', '81', '87', '88', '89', '91', '93', '94', '95', '102', '103', '104', '105', '109', '110', '113', '122', '123', '124', '125', '126', '130', '132', '135', '137', '140', '141', '142', '147', '149', '157', '158', '159', '160', '164', '165', '171', '176', '177', '182', '187', '189', '190', '194', '197', '199', '200', '204', '205', '209', '211', '212', '214', '215', '219', '220', '221', '222', '223', '224', '226', '229', '230', '231', '233', '236', '238', '242', '244', '245', '246', '248', '249', '251', '253', '254', '255', '256', '257', '260', '262', '264', '266', '267', '268', '270', '273', '275', '276', '278', '279', '280', '282', '284', '286', '290', '294', '295', '300', '301', '306', '307', '309', '311', '313', '320', '322', '326', '327', '329', '330', '333', '335', '338', '345', '347', '348', '349', '350', '351', '352', '353', '355', '362', '364', '366', '367', '369', '370', '372', '373', '376', '379', '380', '382', '383', '384', '388', '389', '391', '392', '393', '397', '400', '405', '407', '408', '409', '410', '411', '414', '421', '422', '427', '429', '431', '433', '434', '445', '446', '447', '448', '449', '453', '455', '456', '459', '460', '461', '466', '471', '475', '476', '479', '480', '481', '482', '484', '487', '488', '489', '490', '491', '495', '496', '501', '502', '507', '509', '512', '513', '514', '515', '518', '521', '523', '526', '529', '530', '532', '537', '540', '541', '542', '543', '544', '545', '547', '548', '550', '551', '552', '554', '555', '556', '561', '563', '571', '572', '573', '581', '583', '584', '588', '592', '595', '598', '601', '602', '603', '606', '612', '614', '615', '616', '617', '621', '623', '624', '630', '635', '640', '641', '642', '643', '645', '646', '647', '648', '651', '653', '656', '660', '662', '665', '667', '669', '672', '673', '674', '678', '679', '681', '682', '684', '686', '690', '694', '695', '696', '697', '699', '700', '704', '705', '708', '710', '718', '719', '720', '721', '722', '723', '726', '731', '736', '738', '739', '741', '746', '749', '752', '753', '755', '757', '758', '760', '763', '765', '767', '769', '770', '771', '772', '773', '774', '778', '779', '784', '785', '786', '791', '794', '797', '798', '799', '801', '802', '803', '807', '809', '813', '814', '816', '820', '822', '823', '826', '827', '835', '836', '837', '839', '841', '846', '847', '848', '851', '854', '857', '860', '861', '862', '863', '865', '867', '871', '873', '875', '878', '881', '884', '886', '890', '892', '894', '896', '898', '907', '908', '910', '911', '912', '917', '918', '923', '924', '927', '931', '933', '935', '936', '938', '943', '944', '951', '952', '955', '957', '958', '959', '961', '964', '969', '970', '971', '972', '976', '978', '981', '982', '983', '986', '987', '988', '989', '991', '992', '994', '996', '999', '1002', '1003', '1004', '1005', '1008', '1011', '1012', '1014', '1017', '1019', '1020', '1022', '1025', '1029', '1031', '1032', '1034', '1036', '1037', '1039', '1042', '1045', '1048', '1050', '1055', '1056', '1060', '1062', '1063', '1065', '1066', '1068', '1072', '1073', '1076', '1077', '1080', '1081', '1084', '1085', '1086', '1090', '1094', '1095', '1097', '1098', '1099', '1100', '1101', '1102', '1104', '1108', '1109', '1110', '1113', '1114', '1115', '1116', '1124', '1126', '1127', '1129', '1132', '1134', '1135', '1136', '1137', '1138', '1140', '1141', '1145', '1146', '1147', '1155', '1156', '1160', '1161', '1162', '1164', '1165', '1166', '1168', '1170', '1172', '1175', '1176', '1178', '1180', '1182', '1186', '1188', '1189', '1190', '1195', '1197', '1198', '1199', '1200', '1201', '1202', '1204', '1206', '1207', '1208', '1209', '1211', '1213', '1214', '1218', '1219', '1220', '1222', '1224', '1227', '1228', '1229', '1231', '1232', '1237', '1238', '1240', '1241', '1245', '1247', '1251', '1254', '1259', '1262', '1266', '1267', '1269', '1271', '1274', '1275', '1276', '1277', '1281', '1282', '1284', '1285', '1286', '1287', '1288', '1293', '1295', '1297', '1298', '1299', '1300', '1301', '1304', '1309', '1315', '1317', '1319', '1320', '1321', '1323', '1325', '1327', '1328', '1330', '1331', '1332', '1337', '1339', '1340', '1343', '1347', '1351', '1356', '1357', '1358', '1363', '1366', '1368', '1373', '1375', '1376', '1377', '1378', '1380', '1381', '1383', '1384', '1385', '1389', '1390', '1392', '1395', '1396', '1397', '1401', '1405', '1407', '1413', '1415', '1416', '1421', '1422', '1423', '1424', '1425', '1427', '1429', '1430', '1431', '1432', '1433', '1434', '1436', '1437', '1440', '1441', '1444', '1445', '1446', '1448', '1460', '1462', '1463', '1465', '1466', '1467', '1468', '1469', '1470', '1471', '1472', '1473', '1474', '1476', '1477', '1481', '1489', '1490', '1491', '1492', '1493', '1496', '1499', '1503', '1504', '1506', '1512', '1515', '1519', '1520', '1521', '1523', '1527', '1531', '1532', '1533', '1534', '1541', '1543', '1544', '1545', '1546', '1549', '1550', '1551', '1553', '1557', '1560', '1572', '1575', '1578', '1581', '1582', '1586', '1588', '1589', '1591', '1592', '1596', '1597', '1598', '1601', '1602', '1603', '1604', '1612', '1613', '1615', '1620', '1622', '1623', '1626', '1629', '1635', '1636', '1637', '1640', '1641', '1645', '1647', '1651', '1652', '1653', '1654', '1658', '1659', '1660', '1662', '1663', '1665', '1666', '1669', '1671', '1673', '1674', '1679', '1683', '1687', '1696', '1704', '1706', '1707', '1708', '1710', '1713', '1714', '1716', '1718', '1719', '1724', '1726', '1728', '1729', '1732', '1735', '1739', '1741', '1744', '1745', '1746', '1749', '1750', '1752', '1753', '1754', '1755', '1756', '1758', '1759', '1761', '1762', '1763', '1764', '1765', '1767', '1769', '1770', '1772', '1773', '1776', '1778', '1779', '1781', '1782', '1783', '1787', '1788', '1793', '1800', '1802', '1803', '1804', '1805', '1807', '1809', '1810', '1813', '1816', '1817', '1818', '1822', '1823', '1824', '1825', '1826', '1827', '1835', '1837', '1838', '1839', '1842', '1843', '1847', '1851', '1852', '1853', '1856', '1862', '1864', '1866', '1870', '1872', '1876', '1878', '1879', '1885', '1886', '1887', '1888', '1889', '1892', '1893', '1897', '1899', '1900', '1903', '1904', '1905', '1909', '1913', '1914', '1915', '1917', '1918', '1923', '1924', '1927', '1928', '1931', '1932', '1934', '1935', '1936', '1939', '1941', '1944', '1945', '1946', '1947', '1948', '1951', '1953', '1956', '1957', '1961', '1962', '1964', '1965', '1967', '1968', '1969', '1973', '1975', '1976', '1978', '1980', '1981', '1985', '1987', '1989', '1990', '1991', '1993', '1997']",False,5000,True,2,38e1b139c0,0.0,1.0,1.0
./expes/v2_2021-03-19_issda-30_2000-prng-1-w5-p2,30_issda-2000,2000,first-2000,500,25,rng,num-start-1200,1200,25726,classic,1425.562720298767,True,,True,1.0,1.0,1.0,1,"['7', '10', '14', '25', '28', '35', '41', '46', '47', '53', '63', '68', '69', '70', '76', '77', '80', '90', '93', '101', '105', '118', '119', '125', '129', '130', '132', '134', '136', '141', '144', '147', '154', '164', '165', '168', '169', '170', '171', '172', '173', '175', '177', '179', '184', '186', '190', '192', '195', '196', '199', '200', '205', '217', '219', '221', '222', '223', '224', '228', '229', '233', '234', '239', '240', '248', '250', '259', '272', '277', '281', '282', '285', '288', '292', '304', '305', '308', '315', '317', '322', '325', '328', '330', '335', '341', '347', '349', '350', '353', '357', '359', '362', '364', '365', '384', '389', '392', '394', '396', '398', '401', '402', '405', '408', '411', '414', '421', '426', '429', '431', '433', '447', '451', '456', '459', '462', '465', '470', '473', '475', '480', '481', '497', '500', '501', '504', '507', '508', '512', '522', '523', '530', '542', '545', '547', '551', '555', '562', '568', '579', '583', '586', '589', '592', '594', '595', '598', '601', '605', '606', '608', '612', '614', '615', '619', '633', '639', '643', '654', '656', '658', '664', '667', '670', '691', '692', '694', '698', '701', '703', '705', '713', '720', '729', '731', '732', '733', '738', '739', '741', '742', '746', '750', '751', '754', '757', '758', '759', '762', '769', '772', '773', '776', '777', '780', '781', '786', '787', '792', '795', '798', '800', '807', '812', '814', '821', '825', '826', '834', '835', '836', '840', '844', '850', '854', '856', '860', '868', '873', '876', '883', '884', '886', '890', '893', '895', '901', '902', '905', '912', '914', '919', '928', '929', '933', '935', '938', '941', '942', '948', '966', '970', '972', '975', '981', '994', '999', '1000', '1001', '1003', '1004', '1014', '1018', '1019', '1020', '1021', '1022', '1025', '1028', '1030', '1032', '1033', '1034', '1035', '1038', '1039', '1040', '1045', '1054', '1058', '1059', '1065', '1066', '1067', '1073', '1076', '1077', '1080', '1082', '1083', '1084', '1090', '1095', '1106', '1117', '1121', '1139', '1142', '1146', '1153', '1155', '1156', '1160', '1161', '1166', '1174', '1175', '1185', '1186', '1188', '1190', '1191', '1197', '1199', '1200', '1206', '1222', '1229', '1230', '1231', '1232', '1238', '1239', '1240', '1243', '1244', '1249', '1250', '1253', '1256', '1257', '1265', '1271', '1278', '1280', '1281', '1295', '1296', '1310', '1315', '1319', '1323', '1326', '1327', '1331', '1335', '1337', '1339', '1341', '1342', '1346', '1347', '1349', '1354', '1358', '1359', '1368', '1371', '1379', '1385', '1393', '1402', '1403', '1407', '1414', '1415', '1416', '1418', '1424', '1436', '1437', '1438', '1444', '1445', '1451', '1455', '1466', '1469', '1472', '1474', '1477', '1478', '1485', '1486', '1487', '1491', '1492', '1493', '1502', '1505', '1508', '1510', '1518', '1523', '1524', '1525', '1531', '1534', '1535', '1536', '1548', '1555', '1556', '1561', '1566', '1570', '1597', '1598', '1600', '1602', '1605', '1611', '1619', '1620', '1625', '1632', '1648', '1653', '1655', '1656', '1661', '1662', '1666', '1668', '1669', '1673', '1678', '1682', '1685', '1690', '1691', '1697', '1699', '1700', '1701', '1703', '1707', '1709', '1712', '1713', '1717', '1726', '1728', '1729', '1733', '1735', '1742', '1746', '1752', '1755', '1760', '1762', '1772', '1775', '1779', '1780', '1793', '1799', '1805', '1807', '1809', '1818', '1820', '1826', '1830', '1834', '1837', '1838', '1844', '1847', '1848', '1850', '1851', '1854', '1855', '1857', '1858', '1860', '1862', '1864', '1867', '1870', '1877', '1882', '1883', '1884', '1886', '1890', '1895', '1896', '1900', '1902', '1908', '1910', '1918', '1929', '1937', '1938', '1946', '1961', '1964', '1971', '1977', '1978', '1981', '1983', '1987', '1993', '1997']",False,5000,True,2,f186ca8d20,0.0,1.0,1.0
