expe,clients,clients_size,clients_subset,agg_size,agg_size_pc,method,days,days_size,days_total,noise_method,time,valid,valid_sum,success,score_avg,score_min,score_max,nsols,oracle,wall_hit,wall_time,pooled,pool_size,uuid,infeasible,optimal,valid_sums
./expes/v2_2021-03-19_issda-30_2000-prng-1-w5-p2,30_issda-2000,2000,first-2000,100,5,rng,num-start-400,400,25726,classic,648.5123775005341,True,,True,1.0,1.0,1.0,1,"['2', '10', '31', '35', '61', '62', '74', '86', '122', '130', '137', '144', '171', '175', '186', '193', '221', '222', '291', '323', '379', '382', '389', '390', '401', '430', '438', '471', '479', '496', '521', '570', '592', '596', '603', '622', '646', '669', '792', '812', '821', '834', '903', '915', '926', '927', '928', '937', '951', '954', '975', '1024', '1041', '1049', '1051', '1064', '1083', '1104', '1129', '1147', '1154', '1203', '1211', '1220', '1229', '1258', '1261', '1277', '1290', '1300', '1312', '1332', '1340', '1342', '1357', '1403', '1421', '1450', '1514', '1553', '1570', '1594', '1600', '1625', '1647', '1659', '1704', '1721', '1726', '1734', '1736', '1752', '1755', '1774', '1802', '1824', '1893', '1909', '1963', '1976']",False,5000,True,2,01f9d78d5f,0.0,1.0,1.0
./expes/v2_2021-03-19_issda-30_2000-prng-1-w5-p2,30_issda-2000,2000,first-2000,400,20,rng,num-start-1400,1400,25726,classic,5118.695385456085,True,,False,1.0,1.0,1.0,1,"['11', '16', '17', '20', '22', '25', '32', '37', '40', '43', '54', '56', '57', '59', '62', '69', '101', '102', '103', '104', '106', '107', '110', '111', '120', '123', '128', '132', '135', '142', '151', '154', '159', '166', '168', '171', '175', '191', '192', '193', '202', '203', '217', '226', '227', '232', '240', '241', '252', '253', '256', '261', '263', '266', '281', '282', '284', '287', '291', '293', '309', '310', '311', '316', '331', '335', '337', '347', '350', '353', '358', '367', '376', '377', '386', '387', '394', '395', '401', '403', '407', '411', '418', '431', '433', '435', '438', '448', '455', '456', '461', '470', '474', '490', '496', '499', '510', '512', '513', '514', '515', '517', '523', '529', '538', '540', '544', '548', '552', '559', '565', '570', '577', '581', '584', '594', '602', '603', '605', '618', '622', '625', '630', '634', '635', '636', '639', '642', '647', '648', '650', '651', '652', '654', '659', '667', '674', '678', '681', '685', '687', '689', '691', '695', '712', '713', '727', '729', '731', '737', '746', '749', '754', '763', '768', '787', '796', '802', '805', '820', '823', '826', '827', '831', '834', '836', '837', '840', '849', '854', '859', '860', '862', '866', '877', '887', '889', '893', '897', '907', '912', '913', '920', '921', '928', '933', '941', '950', '957', '958', '967', '971', '973', '978', '984', '989', '990', '994', '997', '1011', '1013', '1028', '1033', '1034', '1037', '1039', '1057', '1061', '1063', '1064', '1070', '1072', '1076', '1077', '1080', '1082', '1091', '1092', '1096', '1099', '1100', '1103', '1104', '1105', '1106', '1107', '1111', '1113', '1114', '1126', '1129', '1134', '1135', '1138', '1139', '1141', '1145', '1146', '1156', '1164', '1171', '1172', '1178', '1180', '1184', '1185', '1188', '1191', '1201', '1202', '1209', '1212', '1226', '1229', '1237', '1238', '1254', '1256', '1272', '1283', '1284', '1297', '1304', '1309', '1312', '1330', '1347', '1349', '1355', '1359', '1367', '1386', '1395', '1398', '1402', '1403', '1405', '1416', '1433', '1442', '1443', '1445', '1446', '1455', '1465', '1466', '1484', '1485', '1493', '1497', '1499', '1513', '1514', '1525', '1526', '1529', '1531', '1533', '1535', '1537', '1540', '1541', '1543', '1546', '1552', '1556', '1557', '1567', '1569', '1579', '1586', '1594', '1598', '1600', '1603', '1607', '1611', '1613', '1622', '1627', '1642', '1643', '1644', '1645', '1649', '1653', '1661', '1664', '1665', '1666', '1670', '1673', '1679', '1680', '1682', '1684', '1689', '1693', '1698', '1702', '1705', '1715', '1719', '1725', '1734', '1742', '1753', '1759', '1761', '1772', '1777', '1778', '1789', '1793', '1805', '1808', '1819', '1823', '1830', '1837', '1838', '1841', '1844', '1847', '1856', '1859', '1861', '1862', '1864', '1870', '1878', '1880', '1885', '1892', '1893', '1897', '1905', '1911', '1917', '1925', '1926', '1930', '1936', '1949', '1957', '1958', '1960', '1961', '1962', '1966', '1968', '1970', '1976', '1982', '1987', '1992', '1994', '1996', '1997', '1998']",True,5000,True,2,7ec2254bfa,0.0,0.0,1.0
./expes/v2_2021-03-19_issda-30_2000-prng-1-w5-p2,30_issda-2000,2000,first-2000,1000,50,rng,num-start-1800,1800,25726,classic,2331.5702810287476,True,,True,1.0,1.0,1.0,1,"['1', '2', '10', '11', '14', '20', '22', '23', '24', '25', '26', '28', '29', '30', '31', '32', '33', '34', '35', '37', '40', '41', '44', '46', '47', '48', '50', '51', '56', '57', '59', '61', '62', '65', '69', '72', '73', '74', '75', '77', '78', '80', '81', '84', '85', '86', '87', '88', '91', '92', '93', '94', '96', '97', '98', '102', '103', '104', '107', '108', '109', '119', '120', '122', '123', '124', '125', '127', '130', '132', '135', '137', '138', '141', '142', '144', '145', '148', '149', '150', '151', '152', '153', '154', '155', '156', '157', '158', '159', '160', '161', '165', '168', '170', '171', '172', '173', '174', '175', '177', '178', '179', '180', '181', '184', '185', '186', '189', '191', '193', '195', '196', '197', '199', '202', '203', '205', '206', '207', '210', '213', '215', '218', '221', '222', '223', '224', '232', '234', '235', '236', '237', '239', '241', '242', '245', '246', '250', '252', '253', '255', '259', '261', '264', '266', '267', '269', '270', '272', '273', '274', '275', '276', '278', '279', '280', '281', '284', '287', '288', '289', '290', '291', '293', '294', '296', '300', '301', '305', '309', '315', '316', '317', '318', '319', '321', '323', '324', '325', '327', '328', '330', '337', '339', '342', '347', '348', '354', '355', '360', '361', '362', '364', '366', '367', '371', '372', '373', '375', '377', '378', '379', '382', '384', '386', '388', '389', '390', '391', '392', '393', '398', '399', '400', '401', '402', '403', '404', '405', '406', '407', '409', '411', '412', '415', '418', '419', '420', '424', '427', '428', '430', '431', '432', '435', '436', '437', '438', '439', '443', '447', '448', '449', '450', '454', '456', '459', '464', '466', '468', '471', '472', '476', '477', '479', '481', '486', '487', '489', '491', '495', '496', '497', '498', '500', '501', '502', '503', '505', '509', '510', '511', '514', '521', '523', '524', '525', '526', '527', '529', '530', '532', '533', '537', '546', '552', '553', '555', '557', '558', '560', '563', '564', '565', '567', '570', '571', '572', '573', '574', '576', '577', '578', '580', '581', '582', '583', '586', '592', '595', '596', '601', '603', '606', '607', '613', '617', '618', '622', '623', '624', '625', '633', '635', '636', '637', '638', '639', '640', '646', '647', '649', '650', '651', '654', '657', '660', '661', '663', '664', '667', '669', '670', '672', '674', '676', '677', '678', '682', '687', '690', '692', '693', '696', '699', '700', '701', '702', '703', '704', '709', '712', '714', '719', '721', '726', '727', '728', '729', '731', '733', '736', '737', '740', '741', '742', '745', '746', '749', '751', '754', '755', '756', '757', '758', '759', '762', '765', '769', '770', '772', '773', '777', '781', '784', '786', '788', '791', '792', '794', '795', '796', '798', '799', '800', '801', '803', '806', '808', '809', '810', '811', '812', '814', '815', '817', '819', '821', '823', '825', '828', '829', '830', '831', '832', '834', '836', '838', '840', '841', '842', '843', '847', '848', '852', '853', '854', '855', '859', '860', '862', '864', '870', '871', '874', '876', '879', '880', '881', '883', '885', '889', '891', '895', '898', '900', '902', '903', '904', '905', '906', '907', '909', '911', '913', '915', '917', '923', '926', '927', '928', '929', '930', '931', '932', '933', '934', '937', '938', '939', '940', '947', '948', '950', '951', '953', '954', '957', '960', '961', '963', '964', '966', '967', '968', '970', '973', '974', '975', '976', '979', '981', '982', '985', '986', '988', '989', '990', '991', '992', '993', '996', '998', '999', '1006', '1009', '1010', '1012', '1013', '1014', '1015', '1017', '1019', '1020', '1021', '1022', '1024', '1025', '1029', '1030', '1031', '1033', '1034', '1036', '1040', '1041', '1043', '1046', '1049', '1050', '1051', '1054', '1055', '1056', '1057', '1058', '1062', '1063', '1064', '1065', '1066', '1067', '1069', '1071', '1072', '1074', '1076', '1079', '1082', '1083', '1085', '1086', '1087', '1088', '1092', '1094', '1096', '1097', '1098', '1100', '1103', '1104', '1106', '1107', '1108', '1109', '1110', '1112', '1113', '1114', '1115', '1116', '1119', '1124', '1126', '1127', '1128', '1129', '1130', '1135', '1145', '1146', '1147', '1149', '1151', '1153', '1154', '1155', '1156', '1157', '1160', '1163', '1164', '1165', '1166', '1167', '1168', '1169', '1172', '1174', '1177', '1178', '1182', '1186', '1188', '1190', '1192', '1193', '1194', '1195', '1197', '1198', '1200', '1202', '1203', '1209', '1211', '1212', '1214', '1219', '1220', '1222', '1224', '1225', '1226', '1228', '1229', '1231', '1232', '1233', '1236', '1237', '1239', '1240', '1245', '1247', '1249', '1250', '1251', '1252', '1253', '1257', '1258', '1259', '1261', '1262', '1266', '1270', '1275', '1277', '1278', '1279', '1280', '1282', '1285', '1286', '1287', '1289', '1290', '1291', '1293', '1297', '1299', '1300', '1303', '1304', '1307', '1308', '1309', '1310', '1311', '1312', '1313', '1315', '1316', '1319', '1321', '1328', '1330', '1332', '1334', '1337', '1338', '1339', '1340', '1342', '1346', '1347', '1352', '1356', '1357', '1360', '1364', '1365', '1368', '1369', '1375', '1377', '1379', '1383', '1386', '1387', '1389', '1390', '1395', '1397', '1398', '1400', '1402', '1403', '1404', '1405', '1407', '1408', '1412', '1416', '1421', '1422', '1423', '1424', '1429', '1431', '1432', '1434', '1436', '1437', '1438', '1442', '1443', '1444', '1447', '1448', '1450', '1452', '1453', '1457', '1463', '1467', '1468', '1470', '1472', '1473', '1476', '1479', '1480', '1481', '1482', '1485', '1486', '1487', '1489', '1492', '1493', '1495', '1497', '1499', '1501', '1504', '1506', '1510', '1514', '1515', '1516', '1518', '1522', '1524', '1525', '1526', '1529', '1531', '1532', '1533', '1534', '1537', '1543', '1544', '1546', '1547', '1548', '1549', '1553', '1555', '1560', '1561', '1562', '1565', '1567', '1568', '1570', '1572', '1574', '1575', '1576', '1583', '1589', '1594', '1595', '1596', '1598', '1600', '1607', '1614', '1618', '1620', '1622', '1623', '1625', '1631', '1632', '1633', '1634', '1635', '1637', '1639', '1640', '1641', '1642', '1644', '1645', '1646', '1647', '1649', '1651', '1654', '1658', '1659', '1660', '1663', '1669', '1670', '1671', '1673', '1675', '1676', '1679', '1682', '1684', '1687', '1688', '1690', '1692', '1697', '1698', '1700', '1701', '1702', '1703', '1704', '1705', '1706', '1713', '1715', '1717', '1718', '1719', '1721', '1725', '1726', '1728', '1730', '1732', '1734', '1736', '1739', '1743', '1744', '1745', '1746', '1750', '1751', '1752', '1753', '1755', '1756', '1763', '1764', '1769', '1770', '1771', '1774', '1775', '1777', '1781', '1782', '1785', '1788', '1793', '1794', '1800', '1801', '1802', '1803', '1805', '1806', '1807', '1813', '1818', '1819', '1821', '1824', '1825', '1827', '1829', '1830', '1833', '1835', '1836', '1837', '1839', '1844', '1845', '1846', '1849', '1854', '1855', '1856', '1857', '1858', '1861', '1862', '1863', '1864', '1865', '1866', '1867', '1870', '1871', '1873', '1874', '1876', '1879', '1882', '1884', '1885', '1886', '1888', '1890', '1892', '1893', '1895', '1896', '1899', '1904', '1905', '1906', '1907', '1909', '1910', '1913', '1914', '1915', '1917', '1918', '1920', '1923', '1925', '1926', '1928', '1934', '1935', '1936', '1937', '1940', '1944', '1946', '1949', '1950', '1951', '1956', '1957', '1960', '1961', '1963', '1965', '1966', '1969', '1972', '1974', '1975', '1976', '1980', '1981', '1982', '1984', '1986', '1987', '1989', '1993', '1994', '1997']",False,5000,True,2,a489a7cf0e,0.0,1.0,1.0
./expes/v2_2021-03-19_issda-30_2000-prng-1-w5-p2,30_issda-2000,2000,first-2000,400,20,rng,num-start-1200,1200,25726,classic,2406.6692020893097,True,,True,1.0,1.0,1.0,1,"['1', '3', '4', '5', '7', '26', '28', '29', '30', '31', '34', '45', '47', '55', '65', '68', '75', '80', '81', '83', '93', '94', '96', '103', '119', '126', '128', '129', '131', '142', '144', '148', '152', '162', '165', '166', '169', '171', '184', '187', '188', '192', '195', '201', '203', '206', '207', '208', '224', '237', '238', '240', '241', '244', '246', '254', '255', '256', '267', '268', '272', '277', '286', '287', '292', '300', '301', '307', '315', '323', '325', '328', '332', '340', '347', '350', '359', '370', '374', '377', '379', '383', '386', '387', '388', '390', '391', '392', '394', '399', '407', '409', '417', '419', '432', '438', '441', '448', '449', '452', '453', '455', '457', '483', '489', '491', '492', '496', '498', '500', '514', '531', '533', '534', '556', '564', '565', '574', '576', '578', '590', '595', '597', '617', '618', '620', '622', '636', '638', '640', '648', '650', '656', '665', '667', '668', '677', '682', '683', '685', '687', '688', '702', '718', '722', '725', '732', '734', '735', '736', '759', '762', '776', '789', '795', '796', '802', '817', '823', '824', '830', '840', '849', '851', '856', '857', '859', '862', '872', '873', '890', '894', '906', '907', '912', '913', '915', '918', '923', '938', '957', '964', '966', '967', '975', '976', '977', '982', '987', '996', '997', '998', '1003', '1009', '1011', '1013', '1032', '1034', '1041', '1042', '1048', '1068', '1069', '1075', '1081', '1083', '1085', '1091', '1095', '1107', '1108', '1113', '1115', '1121', '1122', '1124', '1129', '1132', '1147', '1149', '1150', '1163', '1164', '1166', '1167', '1176', '1179', '1180', '1188', '1195', '1203', '1204', '1208', '1209', '1218', '1222', '1223', '1233', '1234', '1236', '1237', '1241', '1242', '1246', '1250', '1252', '1254', '1255', '1267', '1271', '1272', '1281', '1291', '1297', '1298', '1299', '1301', '1306', '1312', '1314', '1325', '1330', '1333', '1345', '1347', '1353', '1357', '1364', '1369', '1378', '1380', '1384', '1385', '1390', '1391', '1392', '1394', '1396', '1400', '1401', '1411', '1415', '1429', '1431', '1433', '1435', '1437', '1438', '1442', '1445', '1448', '1453', '1455', '1466', '1470', '1471', '1474', '1486', '1490', '1495', '1496', '1499', '1514', '1519', '1533', '1546', '1548', '1552', '1553', '1561', '1572', '1582', '1604', '1606', '1608', '1616', '1625', '1628', '1635', '1638', '1640', '1645', '1646', '1649', '1657', '1660', '1663', '1664', '1669', '1671', '1674', '1683', '1685', '1690', '1691', '1696', '1698', '1699', '1700', '1701', '1708', '1712', '1716', '1717', '1721', '1726', '1730', '1731', '1732', '1740', '1742', '1749', '1752', '1773', '1777', '1783', '1786', '1790', '1792', '1793', '1796', '1811', '1813', '1824', '1827', '1834', '1840', '1841', '1844', '1848', '1853', '1860', '1864', '1870', '1876', '1878', '1879', '1880', '1881', '1882', '1888', '1889', '1891', '1892', '1911', '1918', '1919', '1940', '1945', '1946', '1953', '1969', '1973', '1974', '1978', '1980', '1982', '1983', '1988', '1996']",False,5000,True,2,c8e4a888c1,0.0,1.0,1.0
