expe,clients,clients_size,clients_subset,agg_size,method,days,days_size,days_total,time,valid,valid_sum,success,nsols,wall_hit,wall_time,pooled,valid_sums
./expes/v2_2020-12-06_dh_200-prng-1,30_issda_200,200,rng-200,61,rng,num-start-801,801,25726,18.609299182891846,True,,False,2,False,1000,True,1.0
./expes/v2_2020-12-06_dh_200-prng-1,30_issda_200,200,rng-200,181,rng,num-start-891,891,25726,20.391367197036743,True,,True,1,False,1000,True,1.0
./expes/v2_2020-12-06_dh_200-prng-1,30_issda_200,200,rng-200,151,rng,num-start-911,911,25726,21.2112135887146,True,,True,1,False,1000,True,1.0
./expes/v2_2020-12-06_dh_200-prng-1,30_issda_200,200,rng-200,161,rng,num-start-941,941,25726,22.565016269683838,True,,True,1,False,1000,True,1.0
./expes/v2_2020-12-06_dh_200-prng-1,30_issda_200,200,rng-200,131,rng,num-start-621,621,25726,14.92172884941101,True,,True,1,False,1000,True,1.0
./expes/v2_2020-12-06_dh_200-prng-1,30_issda_200,200,rng-200,21,rng,num-start-981,981,25726,23.6606388092041,True,,True,1,False,1000,True,1.0
./expes/v2_2020-12-06_dh_200-prng-1,30_issda_200,200,rng-200,171,rng,num-start-941,941,25726,21.94686770439148,True,,True,1,False,1000,True,1.0
./expes/v2_2020-12-06_dh_200-prng-1,30_issda_200,200,rng-200,131,rng,num-start-201,201,25726,5.137631893157959,True,,True,1,False,1000,True,1.0
./expes/v2_2020-12-06_dh_200-prng-1,30_issda_200,200,rng-200,81,rng,num-start-101,101,25726,3.5617308616638184,True,,True,1,False,1000,True,1.0
./expes/v2_2020-12-06_dh_200-prng-1,30_issda_200,200,rng-200,61,rng,num-start-721,721,25726,18.42659044265747,True,,True,1,False,1000,True,1.0
./expes/v2_2020-12-06_dh_200-prng-1,30_issda_200,200,rng-200,81,rng,num-start-541,541,25726,13.233792066574097,True,,True,1,False,1000,True,1.0
./expes/v2_2020-12-06_dh_200-prng-1,30_issda_200,200,rng-200,51,rng,num-start-971,971,25726,22.548776149749756,True,,True,1,False,1000,True,1.0
./expes/v2_2020-12-06_dh_200-prng-1,30_issda_200,200,rng-200,131,rng,num-start-431,431,25726,10.047706604003906,True,,True,1,False,1000,True,1.0
./expes/v2_2020-12-06_dh_200-prng-1,30_issda_200,200,rng-200,81,rng,num-start-721,721,25726,16.815499544143677,True,,True,1,False,1000,True,1.0
./expes/v2_2020-12-06_dh_200-prng-1,30_issda_200,200,rng-200,61,rng,num-start-831,831,25726,19.61194944381714,True,,True,1,False,1000,True,1.0
./expes/v2_2020-12-06_dh_200-prng-1,30_issda_200,200,rng-200,171,rng,num-start-251,251,25726,5.89462423324585,True,,True,1,False,1000,True,1.0
./expes/v2_2020-12-06_dh_200-prng-1,30_issda_200,200,rng-200,141,rng,num-start-971,971,25726,22.883724451065063,True,,True,1,False,1000,True,1.0
./expes/v2_2020-12-06_dh_200-prng-1,30_issda_200,200,rng-200,151,rng,num-start-971,971,25726,22.64978528022766,True,,True,1,False,1000,True,1.0
./expes/v2_2020-12-06_dh_200-prng-1,30_issda_200,200,rng-200,171,rng,num-start-941,941,25726,22.106956958770752,True,,True,1,False,1000,True,1.0
./expes/v2_2020-12-06_dh_200-prng-1,30_issda_200,200,rng-200,81,rng,num-start-301,301,25726,7.463721752166748,True,,True,1,False,1000,True,1.0
./expes/v2_2020-12-06_dh_200-prng-1,30_issda_200,200,rng-200,111,rng,num-start-971,971,25726,24.017573356628418,True,,True,1,False,1000,True,1.0
./expes/v2_2020-12-06_dh_200-prng-1,30_issda_200,200,rng-200,151,rng,num-start-621,621,25726,13.755755424499512,True,,True,1,False,1000,True,1.0
./expes/v2_2020-12-06_dh_200-prng-1,30_issda_200,200,rng-200,131,rng,num-start-471,471,25726,11.020073413848877,True,,True,1,False,1000,True,1.0
./expes/v2_2020-12-06_dh_200-prng-1,30_issda_200,200,rng-200,21,rng,num-start-71,71,25726,1.76572847366333,True,,True,1,False,1000,True,1.0
./expes/v2_2020-12-06_dh_200-prng-1,30_issda_200,200,rng-200,191,rng,num-start-431,431,25726,8.860485315322876,True,,True,1,False,1000,True,1.0
./expes/v2_2020-12-06_dh_200-prng-1,30_issda_200,200,rng-200,1,rng,num-start-111,111,25726,2.2814438343048096,True,,True,1,False,1000,True,1.0
./expes/v2_2020-12-06_dh_200-prng-1,30_issda_200,200,rng-200,61,rng,num-start-971,971,25726,22.827364683151245,True,,True,1,False,1000,True,1.0
./expes/v2_2020-12-06_dh_200-prng-1,30_issda_200,200,rng-200,61,rng,num-start-101,101,25726,2.623581647872925,True,,True,1,False,1000,True,1.0
./expes/v2_2020-12-06_dh_200-prng-1,30_issda_200,200,rng-200,31,rng,num-start-771,771,25726,18.041266679763794,True,,True,1,False,1000,True,1.0
./expes/v2_2020-12-06_dh_200-prng-1,30_issda_200,200,rng-200,61,rng,num-start-111,111,25726,2.841287136077881,True,,True,1,False,1000,True,1.0
./expes/v2_2020-12-06_dh_200-prng-1,30_issda_200,200,rng-200,171,rng,num-start-191,191,25726,4.540823936462402,True,,True,1,False,1000,True,1.0
./expes/v2_2020-12-06_dh_200-prng-1,30_issda_200,200,rng-200,191,rng,num-start-331,331,25726,7.437870264053345,True,,True,1,False,1000,True,1.0
./expes/v2_2020-12-06_dh_200-prng-1,30_issda_200,200,rng-200,21,rng,num-start-871,871,25726,20.160314559936523,True,,True,1,False,1000,True,1.0
./expes/v2_2020-12-06_dh_200-prng-1,30_issda_200,200,rng-200,191,rng,num-start-721,721,25726,15.083502292633057,True,,True,1,False,1000,True,1.0
./expes/v2_2020-12-06_dh_200-prng-1,30_issda_200,200,rng-200,181,rng,num-start-421,421,25726,9.848201513290405,True,,True,1,False,1000,True,1.0
./expes/v2_2020-12-06_dh_200-prng-1,30_issda_200,200,rng-200,141,rng,num-start-661,661,25726,15.41923475265503,True,,True,1,False,1000,True,1.0
./expes/v2_2020-12-06_dh_200-prng-1,30_issda_200,200,rng-200,181,rng,num-start-571,571,25726,12.852737665176392,True,,True,1,False,1000,True,1.0
./expes/v2_2020-12-06_dh_200-prng-1,30_issda_200,200,rng-200,41,rng,num-start-241,241,25726,5.935098648071289,True,,True,1,False,1000,True,1.0
./expes/v2_2020-12-06_dh_200-prng-1,30_issda_200,200,rng-200,11,rng,num-start-621,621,25726,14.687199354171753,True,,True,1,False,1000,True,1.0
./expes/v2_2020-12-06_dh_200-prng-1,30_issda_200,200,rng-200,81,rng,num-start-211,211,25726,5.2836012840271,True,,True,1,False,1000,True,1.0
./expes/v2_2020-12-06_dh_200-prng-1,30_issda_200,200,rng-200,171,rng,num-start-851,851,25726,19.620455503463745,True,,True,1,False,1000,True,1.0
./expes/v2_2020-12-06_dh_200-prng-1,30_issda_200,200,rng-200,21,rng,num-start-481,481,25726,11.062209844589233,True,,True,1,False,1000,True,1.0
./expes/v2_2020-12-06_dh_200-prng-1,30_issda_200,200,rng-200,141,rng,num-start-941,941,25726,21.73468589782715,False,,False,2,False,1000,True,1.0
./expes/v2_2020-12-06_dh_200-prng-1,30_issda_200,200,rng-200,141,rng,num-start-711,711,25726,17.177842378616333,True,,True,1,False,1000,True,1.0
./expes/v2_2020-12-06_dh_200-prng-1,30_issda_200,200,rng-200,1,rng,num-start-931,931,25726,19.407448053359985,True,,True,1,False,1000,True,1.0
./expes/v2_2020-12-06_dh_200-prng-1,30_issda_200,200,rng-200,71,rng,num-start-721,721,25726,18.514618635177612,True,,True,1,False,1000,True,1.0
./expes/v2_2020-12-06_dh_200-prng-1,30_issda_200,200,rng-200,31,rng,num-start-361,361,25726,8.759004354476929,True,,True,1,False,1000,True,1.0
./expes/v2_2020-12-06_dh_200-prng-1,30_issda_200,200,rng-200,191,rng,num-start-291,291,25726,6.332496166229248,True,,True,1,False,1000,True,1.0
./expes/v2_2020-12-06_dh_200-prng-1,30_issda_200,200,rng-200,1,rng,num-start-521,521,25726,10.887657165527344,True,,True,1,False,1000,True,1.0
./expes/v2_2020-12-06_dh_200-prng-1,30_issda_200,200,rng-200,131,rng,num-start-651,651,25726,15.57018256187439,True,,True,1,False,1000,True,1.0
./expes/v2_2020-12-06_dh_200-prng-1,30_issda_200,200,rng-200,41,rng,num-start-451,451,25726,10.579631805419922,True,,True,1,False,1000,True,1.0
./expes/v2_2020-12-06_dh_200-prng-1,30_issda_200,200,rng-200,101,rng,num-start-741,741,25726,17.495527505874634,True,,True,1,False,1000,True,1.0
./expes/v2_2020-12-06_dh_200-prng-1,30_issda_200,200,rng-200,121,rng,num-start-701,701,25726,17.6414897441864,True,,True,1,False,1000,True,1.0
./expes/v2_2020-12-06_dh_200-prng-1,30_issda_200,200,rng-200,61,rng,num-start-801,801,25726,19.431811571121216,True,,True,1,False,1000,True,1.0
./expes/v2_2020-12-06_dh_200-prng-1,30_issda_200,200,rng-200,121,rng,num-start-501,501,25726,12.037526607513428,True,,True,1,False,1000,True,1.0
./expes/v2_2020-12-06_dh_200-prng-1,30_issda_200,200,rng-200,161,rng,num-start-171,171,25726,4.7809998989105225,True,,True,1,False,1000,True,1.0
./expes/v2_2020-12-06_dh_200-prng-1,30_issda_200,200,rng-200,11,rng,num-start-741,741,25726,17.08854365348816,True,,True,1,False,1000,True,1.0
./expes/v2_2020-12-06_dh_200-prng-1,30_issda_200,200,rng-200,181,rng,num-start-201,201,25726,5.089019536972046,True,,True,1,False,1000,True,1.0
./expes/v2_2020-12-06_dh_200-prng-1,30_issda_200,200,rng-200,121,rng,num-start-771,771,25726,19.318695068359375,True,,True,1,False,1000,True,1.0
./expes/v2_2020-12-06_dh_200-prng-1,30_issda_200,200,rng-200,171,rng,num-start-961,961,25726,23.972490787506104,True,,True,1,False,1000,True,1.0
./expes/v2_2020-12-06_dh_200-prng-1,30_issda_200,200,rng-200,171,rng,num-start-501,501,25726,12.1377694606781,True,,True,1,False,1000,True,1.0
./expes/v2_2020-12-06_dh_200-prng-1,30_issda_200,200,rng-200,191,rng,num-start-581,581,25726,13.545038938522339,True,,True,1,False,1000,True,1.0
./expes/v2_2020-12-06_dh_200-prng-1,30_issda_200,200,rng-200,191,rng,num-start-701,701,25726,15.54808259010315,True,,True,1,False,1000,True,1.0
./expes/v2_2020-12-06_dh_200-prng-1,30_issda_200,200,rng-200,141,rng,num-start-251,251,25726,6.138949155807495,True,,True,1,False,1000,True,1.0
./expes/v2_2020-12-06_dh_200-prng-1,30_issda_200,200,rng-200,41,rng,num-start-381,381,25726,9.413819313049316,True,,True,1,False,1000,True,1.0
./expes/v2_2020-12-06_dh_200-prng-1,30_issda_200,200,rng-200,101,rng,num-start-461,461,25726,11.099825620651245,True,,True,1,False,1000,True,1.0
./expes/v2_2020-12-06_dh_200-prng-1,30_issda_200,200,rng-200,181,rng,num-start-31,31,25726,2.0495245456695557,True,,True,1,False,1000,True,1.0
./expes/v2_2020-12-06_dh_200-prng-1,30_issda_200,200,rng-200,191,rng,num-start-31,31,25726,0.8576302528381348,True,,True,1,False,1000,True,1.0
./expes/v2_2020-12-06_dh_200-prng-1,30_issda_200,200,rng-200,41,rng,num-start-881,881,25726,22.82271409034729,True,,True,1,False,1000,True,1.0
./expes/v2_2020-12-06_dh_200-prng-1,30_issda_200,200,rng-200,131,rng,num-start-181,181,25726,4.601121187210083,True,,True,1,False,1000,True,1.0
./expes/v2_2020-12-06_dh_200-prng-1,30_issda_200,200,rng-200,141,rng,num-start-341,341,25726,8.434533596038818,True,,True,1,False,1000,True,1.0
./expes/v2_2020-12-06_dh_200-prng-1,30_issda_200,200,rng-200,171,rng,num-start-101,101,25726,2.578645944595337,True,,True,1,False,1000,True,1.0
./expes/v2_2020-12-06_dh_200-prng-1,30_issda_200,200,rng-200,71,rng,num-start-521,521,25726,12.109146118164062,True,,True,1,False,1000,True,1.0
./expes/v2_2020-12-06_dh_200-prng-1,30_issda_200,200,rng-200,111,rng,num-start-561,561,25726,13.7097647190094,True,,True,1,False,1000,True,1.0
./expes/v2_2020-12-06_dh_200-prng-1,30_issda_200,200,rng-200,81,rng,num-start-121,121,25726,3.0918707847595215,True,,True,1,False,1000,True,1.0
./expes/v2_2020-12-06_dh_200-prng-1,30_issda_200,200,rng-200,41,rng,num-start-641,641,25726,14.688779592514038,True,,True,1,False,1000,True,1.0
./expes/v2_2020-12-06_dh_200-prng-1,30_issda_200,200,rng-200,61,rng,num-start-671,671,25726,15.265987634658813,True,,True,1,False,1000,True,1.0
./expes/v2_2020-12-06_dh_200-prng-1,30_issda_200,200,rng-200,181,rng,num-start-501,501,25726,11.588714838027954,True,,True,1,False,1000,True,1.0
./expes/v2_2020-12-06_dh_200-prng-1,30_issda_200,200,rng-200,21,rng,num-start-691,691,25726,16.094593048095703,True,,True,1,False,1000,True,1.0
./expes/v2_2020-12-06_dh_200-prng-1,30_issda_200,200,rng-200,151,rng,num-start-911,911,25726,21.92187809944153,True,,True,1,False,1000,True,1.0
./expes/v2_2020-12-06_dh_200-prng-1,30_issda_200,200,rng-200,21,rng,num-start-821,821,25726,18.7972195148468,True,,True,1,False,1000,True,1.0
./expes/v2_2020-12-06_dh_200-prng-1,30_issda_200,200,rng-200,31,rng,num-start-171,171,25726,4.2945404052734375,True,,True,1,False,1000,True,1.0
./expes/v2_2020-12-06_dh_200-prng-1,30_issda_200,200,rng-200,121,rng,num-start-631,631,25726,15.559041976928711,True,,True,1,False,1000,True,1.0
./expes/v2_2020-12-06_dh_200-prng-1,30_issda_200,200,rng-200,131,rng,num-start-551,551,25726,13.598191976547241,True,,True,1,False,1000,True,1.0
./expes/v2_2020-12-06_dh_200-prng-1,30_issda_200,200,rng-200,171,rng,num-start-371,371,25726,8.628265619277954,True,,True,1,False,1000,True,1.0
./expes/v2_2020-12-06_dh_200-prng-1,30_issda_200,200,rng-200,21,rng,num-start-361,361,25726,9.157940864562988,True,,True,1,False,1000,True,1.0
./expes/v2_2020-12-06_dh_200-prng-1,30_issda_200,200,rng-200,11,rng,num-start-741,741,25726,17.82144808769226,True,,True,1,False,1000,True,1.0
./expes/v2_2020-12-06_dh_200-prng-1,30_issda_200,200,rng-200,21,rng,num-start-811,811,25726,20.74317193031311,True,,True,1,False,1000,True,1.0
./expes/v2_2020-12-06_dh_200-prng-1,30_issda_200,200,rng-200,11,rng,num-start-581,581,25726,13.055217981338501,True,,True,1,False,1000,True,1.0
./expes/v2_2020-12-06_dh_200-prng-1,30_issda_200,200,rng-200,161,rng,num-start-721,721,25726,17.630083560943604,True,,True,1,False,1000,True,1.0
./expes/v2_2020-12-06_dh_200-prng-1,30_issda_200,200,rng-200,21,rng,num-start-201,201,25726,5.1482532024383545,True,,True,1,False,1000,True,1.0
./expes/v2_2020-12-06_dh_200-prng-1,30_issda_200,200,rng-200,191,rng,num-start-261,261,25726,6.415048599243164,True,,True,1,False,1000,True,1.0
./expes/v2_2020-12-06_dh_200-prng-1,30_issda_200,200,rng-200,11,rng,num-start-861,861,25726,19.352960109710693,True,,True,1,False,1000,True,1.0
./expes/v2_2020-12-06_dh_200-prng-1,30_issda_200,200,rng-200,131,rng,num-start-451,451,25726,11.231082439422607,True,,True,1,False,1000,True,1.0
./expes/v2_2020-12-06_dh_200-prng-1,30_issda_200,200,rng-200,161,rng,num-start-591,591,25726,15.42375898361206,True,,True,1,False,1000,True,1.0
./expes/v2_2020-12-06_dh_200-prng-1,30_issda_200,200,rng-200,141,rng,num-start-671,671,25726,16.76870608329773,True,,True,1,False,1000,True,1.0
./expes/v2_2020-12-06_dh_200-prng-1,30_issda_200,200,rng-200,71,rng,num-start-701,701,25726,18.81588864326477,True,,True,1,False,1000,True,1.0
./expes/v2_2020-12-06_dh_200-prng-1,30_issda_200,200,rng-200,101,rng,num-start-401,401,25726,9.760204076766968,True,,True,1,False,1000,True,1.0
./expes/v2_2020-12-06_dh_200-prng-1,30_issda_200,200,rng-200,151,rng,num-start-421,421,25726,10.408342361450195,True,,True,1,False,1000,True,1.0
./expes/v2_2020-12-06_dh_200-prng-1,30_issda_200,200,rng-200,141,rng,num-start-741,741,25726,19.04004955291748,True,,True,1,False,1000,True,1.0
./expes/v2_2020-12-06_dh_200-prng-1,30_issda_200,200,rng-200,11,rng,num-start-811,811,25726,17.823211908340454,True,,True,1,False,1000,True,1.0
./expes/v2_2020-12-06_dh_200-prng-1,30_issda_200,200,rng-200,101,rng,num-start-901,901,25726,21.93278670310974,True,,True,1,False,1000,True,1.0
./expes/v2_2020-12-06_dh_200-prng-1,30_issda_200,200,rng-200,151,rng,num-start-961,961,25726,23.2106454372406,True,,True,1,False,1000,True,1.0
./expes/v2_2020-12-06_dh_200-prng-1,30_issda_200,200,rng-200,61,rng,num-start-181,181,25726,4.432613372802734,True,,True,1,False,1000,True,1.0
./expes/v2_2020-12-06_dh_200-prng-1,30_issda_200,200,rng-200,61,rng,num-start-261,261,25726,5.884837627410889,True,,True,1,False,1000,True,1.0
./expes/v2_2020-12-06_dh_200-prng-1,30_issda_200,200,rng-200,1,rng,num-start-811,811,25726,16.79751229286194,True,,True,1,False,1000,True,1.0
./expes/v2_2020-12-06_dh_200-prng-1,30_issda_200,200,rng-200,151,rng,num-start-61,61,25726,2.646376609802246,True,,True,1,False,1000,True,1.0
./expes/v2_2020-12-06_dh_200-prng-1,30_issda_200,200,rng-200,71,rng,num-start-431,431,25726,10.039963483810425,True,,True,1,False,1000,True,1.0
./expes/v2_2020-12-06_dh_200-prng-1,30_issda_200,200,rng-200,161,rng,num-start-141,141,25726,3.5845556259155273,True,,True,1,False,1000,True,1.0
./expes/v2_2020-12-06_dh_200-prng-1,30_issda_200,200,rng-200,191,rng,num-start-591,591,25726,12.792937517166138,True,,True,1,False,1000,True,1.0
./expes/v2_2020-12-06_dh_200-prng-1,30_issda_200,200,rng-200,81,rng,num-start-971,971,25726,23.157302856445312,True,,True,1,False,1000,True,1.0
./expes/v2_2020-12-06_dh_200-prng-1,30_issda_200,200,rng-200,1,rng,num-start-651,651,25726,13.371860027313232,True,,True,1,False,1000,True,1.0
./expes/v2_2020-12-06_dh_200-prng-1,30_issda_200,200,rng-200,151,rng,num-start-191,191,25726,4.548646926879883,True,,True,1,False,1000,True,1.0
./expes/v2_2020-12-06_dh_200-prng-1,30_issda_200,200,rng-200,171,rng,num-start-311,311,25726,7.2866857051849365,True,,True,1,False,1000,True,1.0
./expes/v2_2020-12-06_dh_200-prng-1,30_issda_200,200,rng-200,191,rng,num-start-531,531,25726,12.532877445220947,True,,True,1,False,1000,True,1.0
./expes/v2_2020-12-06_dh_200-prng-1,30_issda_200,200,rng-200,111,rng,num-start-31,31,25726,1001.1148993968964,False,,False,0,True,1000,True,0.0
./expes/v2_2020-12-06_dh_200-prng-1,30_issda_200,200,rng-200,181,rng,num-start-671,671,25726,15.920990943908691,True,,True,1,False,1000,True,1.0
./expes/v2_2020-12-06_dh_200-prng-1,30_issda_200,200,rng-200,91,rng,num-start-741,741,25726,17.859273672103882,True,,True,1,False,1000,True,1.0
./expes/v2_2020-12-06_dh_200-prng-1,30_issda_200,200,rng-200,161,rng,num-start-191,191,25726,4.698792457580566,True,,True,1,False,1000,True,1.0
./expes/v2_2020-12-06_dh_200-prng-1,30_issda_200,200,rng-200,11,rng,num-start-861,861,25726,18.946370840072632,True,,True,1,False,1000,True,1.0
./expes/v2_2020-12-06_dh_200-prng-1,30_issda_200,200,rng-200,131,rng,num-start-841,841,25726,20.173934936523438,True,,True,1,False,1000,True,1.0
./expes/v2_2020-12-06_dh_200-prng-1,30_issda_200,200,rng-200,21,rng,num-start-311,311,25726,7.552906036376953,True,,True,1,False,1000,True,1.0
./expes/v2_2020-12-06_dh_200-prng-1,30_issda_200,200,rng-200,81,rng,num-start-201,201,25726,5.194369554519653,True,,True,1,False,1000,True,1.0
./expes/v2_2020-12-06_dh_200-prng-1,30_issda_200,200,rng-200,71,rng,num-start-441,441,25726,10.546025514602661,True,,True,1,False,1000,True,1.0
./expes/v2_2020-12-06_dh_200-prng-1,30_issda_200,200,rng-200,121,rng,num-start-741,741,25726,17.580097198486328,True,,True,1,False,1000,True,1.0
./expes/v2_2020-12-06_dh_200-prng-1,30_issda_200,200,rng-200,181,rng,num-start-151,151,25726,3.624448776245117,True,,True,1,False,1000,True,1.0
./expes/v2_2020-12-06_dh_200-prng-1,30_issda_200,200,rng-200,81,rng,num-start-261,261,25726,6.440306186676025,True,,True,1,False,1000,True,1.0
./expes/v2_2020-12-06_dh_200-prng-1,30_issda_200,200,rng-200,1,rng,num-start-361,361,25726,7.572710990905762,True,,True,1,False,1000,True,1.0
./expes/v2_2020-12-06_dh_200-prng-1,30_issda_200,200,rng-200,41,rng,num-start-71,71,25726,1.8576159477233887,True,,True,1,False,1000,True,1.0
./expes/v2_2020-12-06_dh_200-prng-1,30_issda_200,200,rng-200,31,rng,num-start-141,141,25726,3.532829523086548,True,,True,1,False,1000,True,1.0
./expes/v2_2020-12-06_dh_200-prng-1,30_issda_200,200,rng-200,101,rng,num-start-851,851,25726,20.22282123565674,True,,True,1,False,1000,True,1.0
./expes/v2_2020-12-06_dh_200-prng-1,30_issda_200,200,rng-200,181,rng,num-start-801,801,25726,18.2795193195343,True,,True,1,False,1000,True,1.0
./expes/v2_2020-12-06_dh_200-prng-1,30_issda_200,200,rng-200,31,rng,num-start-731,731,25726,17.632726192474365,True,,True,1,False,1000,True,1.0
./expes/v2_2020-12-06_dh_200-prng-1,30_issda_200,200,rng-200,131,rng,num-start-651,651,25726,14.986051797866821,True,,True,1,False,1000,True,1.0
./expes/v2_2020-12-06_dh_200-prng-1,30_issda_200,200,rng-200,81,rng,num-start-921,921,25726,21.004175901412964,True,,True,1,False,1000,True,1.0
./expes/v2_2020-12-06_dh_200-prng-1,30_issda_200,200,rng-200,1,rng,num-start-521,521,25726,10.755697965621948,True,,True,1,False,1000,True,1.0
./expes/v2_2020-12-06_dh_200-prng-1,30_issda_200,200,rng-200,121,rng,num-start-841,841,25726,19.27885150909424,True,,True,1,False,1000,True,1.0
./expes/v2_2020-12-06_dh_200-prng-1,30_issda_200,200,rng-200,31,rng,num-start-611,611,25726,15.147154092788696,True,,True,1,False,1000,True,1.0
./expes/v2_2020-12-06_dh_200-prng-1,30_issda_200,200,rng-200,161,rng,num-start-351,351,25726,7.779695510864258,True,,True,1,False,1000,True,1.0
./expes/v2_2020-12-06_dh_200-prng-1,30_issda_200,200,rng-200,111,rng,num-start-741,741,25726,17.40232229232788,True,,True,1,False,1000,True,1.0
./expes/v2_2020-12-06_dh_200-prng-1,30_issda_200,200,rng-200,1,rng,num-start-861,861,25726,17.65900421142578,True,,True,1,False,1000,True,1.0
./expes/v2_2020-12-06_dh_200-prng-1,30_issda_200,200,rng-200,71,rng,num-start-931,931,25726,23.05915904045105,True,,True,1,False,1000,True,1.0
./expes/v2_2020-12-06_dh_200-prng-1,30_issda_200,200,rng-200,41,rng,num-start-491,491,25726,11.041017055511475,True,,True,1,False,1000,True,1.0
./expes/v2_2020-12-06_dh_200-prng-1,30_issda_200,200,rng-200,81,rng,num-start-961,961,25726,22.698803186416626,True,,True,1,False,1000,True,1.0
./expes/v2_2020-12-06_dh_200-prng-1,30_issda_200,200,rng-200,61,rng,num-start-481,481,25726,11.539965867996216,True,,True,1,False,1000,True,1.0
./expes/v2_2020-12-06_dh_200-prng-1,30_issda_200,200,rng-200,31,rng,num-start-751,751,25726,18.25058913230896,True,,True,1,False,1000,True,1.0
./expes/v2_2020-12-06_dh_200-prng-1,30_issda_200,200,rng-200,1,rng,num-start-931,931,25726,21.134405374526978,True,,True,1,False,1000,True,1.0
./expes/v2_2020-12-06_dh_200-prng-1,30_issda_200,200,rng-200,61,rng,num-start-861,861,25726,21.175695657730103,True,,True,1,False,1000,True,1.0
./expes/v2_2020-12-06_dh_200-prng-1,30_issda_200,200,rng-200,141,rng,num-start-871,871,25726,21.61655044555664,True,,True,1,False,1000,True,1.0
./expes/v2_2020-12-06_dh_200-prng-1,30_issda_200,200,rng-200,101,rng,num-start-121,121,25726,3.1367602348327637,True,,True,1,False,1000,True,1.0
./expes/v2_2020-12-06_dh_200-prng-1,30_issda_200,200,rng-200,41,rng,num-start-951,951,25726,23.955486297607422,True,,True,1,False,1000,True,1.0
./expes/v2_2020-12-06_dh_200-prng-1,30_issda_200,200,rng-200,1,rng,num-start-561,561,25726,12.604202508926392,True,,True,1,False,1000,True,1.0
./expes/v2_2020-12-06_dh_200-prng-1,30_issda_200,200,rng-200,81,rng,num-start-241,241,25726,6.2466349601745605,True,,True,1,False,1000,True,1.0
./expes/v2_2020-12-06_dh_200-prng-1,30_issda_200,200,rng-200,191,rng,num-start-901,901,25726,20.493224143981934,True,,True,1,False,1000,True,1.0
./expes/v2_2020-12-06_dh_200-prng-1,30_issda_200,200,rng-200,151,rng,num-start-51,51,25726,735.3064467906952,True,,True,1,False,1000,True,1.0
./expes/v2_2020-12-06_dh_200-prng-1,30_issda_200,200,rng-200,81,rng,num-start-791,791,25726,17.576457738876343,True,,True,1,False,1000,True,1.0
./expes/v2_2020-12-06_dh_200-prng-1,30_issda_200,200,rng-200,21,rng,num-start-601,601,25726,13.56554889678955,True,,True,1,False,1000,True,1.0
./expes/v2_2020-12-06_dh_200-prng-1,30_issda_200,200,rng-200,111,rng,num-start-951,951,25726,22.064350128173828,True,,True,1,False,1000,True,1.0
./expes/v2_2020-12-06_dh_200-prng-1,30_issda_200,200,rng-200,71,rng,num-start-871,871,25726,20.040873050689697,True,,True,1,False,1000,True,1.0
./expes/v2_2020-12-06_dh_200-prng-1,30_issda_200,200,rng-200,41,rng,num-start-31,31,25726,1000.8575336933136,False,,False,0,True,1000,True,0.0
./expes/v2_2020-12-06_dh_200-prng-1,30_issda_200,200,rng-200,101,rng,num-start-931,931,25726,21.940144538879395,True,,True,1,False,1000,True,1.0
./expes/v2_2020-12-06_dh_200-prng-1,30_issda_200,200,rng-200,131,rng,num-start-741,741,25726,16.84085750579834,True,,True,1,False,1000,True,1.0
./expes/v2_2020-12-06_dh_200-prng-1,30_issda_200,200,rng-200,121,rng,num-start-271,271,25726,6.310313940048218,True,,True,1,False,1000,True,1.0
./expes/v2_2020-12-06_dh_200-prng-1,30_issda_200,200,rng-200,61,rng,num-start-311,311,25726,7.7580766677856445,True,,True,1,False,1000,True,1.0
./expes/v2_2020-12-06_dh_200-prng-1,30_issda_200,200,rng-200,71,rng,num-start-821,821,25726,19.94672203063965,True,,True,1,False,1000,True,1.0
./expes/v2_2020-12-06_dh_200-prng-1,30_issda_200,200,rng-200,71,rng,num-start-301,301,25726,7.413750886917114,True,,True,1,False,1000,True,1.0
./expes/v2_2020-12-06_dh_200-prng-1,30_issda_200,200,rng-200,131,rng,num-start-331,331,25726,12.019091606140137,True,,True,1,False,1000,True,1.0
./expes/v2_2020-12-06_dh_200-prng-1,30_issda_200,200,rng-200,21,rng,num-start-11,11,25726,1008.0094134807587,False,,False,0,True,1000,True,0.0
./expes/v2_2020-12-06_dh_200-prng-1,30_issda_200,200,rng-200,71,rng,num-start-301,301,25726,8.064784049987793,True,,True,1,False,1000,True,1.0
./expes/v2_2020-12-06_dh_200-prng-1,30_issda_200,200,rng-200,161,rng,num-start-961,961,25726,27.18600630760193,True,,True,1,False,1000,True,1.0
./expes/v2_2020-12-06_dh_200-prng-1,30_issda_200,200,rng-200,171,rng,num-start-41,41,25726,2.448490858078003,True,,True,1,False,1000,True,1.0
./expes/v2_2020-12-06_dh_200-prng-1,30_issda_200,200,rng-200,111,rng,num-start-261,261,25726,9.867573738098145,True,,True,1,False,1000,True,1.0
./expes/v2_2020-12-06_dh_200-prng-1,30_issda_200,200,rng-200,121,rng,num-start-351,351,25726,10.431620359420776,True,,True,1,False,1000,True,1.0
./expes/v2_2020-12-06_dh_200-prng-1,30_issda_200,200,rng-200,191,rng,num-start-411,411,25726,27.21712017059326,True,,True,1,False,1000,True,1.0
./expes/v2_2020-12-06_dh_200-prng-1,30_issda_200,200,rng-200,191,rng,num-start-231,231,25726,5.7820234298706055,True,,True,1,False,1000,True,1.0
./expes/v2_2020-12-06_dh_200-prng-1,30_issda_200,200,rng-200,171,rng,num-start-951,951,25726,27.185950994491577,True,,True,1,False,1000,True,1.0
./expes/v2_2020-12-06_dh_200-prng-1,30_issda_200,200,rng-200,141,rng,num-start-801,801,25726,49.16348719596863,True,,True,1,False,1000,True,1.0
./expes/v2_2020-12-06_dh_200-prng-1,30_issda_200,200,rng-200,51,rng,num-start-521,521,25726,36.03389501571655,True,,True,1,False,1000,True,1.0
./expes/v2_2020-12-06_dh_200-prng-1,30_issda_200,200,rng-200,71,rng,num-start-681,681,25726,18.457323789596558,True,,True,1,False,1000,True,1.0
./expes/v2_2020-12-06_dh_200-prng-1,30_issda_200,200,rng-200,181,rng,num-start-351,351,25726,12.091665983200073,True,,True,1,False,1000,True,1.0
./expes/v2_2020-12-06_dh_200-prng-1,30_issda_200,200,rng-200,101,rng,num-start-241,241,25726,16.632933855056763,True,,True,1,False,1000,True,1.0
./expes/v2_2020-12-06_dh_200-prng-1,30_issda_200,200,rng-200,61,rng,num-start-421,421,25726,29.855442762374878,True,,True,1,False,1000,True,1.0
./expes/v2_2020-12-06_dh_200-prng-1,30_issda_200,200,rng-200,131,rng,num-start-801,801,25726,18.8844051361084,True,,True,1,False,1000,True,1.0
./expes/v2_2020-12-06_dh_200-prng-1,30_issda_200,200,rng-200,61,rng,num-start-721,721,25726,16.805729627609253,True,,True,1,False,1000,True,1.0
./expes/v2_2020-12-06_dh_200-prng-1,30_issda_200,200,rng-200,191,rng,num-start-201,201,25726,4.662541627883911,True,,True,1,False,1000,True,1.0
./expes/v2_2020-12-06_dh_200-prng-1,30_issda_200,200,rng-200,131,rng,num-start-711,711,25726,15.390345573425293,True,,True,1,False,1000,True,1.0
./expes/v2_2020-12-06_dh_200-prng-1,30_issda_200,200,rng-200,41,rng,num-start-851,851,25726,22.643054008483887,True,,True,1,False,1000,True,1.0
./expes/v2_2020-12-06_dh_200-prng-1,30_issda_200,200,rng-200,41,rng,num-start-21,21,25726,1003.3858184814453,False,,False,0,True,1000,True,0.0
./expes/v2_2020-12-06_dh_200-prng-1,30_issda_200,200,rng-200,81,rng,num-start-321,321,25726,7.613546848297119,True,,True,1,False,1000,True,1.0
./expes/v2_2020-12-06_dh_200-prng-1,30_issda_200,200,rng-200,171,rng,num-start-681,681,25726,16.477314233779907,True,,True,1,False,1000,True,1.0
./expes/v2_2020-12-06_dh_200-prng-1,30_issda_200,200,rng-200,1,rng,num-start-711,711,25726,16.61654019355774,True,,True,1,False,1000,True,1.0
./expes/v2_2020-12-06_dh_200-prng-1,30_issda_200,200,rng-200,141,rng,num-start-951,951,25726,24.213308334350586,True,,True,1,False,1000,True,1.0
./expes/v2_2020-12-06_dh_200-prng-1,30_issda_200,200,rng-200,1,rng,num-start-421,421,25726,17.148629665374756,True,,True,1,False,1000,True,1.0
./expes/v2_2020-12-06_dh_200-prng-1,30_issda_200,200,rng-200,181,rng,num-start-11,11,25726,1001.5068454742432,False,,False,0,True,1000,True,0.0
./expes/v2_2020-12-06_dh_200-prng-1,30_issda_200,200,rng-200,141,rng,num-start-51,51,25726,530.6238777637482,True,,True,1,False,1000,True,1.0
./expes/v2_2020-12-06_dh_200-prng-1,30_issda_200,200,rng-200,81,rng,num-start-911,911,25726,21.579603910446167,True,,True,1,False,1000,True,1.0
./expes/v2_2020-12-06_dh_200-prng-1,30_issda_200,200,rng-200,91,rng,num-start-121,121,25726,8.384173393249512,True,,True,1,False,1000,True,1.0
./expes/v2_2020-12-06_dh_200-prng-1,30_issda_200,200,rng-200,11,rng,num-start-391,391,25726,8.533282041549683,True,,True,1,False,1000,True,1.0
./expes/v2_2020-12-06_dh_200-prng-1,30_issda_200,200,rng-200,111,rng,num-start-991,991,25726,31.20845079421997,True,,True,1,False,1000,True,1.0
./expes/v2_2020-12-06_dh_200-prng-1,30_issda_200,200,rng-200,181,rng,num-start-671,671,25726,18.501806259155273,True,,True,1,False,1000,True,1.0
./expes/v2_2020-12-06_dh_200-prng-1,30_issda_200,200,rng-200,141,rng,num-start-331,331,25726,13.22205638885498,True,,True,1,False,1000,True,1.0
./expes/v2_2020-12-06_dh_200-prng-1,30_issda_200,200,rng-200,161,rng,num-start-591,591,25726,15.36963677406311,True,,True,1,False,1000,True,1.0
./expes/v2_2020-12-06_dh_200-prng-1,30_issda_200,200,rng-200,1,rng,num-start-651,651,25726,18.544434309005737,True,,True,1,False,1000,True,1.0
./expes/v2_2020-12-06_dh_200-prng-1,30_issda_200,200,rng-200,121,rng,num-start-901,901,25726,22.497770071029663,True,,True,1,False,1000,True,1.0
./expes/v2_2020-12-06_dh_200-prng-1,30_issda_200,200,rng-200,161,rng,num-start-541,541,25726,13.120121240615845,True,,True,1,False,1000,True,1.0
./expes/v2_2020-12-06_dh_200-prng-1,30_issda_200,200,rng-200,151,rng,num-start-511,511,25726,13.17051362991333,True,,True,1,False,1000,True,1.0
./expes/v2_2020-12-06_dh_200-prng-1,30_issda_200,200,rng-200,141,rng,num-start-791,791,25726,19.377934217453003,True,,True,1,False,1000,True,1.0
./expes/v2_2020-12-06_dh_200-prng-1,30_issda_200,200,rng-200,41,rng,num-start-91,91,25726,3.14070725440979,True,,True,1,False,1000,True,1.0
./expes/v2_2020-12-06_dh_200-prng-1,30_issda_200,200,rng-200,71,rng,num-start-431,431,25726,15.197287321090698,True,,True,1,False,1000,True,1.0
./expes/v2_2020-12-06_dh_200-prng-1,30_issda_200,200,rng-200,61,rng,num-start-781,781,25726,20.34757924079895,True,,True,1,False,1000,True,1.0
./expes/v2_2020-12-06_dh_200-prng-1,30_issda_200,200,rng-200,21,rng,num-start-531,531,25726,14.101483345031738,True,,True,1,False,1000,True,1.0
./expes/v2_2020-12-06_dh_200-prng-1,30_issda_200,200,rng-200,51,rng,num-start-471,471,25726,13.686103820800781,True,,True,1,False,1000,True,1.0
./expes/v2_2020-12-06_dh_200-prng-1,30_issda_200,200,rng-200,141,rng,num-start-201,201,25726,5.149893522262573,True,,True,1,False,1000,True,1.0
./expes/v2_2020-12-06_dh_200-prng-1,30_issda_200,200,rng-200,61,rng,num-start-561,561,25726,14.432579755783081,True,,True,1,False,1000,True,1.0
./expes/v2_2020-12-06_dh_200-prng-1,30_issda_200,200,rng-200,101,rng,num-start-161,161,25726,4.497012138366699,True,,True,1,False,1000,True,1.0
./expes/v2_2020-12-06_dh_200-prng-1,30_issda_200,200,rng-200,101,rng,num-start-341,341,25726,23.45151996612549,True,,True,1,False,1000,True,1.0
./expes/v2_2020-12-06_dh_200-prng-1,30_issda_200,200,rng-200,11,rng,num-start-851,851,25726,24.340903282165527,True,,True,1,False,1000,True,1.0
./expes/v2_2020-12-06_dh_200-prng-1,30_issda_200,200,rng-200,31,rng,num-start-41,41,25726,5.016821622848511,True,,True,1,False,1000,True,1.0
./expes/v2_2020-12-06_dh_200-prng-1,30_issda_200,200,rng-200,51,rng,num-start-131,131,25726,7.27025032043457,True,,True,1,False,1000,True,1.0
./expes/v2_2020-12-06_dh_200-prng-1,30_issda_200,200,rng-200,1,rng,num-start-761,761,25726,20.244760036468506,True,,True,1,False,1000,True,1.0
./expes/v2_2020-12-06_dh_200-prng-1,30_issda_200,200,rng-200,21,rng,num-start-251,251,25726,8.40665602684021,True,,True,1,False,1000,True,1.0
./expes/v2_2020-12-06_dh_200-prng-1,30_issda_200,200,rng-200,191,rng,num-start-971,971,25726,24.824525356292725,True,,True,1,False,1000,True,1.0
./expes/v2_2020-12-06_dh_200-prng-1,30_issda_200,200,rng-200,41,rng,num-start-731,731,25726,21.246816396713257,True,,True,1,False,1000,True,1.0
./expes/v2_2020-12-06_dh_200-prng-1,30_issda_200,200,rng-200,131,rng,num-start-1,1,25726,0.9551570415496826,False,,False,2,False,1000,True,1.0
./expes/v2_2020-12-06_dh_200-prng-1,30_issda_200,200,rng-200,61,rng,num-start-141,141,25726,17.030044078826904,True,,True,1,False,1000,True,1.0
./expes/v2_2020-12-06_dh_200-prng-1,30_issda_200,200,rng-200,21,rng,num-start-431,431,25726,11.558388233184814,True,,True,1,False,1000,True,1.0
./expes/v2_2020-12-06_dh_200-prng-1,30_issda_200,200,rng-200,11,rng,num-start-271,271,25726,9.373641729354858,True,,True,1,False,1000,True,1.0
./expes/v2_2020-12-06_dh_200-prng-1,30_issda_200,200,rng-200,41,rng,num-start-751,751,25726,18.83882188796997,True,,True,1,False,1000,True,1.0
./expes/v2_2020-12-06_dh_200-prng-1,30_issda_200,200,rng-200,181,rng,num-start-561,561,25726,12.943114042282104,True,,True,1,False,1000,True,1.0
./expes/v2_2020-12-06_dh_200-prng-1,30_issda_200,200,rng-200,191,rng,num-start-221,221,25726,5.271245002746582,True,,True,1,False,1000,True,1.0
./expes/v2_2020-12-06_dh_200-prng-1,30_issda_200,200,rng-200,151,rng,num-start-751,751,25726,28.133384943008423,True,,True,1,False,1000,True,1.0
./expes/v2_2020-12-06_dh_200-prng-1,30_issda_200,200,rng-200,91,rng,num-start-141,141,25726,10.694685459136963,True,,True,1,False,1000,True,1.0
./expes/v2_2020-12-06_dh_200-prng-1,30_issda_200,200,rng-200,31,rng,num-start-981,981,25726,33.464706897735596,True,,True,1,False,1000,True,1.0
./expes/v2_2020-12-06_dh_200-prng-1,30_issda_200,200,rng-200,151,rng,num-start-911,911,25726,39.068246603012085,True,,True,1,False,1000,True,1.0
./expes/v2_2020-12-06_dh_200-prng-1,30_issda_200,200,rng-200,71,rng,num-start-871,871,25726,31.83310604095459,True,,True,1,False,1000,True,1.0
./expes/v2_2020-12-06_dh_200-prng-1,30_issda_200,200,rng-200,151,rng,num-start-161,161,25726,4.759220361709595,True,,True,1,False,1000,True,1.0
./expes/v2_2020-12-06_dh_200-prng-1,30_issda_200,200,rng-200,161,rng,num-start-941,941,25726,22.347913026809692,True,,True,1,False,1000,True,1.0
./expes/v2_2020-12-06_dh_200-prng-1,30_issda_200,200,rng-200,61,rng,num-start-531,531,25726,16.757460355758667,True,,True,1,False,1000,True,1.0
./expes/v2_2020-12-06_dh_200-prng-1,30_issda_200,200,rng-200,131,rng,num-start-911,911,25726,21.21322274208069,True,,True,1,False,1000,True,1.0
./expes/v2_2020-12-06_dh_200-prng-1,30_issda_200,200,rng-200,141,rng,num-start-141,141,25726,7.048353672027588,True,,True,1,False,1000,True,1.0
./expes/v2_2020-12-06_dh_200-prng-1,30_issda_200,200,rng-200,111,rng,num-start-761,761,25726,17.87293577194214,True,,True,1,False,1000,True,1.0
./expes/v2_2020-12-06_dh_200-prng-1,30_issda_200,200,rng-200,91,rng,num-start-171,171,25726,7.273035764694214,True,,True,1,False,1000,True,1.0
./expes/v2_2020-12-06_dh_200-prng-1,30_issda_200,200,rng-200,111,rng,num-start-861,861,25726,32.766844034194946,True,,True,1,False,1000,True,1.0
./expes/v2_2020-12-06_dh_200-prng-1,30_issda_200,200,rng-200,181,rng,num-start-371,371,25726,14.574439525604248,True,,True,1,False,1000,True,1.0
./expes/v2_2020-12-06_dh_200-prng-1,30_issda_200,200,rng-200,101,rng,num-start-801,801,25726,21.56290030479431,True,,True,1,False,1000,True,1.0
./expes/v2_2020-12-06_dh_200-prng-1,30_issda_200,200,rng-200,121,rng,num-start-941,941,25726,30.119559049606323,True,,True,1,False,1000,True,1.0
./expes/v2_2020-12-06_dh_200-prng-1,30_issda_200,200,rng-200,171,rng,num-start-691,691,25726,16.95704698562622,True,,True,1,False,1000,True,1.0
./expes/v2_2020-12-06_dh_200-prng-1,30_issda_200,200,rng-200,1,rng,num-start-161,161,25726,4.2480998039245605,True,,True,1,False,1000,True,1.0
./expes/v2_2020-12-06_dh_200-prng-1,30_issda_200,200,rng-200,71,rng,num-start-481,481,25726,30.17294979095459,True,,True,1,False,1000,True,1.0
./expes/v2_2020-12-06_dh_200-prng-1,30_issda_200,200,rng-200,21,rng,num-start-321,321,25726,17.56180691719055,True,,True,1,False,1000,True,1.0
./expes/v2_2020-12-06_dh_200-prng-1,30_issda_200,200,rng-200,161,rng,num-start-321,321,25726,7.472437858581543,True,,True,1,False,1000,True,1.0
./expes/v2_2020-12-06_dh_200-prng-1,30_issda_200,200,rng-200,81,rng,num-start-191,191,25726,19.186333417892456,True,,True,1,False,1000,True,1.0
./expes/v2_2020-12-06_dh_200-prng-1,30_issda_200,200,rng-200,101,rng,num-start-221,221,25726,18.03305149078369,True,,True,1,False,1000,True,1.0
./expes/v2_2020-12-06_dh_200-prng-1,30_issda_200,200,rng-200,61,rng,num-start-161,161,25726,3.9062466621398926,True,,True,1,False,1000,True,1.0
./expes/v2_2020-12-06_dh_200-prng-1,30_issda_200,200,rng-200,171,rng,num-start-731,731,25726,17.4379665851593,True,,True,1,False,1000,True,1.0
./expes/v2_2020-12-06_dh_200-prng-1,30_issda_200,200,rng-200,91,rng,num-start-231,231,25726,5.523075819015503,True,,True,1,False,1000,True,1.0
./expes/v2_2020-12-06_dh_200-prng-1,30_issda_200,200,rng-200,121,rng,num-start-411,411,25726,9.814908027648926,True,,True,1,False,1000,True,1.0
./expes/v2_2020-12-06_dh_200-prng-1,30_issda_200,200,rng-200,161,rng,num-start-951,951,25726,24.478925228118896,True,,True,1,False,1000,True,1.0
./expes/v2_2020-12-06_dh_200-prng-1,30_issda_200,200,rng-200,31,rng,num-start-991,991,25726,27.359108448028564,True,,True,1,False,1000,True,1.0
./expes/v2_2020-12-06_dh_200-prng-1,30_issda_200,200,rng-200,161,rng,num-start-181,181,25726,4.344035387039185,True,,True,1,False,1000,True,1.0
./expes/v2_2020-12-06_dh_200-prng-1,30_issda_200,200,rng-200,161,rng,num-start-161,161,25726,3.8755624294281006,True,,True,1,False,1000,True,1.0
./expes/v2_2020-12-06_dh_200-prng-1,30_issda_200,200,rng-200,41,rng,num-start-771,771,25726,42.48586106300354,True,,True,1,False,1000,True,1.0
./expes/v2_2020-12-06_dh_200-prng-1,30_issda_200,200,rng-200,91,rng,num-start-681,681,25726,16.65648317337036,True,,True,1,False,1000,True,1.0
./expes/v2_2020-12-06_dh_200-prng-1,30_issda_200,200,rng-200,121,rng,num-start-881,881,25726,29.62548542022705,True,,True,1,False,1000,True,1.0
./expes/v2_2020-12-06_dh_200-prng-1,30_issda_200,200,rng-200,181,rng,num-start-841,841,25726,20.6276535987854,True,,True,1,False,1000,True,1.0
./expes/v2_2020-12-06_dh_200-prng-1,30_issda_200,200,rng-200,181,rng,num-start-861,861,25726,22.360015153884888,True,,True,1,False,1000,True,1.0
./expes/v2_2020-12-06_dh_200-prng-1,30_issda_200,200,rng-200,161,rng,num-start-881,881,25726,23.144964456558228,True,,True,1,False,1000,True,1.0
./expes/v2_2020-12-06_dh_200-prng-1,30_issda_200,200,rng-200,101,rng,num-start-521,521,25726,18.675045251846313,True,,True,1,False,1000,True,1.0
./expes/v2_2020-12-06_dh_200-prng-1,30_issda_200,200,rng-200,31,rng,num-start-421,421,25726,10.543134450912476,True,,True,1,False,1000,True,1.0
./expes/v2_2020-12-06_dh_200-prng-1,30_issda_200,200,rng-200,91,rng,num-start-601,601,25726,15.044555902481079,True,,True,1,False,1000,True,1.0
./expes/v2_2020-12-06_dh_200-prng-1,30_issda_200,200,rng-200,141,rng,num-start-431,431,25726,10.729361534118652,True,,True,1,False,1000,True,1.0
./expes/v2_2020-12-06_dh_200-prng-1,30_issda_200,200,rng-200,11,rng,num-start-111,111,25726,2.9009482860565186,True,,True,1,False,1000,True,1.0
./expes/v2_2020-12-06_dh_200-prng-1,30_issda_200,200,rng-200,111,rng,num-start-731,731,25726,18.2709903717041,True,,True,1,False,1000,True,1.0
./expes/v2_2020-12-06_dh_200-prng-1,30_issda_200,200,rng-200,31,rng,num-start-241,241,25726,11.889230012893677,True,,True,1,False,1000,True,1.0
./expes/v2_2020-12-06_dh_200-prng-1,30_issda_200,200,rng-200,191,rng,num-start-451,451,25726,12.962540864944458,True,,True,1,False,1000,True,1.0
./expes/v2_2020-12-06_dh_200-prng-1,30_issda_200,200,rng-200,171,rng,num-start-451,451,25726,11.54836130142212,True,,True,1,False,1000,True,1.0
./expes/v2_2020-12-06_dh_200-prng-1,30_issda_200,200,rng-200,1,rng,num-start-921,921,25726,20.333986043930054,True,,True,1,False,1000,True,1.0
./expes/v2_2020-12-06_dh_200-prng-1,30_issda_200,200,rng-200,171,rng,num-start-211,211,25726,5.482524633407593,True,,True,1,False,1000,True,1.0
./expes/v2_2020-12-06_dh_200-prng-1,30_issda_200,200,rng-200,51,rng,num-start-581,581,25726,15.74152946472168,True,,True,1,False,1000,True,1.0
./expes/v2_2020-12-06_dh_200-prng-1,30_issda_200,200,rng-200,101,rng,num-start-881,881,25726,25.489525318145752,True,,True,1,False,1000,True,1.0
./expes/v2_2020-12-06_dh_200-prng-1,30_issda_200,200,rng-200,121,rng,num-start-551,551,25726,13.928818464279175,True,,True,1,False,1000,True,1.0
./expes/v2_2020-12-06_dh_200-prng-1,30_issda_200,200,rng-200,91,rng,num-start-791,791,25726,18.50988245010376,True,,True,1,False,1000,True,1.0
./expes/v2_2020-12-06_dh_200-prng-1,30_issda_200,200,rng-200,1,rng,num-start-901,901,25726,19.617910623550415,True,,True,1,False,1000,True,1.0
./expes/v2_2020-12-06_dh_200-prng-1,30_issda_200,200,rng-200,61,rng,num-start-141,141,25726,3.7759616374969482,True,,True,1,False,1000,True,1.0
./expes/v2_2020-12-06_dh_200-prng-1,30_issda_200,200,rng-200,61,rng,num-start-681,681,25726,16.695537328720093,True,,True,1,False,1000,True,1.0
./expes/v2_2020-12-06_dh_200-prng-1,30_issda_200,200,rng-200,41,rng,num-start-701,701,25726,16.91295027732849,True,,True,1,False,1000,True,1.0
./expes/v2_2020-12-06_dh_200-prng-1,30_issda_200,200,rng-200,61,rng,num-start-881,881,25726,37.27750253677368,True,,True,1,False,1000,True,1.0
./expes/v2_2020-12-06_dh_200-prng-1,30_issda_200,200,rng-200,111,rng,num-start-681,681,25726,17.071086645126343,True,,True,1,False,1000,True,1.0
./expes/v2_2020-12-06_dh_200-prng-1,30_issda_200,200,rng-200,151,rng,num-start-161,161,25726,19.51486873626709,True,,True,1,False,1000,True,1.0
./expes/v2_2020-12-06_dh_200-prng-1,30_issda_200,200,rng-200,101,rng,num-start-541,541,25726,12.954126596450806,True,,True,1,False,1000,True,1.0
./expes/v2_2020-12-06_dh_200-prng-1,30_issda_200,200,rng-200,81,rng,num-start-761,761,25726,17.568023681640625,True,,True,1,False,1000,True,1.0
./expes/v2_2020-12-06_dh_200-prng-1,30_issda_200,200,rng-200,111,rng,num-start-641,641,25726,19.010793447494507,True,,True,1,False,1000,True,1.0
./expes/v2_2020-12-06_dh_200-prng-1,30_issda_200,200,rng-200,181,rng,num-start-521,521,25726,16.402248859405518,True,,True,1,False,1000,True,1.0
./expes/v2_2020-12-06_dh_200-prng-1,30_issda_200,200,rng-200,21,rng,num-start-931,931,25726,22.61847710609436,True,,True,1,False,1000,True,1.0
./expes/v2_2020-12-06_dh_200-prng-1,30_issda_200,200,rng-200,131,rng,num-start-231,231,25726,9.042751789093018,True,,True,1,False,1000,True,1.0
./expes/v2_2020-12-06_dh_200-prng-1,30_issda_200,200,rng-200,31,rng,num-start-941,941,25726,23.44898748397827,True,,True,1,False,1000,True,1.0
./expes/v2_2020-12-06_dh_200-prng-1,30_issda_200,200,rng-200,171,rng,num-start-841,841,25726,20.053518772125244,True,,True,1,False,1000,True,1.0
./expes/v2_2020-12-06_dh_200-prng-1,30_issda_200,200,rng-200,81,rng,num-start-401,401,25726,9.591033458709717,True,,True,1,False,1000,True,1.0
./expes/v2_2020-12-06_dh_200-prng-1,30_issda_200,200,rng-200,51,rng,num-start-441,441,25726,11.465298891067505,True,,True,1,False,1000,True,1.0
./expes/v2_2020-12-06_dh_200-prng-1,30_issda_200,200,rng-200,11,rng,num-start-391,391,25726,9.279228925704956,True,,True,1,False,1000,True,1.0
./expes/v2_2020-12-06_dh_200-prng-1,30_issda_200,200,rng-200,91,rng,num-start-231,231,25726,25.08561396598816,True,,True,1,False,1000,True,1.0
./expes/v2_2020-12-06_dh_200-prng-1,30_issda_200,200,rng-200,111,rng,num-start-811,811,25726,25.560889720916748,True,,True,1,False,1000,True,1.0
./expes/v2_2020-12-06_dh_200-prng-1,30_issda_200,200,rng-200,91,rng,num-start-641,641,25726,16.096042156219482,True,,True,1,False,1000,True,1.0
./expes/v2_2020-12-06_dh_200-prng-1,30_issda_200,200,rng-200,1,rng,num-start-11,11,25726,0.24960112571716309,True,,True,1,False,1000,True,1.0
./expes/v2_2020-12-06_dh_200-prng-1,30_issda_200,200,rng-200,21,rng,num-start-841,841,25726,20.552915811538696,True,,True,1,False,1000,True,1.0
./expes/v2_2020-12-06_dh_200-prng-1,30_issda_200,200,rng-200,131,rng,num-start-321,321,25726,9.688731908798218,True,,True,1,False,1000,True,1.0
./expes/v2_2020-12-06_dh_200-prng-1,30_issda_200,200,rng-200,121,rng,num-start-691,691,25726,17.01533555984497,True,,True,1,False,1000,True,1.0
./expes/v2_2020-12-06_dh_200-prng-1,30_issda_200,200,rng-200,181,rng,num-start-991,991,25726,23.60598087310791,True,,True,1,False,1000,True,1.0
./expes/v2_2020-12-06_dh_200-prng-1,30_issda_200,200,rng-200,31,rng,num-start-371,371,25726,9.071006774902344,True,,True,1,False,1000,True,1.0
./expes/v2_2020-12-06_dh_200-prng-1,30_issda_200,200,rng-200,11,rng,num-start-891,891,25726,21.568466424942017,True,,True,1,False,1000,True,1.0
./expes/v2_2020-12-06_dh_200-prng-1,30_issda_200,200,rng-200,11,rng,num-start-891,891,25726,21.10651683807373,True,,True,1,False,1000,True,1.0
./expes/v2_2020-12-06_dh_200-prng-1,30_issda_200,200,rng-200,91,rng,num-start-91,91,25726,3.6941471099853516,True,,True,1,False,1000,True,1.0
./expes/v2_2020-12-06_dh_200-prng-1,30_issda_200,200,rng-200,121,rng,num-start-721,721,25726,18.120747089385986,True,,True,1,False,1000,True,1.0
./expes/v2_2020-12-06_dh_200-prng-1,30_issda_200,200,rng-200,111,rng,num-start-901,901,25726,20.810633420944214,True,,True,1,False,1000,True,1.0
./expes/v2_2020-12-06_dh_200-prng-1,30_issda_200,200,rng-200,11,rng,num-start-451,451,25726,11.790417909622192,True,,True,1,False,1000,True,1.0
./expes/v2_2020-12-06_dh_200-prng-1,30_issda_200,200,rng-200,81,rng,num-start-191,191,25726,4.847040891647339,True,,True,1,False,1000,True,1.0
./expes/v2_2020-12-06_dh_200-prng-1,30_issda_200,200,rng-200,141,rng,num-start-371,371,25726,17.111164808273315,True,,True,1,False,1000,True,1.0
./expes/v2_2020-12-06_dh_200-prng-1,30_issda_200,200,rng-200,191,rng,num-start-91,91,25726,2.207730293273926,True,,True,1,False,1000,True,1.0
./expes/v2_2020-12-06_dh_200-prng-1,30_issda_200,200,rng-200,11,rng,num-start-821,821,25726,25.498380422592163,True,,True,1,False,1000,True,1.0
./expes/v2_2020-12-06_dh_200-prng-1,30_issda_200,200,rng-200,141,rng,num-start-301,301,25726,23.72501540184021,True,,True,1,False,1000,True,1.0
./expes/v2_2020-12-06_dh_200-prng-1,30_issda_200,200,rng-200,191,rng,num-start-751,751,25726,49.174766540527344,True,,True,1,False,1000,True,1.0
./expes/v2_2020-12-06_dh_200-prng-1,30_issda_200,200,rng-200,31,rng,num-start-211,211,25726,8.83362364768982,True,,True,1,False,1000,True,1.0
./expes/v2_2020-12-06_dh_200-prng-1,30_issda_200,200,rng-200,41,rng,num-start-531,531,25726,12.888856649398804,True,,True,1,False,1000,True,1.0
./expes/v2_2020-12-06_dh_200-prng-1,30_issda_200,200,rng-200,21,rng,num-start-221,221,25726,10.621014595031738,True,,True,1,False,1000,True,1.0
./expes/v2_2020-12-06_dh_200-prng-1,30_issda_200,200,rng-200,191,rng,num-start-651,651,25726,21.88105535507202,True,,True,1,False,1000,True,1.0
./expes/v2_2020-12-06_dh_200-prng-1,30_issda_200,200,rng-200,31,rng,num-start-671,671,25726,16.381091594696045,True,,True,1,False,1000,True,1.0
./expes/v2_2020-12-06_dh_200-prng-1,30_issda_200,200,rng-200,71,rng,num-start-251,251,25726,5.821386814117432,True,,True,1,False,1000,True,1.0
./expes/v2_2020-12-06_dh_200-prng-1,30_issda_200,200,rng-200,61,rng,num-start-741,741,25726,19.408658981323242,True,,True,1,False,1000,True,1.0
./expes/v2_2020-12-06_dh_200-prng-1,30_issda_200,200,rng-200,101,rng,num-start-391,391,25726,8.88393497467041,True,,True,1,False,1000,True,1.0
./expes/v2_2020-12-06_dh_200-prng-1,30_issda_200,200,rng-200,141,rng,num-start-61,61,25726,2.956671953201294,True,,True,1,False,1000,True,1.0
./expes/v2_2020-12-06_dh_200-prng-1,30_issda_200,200,rng-200,41,rng,num-start-901,901,25726,22.519851446151733,True,,True,1,False,1000,True,1.0
./expes/v2_2020-12-06_dh_200-prng-1,30_issda_200,200,rng-200,41,rng,num-start-451,451,25726,11.132129430770874,True,,True,1,False,1000,True,1.0
./expes/v2_2020-12-06_dh_200-prng-1,30_issda_200,200,rng-200,101,rng,num-start-261,261,25726,6.240397214889526,True,,True,1,False,1000,True,1.0
./expes/v2_2020-12-06_dh_200-prng-1,30_issda_200,200,rng-200,21,rng,num-start-231,231,25726,5.53844141960144,True,,True,1,False,1000,True,1.0
./expes/v2_2020-12-06_dh_200-prng-1,30_issda_200,200,rng-200,81,rng,num-start-371,371,25726,9.188201904296875,True,,True,1,False,1000,True,1.0
./expes/v2_2020-12-06_dh_200-prng-1,30_issda_200,200,rng-200,61,rng,num-start-851,851,25726,20.592435598373413,True,,True,1,False,1000,True,1.0
./expes/v2_2020-12-06_dh_200-prng-1,30_issda_200,200,rng-200,101,rng,num-start-141,141,25726,3.6007843017578125,True,,True,1,False,1000,True,1.0
./expes/v2_2020-12-06_dh_200-prng-1,30_issda_200,200,rng-200,101,rng,num-start-761,761,25726,18.03344750404358,True,,True,1,False,1000,True,1.0
./expes/v2_2020-12-06_dh_200-prng-1,30_issda_200,200,rng-200,21,rng,num-start-831,831,25726,19.08377766609192,True,,True,1,False,1000,True,1.0
./expes/v2_2020-12-06_dh_200-prng-1,30_issda_200,200,rng-200,81,rng,num-start-71,71,25726,5.3178582191467285,True,,True,1,False,1000,True,1.0
./expes/v2_2020-12-06_dh_200-prng-1,30_issda_200,200,rng-200,91,rng,num-start-911,911,25726,21.43315863609314,True,,True,1,False,1000,True,1.0
./expes/v2_2020-12-06_dh_200-prng-1,30_issda_200,200,rng-200,131,rng,num-start-371,371,25726,8.309767723083496,True,,True,1,False,1000,True,1.0
./expes/v2_2020-12-06_dh_200-prng-1,30_issda_200,200,rng-200,31,rng,num-start-951,951,25726,21.26053547859192,True,,True,1,False,1000,True,1.0
./expes/v2_2020-12-06_dh_200-prng-1,30_issda_200,200,rng-200,51,rng,num-start-931,931,25726,22.189592838287354,True,,True,1,False,1000,True,1.0
./expes/v2_2020-12-06_dh_200-prng-1,30_issda_200,200,rng-200,21,rng,num-start-961,961,25726,24.07037615776062,True,,True,1,False,1000,True,1.0
./expes/v2_2020-12-06_dh_200-prng-1,30_issda_200,200,rng-200,101,rng,num-start-641,641,25726,15.319740772247314,True,,True,1,False,1000,True,1.0
./expes/v2_2020-12-06_dh_200-prng-1,30_issda_200,200,rng-200,31,rng,num-start-291,291,25726,7.19933557510376,True,,True,1,False,1000,True,1.0
./expes/v2_2020-12-06_dh_200-prng-1,30_issda_200,200,rng-200,131,rng,num-start-381,381,25726,8.836930751800537,True,,True,1,False,1000,True,1.0
./expes/v2_2020-12-06_dh_200-prng-1,30_issda_200,200,rng-200,31,rng,num-start-441,441,25726,10.191788911819458,True,,True,1,False,1000,True,1.0
./expes/v2_2020-12-06_dh_200-prng-1,30_issda_200,200,rng-200,191,rng,num-start-391,391,25726,8.376547813415527,True,,True,1,False,1000,True,1.0
./expes/v2_2020-12-06_dh_200-prng-1,30_issda_200,200,rng-200,171,rng,num-start-11,11,25726,1000.5414814949036,False,,False,0,True,1000,True,0.0
./expes/v2_2020-12-06_dh_200-prng-1,30_issda_200,200,rng-200,191,rng,num-start-741,741,25726,22.450578212738037,True,,True,1,False,1000,True,1.0
./expes/v2_2020-12-06_dh_200-prng-1,30_issda_200,200,rng-200,81,rng,num-start-421,421,25726,25.426798105239868,True,,True,1,False,1000,True,1.0
./expes/v2_2020-12-06_dh_200-prng-1,30_issda_200,200,rng-200,161,rng,num-start-451,451,25726,22.24310040473938,True,,True,1,False,1000,True,1.0
./expes/v2_2020-12-06_dh_200-prng-1,30_issda_200,200,rng-200,61,rng,num-start-471,471,25726,19.003485918045044,True,,True,1,False,1000,True,1.0
./expes/v2_2020-12-06_dh_200-prng-1,30_issda_200,200,rng-200,111,rng,num-start-251,251,25726,6.386843681335449,True,,True,1,False,1000,True,1.0
./expes/v2_2020-12-06_dh_200-prng-1,30_issda_200,200,rng-200,111,rng,num-start-951,951,25726,32.67544674873352,True,,True,1,False,1000,True,1.0
./expes/v2_2020-12-06_dh_200-prng-1,30_issda_200,200,rng-200,51,rng,num-start-971,971,25726,46.241411209106445,True,,True,1,False,1000,True,1.0
./expes/v2_2020-12-06_dh_200-prng-1,30_issda_200,200,rng-200,171,rng,num-start-141,141,25726,3.769453525543213,True,,True,1,False,1000,True,1.0
./expes/v2_2020-12-06_dh_200-prng-1,30_issda_200,200,rng-200,111,rng,num-start-171,171,25726,5.718109130859375,True,,True,1,False,1000,True,1.0
./expes/v2_2020-12-06_dh_200-prng-1,30_issda_200,200,rng-200,21,rng,num-start-721,721,25726,27.86687207221985,True,,True,1,False,1000,True,1.0
./expes/v2_2020-12-06_dh_200-prng-1,30_issda_200,200,rng-200,31,rng,num-start-321,321,25726,8.885560989379883,True,,True,1,False,1000,True,1.0
./expes/v2_2020-12-06_dh_200-prng-1,30_issda_200,200,rng-200,21,rng,num-start-541,541,25726,14.664239883422852,True,,True,1,False,1000,True,1.0
./expes/v2_2020-12-06_dh_200-prng-1,30_issda_200,200,rng-200,51,rng,num-start-21,21,25726,1000.762209892273,False,,False,0,True,1000,True,0.0
./expes/v2_2020-12-06_dh_200-prng-1,30_issda_200,200,rng-200,191,rng,num-start-311,311,25726,10.284331560134888,True,,True,1,False,1000,True,1.0
./expes/v2_2020-12-06_dh_200-prng-1,30_issda_200,200,rng-200,41,rng,num-start-141,141,25726,3.6599206924438477,True,,True,1,False,1000,True,1.0
./expes/v2_2020-12-06_dh_200-prng-1,30_issda_200,200,rng-200,111,rng,num-start-621,621,25726,14.276656866073608,True,,True,1,False,1000,True,1.0
./expes/v2_2020-12-06_dh_200-prng-1,30_issda_200,200,rng-200,131,rng,num-start-11,11,25726,1000.3252620697021,False,,False,0,True,1000,True,0.0
./expes/v2_2020-12-06_dh_200-prng-1,30_issda_200,200,rng-200,171,rng,num-start-811,811,25726,19.114081144332886,True,,True,1,False,1000,True,1.0
./expes/v2_2020-12-06_dh_200-prng-1,30_issda_200,200,rng-200,91,rng,num-start-791,791,25726,21.55442190170288,True,,True,1,False,1000,True,1.0
./expes/v2_2020-12-06_dh_200-prng-1,30_issda_200,200,rng-200,151,rng,num-start-801,801,25726,18.333301782608032,True,,True,1,False,1000,True,1.0
./expes/v2_2020-12-06_dh_200-prng-1,30_issda_200,200,rng-200,41,rng,num-start-721,721,25726,18.368410110473633,True,,True,1,False,1000,True,1.0
./expes/v2_2020-12-06_dh_200-prng-1,30_issda_200,200,rng-200,11,rng,num-start-811,811,25726,19.989407062530518,True,,True,1,False,1000,True,1.0
./expes/v2_2020-12-06_dh_200-prng-1,30_issda_200,200,rng-200,61,rng,num-start-631,631,25726,16.521052837371826,True,,True,1,False,1000,True,1.0
./expes/v2_2020-12-06_dh_200-prng-1,30_issda_200,200,rng-200,21,rng,num-start-341,341,25726,10.610950708389282,True,,True,1,False,1000,True,1.0
./expes/v2_2020-12-06_dh_200-prng-1,30_issda_200,200,rng-200,1,rng,num-start-821,821,25726,35.11278986930847,True,,True,1,False,1000,True,1.0
./expes/v2_2020-12-06_dh_200-prng-1,30_issda_200,200,rng-200,131,rng,num-start-441,441,25726,10.40951156616211,True,,True,1,False,1000,True,1.0
./expes/v2_2020-12-06_dh_200-prng-1,30_issda_200,200,rng-200,61,rng,num-start-531,531,25726,13.665403366088867,True,,True,1,False,1000,True,1.0
./expes/v2_2020-12-06_dh_200-prng-1,30_issda_200,200,rng-200,11,rng,num-start-691,691,25726,22.671074867248535,True,,True,1,False,1000,True,1.0
./expes/v2_2020-12-06_dh_200-prng-1,30_issda_200,200,rng-200,171,rng,num-start-41,41,25726,2.087318181991577,True,,True,1,False,1000,True,1.0
./expes/v2_2020-12-06_dh_200-prng-1,30_issda_200,200,rng-200,141,rng,num-start-361,361,25726,22.874847650527954,True,,True,1,False,1000,True,1.0
./expes/v2_2020-12-06_dh_200-prng-1,30_issda_200,200,rng-200,131,rng,num-start-951,951,25726,32.695428133010864,True,,True,1,False,1000,True,1.0
./expes/v2_2020-12-06_dh_200-prng-1,30_issda_200,200,rng-200,41,rng,num-start-921,921,25726,21.551153898239136,True,,True,1,False,1000,True,1.0
./expes/v2_2020-12-06_dh_200-prng-1,30_issda_200,200,rng-200,141,rng,num-start-91,91,25726,2.5191457271575928,True,,True,1,False,1000,True,1.0
./expes/v2_2020-12-06_dh_200-prng-1,30_issda_200,200,rng-200,71,rng,num-start-721,721,25726,18.644093990325928,True,,True,1,False,1000,True,1.0
./expes/v2_2020-12-06_dh_200-prng-1,30_issda_200,200,rng-200,171,rng,num-start-541,541,25726,12.971778392791748,True,,True,1,False,1000,True,1.0
./expes/v2_2020-12-06_dh_200-prng-1,30_issda_200,200,rng-200,141,rng,num-start-141,141,25726,4.960853338241577,True,,True,1,False,1000,True,1.0
./expes/v2_2020-12-06_dh_200-prng-1,30_issda_200,200,rng-200,1,rng,num-start-551,551,25726,11.470622539520264,True,,True,1,False,1000,True,1.0
./expes/v2_2020-12-06_dh_200-prng-1,30_issda_200,200,rng-200,81,rng,num-start-981,981,25726,25.45328187942505,True,,True,1,False,1000,True,1.0
./expes/v2_2020-12-06_dh_200-prng-1,30_issda_200,200,rng-200,11,rng,num-start-511,511,25726,22.325363159179688,True,,True,1,False,1000,True,1.0
./expes/v2_2020-12-06_dh_200-prng-1,30_issda_200,200,rng-200,41,rng,num-start-951,951,25726,27.386324882507324,True,,True,1,False,1000,True,1.0
./expes/v2_2020-12-06_dh_200-prng-1,30_issda_200,200,rng-200,81,rng,num-start-551,551,25726,14.217498064041138,True,,True,1,False,1000,True,1.0
./expes/v2_2020-12-06_dh_200-prng-1,30_issda_200,200,rng-200,81,rng,num-start-101,101,25726,5.0133726596832275,True,,True,1,False,1000,True,1.0
./expes/v2_2020-12-06_dh_200-prng-1,30_issda_200,200,rng-200,111,rng,num-start-161,161,25726,4.323733568191528,True,,True,1,False,1000,True,1.0
./expes/v2_2020-12-06_dh_200-prng-1,30_issda_200,200,rng-200,11,rng,num-start-141,141,25726,3.184008836746216,True,,True,1,False,1000,True,1.0
./expes/v2_2020-12-06_dh_200-prng-1,30_issda_200,200,rng-200,41,rng,num-start-561,561,25726,33.26743030548096,True,,True,1,False,1000,True,1.0
./expes/v2_2020-12-06_dh_200-prng-1,30_issda_200,200,rng-200,171,rng,num-start-391,391,25726,9.875353574752808,True,,True,1,False,1000,True,1.0
./expes/v2_2020-12-06_dh_200-prng-1,30_issda_200,200,rng-200,11,rng,num-start-571,571,25726,12.776880979537964,True,,True,1,False,1000,True,1.0
./expes/v2_2020-12-06_dh_200-prng-1,30_issda_200,200,rng-200,41,rng,num-start-381,381,25726,18.617533206939697,True,,True,1,False,1000,True,1.0
./expes/v2_2020-12-06_dh_200-prng-1,30_issda_200,200,rng-200,61,rng,num-start-371,371,25726,14.118854522705078,True,,True,1,False,1000,True,1.0
./expes/v2_2020-12-06_dh_200-prng-1,30_issda_200,200,rng-200,81,rng,num-start-821,821,25726,20.529077291488647,True,,True,1,False,1000,True,1.0
./expes/v2_2020-12-06_dh_200-prng-1,30_issda_200,200,rng-200,131,rng,num-start-671,671,25726,15.969660997390747,True,,True,1,False,1000,True,1.0
./expes/v2_2020-12-06_dh_200-prng-1,30_issda_200,200,rng-200,21,rng,num-start-231,231,25726,5.931581020355225,True,,True,1,False,1000,True,1.0
./expes/v2_2020-12-06_dh_200-prng-1,30_issda_200,200,rng-200,61,rng,num-start-871,871,25726,24.85395622253418,True,,True,1,False,1000,True,1.0
./expes/v2_2020-12-06_dh_200-prng-1,30_issda_200,200,rng-200,71,rng,num-start-471,471,25726,13.043559312820435,True,,True,1,False,1000,True,1.0
./expes/v2_2020-12-06_dh_200-prng-1,30_issda_200,200,rng-200,21,rng,num-start-251,251,25726,6.02427864074707,True,,True,1,False,1000,True,1.0
./expes/v2_2020-12-06_dh_200-prng-1,30_issda_200,200,rng-200,61,rng,num-start-581,581,25726,14.09423041343689,True,,True,1,False,1000,True,1.0
./expes/v2_2020-12-06_dh_200-prng-1,30_issda_200,200,rng-200,41,rng,num-start-581,581,25726,15.694379329681396,True,,True,1,False,1000,True,1.0
./expes/v2_2020-12-06_dh_200-prng-1,30_issda_200,200,rng-200,41,rng,num-start-711,711,25726,22.71094584465027,True,,True,1,False,1000,True,1.0
./expes/v2_2020-12-06_dh_200-prng-1,30_issda_200,200,rng-200,141,rng,num-start-21,21,25726,1003.0033552646637,False,,False,0,True,1000,True,0.0
./expes/v2_2020-12-06_dh_200-prng-1,30_issda_200,200,rng-200,91,rng,num-start-831,831,25726,22.610055208206177,True,,True,1,False,1000,True,1.0
./expes/v2_2020-12-06_dh_200-prng-1,30_issda_200,200,rng-200,101,rng,num-start-911,911,25726,25.001263856887817,True,,True,1,False,1000,True,1.0
./expes/v2_2020-12-06_dh_200-prng-1,30_issda_200,200,rng-200,101,rng,num-start-131,131,25726,3.983818292617798,True,,True,1,False,1000,True,1.0
./expes/v2_2020-12-06_dh_200-prng-1,30_issda_200,200,rng-200,141,rng,num-start-551,551,25726,14.201703786849976,True,,True,1,False,1000,True,1.0
./expes/v2_2020-12-06_dh_200-prng-1,30_issda_200,200,rng-200,171,rng,num-start-701,701,25726,39.62042808532715,True,,True,1,False,1000,True,1.0
./expes/v2_2020-12-06_dh_200-prng-1,30_issda_200,200,rng-200,81,rng,num-start-451,451,25726,14.901962280273438,True,,True,1,False,1000,True,1.0
./expes/v2_2020-12-06_dh_200-prng-1,30_issda_200,200,rng-200,161,rng,num-start-51,51,25726,11.899164915084839,True,,True,1,False,1000,True,1.0
./expes/v2_2020-12-06_dh_200-prng-1,30_issda_200,200,rng-200,171,rng,num-start-431,431,25726,29.108239889144897,True,,True,1,False,1000,True,1.0
./expes/v2_2020-12-06_dh_200-prng-1,30_issda_200,200,rng-200,161,rng,num-start-271,271,25726,6.564143419265747,True,,True,1,False,1000,True,1.0
./expes/v2_2020-12-06_dh_200-prng-1,30_issda_200,200,rng-200,11,rng,num-start-341,341,25726,7.674685716629028,True,,True,1,False,1000,True,1.0
./expes/v2_2020-12-06_dh_200-prng-1,30_issda_200,200,rng-200,21,rng,num-start-881,881,25726,25.81227970123291,True,,True,1,False,1000,True,1.0
./expes/v2_2020-12-06_dh_200-prng-1,30_issda_200,200,rng-200,21,rng,num-start-791,791,25726,18.13789415359497,True,,True,1,False,1000,True,1.0
./expes/v2_2020-12-06_dh_200-prng-1,30_issda_200,200,rng-200,111,rng,num-start-531,531,25726,12.155001163482666,True,,True,1,False,1000,True,1.0
./expes/v2_2020-12-06_dh_200-prng-1,30_issda_200,200,rng-200,151,rng,num-start-131,131,25726,19.484098434448242,True,,True,1,False,1000,True,1.0
./expes/v2_2020-12-06_dh_200-prng-1,30_issda_200,200,rng-200,191,rng,num-start-21,21,25726,1.6498897075653076,True,,True,1,False,1000,True,1.0
./expes/v2_2020-12-06_dh_200-prng-1,30_issda_200,200,rng-200,21,rng,num-start-111,111,25726,3.141486883163452,True,,True,1,False,1000,True,1.0
./expes/v2_2020-12-06_dh_200-prng-1,30_issda_200,200,rng-200,151,rng,num-start-121,121,25726,3.1298084259033203,True,,True,1,False,1000,True,1.0
./expes/v2_2020-12-06_dh_200-prng-1,30_issda_200,200,rng-200,101,rng,num-start-21,21,25726,1000.6930124759674,False,,False,0,True,1000,True,0.0
./expes/v2_2020-12-06_dh_200-prng-1,30_issda_200,200,rng-200,71,rng,num-start-811,811,25726,22.468945741653442,True,,True,1,False,1000,True,1.0
./expes/v2_2020-12-06_dh_200-prng-1,30_issda_200,200,rng-200,181,rng,num-start-571,571,25726,12.821944236755371,True,,True,1,False,1000,True,1.0
./expes/v2_2020-12-06_dh_200-prng-1,30_issda_200,200,rng-200,131,rng,num-start-811,811,25726,18.177404165267944,True,,True,1,False,1000,True,1.0
./expes/v2_2020-12-06_dh_200-prng-1,30_issda_200,200,rng-200,71,rng,num-start-441,441,25726,11.320988416671753,True,,True,1,False,1000,True,1.0
./expes/v2_2020-12-06_dh_200-prng-1,30_issda_200,200,rng-200,181,rng,num-start-701,701,25726,15.74530291557312,True,,True,1,False,1000,True,1.0
./expes/v2_2020-12-06_dh_200-prng-1,30_issda_200,200,rng-200,171,rng,num-start-61,61,25726,2.9778127670288086,True,,True,1,False,1000,True,1.0
./expes/v2_2020-12-06_dh_200-prng-1,30_issda_200,200,rng-200,111,rng,num-start-951,951,25726,27.866231203079224,True,,True,1,False,1000,True,1.0
./expes/v2_2020-12-06_dh_200-prng-1,30_issda_200,200,rng-200,71,rng,num-start-141,141,25726,6.356405973434448,True,,True,1,False,1000,True,1.0
./expes/v2_2020-12-06_dh_200-prng-1,30_issda_200,200,rng-200,101,rng,num-start-971,971,25726,22.715022802352905,True,,True,1,False,1000,True,1.0
./expes/v2_2020-12-06_dh_200-prng-1,30_issda_200,200,rng-200,21,rng,num-start-331,331,25726,10.476306438446045,True,,True,1,False,1000,True,1.0
./expes/v2_2020-12-06_dh_200-prng-1,30_issda_200,200,rng-200,111,rng,num-start-391,391,25726,11.119192361831665,True,,True,1,False,1000,True,1.0
./expes/v2_2020-12-06_dh_200-prng-1,30_issda_200,200,rng-200,61,rng,num-start-461,461,25726,11.052602529525757,True,,True,1,False,1000,True,1.0
./expes/v2_2020-12-06_dh_200-prng-1,30_issda_200,200,rng-200,181,rng,num-start-691,691,25726,16.26235866546631,True,,True,1,False,1000,True,1.0
./expes/v2_2020-12-06_dh_200-prng-1,30_issda_200,200,rng-200,41,rng,num-start-421,421,25726,10.093350887298584,True,,True,1,False,1000,True,1.0
./expes/v2_2020-12-06_dh_200-prng-1,30_issda_200,200,rng-200,31,rng,num-start-131,131,25726,17.160398244857788,True,,True,1,False,1000,True,1.0
./expes/v2_2020-12-06_dh_200-prng-1,30_issda_200,200,rng-200,111,rng,num-start-91,91,25726,4.499834775924683,True,,True,1,False,1000,True,1.0
./expes/v2_2020-12-06_dh_200-prng-1,30_issda_200,200,rng-200,181,rng,num-start-361,361,25726,13.117955446243286,True,,True,1,False,1000,True,1.0
./expes/v2_2020-12-06_dh_200-prng-1,30_issda_200,200,rng-200,141,rng,num-start-731,731,25726,21.87081527709961,True,,True,1,False,1000,True,1.0
./expes/v2_2020-12-06_dh_200-prng-1,30_issda_200,200,rng-200,101,rng,num-start-71,71,25726,24.954833030700684,True,,True,1,False,1000,True,1.0
./expes/v2_2020-12-06_dh_200-prng-1,30_issda_200,200,rng-200,161,rng,num-start-351,351,25726,8.081667184829712,True,,True,1,False,1000,True,1.0
./expes/v2_2020-12-06_dh_200-prng-1,30_issda_200,200,rng-200,101,rng,num-start-321,321,25726,8.614645957946777,True,,True,1,False,1000,True,1.0
./expes/v2_2020-12-06_dh_200-prng-1,30_issda_200,200,rng-200,51,rng,num-start-191,191,25726,6.907709360122681,True,,True,1,False,1000,True,1.0
./expes/v2_2020-12-06_dh_200-prng-1,30_issda_200,200,rng-200,91,rng,num-start-801,801,25726,20.059433221817017,True,,True,1,False,1000,True,1.0
./expes/v2_2020-12-06_dh_200-prng-1,30_issda_200,200,rng-200,81,rng,num-start-751,751,25726,17.156824111938477,True,,True,1,False,1000,True,1.0
./expes/v2_2020-12-06_dh_200-prng-1,30_issda_200,200,rng-200,21,rng,num-start-1,1,25726,0.13557147979736328,False,,False,2,False,1000,True,1.0
./expes/v2_2020-12-06_dh_200-prng-1,30_issda_200,200,rng-200,161,rng,num-start-921,921,25726,23.437199115753174,True,,True,1,False,1000,True,1.0
./expes/v2_2020-12-06_dh_200-prng-1,30_issda_200,200,rng-200,141,rng,num-start-411,411,25726,10.403431415557861,True,,True,1,False,1000,True,1.0
./expes/v2_2020-12-06_dh_200-prng-1,30_issda_200,200,rng-200,101,rng,num-start-211,211,25726,6.936556577682495,True,,True,1,False,1000,True,1.0
./expes/v2_2020-12-06_dh_200-prng-1,30_issda_200,200,rng-200,41,rng,num-start-161,161,25726,4.656701326370239,True,,True,1,False,1000,True,1.0
./expes/v2_2020-12-06_dh_200-prng-1,30_issda_200,200,rng-200,131,rng,num-start-281,281,25726,15.978944063186646,True,,True,1,False,1000,True,1.0
./expes/v2_2020-12-06_dh_200-prng-1,30_issda_200,200,rng-200,51,rng,num-start-631,631,25726,14.089238166809082,True,,True,1,False,1000,True,1.0
./expes/v2_2020-12-06_dh_200-prng-1,30_issda_200,200,rng-200,61,rng,num-start-401,401,25726,9.742610454559326,True,,True,1,False,1000,True,1.0
./expes/v2_2020-12-06_dh_200-prng-1,30_issda_200,200,rng-200,121,rng,num-start-281,281,25726,20.33354425430298,True,,True,1,False,1000,True,1.0
./expes/v2_2020-12-06_dh_200-prng-1,30_issda_200,200,rng-200,131,rng,num-start-131,131,25726,5.046835660934448,True,,True,1,False,1000,True,1.0
./expes/v2_2020-12-06_dh_200-prng-1,30_issda_200,200,rng-200,91,rng,num-start-571,571,25726,22.487874031066895,True,,True,1,False,1000,True,1.0
./expes/v2_2020-12-06_dh_200-prng-1,30_issda_200,200,rng-200,71,rng,num-start-571,571,25726,23.567246913909912,True,,True,1,False,1000,True,1.0
./expes/v2_2020-12-06_dh_200-prng-1,30_issda_200,200,rng-200,51,rng,num-start-261,261,25726,6.44675087928772,True,,True,1,False,1000,True,1.0
./expes/v2_2020-12-06_dh_200-prng-1,30_issda_200,200,rng-200,101,rng,num-start-101,101,25726,3.8628628253936768,True,,True,1,False,1000,True,1.0
./expes/v2_2020-12-06_dh_200-prng-1,30_issda_200,200,rng-200,71,rng,num-start-861,861,25726,25.542922735214233,True,,True,1,False,1000,True,1.0
./expes/v2_2020-12-06_dh_200-prng-1,30_issda_200,200,rng-200,41,rng,num-start-781,781,25726,19.76141929626465,True,,True,1,False,1000,True,1.0
./expes/v2_2020-12-06_dh_200-prng-1,30_issda_200,200,rng-200,51,rng,num-start-751,751,25726,26.218908548355103,True,,True,1,False,1000,True,1.0
./expes/v2_2020-12-06_dh_200-prng-1,30_issda_200,200,rng-200,161,rng,num-start-471,471,25726,11.860309839248657,True,,True,1,False,1000,True,1.0
./expes/v2_2020-12-06_dh_200-prng-1,30_issda_200,200,rng-200,61,rng,num-start-561,561,25726,14.305970430374146,True,,True,1,False,1000,True,1.0
./expes/v2_2020-12-06_dh_200-prng-1,30_issda_200,200,rng-200,161,rng,num-start-441,441,25726,10.74737024307251,True,,True,1,False,1000,True,1.0
./expes/v2_2020-12-06_dh_200-prng-1,30_issda_200,200,rng-200,1,rng,num-start-991,991,25726,21.7965886592865,True,,True,1,False,1000,True,1.0
./expes/v2_2020-12-06_dh_200-prng-1,30_issda_200,200,rng-200,101,rng,num-start-871,871,25726,23.98389196395874,True,,True,1,False,1000,True,1.0
./expes/v2_2020-12-06_dh_200-prng-1,30_issda_200,200,rng-200,81,rng,num-start-21,21,25726,1000.8279404640198,False,,False,0,True,1000,True,0.0
./expes/v2_2020-12-06_dh_200-prng-1,30_issda_200,200,rng-200,21,rng,num-start-41,41,25726,11.714474439620972,True,,True,1,False,1000,True,1.0
./expes/v2_2020-12-06_dh_200-prng-1,30_issda_200,200,rng-200,61,rng,num-start-481,481,25726,11.189534902572632,True,,True,1,False,1000,True,1.0
./expes/v2_2020-12-06_dh_200-prng-1,30_issda_200,200,rng-200,91,rng,num-start-851,851,25726,26.098570823669434,True,,True,1,False,1000,True,1.0
./expes/v2_2020-12-06_dh_200-prng-1,30_issda_200,200,rng-200,21,rng,num-start-161,161,25726,4.185340166091919,True,,True,1,False,1000,True,1.0
./expes/v2_2020-12-06_dh_200-prng-1,30_issda_200,200,rng-200,91,rng,num-start-841,841,25726,20.13307499885559,True,,True,1,False,1000,True,1.0
./expes/v2_2020-12-06_dh_200-prng-1,30_issda_200,200,rng-200,71,rng,num-start-471,471,25726,12.064560413360596,True,,True,1,False,1000,True,1.0
./expes/v2_2020-12-06_dh_200-prng-1,30_issda_200,200,rng-200,131,rng,num-start-831,831,25726,20.680593967437744,True,,True,1,False,1000,True,1.0
./expes/v2_2020-12-06_dh_200-prng-1,30_issda_200,200,rng-200,11,rng,num-start-971,971,25726,22.989043712615967,True,,True,1,False,1000,True,1.0
./expes/v2_2020-12-06_dh_200-prng-1,30_issda_200,200,rng-200,171,rng,num-start-681,681,25726,16.072062969207764,True,,True,1,False,1000,True,1.0
./expes/v2_2020-12-06_dh_200-prng-1,30_issda_200,200,rng-200,81,rng,num-start-401,401,25726,20.01555061340332,True,,True,1,False,1000,True,1.0
./expes/v2_2020-12-06_dh_200-prng-1,30_issda_200,200,rng-200,181,rng,num-start-341,341,25726,8.61806869506836,True,,True,1,False,1000,True,1.0
./expes/v2_2020-12-06_dh_200-prng-1,30_issda_200,200,rng-200,1,rng,num-start-301,301,25726,6.350032329559326,True,,True,1,False,1000,True,1.0
./expes/v2_2020-12-06_dh_200-prng-1,30_issda_200,200,rng-200,61,rng,num-start-81,81,25726,5.459199905395508,True,,True,1,False,1000,True,1.0
./expes/v2_2020-12-06_dh_200-prng-1,30_issda_200,200,rng-200,161,rng,num-start-481,481,25726,11.290883779525757,True,,True,1,False,1000,True,1.0
./expes/v2_2020-12-06_dh_200-prng-1,30_issda_200,200,rng-200,21,rng,num-start-451,451,25726,11.407102823257446,True,,True,1,False,1000,True,1.0
./expes/v2_2020-12-06_dh_200-prng-1,30_issda_200,200,rng-200,121,rng,num-start-351,351,25726,8.545108795166016,True,,True,1,False,1000,True,1.0
./expes/v2_2020-12-06_dh_200-prng-1,30_issda_200,200,rng-200,161,rng,num-start-751,751,25726,18.85642099380493,True,,True,1,False,1000,True,1.0
./expes/v2_2020-12-06_dh_200-prng-1,30_issda_200,200,rng-200,91,rng,num-start-911,911,25726,40.21680974960327,True,,True,1,False,1000,True,1.0
./expes/v2_2020-12-06_dh_200-prng-1,30_issda_200,200,rng-200,51,rng,num-start-301,301,25726,7.702527046203613,True,,True,1,False,1000,True,1.0
./expes/v2_2020-12-06_dh_200-prng-1,30_issda_200,200,rng-200,191,rng,num-start-801,801,25726,29.1696515083313,True,,True,1,False,1000,True,1.0
./expes/v2_2020-12-06_dh_200-prng-1,30_issda_200,200,rng-200,61,rng,num-start-881,881,25726,22.48322081565857,True,,True,1,False,1000,True,1.0
./expes/v2_2020-12-06_dh_200-prng-1,30_issda_200,200,rng-200,161,rng,num-start-461,461,25726,11.306803703308105,True,,True,1,False,1000,True,1.0
./expes/v2_2020-12-06_dh_200-prng-1,30_issda_200,200,rng-200,1,rng,num-start-661,661,25726,19.20343017578125,True,,True,1,False,1000,True,1.0
./expes/v2_2020-12-06_dh_200-prng-1,30_issda_200,200,rng-200,1,rng,num-start-821,821,25726,26.31049394607544,True,,True,1,False,1000,True,1.0
./expes/v2_2020-12-06_dh_200-prng-1,30_issda_200,200,rng-200,181,rng,num-start-21,21,25726,1006.722804069519,False,,False,0,True,1000,True,0.0
./expes/v2_2020-12-06_dh_200-prng-1,30_issda_200,200,rng-200,11,rng,num-start-151,151,25726,5.811906576156616,True,,True,1,False,1000,True,1.0
./expes/v2_2020-12-06_dh_200-prng-1,30_issda_200,200,rng-200,21,rng,num-start-131,131,25726,11.869796991348267,True,,True,1,False,1000,True,1.0
./expes/v2_2020-12-06_dh_200-prng-1,30_issda_200,200,rng-200,91,rng,num-start-551,551,25726,13.607410430908203,True,,True,1,False,1000,True,1.0
./expes/v2_2020-12-06_dh_200-prng-1,30_issda_200,200,rng-200,191,rng,num-start-671,671,25726,17.71231770515442,True,,True,1,False,1000,True,1.0
./expes/v2_2020-12-06_dh_200-prng-1,30_issda_200,200,rng-200,161,rng,num-start-531,531,25726,27.214776277542114,True,,True,1,False,1000,True,1.0
./expes/v2_2020-12-06_dh_200-prng-1,30_issda_200,200,rng-200,21,rng,num-start-651,651,25726,22.609688997268677,True,,True,1,False,1000,True,1.0
./expes/v2_2020-12-06_dh_200-prng-1,30_issda_200,200,rng-200,61,rng,num-start-891,891,25726,21.613749742507935,True,,True,1,False,1000,True,1.0
./expes/v2_2020-12-06_dh_200-prng-1,30_issda_200,200,rng-200,21,rng,num-start-351,351,25726,10.594395875930786,True,,True,1,False,1000,True,1.0
./expes/v2_2020-12-06_dh_200-prng-1,30_issda_200,200,rng-200,141,rng,num-start-941,941,25726,22.645665645599365,True,,True,1,False,1000,True,1.0
./expes/v2_2020-12-06_dh_200-prng-1,30_issda_200,200,rng-200,81,rng,num-start-181,181,25726,5.84211802482605,True,,True,1,False,1000,True,1.0
./expes/v2_2020-12-06_dh_200-prng-1,30_issda_200,200,rng-200,111,rng,num-start-71,71,25726,33.12480187416077,True,,True,1,False,1000,True,1.0
./expes/v2_2020-12-06_dh_200-prng-1,30_issda_200,200,rng-200,1,rng,num-start-391,391,25726,8.899507999420166,True,,True,1,False,1000,True,1.0
./expes/v2_2020-12-06_dh_200-prng-1,30_issda_200,200,rng-200,71,rng,num-start-131,131,25726,6.398179769515991,True,,True,1,False,1000,True,1.0
./expes/v2_2020-12-06_dh_200-prng-1,30_issda_200,200,rng-200,171,rng,num-start-631,631,25726,14.950506687164307,True,,True,1,False,1000,True,1.0
./expes/v2_2020-12-06_dh_200-prng-1,30_issda_200,200,rng-200,171,rng,num-start-201,201,25726,18.585098266601562,True,,True,1,False,1000,True,1.0
./expes/v2_2020-12-06_dh_200-prng-1,30_issda_200,200,rng-200,1,rng,num-start-161,161,25726,3.5170416831970215,True,,True,1,False,1000,True,1.0
./expes/v2_2020-12-06_dh_200-prng-1,30_issda_200,200,rng-200,11,rng,num-start-651,651,25726,18.95977473258972,True,,True,1,False,1000,True,1.0
./expes/v2_2020-12-06_dh_200-prng-1,30_issda_200,200,rng-200,121,rng,num-start-621,621,25726,20.808614253997803,True,,True,1,False,1000,True,1.0
./expes/v2_2020-12-06_dh_200-prng-1,30_issda_200,200,rng-200,171,rng,num-start-531,531,25726,12.429344654083252,True,,True,1,False,1000,True,1.0
./expes/v2_2020-12-06_dh_200-prng-1,30_issda_200,200,rng-200,131,rng,num-start-251,251,25726,6.8928062915802,True,,True,1,False,1000,True,1.0
./expes/v2_2020-12-06_dh_200-prng-1,30_issda_200,200,rng-200,61,rng,num-start-511,511,25726,23.7804696559906,True,,True,1,False,1000,True,1.0
./expes/v2_2020-12-06_dh_200-prng-1,30_issda_200,200,rng-200,81,rng,num-start-281,281,25726,26.156893014907837,True,,True,1,False,1000,True,1.0
./expes/v2_2020-12-06_dh_200-prng-1,30_issda_200,200,rng-200,151,rng,num-start-741,741,25726,17.97328782081604,True,,True,1,False,1000,True,1.0
./expes/v2_2020-12-06_dh_200-prng-1,30_issda_200,200,rng-200,21,rng,num-start-121,121,25726,2.956888437271118,True,,True,1,False,1000,True,1.0
./expes/v2_2020-12-06_dh_200-prng-1,30_issda_200,200,rng-200,81,rng,num-start-71,71,25726,3.4587972164154053,True,,True,1,False,1000,True,1.0
./expes/v2_2020-12-06_dh_200-prng-1,30_issda_200,200,rng-200,141,rng,num-start-231,231,25726,15.557768821716309,True,,True,1,False,1000,True,1.0
./expes/v2_2020-12-06_dh_200-prng-1,30_issda_200,200,rng-200,81,rng,num-start-571,571,25726,14.129248142242432,True,,True,1,False,1000,True,1.0
./expes/v2_2020-12-06_dh_200-prng-1,30_issda_200,200,rng-200,1,rng,num-start-151,151,25726,6.212919235229492,True,,True,1,False,1000,True,1.0
./expes/v2_2020-12-06_dh_200-prng-1,30_issda_200,200,rng-200,171,rng,num-start-441,441,25726,14.139702081680298,True,,True,1,False,1000,True,1.0
./expes/v2_2020-12-06_dh_200-prng-1,30_issda_200,200,rng-200,31,rng,num-start-921,921,25726,20.752384424209595,True,,True,1,False,1000,True,1.0
./expes/v2_2020-12-06_dh_200-prng-1,30_issda_200,200,rng-200,171,rng,num-start-711,711,25726,15.9081552028656,True,,True,1,False,1000,True,1.0
./expes/v2_2020-12-06_dh_200-prng-1,30_issda_200,200,rng-200,191,rng,num-start-981,981,25726,21.090365409851074,True,,True,1,False,1000,True,1.0
./expes/v2_2020-12-06_dh_200-prng-1,30_issda_200,200,rng-200,111,rng,num-start-311,311,25726,8.294238328933716,True,,True,1,False,1000,True,1.0
./expes/v2_2020-12-06_dh_200-prng-1,30_issda_200,200,rng-200,71,rng,num-start-571,571,25726,13.682304382324219,True,,True,1,False,1000,True,1.0
./expes/v2_2020-12-06_dh_200-prng-1,30_issda_200,200,rng-200,1,rng,num-start-651,651,25726,15.752503156661987,True,,True,1,False,1000,True,1.0
./expes/v2_2020-12-06_dh_200-prng-1,30_issda_200,200,rng-200,31,rng,num-start-661,661,25726,25.21142601966858,True,,True,1,False,1000,True,1.0
./expes/v2_2020-12-06_dh_200-prng-1,30_issda_200,200,rng-200,131,rng,num-start-251,251,25726,10.936469554901123,True,,True,1,False,1000,True,1.0
./expes/v2_2020-12-06_dh_200-prng-1,30_issda_200,200,rng-200,1,rng,num-start-361,361,25726,12.966683149337769,True,,True,1,False,1000,True,1.0
./expes/v2_2020-12-06_dh_200-prng-1,30_issda_200,200,rng-200,151,rng,num-start-541,541,25726,27.463920831680298,True,,True,1,False,1000,True,1.0
./expes/v2_2020-12-06_dh_200-prng-1,30_issda_200,200,rng-200,1,rng,num-start-531,531,25726,11.211378335952759,True,,True,1,False,1000,True,1.0
./expes/v2_2020-12-06_dh_200-prng-1,30_issda_200,200,rng-200,131,rng,num-start-381,381,25726,9.464138269424438,True,,True,1,False,1000,True,1.0
./expes/v2_2020-12-06_dh_200-prng-1,30_issda_200,200,rng-200,131,rng,num-start-861,861,25726,21.678374528884888,True,,True,1,False,1000,True,1.0
./expes/v2_2020-12-06_dh_200-prng-1,30_issda_200,200,rng-200,141,rng,num-start-81,81,25726,8.451292753219604,True,,True,1,False,1000,True,1.0
./expes/v2_2020-12-06_dh_200-prng-1,30_issda_200,200,rng-200,71,rng,num-start-31,31,25726,1019.2477345466614,False,,False,0,True,1000,True,0.0
./expes/v2_2020-12-06_dh_200-prng-1,30_issda_200,200,rng-200,1,rng,num-start-151,151,25726,4.355722904205322,True,,True,1,False,1000,True,1.0
./expes/v2_2020-12-06_dh_200-prng-1,30_issda_200,200,rng-200,121,rng,num-start-31,31,25726,1001.6684441566467,False,,False,0,True,1000,True,0.0
./expes/v2_2020-12-06_dh_200-prng-1,30_issda_200,200,rng-200,191,rng,num-start-591,591,25726,12.706155061721802,True,,True,1,False,1000,True,1.0
./expes/v2_2020-12-06_dh_200-prng-1,30_issda_200,200,rng-200,31,rng,num-start-971,971,25726,26.85920810699463,True,,True,1,False,1000,True,1.0
./expes/v2_2020-12-06_dh_200-prng-1,30_issda_200,200,rng-200,121,rng,num-start-381,381,25726,12.1598219871521,True,,True,1,False,1000,True,1.0
./expes/v2_2020-12-06_dh_200-prng-1,30_issda_200,200,rng-200,111,rng,num-start-731,731,25726,38.04431939125061,True,,True,1,False,1000,True,1.0
./expes/v2_2020-12-06_dh_200-prng-1,30_issda_200,200,rng-200,91,rng,num-start-571,571,25726,13.42018461227417,True,,True,1,False,1000,True,1.0
./expes/v2_2020-12-06_dh_200-prng-1,30_issda_200,200,rng-200,121,rng,num-start-571,571,25726,14.701054096221924,True,,True,1,False,1000,True,1.0
./expes/v2_2020-12-06_dh_200-prng-1,30_issda_200,200,rng-200,111,rng,num-start-631,631,25726,32.797680139541626,True,,True,1,False,1000,True,1.0
./expes/v2_2020-12-06_dh_200-prng-1,30_issda_200,200,rng-200,191,rng,num-start-591,591,25726,13.384363651275635,True,,True,1,False,1000,True,1.0
./expes/v2_2020-12-06_dh_200-prng-1,30_issda_200,200,rng-200,91,rng,num-start-361,361,25726,8.796696186065674,True,,True,1,False,1000,True,1.0
./expes/v2_2020-12-06_dh_200-prng-1,30_issda_200,200,rng-200,31,rng,num-start-501,501,25726,12.279510736465454,True,,True,1,False,1000,True,1.0
./expes/v2_2020-12-06_dh_200-prng-1,30_issda_200,200,rng-200,11,rng,num-start-31,31,25726,1.3578407764434814,True,,True,1,False,1000,True,1.0
./expes/v2_2020-12-06_dh_200-prng-1,30_issda_200,200,rng-200,191,rng,num-start-631,631,25726,13.63099455833435,True,,True,1,False,1000,True,1.0
./expes/v2_2020-12-06_dh_200-prng-1,30_issda_200,200,rng-200,111,rng,num-start-181,181,25726,4.771143913269043,True,,True,1,False,1000,True,1.0
./expes/v2_2020-12-06_dh_200-prng-1,30_issda_200,200,rng-200,81,rng,num-start-511,511,25726,14.021232843399048,True,,True,1,False,1000,True,1.0
./expes/v2_2020-12-06_dh_200-prng-1,30_issda_200,200,rng-200,191,rng,num-start-931,931,25726,20.026185035705566,True,,True,1,False,1000,True,1.0
./expes/v2_2020-12-06_dh_200-prng-1,30_issda_200,200,rng-200,71,rng,num-start-921,921,25726,23.12129545211792,True,,True,1,False,1000,True,1.0
./expes/v2_2020-12-06_dh_200-prng-1,30_issda_200,200,rng-200,171,rng,num-start-41,41,25726,498.3097677230835,True,,True,1,False,1000,True,1.0
./expes/v2_2020-12-06_dh_200-prng-1,30_issda_200,200,rng-200,101,rng,num-start-531,531,25726,22.881242036819458,True,,True,1,False,1000,True,1.0
./expes/v2_2020-12-06_dh_200-prng-1,30_issda_200,200,rng-200,161,rng,num-start-581,581,25726,15.091731786727905,True,,True,1,False,1000,True,1.0
./expes/v2_2020-12-06_dh_200-prng-1,30_issda_200,200,rng-200,91,rng,num-start-491,491,25726,28.883092403411865,True,,True,1,False,1000,True,1.0
./expes/v2_2020-12-06_dh_200-prng-1,30_issda_200,200,rng-200,191,rng,num-start-261,261,25726,6.027700424194336,True,,True,1,False,1000,True,1.0
./expes/v2_2020-12-06_dh_200-prng-1,30_issda_200,200,rng-200,171,rng,num-start-761,761,25726,19.913697481155396,True,,True,1,False,1000,True,1.0
./expes/v2_2020-12-06_dh_200-prng-1,30_issda_200,200,rng-200,91,rng,num-start-851,851,25726,24.555855989456177,True,,True,1,False,1000,True,1.0
./expes/v2_2020-12-06_dh_200-prng-1,30_issda_200,200,rng-200,91,rng,num-start-881,881,25726,26.278457641601562,True,,True,1,False,1000,True,1.0
./expes/v2_2020-12-06_dh_200-prng-1,30_issda_200,200,rng-200,111,rng,num-start-71,71,25726,3.3194689750671387,True,,True,1,False,1000,True,1.0
./expes/v2_2020-12-06_dh_200-prng-1,30_issda_200,200,rng-200,31,rng,num-start-991,991,25726,24.67500352859497,True,,True,1,False,1000,True,1.0
./expes/v2_2020-12-06_dh_200-prng-1,30_issda_200,200,rng-200,81,rng,num-start-761,761,25726,18.733466625213623,True,,True,1,False,1000,True,1.0
./expes/v2_2020-12-06_dh_200-prng-1,30_issda_200,200,rng-200,71,rng,num-start-861,861,25726,21.889025926589966,True,,True,1,False,1000,True,1.0
./expes/v2_2020-12-06_dh_200-prng-1,30_issda_200,200,rng-200,191,rng,num-start-821,821,25726,18.290868520736694,True,,True,1,False,1000,True,1.0
./expes/v2_2020-12-06_dh_200-prng-1,30_issda_200,200,rng-200,151,rng,num-start-711,711,25726,17.30940294265747,True,,True,1,False,1000,True,1.0
./expes/v2_2020-12-06_dh_200-prng-1,30_issda_200,200,rng-200,21,rng,num-start-961,961,25726,24.135468006134033,True,,True,1,False,1000,True,1.0
./expes/v2_2020-12-06_dh_200-prng-1,30_issda_200,200,rng-200,51,rng,num-start-301,301,25726,7.4759063720703125,True,,True,1,False,1000,True,1.0
./expes/v2_2020-12-06_dh_200-prng-1,30_issda_200,200,rng-200,31,rng,num-start-731,731,25726,16.72462248802185,True,,True,1,False,1000,True,1.0
./expes/v2_2020-12-06_dh_200-prng-1,30_issda_200,200,rng-200,191,rng,num-start-271,271,25726,6.524006128311157,True,,True,1,False,1000,True,1.0
./expes/v2_2020-12-06_dh_200-prng-1,30_issda_200,200,rng-200,21,rng,num-start-661,661,25726,17.546316623687744,True,,True,1,False,1000,True,1.0
./expes/v2_2020-12-06_dh_200-prng-1,30_issda_200,200,rng-200,31,rng,num-start-51,51,25726,1.6856884956359863,True,,True,1,False,1000,True,1.0
./expes/v2_2020-12-06_dh_200-prng-1,30_issda_200,200,rng-200,101,rng,num-start-861,861,25726,21.520456075668335,True,,True,1,False,1000,True,1.0
./expes/v2_2020-12-06_dh_200-prng-1,30_issda_200,200,rng-200,121,rng,num-start-51,51,25726,1001.700037240982,False,,False,0,True,1000,True,0.0
./expes/v2_2020-12-06_dh_200-prng-1,30_issda_200,200,rng-200,131,rng,num-start-421,421,25726,10.614055156707764,True,,True,1,False,1000,True,1.0
./expes/v2_2020-12-06_dh_200-prng-1,30_issda_200,200,rng-200,111,rng,num-start-981,981,25726,23.975213766098022,True,,True,1,False,1000,True,1.0
./expes/v2_2020-12-06_dh_200-prng-1,30_issda_200,200,rng-200,31,rng,num-start-721,721,25726,17.499863147735596,True,,True,1,False,1000,True,1.0
./expes/v2_2020-12-06_dh_200-prng-1,30_issda_200,200,rng-200,71,rng,num-start-511,511,25726,12.485651016235352,True,,True,1,False,1000,True,1.0
./expes/v2_2020-12-06_dh_200-prng-1,30_issda_200,200,rng-200,61,rng,num-start-321,321,25726,7.720931053161621,True,,True,1,False,1000,True,1.0
./expes/v2_2020-12-06_dh_200-prng-1,30_issda_200,200,rng-200,141,rng,num-start-181,181,25726,4.687877655029297,True,,True,1,False,1000,True,1.0
./expes/v2_2020-12-06_dh_200-prng-1,30_issda_200,200,rng-200,151,rng,num-start-791,791,25726,19.211344957351685,True,,True,1,False,1000,True,1.0
./expes/v2_2020-12-06_dh_200-prng-1,30_issda_200,200,rng-200,11,rng,num-start-811,811,25726,17.3387668132782,True,,True,1,False,1000,True,1.0
./expes/v2_2020-12-06_dh_200-prng-1,30_issda_200,200,rng-200,81,rng,num-start-861,861,25726,23.94133234024048,True,,True,1,False,1000,True,1.0
./expes/v2_2020-12-06_dh_200-prng-1,30_issda_200,200,rng-200,11,rng,num-start-681,681,25726,17.600329399108887,True,,True,1,False,1000,True,1.0
./expes/v2_2020-12-06_dh_200-prng-1,30_issda_200,200,rng-200,111,rng,num-start-801,801,25726,22.663431882858276,True,,True,1,False,1000,True,1.0
./expes/v2_2020-12-06_dh_200-prng-1,30_issda_200,200,rng-200,151,rng,num-start-141,141,25726,4.272886037826538,True,,True,1,False,1000,True,1.0
./expes/v2_2020-12-06_dh_200-prng-1,30_issda_200,200,rng-200,1,rng,num-start-591,591,25726,12.857362508773804,True,,True,1,False,1000,True,1.0
./expes/v2_2020-12-06_dh_200-prng-1,30_issda_200,200,rng-200,91,rng,num-start-641,641,25726,14.677790403366089,True,,True,1,False,1000,True,1.0
./expes/v2_2020-12-06_dh_200-prng-1,30_issda_200,200,rng-200,11,rng,num-start-711,711,25726,16.034449100494385,True,,True,1,False,1000,True,1.0
./expes/v2_2020-12-06_dh_200-prng-1,30_issda_200,200,rng-200,171,rng,num-start-971,971,25726,23.621849060058594,True,,True,1,False,1000,True,1.0
./expes/v2_2020-12-06_dh_200-prng-1,30_issda_200,200,rng-200,21,rng,num-start-321,321,25726,7.556288480758667,True,,True,1,False,1000,True,1.0
./expes/v2_2020-12-06_dh_200-prng-1,30_issda_200,200,rng-200,181,rng,num-start-961,961,25726,22.338158130645752,True,,True,1,False,1000,True,1.0
./expes/v2_2020-12-06_dh_200-prng-1,30_issda_200,200,rng-200,121,rng,num-start-201,201,25726,4.95777702331543,True,,True,1,False,1000,True,1.0
./expes/v2_2020-12-06_dh_200-prng-1,30_issda_200,200,rng-200,51,rng,num-start-981,981,25726,23.574751377105713,True,,True,1,False,1000,True,1.0
./expes/v2_2020-12-06_dh_200-prng-1,30_issda_200,200,rng-200,51,rng,num-start-431,431,25726,10.94035291671753,True,,True,1,False,1000,True,1.0
./expes/v2_2020-12-06_dh_200-prng-1,30_issda_200,200,rng-200,81,rng,num-start-431,431,25726,10.167372465133667,True,,True,1,False,1000,True,1.0
./expes/v2_2020-12-06_dh_200-prng-1,30_issda_200,200,rng-200,81,rng,num-start-721,721,25726,17.32345223426819,True,,True,1,False,1000,True,1.0
./expes/v2_2020-12-06_dh_200-prng-1,30_issda_200,200,rng-200,91,rng,num-start-641,641,25726,15.577018737792969,True,,True,1,False,1000,True,1.0
./expes/v2_2020-12-06_dh_200-prng-1,30_issda_200,200,rng-200,81,rng,num-start-641,641,25726,15.705712080001831,True,,True,1,False,1000,True,1.0
./expes/v2_2020-12-06_dh_200-prng-1,30_issda_200,200,rng-200,181,rng,num-start-171,171,25726,4.132853984832764,True,,True,1,False,1000,True,1.0
./expes/v2_2020-12-06_dh_200-prng-1,30_issda_200,200,rng-200,31,rng,num-start-281,281,25726,7.075585126876831,True,,True,1,False,1000,True,1.0
./expes/v2_2020-12-06_dh_200-prng-1,30_issda_200,200,rng-200,31,rng,num-start-431,431,25726,9.718838453292847,True,,True,1,False,1000,True,1.0
./expes/v2_2020-12-06_dh_200-prng-1,30_issda_200,200,rng-200,1,rng,num-start-361,361,25726,7.701972007751465,True,,True,1,False,1000,True,1.0
./expes/v2_2020-12-06_dh_200-prng-1,30_issda_200,200,rng-200,1,rng,num-start-711,711,25726,16.291800498962402,True,,True,1,False,1000,True,1.0
./expes/v2_2020-12-06_dh_200-prng-1,30_issda_200,200,rng-200,191,rng,num-start-871,871,25726,18.078799724578857,True,,True,1,False,1000,True,1.0
./expes/v2_2020-12-06_dh_200-prng-1,30_issda_200,200,rng-200,111,rng,num-start-11,11,25726,1001.0454308986664,False,,False,0,True,1000,True,0.0
./expes/v2_2020-12-06_dh_200-prng-1,30_issda_200,200,rng-200,151,rng,num-start-351,351,25726,8.195991516113281,True,,True,1,False,1000,True,1.0
./expes/v2_2020-12-06_dh_200-prng-1,30_issda_200,200,rng-200,141,rng,num-start-341,341,25726,8.229687452316284,True,,True,1,False,1000,True,1.0
./expes/v2_2020-12-06_dh_200-prng-1,30_issda_200,200,rng-200,41,rng,num-start-541,541,25726,12.367434978485107,True,,True,1,False,1000,True,1.0
./expes/v2_2020-12-06_dh_200-prng-1,30_issda_200,200,rng-200,191,rng,num-start-921,921,25726,19.306373119354248,True,,True,1,False,1000,True,1.0
./expes/v2_2020-12-06_dh_200-prng-1,30_issda_200,200,rng-200,1,rng,num-start-21,21,25726,0.6343259811401367,True,,True,1,False,1000,True,1.0
./expes/v2_2020-12-06_dh_200-prng-1,30_issda_200,200,rng-200,131,rng,num-start-281,281,25726,6.795032978057861,True,,True,1,False,1000,True,1.0
./expes/v2_2020-12-06_dh_200-prng-1,30_issda_200,200,rng-200,61,rng,num-start-751,751,25726,17.114641427993774,True,,True,1,False,1000,True,1.0
./expes/v2_2020-12-06_dh_200-prng-1,30_issda_200,200,rng-200,71,rng,num-start-481,481,25726,11.406782627105713,True,,True,1,False,1000,True,1.0
./expes/v2_2020-12-06_dh_200-prng-1,30_issda_200,200,rng-200,21,rng,num-start-901,901,25726,21.319762468338013,True,,True,1,False,1000,True,1.0
./expes/v2_2020-12-06_dh_200-prng-1,30_issda_200,200,rng-200,1,rng,num-start-821,821,25726,17.02242636680603,True,,True,1,False,1000,True,1.0
./expes/v2_2020-12-06_dh_200-prng-1,30_issda_200,200,rng-200,121,rng,num-start-811,811,25726,18.572795867919922,True,,True,1,False,1000,True,1.0
./expes/v2_2020-12-06_dh_200-prng-1,30_issda_200,200,rng-200,81,rng,num-start-701,701,25726,17.411195993423462,True,,True,1,False,1000,True,1.0
./expes/v2_2020-12-06_dh_200-prng-1,30_issda_200,200,rng-200,111,rng,num-start-21,21,25726,1001.4253172874451,False,,False,0,True,1000,True,0.0
./expes/v2_2020-12-06_dh_200-prng-1,30_issda_200,200,rng-200,101,rng,num-start-941,941,25726,23.638856649398804,True,,True,1,False,1000,True,1.0
./expes/v2_2020-12-06_dh_200-prng-1,30_issda_200,200,rng-200,41,rng,num-start-321,321,25726,7.990940093994141,True,,True,1,False,1000,True,1.0
./expes/v2_2020-12-06_dh_200-prng-1,30_issda_200,200,rng-200,81,rng,num-start-931,931,25726,22.03112816810608,True,,True,1,False,1000,True,1.0
./expes/v2_2020-12-06_dh_200-prng-1,30_issda_200,200,rng-200,101,rng,num-start-671,671,25726,16.950900554656982,True,,True,1,False,1000,True,1.0
./expes/v2_2020-12-06_dh_200-prng-1,30_issda_200,200,rng-200,111,rng,num-start-671,671,25726,15.729402303695679,True,,True,1,False,1000,True,1.0
./expes/v2_2020-12-06_dh_200-prng-1,30_issda_200,200,rng-200,131,rng,num-start-271,271,25726,6.142659664154053,True,,True,1,False,1000,True,1.0
./expes/v2_2020-12-06_dh_200-prng-1,30_issda_200,200,rng-200,161,rng,num-start-151,151,25726,3.6651499271392822,True,,True,1,False,1000,True,1.0
./expes/v2_2020-12-06_dh_200-prng-1,30_issda_200,200,rng-200,91,rng,num-start-21,21,25726,1000.9526798725128,False,,False,0,True,1000,True,0.0
./expes/v2_2020-12-06_dh_200-prng-1,30_issda_200,200,rng-200,111,rng,num-start-471,471,25726,12.06290578842163,True,,True,1,False,1000,True,1.0
./expes/v2_2020-12-06_dh_200-prng-1,30_issda_200,200,rng-200,21,rng,num-start-81,81,25726,1.9413495063781738,True,,True,1,False,1000,True,1.0
./expes/v2_2020-12-06_dh_200-prng-1,30_issda_200,200,rng-200,21,rng,num-start-871,871,25726,19.967259407043457,True,,True,1,False,1000,True,1.0
./expes/v2_2020-12-06_dh_200-prng-1,30_issda_200,200,rng-200,91,rng,num-start-711,711,25726,18.246399641036987,True,,True,1,False,1000,True,1.0
./expes/v2_2020-12-06_dh_200-prng-1,30_issda_200,200,rng-200,111,rng,num-start-691,691,25726,17.14486289024353,True,,True,1,False,1000,True,1.0
./expes/v2_2020-12-06_dh_200-prng-1,30_issda_200,200,rng-200,91,rng,num-start-201,201,25726,5.03551983833313,True,,True,1,False,1000,True,1.0
./expes/v2_2020-12-06_dh_200-prng-1,30_issda_200,200,rng-200,151,rng,num-start-981,981,25726,22.590230226516724,True,,True,1,False,1000,True,1.0
./expes/v2_2020-12-06_dh_200-prng-1,30_issda_200,200,rng-200,141,rng,num-start-421,421,25726,9.975033521652222,True,,True,1,False,1000,True,1.0
./expes/v2_2020-12-06_dh_200-prng-1,30_issda_200,200,rng-200,91,rng,num-start-771,771,25726,18.278772354125977,True,,True,1,False,1000,True,1.0
./expes/v2_2020-12-06_dh_200-prng-1,30_issda_200,200,rng-200,31,rng,num-start-481,481,25726,11.148093223571777,True,,True,1,False,1000,True,1.0
./expes/v2_2020-12-06_dh_200-prng-1,30_issda_200,200,rng-200,71,rng,num-start-891,891,25726,20.799034595489502,True,,True,1,False,1000,True,1.0
./expes/v2_2020-12-06_dh_200-prng-1,30_issda_200,200,rng-200,41,rng,num-start-621,621,25726,14.420177221298218,True,,True,1,False,1000,True,1.0
./expes/v2_2020-12-06_dh_200-prng-1,30_issda_200,200,rng-200,61,rng,num-start-701,701,25726,16.56635880470276,True,,True,1,False,1000,True,1.0
./expes/v2_2020-12-06_dh_200-prng-1,30_issda_200,200,rng-200,131,rng,num-start-571,571,25726,13.252284526824951,True,,True,1,False,1000,True,1.0
./expes/v2_2020-12-06_dh_200-prng-1,30_issda_200,200,rng-200,131,rng,num-start-591,591,25726,13.564168214797974,True,,True,1,False,1000,True,1.0
./expes/v2_2020-12-06_dh_200-prng-1,30_issda_200,200,rng-200,51,rng,num-start-61,61,25726,19.134435892105103,True,,True,1,False,1000,True,1.0
./expes/v2_2020-12-06_dh_200-prng-1,30_issda_200,200,rng-200,171,rng,num-start-881,881,25726,20.447482585906982,True,,True,1,False,1000,True,1.0
./expes/v2_2020-12-06_dh_200-prng-1,30_issda_200,200,rng-200,171,rng,num-start-81,81,25726,2.0557124614715576,True,,True,1,False,1000,True,1.0
./expes/v2_2020-12-06_dh_200-prng-1,30_issda_200,200,rng-200,51,rng,num-start-391,391,25726,8.846404790878296,True,,True,1,False,1000,True,1.0
./expes/v2_2020-12-06_dh_200-prng-1,30_issda_200,200,rng-200,21,rng,num-start-701,701,25726,15.967653036117554,True,,True,1,False,1000,True,1.0
./expes/v2_2020-12-06_dh_200-prng-1,30_issda_200,200,rng-200,1,rng,num-start-181,181,25726,3.7361559867858887,True,,True,1,False,1000,True,1.0
./expes/v2_2020-12-06_dh_200-prng-1,30_issda_200,200,rng-200,161,rng,num-start-301,301,25726,6.8863255977630615,True,,True,1,False,1000,True,1.0
./expes/v2_2020-12-06_dh_200-prng-1,30_issda_200,200,rng-200,91,rng,num-start-541,541,25726,12.853843212127686,True,,True,1,False,1000,True,1.0
./expes/v2_2020-12-06_dh_200-prng-1,30_issda_200,200,rng-200,131,rng,num-start-761,761,25726,17.332969188690186,True,,True,1,False,1000,True,1.0
./expes/v2_2020-12-06_dh_200-prng-1,30_issda_200,200,rng-200,111,rng,num-start-251,251,25726,5.946963310241699,True,,True,1,False,1000,True,1.0
./expes/v2_2020-12-06_dh_200-prng-1,30_issda_200,200,rng-200,141,rng,num-start-71,71,25726,2.9060020446777344,True,,True,1,False,1000,True,1.0
./expes/v2_2020-12-06_dh_200-prng-1,30_issda_200,200,rng-200,131,rng,num-start-471,471,25726,10.378920078277588,True,,True,1,False,1000,True,1.0
./expes/v2_2020-12-06_dh_200-prng-1,30_issda_200,200,rng-200,111,rng,num-start-181,181,25726,4.464653015136719,True,,True,1,False,1000,True,1.0
./expes/v2_2020-12-06_dh_200-prng-1,30_issda_200,200,rng-200,131,rng,num-start-481,481,25726,10.959694385528564,True,,True,1,False,1000,True,1.0
./expes/v2_2020-12-06_dh_200-prng-1,30_issda_200,200,rng-200,21,rng,num-start-931,931,25726,20.648678302764893,True,,True,1,False,1000,True,1.0
./expes/v2_2020-12-06_dh_200-prng-1,30_issda_200,200,rng-200,171,rng,num-start-41,41,25726,11.287763118743896,True,,True,1,False,1000,True,1.0
./expes/v2_2020-12-06_dh_200-prng-1,30_issda_200,200,rng-200,51,rng,num-start-351,351,25726,8.192606925964355,True,,True,1,False,1000,True,1.0
./expes/v2_2020-12-06_dh_200-prng-1,30_issda_200,200,rng-200,151,rng,num-start-691,691,25726,15.683597326278687,True,,True,1,False,1000,True,1.0
./expes/v2_2020-12-06_dh_200-prng-1,30_issda_200,200,rng-200,31,rng,num-start-281,281,25726,6.95595908164978,True,,True,1,False,1000,True,1.0
./expes/v2_2020-12-06_dh_200-prng-1,30_issda_200,200,rng-200,51,rng,num-start-461,461,25726,10.783258438110352,True,,True,1,False,1000,True,1.0
./expes/v2_2020-12-06_dh_200-prng-1,30_issda_200,200,rng-200,191,rng,num-start-51,51,25726,1.179999589920044,True,,True,1,False,1000,True,1.0
./expes/v2_2020-12-06_dh_200-prng-1,30_issda_200,200,rng-200,171,rng,num-start-651,651,25726,15.17773723602295,True,,True,1,False,1000,True,1.0
./expes/v2_2020-12-06_dh_200-prng-1,30_issda_200,200,rng-200,181,rng,num-start-891,891,25726,19.12489676475525,True,,True,1,False,1000,True,1.0
./expes/v2_2020-12-06_dh_200-prng-1,30_issda_200,200,rng-200,1,rng,num-start-181,181,25726,3.8153982162475586,True,,True,1,False,1000,True,1.0
./expes/v2_2020-12-06_dh_200-prng-1,30_issda_200,200,rng-200,51,rng,num-start-421,421,25726,9.872460126876831,True,,True,1,False,1000,True,1.0
./expes/v2_2020-12-06_dh_200-prng-1,30_issda_200,200,rng-200,31,rng,num-start-891,891,25726,20.519457578659058,True,,True,1,False,1000,True,1.0
./expes/v2_2020-12-06_dh_200-prng-1,30_issda_200,200,rng-200,51,rng,num-start-841,841,25726,18.81228017807007,True,,True,1,False,1000,True,1.0
