expe,clients,clients_size,clients_subset,agg_size,method,days,days_size,days_total,time,valid,valid_sum,success,nsols,wall_hit,wall_time,pooled,valid_sums
./expes/v2_2020-12-06_dh_200-prng-1,30_issda_200,200,rng-200,81,rng,num-start-681,681,25726,16.777048349380493,True,,True,1,False,1000,True,1.0
./expes/v2_2020-12-06_dh_200-prng-1,30_issda_200,200,rng-200,71,rng,num-start-411,411,25726,10.212809801101685,True,,True,1,False,1000,True,1.0
./expes/v2_2020-12-06_dh_200-prng-1,30_issda_200,200,rng-200,21,rng,num-start-851,851,25726,20.164204597473145,True,,True,1,False,1000,True,1.0
./expes/v2_2020-12-06_dh_200-prng-1,30_issda_200,200,rng-200,71,rng,num-start-561,561,25726,13.369709730148315,True,,True,1,False,1000,True,1.0
./expes/v2_2020-12-06_dh_200-prng-1,30_issda_200,200,rng-200,11,rng,num-start-311,311,25726,7.416627883911133,True,,True,1,False,1000,True,1.0
./expes/v2_2020-12-06_dh_200-prng-1,30_issda_200,200,rng-200,171,rng,num-start-721,721,25726,17.277721881866455,True,,True,1,False,1000,True,1.0
./expes/v2_2020-12-06_dh_200-prng-1,30_issda_200,200,rng-200,31,rng,num-start-181,181,25726,4.523394584655762,True,,True,1,False,1000,True,1.0
./expes/v2_2020-12-06_dh_200-prng-1,30_issda_200,200,rng-200,61,rng,num-start-91,91,25726,3.7077932357788086,True,,True,1,False,1000,True,1.0
./expes/v2_2020-12-06_dh_200-prng-1,30_issda_200,200,rng-200,111,rng,num-start-441,441,25726,11.524955749511719,True,,True,1,False,1000,True,1.0
./expes/v2_2020-12-06_dh_200-prng-1,30_issda_200,200,rng-200,171,rng,num-start-701,701,25726,16.56227421760559,True,,True,1,False,1000,True,1.0
./expes/v2_2020-12-06_dh_200-prng-1,30_issda_200,200,rng-200,91,rng,num-start-611,611,25726,15.563264608383179,True,,True,1,False,1000,True,1.0
./expes/v2_2020-12-06_dh_200-prng-1,30_issda_200,200,rng-200,111,rng,num-start-751,751,25726,20.58178472518921,True,,True,1,False,1000,True,1.0
./expes/v2_2020-12-06_dh_200-prng-1,30_issda_200,200,rng-200,111,rng,num-start-101,101,25726,2.5761945247650146,True,,True,1,False,1000,True,1.0
./expes/v2_2020-12-06_dh_200-prng-1,30_issda_200,200,rng-200,51,rng,num-start-671,671,25726,17.35427212715149,True,,True,1,False,1000,True,1.0
./expes/v2_2020-12-06_dh_200-prng-1,30_issda_200,200,rng-200,101,rng,num-start-521,521,25726,12.743932962417603,True,,True,1,False,1000,True,1.0
./expes/v2_2020-12-06_dh_200-prng-1,30_issda_200,200,rng-200,61,rng,num-start-331,331,25726,8.82384705543518,True,,True,1,False,1000,True,1.0
./expes/v2_2020-12-06_dh_200-prng-1,30_issda_200,200,rng-200,31,rng,num-start-541,541,25726,13.339058637619019,True,,True,1,False,1000,True,1.0
./expes/v2_2020-12-06_dh_200-prng-1,30_issda_200,200,rng-200,161,rng,num-start-881,881,25726,22.561418533325195,True,,True,1,False,1000,True,1.0
./expes/v2_2020-12-06_dh_200-prng-1,30_issda_200,200,rng-200,171,rng,num-start-41,41,25726,2.016573667526245,True,,True,1,False,1000,True,1.0
./expes/v2_2020-12-06_dh_200-prng-1,30_issda_200,200,rng-200,31,rng,num-start-121,121,25726,3.1541900634765625,True,,True,1,False,1000,True,1.0
./expes/v2_2020-12-06_dh_200-prng-1,30_issda_200,200,rng-200,171,rng,num-start-181,181,25726,4.51409125328064,True,,True,1,False,1000,True,1.0
./expes/v2_2020-12-06_dh_200-prng-1,30_issda_200,200,rng-200,101,rng,num-start-661,661,25726,16.56462574005127,True,,True,1,False,1000,True,1.0
./expes/v2_2020-12-06_dh_200-prng-1,30_issda_200,200,rng-200,191,rng,num-start-81,81,25726,2.0345749855041504,True,,True,1,False,1000,True,1.0
./expes/v2_2020-12-06_dh_200-prng-1,30_issda_200,200,rng-200,21,rng,num-start-601,601,25726,14.773099899291992,True,,True,1,False,1000,True,1.0
./expes/v2_2020-12-06_dh_200-prng-1,30_issda_200,200,rng-200,131,rng,num-start-491,491,25726,12.114956140518188,True,,True,1,False,1000,True,1.0
./expes/v2_2020-12-06_dh_200-prng-1,30_issda_200,200,rng-200,131,rng,num-start-121,121,25726,3.153043508529663,True,,True,1,False,1000,True,1.0
./expes/v2_2020-12-06_dh_200-prng-1,30_issda_200,200,rng-200,171,rng,num-start-831,831,25726,20.561796188354492,True,,True,1,False,1000,True,1.0
./expes/v2_2020-12-06_dh_200-prng-1,30_issda_200,200,rng-200,111,rng,num-start-571,571,25726,14.01337218284607,True,,True,1,False,1000,True,1.0
./expes/v2_2020-12-06_dh_200-prng-1,30_issda_200,200,rng-200,171,rng,num-start-331,331,25726,7.500962018966675,True,,True,1,False,1000,True,1.0
./expes/v2_2020-12-06_dh_200-prng-1,30_issda_200,200,rng-200,111,rng,num-start-51,51,25726,1001.5788929462433,False,,False,0,True,1000,True,0.0
./expes/v2_2020-12-06_dh_200-prng-1,30_issda_200,200,rng-200,181,rng,num-start-751,751,25726,17.577488660812378,True,,True,1,False,1000,True,1.0
./expes/v2_2020-12-06_dh_200-prng-1,30_issda_200,200,rng-200,81,rng,num-start-711,711,25726,17.715998888015747,True,,True,1,False,1000,True,1.0
./expes/v2_2020-12-06_dh_200-prng-1,30_issda_200,200,rng-200,131,rng,num-start-621,621,25726,15.034603595733643,True,,True,1,False,1000,True,1.0
./expes/v2_2020-12-06_dh_200-prng-1,30_issda_200,200,rng-200,151,rng,num-start-561,561,25726,12.954605102539062,True,,True,1,False,1000,True,1.0
./expes/v2_2020-12-06_dh_200-prng-1,30_issda_200,200,rng-200,21,rng,num-start-641,641,25726,14.23759150505066,True,,True,1,False,1000,True,1.0
./expes/v2_2020-12-06_dh_200-prng-1,30_issda_200,200,rng-200,21,rng,num-start-741,741,25726,16.70103931427002,True,,True,1,False,1000,True,1.0
./expes/v2_2020-12-06_dh_200-prng-1,30_issda_200,200,rng-200,141,rng,num-start-321,321,25726,7.44611382484436,True,,True,1,False,1000,True,1.0
./expes/v2_2020-12-06_dh_200-prng-1,30_issda_200,200,rng-200,71,rng,num-start-821,821,25726,18.763921976089478,True,,True,1,False,1000,True,1.0
./expes/v2_2020-12-06_dh_200-prng-1,30_issda_200,200,rng-200,81,rng,num-start-441,441,25726,11.078526735305786,True,,True,1,False,1000,True,1.0
./expes/v2_2020-12-06_dh_200-prng-1,30_issda_200,200,rng-200,121,rng,num-start-941,941,25726,22.43206214904785,True,,True,1,False,1000,True,1.0
./expes/v2_2020-12-06_dh_200-prng-1,30_issda_200,200,rng-200,121,rng,num-start-541,541,25726,12.704793930053711,True,,True,1,False,1000,True,1.0
./expes/v2_2020-12-06_dh_200-prng-1,30_issda_200,200,rng-200,161,rng,num-start-51,51,25726,2.4952762126922607,True,,True,1,False,1000,True,1.0
./expes/v2_2020-12-06_dh_200-prng-1,30_issda_200,200,rng-200,171,rng,num-start-151,151,25726,3.6617820262908936,True,,True,1,False,1000,True,1.0
./expes/v2_2020-12-06_dh_200-prng-1,30_issda_200,200,rng-200,11,rng,num-start-171,171,25726,4.3890769481658936,True,,True,1,False,1000,True,1.0
./expes/v2_2020-12-06_dh_200-prng-1,30_issda_200,200,rng-200,31,rng,num-start-511,511,25726,11.998806715011597,True,,True,1,False,1000,True,1.0
./expes/v2_2020-12-06_dh_200-prng-1,30_issda_200,200,rng-200,171,rng,num-start-671,671,25726,15.565604448318481,True,,True,1,False,1000,True,1.0
./expes/v2_2020-12-06_dh_200-prng-1,30_issda_200,200,rng-200,71,rng,num-start-711,711,25726,16.13257336616516,True,,True,1,False,1000,True,1.0
./expes/v2_2020-12-06_dh_200-prng-1,30_issda_200,200,rng-200,101,rng,num-start-161,161,25726,4.094316720962524,True,,True,1,False,1000,True,1.0
./expes/v2_2020-12-06_dh_200-prng-1,30_issda_200,200,rng-200,161,rng,num-start-871,871,25726,19.536818265914917,True,,True,1,False,1000,True,1.0
./expes/v2_2020-12-06_dh_200-prng-1,30_issda_200,200,rng-200,61,rng,num-start-741,741,25726,17.754119634628296,True,,True,1,False,1000,True,1.0
./expes/v2_2020-12-06_dh_200-prng-1,30_issda_200,200,rng-200,61,rng,num-start-241,241,25726,5.760365009307861,True,,True,1,False,1000,True,1.0
./expes/v2_2020-12-06_dh_200-prng-1,30_issda_200,200,rng-200,151,rng,num-start-221,221,25726,5.3361594676971436,True,,True,1,False,1000,True,1.0
./expes/v2_2020-12-06_dh_200-prng-1,30_issda_200,200,rng-200,11,rng,num-start-251,251,25726,5.338459491729736,True,,True,1,False,1000,True,1.0
./expes/v2_2020-12-06_dh_200-prng-1,30_issda_200,200,rng-200,81,rng,num-start-781,781,25726,18.525043964385986,True,,True,1,False,1000,True,1.0
./expes/v2_2020-12-06_dh_200-prng-1,30_issda_200,200,rng-200,71,rng,num-start-701,701,25726,17.287107706069946,True,,True,1,False,1000,True,1.0
./expes/v2_2020-12-06_dh_200-prng-1,30_issda_200,200,rng-200,81,rng,num-start-691,691,25726,16.476970195770264,True,,True,1,False,1000,True,1.0
./expes/v2_2020-12-06_dh_200-prng-1,30_issda_200,200,rng-200,141,rng,num-start-541,541,25726,13.366277694702148,True,,True,1,False,1000,True,1.0
./expes/v2_2020-12-06_dh_200-prng-1,30_issda_200,200,rng-200,11,rng,num-start-911,911,25726,19.807820558547974,True,,True,1,False,1000,True,1.0
./expes/v2_2020-12-06_dh_200-prng-1,30_issda_200,200,rng-200,111,rng,num-start-651,651,25726,15.277555704116821,True,,True,1,False,1000,True,1.0
./expes/v2_2020-12-06_dh_200-prng-1,30_issda_200,200,rng-200,181,rng,num-start-51,51,25726,1.840358018875122,True,,True,1,False,1000,True,1.0
./expes/v2_2020-12-06_dh_200-prng-1,30_issda_200,200,rng-200,11,rng,num-start-661,661,25726,14.493477821350098,True,,True,1,False,1000,True,1.0
./expes/v2_2020-12-06_dh_200-prng-1,30_issda_200,200,rng-200,1,rng,num-start-581,581,25726,12.24075698852539,True,,True,1,False,1000,True,1.0
./expes/v2_2020-12-06_dh_200-prng-1,30_issda_200,200,rng-200,141,rng,num-start-181,181,25726,4.595893859863281,True,,True,1,False,1000,True,1.0
./expes/v2_2020-12-06_dh_200-prng-1,30_issda_200,200,rng-200,161,rng,num-start-611,611,25726,13.818839073181152,True,,True,1,False,1000,True,1.0
./expes/v2_2020-12-06_dh_200-prng-1,30_issda_200,200,rng-200,1,rng,num-start-801,801,25726,17.155213356018066,True,,True,1,False,1000,True,1.0
./expes/v2_2020-12-06_dh_200-prng-1,30_issda_200,200,rng-200,121,rng,num-start-781,781,25726,18.632922172546387,True,,True,1,False,1000,True,1.0
./expes/v2_2020-12-06_dh_200-prng-1,30_issda_200,200,rng-200,151,rng,num-start-451,451,25726,11.048466920852661,True,,True,1,False,1000,True,1.0
./expes/v2_2020-12-06_dh_200-prng-1,30_issda_200,200,rng-200,111,rng,num-start-931,931,25726,22.98108220100403,True,,True,1,False,1000,True,1.0
./expes/v2_2020-12-06_dh_200-prng-1,30_issda_200,200,rng-200,61,rng,num-start-511,511,25726,12.312887907028198,True,,True,1,False,1000,True,1.0
./expes/v2_2020-12-06_dh_200-prng-1,30_issda_200,200,rng-200,31,rng,num-start-71,71,25726,1.8730542659759521,True,,True,1,False,1000,True,1.0
./expes/v2_2020-12-06_dh_200-prng-1,30_issda_200,200,rng-200,191,rng,num-start-631,631,25726,13.334856748580933,True,,True,1,False,1000,True,1.0
./expes/v2_2020-12-06_dh_200-prng-1,30_issda_200,200,rng-200,11,rng,num-start-991,991,25726,23.57058620452881,True,,True,1,False,1000,True,1.0
./expes/v2_2020-12-06_dh_200-prng-1,30_issda_200,200,rng-200,141,rng,num-start-251,251,25726,6.158993482589722,True,,True,1,False,1000,True,1.0
./expes/v2_2020-12-06_dh_200-prng-1,30_issda_200,200,rng-200,51,rng,num-start-571,571,25726,14.504631042480469,True,,True,1,False,1000,True,1.0
./expes/v2_2020-12-06_dh_200-prng-1,30_issda_200,200,rng-200,61,rng,num-start-411,411,25726,9.92479157447815,True,,True,1,False,1000,True,1.0
./expes/v2_2020-12-06_dh_200-prng-1,30_issda_200,200,rng-200,41,rng,num-start-501,501,25726,11.757648706436157,True,,True,1,False,1000,True,1.0
./expes/v2_2020-12-06_dh_200-prng-1,30_issda_200,200,rng-200,121,rng,num-start-21,21,25726,1001.3325057029724,False,,False,0,True,1000,True,0.0
./expes/v2_2020-12-06_dh_200-prng-1,30_issda_200,200,rng-200,161,rng,num-start-951,951,25726,22.333659887313843,True,,True,1,False,1000,True,1.0
./expes/v2_2020-12-06_dh_200-prng-1,30_issda_200,200,rng-200,131,rng,num-start-281,281,25726,7.005862474441528,True,,True,1,False,1000,True,1.0
./expes/v2_2020-12-06_dh_200-prng-1,30_issda_200,200,rng-200,21,rng,num-start-391,391,25726,9.07706880569458,True,,True,1,False,1000,True,1.0
./expes/v2_2020-12-06_dh_200-prng-1,30_issda_200,200,rng-200,181,rng,num-start-491,491,25726,11.999941349029541,True,,True,1,False,1000,True,1.0
./expes/v2_2020-12-06_dh_200-prng-1,30_issda_200,200,rng-200,171,rng,num-start-21,21,25726,1000.5587480068207,False,,False,0,True,1000,True,0.0
./expes/v2_2020-12-06_dh_200-prng-1,30_issda_200,200,rng-200,171,rng,num-start-531,531,25726,12.960141897201538,True,,True,1,False,1000,True,1.0
./expes/v2_2020-12-06_dh_200-prng-1,30_issda_200,200,rng-200,181,rng,num-start-721,721,25726,16.2434983253479,True,,True,1,False,1000,True,1.0
./expes/v2_2020-12-06_dh_200-prng-1,30_issda_200,200,rng-200,171,rng,num-start-11,11,25726,1001.1536004543304,False,,False,0,True,1000,True,0.0
./expes/v2_2020-12-06_dh_200-prng-1,30_issda_200,200,rng-200,51,rng,num-start-851,851,25726,19.506829738616943,True,,True,1,False,1000,True,1.0
./expes/v2_2020-12-06_dh_200-prng-1,30_issda_200,200,rng-200,81,rng,num-start-511,511,25726,12.569635391235352,True,,True,1,False,1000,True,1.0
./expes/v2_2020-12-06_dh_200-prng-1,30_issda_200,200,rng-200,151,rng,num-start-241,241,25726,5.766649007797241,True,,True,1,False,1000,True,1.0
./expes/v2_2020-12-06_dh_200-prng-1,30_issda_200,200,rng-200,1,rng,num-start-991,991,25726,21.0779767036438,True,,True,1,False,1000,True,1.0
./expes/v2_2020-12-06_dh_200-prng-1,30_issda_200,200,rng-200,1,rng,num-start-411,411,25726,9.038977146148682,True,,True,1,False,1000,True,1.0
./expes/v2_2020-12-06_dh_200-prng-1,30_issda_200,200,rng-200,21,rng,num-start-821,821,25726,19.169585704803467,True,,True,1,False,1000,True,1.0
./expes/v2_2020-12-06_dh_200-prng-1,30_issda_200,200,rng-200,191,rng,num-start-851,851,25726,18.144574880599976,True,,True,1,False,1000,True,1.0
./expes/v2_2020-12-06_dh_200-prng-1,30_issda_200,200,rng-200,121,rng,num-start-461,461,25726,10.988008260726929,True,,True,1,False,1000,True,1.0
./expes/v2_2020-12-06_dh_200-prng-1,30_issda_200,200,rng-200,191,rng,num-start-301,301,25726,6.408987283706665,True,,True,1,False,1000,True,1.0
./expes/v2_2020-12-06_dh_200-prng-1,30_issda_200,200,rng-200,1,rng,num-start-201,201,25726,4.27473783493042,True,,True,1,False,1000,True,1.0
./expes/v2_2020-12-06_dh_200-prng-1,30_issda_200,200,rng-200,141,rng,num-start-571,571,25726,13.352582454681396,True,,True,1,False,1000,True,1.0
./expes/v2_2020-12-06_dh_200-prng-1,30_issda_200,200,rng-200,151,rng,num-start-861,861,25726,21.894455909729004,True,,True,1,False,1000,True,1.0
./expes/v2_2020-12-06_dh_200-prng-1,30_issda_200,200,rng-200,181,rng,num-start-721,721,25726,16.6712327003479,True,,True,1,False,1000,True,1.0
./expes/v2_2020-12-06_dh_200-prng-1,30_issda_200,200,rng-200,31,rng,num-start-841,841,25726,21.082638263702393,True,,True,1,False,1000,True,1.0
./expes/v2_2020-12-06_dh_200-prng-1,30_issda_200,200,rng-200,51,rng,num-start-391,391,25726,9.908931255340576,True,,True,1,False,1000,True,1.0
./expes/v2_2020-12-06_dh_200-prng-1,30_issda_200,200,rng-200,131,rng,num-start-411,411,25726,10.041767597198486,True,,True,1,False,1000,True,1.0
./expes/v2_2020-12-06_dh_200-prng-1,30_issda_200,200,rng-200,81,rng,num-start-371,371,25726,9.184870719909668,True,,True,1,False,1000,True,1.0
./expes/v2_2020-12-06_dh_200-prng-1,30_issda_200,200,rng-200,131,rng,num-start-321,321,25726,7.555811882019043,True,,True,1,False,1000,True,1.0
./expes/v2_2020-12-06_dh_200-prng-1,30_issda_200,200,rng-200,181,rng,num-start-841,841,25726,18.919393301010132,True,,True,1,False,1000,True,1.0
./expes/v2_2020-12-06_dh_200-prng-1,30_issda_200,200,rng-200,11,rng,num-start-271,271,25726,6.731511116027832,True,,True,1,False,1000,True,1.0
./expes/v2_2020-12-06_dh_200-prng-1,30_issda_200,200,rng-200,91,rng,num-start-981,981,25726,23.28553318977356,True,,True,1,False,1000,True,1.0
./expes/v2_2020-12-06_dh_200-prng-1,30_issda_200,200,rng-200,181,rng,num-start-71,71,25726,1.6867094039916992,True,,True,1,False,1000,True,1.0
./expes/v2_2020-12-06_dh_200-prng-1,30_issda_200,200,rng-200,11,rng,num-start-781,781,25726,18.628896474838257,True,,True,1,False,1000,True,1.0
./expes/v2_2020-12-06_dh_200-prng-1,30_issda_200,200,rng-200,71,rng,num-start-851,851,25726,21.405959129333496,True,,True,1,False,1000,True,1.0
./expes/v2_2020-12-06_dh_200-prng-1,30_issda_200,200,rng-200,101,rng,num-start-381,381,25726,9.495813131332397,True,,True,1,False,1000,True,1.0
./expes/v2_2020-12-06_dh_200-prng-1,30_issda_200,200,rng-200,11,rng,num-start-771,771,25726,17.82023572921753,True,,True,1,False,1000,True,1.0
./expes/v2_2020-12-06_dh_200-prng-1,30_issda_200,200,rng-200,91,rng,num-start-61,61,25726,5.353769540786743,True,,True,1,False,1000,True,1.0
./expes/v2_2020-12-06_dh_200-prng-1,30_issda_200,200,rng-200,191,rng,num-start-611,611,25726,14.456610202789307,True,,True,1,False,1000,True,1.0
./expes/v2_2020-12-06_dh_200-prng-1,30_issda_200,200,rng-200,141,rng,num-start-121,121,25726,3.1575589179992676,True,,True,1,False,1000,True,1.0
./expes/v2_2020-12-06_dh_200-prng-1,30_issda_200,200,rng-200,21,rng,num-start-691,691,25726,16.646437406539917,True,,True,1,False,1000,True,1.0
./expes/v2_2020-12-06_dh_200-prng-1,30_issda_200,200,rng-200,131,rng,num-start-821,821,25726,20.679569005966187,True,,True,1,False,1000,True,1.0
./expes/v2_2020-12-06_dh_200-prng-1,30_issda_200,200,rng-200,151,rng,num-start-11,11,25726,1000.2976937294006,False,,False,0,True,1000,True,0.0
./expes/v2_2020-12-06_dh_200-prng-1,30_issda_200,200,rng-200,61,rng,num-start-631,631,25726,15.228792905807495,True,,True,1,False,1000,True,1.0
./expes/v2_2020-12-06_dh_200-prng-1,30_issda_200,200,rng-200,171,rng,num-start-391,391,25726,9.333093881607056,True,,True,1,False,1000,True,1.0
./expes/v2_2020-12-06_dh_200-prng-1,30_issda_200,200,rng-200,31,rng,num-start-941,941,25726,21.9727144241333,True,,True,1,False,1000,True,1.0
./expes/v2_2020-12-06_dh_200-prng-1,30_issda_200,200,rng-200,11,rng,num-start-671,671,25726,14.657684087753296,True,,True,1,False,1000,True,1.0
./expes/v2_2020-12-06_dh_200-prng-1,30_issda_200,200,rng-200,121,rng,num-start-691,691,25726,17.337807655334473,True,,True,1,False,1000,True,1.0
./expes/v2_2020-12-06_dh_200-prng-1,30_issda_200,200,rng-200,171,rng,num-start-621,621,25726,14.321594476699829,True,,True,1,False,1000,True,1.0
./expes/v2_2020-12-06_dh_200-prng-1,30_issda_200,200,rng-200,171,rng,num-start-761,761,25726,25.347379446029663,True,,True,1,False,1000,True,1.0
./expes/v2_2020-12-06_dh_200-prng-1,30_issda_200,200,rng-200,191,rng,num-start-151,151,25726,4.231277942657471,True,,True,1,False,1000,True,1.0
./expes/v2_2020-12-06_dh_200-prng-1,30_issda_200,200,rng-200,51,rng,num-start-751,751,25726,17.442564487457275,True,,True,1,False,1000,True,1.0
./expes/v2_2020-12-06_dh_200-prng-1,30_issda_200,200,rng-200,21,rng,num-start-871,871,25726,26.39435386657715,True,,True,1,False,1000,True,1.0
./expes/v2_2020-12-06_dh_200-prng-1,30_issda_200,200,rng-200,101,rng,num-start-761,761,25726,19.93222403526306,True,,True,1,False,1000,True,1.0
./expes/v2_2020-12-06_dh_200-prng-1,30_issda_200,200,rng-200,1,rng,num-start-141,141,25726,8.143726348876953,True,,True,1,False,1000,True,1.0
./expes/v2_2020-12-06_dh_200-prng-1,30_issda_200,200,rng-200,91,rng,num-start-851,851,25726,21.698424100875854,True,,True,1,False,1000,True,1.0
./expes/v2_2020-12-06_dh_200-prng-1,30_issda_200,200,rng-200,31,rng,num-start-781,781,25726,19.18785572052002,True,,True,1,False,1000,True,1.0
./expes/v2_2020-12-06_dh_200-prng-1,30_issda_200,200,rng-200,71,rng,num-start-451,451,25726,17.59304141998291,True,,True,1,False,1000,True,1.0
./expes/v2_2020-12-06_dh_200-prng-1,30_issda_200,200,rng-200,111,rng,num-start-581,581,25726,14.150561332702637,True,,True,1,False,1000,True,1.0
./expes/v2_2020-12-06_dh_200-prng-1,30_issda_200,200,rng-200,131,rng,num-start-951,951,25726,22.864827871322632,True,,True,1,False,1000,True,1.0
./expes/v2_2020-12-06_dh_200-prng-1,30_issda_200,200,rng-200,41,rng,num-start-381,381,25726,10.623736381530762,True,,True,1,False,1000,True,1.0
./expes/v2_2020-12-06_dh_200-prng-1,30_issda_200,200,rng-200,101,rng,num-start-51,51,25726,1001.2067120075226,False,,False,0,True,1000,True,0.0
./expes/v2_2020-12-06_dh_200-prng-1,30_issda_200,200,rng-200,11,rng,num-start-881,881,25726,48.62006664276123,True,,True,1,False,1000,True,1.0
./expes/v2_2020-12-06_dh_200-prng-1,30_issda_200,200,rng-200,151,rng,num-start-581,581,25726,16.609985828399658,True,,True,1,False,1000,True,1.0
./expes/v2_2020-12-06_dh_200-prng-1,30_issda_200,200,rng-200,41,rng,num-start-701,701,25726,24.098575592041016,True,,True,1,False,1000,True,1.0
./expes/v2_2020-12-06_dh_200-prng-1,30_issda_200,200,rng-200,41,rng,num-start-831,831,25726,27.10786485671997,True,,True,1,False,1000,True,1.0
./expes/v2_2020-12-06_dh_200-prng-1,30_issda_200,200,rng-200,191,rng,num-start-441,441,25726,11.863548755645752,True,,True,1,False,1000,True,1.0
./expes/v2_2020-12-06_dh_200-prng-1,30_issda_200,200,rng-200,161,rng,num-start-951,951,25726,21.776262283325195,True,,True,1,False,1000,True,1.0
./expes/v2_2020-12-06_dh_200-prng-1,30_issda_200,200,rng-200,141,rng,num-start-571,571,25726,13.90105676651001,True,,True,1,False,1000,True,1.0
./expes/v2_2020-12-06_dh_200-prng-1,30_issda_200,200,rng-200,141,rng,num-start-711,711,25726,33.67004990577698,True,,True,1,False,1000,True,1.0
./expes/v2_2020-12-06_dh_200-prng-1,30_issda_200,200,rng-200,51,rng,num-start-951,951,25726,26.096585035324097,True,,True,1,False,1000,True,1.0
./expes/v2_2020-12-06_dh_200-prng-1,30_issda_200,200,rng-200,131,rng,num-start-601,601,25726,14.056660413742065,True,,True,1,False,1000,True,1.0
./expes/v2_2020-12-06_dh_200-prng-1,30_issda_200,200,rng-200,61,rng,num-start-691,691,25726,16.622207403182983,True,,True,1,False,1000,True,1.0
./expes/v2_2020-12-06_dh_200-prng-1,30_issda_200,200,rng-200,181,rng,num-start-291,291,25726,6.886496543884277,True,,True,1,False,1000,True,1.0
./expes/v2_2020-12-06_dh_200-prng-1,30_issda_200,200,rng-200,151,rng,num-start-51,51,25726,2.942963123321533,True,,True,1,False,1000,True,1.0
./expes/v2_2020-12-06_dh_200-prng-1,30_issda_200,200,rng-200,61,rng,num-start-461,461,25726,12.24708104133606,True,,True,1,False,1000,True,1.0
./expes/v2_2020-12-06_dh_200-prng-1,30_issda_200,200,rng-200,161,rng,num-start-321,321,25726,11.09887146949768,True,,True,1,False,1000,True,1.0
./expes/v2_2020-12-06_dh_200-prng-1,30_issda_200,200,rng-200,21,rng,num-start-711,711,25726,19.06671404838562,True,,True,1,False,1000,True,1.0
./expes/v2_2020-12-06_dh_200-prng-1,30_issda_200,200,rng-200,131,rng,num-start-981,981,25726,26.219942808151245,True,,True,1,False,1000,True,1.0
./expes/v2_2020-12-06_dh_200-prng-1,30_issda_200,200,rng-200,181,rng,num-start-821,821,25726,20.503024578094482,True,,True,1,False,1000,True,1.0
./expes/v2_2020-12-06_dh_200-prng-1,30_issda_200,200,rng-200,1,rng,num-start-431,431,25726,17.343549489974976,True,,True,1,False,1000,True,1.0
./expes/v2_2020-12-06_dh_200-prng-1,30_issda_200,200,rng-200,101,rng,num-start-891,891,25726,26.52130675315857,True,,True,1,False,1000,True,1.0
./expes/v2_2020-12-06_dh_200-prng-1,30_issda_200,200,rng-200,121,rng,num-start-141,141,25726,3.558243989944458,True,,True,1,False,1000,True,1.0
./expes/v2_2020-12-06_dh_200-prng-1,30_issda_200,200,rng-200,31,rng,num-start-771,771,25726,17.397602081298828,True,,True,1,False,1000,True,1.0
./expes/v2_2020-12-06_dh_200-prng-1,30_issda_200,200,rng-200,1,rng,num-start-701,701,25726,14.372108697891235,True,,True,1,False,1000,True,1.0
./expes/v2_2020-12-06_dh_200-prng-1,30_issda_200,200,rng-200,91,rng,num-start-951,951,25726,23.696266889572144,True,,True,1,False,1000,True,1.0
./expes/v2_2020-12-06_dh_200-prng-1,30_issda_200,200,rng-200,181,rng,num-start-21,21,25726,62.049569845199585,True,,True,1,False,1000,True,1.0
./expes/v2_2020-12-06_dh_200-prng-1,30_issda_200,200,rng-200,61,rng,num-start-181,181,25726,4.487109184265137,True,,True,1,False,1000,True,1.0
./expes/v2_2020-12-06_dh_200-prng-1,30_issda_200,200,rng-200,81,rng,num-start-11,11,25726,1001.0660438537598,False,,False,0,True,1000,True,0.0
./expes/v2_2020-12-06_dh_200-prng-1,30_issda_200,200,rng-200,121,rng,num-start-251,251,25726,5.9260094165802,True,,True,1,False,1000,True,1.0
./expes/v2_2020-12-06_dh_200-prng-1,30_issda_200,200,rng-200,141,rng,num-start-191,191,25726,4.940646648406982,True,,True,1,False,1000,True,1.0
./expes/v2_2020-12-06_dh_200-prng-1,30_issda_200,200,rng-200,161,rng,num-start-811,811,25726,21.353450775146484,True,,True,1,False,1000,True,1.0
./expes/v2_2020-12-06_dh_200-prng-1,30_issda_200,200,rng-200,141,rng,num-start-451,451,25726,10.039043426513672,True,,True,1,False,1000,True,1.0
./expes/v2_2020-12-06_dh_200-prng-1,30_issda_200,200,rng-200,181,rng,num-start-501,501,25726,15.376072883605957,True,,True,1,False,1000,True,1.0
./expes/v2_2020-12-06_dh_200-prng-1,30_issda_200,200,rng-200,151,rng,num-start-911,911,25726,26.814226150512695,True,,True,1,False,1000,True,1.0
./expes/v2_2020-12-06_dh_200-prng-1,30_issda_200,200,rng-200,141,rng,num-start-981,981,25726,35.99307060241699,True,,True,1,False,1000,True,1.0
./expes/v2_2020-12-06_dh_200-prng-1,30_issda_200,200,rng-200,61,rng,num-start-61,61,25726,26.042933464050293,True,,True,1,False,1000,True,1.0
./expes/v2_2020-12-06_dh_200-prng-1,30_issda_200,200,rng-200,191,rng,num-start-221,221,25726,9.120250225067139,True,,True,1,False,1000,True,1.0
./expes/v2_2020-12-06_dh_200-prng-1,30_issda_200,200,rng-200,181,rng,num-start-301,301,25726,17.141536235809326,True,,True,1,False,1000,True,1.0
./expes/v2_2020-12-06_dh_200-prng-1,30_issda_200,200,rng-200,41,rng,num-start-741,741,25726,23.50518250465393,True,,True,1,False,1000,True,1.0
./expes/v2_2020-12-06_dh_200-prng-1,30_issda_200,200,rng-200,101,rng,num-start-191,191,25726,5.237518787384033,True,,True,1,False,1000,True,1.0
./expes/v2_2020-12-06_dh_200-prng-1,30_issda_200,200,rng-200,81,rng,num-start-701,701,25726,17.187565326690674,True,,True,1,False,1000,True,1.0
./expes/v2_2020-12-06_dh_200-prng-1,30_issda_200,200,rng-200,131,rng,num-start-581,581,25726,16.531550645828247,True,,True,1,False,1000,True,1.0
./expes/v2_2020-12-06_dh_200-prng-1,30_issda_200,200,rng-200,61,rng,num-start-321,321,25726,13.607966184616089,True,,True,1,False,1000,True,1.0
./expes/v2_2020-12-06_dh_200-prng-1,30_issda_200,200,rng-200,11,rng,num-start-271,271,25726,10.157304763793945,True,,True,1,False,1000,True,1.0
./expes/v2_2020-12-06_dh_200-prng-1,30_issda_200,200,rng-200,191,rng,num-start-611,611,25726,14.022907733917236,True,,True,1,False,1000,True,1.0
./expes/v2_2020-12-06_dh_200-prng-1,30_issda_200,200,rng-200,151,rng,num-start-451,451,25726,10.788549423217773,True,,True,1,False,1000,True,1.0
./expes/v2_2020-12-06_dh_200-prng-1,30_issda_200,200,rng-200,11,rng,num-start-91,91,25726,2.530712127685547,True,,True,1,False,1000,True,1.0
./expes/v2_2020-12-06_dh_200-prng-1,30_issda_200,200,rng-200,111,rng,num-start-501,501,25726,12.521003007888794,True,,True,1,False,1000,True,1.0
./expes/v2_2020-12-06_dh_200-prng-1,30_issda_200,200,rng-200,101,rng,num-start-481,481,25726,13.207618713378906,True,,True,1,False,1000,True,1.0
./expes/v2_2020-12-06_dh_200-prng-1,30_issda_200,200,rng-200,31,rng,num-start-611,611,25726,14.438220977783203,True,,True,1,False,1000,True,1.0
./expes/v2_2020-12-06_dh_200-prng-1,30_issda_200,200,rng-200,121,rng,num-start-181,181,25726,4.6934099197387695,True,,True,1,False,1000,True,1.0
./expes/v2_2020-12-06_dh_200-prng-1,30_issda_200,200,rng-200,91,rng,num-start-151,151,25726,3.853590726852417,True,,True,1,False,1000,True,1.0
./expes/v2_2020-12-06_dh_200-prng-1,30_issda_200,200,rng-200,121,rng,num-start-391,391,25726,9.28401231765747,True,,True,1,False,1000,True,1.0
./expes/v2_2020-12-06_dh_200-prng-1,30_issda_200,200,rng-200,191,rng,num-start-601,601,25726,13.888904333114624,True,,True,1,False,1000,True,1.0
./expes/v2_2020-12-06_dh_200-prng-1,30_issda_200,200,rng-200,191,rng,num-start-581,581,25726,12.204989910125732,True,,True,1,False,1000,True,1.0
./expes/v2_2020-12-06_dh_200-prng-1,30_issda_200,200,rng-200,51,rng,num-start-801,801,25726,25.321585416793823,True,,True,1,False,1000,True,1.0
./expes/v2_2020-12-06_dh_200-prng-1,30_issda_200,200,rng-200,121,rng,num-start-311,311,25726,16.180802822113037,True,,True,1,False,1000,True,1.0
./expes/v2_2020-12-06_dh_200-prng-1,30_issda_200,200,rng-200,1,rng,num-start-61,61,25726,1.2297956943511963,True,,True,1,False,1000,True,1.0
./expes/v2_2020-12-06_dh_200-prng-1,30_issda_200,200,rng-200,31,rng,num-start-161,161,25726,3.810624122619629,True,,True,1,False,1000,True,1.0
./expes/v2_2020-12-06_dh_200-prng-1,30_issda_200,200,rng-200,71,rng,num-start-651,651,25726,14.978528022766113,True,,True,1,False,1000,True,1.0
./expes/v2_2020-12-06_dh_200-prng-1,30_issda_200,200,rng-200,121,rng,num-start-151,151,25726,23.283947229385376,True,,True,1,False,1000,True,1.0
./expes/v2_2020-12-06_dh_200-prng-1,30_issda_200,200,rng-200,51,rng,num-start-51,51,25726,1001.3304190635681,False,,False,1,True,1000,True,0.0
./expes/v2_2020-12-06_dh_200-prng-1,30_issda_200,200,rng-200,151,rng,num-start-301,301,25726,6.875356435775757,True,,True,1,False,1000,True,1.0
./expes/v2_2020-12-06_dh_200-prng-1,30_issda_200,200,rng-200,121,rng,num-start-591,591,25726,14.319204330444336,True,,True,1,False,1000,True,1.0
./expes/v2_2020-12-06_dh_200-prng-1,30_issda_200,200,rng-200,81,rng,num-start-51,51,25726,1009.7716598510742,False,,False,0,True,1000,True,0.0
./expes/v2_2020-12-06_dh_200-prng-1,30_issda_200,200,rng-200,151,rng,num-start-191,191,25726,6.142839193344116,True,,True,1,False,1000,True,1.0
./expes/v2_2020-12-06_dh_200-prng-1,30_issda_200,200,rng-200,141,rng,num-start-321,321,25726,7.851472854614258,True,,True,1,False,1000,True,1.0
./expes/v2_2020-12-06_dh_200-prng-1,30_issda_200,200,rng-200,131,rng,num-start-511,511,25726,12.01173996925354,True,,True,1,False,1000,True,1.0
./expes/v2_2020-12-06_dh_200-prng-1,30_issda_200,200,rng-200,41,rng,num-start-841,841,25726,22.768646717071533,True,,True,1,False,1000,True,1.0
./expes/v2_2020-12-06_dh_200-prng-1,30_issda_200,200,rng-200,41,rng,num-start-11,11,25726,1000.539088010788,False,,False,0,True,1000,True,0.0
./expes/v2_2020-12-06_dh_200-prng-1,30_issda_200,200,rng-200,111,rng,num-start-631,631,25726,16.64956545829773,True,,True,1,False,1000,True,1.0
./expes/v2_2020-12-06_dh_200-prng-1,30_issda_200,200,rng-200,141,rng,num-start-271,271,25726,7.044223070144653,True,,True,1,False,1000,True,1.0
./expes/v2_2020-12-06_dh_200-prng-1,30_issda_200,200,rng-200,11,rng,num-start-431,431,25726,10.479049682617188,True,,True,1,False,1000,True,1.0
./expes/v2_2020-12-06_dh_200-prng-1,30_issda_200,200,rng-200,31,rng,num-start-551,551,25726,19.471821069717407,True,,True,1,False,1000,True,1.0
./expes/v2_2020-12-06_dh_200-prng-1,30_issda_200,200,rng-200,181,rng,num-start-421,421,25726,21.758241653442383,True,,True,1,False,1000,True,1.0
./expes/v2_2020-12-06_dh_200-prng-1,30_issda_200,200,rng-200,121,rng,num-start-861,861,25726,25.903738021850586,True,,True,1,False,1000,True,1.0
./expes/v2_2020-12-06_dh_200-prng-1,30_issda_200,200,rng-200,61,rng,num-start-281,281,25726,7.2769341468811035,True,,True,1,False,1000,True,1.0
./expes/v2_2020-12-06_dh_200-prng-1,30_issda_200,200,rng-200,101,rng,num-start-361,361,25726,9.023112773895264,True,,True,1,False,1000,True,1.0
./expes/v2_2020-12-06_dh_200-prng-1,30_issda_200,200,rng-200,11,rng,num-start-691,691,25726,16.54032802581787,True,,True,1,False,1000,True,1.0
./expes/v2_2020-12-06_dh_200-prng-1,30_issda_200,200,rng-200,141,rng,num-start-931,931,25726,25.611220359802246,True,,True,1,False,1000,True,1.0
./expes/v2_2020-12-06_dh_200-prng-1,30_issda_200,200,rng-200,11,rng,num-start-691,691,25726,15.194421529769897,True,,True,1,False,1000,True,1.0
./expes/v2_2020-12-06_dh_200-prng-1,30_issda_200,200,rng-200,171,rng,num-start-541,541,25726,18.453526735305786,True,,True,1,False,1000,True,1.0
./expes/v2_2020-12-06_dh_200-prng-1,30_issda_200,200,rng-200,91,rng,num-start-671,671,25726,15.265389442443848,True,,True,1,False,1000,True,1.0
./expes/v2_2020-12-06_dh_200-prng-1,30_issda_200,200,rng-200,151,rng,num-start-471,471,25726,10.2880277633667,True,,True,1,False,1000,True,1.0
./expes/v2_2020-12-06_dh_200-prng-1,30_issda_200,200,rng-200,41,rng,num-start-321,321,25726,7.231379985809326,True,,True,1,False,1000,True,1.0
./expes/v2_2020-12-06_dh_200-prng-1,30_issda_200,200,rng-200,101,rng,num-start-751,751,25726,28.667433977127075,True,,True,1,False,1000,True,1.0
./expes/v2_2020-12-06_dh_200-prng-1,30_issda_200,200,rng-200,11,rng,num-start-171,171,25726,4.316036224365234,True,,True,1,False,1000,True,1.0
./expes/v2_2020-12-06_dh_200-prng-1,30_issda_200,200,rng-200,81,rng,num-start-51,51,25726,1001.4578013420105,False,,False,0,True,1000,True,0.0
./expes/v2_2020-12-06_dh_200-prng-1,30_issda_200,200,rng-200,11,rng,num-start-421,421,25726,10.41569471359253,True,,True,1,False,1000,True,1.0
./expes/v2_2020-12-06_dh_200-prng-1,30_issda_200,200,rng-200,1,rng,num-start-391,391,25726,12.015023469924927,True,,True,1,False,1000,True,1.0
./expes/v2_2020-12-06_dh_200-prng-1,30_issda_200,200,rng-200,181,rng,num-start-301,301,25726,7.3333892822265625,True,,True,1,False,1000,True,1.0
./expes/v2_2020-12-06_dh_200-prng-1,30_issda_200,200,rng-200,11,rng,num-start-151,151,25726,24.506930112838745,True,,True,1,False,1000,True,1.0
./expes/v2_2020-12-06_dh_200-prng-1,30_issda_200,200,rng-200,191,rng,num-start-501,501,25726,12.407391786575317,True,,True,1,False,1000,True,1.0
./expes/v2_2020-12-06_dh_200-prng-1,30_issda_200,200,rng-200,171,rng,num-start-721,721,25726,16.940865755081177,True,,True,1,False,1000,True,1.0
./expes/v2_2020-12-06_dh_200-prng-1,30_issda_200,200,rng-200,141,rng,num-start-481,481,25726,16.809464693069458,True,,True,1,False,1000,True,1.0
./expes/v2_2020-12-06_dh_200-prng-1,30_issda_200,200,rng-200,161,rng,num-start-31,31,25726,1010.7183365821838,False,,False,0,True,1000,True,0.0
./expes/v2_2020-12-06_dh_200-prng-1,30_issda_200,200,rng-200,161,rng,num-start-941,941,25726,22.288100004196167,True,,True,1,False,1000,True,1.0
./expes/v2_2020-12-06_dh_200-prng-1,30_issda_200,200,rng-200,121,rng,num-start-711,711,25726,17.56355309486389,True,,True,1,False,1000,True,1.0
./expes/v2_2020-12-06_dh_200-prng-1,30_issda_200,200,rng-200,11,rng,num-start-821,821,25726,17.695730686187744,True,,True,1,False,1000,True,1.0
./expes/v2_2020-12-06_dh_200-prng-1,30_issda_200,200,rng-200,141,rng,num-start-401,401,25726,9.645014524459839,True,,True,1,False,1000,True,1.0
./expes/v2_2020-12-06_dh_200-prng-1,30_issda_200,200,rng-200,91,rng,num-start-331,331,25726,7.767152309417725,True,,True,1,False,1000,True,1.0
./expes/v2_2020-12-06_dh_200-prng-1,30_issda_200,200,rng-200,171,rng,num-start-341,341,25726,7.77629280090332,True,,True,1,False,1000,True,1.0
./expes/v2_2020-12-06_dh_200-prng-1,30_issda_200,200,rng-200,61,rng,num-start-491,491,25726,12.070476770401001,True,,True,1,False,1000,True,1.0
./expes/v2_2020-12-06_dh_200-prng-1,30_issda_200,200,rng-200,41,rng,num-start-691,691,25726,16.058323860168457,True,,True,1,False,1000,True,1.0
./expes/v2_2020-12-06_dh_200-prng-1,30_issda_200,200,rng-200,81,rng,num-start-541,541,25726,13.653570175170898,True,,True,1,False,1000,True,1.0
./expes/v2_2020-12-06_dh_200-prng-1,30_issda_200,200,rng-200,81,rng,num-start-571,571,25726,14.068116903305054,True,,True,1,False,1000,True,1.0
./expes/v2_2020-12-06_dh_200-prng-1,30_issda_200,200,rng-200,181,rng,num-start-781,781,25726,17.421271085739136,True,,True,1,False,1000,True,1.0
./expes/v2_2020-12-06_dh_200-prng-1,30_issda_200,200,rng-200,111,rng,num-start-181,181,25726,4.645371675491333,True,,True,1,False,1000,True,1.0
./expes/v2_2020-12-06_dh_200-prng-1,30_issda_200,200,rng-200,21,rng,num-start-331,331,25726,7.481686115264893,True,,True,1,False,1000,True,1.0
./expes/v2_2020-12-06_dh_200-prng-1,30_issda_200,200,rng-200,141,rng,num-start-351,351,25726,8.091949701309204,True,,True,1,False,1000,True,1.0
./expes/v2_2020-12-06_dh_200-prng-1,30_issda_200,200,rng-200,131,rng,num-start-161,161,25726,4.067986488342285,True,,True,1,False,1000,True,1.0
./expes/v2_2020-12-06_dh_200-prng-1,30_issda_200,200,rng-200,91,rng,num-start-381,381,25726,9.138234615325928,True,,True,1,False,1000,True,1.0
./expes/v2_2020-12-06_dh_200-prng-1,30_issda_200,200,rng-200,11,rng,num-start-181,181,25726,4.063092947006226,True,,True,1,False,1000,True,1.0
./expes/v2_2020-12-06_dh_200-prng-1,30_issda_200,200,rng-200,91,rng,num-start-751,751,25726,17.925185680389404,True,,True,1,False,1000,True,1.0
./expes/v2_2020-12-06_dh_200-prng-1,30_issda_200,200,rng-200,61,rng,num-start-811,811,25726,18.377851486206055,True,,True,1,False,1000,True,1.0
./expes/v2_2020-12-06_dh_200-prng-1,30_issda_200,200,rng-200,31,rng,num-start-611,611,25726,14.376195669174194,True,,True,1,False,1000,True,1.0
./expes/v2_2020-12-06_dh_200-prng-1,30_issda_200,200,rng-200,121,rng,num-start-211,211,25726,5.396505117416382,True,,True,1,False,1000,True,1.0
./expes/v2_2020-12-06_dh_200-prng-1,30_issda_200,200,rng-200,141,rng,num-start-291,291,25726,6.6008079051971436,True,,True,1,False,1000,True,1.0
./expes/v2_2020-12-06_dh_200-prng-1,30_issda_200,200,rng-200,11,rng,num-start-751,751,25726,16.520219564437866,True,,True,1,False,1000,True,1.0
./expes/v2_2020-12-06_dh_200-prng-1,30_issda_200,200,rng-200,111,rng,num-start-351,351,25726,8.231106758117676,True,,True,1,False,1000,True,1.0
./expes/v2_2020-12-06_dh_200-prng-1,30_issda_200,200,rng-200,91,rng,num-start-711,711,25726,19.587581872940063,True,,True,1,False,1000,True,1.0
./expes/v2_2020-12-06_dh_200-prng-1,30_issda_200,200,rng-200,41,rng,num-start-41,41,25726,1002.1411798000336,False,,False,0,True,1000,True,0.0
./expes/v2_2020-12-06_dh_200-prng-1,30_issda_200,200,rng-200,61,rng,num-start-891,891,25726,22.9967622756958,True,,True,1,False,1000,True,1.0
./expes/v2_2020-12-06_dh_200-prng-1,30_issda_200,200,rng-200,1,rng,num-start-541,541,25726,15.981009006500244,True,,True,1,False,1000,True,1.0
./expes/v2_2020-12-06_dh_200-prng-1,30_issda_200,200,rng-200,131,rng,num-start-821,821,25726,19.628684282302856,True,,True,1,False,1000,True,1.0
./expes/v2_2020-12-06_dh_200-prng-1,30_issda_200,200,rng-200,21,rng,num-start-511,511,25726,11.49582290649414,True,,True,1,False,1000,True,1.0
./expes/v2_2020-12-06_dh_200-prng-1,30_issda_200,200,rng-200,151,rng,num-start-511,511,25726,12.449660539627075,True,,True,1,False,1000,True,1.0
./expes/v2_2020-12-06_dh_200-prng-1,30_issda_200,200,rng-200,31,rng,num-start-401,401,25726,9.012203931808472,True,,True,1,False,1000,True,1.0
./expes/v2_2020-12-06_dh_200-prng-1,30_issda_200,200,rng-200,191,rng,num-start-361,361,25726,22.22446036338806,True,,True,1,False,1000,True,1.0
./expes/v2_2020-12-06_dh_200-prng-1,30_issda_200,200,rng-200,111,rng,num-start-901,901,25726,31.75171184539795,True,,True,1,False,1000,True,1.0
./expes/v2_2020-12-06_dh_200-prng-1,30_issda_200,200,rng-200,131,rng,num-start-301,301,25726,9.146634578704834,True,,True,1,False,1000,True,1.0
./expes/v2_2020-12-06_dh_200-prng-1,30_issda_200,200,rng-200,1,rng,num-start-221,221,25726,17.056261777877808,True,,True,1,False,1000,True,1.0
./expes/v2_2020-12-06_dh_200-prng-1,30_issda_200,200,rng-200,121,rng,num-start-791,791,25726,20.151780366897583,True,,True,1,False,1000,True,1.0
./expes/v2_2020-12-06_dh_200-prng-1,30_issda_200,200,rng-200,111,rng,num-start-321,321,25726,16.1507785320282,True,,True,1,False,1000,True,1.0
./expes/v2_2020-12-06_dh_200-prng-1,30_issda_200,200,rng-200,151,rng,num-start-441,441,25726,13.615804672241211,True,,True,1,False,1000,True,1.0
./expes/v2_2020-12-06_dh_200-prng-1,30_issda_200,200,rng-200,41,rng,num-start-771,771,25726,19.689255475997925,True,,True,1,False,1000,True,1.0
./expes/v2_2020-12-06_dh_200-prng-1,30_issda_200,200,rng-200,111,rng,num-start-951,951,25726,23.738921642303467,True,,True,1,False,1000,True,1.0
./expes/v2_2020-12-06_dh_200-prng-1,30_issda_200,200,rng-200,151,rng,num-start-861,861,25726,30.872793197631836,True,,True,1,False,1000,True,1.0
./expes/v2_2020-12-06_dh_200-prng-1,30_issda_200,200,rng-200,81,rng,num-start-911,911,25726,23.589763641357422,True,,True,1,False,1000,True,1.0
./expes/v2_2020-12-06_dh_200-prng-1,30_issda_200,200,rng-200,111,rng,num-start-221,221,25726,6.353952407836914,True,,True,1,False,1000,True,1.0
./expes/v2_2020-12-06_dh_200-prng-1,30_issda_200,200,rng-200,171,rng,num-start-641,641,25726,16.111586093902588,True,,True,1,False,1000,True,1.0
./expes/v2_2020-12-06_dh_200-prng-1,30_issda_200,200,rng-200,141,rng,num-start-661,661,25726,18.643772840499878,True,,True,1,False,1000,True,1.0
./expes/v2_2020-12-06_dh_200-prng-1,30_issda_200,200,rng-200,1,rng,num-start-491,491,25726,19.126779556274414,True,,True,1,False,1000,True,1.0
./expes/v2_2020-12-06_dh_200-prng-1,30_issda_200,200,rng-200,181,rng,num-start-551,551,25726,13.69867491722107,True,,True,1,False,1000,True,1.0
./expes/v2_2020-12-06_dh_200-prng-1,30_issda_200,200,rng-200,111,rng,num-start-831,831,25726,21.589810848236084,True,,True,1,False,1000,True,1.0
./expes/v2_2020-12-06_dh_200-prng-1,30_issda_200,200,rng-200,1,rng,num-start-441,441,25726,10.121983051300049,True,,True,1,False,1000,True,1.0
./expes/v2_2020-12-06_dh_200-prng-1,30_issda_200,200,rng-200,91,rng,num-start-761,761,25726,21.510831832885742,True,,True,1,False,1000,True,1.0
./expes/v2_2020-12-06_dh_200-prng-1,30_issda_200,200,rng-200,91,rng,num-start-411,411,25726,14.415489673614502,True,,True,1,False,1000,True,1.0
./expes/v2_2020-12-06_dh_200-prng-1,30_issda_200,200,rng-200,81,rng,num-start-481,481,25726,20.01774024963379,True,,True,1,False,1000,True,1.0
./expes/v2_2020-12-06_dh_200-prng-1,30_issda_200,200,rng-200,101,rng,num-start-781,781,25726,20.652686595916748,True,,True,1,False,1000,True,1.0
./expes/v2_2020-12-06_dh_200-prng-1,30_issda_200,200,rng-200,51,rng,num-start-861,861,25726,21.927860975265503,True,,True,1,False,1000,True,1.0
./expes/v2_2020-12-06_dh_200-prng-1,30_issda_200,200,rng-200,131,rng,num-start-411,411,25726,10.120720624923706,True,,True,1,False,1000,True,1.0
./expes/v2_2020-12-06_dh_200-prng-1,30_issda_200,200,rng-200,21,rng,num-start-441,441,25726,18.56331753730774,True,,True,1,False,1000,True,1.0
./expes/v2_2020-12-06_dh_200-prng-1,30_issda_200,200,rng-200,171,rng,num-start-681,681,25726,16.680479288101196,True,,True,1,False,1000,True,1.0
./expes/v2_2020-12-06_dh_200-prng-1,30_issda_200,200,rng-200,61,rng,num-start-311,311,25726,8.385340929031372,True,,True,1,False,1000,True,1.0
./expes/v2_2020-12-06_dh_200-prng-1,30_issda_200,200,rng-200,191,rng,num-start-941,941,25726,21.052347660064697,True,,True,1,False,1000,True,1.0
./expes/v2_2020-12-06_dh_200-prng-1,30_issda_200,200,rng-200,31,rng,num-start-161,161,25726,5.43707013130188,True,,True,1,False,1000,True,1.0
./expes/v2_2020-12-06_dh_200-prng-1,30_issda_200,200,rng-200,31,rng,num-start-341,341,25726,8.408583164215088,True,,True,1,False,1000,True,1.0
./expes/v2_2020-12-06_dh_200-prng-1,30_issda_200,200,rng-200,121,rng,num-start-351,351,25726,10.962950468063354,True,,True,1,False,1000,True,1.0
./expes/v2_2020-12-06_dh_200-prng-1,30_issda_200,200,rng-200,121,rng,num-start-21,21,25726,1002.7751228809357,False,,False,0,True,1000,True,0.0
./expes/v2_2020-12-06_dh_200-prng-1,30_issda_200,200,rng-200,141,rng,num-start-161,161,25726,6.330446004867554,True,,True,1,False,1000,True,1.0
./expes/v2_2020-12-06_dh_200-prng-1,30_issda_200,200,rng-200,151,rng,num-start-971,971,25726,25.65190029144287,True,,True,1,False,1000,True,1.0
./expes/v2_2020-12-06_dh_200-prng-1,30_issda_200,200,rng-200,191,rng,num-start-221,221,25726,5.4068603515625,True,,True,1,False,1000,True,1.0
./expes/v2_2020-12-06_dh_200-prng-1,30_issda_200,200,rng-200,181,rng,num-start-751,751,25726,22.213791608810425,True,,True,1,False,1000,True,1.0
./expes/v2_2020-12-06_dh_200-prng-1,30_issda_200,200,rng-200,121,rng,num-start-801,801,25726,19.71031665802002,True,,True,1,False,1000,True,1.0
./expes/v2_2020-12-06_dh_200-prng-1,30_issda_200,200,rng-200,41,rng,num-start-1,1,25726,0.09650778770446777,False,,False,2,False,1000,True,1.0
./expes/v2_2020-12-06_dh_200-prng-1,30_issda_200,200,rng-200,91,rng,num-start-921,921,25726,21.897568941116333,True,,True,1,False,1000,True,1.0
./expes/v2_2020-12-06_dh_200-prng-1,30_issda_200,200,rng-200,111,rng,num-start-71,71,25726,13.950209617614746,True,,True,1,False,1000,True,1.0
./expes/v2_2020-12-06_dh_200-prng-1,30_issda_200,200,rng-200,171,rng,num-start-171,171,25726,4.071164131164551,True,,True,1,False,1000,True,1.0
./expes/v2_2020-12-06_dh_200-prng-1,30_issda_200,200,rng-200,161,rng,num-start-431,431,25726,20.49251365661621,True,,True,1,False,1000,True,1.0
./expes/v2_2020-12-06_dh_200-prng-1,30_issda_200,200,rng-200,121,rng,num-start-1,1,25726,0.9846043586730957,False,,False,2,False,1000,True,1.0
./expes/v2_2020-12-06_dh_200-prng-1,30_issda_200,200,rng-200,71,rng,num-start-281,281,25726,7.299022436141968,True,,True,1,False,1000,True,1.0
./expes/v2_2020-12-06_dh_200-prng-1,30_issda_200,200,rng-200,121,rng,num-start-851,851,25726,22.445579290390015,True,,True,1,False,1000,True,1.0
./expes/v2_2020-12-06_dh_200-prng-1,30_issda_200,200,rng-200,191,rng,num-start-451,451,25726,9.791391611099243,True,,True,1,False,1000,True,1.0
./expes/v2_2020-12-06_dh_200-prng-1,30_issda_200,200,rng-200,91,rng,num-start-931,931,25726,23.826265335083008,True,,True,1,False,1000,True,1.0
./expes/v2_2020-12-06_dh_200-prng-1,30_issda_200,200,rng-200,131,rng,num-start-451,451,25726,10.707660913467407,True,,True,1,False,1000,True,1.0
./expes/v2_2020-12-06_dh_200-prng-1,30_issda_200,200,rng-200,151,rng,num-start-131,131,25726,3.477294445037842,True,,True,1,False,1000,True,1.0
./expes/v2_2020-12-06_dh_200-prng-1,30_issda_200,200,rng-200,41,rng,num-start-801,801,25726,19.04697275161743,True,,True,1,False,1000,True,1.0
./expes/v2_2020-12-06_dh_200-prng-1,30_issda_200,200,rng-200,161,rng,num-start-251,251,25726,8.666495084762573,True,,True,1,False,1000,True,1.0
./expes/v2_2020-12-06_dh_200-prng-1,30_issda_200,200,rng-200,131,rng,num-start-301,301,25726,15.273041486740112,True,,True,1,False,1000,True,1.0
./expes/v2_2020-12-06_dh_200-prng-1,30_issda_200,200,rng-200,101,rng,num-start-511,511,25726,18.684559106826782,True,,True,1,False,1000,True,1.0
./expes/v2_2020-12-06_dh_200-prng-1,30_issda_200,200,rng-200,191,rng,num-start-781,781,25726,17.098515272140503,True,,True,1,False,1000,True,1.0
./expes/v2_2020-12-06_dh_200-prng-1,30_issda_200,200,rng-200,31,rng,num-start-671,671,25726,17.6242618560791,True,,True,1,False,1000,True,1.0
./expes/v2_2020-12-06_dh_200-prng-1,30_issda_200,200,rng-200,51,rng,num-start-761,761,25726,18.926604747772217,True,,True,1,False,1000,True,1.0
./expes/v2_2020-12-06_dh_200-prng-1,30_issda_200,200,rng-200,71,rng,num-start-41,41,25726,1001.2219309806824,False,,False,0,True,1000,True,0.0
./expes/v2_2020-12-06_dh_200-prng-1,30_issda_200,200,rng-200,191,rng,num-start-421,421,25726,14.827457904815674,True,,True,1,False,1000,True,1.0
./expes/v2_2020-12-06_dh_200-prng-1,30_issda_200,200,rng-200,11,rng,num-start-421,421,25726,8.695576429367065,True,,True,1,False,1000,True,1.0
./expes/v2_2020-12-06_dh_200-prng-1,30_issda_200,200,rng-200,131,rng,num-start-931,931,25726,22.62796425819397,True,,True,1,False,1000,True,1.0
./expes/v2_2020-12-06_dh_200-prng-1,30_issda_200,200,rng-200,171,rng,num-start-221,221,25726,12.281168937683105,True,,True,1,False,1000,True,1.0
./expes/v2_2020-12-06_dh_200-prng-1,30_issda_200,200,rng-200,131,rng,num-start-341,341,25726,8.481376886367798,True,,True,1,False,1000,True,1.0
./expes/v2_2020-12-06_dh_200-prng-1,30_issda_200,200,rng-200,151,rng,num-start-861,861,25726,26.05539083480835,True,,True,1,False,1000,True,1.0
./expes/v2_2020-12-06_dh_200-prng-1,30_issda_200,200,rng-200,91,rng,num-start-791,791,25726,19.56309485435486,True,,True,1,False,1000,True,1.0
./expes/v2_2020-12-06_dh_200-prng-1,30_issda_200,200,rng-200,21,rng,num-start-71,71,25726,1.799339771270752,True,,True,1,False,1000,True,1.0
./expes/v2_2020-12-06_dh_200-prng-1,30_issda_200,200,rng-200,121,rng,num-start-261,261,25726,6.996503114700317,True,,True,1,False,1000,True,1.0
./expes/v2_2020-12-06_dh_200-prng-1,30_issda_200,200,rng-200,161,rng,num-start-101,101,25726,6.889264345169067,True,,True,1,False,1000,True,1.0
./expes/v2_2020-12-06_dh_200-prng-1,30_issda_200,200,rng-200,61,rng,num-start-611,611,25726,16.501932382583618,True,,True,1,False,1000,True,1.0
./expes/v2_2020-12-06_dh_200-prng-1,30_issda_200,200,rng-200,51,rng,num-start-121,121,25726,7.453118562698364,True,,True,1,False,1000,True,1.0
./expes/v2_2020-12-06_dh_200-prng-1,30_issda_200,200,rng-200,161,rng,num-start-481,481,25726,25.090847969055176,True,,True,1,False,1000,True,1.0
./expes/v2_2020-12-06_dh_200-prng-1,30_issda_200,200,rng-200,111,rng,num-start-881,881,25726,25.738683938980103,True,,True,1,False,1000,True,1.0
./expes/v2_2020-12-06_dh_200-prng-1,30_issda_200,200,rng-200,21,rng,num-start-821,821,25726,35.326688289642334,True,,True,1,False,1000,True,1.0
./expes/v2_2020-12-06_dh_200-prng-1,30_issda_200,200,rng-200,151,rng,num-start-841,841,25726,43.662784814834595,True,,True,1,False,1000,True,1.0
./expes/v2_2020-12-06_dh_200-prng-1,30_issda_200,200,rng-200,21,rng,num-start-181,181,25726,24.636480808258057,True,,True,1,False,1000,True,1.0
./expes/v2_2020-12-06_dh_200-prng-1,30_issda_200,200,rng-200,31,rng,num-start-601,601,25726,21.631099462509155,True,,True,1,False,1000,True,1.0
./expes/v2_2020-12-06_dh_200-prng-1,30_issda_200,200,rng-200,21,rng,num-start-161,161,25726,19.580589771270752,True,,True,1,False,1000,True,1.0
./expes/v2_2020-12-06_dh_200-prng-1,30_issda_200,200,rng-200,131,rng,num-start-391,391,25726,8.90010952949524,True,,True,1,False,1000,True,1.0
./expes/v2_2020-12-06_dh_200-prng-1,30_issda_200,200,rng-200,131,rng,num-start-521,521,25726,26.783121347427368,True,,True,1,False,1000,True,1.0
./expes/v2_2020-12-06_dh_200-prng-1,30_issda_200,200,rng-200,51,rng,num-start-701,701,25726,17.045714139938354,True,,True,1,False,1000,True,1.0
./expes/v2_2020-12-06_dh_200-prng-1,30_issda_200,200,rng-200,161,rng,num-start-721,721,25726,18.51851749420166,True,,True,1,False,1000,True,1.0
./expes/v2_2020-12-06_dh_200-prng-1,30_issda_200,200,rng-200,91,rng,num-start-751,751,25726,23.421791315078735,True,,True,1,False,1000,True,1.0
./expes/v2_2020-12-06_dh_200-prng-1,30_issda_200,200,rng-200,151,rng,num-start-441,441,25726,10.407410621643066,True,,True,1,False,1000,True,1.0
./expes/v2_2020-12-06_dh_200-prng-1,30_issda_200,200,rng-200,91,rng,num-start-821,821,25726,32.72720766067505,True,,True,1,False,1000,True,1.0
./expes/v2_2020-12-06_dh_200-prng-1,30_issda_200,200,rng-200,121,rng,num-start-511,511,25726,12.119461059570312,True,,True,1,False,1000,True,1.0
./expes/v2_2020-12-06_dh_200-prng-1,30_issda_200,200,rng-200,161,rng,num-start-921,921,25726,21.918192386627197,True,,True,1,False,1000,True,1.0
./expes/v2_2020-12-06_dh_200-prng-1,30_issda_200,200,rng-200,1,rng,num-start-861,861,25726,19.894344091415405,True,,True,1,False,1000,True,1.0
./expes/v2_2020-12-06_dh_200-prng-1,30_issda_200,200,rng-200,101,rng,num-start-681,681,25726,19.175081491470337,True,,True,1,False,1000,True,1.0
./expes/v2_2020-12-06_dh_200-prng-1,30_issda_200,200,rng-200,171,rng,num-start-971,971,25726,22.179420709609985,True,,True,1,False,1000,True,1.0
./expes/v2_2020-12-06_dh_200-prng-1,30_issda_200,200,rng-200,111,rng,num-start-111,111,25726,2.967874050140381,True,,False,2,False,1000,True,1.0
./expes/v2_2020-12-06_dh_200-prng-1,30_issda_200,200,rng-200,41,rng,num-start-701,701,25726,19.333777904510498,True,,True,1,False,1000,True,1.0
./expes/v2_2020-12-06_dh_200-prng-1,30_issda_200,200,rng-200,81,rng,num-start-471,471,25726,18.455810070037842,True,,True,1,False,1000,True,1.0
./expes/v2_2020-12-06_dh_200-prng-1,30_issda_200,200,rng-200,61,rng,num-start-951,951,25726,23.136956691741943,True,,True,1,False,1000,True,1.0
./expes/v2_2020-12-06_dh_200-prng-1,30_issda_200,200,rng-200,91,rng,num-start-311,311,25726,7.794926881790161,True,,True,1,False,1000,True,1.0
./expes/v2_2020-12-06_dh_200-prng-1,30_issda_200,200,rng-200,81,rng,num-start-401,401,25726,9.857608795166016,True,,True,1,False,1000,True,1.0
./expes/v2_2020-12-06_dh_200-prng-1,30_issda_200,200,rng-200,21,rng,num-start-161,161,25726,4.1394202709198,True,,True,1,False,1000,True,1.0
./expes/v2_2020-12-06_dh_200-prng-1,30_issda_200,200,rng-200,111,rng,num-start-771,771,25726,18.951815366744995,True,,True,1,False,1000,True,1.0
./expes/v2_2020-12-06_dh_200-prng-1,30_issda_200,200,rng-200,171,rng,num-start-281,281,25726,6.889292240142822,True,,True,1,False,1000,True,1.0
./expes/v2_2020-12-06_dh_200-prng-1,30_issda_200,200,rng-200,191,rng,num-start-431,431,25726,9.377638578414917,True,,True,1,False,1000,True,1.0
./expes/v2_2020-12-06_dh_200-prng-1,30_issda_200,200,rng-200,171,rng,num-start-841,841,25726,29.27188730239868,True,,True,1,False,1000,True,1.0
./expes/v2_2020-12-06_dh_200-prng-1,30_issda_200,200,rng-200,71,rng,num-start-361,361,25726,8.10643982887268,True,,True,1,False,1000,True,1.0
./expes/v2_2020-12-06_dh_200-prng-1,30_issda_200,200,rng-200,91,rng,num-start-901,901,25726,20.925217151641846,True,,True,1,False,1000,True,1.0
./expes/v2_2020-12-06_dh_200-prng-1,30_issda_200,200,rng-200,141,rng,num-start-731,731,25726,19.603089809417725,True,,True,1,False,1000,True,1.0
./expes/v2_2020-12-06_dh_200-prng-1,30_issda_200,200,rng-200,101,rng,num-start-641,641,25726,15.767143487930298,True,,True,1,False,1000,True,1.0
./expes/v2_2020-12-06_dh_200-prng-1,30_issda_200,200,rng-200,91,rng,num-start-601,601,25726,15.497114658355713,True,,True,1,False,1000,True,1.0
./expes/v2_2020-12-06_dh_200-prng-1,30_issda_200,200,rng-200,11,rng,num-start-481,481,25726,15.4027738571167,True,,True,1,False,1000,True,1.0
./expes/v2_2020-12-06_dh_200-prng-1,30_issda_200,200,rng-200,51,rng,num-start-431,431,25726,10.354663610458374,True,,True,1,False,1000,True,1.0
./expes/v2_2020-12-06_dh_200-prng-1,30_issda_200,200,rng-200,151,rng,num-start-571,571,25726,23.796318769454956,True,,True,1,False,1000,True,1.0
./expes/v2_2020-12-06_dh_200-prng-1,30_issda_200,200,rng-200,91,rng,num-start-171,171,25726,5.663573741912842,True,,True,1,False,1000,True,1.0
./expes/v2_2020-12-06_dh_200-prng-1,30_issda_200,200,rng-200,11,rng,num-start-31,31,25726,0.999004602432251,True,,True,1,False,1000,True,1.0
./expes/v2_2020-12-06_dh_200-prng-1,30_issda_200,200,rng-200,41,rng,num-start-701,701,25726,16.72107243537903,True,,True,1,False,1000,True,1.0
./expes/v2_2020-12-06_dh_200-prng-1,30_issda_200,200,rng-200,71,rng,num-start-201,201,25726,17.672303438186646,True,,True,1,False,1000,True,1.0
./expes/v2_2020-12-06_dh_200-prng-1,30_issda_200,200,rng-200,1,rng,num-start-771,771,25726,16.246251583099365,True,,True,1,False,1000,True,1.0
./expes/v2_2020-12-06_dh_200-prng-1,30_issda_200,200,rng-200,121,rng,num-start-191,191,25726,6.604264259338379,True,,True,1,False,1000,True,1.0
./expes/v2_2020-12-06_dh_200-prng-1,30_issda_200,200,rng-200,181,rng,num-start-521,521,25726,15.238313674926758,True,,True,1,False,1000,True,1.0
./expes/v2_2020-12-06_dh_200-prng-1,30_issda_200,200,rng-200,191,rng,num-start-191,191,25726,24.251304388046265,True,,True,1,False,1000,True,1.0
./expes/v2_2020-12-06_dh_200-prng-1,30_issda_200,200,rng-200,91,rng,num-start-81,81,25726,3.385183811187744,True,,True,1,False,1000,True,1.0
./expes/v2_2020-12-06_dh_200-prng-1,30_issda_200,200,rng-200,161,rng,num-start-221,221,25726,5.25771689414978,True,,True,1,False,1000,True,1.0
./expes/v2_2020-12-06_dh_200-prng-1,30_issda_200,200,rng-200,11,rng,num-start-171,171,25726,4.354928255081177,True,,True,1,False,1000,True,1.0
./expes/v2_2020-12-06_dh_200-prng-1,30_issda_200,200,rng-200,41,rng,num-start-441,441,25726,9.797654390335083,True,,True,1,False,1000,True,1.0
./expes/v2_2020-12-06_dh_200-prng-1,30_issda_200,200,rng-200,21,rng,num-start-271,271,25726,6.336725473403931,True,,True,1,False,1000,True,1.0
./expes/v2_2020-12-06_dh_200-prng-1,30_issda_200,200,rng-200,91,rng,num-start-421,421,25726,10.069120168685913,True,,True,1,False,1000,True,1.0
./expes/v2_2020-12-06_dh_200-prng-1,30_issda_200,200,rng-200,51,rng,num-start-451,451,25726,11.352192401885986,True,,True,1,False,1000,True,1.0
./expes/v2_2020-12-06_dh_200-prng-1,30_issda_200,200,rng-200,151,rng,num-start-881,881,25726,22.895381927490234,True,,True,1,False,1000,True,1.0
./expes/v2_2020-12-06_dh_200-prng-1,30_issda_200,200,rng-200,91,rng,num-start-371,371,25726,9.492866277694702,True,,True,1,False,1000,True,1.0
./expes/v2_2020-12-06_dh_200-prng-1,30_issda_200,200,rng-200,91,rng,num-start-11,11,25726,1000.3550229072571,False,,False,0,True,1000,True,0.0
./expes/v2_2020-12-06_dh_200-prng-1,30_issda_200,200,rng-200,141,rng,num-start-191,191,25726,4.859394550323486,True,,True,1,False,1000,True,1.0
./expes/v2_2020-12-06_dh_200-prng-1,30_issda_200,200,rng-200,1,rng,num-start-741,741,25726,16.097074270248413,True,,True,1,False,1000,True,1.0
./expes/v2_2020-12-06_dh_200-prng-1,30_issda_200,200,rng-200,41,rng,num-start-701,701,25726,16.720072984695435,True,,True,1,False,1000,True,1.0
./expes/v2_2020-12-06_dh_200-prng-1,30_issda_200,200,rng-200,121,rng,num-start-341,341,25726,8.062349796295166,True,,True,1,False,1000,True,1.0
./expes/v2_2020-12-06_dh_200-prng-1,30_issda_200,200,rng-200,151,rng,num-start-791,791,25726,20.070026636123657,True,,True,1,False,1000,True,1.0
./expes/v2_2020-12-06_dh_200-prng-1,30_issda_200,200,rng-200,61,rng,num-start-931,931,25726,22.62744450569153,True,,True,1,False,1000,True,1.0
./expes/v2_2020-12-06_dh_200-prng-1,30_issda_200,200,rng-200,81,rng,num-start-951,951,25726,22.927794456481934,True,,True,1,False,1000,True,1.0
./expes/v2_2020-12-06_dh_200-prng-1,30_issda_200,200,rng-200,141,rng,num-start-161,161,25726,4.095882177352905,True,,True,1,False,1000,True,1.0
./expes/v2_2020-12-06_dh_200-prng-1,30_issda_200,200,rng-200,171,rng,num-start-881,881,25726,20.317506551742554,True,,True,1,False,1000,True,1.0
./expes/v2_2020-12-06_dh_200-prng-1,30_issda_200,200,rng-200,181,rng,num-start-801,801,25726,18.243521213531494,True,,True,1,False,1000,True,1.0
./expes/v2_2020-12-06_dh_200-prng-1,30_issda_200,200,rng-200,31,rng,num-start-821,821,25726,20.08962106704712,True,,True,1,False,1000,True,1.0
./expes/v2_2020-12-06_dh_200-prng-1,30_issda_200,200,rng-200,121,rng,num-start-131,131,25726,10.576282024383545,True,,True,1,False,1000,True,1.0
./expes/v2_2020-12-06_dh_200-prng-1,30_issda_200,200,rng-200,11,rng,num-start-61,61,25726,3.1140553951263428,True,,True,1,False,1000,True,1.0
./expes/v2_2020-12-06_dh_200-prng-1,30_issda_200,200,rng-200,171,rng,num-start-251,251,25726,7.404316663742065,True,,True,1,False,1000,True,1.0
./expes/v2_2020-12-06_dh_200-prng-1,30_issda_200,200,rng-200,161,rng,num-start-861,861,25726,28.07079815864563,True,,True,1,False,1000,True,1.0
./expes/v2_2020-12-06_dh_200-prng-1,30_issda_200,200,rng-200,161,rng,num-start-61,61,25726,2.4578044414520264,True,,True,1,False,1000,True,1.0
./expes/v2_2020-12-06_dh_200-prng-1,30_issda_200,200,rng-200,51,rng,num-start-101,101,25726,2.7153544425964355,True,,True,1,False,1000,True,1.0
./expes/v2_2020-12-06_dh_200-prng-1,30_issda_200,200,rng-200,111,rng,num-start-671,671,25726,16.448390007019043,True,,True,1,False,1000,True,1.0
./expes/v2_2020-12-06_dh_200-prng-1,30_issda_200,200,rng-200,11,rng,num-start-741,741,25726,25.71151113510132,True,,True,1,False,1000,True,1.0
./expes/v2_2020-12-06_dh_200-prng-1,30_issda_200,200,rng-200,31,rng,num-start-761,761,25726,17.65505075454712,True,,True,1,False,1000,True,1.0
./expes/v2_2020-12-06_dh_200-prng-1,30_issda_200,200,rng-200,21,rng,num-start-771,771,25726,20.164150714874268,True,,True,1,False,1000,True,1.0
./expes/v2_2020-12-06_dh_200-prng-1,30_issda_200,200,rng-200,31,rng,num-start-241,241,25726,12.49321460723877,True,,True,1,False,1000,True,1.0
./expes/v2_2020-12-06_dh_200-prng-1,30_issda_200,200,rng-200,141,rng,num-start-71,71,25726,10.61679744720459,True,,True,1,False,1000,True,1.0
./expes/v2_2020-12-06_dh_200-prng-1,30_issda_200,200,rng-200,41,rng,num-start-811,811,25726,18.669281482696533,True,,True,1,False,1000,True,1.0
./expes/v2_2020-12-06_dh_200-prng-1,30_issda_200,200,rng-200,151,rng,num-start-231,231,25726,6.144824028015137,True,,True,1,False,1000,True,1.0
./expes/v2_2020-12-06_dh_200-prng-1,30_issda_200,200,rng-200,71,rng,num-start-171,171,25726,5.996388673782349,True,,True,1,False,1000,True,1.0
./expes/v2_2020-12-06_dh_200-prng-1,30_issda_200,200,rng-200,71,rng,num-start-791,791,25726,18.221356630325317,True,,True,1,False,1000,True,1.0
./expes/v2_2020-12-06_dh_200-prng-1,30_issda_200,200,rng-200,171,rng,num-start-231,231,25726,21.851852416992188,True,,True,1,False,1000,True,1.0
./expes/v2_2020-12-06_dh_200-prng-1,30_issda_200,200,rng-200,141,rng,num-start-651,651,25726,16.322200536727905,True,,True,1,False,1000,True,1.0
./expes/v2_2020-12-06_dh_200-prng-1,30_issda_200,200,rng-200,111,rng,num-start-811,811,25726,45.86475086212158,True,,True,1,False,1000,True,1.0
./expes/v2_2020-12-06_dh_200-prng-1,30_issda_200,200,rng-200,171,rng,num-start-961,961,25726,21.848981857299805,True,,True,1,False,1000,True,1.0
./expes/v2_2020-12-06_dh_200-prng-1,30_issda_200,200,rng-200,51,rng,num-start-741,741,25726,23.068258047103882,True,,True,1,False,1000,True,1.0
./expes/v2_2020-12-06_dh_200-prng-1,30_issda_200,200,rng-200,101,rng,num-start-431,431,25726,22.65464210510254,True,,True,1,False,1000,True,1.0
./expes/v2_2020-12-06_dh_200-prng-1,30_issda_200,200,rng-200,131,rng,num-start-891,891,25726,32.93644690513611,True,,True,1,False,1000,True,1.0
./expes/v2_2020-12-06_dh_200-prng-1,30_issda_200,200,rng-200,101,rng,num-start-371,371,25726,9.370727062225342,True,,True,1,False,1000,True,1.0
./expes/v2_2020-12-06_dh_200-prng-1,30_issda_200,200,rng-200,91,rng,num-start-181,181,25726,5.128633975982666,True,,True,1,False,1000,True,1.0
./expes/v2_2020-12-06_dh_200-prng-1,30_issda_200,200,rng-200,21,rng,num-start-61,61,25726,3.591135263442993,True,,True,1,False,1000,True,1.0
./expes/v2_2020-12-06_dh_200-prng-1,30_issda_200,200,rng-200,171,rng,num-start-511,511,25726,31.826590299606323,True,,True,1,False,1000,True,1.0
./expes/v2_2020-12-06_dh_200-prng-1,30_issda_200,200,rng-200,191,rng,num-start-491,491,25726,12.250358819961548,True,,True,1,False,1000,True,1.0
./expes/v2_2020-12-06_dh_200-prng-1,30_issda_200,200,rng-200,71,rng,num-start-231,231,25726,11.563213586807251,True,,True,1,False,1000,True,1.0
./expes/v2_2020-12-06_dh_200-prng-1,30_issda_200,200,rng-200,121,rng,num-start-911,911,25726,23.275837182998657,True,,True,1,False,1000,True,1.0
./expes/v2_2020-12-06_dh_200-prng-1,30_issda_200,200,rng-200,71,rng,num-start-121,121,25726,3.1872127056121826,True,,True,1,False,1000,True,1.0
./expes/v2_2020-12-06_dh_200-prng-1,30_issda_200,200,rng-200,151,rng,num-start-161,161,25726,4.294564485549927,True,,True,1,False,1000,True,1.0
./expes/v2_2020-12-06_dh_200-prng-1,30_issda_200,200,rng-200,81,rng,num-start-381,381,25726,10.164416074752808,True,,True,1,False,1000,True,1.0
./expes/v2_2020-12-06_dh_200-prng-1,30_issda_200,200,rng-200,151,rng,num-start-81,81,25726,2.3629753589630127,True,,True,1,False,1000,True,1.0
./expes/v2_2020-12-06_dh_200-prng-1,30_issda_200,200,rng-200,141,rng,num-start-71,71,25726,16.943625688552856,True,,True,1,False,1000,True,1.0
./expes/v2_2020-12-06_dh_200-prng-1,30_issda_200,200,rng-200,151,rng,num-start-641,641,25726,19.246881246566772,True,,True,1,False,1000,True,1.0
./expes/v2_2020-12-06_dh_200-prng-1,30_issda_200,200,rng-200,1,rng,num-start-201,201,25726,4.401296377182007,True,,True,1,False,1000,True,1.0
./expes/v2_2020-12-06_dh_200-prng-1,30_issda_200,200,rng-200,91,rng,num-start-991,991,25726,27.335707426071167,True,,True,1,False,1000,True,1.0
./expes/v2_2020-12-06_dh_200-prng-1,30_issda_200,200,rng-200,181,rng,num-start-301,301,25726,7.401401996612549,True,,True,1,False,1000,True,1.0
./expes/v2_2020-12-06_dh_200-prng-1,30_issda_200,200,rng-200,91,rng,num-start-581,581,25726,24.696541786193848,True,,True,1,False,1000,True,1.0
./expes/v2_2020-12-06_dh_200-prng-1,30_issda_200,200,rng-200,181,rng,num-start-251,251,25726,5.868611812591553,True,,True,1,False,1000,True,1.0
./expes/v2_2020-12-06_dh_200-prng-1,30_issda_200,200,rng-200,191,rng,num-start-571,571,25726,20.249683380126953,True,,True,1,False,1000,True,1.0
./expes/v2_2020-12-06_dh_200-prng-1,30_issda_200,200,rng-200,41,rng,num-start-721,721,25726,21.368916988372803,True,,True,1,False,1000,True,1.0
./expes/v2_2020-12-06_dh_200-prng-1,30_issda_200,200,rng-200,61,rng,num-start-331,331,25726,8.294816732406616,True,,True,1,False,1000,True,1.0
./expes/v2_2020-12-06_dh_200-prng-1,30_issda_200,200,rng-200,31,rng,num-start-211,211,25726,8.028396368026733,True,,True,1,False,1000,True,1.0
./expes/v2_2020-12-06_dh_200-prng-1,30_issda_200,200,rng-200,191,rng,num-start-921,921,25726,19.609397888183594,True,,True,1,False,1000,True,1.0
./expes/v2_2020-12-06_dh_200-prng-1,30_issda_200,200,rng-200,11,rng,num-start-821,821,25726,35.28337478637695,True,,True,1,False,1000,True,1.0
./expes/v2_2020-12-06_dh_200-prng-1,30_issda_200,200,rng-200,101,rng,num-start-581,581,25726,14.094291925430298,True,,True,1,False,1000,True,1.0
./expes/v2_2020-12-06_dh_200-prng-1,30_issda_200,200,rng-200,121,rng,num-start-231,231,25726,12.478073120117188,True,,True,1,False,1000,True,1.0
./expes/v2_2020-12-06_dh_200-prng-1,30_issda_200,200,rng-200,171,rng,num-start-961,961,25726,21.255918741226196,True,,True,1,False,1000,True,1.0
./expes/v2_2020-12-06_dh_200-prng-1,30_issda_200,200,rng-200,41,rng,num-start-361,361,25726,8.205567836761475,True,,True,1,False,1000,True,1.0
./expes/v2_2020-12-06_dh_200-prng-1,30_issda_200,200,rng-200,81,rng,num-start-441,441,25726,11.153751850128174,True,,True,1,False,1000,True,1.0
./expes/v2_2020-12-06_dh_200-prng-1,30_issda_200,200,rng-200,81,rng,num-start-231,231,25726,5.514668226242065,True,,True,1,False,1000,True,1.0
./expes/v2_2020-12-06_dh_200-prng-1,30_issda_200,200,rng-200,191,rng,num-start-781,781,25726,23.331185579299927,True,,True,1,False,1000,True,1.0
./expes/v2_2020-12-06_dh_200-prng-1,30_issda_200,200,rng-200,41,rng,num-start-321,321,25726,7.8124165534973145,True,,True,1,False,1000,True,1.0
./expes/v2_2020-12-06_dh_200-prng-1,30_issda_200,200,rng-200,181,rng,num-start-801,801,25726,17.897663593292236,True,,True,1,False,1000,True,1.0
./expes/v2_2020-12-06_dh_200-prng-1,30_issda_200,200,rng-200,51,rng,num-start-21,21,25726,1000.850554227829,False,,False,0,True,1000,True,0.0
./expes/v2_2020-12-06_dh_200-prng-1,30_issda_200,200,rng-200,101,rng,num-start-751,751,25726,24.55798602104187,True,,True,1,False,1000,True,1.0
./expes/v2_2020-12-06_dh_200-prng-1,30_issda_200,200,rng-200,161,rng,num-start-91,91,25726,2.202439546585083,True,,True,1,False,1000,True,1.0
./expes/v2_2020-12-06_dh_200-prng-1,30_issda_200,200,rng-200,111,rng,num-start-811,811,25726,31.109314441680908,True,,True,1,False,1000,True,1.0
./expes/v2_2020-12-06_dh_200-prng-1,30_issda_200,200,rng-200,31,rng,num-start-951,951,25726,23.198211431503296,True,,True,1,False,1000,True,1.0
./expes/v2_2020-12-06_dh_200-prng-1,30_issda_200,200,rng-200,81,rng,num-start-211,211,25726,4.909398555755615,True,,True,1,False,1000,True,1.0
./expes/v2_2020-12-06_dh_200-prng-1,30_issda_200,200,rng-200,101,rng,num-start-241,241,25726,6.26848292350769,True,,True,1,False,1000,True,1.0
./expes/v2_2020-12-06_dh_200-prng-1,30_issda_200,200,rng-200,1,rng,num-start-931,931,25726,19.58846664428711,True,,True,1,False,1000,True,1.0
./expes/v2_2020-12-06_dh_200-prng-1,30_issda_200,200,rng-200,121,rng,num-start-621,621,25726,15.129447221755981,True,,True,1,False,1000,True,1.0
./expes/v2_2020-12-06_dh_200-prng-1,30_issda_200,200,rng-200,71,rng,num-start-691,691,25726,17.279649257659912,True,,True,1,False,1000,True,1.0
./expes/v2_2020-12-06_dh_200-prng-1,30_issda_200,200,rng-200,101,rng,num-start-591,591,25726,15.57895827293396,True,,True,1,False,1000,True,1.0
./expes/v2_2020-12-06_dh_200-prng-1,30_issda_200,200,rng-200,151,rng,num-start-801,801,25726,19.832000970840454,True,,True,1,False,1000,True,1.0
./expes/v2_2020-12-06_dh_200-prng-1,30_issda_200,200,rng-200,141,rng,num-start-541,541,25726,16.80495595932007,True,,True,1,False,1000,True,1.0
./expes/v2_2020-12-06_dh_200-prng-1,30_issda_200,200,rng-200,191,rng,num-start-591,591,25726,16.552838802337646,True,,True,1,False,1000,True,1.0
./expes/v2_2020-12-06_dh_200-prng-1,30_issda_200,200,rng-200,61,rng,num-start-931,931,25726,25.693966388702393,True,,True,1,False,1000,True,1.0
./expes/v2_2020-12-06_dh_200-prng-1,30_issda_200,200,rng-200,161,rng,num-start-901,901,25726,26.397854566574097,True,,True,1,False,1000,True,1.0
./expes/v2_2020-12-06_dh_200-prng-1,30_issda_200,200,rng-200,191,rng,num-start-521,521,25726,12.008927345275879,True,,True,1,False,1000,True,1.0
./expes/v2_2020-12-06_dh_200-prng-1,30_issda_200,200,rng-200,171,rng,num-start-761,761,25726,30.12877082824707,True,,True,1,False,1000,True,1.0
./expes/v2_2020-12-06_dh_200-prng-1,30_issda_200,200,rng-200,151,rng,num-start-881,881,25726,23.804485082626343,True,,True,1,False,1000,True,1.0
./expes/v2_2020-12-06_dh_200-prng-1,30_issda_200,200,rng-200,151,rng,num-start-351,351,25726,14.527373790740967,True,,True,1,False,1000,True,1.0
./expes/v2_2020-12-06_dh_200-prng-1,30_issda_200,200,rng-200,161,rng,num-start-251,251,25726,20.385013818740845,True,,True,1,False,1000,True,1.0
./expes/v2_2020-12-06_dh_200-prng-1,30_issda_200,200,rng-200,131,rng,num-start-871,871,25726,31.867533445358276,True,,True,1,False,1000,True,1.0
./expes/v2_2020-12-06_dh_200-prng-1,30_issda_200,200,rng-200,141,rng,num-start-991,991,25726,24.838979482650757,True,,True,1,False,1000,True,1.0
./expes/v2_2020-12-06_dh_200-prng-1,30_issda_200,200,rng-200,51,rng,num-start-931,931,25726,22.867223739624023,True,,True,1,False,1000,True,1.0
./expes/v2_2020-12-06_dh_200-prng-1,30_issda_200,200,rng-200,81,rng,num-start-561,561,25726,13.768502950668335,True,,True,1,False,1000,True,1.0
./expes/v2_2020-12-06_dh_200-prng-1,30_issda_200,200,rng-200,141,rng,num-start-71,71,25726,21.98025941848755,True,,True,1,False,1000,True,1.0
./expes/v2_2020-12-06_dh_200-prng-1,30_issda_200,200,rng-200,141,rng,num-start-201,201,25726,13.60762906074524,True,,True,1,False,1000,True,1.0
./expes/v2_2020-12-06_dh_200-prng-1,30_issda_200,200,rng-200,131,rng,num-start-561,561,25726,13.041910171508789,True,,True,1,False,1000,True,1.0
./expes/v2_2020-12-06_dh_200-prng-1,30_issda_200,200,rng-200,191,rng,num-start-511,511,25726,15.816584825515747,True,,True,1,False,1000,True,1.0
./expes/v2_2020-12-06_dh_200-prng-1,30_issda_200,200,rng-200,31,rng,num-start-101,101,25726,2.410879611968994,True,,True,1,False,1000,True,1.0
./expes/v2_2020-12-06_dh_200-prng-1,30_issda_200,200,rng-200,171,rng,num-start-991,991,25726,22.543410062789917,True,,True,1,False,1000,True,1.0
./expes/v2_2020-12-06_dh_200-prng-1,30_issda_200,200,rng-200,41,rng,num-start-161,161,25726,3.8208253383636475,True,,True,1,False,1000,True,1.0
./expes/v2_2020-12-06_dh_200-prng-1,30_issda_200,200,rng-200,91,rng,num-start-121,121,25726,5.425010681152344,True,,True,1,False,1000,True,1.0
./expes/v2_2020-12-06_dh_200-prng-1,30_issda_200,200,rng-200,121,rng,num-start-951,951,25726,21.619439125061035,True,,True,1,False,1000,True,1.0
./expes/v2_2020-12-06_dh_200-prng-1,30_issda_200,200,rng-200,101,rng,num-start-381,381,25726,8.74020266532898,True,,True,1,False,1000,True,1.0
./expes/v2_2020-12-06_dh_200-prng-1,30_issda_200,200,rng-200,21,rng,num-start-891,891,25726,24.739180088043213,True,,True,1,False,1000,True,1.0
./expes/v2_2020-12-06_dh_200-prng-1,30_issda_200,200,rng-200,61,rng,num-start-231,231,25726,6.640762090682983,True,,True,1,False,1000,True,1.0
./expes/v2_2020-12-06_dh_200-prng-1,30_issda_200,200,rng-200,51,rng,num-start-141,141,25726,17.276378631591797,True,,True,1,False,1000,True,1.0
./expes/v2_2020-12-06_dh_200-prng-1,30_issda_200,200,rng-200,151,rng,num-start-111,111,25726,4.36363959312439,True,,True,1,False,1000,True,1.0
./expes/v2_2020-12-06_dh_200-prng-1,30_issda_200,200,rng-200,101,rng,num-start-951,951,25726,23.022878646850586,True,,True,1,False,1000,True,1.0
./expes/v2_2020-12-06_dh_200-prng-1,30_issda_200,200,rng-200,191,rng,num-start-541,541,25726,11.510078430175781,True,,True,1,False,1000,True,1.0
./expes/v2_2020-12-06_dh_200-prng-1,30_issda_200,200,rng-200,111,rng,num-start-161,161,25726,9.320628881454468,True,,True,1,False,1000,True,1.0
./expes/v2_2020-12-06_dh_200-prng-1,30_issda_200,200,rng-200,91,rng,num-start-531,531,25726,22.03444480895996,True,,True,1,False,1000,True,1.0
./expes/v2_2020-12-06_dh_200-prng-1,30_issda_200,200,rng-200,31,rng,num-start-261,261,25726,8.897666692733765,True,,True,1,False,1000,True,1.0
./expes/v2_2020-12-06_dh_200-prng-1,30_issda_200,200,rng-200,31,rng,num-start-601,601,25726,17.757561206817627,True,,True,1,False,1000,True,1.0
./expes/v2_2020-12-06_dh_200-prng-1,30_issda_200,200,rng-200,71,rng,num-start-211,211,25726,16.767953157424927,True,,True,1,False,1000,True,1.0
./expes/v2_2020-12-06_dh_200-prng-1,30_issda_200,200,rng-200,71,rng,num-start-1,1,25726,0.05820727348327637,False,,False,2,False,1000,True,1.0
./expes/v2_2020-12-06_dh_200-prng-1,30_issda_200,200,rng-200,51,rng,num-start-111,111,25726,3.088611364364624,True,,True,1,False,1000,True,1.0
./expes/v2_2020-12-06_dh_200-prng-1,30_issda_200,200,rng-200,161,rng,num-start-911,911,25726,21.69688320159912,True,,True,1,False,1000,True,1.0
./expes/v2_2020-12-06_dh_200-prng-1,30_issda_200,200,rng-200,101,rng,num-start-641,641,25726,14.727248907089233,True,,True,1,False,1000,True,1.0
./expes/v2_2020-12-06_dh_200-prng-1,30_issda_200,200,rng-200,31,rng,num-start-511,511,25726,13.572217464447021,True,,True,1,False,1000,True,1.0
./expes/v2_2020-12-06_dh_200-prng-1,30_issda_200,200,rng-200,51,rng,num-start-231,231,25726,5.42313551902771,True,,True,1,False,1000,True,1.0
./expes/v2_2020-12-06_dh_200-prng-1,30_issda_200,200,rng-200,61,rng,num-start-541,541,25726,13.317904710769653,True,,True,1,False,1000,True,1.0
./expes/v2_2020-12-06_dh_200-prng-1,30_issda_200,200,rng-200,141,rng,num-start-341,341,25726,8.011025667190552,True,,True,1,False,1000,True,1.0
./expes/v2_2020-12-06_dh_200-prng-1,30_issda_200,200,rng-200,181,rng,num-start-931,931,25726,36.75849103927612,True,,True,1,False,1000,True,1.0
./expes/v2_2020-12-06_dh_200-prng-1,30_issda_200,200,rng-200,31,rng,num-start-421,421,25726,17.246038913726807,True,,True,1,False,1000,True,1.0
./expes/v2_2020-12-06_dh_200-prng-1,30_issda_200,200,rng-200,141,rng,num-start-421,421,25726,10.005296230316162,True,,True,1,False,1000,True,1.0
./expes/v2_2020-12-06_dh_200-prng-1,30_issda_200,200,rng-200,121,rng,num-start-721,721,25726,21.313064336776733,True,,True,1,False,1000,True,1.0
./expes/v2_2020-12-06_dh_200-prng-1,30_issda_200,200,rng-200,151,rng,num-start-551,551,25726,12.77079176902771,True,,True,1,False,1000,True,1.0
./expes/v2_2020-12-06_dh_200-prng-1,30_issda_200,200,rng-200,141,rng,num-start-231,231,25726,10.099816799163818,True,,True,1,False,1000,True,1.0
./expes/v2_2020-12-06_dh_200-prng-1,30_issda_200,200,rng-200,141,rng,num-start-791,791,25726,19.679380416870117,True,,True,1,False,1000,True,1.0
./expes/v2_2020-12-06_dh_200-prng-1,30_issda_200,200,rng-200,21,rng,num-start-531,531,25726,12.43082594871521,True,,True,1,False,1000,True,1.0
./expes/v2_2020-12-06_dh_200-prng-1,30_issda_200,200,rng-200,141,rng,num-start-341,341,25726,7.978229284286499,True,,True,1,False,1000,True,1.0
./expes/v2_2020-12-06_dh_200-prng-1,30_issda_200,200,rng-200,61,rng,num-start-211,211,25726,6.293524742126465,True,,True,1,False,1000,True,1.0
./expes/v2_2020-12-06_dh_200-prng-1,30_issda_200,200,rng-200,121,rng,num-start-681,681,25726,18.81152844429016,True,,True,1,False,1000,True,1.0
./expes/v2_2020-12-06_dh_200-prng-1,30_issda_200,200,rng-200,121,rng,num-start-251,251,25726,12.69300389289856,True,,True,1,False,1000,True,1.0
./expes/v2_2020-12-06_dh_200-prng-1,30_issda_200,200,rng-200,21,rng,num-start-491,491,25726,11.97688341140747,True,,True,1,False,1000,True,1.0
./expes/v2_2020-12-06_dh_200-prng-1,30_issda_200,200,rng-200,161,rng,num-start-951,951,25726,22.608079433441162,True,,True,1,False,1000,True,1.0
./expes/v2_2020-12-06_dh_200-prng-1,30_issda_200,200,rng-200,61,rng,num-start-611,611,25726,14.699898481369019,True,,True,1,False,1000,True,1.0
./expes/v2_2020-12-06_dh_200-prng-1,30_issda_200,200,rng-200,51,rng,num-start-381,381,25726,24.956026077270508,True,,True,1,False,1000,True,1.0
./expes/v2_2020-12-06_dh_200-prng-1,30_issda_200,200,rng-200,181,rng,num-start-431,431,25726,10.915060997009277,True,,True,1,False,1000,True,1.0
./expes/v2_2020-12-06_dh_200-prng-1,30_issda_200,200,rng-200,121,rng,num-start-281,281,25726,11.6779305934906,True,,True,1,False,1000,True,1.0
./expes/v2_2020-12-06_dh_200-prng-1,30_issda_200,200,rng-200,1,rng,num-start-901,901,25726,19.096834897994995,True,,True,1,False,1000,True,1.0
./expes/v2_2020-12-06_dh_200-prng-1,30_issda_200,200,rng-200,181,rng,num-start-911,911,25726,20.59465742111206,True,,True,1,False,1000,True,1.0
./expes/v2_2020-12-06_dh_200-prng-1,30_issda_200,200,rng-200,21,rng,num-start-731,731,25726,17.689892768859863,True,,True,1,False,1000,True,1.0
./expes/v2_2020-12-06_dh_200-prng-1,30_issda_200,200,rng-200,101,rng,num-start-751,751,25726,19.080000638961792,True,,True,1,False,1000,True,1.0
./expes/v2_2020-12-06_dh_200-prng-1,30_issda_200,200,rng-200,181,rng,num-start-231,231,25726,5.594395399093628,True,,True,1,False,1000,True,1.0
./expes/v2_2020-12-06_dh_200-prng-1,30_issda_200,200,rng-200,161,rng,num-start-331,331,25726,8.545496940612793,True,,True,1,False,1000,True,1.0
./expes/v2_2020-12-06_dh_200-prng-1,30_issda_200,200,rng-200,111,rng,num-start-201,201,25726,7.567338705062866,True,,True,1,False,1000,True,1.0
./expes/v2_2020-12-06_dh_200-prng-1,30_issda_200,200,rng-200,181,rng,num-start-861,861,25726,27.801568269729614,True,,True,1,False,1000,True,1.0
./expes/v2_2020-12-06_dh_200-prng-1,30_issda_200,200,rng-200,91,rng,num-start-291,291,25726,11.135084867477417,True,,True,1,False,1000,True,1.0
./expes/v2_2020-12-06_dh_200-prng-1,30_issda_200,200,rng-200,81,rng,num-start-961,961,25726,22.82030940055847,True,,True,1,False,1000,True,1.0
./expes/v2_2020-12-06_dh_200-prng-1,30_issda_200,200,rng-200,81,rng,num-start-781,781,25726,38.90944719314575,True,,True,1,False,1000,True,1.0
./expes/v2_2020-12-06_dh_200-prng-1,30_issda_200,200,rng-200,71,rng,num-start-881,881,25726,31.9476580619812,True,,True,1,False,1000,True,1.0
./expes/v2_2020-12-06_dh_200-prng-1,30_issda_200,200,rng-200,81,rng,num-start-821,821,25726,27.05819845199585,True,,True,1,False,1000,True,1.0
./expes/v2_2020-12-06_dh_200-prng-1,30_issda_200,200,rng-200,31,rng,num-start-981,981,25726,28.682852029800415,True,,True,1,False,1000,True,1.0
./expes/v2_2020-12-06_dh_200-prng-1,30_issda_200,200,rng-200,21,rng,num-start-781,781,25726,27.136688232421875,True,,True,1,False,1000,True,1.0
./expes/v2_2020-12-06_dh_200-prng-1,30_issda_200,200,rng-200,171,rng,num-start-241,241,25726,6.0363383293151855,True,,True,1,False,1000,True,1.0
./expes/v2_2020-12-06_dh_200-prng-1,30_issda_200,200,rng-200,11,rng,num-start-41,41,25726,3.8289239406585693,True,,True,1,False,1000,True,1.0
./expes/v2_2020-12-06_dh_200-prng-1,30_issda_200,200,rng-200,161,rng,num-start-241,241,25726,11.114943981170654,True,,True,1,False,1000,True,1.0
./expes/v2_2020-12-06_dh_200-prng-1,30_issda_200,200,rng-200,51,rng,num-start-91,91,25726,2.5934576988220215,True,,True,1,False,1000,True,1.0
./expes/v2_2020-12-06_dh_200-prng-1,30_issda_200,200,rng-200,141,rng,num-start-91,91,25726,3.400561809539795,True,,True,1,False,1000,True,1.0
./expes/v2_2020-12-06_dh_200-prng-1,30_issda_200,200,rng-200,151,rng,num-start-411,411,25726,11.631874322891235,True,,True,1,False,1000,True,1.0
./expes/v2_2020-12-06_dh_200-prng-1,30_issda_200,200,rng-200,21,rng,num-start-801,801,25726,19.7103214263916,True,,True,1,False,1000,True,1.0
./expes/v2_2020-12-06_dh_200-prng-1,30_issda_200,200,rng-200,51,rng,num-start-191,191,25726,5.478046178817749,True,,True,1,False,1000,True,1.0
./expes/v2_2020-12-06_dh_200-prng-1,30_issda_200,200,rng-200,151,rng,num-start-831,831,25726,21.41165566444397,True,,True,1,False,1000,True,1.0
./expes/v2_2020-12-06_dh_200-prng-1,30_issda_200,200,rng-200,91,rng,num-start-231,231,25726,6.590112924575806,True,,True,1,False,1000,True,1.0
./expes/v2_2020-12-06_dh_200-prng-1,30_issda_200,200,rng-200,21,rng,num-start-911,911,25726,20.69315791130066,True,,True,1,False,1000,True,1.0
./expes/v2_2020-12-06_dh_200-prng-1,30_issda_200,200,rng-200,171,rng,num-start-41,41,25726,6.78723931312561,True,,True,1,False,1000,True,1.0
./expes/v2_2020-12-06_dh_200-prng-1,30_issda_200,200,rng-200,51,rng,num-start-811,811,25726,19.383618116378784,True,,True,1,False,1000,True,1.0
./expes/v2_2020-12-06_dh_200-prng-1,30_issda_200,200,rng-200,11,rng,num-start-461,461,25726,11.036821603775024,True,,True,1,False,1000,True,1.0
./expes/v2_2020-12-06_dh_200-prng-1,30_issda_200,200,rng-200,41,rng,num-start-51,51,25726,17.191251277923584,True,,True,1,False,1000,True,1.0
./expes/v2_2020-12-06_dh_200-prng-1,30_issda_200,200,rng-200,11,rng,num-start-671,671,25726,14.95687747001648,True,,True,1,False,1000,True,1.0
./expes/v2_2020-12-06_dh_200-prng-1,30_issda_200,200,rng-200,131,rng,num-start-511,511,25726,12.690672159194946,True,,True,1,False,1000,True,1.0
./expes/v2_2020-12-06_dh_200-prng-1,30_issda_200,200,rng-200,61,rng,num-start-321,321,25726,8.14955449104309,True,,True,1,False,1000,True,1.0
./expes/v2_2020-12-06_dh_200-prng-1,30_issda_200,200,rng-200,31,rng,num-start-741,741,25726,18.543724060058594,True,,True,1,False,1000,True,1.0
./expes/v2_2020-12-06_dh_200-prng-1,30_issda_200,200,rng-200,131,rng,num-start-631,631,25726,15.500626564025879,True,,True,1,False,1000,True,1.0
./expes/v2_2020-12-06_dh_200-prng-1,30_issda_200,200,rng-200,91,rng,num-start-941,941,25726,23.54515814781189,True,,True,1,False,1000,True,1.0
./expes/v2_2020-12-06_dh_200-prng-1,30_issda_200,200,rng-200,111,rng,num-start-811,811,25726,19.173108339309692,True,,True,1,False,1000,True,1.0
./expes/v2_2020-12-06_dh_200-prng-1,30_issda_200,200,rng-200,31,rng,num-start-421,421,25726,11.839536905288696,True,,True,1,False,1000,True,1.0
./expes/v2_2020-12-06_dh_200-prng-1,30_issda_200,200,rng-200,191,rng,num-start-911,911,25726,19.741110801696777,True,,True,1,False,1000,True,1.0
./expes/v2_2020-12-06_dh_200-prng-1,30_issda_200,200,rng-200,161,rng,num-start-841,841,25726,19.74824333190918,True,,True,1,False,1000,True,1.0
./expes/v2_2020-12-06_dh_200-prng-1,30_issda_200,200,rng-200,181,rng,num-start-451,451,25726,10.321173191070557,True,,True,1,False,1000,True,1.0
./expes/v2_2020-12-06_dh_200-prng-1,30_issda_200,200,rng-200,131,rng,num-start-341,341,25726,8.674269437789917,True,,True,1,False,1000,True,1.0
./expes/v2_2020-12-06_dh_200-prng-1,30_issda_200,200,rng-200,191,rng,num-start-801,801,25726,18.211540460586548,True,,True,1,False,1000,True,1.0
./expes/v2_2020-12-06_dh_200-prng-1,30_issda_200,200,rng-200,171,rng,num-start-31,31,25726,1000.9437050819397,False,,False,0,True,1000,True,0.0
./expes/v2_2020-12-06_dh_200-prng-1,30_issda_200,200,rng-200,121,rng,num-start-981,981,25726,23.09635281562805,True,,True,1,False,1000,True,1.0
./expes/v2_2020-12-06_dh_200-prng-1,30_issda_200,200,rng-200,141,rng,num-start-361,361,25726,7.987735986709595,True,,True,1,False,1000,True,1.0
./expes/v2_2020-12-06_dh_200-prng-1,30_issda_200,200,rng-200,41,rng,num-start-551,551,25726,14.793467044830322,True,,True,1,False,1000,True,1.0
./expes/v2_2020-12-06_dh_200-prng-1,30_issda_200,200,rng-200,151,rng,num-start-291,291,25726,7.698686838150024,True,,True,1,False,1000,True,1.0
./expes/v2_2020-12-06_dh_200-prng-1,30_issda_200,200,rng-200,131,rng,num-start-371,371,25726,9.99770736694336,True,,True,1,False,1000,True,1.0
./expes/v2_2020-12-06_dh_200-prng-1,30_issda_200,200,rng-200,191,rng,num-start-241,241,25726,6.446035146713257,True,,True,1,False,1000,True,1.0
./expes/v2_2020-12-06_dh_200-prng-1,30_issda_200,200,rng-200,191,rng,num-start-241,241,25726,6.339071989059448,True,,True,1,False,1000,True,1.0
./expes/v2_2020-12-06_dh_200-prng-1,30_issda_200,200,rng-200,151,rng,num-start-31,31,25726,1000.8382368087769,False,,False,0,True,1000,True,0.0
./expes/v2_2020-12-06_dh_200-prng-1,30_issda_200,200,rng-200,71,rng,num-start-481,481,25726,11.614078044891357,True,,True,1,False,1000,True,1.0
./expes/v2_2020-12-06_dh_200-prng-1,30_issda_200,200,rng-200,111,rng,num-start-191,191,25726,4.891765594482422,True,,True,1,False,1000,True,1.0
./expes/v2_2020-12-06_dh_200-prng-1,30_issda_200,200,rng-200,1,rng,num-start-941,941,25726,20.44234299659729,True,,True,1,False,1000,True,1.0
./expes/v2_2020-12-06_dh_200-prng-1,30_issda_200,200,rng-200,181,rng,num-start-241,241,25726,6.14937162399292,True,,True,1,False,1000,True,1.0
./expes/v2_2020-12-06_dh_200-prng-1,30_issda_200,200,rng-200,1,rng,num-start-881,881,25726,19.058103799819946,True,,True,1,False,1000,True,1.0
./expes/v2_2020-12-06_dh_200-prng-1,30_issda_200,200,rng-200,161,rng,num-start-451,451,25726,10.384837627410889,True,,True,1,False,1000,True,1.0
./expes/v2_2020-12-06_dh_200-prng-1,30_issda_200,200,rng-200,71,rng,num-start-21,21,25726,1002.1005673408508,False,,False,0,True,1000,True,0.0
./expes/v2_2020-12-06_dh_200-prng-1,30_issda_200,200,rng-200,1,rng,num-start-811,811,25726,17.55539631843567,True,,True,1,False,1000,True,1.0
./expes/v2_2020-12-06_dh_200-prng-1,30_issda_200,200,rng-200,171,rng,num-start-891,891,25726,21.151068449020386,True,,True,1,False,1000,True,1.0
./expes/v2_2020-12-06_dh_200-prng-1,30_issda_200,200,rng-200,101,rng,num-start-71,71,25726,4.5679521560668945,True,,True,1,False,1000,True,1.0
./expes/v2_2020-12-06_dh_200-prng-1,30_issda_200,200,rng-200,91,rng,num-start-371,371,25726,9.283037185668945,True,,True,1,False,1000,True,1.0
./expes/v2_2020-12-06_dh_200-prng-1,30_issda_200,200,rng-200,101,rng,num-start-531,531,25726,12.948261737823486,True,,True,1,False,1000,True,1.0
./expes/v2_2020-12-06_dh_200-prng-1,30_issda_200,200,rng-200,111,rng,num-start-51,51,25726,1002.6992428302765,False,,False,0,True,1000,True,0.0
./expes/v2_2020-12-06_dh_200-prng-1,30_issda_200,200,rng-200,121,rng,num-start-591,591,25726,14.514408111572266,True,,True,1,False,1000,True,1.0
./expes/v2_2020-12-06_dh_200-prng-1,30_issda_200,200,rng-200,191,rng,num-start-751,751,25726,15.954802751541138,True,,True,1,False,1000,True,1.0
./expes/v2_2020-12-06_dh_200-prng-1,30_issda_200,200,rng-200,41,rng,num-start-331,331,25726,7.951951742172241,True,,True,1,False,1000,True,1.0
./expes/v2_2020-12-06_dh_200-prng-1,30_issda_200,200,rng-200,171,rng,num-start-861,861,25726,19.623204469680786,True,,True,1,False,1000,True,1.0
./expes/v2_2020-12-06_dh_200-prng-1,30_issda_200,200,rng-200,141,rng,num-start-1,1,25726,0.07218527793884277,False,,False,2,False,1000,True,1.0
./expes/v2_2020-12-06_dh_200-prng-1,30_issda_200,200,rng-200,31,rng,num-start-511,511,25726,11.960532903671265,True,,True,1,False,1000,True,1.0
./expes/v2_2020-12-06_dh_200-prng-1,30_issda_200,200,rng-200,131,rng,num-start-341,341,25726,8.260857343673706,True,,True,1,False,1000,True,1.0
./expes/v2_2020-12-06_dh_200-prng-1,30_issda_200,200,rng-200,41,rng,num-start-41,41,25726,1001.881343126297,False,,False,1,True,1000,True,0.0
./expes/v2_2020-12-06_dh_200-prng-1,30_issda_200,200,rng-200,61,rng,num-start-591,591,25726,13.297073602676392,True,,True,1,False,1000,True,1.0
./expes/v2_2020-12-06_dh_200-prng-1,30_issda_200,200,rng-200,11,rng,num-start-791,791,25726,17.395476818084717,True,,True,1,False,1000,True,1.0
./expes/v2_2020-12-06_dh_200-prng-1,30_issda_200,200,rng-200,91,rng,num-start-791,791,25726,18.745588779449463,True,,True,1,False,1000,True,1.0
./expes/v2_2020-12-06_dh_200-prng-1,30_issda_200,200,rng-200,121,rng,num-start-601,601,25726,14.90808391571045,True,,True,1,False,1000,True,1.0
./expes/v2_2020-12-06_dh_200-prng-1,30_issda_200,200,rng-200,61,rng,num-start-591,591,25726,13.574807405471802,True,,True,1,False,1000,True,1.0
./expes/v2_2020-12-06_dh_200-prng-1,30_issda_200,200,rng-200,151,rng,num-start-361,361,25726,8.554306745529175,True,,True,1,False,1000,True,1.0
./expes/v2_2020-12-06_dh_200-prng-1,30_issda_200,200,rng-200,171,rng,num-start-731,731,25726,16.01051664352417,True,,True,1,False,1000,True,1.0
./expes/v2_2020-12-06_dh_200-prng-1,30_issda_200,200,rng-200,131,rng,num-start-501,501,25726,12.16065526008606,True,,True,1,False,1000,True,1.0
./expes/v2_2020-12-06_dh_200-prng-1,30_issda_200,200,rng-200,41,rng,num-start-791,791,25726,19.070808172225952,True,,True,1,False,1000,True,1.0
./expes/v2_2020-12-06_dh_200-prng-1,30_issda_200,200,rng-200,191,rng,num-start-891,891,25726,19.513307809829712,True,,True,1,False,1000,True,1.0
./expes/v2_2020-12-06_dh_200-prng-1,30_issda_200,200,rng-200,121,rng,num-start-161,161,25726,4.256918668746948,True,,True,1,False,1000,True,1.0
./expes/v2_2020-12-06_dh_200-prng-1,30_issda_200,200,rng-200,101,rng,num-start-1,1,25726,0.08564043045043945,False,,False,2,False,1000,True,1.0
./expes/v2_2020-12-06_dh_200-prng-1,30_issda_200,200,rng-200,101,rng,num-start-841,841,25726,22.498673915863037,True,,True,1,False,1000,True,1.0
./expes/v2_2020-12-06_dh_200-prng-1,30_issda_200,200,rng-200,21,rng,num-start-51,51,25726,1.4005513191223145,True,,True,1,False,1000,True,1.0
./expes/v2_2020-12-06_dh_200-prng-1,30_issda_200,200,rng-200,51,rng,num-start-271,271,25726,6.547845125198364,True,,True,1,False,1000,True,1.0
./expes/v2_2020-12-06_dh_200-prng-1,30_issda_200,200,rng-200,81,rng,num-start-631,631,25726,14.92555570602417,True,,True,1,False,1000,True,1.0
./expes/v2_2020-12-06_dh_200-prng-1,30_issda_200,200,rng-200,91,rng,num-start-961,961,25726,23.051324367523193,True,,True,1,False,1000,True,1.0
./expes/v2_2020-12-06_dh_200-prng-1,30_issda_200,200,rng-200,81,rng,num-start-311,311,25726,7.825714826583862,True,,True,1,False,1000,True,1.0
./expes/v2_2020-12-06_dh_200-prng-1,30_issda_200,200,rng-200,191,rng,num-start-321,321,25726,6.902611255645752,True,,True,1,False,1000,True,1.0
./expes/v2_2020-12-06_dh_200-prng-1,30_issda_200,200,rng-200,61,rng,num-start-631,631,25726,15.605347156524658,True,,True,1,False,1000,True,1.0
./expes/v2_2020-12-06_dh_200-prng-1,30_issda_200,200,rng-200,61,rng,num-start-381,381,25726,9.563751935958862,True,,True,1,False,1000,True,1.0
./expes/v2_2020-12-06_dh_200-prng-1,30_issda_200,200,rng-200,171,rng,num-start-151,151,25726,3.655778646469116,True,,True,1,False,1000,True,1.0
./expes/v2_2020-12-06_dh_200-prng-1,30_issda_200,200,rng-200,21,rng,num-start-51,51,25726,1.7332990169525146,True,,True,1,False,1000,True,1.0
./expes/v2_2020-12-06_dh_200-prng-1,30_issda_200,200,rng-200,131,rng,num-start-991,991,25726,25.35738468170166,True,,True,1,False,1000,True,1.0
./expes/v2_2020-12-06_dh_200-prng-1,30_issda_200,200,rng-200,31,rng,num-start-201,201,25726,5.001162528991699,True,,True,1,False,1000,True,1.0
./expes/v2_2020-12-06_dh_200-prng-1,30_issda_200,200,rng-200,131,rng,num-start-931,931,25726,21.91722059249878,True,,True,1,False,1000,True,1.0
./expes/v2_2020-12-06_dh_200-prng-1,30_issda_200,200,rng-200,41,rng,num-start-681,681,25726,16.758525609970093,True,,True,1,False,1000,True,1.0
./expes/v2_2020-12-06_dh_200-prng-1,30_issda_200,200,rng-200,91,rng,num-start-781,781,25726,18.877365350723267,True,,True,1,False,1000,True,1.0
./expes/v2_2020-12-06_dh_200-prng-1,30_issda_200,200,rng-200,61,rng,num-start-531,531,25726,12.38514232635498,True,,True,1,False,1000,True,1.0
./expes/v2_2020-12-06_dh_200-prng-1,30_issda_200,200,rng-200,21,rng,num-start-571,571,25726,13.594966888427734,True,,True,1,False,1000,True,1.0
./expes/v2_2020-12-06_dh_200-prng-1,30_issda_200,200,rng-200,121,rng,num-start-731,731,25726,16.575584173202515,True,,True,1,False,1000,True,1.0
./expes/v2_2020-12-06_dh_200-prng-1,30_issda_200,200,rng-200,191,rng,num-start-441,441,25726,10.258583545684814,True,,True,1,False,1000,True,1.0
./expes/v2_2020-12-06_dh_200-prng-1,30_issda_200,200,rng-200,91,rng,num-start-221,221,25726,5.724031686782837,True,,True,1,False,1000,True,1.0
./expes/v2_2020-12-06_dh_200-prng-1,30_issda_200,200,rng-200,11,rng,num-start-81,81,25726,1.9714264869689941,True,,True,1,False,1000,True,1.0
./expes/v2_2020-12-06_dh_200-prng-1,30_issda_200,200,rng-200,1,rng,num-start-101,101,25726,2.1333491802215576,True,,True,1,False,1000,True,1.0
./expes/v2_2020-12-06_dh_200-prng-1,30_issda_200,200,rng-200,111,rng,num-start-281,281,25726,6.816592454910278,True,,True,1,False,1000,True,1.0
./expes/v2_2020-12-06_dh_200-prng-1,30_issda_200,200,rng-200,181,rng,num-start-751,751,25726,17.49424123764038,True,,True,1,False,1000,True,1.0
./expes/v2_2020-12-06_dh_200-prng-1,30_issda_200,200,rng-200,111,rng,num-start-921,921,25726,22.124372482299805,True,,True,1,False,1000,True,1.0
./expes/v2_2020-12-06_dh_200-prng-1,30_issda_200,200,rng-200,151,rng,num-start-321,321,25726,7.61951208114624,True,,True,1,False,1000,True,1.0
./expes/v2_2020-12-06_dh_200-prng-1,30_issda_200,200,rng-200,51,rng,num-start-131,131,25726,3.0538086891174316,True,,True,1,False,1000,True,1.0
./expes/v2_2020-12-06_dh_200-prng-1,30_issda_200,200,rng-200,131,rng,num-start-121,121,25726,3.019719362258911,True,,True,1,False,1000,True,1.0
