expe,clients,clients_size,clients_subset,agg_size,method,days,days_size,days_total,time,valid,valid_sum,success,nsols,wall_hit,wall_time,pooled,valid_sums
./expes/v2_2020-12-06_dh_200-prng-1,30_issda_200,200,rng-200,151,rng,num-start-131,131,25726,3.439586877822876,True,,True,1,False,1000,True,1.0
./expes/v2_2020-12-06_dh_200-prng-1,30_issda_200,200,rng-200,61,rng,num-start-11,11,25726,1001.1817588806152,False,,False,0,True,1000,True,0.0
./expes/v2_2020-12-06_dh_200-prng-1,30_issda_200,200,rng-200,71,rng,num-start-511,511,25726,12.330437898635864,True,,True,1,False,1000,True,1.0
./expes/v2_2020-12-06_dh_200-prng-1,30_issda_200,200,rng-200,121,rng,num-start-441,441,25726,11.723580360412598,True,,True,1,False,1000,True,1.0
./expes/v2_2020-12-06_dh_200-prng-1,30_issda_200,200,rng-200,111,rng,num-start-91,91,25726,4.272916793823242,True,,True,1,False,1000,True,1.0
./expes/v2_2020-12-06_dh_200-prng-1,30_issda_200,200,rng-200,111,rng,num-start-881,881,25726,20.50389862060547,True,,True,1,False,1000,True,1.0
./expes/v2_2020-12-06_dh_200-prng-1,30_issda_200,200,rng-200,61,rng,num-start-561,561,25726,14.076380252838135,True,,True,1,False,1000,True,1.0
./expes/v2_2020-12-06_dh_200-prng-1,30_issda_200,200,rng-200,101,rng,num-start-591,591,25726,14.8036048412323,True,,True,1,False,1000,True,1.0
./expes/v2_2020-12-06_dh_200-prng-1,30_issda_200,200,rng-200,11,rng,num-start-471,471,25726,10.54449725151062,True,,True,1,False,1000,True,1.0
./expes/v2_2020-12-06_dh_200-prng-1,30_issda_200,200,rng-200,81,rng,num-start-161,161,25726,4.000441551208496,True,,True,1,False,1000,True,1.0
./expes/v2_2020-12-06_dh_200-prng-1,30_issda_200,200,rng-200,121,rng,num-start-971,971,25726,24.966502904891968,True,,True,1,False,1000,True,1.0
./expes/v2_2020-12-06_dh_200-prng-1,30_issda_200,200,rng-200,81,rng,num-start-981,981,25726,24.240968704223633,True,,True,1,False,1000,True,1.0
./expes/v2_2020-12-06_dh_200-prng-1,30_issda_200,200,rng-200,161,rng,num-start-191,191,25726,4.795447587966919,True,,True,1,False,1000,True,1.0
./expes/v2_2020-12-06_dh_200-prng-1,30_issda_200,200,rng-200,111,rng,num-start-441,441,25726,11.42057204246521,True,,True,1,False,1000,True,1.0
./expes/v2_2020-12-06_dh_200-prng-1,30_issda_200,200,rng-200,101,rng,num-start-441,441,25726,10.475804328918457,True,,True,1,False,1000,True,1.0
./expes/v2_2020-12-06_dh_200-prng-1,30_issda_200,200,rng-200,141,rng,num-start-951,951,25726,24.117233753204346,True,,True,1,False,1000,True,1.0
./expes/v2_2020-12-06_dh_200-prng-1,30_issda_200,200,rng-200,91,rng,num-start-171,171,25726,4.422464370727539,True,,True,1,False,1000,True,1.0
./expes/v2_2020-12-06_dh_200-prng-1,30_issda_200,200,rng-200,41,rng,num-start-241,241,25726,5.956752061843872,True,,True,1,False,1000,True,1.0
./expes/v2_2020-12-06_dh_200-prng-1,30_issda_200,200,rng-200,101,rng,num-start-271,271,25726,6.467584133148193,True,,True,1,False,1000,True,1.0
./expes/v2_2020-12-06_dh_200-prng-1,30_issda_200,200,rng-200,141,rng,num-start-441,441,25726,10.021533489227295,True,,True,1,False,1000,True,1.0
./expes/v2_2020-12-06_dh_200-prng-1,30_issda_200,200,rng-200,151,rng,num-start-641,641,25726,15.440394639968872,True,,True,1,False,1000,True,1.0
./expes/v2_2020-12-06_dh_200-prng-1,30_issda_200,200,rng-200,11,rng,num-start-421,421,25726,9.46324348449707,True,,True,1,False,1000,True,1.0
./expes/v2_2020-12-06_dh_200-prng-1,30_issda_200,200,rng-200,81,rng,num-start-641,641,25726,14.69009280204773,True,,True,1,False,1000,True,1.0
./expes/v2_2020-12-06_dh_200-prng-1,30_issda_200,200,rng-200,181,rng,num-start-751,751,25726,17.5504412651062,True,,True,1,False,1000,True,1.0
./expes/v2_2020-12-06_dh_200-prng-1,30_issda_200,200,rng-200,41,rng,num-start-341,341,25726,8.27070140838623,True,,True,1,False,1000,True,1.0
./expes/v2_2020-12-06_dh_200-prng-1,30_issda_200,200,rng-200,151,rng,num-start-391,391,25726,9.452943086624146,True,,True,1,False,1000,True,1.0
./expes/v2_2020-12-06_dh_200-prng-1,30_issda_200,200,rng-200,171,rng,num-start-531,531,25726,12.221587657928467,True,,True,1,False,1000,True,1.0
./expes/v2_2020-12-06_dh_200-prng-1,30_issda_200,200,rng-200,101,rng,num-start-591,591,25726,14.112496137619019,True,,True,1,False,1000,True,1.0
./expes/v2_2020-12-06_dh_200-prng-1,30_issda_200,200,rng-200,11,rng,num-start-801,801,25726,18.763445377349854,True,,True,1,False,1000,True,1.0
./expes/v2_2020-12-06_dh_200-prng-1,30_issda_200,200,rng-200,91,rng,num-start-931,931,25726,22.01945424079895,True,,True,1,False,1000,True,1.0
./expes/v2_2020-12-06_dh_200-prng-1,30_issda_200,200,rng-200,31,rng,num-start-631,631,25726,15.5514554977417,True,,True,1,False,1000,True,1.0
./expes/v2_2020-12-06_dh_200-prng-1,30_issda_200,200,rng-200,11,rng,num-start-621,621,25726,13.690905809402466,True,,True,1,False,1000,True,1.0
./expes/v2_2020-12-06_dh_200-prng-1,30_issda_200,200,rng-200,21,rng,num-start-941,941,25726,23.27738618850708,True,,True,1,False,1000,True,1.0
./expes/v2_2020-12-06_dh_200-prng-1,30_issda_200,200,rng-200,11,rng,num-start-781,781,25726,17.763569116592407,True,,True,1,False,1000,True,1.0
./expes/v2_2020-12-06_dh_200-prng-1,30_issda_200,200,rng-200,161,rng,num-start-51,51,25726,2.283644676208496,True,,True,1,False,1000,True,1.0
./expes/v2_2020-12-06_dh_200-prng-1,30_issda_200,200,rng-200,181,rng,num-start-91,91,25726,2.188671112060547,True,,True,1,False,1000,True,1.0
./expes/v2_2020-12-06_dh_200-prng-1,30_issda_200,200,rng-200,111,rng,num-start-741,741,25726,16.842644929885864,True,,True,1,False,1000,True,1.0
./expes/v2_2020-12-06_dh_200-prng-1,30_issda_200,200,rng-200,11,rng,num-start-921,921,25726,19.592639207839966,True,,True,1,False,1000,True,1.0
./expes/v2_2020-12-06_dh_200-prng-1,30_issda_200,200,rng-200,151,rng,num-start-861,861,25726,20.08178448677063,True,,True,1,False,1000,True,1.0
./expes/v2_2020-12-06_dh_200-prng-1,30_issda_200,200,rng-200,101,rng,num-start-791,791,25726,18.604626655578613,True,,True,1,False,1000,True,1.0
./expes/v2_2020-12-06_dh_200-prng-1,30_issda_200,200,rng-200,71,rng,num-start-131,131,25726,3.2437894344329834,True,,True,1,False,1000,True,1.0
./expes/v2_2020-12-06_dh_200-prng-1,30_issda_200,200,rng-200,161,rng,num-start-261,261,25726,6.110060930252075,True,,True,1,False,1000,True,1.0
./expes/v2_2020-12-06_dh_200-prng-1,30_issda_200,200,rng-200,11,rng,num-start-41,41,25726,1.005500316619873,True,,True,1,False,1000,True,1.0
./expes/v2_2020-12-06_dh_200-prng-1,30_issda_200,200,rng-200,81,rng,num-start-61,61,25726,906.9856798648834,True,,True,1,False,1000,True,1.0
./expes/v2_2020-12-06_dh_200-prng-1,30_issda_200,200,rng-200,41,rng,num-start-221,221,25726,5.532108545303345,True,,True,1,False,1000,True,1.0
./expes/v2_2020-12-06_dh_200-prng-1,30_issda_200,200,rng-200,151,rng,num-start-401,401,25726,9.60142183303833,True,,True,1,False,1000,True,1.0
./expes/v2_2020-12-06_dh_200-prng-1,30_issda_200,200,rng-200,61,rng,num-start-771,771,25726,18.767757892608643,True,,True,1,False,1000,True,1.0
./expes/v2_2020-12-06_dh_200-prng-1,30_issda_200,200,rng-200,151,rng,num-start-271,271,25726,6.451695680618286,True,,True,1,False,1000,True,1.0
./expes/v2_2020-12-06_dh_200-prng-1,30_issda_200,200,rng-200,41,rng,num-start-41,41,25726,1001.4279162883759,False,,False,0,True,1000,True,0.0
./expes/v2_2020-12-06_dh_200-prng-1,30_issda_200,200,rng-200,131,rng,num-start-461,461,25726,11.771878957748413,True,,True,1,False,1000,True,1.0
./expes/v2_2020-12-06_dh_200-prng-1,30_issda_200,200,rng-200,141,rng,num-start-71,71,25726,3.0982542037963867,True,,True,1,False,1000,True,1.0
./expes/v2_2020-12-06_dh_200-prng-1,30_issda_200,200,rng-200,41,rng,num-start-101,101,25726,2.531092882156372,True,,True,1,False,1000,True,1.0
./expes/v2_2020-12-06_dh_200-prng-1,30_issda_200,200,rng-200,71,rng,num-start-211,211,25726,5.260822772979736,True,,True,1,False,1000,True,1.0
./expes/v2_2020-12-06_dh_200-prng-1,30_issda_200,200,rng-200,111,rng,num-start-131,131,25726,3.3131582736968994,True,,True,1,False,1000,True,1.0
./expes/v2_2020-12-06_dh_200-prng-1,30_issda_200,200,rng-200,151,rng,num-start-421,421,25726,10.314592599868774,True,,True,1,False,1000,True,1.0
./expes/v2_2020-12-06_dh_200-prng-1,30_issda_200,200,rng-200,51,rng,num-start-21,21,25726,1000.5096032619476,False,,False,0,True,1000,True,0.0
./expes/v2_2020-12-06_dh_200-prng-1,30_issda_200,200,rng-200,41,rng,num-start-871,871,25726,20.746131658554077,True,,True,1,False,1000,True,1.0
./expes/v2_2020-12-06_dh_200-prng-1,30_issda_200,200,rng-200,111,rng,num-start-31,31,25726,1000.990654706955,False,,False,0,True,1000,True,0.0
./expes/v2_2020-12-06_dh_200-prng-1,30_issda_200,200,rng-200,131,rng,num-start-451,451,25726,10.613531112670898,True,,True,1,False,1000,True,1.0
./expes/v2_2020-12-06_dh_200-prng-1,30_issda_200,200,rng-200,161,rng,num-start-381,381,25726,8.437177658081055,True,,True,1,False,1000,True,1.0
./expes/v2_2020-12-06_dh_200-prng-1,30_issda_200,200,rng-200,171,rng,num-start-541,541,25726,12.699177742004395,True,,True,1,False,1000,True,1.0
./expes/v2_2020-12-06_dh_200-prng-1,30_issda_200,200,rng-200,71,rng,num-start-111,111,25726,3.0296974182128906,True,,True,1,False,1000,True,1.0
./expes/v2_2020-12-06_dh_200-prng-1,30_issda_200,200,rng-200,21,rng,num-start-101,101,25726,2.566416025161743,True,,True,1,False,1000,True,1.0
./expes/v2_2020-12-06_dh_200-prng-1,30_issda_200,200,rng-200,91,rng,num-start-481,481,25726,11.589557886123657,True,,True,1,False,1000,True,1.0
./expes/v2_2020-12-06_dh_200-prng-1,30_issda_200,200,rng-200,81,rng,num-start-841,841,25726,20.321560621261597,True,,True,1,False,1000,True,1.0
./expes/v2_2020-12-06_dh_200-prng-1,30_issda_200,200,rng-200,121,rng,num-start-371,371,25726,8.80853533744812,True,,True,1,False,1000,True,1.0
./expes/v2_2020-12-06_dh_200-prng-1,30_issda_200,200,rng-200,11,rng,num-start-871,871,25726,20.01162075996399,True,,True,1,False,1000,True,1.0
./expes/v2_2020-12-06_dh_200-prng-1,30_issda_200,200,rng-200,191,rng,num-start-471,471,25726,9.856343269348145,True,,True,1,False,1000,True,1.0
./expes/v2_2020-12-06_dh_200-prng-1,30_issda_200,200,rng-200,101,rng,num-start-751,751,25726,17.54507040977478,True,,True,1,False,1000,True,1.0
./expes/v2_2020-12-06_dh_200-prng-1,30_issda_200,200,rng-200,131,rng,num-start-591,591,25726,14.514724493026733,True,,True,1,False,1000,True,1.0
./expes/v2_2020-12-06_dh_200-prng-1,30_issda_200,200,rng-200,101,rng,num-start-931,931,25726,22.16935133934021,True,,True,1,False,1000,True,1.0
./expes/v2_2020-12-06_dh_200-prng-1,30_issda_200,200,rng-200,181,rng,num-start-111,111,25726,2.6867988109588623,True,,True,1,False,1000,True,1.0
./expes/v2_2020-12-06_dh_200-prng-1,30_issda_200,200,rng-200,51,rng,num-start-351,351,25726,8.913195848464966,True,,True,1,False,1000,True,1.0
./expes/v2_2020-12-06_dh_200-prng-1,30_issda_200,200,rng-200,21,rng,num-start-621,621,25726,14.78879165649414,True,,True,1,False,1000,True,1.0
./expes/v2_2020-12-06_dh_200-prng-1,30_issda_200,200,rng-200,51,rng,num-start-691,691,25726,16.778536558151245,True,,True,1,False,1000,True,1.0
./expes/v2_2020-12-06_dh_200-prng-1,30_issda_200,200,rng-200,161,rng,num-start-331,331,25726,7.981700658798218,True,,False,2,False,1000,True,1.0
./expes/v2_2020-12-06_dh_200-prng-1,30_issda_200,200,rng-200,111,rng,num-start-281,281,25726,6.927422761917114,True,,True,1,False,1000,True,1.0
./expes/v2_2020-12-06_dh_200-prng-1,30_issda_200,200,rng-200,1,rng,num-start-21,21,25726,0.47330713272094727,True,,True,1,False,1000,True,1.0
./expes/v2_2020-12-06_dh_200-prng-1,30_issda_200,200,rng-200,61,rng,num-start-61,61,25726,64.37477612495422,True,,True,1,False,1000,True,1.0
./expes/v2_2020-12-06_dh_200-prng-1,30_issda_200,200,rng-200,121,rng,num-start-681,681,25726,16.080606937408447,True,,True,1,False,1000,True,1.0
./expes/v2_2020-12-06_dh_200-prng-1,30_issda_200,200,rng-200,71,rng,num-start-941,941,25726,22.071974992752075,True,,True,1,False,1000,True,1.0
./expes/v2_2020-12-06_dh_200-prng-1,30_issda_200,200,rng-200,41,rng,num-start-931,931,25726,22.337483644485474,True,,True,1,False,1000,True,1.0
./expes/v2_2020-12-06_dh_200-prng-1,30_issda_200,200,rng-200,71,rng,num-start-731,731,25726,17.73440170288086,True,,True,1,False,1000,True,1.0
./expes/v2_2020-12-06_dh_200-prng-1,30_issda_200,200,rng-200,181,rng,num-start-561,561,25726,13.589820146560669,True,,True,1,False,1000,True,1.0
./expes/v2_2020-12-06_dh_200-prng-1,30_issda_200,200,rng-200,21,rng,num-start-931,931,25726,20.834068536758423,True,,True,1,False,1000,True,1.0
./expes/v2_2020-12-06_dh_200-prng-1,30_issda_200,200,rng-200,141,rng,num-start-191,191,25726,4.8836350440979,True,,True,1,False,1000,True,1.0
./expes/v2_2020-12-06_dh_200-prng-1,30_issda_200,200,rng-200,191,rng,num-start-681,681,25726,15.7140371799469,True,,True,1,False,1000,True,1.0
./expes/v2_2020-12-06_dh_200-prng-1,30_issda_200,200,rng-200,171,rng,num-start-341,341,25726,8.315585613250732,True,,True,1,False,1000,True,1.0
./expes/v2_2020-12-06_dh_200-prng-1,30_issda_200,200,rng-200,21,rng,num-start-651,651,25726,16.059568643569946,True,,True,1,False,1000,True,1.0
./expes/v2_2020-12-06_dh_200-prng-1,30_issda_200,200,rng-200,31,rng,num-start-521,521,25726,12.058214902877808,True,,True,1,False,1000,True,1.0
./expes/v2_2020-12-06_dh_200-prng-1,30_issda_200,200,rng-200,21,rng,num-start-321,321,25726,7.5740885734558105,True,,True,1,False,1000,True,1.0
./expes/v2_2020-12-06_dh_200-prng-1,30_issda_200,200,rng-200,131,rng,num-start-551,551,25726,13.34719705581665,True,,True,1,False,1000,True,1.0
./expes/v2_2020-12-06_dh_200-prng-1,30_issda_200,200,rng-200,121,rng,num-start-451,451,25726,10.616454839706421,True,,True,1,False,1000,True,1.0
./expes/v2_2020-12-06_dh_200-prng-1,30_issda_200,200,rng-200,1,rng,num-start-201,201,25726,4.296973466873169,True,,True,1,False,1000,True,1.0
./expes/v2_2020-12-06_dh_200-prng-1,30_issda_200,200,rng-200,1,rng,num-start-481,481,25726,10.186402797698975,True,,True,1,False,1000,True,1.0
./expes/v2_2020-12-06_dh_200-prng-1,30_issda_200,200,rng-200,31,rng,num-start-151,151,25726,3.893465042114258,True,,True,1,False,1000,True,1.0
./expes/v2_2020-12-06_dh_200-prng-1,30_issda_200,200,rng-200,41,rng,num-start-41,41,25726,1003.9969596862793,False,,False,0,True,1000,True,0.0
./expes/v2_2020-12-06_dh_200-prng-1,30_issda_200,200,rng-200,121,rng,num-start-331,331,25726,7.770417928695679,True,,True,1,False,1000,True,1.0
./expes/v2_2020-12-06_dh_200-prng-1,30_issda_200,200,rng-200,71,rng,num-start-401,401,25726,10.051851511001587,True,,True,1,False,1000,True,1.0
./expes/v2_2020-12-06_dh_200-prng-1,30_issda_200,200,rng-200,71,rng,num-start-471,471,25726,11.146339654922485,True,,True,1,False,1000,True,1.0
./expes/v2_2020-12-06_dh_200-prng-1,30_issda_200,200,rng-200,11,rng,num-start-61,61,25726,1.4502265453338623,True,,True,1,False,1000,True,1.0
./expes/v2_2020-12-06_dh_200-prng-1,30_issda_200,200,rng-200,61,rng,num-start-131,131,25726,3.5024619102478027,True,,True,1,False,1000,True,1.0
./expes/v2_2020-12-06_dh_200-prng-1,30_issda_200,200,rng-200,1,rng,num-start-61,61,25726,1.291419506072998,True,,True,1,False,1000,True,1.0
./expes/v2_2020-12-06_dh_200-prng-1,30_issda_200,200,rng-200,21,rng,num-start-571,571,25726,18.749865293502808,True,,True,1,False,1000,True,1.0
./expes/v2_2020-12-06_dh_200-prng-1,30_issda_200,200,rng-200,1,rng,num-start-281,281,25726,6.231185436248779,True,,True,1,False,1000,True,1.0
./expes/v2_2020-12-06_dh_200-prng-1,30_issda_200,200,rng-200,131,rng,num-start-271,271,25726,6.722156763076782,True,,True,1,False,1000,True,1.0
./expes/v2_2020-12-06_dh_200-prng-1,30_issda_200,200,rng-200,181,rng,num-start-371,371,25726,8.395725727081299,True,,True,1,False,1000,True,1.0
./expes/v2_2020-12-06_dh_200-prng-1,30_issda_200,200,rng-200,71,rng,num-start-791,791,25726,21.850873947143555,True,,True,1,False,1000,True,1.0
./expes/v2_2020-12-06_dh_200-prng-1,30_issda_200,200,rng-200,151,rng,num-start-401,401,25726,11.63738203048706,True,,True,1,False,1000,True,1.0
./expes/v2_2020-12-06_dh_200-prng-1,30_issda_200,200,rng-200,1,rng,num-start-811,811,25726,29.220412015914917,True,,True,1,False,1000,True,1.0
./expes/v2_2020-12-06_dh_200-prng-1,30_issda_200,200,rng-200,91,rng,num-start-711,711,25726,30.02119779586792,True,,True,1,False,1000,True,1.0
./expes/v2_2020-12-06_dh_200-prng-1,30_issda_200,200,rng-200,21,rng,num-start-101,101,25726,4.622864246368408,True,,True,1,False,1000,True,1.0
./expes/v2_2020-12-06_dh_200-prng-1,30_issda_200,200,rng-200,61,rng,num-start-1,1,25726,7.508014440536499,False,,False,2,False,1000,True,1.0
./expes/v2_2020-12-06_dh_200-prng-1,30_issda_200,200,rng-200,61,rng,num-start-741,741,25726,42.52084732055664,True,,True,1,False,1000,True,1.0
./expes/v2_2020-12-06_dh_200-prng-1,30_issda_200,200,rng-200,21,rng,num-start-741,741,25726,31.78533959388733,True,,True,1,False,1000,True,1.0
./expes/v2_2020-12-06_dh_200-prng-1,30_issda_200,200,rng-200,131,rng,num-start-401,401,25726,18.150684118270874,True,,True,1,False,1000,True,1.0
./expes/v2_2020-12-06_dh_200-prng-1,30_issda_200,200,rng-200,121,rng,num-start-281,281,25726,6.518108367919922,True,,True,1,False,1000,True,1.0
./expes/v2_2020-12-06_dh_200-prng-1,30_issda_200,200,rng-200,21,rng,num-start-731,731,25726,24.99467372894287,True,,True,1,False,1000,True,1.0
./expes/v2_2020-12-06_dh_200-prng-1,30_issda_200,200,rng-200,31,rng,num-start-951,951,25726,23.326921701431274,True,,True,1,False,1000,True,1.0
./expes/v2_2020-12-06_dh_200-prng-1,30_issda_200,200,rng-200,31,rng,num-start-301,301,25726,8.622885942459106,True,,True,1,False,1000,True,1.0
./expes/v2_2020-12-06_dh_200-prng-1,30_issda_200,200,rng-200,121,rng,num-start-61,61,25726,236.8213472366333,True,,True,1,False,1000,True,1.0
./expes/v2_2020-12-06_dh_200-prng-1,30_issda_200,200,rng-200,21,rng,num-start-511,511,25726,11.366775751113892,True,,True,1,False,1000,True,1.0
./expes/v2_2020-12-06_dh_200-prng-1,30_issda_200,200,rng-200,181,rng,num-start-561,561,25726,27.73942804336548,True,,True,1,False,1000,True,1.0
./expes/v2_2020-12-06_dh_200-prng-1,30_issda_200,200,rng-200,151,rng,num-start-101,101,25726,2.5877082347869873,True,,True,1,False,1000,True,1.0
./expes/v2_2020-12-06_dh_200-prng-1,30_issda_200,200,rng-200,111,rng,num-start-851,851,25726,21.598734378814697,True,,True,1,False,1000,True,1.0
./expes/v2_2020-12-06_dh_200-prng-1,30_issda_200,200,rng-200,91,rng,num-start-721,721,25726,17.234458446502686,True,,True,1,False,1000,True,1.0
./expes/v2_2020-12-06_dh_200-prng-1,30_issda_200,200,rng-200,81,rng,num-start-891,891,25726,29.002055168151855,True,,True,1,False,1000,True,1.0
./expes/v2_2020-12-06_dh_200-prng-1,30_issda_200,200,rng-200,51,rng,num-start-611,611,25726,20.36125349998474,True,,True,1,False,1000,True,1.0
./expes/v2_2020-12-06_dh_200-prng-1,30_issda_200,200,rng-200,131,rng,num-start-351,351,25726,12.461685419082642,True,,True,1,False,1000,True,1.0
./expes/v2_2020-12-06_dh_200-prng-1,30_issda_200,200,rng-200,91,rng,num-start-271,271,25726,12.915838241577148,True,,True,1,False,1000,True,1.0
./expes/v2_2020-12-06_dh_200-prng-1,30_issda_200,200,rng-200,181,rng,num-start-981,981,25726,35.77628755569458,True,,True,1,False,1000,True,1.0
./expes/v2_2020-12-06_dh_200-prng-1,30_issda_200,200,rng-200,51,rng,num-start-381,381,25726,31.335975408554077,True,,True,1,False,1000,True,1.0
./expes/v2_2020-12-06_dh_200-prng-1,30_issda_200,200,rng-200,171,rng,num-start-51,51,25726,12.621234655380249,True,,True,1,False,1000,True,1.0
./expes/v2_2020-12-06_dh_200-prng-1,30_issda_200,200,rng-200,111,rng,num-start-241,241,25726,9.491365432739258,True,,True,1,False,1000,True,1.0
./expes/v2_2020-12-06_dh_200-prng-1,30_issda_200,200,rng-200,21,rng,num-start-291,291,25726,8.987596273422241,True,,True,1,False,1000,True,1.0
./expes/v2_2020-12-06_dh_200-prng-1,30_issda_200,200,rng-200,71,rng,num-start-331,331,25726,10.785362958908081,True,,True,1,False,1000,True,1.0
./expes/v2_2020-12-06_dh_200-prng-1,30_issda_200,200,rng-200,141,rng,num-start-201,201,25726,6.949698209762573,True,,True,1,False,1000,True,1.0
./expes/v2_2020-12-06_dh_200-prng-1,30_issda_200,200,rng-200,11,rng,num-start-411,411,25726,12.559301853179932,True,,True,1,False,1000,True,1.0
./expes/v2_2020-12-06_dh_200-prng-1,30_issda_200,200,rng-200,131,rng,num-start-311,311,25726,14.65696406364441,True,,True,1,False,1000,True,1.0
./expes/v2_2020-12-06_dh_200-prng-1,30_issda_200,200,rng-200,71,rng,num-start-791,791,25726,31.076526403427124,True,,True,1,False,1000,True,1.0
./expes/v2_2020-12-06_dh_200-prng-1,30_issda_200,200,rng-200,1,rng,num-start-121,121,25726,4.527738809585571,True,,True,1,False,1000,True,1.0
./expes/v2_2020-12-06_dh_200-prng-1,30_issda_200,200,rng-200,131,rng,num-start-271,271,25726,20.63668918609619,True,,True,1,False,1000,True,1.0
./expes/v2_2020-12-06_dh_200-prng-1,30_issda_200,200,rng-200,191,rng,num-start-841,841,25726,49.7245454788208,True,,True,1,False,1000,True,1.0
./expes/v2_2020-12-06_dh_200-prng-1,30_issda_200,200,rng-200,141,rng,num-start-841,841,25726,25.723679542541504,True,,True,1,False,1000,True,1.0
./expes/v2_2020-12-06_dh_200-prng-1,30_issda_200,200,rng-200,51,rng,num-start-441,441,25726,11.182903528213501,True,,True,1,False,1000,True,1.0
./expes/v2_2020-12-06_dh_200-prng-1,30_issda_200,200,rng-200,101,rng,num-start-921,921,25726,21.954782485961914,True,,True,1,False,1000,True,1.0
./expes/v2_2020-12-06_dh_200-prng-1,30_issda_200,200,rng-200,131,rng,num-start-491,491,25726,12.492515802383423,True,,True,1,False,1000,True,1.0
./expes/v2_2020-12-06_dh_200-prng-1,30_issda_200,200,rng-200,161,rng,num-start-861,861,25726,20.02886390686035,True,,True,1,False,1000,True,1.0
./expes/v2_2020-12-06_dh_200-prng-1,30_issda_200,200,rng-200,1,rng,num-start-91,91,25726,1.9912269115447998,True,,True,1,False,1000,True,1.0
./expes/v2_2020-12-06_dh_200-prng-1,30_issda_200,200,rng-200,41,rng,num-start-831,831,25726,19.11107635498047,True,,True,1,False,1000,True,1.0
./expes/v2_2020-12-06_dh_200-prng-1,30_issda_200,200,rng-200,11,rng,num-start-601,601,25726,12.577420473098755,True,,True,1,False,1000,True,1.0
./expes/v2_2020-12-06_dh_200-prng-1,30_issda_200,200,rng-200,41,rng,num-start-841,841,25726,20.034486770629883,True,,True,1,False,1000,True,1.0
./expes/v2_2020-12-06_dh_200-prng-1,30_issda_200,200,rng-200,141,rng,num-start-591,591,25726,19.554749250411987,True,,True,1,False,1000,True,1.0
./expes/v2_2020-12-06_dh_200-prng-1,30_issda_200,200,rng-200,81,rng,num-start-781,781,25726,31.389467000961304,True,,True,1,False,1000,True,1.0
./expes/v2_2020-12-06_dh_200-prng-1,30_issda_200,200,rng-200,51,rng,num-start-191,191,25726,6.188148498535156,True,,True,1,False,1000,True,1.0
./expes/v2_2020-12-06_dh_200-prng-1,30_issda_200,200,rng-200,141,rng,num-start-371,371,25726,10.932497024536133,True,,True,1,False,1000,True,1.0
./expes/v2_2020-12-06_dh_200-prng-1,30_issda_200,200,rng-200,141,rng,num-start-751,751,25726,17.30324101448059,True,,True,1,False,1000,True,1.0
./expes/v2_2020-12-06_dh_200-prng-1,30_issda_200,200,rng-200,81,rng,num-start-111,111,25726,13.429454326629639,True,,True,1,False,1000,True,1.0
./expes/v2_2020-12-06_dh_200-prng-1,30_issda_200,200,rng-200,41,rng,num-start-971,971,25726,24.10519576072693,True,,True,1,False,1000,True,1.0
./expes/v2_2020-12-06_dh_200-prng-1,30_issda_200,200,rng-200,161,rng,num-start-791,791,25726,24.984835147857666,True,,True,1,False,1000,True,1.0
./expes/v2_2020-12-06_dh_200-prng-1,30_issda_200,200,rng-200,41,rng,num-start-261,261,25726,6.658126354217529,True,,True,1,False,1000,True,1.0
./expes/v2_2020-12-06_dh_200-prng-1,30_issda_200,200,rng-200,81,rng,num-start-801,801,25726,19.316165447235107,True,,True,1,False,1000,True,1.0
./expes/v2_2020-12-06_dh_200-prng-1,30_issda_200,200,rng-200,121,rng,num-start-691,691,25726,17.226205825805664,True,,True,1,False,1000,True,1.0
./expes/v2_2020-12-06_dh_200-prng-1,30_issda_200,200,rng-200,161,rng,num-start-391,391,25726,13.772908926010132,True,,True,1,False,1000,True,1.0
./expes/v2_2020-12-06_dh_200-prng-1,30_issda_200,200,rng-200,11,rng,num-start-491,491,25726,12.314307928085327,True,,True,1,False,1000,True,1.0
./expes/v2_2020-12-06_dh_200-prng-1,30_issda_200,200,rng-200,41,rng,num-start-441,441,25726,10.685466051101685,True,,True,1,False,1000,True,1.0
./expes/v2_2020-12-06_dh_200-prng-1,30_issda_200,200,rng-200,21,rng,num-start-351,351,25726,9.64612889289856,True,,True,1,False,1000,True,1.0
./expes/v2_2020-12-06_dh_200-prng-1,30_issda_200,200,rng-200,141,rng,num-start-41,41,25726,1001.9941992759705,False,,False,0,True,1000,True,0.0
./expes/v2_2020-12-06_dh_200-prng-1,30_issda_200,200,rng-200,111,rng,num-start-951,951,25726,23.04637360572815,True,,True,1,False,1000,True,1.0
./expes/v2_2020-12-06_dh_200-prng-1,30_issda_200,200,rng-200,71,rng,num-start-41,41,25726,1001.0739033222198,False,,False,0,True,1000,True,0.0
./expes/v2_2020-12-06_dh_200-prng-1,30_issda_200,200,rng-200,1,rng,num-start-601,601,25726,13.017944812774658,True,,True,1,False,1000,True,1.0
./expes/v2_2020-12-06_dh_200-prng-1,30_issda_200,200,rng-200,181,rng,num-start-561,561,25726,17.936327934265137,True,,True,1,False,1000,True,1.0
./expes/v2_2020-12-06_dh_200-prng-1,30_issda_200,200,rng-200,1,rng,num-start-451,451,25726,11.312530517578125,True,,True,1,False,1000,True,1.0
./expes/v2_2020-12-06_dh_200-prng-1,30_issda_200,200,rng-200,81,rng,num-start-431,431,25726,10.778748273849487,True,,True,1,False,1000,True,1.0
./expes/v2_2020-12-06_dh_200-prng-1,30_issda_200,200,rng-200,31,rng,num-start-881,881,25726,32.84477710723877,True,,True,1,False,1000,True,1.0
./expes/v2_2020-12-06_dh_200-prng-1,30_issda_200,200,rng-200,81,rng,num-start-241,241,25726,7.6981894969940186,True,,True,1,False,1000,True,1.0
./expes/v2_2020-12-06_dh_200-prng-1,30_issda_200,200,rng-200,181,rng,num-start-391,391,25726,13.624094724655151,True,,True,1,False,1000,True,1.0
./expes/v2_2020-12-06_dh_200-prng-1,30_issda_200,200,rng-200,91,rng,num-start-691,691,25726,28.028745651245117,True,,True,1,False,1000,True,1.0
./expes/v2_2020-12-06_dh_200-prng-1,30_issda_200,200,rng-200,31,rng,num-start-691,691,25726,47.4793484210968,True,,True,1,False,1000,True,1.0
./expes/v2_2020-12-06_dh_200-prng-1,30_issda_200,200,rng-200,161,rng,num-start-81,81,25726,3.223797082901001,True,,True,1,False,1000,True,1.0
./expes/v2_2020-12-06_dh_200-prng-1,30_issda_200,200,rng-200,191,rng,num-start-231,231,25726,5.456822395324707,True,,True,1,False,1000,True,1.0
./expes/v2_2020-12-06_dh_200-prng-1,30_issda_200,200,rng-200,101,rng,num-start-891,891,25726,32.69590163230896,True,,True,1,False,1000,True,1.0
./expes/v2_2020-12-06_dh_200-prng-1,30_issda_200,200,rng-200,81,rng,num-start-211,211,25726,5.081523656845093,True,,True,1,False,1000,True,1.0
./expes/v2_2020-12-06_dh_200-prng-1,30_issda_200,200,rng-200,41,rng,num-start-301,301,25726,7.921693325042725,True,,True,1,False,1000,True,1.0
./expes/v2_2020-12-06_dh_200-prng-1,30_issda_200,200,rng-200,91,rng,num-start-971,971,25726,30.373497247695923,True,,True,1,False,1000,True,1.0
./expes/v2_2020-12-06_dh_200-prng-1,30_issda_200,200,rng-200,181,rng,num-start-851,851,25726,19.565369367599487,True,,True,1,False,1000,True,1.0
./expes/v2_2020-12-06_dh_200-prng-1,30_issda_200,200,rng-200,1,rng,num-start-771,771,25726,15.740168809890747,True,,True,1,False,1000,True,1.0
./expes/v2_2020-12-06_dh_200-prng-1,30_issda_200,200,rng-200,91,rng,num-start-181,181,25726,4.699625730514526,True,,True,1,False,1000,True,1.0
./expes/v2_2020-12-06_dh_200-prng-1,30_issda_200,200,rng-200,71,rng,num-start-171,171,25726,5.087557792663574,True,,True,1,False,1000,True,1.0
./expes/v2_2020-12-06_dh_200-prng-1,30_issda_200,200,rng-200,61,rng,num-start-981,981,25726,26.001169443130493,True,,True,1,False,1000,True,1.0
./expes/v2_2020-12-06_dh_200-prng-1,30_issda_200,200,rng-200,191,rng,num-start-711,711,25726,14.682677507400513,True,,True,1,False,1000,True,1.0
./expes/v2_2020-12-06_dh_200-prng-1,30_issda_200,200,rng-200,151,rng,num-start-701,701,25726,32.62849450111389,True,,True,1,False,1000,True,1.0
./expes/v2_2020-12-06_dh_200-prng-1,30_issda_200,200,rng-200,51,rng,num-start-101,101,25726,2.368305206298828,True,,True,1,False,1000,True,1.0
./expes/v2_2020-12-06_dh_200-prng-1,30_issda_200,200,rng-200,151,rng,num-start-101,101,25726,3.1968865394592285,True,,True,1,False,1000,True,1.0
./expes/v2_2020-12-06_dh_200-prng-1,30_issda_200,200,rng-200,131,rng,num-start-221,221,25726,28.14768123626709,True,,True,1,False,1000,True,1.0
./expes/v2_2020-12-06_dh_200-prng-1,30_issda_200,200,rng-200,181,rng,num-start-461,461,25726,11.731014490127563,True,,True,1,False,1000,True,1.0
./expes/v2_2020-12-06_dh_200-prng-1,30_issda_200,200,rng-200,81,rng,num-start-281,281,25726,7.5909130573272705,True,,True,1,False,1000,True,1.0
./expes/v2_2020-12-06_dh_200-prng-1,30_issda_200,200,rng-200,71,rng,num-start-31,31,25726,1007.2746260166168,False,,False,0,True,1000,True,0.0
./expes/v2_2020-12-06_dh_200-prng-1,30_issda_200,200,rng-200,181,rng,num-start-61,61,25726,2.9207849502563477,True,,True,1,False,1000,True,1.0
./expes/v2_2020-12-06_dh_200-prng-1,30_issda_200,200,rng-200,151,rng,num-start-491,491,25726,26.154505252838135,True,,True,1,False,1000,True,1.0
./expes/v2_2020-12-06_dh_200-prng-1,30_issda_200,200,rng-200,171,rng,num-start-761,761,25726,18.12684202194214,True,,True,1,False,1000,True,1.0
./expes/v2_2020-12-06_dh_200-prng-1,30_issda_200,200,rng-200,31,rng,num-start-311,311,25726,7.857285261154175,True,,True,1,False,1000,True,1.0
./expes/v2_2020-12-06_dh_200-prng-1,30_issda_200,200,rng-200,51,rng,num-start-601,601,25726,14.638319969177246,True,,True,1,False,1000,True,1.0
./expes/v2_2020-12-06_dh_200-prng-1,30_issda_200,200,rng-200,21,rng,num-start-821,821,25726,19.160871028900146,True,,True,1,False,1000,True,1.0
./expes/v2_2020-12-06_dh_200-prng-1,30_issda_200,200,rng-200,61,rng,num-start-771,771,25726,19.16072964668274,True,,True,1,False,1000,True,1.0
./expes/v2_2020-12-06_dh_200-prng-1,30_issda_200,200,rng-200,1,rng,num-start-751,751,25726,16.30858612060547,True,,True,1,False,1000,True,1.0
./expes/v2_2020-12-06_dh_200-prng-1,30_issda_200,200,rng-200,191,rng,num-start-291,291,25726,7.724725008010864,True,,True,1,False,1000,True,1.0
./expes/v2_2020-12-06_dh_200-prng-1,30_issda_200,200,rng-200,181,rng,num-start-751,751,25726,17.348344326019287,True,,True,1,False,1000,True,1.0
./expes/v2_2020-12-06_dh_200-prng-1,30_issda_200,200,rng-200,31,rng,num-start-841,841,25726,22.33739399909973,True,,True,1,False,1000,True,1.0
./expes/v2_2020-12-06_dh_200-prng-1,30_issda_200,200,rng-200,141,rng,num-start-261,261,25726,7.074726104736328,True,,True,1,False,1000,True,1.0
./expes/v2_2020-12-06_dh_200-prng-1,30_issda_200,200,rng-200,191,rng,num-start-681,681,25726,41.37370419502258,True,,True,1,False,1000,True,1.0
./expes/v2_2020-12-06_dh_200-prng-1,30_issda_200,200,rng-200,31,rng,num-start-701,701,25726,21.074537992477417,True,,True,1,False,1000,True,1.0
./expes/v2_2020-12-06_dh_200-prng-1,30_issda_200,200,rng-200,151,rng,num-start-591,591,25726,16.68833017349243,True,,True,1,False,1000,True,1.0
./expes/v2_2020-12-06_dh_200-prng-1,30_issda_200,200,rng-200,61,rng,num-start-601,601,25726,14.537134885787964,True,,True,1,False,1000,True,1.0
./expes/v2_2020-12-06_dh_200-prng-1,30_issda_200,200,rng-200,51,rng,num-start-661,661,25726,17.359593629837036,True,,True,1,False,1000,True,1.0
./expes/v2_2020-12-06_dh_200-prng-1,30_issda_200,200,rng-200,161,rng,num-start-931,931,25726,25.71752095222473,True,,True,1,False,1000,True,1.0
./expes/v2_2020-12-06_dh_200-prng-1,30_issda_200,200,rng-200,41,rng,num-start-761,761,25726,17.943086624145508,True,,True,1,False,1000,True,1.0
./expes/v2_2020-12-06_dh_200-prng-1,30_issda_200,200,rng-200,181,rng,num-start-351,351,25726,8.181370258331299,True,,True,1,False,1000,True,1.0
./expes/v2_2020-12-06_dh_200-prng-1,30_issda_200,200,rng-200,121,rng,num-start-531,531,25726,12.743051290512085,True,,True,1,False,1000,True,1.0
./expes/v2_2020-12-06_dh_200-prng-1,30_issda_200,200,rng-200,181,rng,num-start-301,301,25726,7.0695459842681885,True,,True,1,False,1000,True,1.0
./expes/v2_2020-12-06_dh_200-prng-1,30_issda_200,200,rng-200,1,rng,num-start-891,891,25726,19.232749938964844,True,,True,1,False,1000,True,1.0
./expes/v2_2020-12-06_dh_200-prng-1,30_issda_200,200,rng-200,191,rng,num-start-381,381,25726,8.873228073120117,True,,True,1,False,1000,True,1.0
./expes/v2_2020-12-06_dh_200-prng-1,30_issda_200,200,rng-200,161,rng,num-start-361,361,25726,9.643561124801636,True,,True,1,False,1000,True,1.0
./expes/v2_2020-12-06_dh_200-prng-1,30_issda_200,200,rng-200,81,rng,num-start-231,231,25726,5.581068277359009,True,,True,1,False,1000,True,1.0
./expes/v2_2020-12-06_dh_200-prng-1,30_issda_200,200,rng-200,21,rng,num-start-471,471,25726,23.47582244873047,True,,True,1,False,1000,True,1.0
./expes/v2_2020-12-06_dh_200-prng-1,30_issda_200,200,rng-200,71,rng,num-start-581,581,25726,13.246845006942749,True,,True,1,False,1000,True,1.0
./expes/v2_2020-12-06_dh_200-prng-1,30_issda_200,200,rng-200,51,rng,num-start-691,691,25726,16.019068956375122,True,,True,1,False,1000,True,1.0
./expes/v2_2020-12-06_dh_200-prng-1,30_issda_200,200,rng-200,171,rng,num-start-231,231,25726,5.2945921421051025,True,,True,1,False,1000,True,1.0
./expes/v2_2020-12-06_dh_200-prng-1,30_issda_200,200,rng-200,151,rng,num-start-841,841,25726,19.482606172561646,True,,True,1,False,1000,True,1.0
./expes/v2_2020-12-06_dh_200-prng-1,30_issda_200,200,rng-200,191,rng,num-start-101,101,25726,2.610163450241089,True,,True,1,False,1000,True,1.0
./expes/v2_2020-12-06_dh_200-prng-1,30_issda_200,200,rng-200,11,rng,num-start-711,711,25726,17.407901525497437,True,,True,1,False,1000,True,1.0
./expes/v2_2020-12-06_dh_200-prng-1,30_issda_200,200,rng-200,51,rng,num-start-651,651,25726,22.324127912521362,True,,True,1,False,1000,True,1.0
./expes/v2_2020-12-06_dh_200-prng-1,30_issda_200,200,rng-200,161,rng,num-start-781,781,25726,18.656775951385498,True,,True,1,False,1000,True,1.0
./expes/v2_2020-12-06_dh_200-prng-1,30_issda_200,200,rng-200,101,rng,num-start-841,841,25726,20.680259227752686,True,,True,1,False,1000,True,1.0
./expes/v2_2020-12-06_dh_200-prng-1,30_issda_200,200,rng-200,81,rng,num-start-471,471,25726,11.479265451431274,True,,True,1,False,1000,True,1.0
./expes/v2_2020-12-06_dh_200-prng-1,30_issda_200,200,rng-200,131,rng,num-start-781,781,25726,19.33004403114319,True,,True,1,False,1000,True,1.0
./expes/v2_2020-12-06_dh_200-prng-1,30_issda_200,200,rng-200,21,rng,num-start-211,211,25726,5.302358388900757,True,,True,1,False,1000,True,1.0
./expes/v2_2020-12-06_dh_200-prng-1,30_issda_200,200,rng-200,111,rng,num-start-61,61,25726,802.2510640621185,True,,True,1,False,1000,True,1.0
./expes/v2_2020-12-06_dh_200-prng-1,30_issda_200,200,rng-200,171,rng,num-start-751,751,25726,18.090744018554688,True,,True,1,False,1000,True,1.0
./expes/v2_2020-12-06_dh_200-prng-1,30_issda_200,200,rng-200,131,rng,num-start-821,821,25726,20.202468156814575,True,,True,1,False,1000,True,1.0
./expes/v2_2020-12-06_dh_200-prng-1,30_issda_200,200,rng-200,181,rng,num-start-781,781,25726,23.190991401672363,True,,True,1,False,1000,True,1.0
./expes/v2_2020-12-06_dh_200-prng-1,30_issda_200,200,rng-200,191,rng,num-start-631,631,25726,20.626301288604736,True,,True,1,False,1000,True,1.0
./expes/v2_2020-12-06_dh_200-prng-1,30_issda_200,200,rng-200,21,rng,num-start-301,301,25726,7.344818115234375,True,,True,1,False,1000,True,1.0
./expes/v2_2020-12-06_dh_200-prng-1,30_issda_200,200,rng-200,181,rng,num-start-91,91,25726,2.1998040676116943,True,,True,1,False,1000,True,1.0
./expes/v2_2020-12-06_dh_200-prng-1,30_issda_200,200,rng-200,111,rng,num-start-351,351,25726,14.05272102355957,True,,True,1,False,1000,True,1.0
./expes/v2_2020-12-06_dh_200-prng-1,30_issda_200,200,rng-200,161,rng,num-start-541,541,25726,12.831393957138062,True,,True,1,False,1000,True,1.0
./expes/v2_2020-12-06_dh_200-prng-1,30_issda_200,200,rng-200,161,rng,num-start-941,941,25726,22.675670623779297,True,,True,1,False,1000,True,1.0
./expes/v2_2020-12-06_dh_200-prng-1,30_issda_200,200,rng-200,71,rng,num-start-531,531,25726,12.807172060012817,True,,True,1,False,1000,True,1.0
./expes/v2_2020-12-06_dh_200-prng-1,30_issda_200,200,rng-200,101,rng,num-start-441,441,25726,14.509117603302002,True,,True,1,False,1000,True,1.0
./expes/v2_2020-12-06_dh_200-prng-1,30_issda_200,200,rng-200,101,rng,num-start-501,501,25726,13.35560131072998,True,,True,1,False,1000,True,1.0
./expes/v2_2020-12-06_dh_200-prng-1,30_issda_200,200,rng-200,171,rng,num-start-971,971,25726,22.332853078842163,True,,True,1,False,1000,True,1.0
./expes/v2_2020-12-06_dh_200-prng-1,30_issda_200,200,rng-200,181,rng,num-start-571,571,25726,13.595349550247192,True,,True,1,False,1000,True,1.0
./expes/v2_2020-12-06_dh_200-prng-1,30_issda_200,200,rng-200,181,rng,num-start-241,241,25726,23.42859387397766,True,,True,1,False,1000,True,1.0
./expes/v2_2020-12-06_dh_200-prng-1,30_issda_200,200,rng-200,141,rng,num-start-911,911,25726,21.241609573364258,True,,True,1,False,1000,True,1.0
./expes/v2_2020-12-06_dh_200-prng-1,30_issda_200,200,rng-200,161,rng,num-start-121,121,25726,12.4276762008667,True,,True,1,False,1000,True,1.0
./expes/v2_2020-12-06_dh_200-prng-1,30_issda_200,200,rng-200,51,rng,num-start-281,281,25726,8.774202585220337,True,,True,1,False,1000,True,1.0
./expes/v2_2020-12-06_dh_200-prng-1,30_issda_200,200,rng-200,141,rng,num-start-621,621,25726,13.438645839691162,True,,True,1,False,1000,True,1.0
./expes/v2_2020-12-06_dh_200-prng-1,30_issda_200,200,rng-200,41,rng,num-start-571,571,25726,14.171990394592285,True,,True,1,False,1000,True,1.0
./expes/v2_2020-12-06_dh_200-prng-1,30_issda_200,200,rng-200,91,rng,num-start-371,371,25726,9.196948528289795,True,,True,1,False,1000,True,1.0
./expes/v2_2020-12-06_dh_200-prng-1,30_issda_200,200,rng-200,31,rng,num-start-311,311,25726,7.995046854019165,True,,True,1,False,1000,True,1.0
./expes/v2_2020-12-06_dh_200-prng-1,30_issda_200,200,rng-200,81,rng,num-start-351,351,25726,8.74696159362793,True,,True,1,False,1000,True,1.0
./expes/v2_2020-12-06_dh_200-prng-1,30_issda_200,200,rng-200,181,rng,num-start-191,191,25726,4.738624572753906,True,,True,1,False,1000,True,1.0
./expes/v2_2020-12-06_dh_200-prng-1,30_issda_200,200,rng-200,21,rng,num-start-291,291,25726,19.001231908798218,True,,True,1,False,1000,True,1.0
./expes/v2_2020-12-06_dh_200-prng-1,30_issda_200,200,rng-200,171,rng,num-start-451,451,25726,10.774750232696533,True,,True,1,False,1000,True,1.0
./expes/v2_2020-12-06_dh_200-prng-1,30_issda_200,200,rng-200,1,rng,num-start-351,351,25726,7.586056470870972,True,,True,1,False,1000,True,1.0
./expes/v2_2020-12-06_dh_200-prng-1,30_issda_200,200,rng-200,11,rng,num-start-941,941,25726,20.042949438095093,True,,True,1,False,1000,True,1.0
./expes/v2_2020-12-06_dh_200-prng-1,30_issda_200,200,rng-200,1,rng,num-start-961,961,25726,20.33918046951294,True,,True,1,False,1000,True,1.0
./expes/v2_2020-12-06_dh_200-prng-1,30_issda_200,200,rng-200,171,rng,num-start-1,1,25726,0.07124543190002441,False,,False,2,False,1000,True,1.0
./expes/v2_2020-12-06_dh_200-prng-1,30_issda_200,200,rng-200,21,rng,num-start-601,601,25726,13.923203945159912,True,,True,1,False,1000,True,1.0
./expes/v2_2020-12-06_dh_200-prng-1,30_issda_200,200,rng-200,161,rng,num-start-871,871,25726,20.394196271896362,True,,True,1,False,1000,True,1.0
./expes/v2_2020-12-06_dh_200-prng-1,30_issda_200,200,rng-200,101,rng,num-start-171,171,25726,4.2653257846832275,True,,True,1,False,1000,True,1.0
./expes/v2_2020-12-06_dh_200-prng-1,30_issda_200,200,rng-200,191,rng,num-start-101,101,25726,2.4897303581237793,True,,True,1,False,1000,True,1.0
./expes/v2_2020-12-06_dh_200-prng-1,30_issda_200,200,rng-200,191,rng,num-start-891,891,25726,18.73643732070923,True,,True,1,False,1000,True,1.0
./expes/v2_2020-12-06_dh_200-prng-1,30_issda_200,200,rng-200,51,rng,num-start-751,751,25726,17.588085174560547,True,,True,1,False,1000,True,1.0
./expes/v2_2020-12-06_dh_200-prng-1,30_issda_200,200,rng-200,131,rng,num-start-451,451,25726,10.95487093925476,True,,True,1,False,1000,True,1.0
./expes/v2_2020-12-06_dh_200-prng-1,30_issda_200,200,rng-200,161,rng,num-start-491,491,25726,11.073467016220093,True,,True,1,False,1000,True,1.0
./expes/v2_2020-12-06_dh_200-prng-1,30_issda_200,200,rng-200,181,rng,num-start-21,21,25726,1005.6746451854706,False,,False,0,True,1000,True,0.0
./expes/v2_2020-12-06_dh_200-prng-1,30_issda_200,200,rng-200,31,rng,num-start-751,751,25726,17.84226131439209,True,,True,1,False,1000,True,1.0
./expes/v2_2020-12-06_dh_200-prng-1,30_issda_200,200,rng-200,131,rng,num-start-671,671,25726,16.351330518722534,True,,True,1,False,1000,True,1.0
./expes/v2_2020-12-06_dh_200-prng-1,30_issda_200,200,rng-200,141,rng,num-start-191,191,25726,12.620592594146729,True,,True,1,False,1000,True,1.0
./expes/v2_2020-12-06_dh_200-prng-1,30_issda_200,200,rng-200,31,rng,num-start-901,901,25726,29.496460676193237,True,,True,1,False,1000,True,1.0
./expes/v2_2020-12-06_dh_200-prng-1,30_issda_200,200,rng-200,71,rng,num-start-921,921,25726,29.81807827949524,True,,True,1,False,1000,True,1.0
./expes/v2_2020-12-06_dh_200-prng-1,30_issda_200,200,rng-200,71,rng,num-start-981,981,25726,36.08192586898804,True,,True,1,False,1000,True,1.0
./expes/v2_2020-12-06_dh_200-prng-1,30_issda_200,200,rng-200,61,rng,num-start-691,691,25726,28.86028504371643,True,,True,1,False,1000,True,1.0
./expes/v2_2020-12-06_dh_200-prng-1,30_issda_200,200,rng-200,141,rng,num-start-641,641,25726,27.909976482391357,True,,True,1,False,1000,True,1.0
./expes/v2_2020-12-06_dh_200-prng-1,30_issda_200,200,rng-200,101,rng,num-start-741,741,25726,22.416123628616333,True,,True,1,False,1000,True,1.0
./expes/v2_2020-12-06_dh_200-prng-1,30_issda_200,200,rng-200,151,rng,num-start-301,301,25726,12.54747986793518,True,,True,1,False,1000,True,1.0
./expes/v2_2020-12-06_dh_200-prng-1,30_issda_200,200,rng-200,91,rng,num-start-451,451,25726,10.822761535644531,True,,True,1,False,1000,True,1.0
./expes/v2_2020-12-06_dh_200-prng-1,30_issda_200,200,rng-200,31,rng,num-start-361,361,25726,9.763626098632812,True,,True,1,False,1000,True,1.0
./expes/v2_2020-12-06_dh_200-prng-1,30_issda_200,200,rng-200,91,rng,num-start-551,551,25726,22.662872076034546,True,,True,1,False,1000,True,1.0
./expes/v2_2020-12-06_dh_200-prng-1,30_issda_200,200,rng-200,131,rng,num-start-621,621,25726,23.96748971939087,True,,True,1,False,1000,True,1.0
./expes/v2_2020-12-06_dh_200-prng-1,30_issda_200,200,rng-200,111,rng,num-start-141,141,25726,4.557253122329712,True,,True,1,False,1000,True,1.0
./expes/v2_2020-12-06_dh_200-prng-1,30_issda_200,200,rng-200,171,rng,num-start-191,191,25726,12.14925217628479,True,,True,1,False,1000,True,1.0
./expes/v2_2020-12-06_dh_200-prng-1,30_issda_200,200,rng-200,91,rng,num-start-51,51,25726,1002.0319700241089,False,,False,0,True,1000,True,0.0
./expes/v2_2020-12-06_dh_200-prng-1,30_issda_200,200,rng-200,171,rng,num-start-91,91,25726,2.236084222793579,True,,True,1,False,1000,True,1.0
./expes/v2_2020-12-06_dh_200-prng-1,30_issda_200,200,rng-200,121,rng,num-start-541,541,25726,14.829298257827759,True,,True,1,False,1000,True,1.0
./expes/v2_2020-12-06_dh_200-prng-1,30_issda_200,200,rng-200,161,rng,num-start-681,681,25726,16.82083559036255,True,,True,1,False,1000,True,1.0
./expes/v2_2020-12-06_dh_200-prng-1,30_issda_200,200,rng-200,191,rng,num-start-901,901,25726,19.132007360458374,True,,True,1,False,1000,True,1.0
./expes/v2_2020-12-06_dh_200-prng-1,30_issda_200,200,rng-200,1,rng,num-start-11,11,25726,4.881271123886108,True,,True,1,False,1000,True,1.0
./expes/v2_2020-12-06_dh_200-prng-1,30_issda_200,200,rng-200,141,rng,num-start-231,231,25726,5.3143839836120605,True,,True,1,False,1000,True,1.0
./expes/v2_2020-12-06_dh_200-prng-1,30_issda_200,200,rng-200,81,rng,num-start-991,991,25726,23.439551830291748,True,,True,1,False,1000,True,1.0
./expes/v2_2020-12-06_dh_200-prng-1,30_issda_200,200,rng-200,141,rng,num-start-391,391,25726,33.24613952636719,True,,True,1,False,1000,True,1.0
./expes/v2_2020-12-06_dh_200-prng-1,30_issda_200,200,rng-200,81,rng,num-start-201,201,25726,18.721490621566772,True,,True,1,False,1000,True,1.0
./expes/v2_2020-12-06_dh_200-prng-1,30_issda_200,200,rng-200,71,rng,num-start-331,331,25726,8.95235276222229,True,,True,1,False,1000,True,1.0
./expes/v2_2020-12-06_dh_200-prng-1,30_issda_200,200,rng-200,81,rng,num-start-281,281,25726,10.623175382614136,True,,True,1,False,1000,True,1.0
./expes/v2_2020-12-06_dh_200-prng-1,30_issda_200,200,rng-200,141,rng,num-start-41,41,25726,1001.1431057453156,False,,False,0,True,1000,True,0.0
./expes/v2_2020-12-06_dh_200-prng-1,30_issda_200,200,rng-200,101,rng,num-start-981,981,25726,34.649237871170044,True,,True,1,False,1000,True,1.0
./expes/v2_2020-12-06_dh_200-prng-1,30_issda_200,200,rng-200,191,rng,num-start-201,201,25726,4.169687986373901,True,,False,2,False,1000,True,1.0
./expes/v2_2020-12-06_dh_200-prng-1,30_issda_200,200,rng-200,191,rng,num-start-341,341,25726,7.5802929401397705,True,,True,1,False,1000,True,1.0
./expes/v2_2020-12-06_dh_200-prng-1,30_issda_200,200,rng-200,111,rng,num-start-981,981,25726,23.865111827850342,True,,True,1,False,1000,True,1.0
./expes/v2_2020-12-06_dh_200-prng-1,30_issda_200,200,rng-200,51,rng,num-start-91,91,25726,4.387171983718872,True,,True,1,False,1000,True,1.0
./expes/v2_2020-12-06_dh_200-prng-1,30_issda_200,200,rng-200,41,rng,num-start-221,221,25726,5.238609075546265,True,,True,1,False,1000,True,1.0
./expes/v2_2020-12-06_dh_200-prng-1,30_issda_200,200,rng-200,121,rng,num-start-131,131,25726,3.6368632316589355,True,,True,1,False,1000,True,1.0
./expes/v2_2020-12-06_dh_200-prng-1,30_issda_200,200,rng-200,151,rng,num-start-261,261,25726,7.08744478225708,True,,True,1,False,1000,True,1.0
./expes/v2_2020-12-06_dh_200-prng-1,30_issda_200,200,rng-200,111,rng,num-start-671,671,25726,25.67867875099182,True,,True,1,False,1000,True,1.0
./expes/v2_2020-12-06_dh_200-prng-1,30_issda_200,200,rng-200,51,rng,num-start-781,781,25726,19.10127091407776,True,,True,1,False,1000,True,1.0
./expes/v2_2020-12-06_dh_200-prng-1,30_issda_200,200,rng-200,41,rng,num-start-241,241,25726,12.686033248901367,True,,True,1,False,1000,True,1.0
./expes/v2_2020-12-06_dh_200-prng-1,30_issda_200,200,rng-200,21,rng,num-start-921,921,25726,24.961623191833496,True,,True,1,False,1000,True,1.0
./expes/v2_2020-12-06_dh_200-prng-1,30_issda_200,200,rng-200,81,rng,num-start-741,741,25726,32.12441420555115,True,,True,1,False,1000,True,1.0
./expes/v2_2020-12-06_dh_200-prng-1,30_issda_200,200,rng-200,51,rng,num-start-351,351,25726,8.653375148773193,True,,True,1,False,1000,True,1.0
./expes/v2_2020-12-06_dh_200-prng-1,30_issda_200,200,rng-200,151,rng,num-start-741,741,25726,20.11351704597473,True,,True,1,False,1000,True,1.0
./expes/v2_2020-12-06_dh_200-prng-1,30_issda_200,200,rng-200,111,rng,num-start-601,601,25726,32.48253154754639,True,,True,1,False,1000,True,1.0
./expes/v2_2020-12-06_dh_200-prng-1,30_issda_200,200,rng-200,71,rng,num-start-831,831,25726,21.615338802337646,True,,True,1,False,1000,True,1.0
./expes/v2_2020-12-06_dh_200-prng-1,30_issda_200,200,rng-200,161,rng,num-start-211,211,25726,5.637528419494629,True,,True,1,False,1000,True,1.0
./expes/v2_2020-12-06_dh_200-prng-1,30_issda_200,200,rng-200,51,rng,num-start-491,491,25726,12.356554746627808,True,,True,1,False,1000,True,1.0
./expes/v2_2020-12-06_dh_200-prng-1,30_issda_200,200,rng-200,11,rng,num-start-441,441,25726,9.485504150390625,True,,True,1,False,1000,True,1.0
./expes/v2_2020-12-06_dh_200-prng-1,30_issda_200,200,rng-200,121,rng,num-start-561,561,25726,13.715466976165771,True,,True,1,False,1000,True,1.0
./expes/v2_2020-12-06_dh_200-prng-1,30_issda_200,200,rng-200,131,rng,num-start-281,281,25726,7.2409632205963135,True,,True,1,False,1000,True,1.0
./expes/v2_2020-12-06_dh_200-prng-1,30_issda_200,200,rng-200,41,rng,num-start-301,301,25726,15.018250226974487,True,,True,1,False,1000,True,1.0
./expes/v2_2020-12-06_dh_200-prng-1,30_issda_200,200,rng-200,41,rng,num-start-861,861,25726,22.42850661277771,True,,True,1,False,1000,True,1.0
./expes/v2_2020-12-06_dh_200-prng-1,30_issda_200,200,rng-200,121,rng,num-start-721,721,25726,17.138821601867676,True,,True,1,False,1000,True,1.0
./expes/v2_2020-12-06_dh_200-prng-1,30_issda_200,200,rng-200,81,rng,num-start-341,341,25726,33.80889081954956,True,,True,1,False,1000,True,1.0
./expes/v2_2020-12-06_dh_200-prng-1,30_issda_200,200,rng-200,171,rng,num-start-1,1,25726,0.18017315864562988,False,,False,2,False,1000,True,1.0
./expes/v2_2020-12-06_dh_200-prng-1,30_issda_200,200,rng-200,161,rng,num-start-151,151,25726,20.319170236587524,True,,True,1,False,1000,True,1.0
./expes/v2_2020-12-06_dh_200-prng-1,30_issda_200,200,rng-200,101,rng,num-start-861,861,25726,21.53991675376892,True,,True,1,False,1000,True,1.0
./expes/v2_2020-12-06_dh_200-prng-1,30_issda_200,200,rng-200,121,rng,num-start-551,551,25726,16.832469701766968,True,,True,1,False,1000,True,1.0
./expes/v2_2020-12-06_dh_200-prng-1,30_issda_200,200,rng-200,101,rng,num-start-901,901,25726,22.17717933654785,True,,True,1,False,1000,True,1.0
./expes/v2_2020-12-06_dh_200-prng-1,30_issda_200,200,rng-200,131,rng,num-start-911,911,25726,20.733635425567627,True,,True,1,False,1000,True,1.0
./expes/v2_2020-12-06_dh_200-prng-1,30_issda_200,200,rng-200,161,rng,num-start-721,721,25726,18.709020137786865,True,,True,1,False,1000,True,1.0
./expes/v2_2020-12-06_dh_200-prng-1,30_issda_200,200,rng-200,191,rng,num-start-431,431,25726,11.268073797225952,True,,True,1,False,1000,True,1.0
./expes/v2_2020-12-06_dh_200-prng-1,30_issda_200,200,rng-200,141,rng,num-start-801,801,25726,18.89475440979004,True,,True,1,False,1000,True,1.0
./expes/v2_2020-12-06_dh_200-prng-1,30_issda_200,200,rng-200,141,rng,num-start-171,171,25726,5.817206859588623,True,,True,1,False,1000,True,1.0
./expes/v2_2020-12-06_dh_200-prng-1,30_issda_200,200,rng-200,41,rng,num-start-301,301,25726,11.896805763244629,True,,True,1,False,1000,True,1.0
./expes/v2_2020-12-06_dh_200-prng-1,30_issda_200,200,rng-200,21,rng,num-start-931,931,25726,22.855555057525635,True,,True,1,False,1000,True,1.0
./expes/v2_2020-12-06_dh_200-prng-1,30_issda_200,200,rng-200,191,rng,num-start-411,411,25726,9.968395709991455,True,,True,1,False,1000,True,1.0
./expes/v2_2020-12-06_dh_200-prng-1,30_issda_200,200,rng-200,71,rng,num-start-61,61,25726,5.5961668491363525,True,,True,1,False,1000,True,1.0
./expes/v2_2020-12-06_dh_200-prng-1,30_issda_200,200,rng-200,31,rng,num-start-391,391,25726,30.2329843044281,True,,True,1,False,1000,True,1.0
./expes/v2_2020-12-06_dh_200-prng-1,30_issda_200,200,rng-200,31,rng,num-start-951,951,25726,25.80792808532715,True,,True,1,False,1000,True,1.0
./expes/v2_2020-12-06_dh_200-prng-1,30_issda_200,200,rng-200,131,rng,num-start-481,481,25726,16.84001350402832,True,,True,1,False,1000,True,1.0
./expes/v2_2020-12-06_dh_200-prng-1,30_issda_200,200,rng-200,151,rng,num-start-131,131,25726,3.3656768798828125,True,,True,1,False,1000,True,1.0
./expes/v2_2020-12-06_dh_200-prng-1,30_issda_200,200,rng-200,61,rng,num-start-651,651,25726,16.77734136581421,True,,True,1,False,1000,True,1.0
./expes/v2_2020-12-06_dh_200-prng-1,30_issda_200,200,rng-200,11,rng,num-start-211,211,25726,5.5963134765625,True,,True,1,False,1000,True,1.0
./expes/v2_2020-12-06_dh_200-prng-1,30_issda_200,200,rng-200,81,rng,num-start-121,121,25726,5.4687676429748535,True,,True,1,False,1000,True,1.0
./expes/v2_2020-12-06_dh_200-prng-1,30_issda_200,200,rng-200,191,rng,num-start-391,391,25726,11.889659404754639,True,,True,1,False,1000,True,1.0
./expes/v2_2020-12-06_dh_200-prng-1,30_issda_200,200,rng-200,141,rng,num-start-931,931,25726,23.48836398124695,True,,True,1,False,1000,True,1.0
./expes/v2_2020-12-06_dh_200-prng-1,30_issda_200,200,rng-200,61,rng,num-start-811,811,25726,37.46093678474426,True,,True,1,False,1000,True,1.0
./expes/v2_2020-12-06_dh_200-prng-1,30_issda_200,200,rng-200,121,rng,num-start-251,251,25726,7.130002975463867,True,,True,1,False,1000,True,1.0
./expes/v2_2020-12-06_dh_200-prng-1,30_issda_200,200,rng-200,181,rng,num-start-511,511,25726,12.009450197219849,True,,True,1,False,1000,True,1.0
./expes/v2_2020-12-06_dh_200-prng-1,30_issda_200,200,rng-200,131,rng,num-start-301,301,25726,8.201276063919067,True,,True,1,False,1000,True,1.0
./expes/v2_2020-12-06_dh_200-prng-1,30_issda_200,200,rng-200,21,rng,num-start-41,41,25726,1.2277321815490723,True,,True,1,False,1000,True,1.0
./expes/v2_2020-12-06_dh_200-prng-1,30_issda_200,200,rng-200,101,rng,num-start-801,801,25726,18.862749099731445,True,,True,1,False,1000,True,1.0
./expes/v2_2020-12-06_dh_200-prng-1,30_issda_200,200,rng-200,81,rng,num-start-821,821,25726,19.030609130859375,True,,True,1,False,1000,True,1.0
./expes/v2_2020-12-06_dh_200-prng-1,30_issda_200,200,rng-200,191,rng,num-start-621,621,25726,13.875718355178833,True,,True,1,False,1000,True,1.0
./expes/v2_2020-12-06_dh_200-prng-1,30_issda_200,200,rng-200,91,rng,num-start-871,871,25726,25.200357675552368,True,,True,1,False,1000,True,1.0
./expes/v2_2020-12-06_dh_200-prng-1,30_issda_200,200,rng-200,61,rng,num-start-981,981,25726,24.555946350097656,True,,True,1,False,1000,True,1.0
./expes/v2_2020-12-06_dh_200-prng-1,30_issda_200,200,rng-200,111,rng,num-start-621,621,25726,15.114691019058228,True,,True,1,False,1000,True,1.0
./expes/v2_2020-12-06_dh_200-prng-1,30_issda_200,200,rng-200,1,rng,num-start-881,881,25726,23.808801889419556,True,,True,1,False,1000,True,1.0
./expes/v2_2020-12-06_dh_200-prng-1,30_issda_200,200,rng-200,121,rng,num-start-701,701,25726,16.61559796333313,True,,True,1,False,1000,True,1.0
./expes/v2_2020-12-06_dh_200-prng-1,30_issda_200,200,rng-200,171,rng,num-start-721,721,25726,18.598681211471558,True,,True,1,False,1000,True,1.0
./expes/v2_2020-12-06_dh_200-prng-1,30_issda_200,200,rng-200,121,rng,num-start-311,311,25726,21.35468292236328,True,,True,1,False,1000,True,1.0
./expes/v2_2020-12-06_dh_200-prng-1,30_issda_200,200,rng-200,41,rng,num-start-181,181,25726,4.523259878158569,True,,True,1,False,1000,True,1.0
./expes/v2_2020-12-06_dh_200-prng-1,30_issda_200,200,rng-200,1,rng,num-start-31,31,25726,0.9317736625671387,True,,True,1,False,1000,True,1.0
./expes/v2_2020-12-06_dh_200-prng-1,30_issda_200,200,rng-200,161,rng,num-start-551,551,25726,16.088428258895874,True,,True,1,False,1000,True,1.0
./expes/v2_2020-12-06_dh_200-prng-1,30_issda_200,200,rng-200,81,rng,num-start-491,491,25726,11.0600905418396,True,,True,1,False,1000,True,1.0
./expes/v2_2020-12-06_dh_200-prng-1,30_issda_200,200,rng-200,11,rng,num-start-641,641,25726,16.198925733566284,True,,True,1,False,1000,True,1.0
./expes/v2_2020-12-06_dh_200-prng-1,30_issda_200,200,rng-200,151,rng,num-start-201,201,25726,15.603782415390015,True,,True,1,False,1000,True,1.0
./expes/v2_2020-12-06_dh_200-prng-1,30_issda_200,200,rng-200,151,rng,num-start-331,331,25726,9.193107843399048,True,,True,1,False,1000,True,1.0
./expes/v2_2020-12-06_dh_200-prng-1,30_issda_200,200,rng-200,21,rng,num-start-971,971,25726,23.18008852005005,True,,True,1,False,1000,True,1.0
./expes/v2_2020-12-06_dh_200-prng-1,30_issda_200,200,rng-200,81,rng,num-start-81,81,25726,5.4805638790130615,True,,True,1,False,1000,True,1.0
./expes/v2_2020-12-06_dh_200-prng-1,30_issda_200,200,rng-200,51,rng,num-start-551,551,25726,23.411866664886475,True,,True,1,False,1000,True,1.0
./expes/v2_2020-12-06_dh_200-prng-1,30_issda_200,200,rng-200,71,rng,num-start-411,411,25726,9.910257816314697,True,,True,1,False,1000,True,1.0
./expes/v2_2020-12-06_dh_200-prng-1,30_issda_200,200,rng-200,131,rng,num-start-21,21,25726,1005.1602566242218,False,,False,0,True,1000,True,0.0
./expes/v2_2020-12-06_dh_200-prng-1,30_issda_200,200,rng-200,141,rng,num-start-541,541,25726,13.237303256988525,True,,True,1,False,1000,True,1.0
./expes/v2_2020-12-06_dh_200-prng-1,30_issda_200,200,rng-200,111,rng,num-start-381,381,25726,12.923441410064697,True,,True,1,False,1000,True,1.0
./expes/v2_2020-12-06_dh_200-prng-1,30_issda_200,200,rng-200,11,rng,num-start-301,301,25726,8.253239393234253,True,,True,1,False,1000,True,1.0
./expes/v2_2020-12-06_dh_200-prng-1,30_issda_200,200,rng-200,181,rng,num-start-41,41,25726,5.158151149749756,True,,True,1,False,1000,True,1.0
./expes/v2_2020-12-06_dh_200-prng-1,30_issda_200,200,rng-200,161,rng,num-start-821,821,25726,23.327624082565308,True,,True,1,False,1000,True,1.0
./expes/v2_2020-12-06_dh_200-prng-1,30_issda_200,200,rng-200,111,rng,num-start-671,671,25726,16.20207691192627,True,,True,1,False,1000,True,1.0
./expes/v2_2020-12-06_dh_200-prng-1,30_issda_200,200,rng-200,121,rng,num-start-421,421,25726,10.207051515579224,True,,True,1,False,1000,True,1.0
./expes/v2_2020-12-06_dh_200-prng-1,30_issda_200,200,rng-200,91,rng,num-start-151,151,25726,3.743119478225708,True,,True,1,False,1000,True,1.0
./expes/v2_2020-12-06_dh_200-prng-1,30_issda_200,200,rng-200,171,rng,num-start-131,131,25726,3.337589740753174,True,,True,1,False,1000,True,1.0
./expes/v2_2020-12-06_dh_200-prng-1,30_issda_200,200,rng-200,21,rng,num-start-301,301,25726,19.016613721847534,True,,True,1,False,1000,True,1.0
./expes/v2_2020-12-06_dh_200-prng-1,30_issda_200,200,rng-200,91,rng,num-start-691,691,25726,16.50467824935913,True,,True,1,False,1000,True,1.0
./expes/v2_2020-12-06_dh_200-prng-1,30_issda_200,200,rng-200,171,rng,num-start-691,691,25726,18.10466194152832,True,,True,1,False,1000,True,1.0
./expes/v2_2020-12-06_dh_200-prng-1,30_issda_200,200,rng-200,1,rng,num-start-561,561,25726,34.67546558380127,True,,True,1,False,1000,True,1.0
./expes/v2_2020-12-06_dh_200-prng-1,30_issda_200,200,rng-200,51,rng,num-start-681,681,25726,15.967268943786621,True,,True,1,False,1000,True,1.0
./expes/v2_2020-12-06_dh_200-prng-1,30_issda_200,200,rng-200,151,rng,num-start-971,971,25726,30.624260663986206,True,,True,1,False,1000,True,1.0
./expes/v2_2020-12-06_dh_200-prng-1,30_issda_200,200,rng-200,31,rng,num-start-711,711,25726,19.865272283554077,True,,True,1,False,1000,True,1.0
./expes/v2_2020-12-06_dh_200-prng-1,30_issda_200,200,rng-200,11,rng,num-start-951,951,25726,19.609501361846924,True,,True,1,False,1000,True,1.0
./expes/v2_2020-12-06_dh_200-prng-1,30_issda_200,200,rng-200,11,rng,num-start-991,991,25726,20.47582483291626,True,,True,1,False,1000,True,1.0
./expes/v2_2020-12-06_dh_200-prng-1,30_issda_200,200,rng-200,91,rng,num-start-451,451,25726,11.399230718612671,True,,True,1,False,1000,True,1.0
./expes/v2_2020-12-06_dh_200-prng-1,30_issda_200,200,rng-200,111,rng,num-start-531,531,25726,13.771512746810913,True,,True,1,False,1000,True,1.0
./expes/v2_2020-12-06_dh_200-prng-1,30_issda_200,200,rng-200,161,rng,num-start-471,471,25726,10.773542165756226,True,,True,1,False,1000,True,1.0
./expes/v2_2020-12-06_dh_200-prng-1,30_issda_200,200,rng-200,81,rng,num-start-831,831,25726,21.21662211418152,True,,True,1,False,1000,True,1.0
./expes/v2_2020-12-06_dh_200-prng-1,30_issda_200,200,rng-200,151,rng,num-start-681,681,25726,16.49170732498169,True,,True,1,False,1000,True,1.0
./expes/v2_2020-12-06_dh_200-prng-1,30_issda_200,200,rng-200,31,rng,num-start-241,241,25726,6.1929285526275635,True,,True,1,False,1000,True,1.0
./expes/v2_2020-12-06_dh_200-prng-1,30_issda_200,200,rng-200,141,rng,num-start-191,191,25726,4.814148426055908,True,,True,1,False,1000,True,1.0
./expes/v2_2020-12-06_dh_200-prng-1,30_issda_200,200,rng-200,191,rng,num-start-191,191,25726,4.536880254745483,True,,True,1,False,1000,True,1.0
./expes/v2_2020-12-06_dh_200-prng-1,30_issda_200,200,rng-200,91,rng,num-start-871,871,25726,23.721829414367676,True,,True,1,False,1000,True,1.0
./expes/v2_2020-12-06_dh_200-prng-1,30_issda_200,200,rng-200,21,rng,num-start-491,491,25726,11.669291257858276,True,,True,1,False,1000,True,1.0
./expes/v2_2020-12-06_dh_200-prng-1,30_issda_200,200,rng-200,1,rng,num-start-511,511,25726,10.970498085021973,True,,True,1,False,1000,True,1.0
./expes/v2_2020-12-06_dh_200-prng-1,30_issda_200,200,rng-200,71,rng,num-start-301,301,25726,17.287317991256714,True,,True,1,False,1000,True,1.0
./expes/v2_2020-12-06_dh_200-prng-1,30_issda_200,200,rng-200,161,rng,num-start-481,481,25726,14.160964965820312,True,,True,1,False,1000,True,1.0
./expes/v2_2020-12-06_dh_200-prng-1,30_issda_200,200,rng-200,151,rng,num-start-91,91,25726,7.609957933425903,True,,True,1,False,1000,True,1.0
./expes/v2_2020-12-06_dh_200-prng-1,30_issda_200,200,rng-200,41,rng,num-start-451,451,25726,10.273011445999146,True,,True,1,False,1000,True,1.0
./expes/v2_2020-12-06_dh_200-prng-1,30_issda_200,200,rng-200,51,rng,num-start-521,521,25726,26.80668330192566,True,,True,1,False,1000,True,1.0
./expes/v2_2020-12-06_dh_200-prng-1,30_issda_200,200,rng-200,141,rng,num-start-631,631,25726,22.91466188430786,True,,True,1,False,1000,True,1.0
./expes/v2_2020-12-06_dh_200-prng-1,30_issda_200,200,rng-200,101,rng,num-start-911,911,25726,22.503772497177124,True,,True,1,False,1000,True,1.0
./expes/v2_2020-12-06_dh_200-prng-1,30_issda_200,200,rng-200,21,rng,num-start-251,251,25726,6.004899024963379,True,,True,1,False,1000,True,1.0
./expes/v2_2020-12-06_dh_200-prng-1,30_issda_200,200,rng-200,81,rng,num-start-161,161,25726,4.1539530754089355,True,,True,1,False,1000,True,1.0
./expes/v2_2020-12-06_dh_200-prng-1,30_issda_200,200,rng-200,141,rng,num-start-571,571,25726,16.307695388793945,True,,True,1,False,1000,True,1.0
./expes/v2_2020-12-06_dh_200-prng-1,30_issda_200,200,rng-200,161,rng,num-start-881,881,25726,32.810548067092896,True,,True,1,False,1000,True,1.0
./expes/v2_2020-12-06_dh_200-prng-1,30_issda_200,200,rng-200,141,rng,num-start-131,131,25726,3.5488009452819824,True,,True,1,False,1000,True,1.0
./expes/v2_2020-12-06_dh_200-prng-1,30_issda_200,200,rng-200,91,rng,num-start-411,411,25726,14.690586805343628,True,,True,1,False,1000,True,1.0
./expes/v2_2020-12-06_dh_200-prng-1,30_issda_200,200,rng-200,81,rng,num-start-631,631,25726,15.614768505096436,True,,True,1,False,1000,True,1.0
./expes/v2_2020-12-06_dh_200-prng-1,30_issda_200,200,rng-200,171,rng,num-start-131,131,25726,3.3932673931121826,True,,True,1,False,1000,True,1.0
./expes/v2_2020-12-06_dh_200-prng-1,30_issda_200,200,rng-200,51,rng,num-start-771,771,25726,21.40576171875,True,,True,1,False,1000,True,1.0
./expes/v2_2020-12-06_dh_200-prng-1,30_issda_200,200,rng-200,51,rng,num-start-261,261,25726,6.7113378047943115,True,,True,1,False,1000,True,1.0
./expes/v2_2020-12-06_dh_200-prng-1,30_issda_200,200,rng-200,91,rng,num-start-521,521,25726,13.086782217025757,True,,True,1,False,1000,True,1.0
./expes/v2_2020-12-06_dh_200-prng-1,30_issda_200,200,rng-200,71,rng,num-start-671,671,25726,15.743327617645264,True,,True,1,False,1000,True,1.0
./expes/v2_2020-12-06_dh_200-prng-1,30_issda_200,200,rng-200,191,rng,num-start-741,741,25726,16.257823944091797,True,,True,1,False,1000,True,1.0
./expes/v2_2020-12-06_dh_200-prng-1,30_issda_200,200,rng-200,181,rng,num-start-201,201,25726,7.172626495361328,True,,True,1,False,1000,True,1.0
./expes/v2_2020-12-06_dh_200-prng-1,30_issda_200,200,rng-200,81,rng,num-start-761,761,25726,20.002224922180176,True,,True,1,False,1000,True,1.0
./expes/v2_2020-12-06_dh_200-prng-1,30_issda_200,200,rng-200,21,rng,num-start-41,41,25726,6.793687105178833,True,,True,1,False,1000,True,1.0
./expes/v2_2020-12-06_dh_200-prng-1,30_issda_200,200,rng-200,131,rng,num-start-671,671,25726,15.454016208648682,True,,True,1,False,1000,True,1.0
./expes/v2_2020-12-06_dh_200-prng-1,30_issda_200,200,rng-200,111,rng,num-start-191,191,25726,12.16410231590271,True,,True,1,False,1000,True,1.0
./expes/v2_2020-12-06_dh_200-prng-1,30_issda_200,200,rng-200,111,rng,num-start-871,871,25726,23.38341498374939,True,,True,1,False,1000,True,1.0
./expes/v2_2020-12-06_dh_200-prng-1,30_issda_200,200,rng-200,151,rng,num-start-741,741,25726,17.550561666488647,True,,True,1,False,1000,True,1.0
./expes/v2_2020-12-06_dh_200-prng-1,30_issda_200,200,rng-200,1,rng,num-start-601,601,25726,12.940857410430908,True,,True,1,False,1000,True,1.0
./expes/v2_2020-12-06_dh_200-prng-1,30_issda_200,200,rng-200,71,rng,num-start-651,651,25726,20.393410682678223,True,,True,1,False,1000,True,1.0
./expes/v2_2020-12-06_dh_200-prng-1,30_issda_200,200,rng-200,131,rng,num-start-751,751,25726,30.16513419151306,True,,True,1,False,1000,True,1.0
./expes/v2_2020-12-06_dh_200-prng-1,30_issda_200,200,rng-200,11,rng,num-start-341,341,25726,8.060721158981323,True,,True,1,False,1000,True,1.0
./expes/v2_2020-12-06_dh_200-prng-1,30_issda_200,200,rng-200,121,rng,num-start-671,671,25726,18.389519453048706,True,,True,1,False,1000,True,1.0
./expes/v2_2020-12-06_dh_200-prng-1,30_issda_200,200,rng-200,11,rng,num-start-61,61,25726,1.4566314220428467,True,,True,1,False,1000,True,1.0
./expes/v2_2020-12-06_dh_200-prng-1,30_issda_200,200,rng-200,61,rng,num-start-611,611,25726,22.338244915008545,True,,True,1,False,1000,True,1.0
./expes/v2_2020-12-06_dh_200-prng-1,30_issda_200,200,rng-200,191,rng,num-start-971,971,25726,31.859543323516846,True,,True,1,False,1000,True,1.0
./expes/v2_2020-12-06_dh_200-prng-1,30_issda_200,200,rng-200,41,rng,num-start-641,641,25726,16.255866527557373,True,,True,1,False,1000,True,1.0
./expes/v2_2020-12-06_dh_200-prng-1,30_issda_200,200,rng-200,131,rng,num-start-961,961,25726,22.943525314331055,True,,True,1,False,1000,True,1.0
./expes/v2_2020-12-06_dh_200-prng-1,30_issda_200,200,rng-200,51,rng,num-start-371,371,25726,9.320672512054443,True,,True,1,False,1000,True,1.0
./expes/v2_2020-12-06_dh_200-prng-1,30_issda_200,200,rng-200,161,rng,num-start-661,661,25726,15.45398759841919,True,,True,1,False,1000,True,1.0
./expes/v2_2020-12-06_dh_200-prng-1,30_issda_200,200,rng-200,181,rng,num-start-661,661,25726,21.311166763305664,True,,True,1,False,1000,True,1.0
./expes/v2_2020-12-06_dh_200-prng-1,30_issda_200,200,rng-200,71,rng,num-start-691,691,25726,29.29862666130066,True,,True,1,False,1000,True,1.0
./expes/v2_2020-12-06_dh_200-prng-1,30_issda_200,200,rng-200,191,rng,num-start-721,721,25726,25.36911416053772,True,,True,1,False,1000,True,1.0
./expes/v2_2020-12-06_dh_200-prng-1,30_issda_200,200,rng-200,191,rng,num-start-181,181,25726,4.252803087234497,True,,True,1,False,1000,True,1.0
./expes/v2_2020-12-06_dh_200-prng-1,30_issda_200,200,rng-200,71,rng,num-start-811,811,25726,20.791103839874268,True,,True,1,False,1000,True,1.0
./expes/v2_2020-12-06_dh_200-prng-1,30_issda_200,200,rng-200,41,rng,num-start-971,971,25726,22.751262426376343,True,,True,1,False,1000,True,1.0
./expes/v2_2020-12-06_dh_200-prng-1,30_issda_200,200,rng-200,31,rng,num-start-591,591,25726,15.67100715637207,True,,True,1,False,1000,True,1.0
./expes/v2_2020-12-06_dh_200-prng-1,30_issda_200,200,rng-200,191,rng,num-start-551,551,25726,12.481817483901978,True,,True,1,False,1000,True,1.0
./expes/v2_2020-12-06_dh_200-prng-1,30_issda_200,200,rng-200,141,rng,num-start-421,421,25726,11.472851991653442,True,,True,1,False,1000,True,1.0
./expes/v2_2020-12-06_dh_200-prng-1,30_issda_200,200,rng-200,181,rng,num-start-271,271,25726,6.244861841201782,True,,True,1,False,1000,True,1.0
./expes/v2_2020-12-06_dh_200-prng-1,30_issda_200,200,rng-200,181,rng,num-start-871,871,25726,19.834946155548096,True,,True,1,False,1000,True,1.0
./expes/v2_2020-12-06_dh_200-prng-1,30_issda_200,200,rng-200,91,rng,num-start-941,941,25726,37.08784008026123,True,,True,1,False,1000,True,1.0
./expes/v2_2020-12-06_dh_200-prng-1,30_issda_200,200,rng-200,71,rng,num-start-421,421,25726,10.101295709609985,True,,True,1,False,1000,True,1.0
./expes/v2_2020-12-06_dh_200-prng-1,30_issda_200,200,rng-200,181,rng,num-start-451,451,25726,25.295786142349243,True,,True,1,False,1000,True,1.0
./expes/v2_2020-12-06_dh_200-prng-1,30_issda_200,200,rng-200,1,rng,num-start-951,951,25726,21.309308767318726,True,,True,1,False,1000,True,1.0
./expes/v2_2020-12-06_dh_200-prng-1,30_issda_200,200,rng-200,131,rng,num-start-51,51,25726,1001.308961391449,False,,False,0,True,1000,True,0.0
./expes/v2_2020-12-06_dh_200-prng-1,30_issda_200,200,rng-200,91,rng,num-start-131,131,25726,15.856949806213379,True,,True,1,False,1000,True,1.0
./expes/v2_2020-12-06_dh_200-prng-1,30_issda_200,200,rng-200,11,rng,num-start-471,471,25726,10.501044273376465,True,,True,1,False,1000,True,1.0
./expes/v2_2020-12-06_dh_200-prng-1,30_issda_200,200,rng-200,11,rng,num-start-441,441,25726,9.786650657653809,True,,True,1,False,1000,True,1.0
./expes/v2_2020-12-06_dh_200-prng-1,30_issda_200,200,rng-200,71,rng,num-start-241,241,25726,17.99083185195923,True,,True,1,False,1000,True,1.0
./expes/v2_2020-12-06_dh_200-prng-1,30_issda_200,200,rng-200,51,rng,num-start-801,801,25726,29.291723251342773,True,,True,1,False,1000,True,1.0
./expes/v2_2020-12-06_dh_200-prng-1,30_issda_200,200,rng-200,81,rng,num-start-621,621,25726,17.34188723564148,True,,True,1,False,1000,True,1.0
./expes/v2_2020-12-06_dh_200-prng-1,30_issda_200,200,rng-200,81,rng,num-start-691,691,25726,16.387348175048828,True,,True,1,False,1000,True,1.0
./expes/v2_2020-12-06_dh_200-prng-1,30_issda_200,200,rng-200,11,rng,num-start-671,671,25726,15.661240816116333,True,,True,1,False,1000,True,1.0
./expes/v2_2020-12-06_dh_200-prng-1,30_issda_200,200,rng-200,151,rng,num-start-351,351,25726,21.477311611175537,True,,True,1,False,1000,True,1.0
./expes/v2_2020-12-06_dh_200-prng-1,30_issda_200,200,rng-200,101,rng,num-start-191,191,25726,4.865957975387573,True,,True,1,False,1000,True,1.0
./expes/v2_2020-12-06_dh_200-prng-1,30_issda_200,200,rng-200,101,rng,num-start-411,411,25726,16.72347354888916,True,,True,1,False,1000,True,1.0
./expes/v2_2020-12-06_dh_200-prng-1,30_issda_200,200,rng-200,161,rng,num-start-661,661,25726,16.097623586654663,True,,True,1,False,1000,True,1.0
./expes/v2_2020-12-06_dh_200-prng-1,30_issda_200,200,rng-200,191,rng,num-start-291,291,25726,6.48790979385376,True,,True,1,False,1000,True,1.0
./expes/v2_2020-12-06_dh_200-prng-1,30_issda_200,200,rng-200,191,rng,num-start-721,721,25726,17.826634168624878,True,,True,1,False,1000,True,1.0
./expes/v2_2020-12-06_dh_200-prng-1,30_issda_200,200,rng-200,91,rng,num-start-601,601,25726,14.062026023864746,True,,True,1,False,1000,True,1.0
./expes/v2_2020-12-06_dh_200-prng-1,30_issda_200,200,rng-200,41,rng,num-start-1,1,25726,0.0565037727355957,False,,False,2,False,1000,True,1.0
./expes/v2_2020-12-06_dh_200-prng-1,30_issda_200,200,rng-200,1,rng,num-start-691,691,25726,15.10841679573059,True,,True,1,False,1000,True,1.0
./expes/v2_2020-12-06_dh_200-prng-1,30_issda_200,200,rng-200,131,rng,num-start-481,481,25726,11.817657232284546,True,,True,1,False,1000,True,1.0
./expes/v2_2020-12-06_dh_200-prng-1,30_issda_200,200,rng-200,41,rng,num-start-351,351,25726,8.380463123321533,True,,True,1,False,1000,True,1.0
./expes/v2_2020-12-06_dh_200-prng-1,30_issda_200,200,rng-200,161,rng,num-start-441,441,25726,18.675766944885254,True,,True,1,False,1000,True,1.0
./expes/v2_2020-12-06_dh_200-prng-1,30_issda_200,200,rng-200,91,rng,num-start-391,391,25726,9.365505456924438,True,,True,1,False,1000,True,1.0
./expes/v2_2020-12-06_dh_200-prng-1,30_issda_200,200,rng-200,181,rng,num-start-31,31,25726,8.824099779129028,True,,True,1,False,1000,True,1.0
./expes/v2_2020-12-06_dh_200-prng-1,30_issda_200,200,rng-200,121,rng,num-start-911,911,25726,28.972841024398804,True,,True,1,False,1000,True,1.0
./expes/v2_2020-12-06_dh_200-prng-1,30_issda_200,200,rng-200,101,rng,num-start-81,81,25726,3.951505661010742,True,,True,1,False,1000,True,1.0
./expes/v2_2020-12-06_dh_200-prng-1,30_issda_200,200,rng-200,51,rng,num-start-101,101,25726,9.717142581939697,True,,True,1,False,1000,True,1.0
./expes/v2_2020-12-06_dh_200-prng-1,30_issda_200,200,rng-200,41,rng,num-start-361,361,25726,21.960756540298462,True,,True,1,False,1000,True,1.0
./expes/v2_2020-12-06_dh_200-prng-1,30_issda_200,200,rng-200,111,rng,num-start-541,541,25726,27.965575218200684,True,,True,1,False,1000,True,1.0
./expes/v2_2020-12-06_dh_200-prng-1,30_issda_200,200,rng-200,61,rng,num-start-701,701,25726,16.272711277008057,True,,True,1,False,1000,True,1.0
./expes/v2_2020-12-06_dh_200-prng-1,30_issda_200,200,rng-200,61,rng,num-start-641,641,25726,16.019385814666748,True,,True,1,False,1000,True,1.0
./expes/v2_2020-12-06_dh_200-prng-1,30_issda_200,200,rng-200,71,rng,num-start-801,801,25726,17.563313245773315,True,,True,1,False,1000,True,1.0
./expes/v2_2020-12-06_dh_200-prng-1,30_issda_200,200,rng-200,181,rng,num-start-201,201,25726,4.675617694854736,True,,True,1,False,1000,True,1.0
./expes/v2_2020-12-06_dh_200-prng-1,30_issda_200,200,rng-200,111,rng,num-start-21,21,25726,1001.8993401527405,False,,False,0,True,1000,True,0.0
./expes/v2_2020-12-06_dh_200-prng-1,30_issda_200,200,rng-200,191,rng,num-start-371,371,25726,8.150799989700317,True,,True,1,False,1000,True,1.0
./expes/v2_2020-12-06_dh_200-prng-1,30_issda_200,200,rng-200,11,rng,num-start-611,611,25726,17.41258406639099,True,,True,1,False,1000,True,1.0
./expes/v2_2020-12-06_dh_200-prng-1,30_issda_200,200,rng-200,161,rng,num-start-911,911,25726,23.06670832633972,True,,True,1,False,1000,True,1.0
./expes/v2_2020-12-06_dh_200-prng-1,30_issda_200,200,rng-200,171,rng,num-start-551,551,25726,26.76474118232727,True,,True,1,False,1000,True,1.0
./expes/v2_2020-12-06_dh_200-prng-1,30_issda_200,200,rng-200,41,rng,num-start-391,391,25726,12.189168930053711,True,,True,1,False,1000,True,1.0
./expes/v2_2020-12-06_dh_200-prng-1,30_issda_200,200,rng-200,141,rng,num-start-561,561,25726,13.957644701004028,True,,True,1,False,1000,True,1.0
./expes/v2_2020-12-06_dh_200-prng-1,30_issda_200,200,rng-200,181,rng,num-start-521,521,25726,12.275258541107178,True,,True,1,False,1000,True,1.0
./expes/v2_2020-12-06_dh_200-prng-1,30_issda_200,200,rng-200,131,rng,num-start-471,471,25726,28.96103811264038,True,,True,1,False,1000,True,1.0
./expes/v2_2020-12-06_dh_200-prng-1,30_issda_200,200,rng-200,101,rng,num-start-71,71,25726,40.10222625732422,True,,True,1,False,1000,True,1.0
./expes/v2_2020-12-06_dh_200-prng-1,30_issda_200,200,rng-200,11,rng,num-start-891,891,25726,19.216898679733276,True,,True,1,False,1000,True,1.0
./expes/v2_2020-12-06_dh_200-prng-1,30_issda_200,200,rng-200,111,rng,num-start-331,331,25726,8.075246810913086,True,,True,1,False,1000,True,1.0
./expes/v2_2020-12-06_dh_200-prng-1,30_issda_200,200,rng-200,191,rng,num-start-241,241,25726,5.45730996131897,True,,True,1,False,1000,True,1.0
./expes/v2_2020-12-06_dh_200-prng-1,30_issda_200,200,rng-200,161,rng,num-start-1,1,25726,0.04630470275878906,False,,False,2,False,1000,True,1.0
./expes/v2_2020-12-06_dh_200-prng-1,30_issda_200,200,rng-200,41,rng,num-start-201,201,25726,6.134895086288452,True,,True,1,False,1000,True,1.0
./expes/v2_2020-12-06_dh_200-prng-1,30_issda_200,200,rng-200,161,rng,num-start-641,641,25726,17.87897753715515,True,,True,1,False,1000,True,1.0
./expes/v2_2020-12-06_dh_200-prng-1,30_issda_200,200,rng-200,151,rng,num-start-251,251,25726,7.014078140258789,True,,True,1,False,1000,True,1.0
./expes/v2_2020-12-06_dh_200-prng-1,30_issda_200,200,rng-200,181,rng,num-start-381,381,25726,9.936601638793945,True,,True,1,False,1000,True,1.0
./expes/v2_2020-12-06_dh_200-prng-1,30_issda_200,200,rng-200,71,rng,num-start-951,951,25726,28.441359996795654,True,,True,1,False,1000,True,1.0
./expes/v2_2020-12-06_dh_200-prng-1,30_issda_200,200,rng-200,141,rng,num-start-671,671,25726,16.380618810653687,True,,True,1,False,1000,True,1.0
./expes/v2_2020-12-06_dh_200-prng-1,30_issda_200,200,rng-200,171,rng,num-start-481,481,25726,10.935199499130249,True,,True,1,False,1000,True,1.0
./expes/v2_2020-12-06_dh_200-prng-1,30_issda_200,200,rng-200,51,rng,num-start-401,401,25726,9.34233832359314,True,,True,1,False,1000,True,1.0
./expes/v2_2020-12-06_dh_200-prng-1,30_issda_200,200,rng-200,91,rng,num-start-31,31,25726,1006.9743263721466,False,,False,0,True,1000,True,0.0
./expes/v2_2020-12-06_dh_200-prng-1,30_issda_200,200,rng-200,21,rng,num-start-261,261,25726,7.875702857971191,True,,True,1,False,1000,True,1.0
./expes/v2_2020-12-06_dh_200-prng-1,30_issda_200,200,rng-200,191,rng,num-start-641,641,25726,14.086792469024658,True,,True,1,False,1000,True,1.0
./expes/v2_2020-12-06_dh_200-prng-1,30_issda_200,200,rng-200,1,rng,num-start-661,661,25726,19.863523721694946,True,,True,1,False,1000,True,1.0
./expes/v2_2020-12-06_dh_200-prng-1,30_issda_200,200,rng-200,91,rng,num-start-201,201,25726,42.01205134391785,True,,True,1,False,1000,True,1.0
./expes/v2_2020-12-06_dh_200-prng-1,30_issda_200,200,rng-200,131,rng,num-start-311,311,25726,10.493467330932617,True,,True,1,False,1000,True,1.0
./expes/v2_2020-12-06_dh_200-prng-1,30_issda_200,200,rng-200,101,rng,num-start-391,391,25726,10.596906185150146,True,,True,1,False,1000,True,1.0
./expes/v2_2020-12-06_dh_200-prng-1,30_issda_200,200,rng-200,71,rng,num-start-841,841,25726,21.06926989555359,True,,True,1,False,1000,True,1.0
./expes/v2_2020-12-06_dh_200-prng-1,30_issda_200,200,rng-200,191,rng,num-start-471,471,25726,11.564562559127808,True,,True,1,False,1000,True,1.0
./expes/v2_2020-12-06_dh_200-prng-1,30_issda_200,200,rng-200,61,rng,num-start-581,581,25726,13.542538404464722,True,,True,1,False,1000,True,1.0
./expes/v2_2020-12-06_dh_200-prng-1,30_issda_200,200,rng-200,161,rng,num-start-711,711,25726,18.024824142456055,True,,True,1,False,1000,True,1.0
./expes/v2_2020-12-06_dh_200-prng-1,30_issda_200,200,rng-200,41,rng,num-start-161,161,25726,4.565235376358032,True,,True,1,False,1000,True,1.0
./expes/v2_2020-12-06_dh_200-prng-1,30_issda_200,200,rng-200,101,rng,num-start-491,491,25726,11.950735569000244,True,,True,1,False,1000,True,1.0
./expes/v2_2020-12-06_dh_200-prng-1,30_issda_200,200,rng-200,21,rng,num-start-681,681,25726,16.468235969543457,True,,True,1,False,1000,True,1.0
./expes/v2_2020-12-06_dh_200-prng-1,30_issda_200,200,rng-200,181,rng,num-start-51,51,25726,2.9538142681121826,True,,True,1,False,1000,True,1.0
./expes/v2_2020-12-06_dh_200-prng-1,30_issda_200,200,rng-200,81,rng,num-start-231,231,25726,11.276189804077148,True,,True,1,False,1000,True,1.0
./expes/v2_2020-12-06_dh_200-prng-1,30_issda_200,200,rng-200,81,rng,num-start-491,491,25726,12.749056577682495,True,,True,1,False,1000,True,1.0
./expes/v2_2020-12-06_dh_200-prng-1,30_issda_200,200,rng-200,11,rng,num-start-181,181,25726,4.025010585784912,True,,True,1,False,1000,True,1.0
./expes/v2_2020-12-06_dh_200-prng-1,30_issda_200,200,rng-200,131,rng,num-start-71,71,25726,5.800810098648071,True,,True,1,False,1000,True,1.0
./expes/v2_2020-12-06_dh_200-prng-1,30_issda_200,200,rng-200,151,rng,num-start-981,981,25726,39.05155634880066,True,,True,1,False,1000,True,1.0
./expes/v2_2020-12-06_dh_200-prng-1,30_issda_200,200,rng-200,21,rng,num-start-171,171,25726,4.53653621673584,True,,True,1,False,1000,True,1.0
./expes/v2_2020-12-06_dh_200-prng-1,30_issda_200,200,rng-200,141,rng,num-start-821,821,25726,27.78743624687195,True,,True,1,False,1000,True,1.0
./expes/v2_2020-12-06_dh_200-prng-1,30_issda_200,200,rng-200,1,rng,num-start-221,221,25726,5.062652111053467,True,,True,1,False,1000,True,1.0
./expes/v2_2020-12-06_dh_200-prng-1,30_issda_200,200,rng-200,111,rng,num-start-71,71,25726,42.5723602771759,True,,True,1,False,1000,True,1.0
./expes/v2_2020-12-06_dh_200-prng-1,30_issda_200,200,rng-200,31,rng,num-start-981,981,25726,35.63768744468689,True,,True,1,False,1000,True,1.0
./expes/v2_2020-12-06_dh_200-prng-1,30_issda_200,200,rng-200,91,rng,num-start-331,331,25726,12.176016092300415,True,,True,1,False,1000,True,1.0
./expes/v2_2020-12-06_dh_200-prng-1,30_issda_200,200,rng-200,101,rng,num-start-781,781,25726,22.543083906173706,True,,True,1,False,1000,True,1.0
./expes/v2_2020-12-06_dh_200-prng-1,30_issda_200,200,rng-200,41,rng,num-start-51,51,25726,1.9159903526306152,True,,True,1,False,1000,True,1.0
./expes/v2_2020-12-06_dh_200-prng-1,30_issda_200,200,rng-200,41,rng,num-start-541,541,25726,19.11153244972229,True,,True,1,False,1000,True,1.0
./expes/v2_2020-12-06_dh_200-prng-1,30_issda_200,200,rng-200,71,rng,num-start-291,291,25726,7.298770427703857,True,,True,1,False,1000,True,1.0
./expes/v2_2020-12-06_dh_200-prng-1,30_issda_200,200,rng-200,191,rng,num-start-481,481,25726,12.377235651016235,True,,True,1,False,1000,True,1.0
./expes/v2_2020-12-06_dh_200-prng-1,30_issda_200,200,rng-200,181,rng,num-start-151,151,25726,3.7879385948181152,True,,True,1,False,1000,True,1.0
./expes/v2_2020-12-06_dh_200-prng-1,30_issda_200,200,rng-200,51,rng,num-start-111,111,25726,2.842026710510254,True,,True,1,False,1000,True,1.0
./expes/v2_2020-12-06_dh_200-prng-1,30_issda_200,200,rng-200,81,rng,num-start-251,251,25726,6.39577579498291,True,,True,1,False,1000,True,1.0
./expes/v2_2020-12-06_dh_200-prng-1,30_issda_200,200,rng-200,121,rng,num-start-51,51,25726,1002.1375131607056,False,,False,0,True,1000,True,0.0
./expes/v2_2020-12-06_dh_200-prng-1,30_issda_200,200,rng-200,141,rng,num-start-521,521,25726,11.989838361740112,True,,True,1,False,1000,True,1.0
./expes/v2_2020-12-06_dh_200-prng-1,30_issda_200,200,rng-200,101,rng,num-start-811,811,25726,19.79495334625244,True,,True,1,False,1000,True,1.0
./expes/v2_2020-12-06_dh_200-prng-1,30_issda_200,200,rng-200,91,rng,num-start-341,341,25726,8.788238525390625,True,,True,1,False,1000,True,1.0
./expes/v2_2020-12-06_dh_200-prng-1,30_issda_200,200,rng-200,161,rng,num-start-191,191,25726,4.906114101409912,True,,True,1,False,1000,True,1.0
./expes/v2_2020-12-06_dh_200-prng-1,30_issda_200,200,rng-200,111,rng,num-start-541,541,25726,13.179818868637085,True,,True,1,False,1000,True,1.0
./expes/v2_2020-12-06_dh_200-prng-1,30_issda_200,200,rng-200,191,rng,num-start-951,951,25726,21.997154712677002,True,,True,1,False,1000,True,1.0
./expes/v2_2020-12-06_dh_200-prng-1,30_issda_200,200,rng-200,161,rng,num-start-411,411,25726,9.877461433410645,True,,True,1,False,1000,True,1.0
./expes/v2_2020-12-06_dh_200-prng-1,30_issda_200,200,rng-200,81,rng,num-start-831,831,25726,20.58380436897278,True,,True,1,False,1000,True,1.0
./expes/v2_2020-12-06_dh_200-prng-1,30_issda_200,200,rng-200,101,rng,num-start-791,791,25726,20.568206310272217,True,,True,1,False,1000,True,1.0
./expes/v2_2020-12-06_dh_200-prng-1,30_issda_200,200,rng-200,171,rng,num-start-651,651,25726,15.618253707885742,True,,True,1,False,1000,True,1.0
./expes/v2_2020-12-06_dh_200-prng-1,30_issda_200,200,rng-200,71,rng,num-start-121,121,25726,3.2852625846862793,True,,True,1,False,1000,True,1.0
./expes/v2_2020-12-06_dh_200-prng-1,30_issda_200,200,rng-200,61,rng,num-start-271,271,25726,6.751251220703125,True,,True,1,False,1000,True,1.0
./expes/v2_2020-12-06_dh_200-prng-1,30_issda_200,200,rng-200,191,rng,num-start-681,681,25726,14.348419189453125,True,,True,1,False,1000,True,1.0
./expes/v2_2020-12-06_dh_200-prng-1,30_issda_200,200,rng-200,21,rng,num-start-881,881,25726,19.80719304084778,True,,True,1,False,1000,True,1.0
./expes/v2_2020-12-06_dh_200-prng-1,30_issda_200,200,rng-200,1,rng,num-start-471,471,25726,9.983422040939331,True,,True,1,False,1000,True,1.0
./expes/v2_2020-12-06_dh_200-prng-1,30_issda_200,200,rng-200,21,rng,num-start-521,521,25726,12.175533533096313,True,,True,1,False,1000,True,1.0
./expes/v2_2020-12-06_dh_200-prng-1,30_issda_200,200,rng-200,81,rng,num-start-741,741,25726,17.325259685516357,True,,True,1,False,1000,True,1.0
./expes/v2_2020-12-06_dh_200-prng-1,30_issda_200,200,rng-200,31,rng,num-start-831,831,25726,20.451834440231323,True,,True,1,False,1000,True,1.0
./expes/v2_2020-12-06_dh_200-prng-1,30_issda_200,200,rng-200,191,rng,num-start-621,621,25726,14.348843097686768,True,,True,1,False,1000,True,1.0
./expes/v2_2020-12-06_dh_200-prng-1,30_issda_200,200,rng-200,41,rng,num-start-481,481,25726,13.030200958251953,True,,True,1,False,1000,True,1.0
./expes/v2_2020-12-06_dh_200-prng-1,30_issda_200,200,rng-200,11,rng,num-start-371,371,25726,9.654256105422974,True,,True,1,False,1000,True,1.0
./expes/v2_2020-12-06_dh_200-prng-1,30_issda_200,200,rng-200,181,rng,num-start-71,71,25726,1.9260890483856201,True,,True,1,False,1000,True,1.0
./expes/v2_2020-12-06_dh_200-prng-1,30_issda_200,200,rng-200,51,rng,num-start-481,481,25726,13.888941049575806,True,,True,1,False,1000,True,1.0
./expes/v2_2020-12-06_dh_200-prng-1,30_issda_200,200,rng-200,61,rng,num-start-621,621,25726,16.45866084098816,True,,True,1,False,1000,True,1.0
./expes/v2_2020-12-06_dh_200-prng-1,30_issda_200,200,rng-200,131,rng,num-start-161,161,25726,4.189789533615112,True,,True,1,False,1000,True,1.0
./expes/v2_2020-12-06_dh_200-prng-1,30_issda_200,200,rng-200,121,rng,num-start-711,711,25726,16.510167598724365,True,,True,1,False,1000,True,1.0
./expes/v2_2020-12-06_dh_200-prng-1,30_issda_200,200,rng-200,71,rng,num-start-641,641,25726,16.365724325180054,True,,True,1,False,1000,True,1.0
./expes/v2_2020-12-06_dh_200-prng-1,30_issda_200,200,rng-200,51,rng,num-start-881,881,25726,20.75900673866272,True,,True,1,False,1000,True,1.0
./expes/v2_2020-12-06_dh_200-prng-1,30_issda_200,200,rng-200,191,rng,num-start-861,861,25726,19.09871482849121,True,,True,1,False,1000,True,1.0
./expes/v2_2020-12-06_dh_200-prng-1,30_issda_200,200,rng-200,61,rng,num-start-191,191,25726,4.448529005050659,True,,True,1,False,1000,True,1.0
./expes/v2_2020-12-06_dh_200-prng-1,30_issda_200,200,rng-200,1,rng,num-start-61,61,25726,1.3218438625335693,True,,True,1,False,1000,True,1.0
./expes/v2_2020-12-06_dh_200-prng-1,30_issda_200,200,rng-200,81,rng,num-start-101,101,25726,2.6136574745178223,True,,True,1,False,1000,True,1.0
./expes/v2_2020-12-06_dh_200-prng-1,30_issda_200,200,rng-200,81,rng,num-start-801,801,25726,18.21163296699524,True,,True,1,False,1000,True,1.0
./expes/v2_2020-12-06_dh_200-prng-1,30_issda_200,200,rng-200,11,rng,num-start-321,321,25726,7.125605821609497,True,,True,1,False,1000,True,1.0
./expes/v2_2020-12-06_dh_200-prng-1,30_issda_200,200,rng-200,171,rng,num-start-151,151,25726,3.7107114791870117,True,,True,1,False,1000,True,1.0
./expes/v2_2020-12-06_dh_200-prng-1,30_issda_200,200,rng-200,181,rng,num-start-731,731,25726,16.151761054992676,True,,True,1,False,1000,True,1.0
./expes/v2_2020-12-06_dh_200-prng-1,30_issda_200,200,rng-200,61,rng,num-start-261,261,25726,6.2602620124816895,True,,True,1,False,1000,True,1.0
./expes/v2_2020-12-06_dh_200-prng-1,30_issda_200,200,rng-200,121,rng,num-start-281,281,25726,6.619377374649048,True,,True,1,False,1000,True,1.0
./expes/v2_2020-12-06_dh_200-prng-1,30_issda_200,200,rng-200,1,rng,num-start-611,611,25726,12.559802532196045,True,,True,1,False,1000,True,1.0
./expes/v2_2020-12-06_dh_200-prng-1,30_issda_200,200,rng-200,161,rng,num-start-331,331,25726,7.145267963409424,True,,True,1,False,1000,True,1.0
./expes/v2_2020-12-06_dh_200-prng-1,30_issda_200,200,rng-200,31,rng,num-start-271,271,25726,6.112363815307617,True,,True,1,False,1000,True,1.0
./expes/v2_2020-12-06_dh_200-prng-1,30_issda_200,200,rng-200,51,rng,num-start-401,401,25726,9.52183198928833,True,,True,1,False,1000,True,1.0
./expes/v2_2020-12-06_dh_200-prng-1,30_issda_200,200,rng-200,11,rng,num-start-221,221,25726,5.115102052688599,True,,True,1,False,1000,True,1.0
./expes/v2_2020-12-06_dh_200-prng-1,30_issda_200,200,rng-200,171,rng,num-start-221,221,25726,5.1843531131744385,True,,True,1,False,1000,True,1.0
./expes/v2_2020-12-06_dh_200-prng-1,30_issda_200,200,rng-200,161,rng,num-start-81,81,25726,2.2025859355926514,True,,True,1,False,1000,True,1.0
./expes/v2_2020-12-06_dh_200-prng-1,30_issda_200,200,rng-200,1,rng,num-start-331,331,25726,6.777044773101807,True,,True,1,False,1000,True,1.0
./expes/v2_2020-12-06_dh_200-prng-1,30_issda_200,200,rng-200,151,rng,num-start-561,561,25726,12.561283111572266,True,,True,1,False,1000,True,1.0
./expes/v2_2020-12-06_dh_200-prng-1,30_issda_200,200,rng-200,91,rng,num-start-381,381,25726,8.755982160568237,True,,True,1,False,1000,True,1.0
./expes/v2_2020-12-06_dh_200-prng-1,30_issda_200,200,rng-200,141,rng,num-start-491,491,25726,11.103521823883057,True,,True,1,False,1000,True,1.0
./expes/v2_2020-12-06_dh_200-prng-1,30_issda_200,200,rng-200,171,rng,num-start-961,961,25726,21.50298762321472,True,,True,1,False,1000,True,1.0
./expes/v2_2020-12-06_dh_200-prng-1,30_issda_200,200,rng-200,111,rng,num-start-341,341,25726,8.237105131149292,True,,True,1,False,1000,True,1.0
./expes/v2_2020-12-06_dh_200-prng-1,30_issda_200,200,rng-200,81,rng,num-start-301,301,25726,7.398283958435059,True,,True,1,False,1000,True,1.0
./expes/v2_2020-12-06_dh_200-prng-1,30_issda_200,200,rng-200,171,rng,num-start-901,901,25726,19.82796835899353,True,,True,1,False,1000,True,1.0
./expes/v2_2020-12-06_dh_200-prng-1,30_issda_200,200,rng-200,161,rng,num-start-621,621,25726,13.608351469039917,True,,True,1,False,1000,True,1.0
./expes/v2_2020-12-06_dh_200-prng-1,30_issda_200,200,rng-200,51,rng,num-start-901,901,25726,20.424266815185547,True,,True,1,False,1000,True,1.0
./expes/v2_2020-12-06_dh_200-prng-1,30_issda_200,200,rng-200,191,rng,num-start-121,121,25726,5.901620388031006,True,,True,1,False,1000,True,1.0
./expes/v2_2020-12-06_dh_200-prng-1,30_issda_200,200,rng-200,171,rng,num-start-61,61,25726,1.691894292831421,True,,True,1,False,1000,True,1.0
./expes/v2_2020-12-06_dh_200-prng-1,30_issda_200,200,rng-200,191,rng,num-start-751,751,25726,15.392903566360474,True,,True,1,False,1000,True,1.0
./expes/v2_2020-12-06_dh_200-prng-1,30_issda_200,200,rng-200,181,rng,num-start-941,941,25726,22.070921182632446,True,,True,1,False,1000,True,1.0
./expes/v2_2020-12-06_dh_200-prng-1,30_issda_200,200,rng-200,1,rng,num-start-431,431,25726,8.920638084411621,True,,True,1,False,1000,True,1.0
./expes/v2_2020-12-06_dh_200-prng-1,30_issda_200,200,rng-200,111,rng,num-start-721,721,25726,15.899340152740479,True,,True,1,False,1000,True,1.0
./expes/v2_2020-12-06_dh_200-prng-1,30_issda_200,200,rng-200,91,rng,num-start-101,101,25726,2.879655361175537,True,,True,1,False,1000,True,1.0
./expes/v2_2020-12-06_dh_200-prng-1,30_issda_200,200,rng-200,151,rng,num-start-921,921,25726,21.606823205947876,True,,True,1,False,1000,True,1.0
./expes/v2_2020-12-06_dh_200-prng-1,30_issda_200,200,rng-200,151,rng,num-start-761,761,25726,18.422621965408325,True,,True,1,False,1000,True,1.0
./expes/v2_2020-12-06_dh_200-prng-1,30_issda_200,200,rng-200,151,rng,num-start-241,241,25726,5.955404758453369,True,,True,1,False,1000,True,1.0
./expes/v2_2020-12-06_dh_200-prng-1,30_issda_200,200,rng-200,51,rng,num-start-941,941,25726,24.29878044128418,True,,True,1,False,1000,True,1.0
./expes/v2_2020-12-06_dh_200-prng-1,30_issda_200,200,rng-200,131,rng,num-start-451,451,25726,10.587328433990479,True,,True,1,False,1000,True,1.0
./expes/v2_2020-12-06_dh_200-prng-1,30_issda_200,200,rng-200,21,rng,num-start-171,171,25726,4.688443899154663,True,,True,1,False,1000,True,1.0
./expes/v2_2020-12-06_dh_200-prng-1,30_issda_200,200,rng-200,91,rng,num-start-901,901,25726,21.350168466567993,True,,True,1,False,1000,True,1.0
./expes/v2_2020-12-06_dh_200-prng-1,30_issda_200,200,rng-200,171,rng,num-start-831,831,25726,19.465178728103638,True,,True,1,False,1000,True,1.0
./expes/v2_2020-12-06_dh_200-prng-1,30_issda_200,200,rng-200,31,rng,num-start-631,631,25726,14.657379865646362,True,,True,1,False,1000,True,1.0
./expes/v2_2020-12-06_dh_200-prng-1,30_issda_200,200,rng-200,61,rng,num-start-361,361,25726,8.936115741729736,True,,True,1,False,1000,True,1.0
./expes/v2_2020-12-06_dh_200-prng-1,30_issda_200,200,rng-200,91,rng,num-start-461,461,25726,11.502580404281616,True,,True,1,False,1000,True,1.0
./expes/v2_2020-12-06_dh_200-prng-1,30_issda_200,200,rng-200,141,rng,num-start-431,431,25726,10.221240758895874,True,,True,1,False,1000,True,1.0
./expes/v2_2020-12-06_dh_200-prng-1,30_issda_200,200,rng-200,171,rng,num-start-31,31,25726,1016.8441226482391,False,,False,0,True,1000,True,0.0
./expes/v2_2020-12-06_dh_200-prng-1,30_issda_200,200,rng-200,41,rng,num-start-281,281,25726,7.194653511047363,True,,True,1,False,1000,True,1.0
./expes/v2_2020-12-06_dh_200-prng-1,30_issda_200,200,rng-200,71,rng,num-start-701,701,25726,16.696452617645264,True,,True,1,False,1000,True,1.0
./expes/v2_2020-12-06_dh_200-prng-1,30_issda_200,200,rng-200,121,rng,num-start-501,501,25726,12.020374774932861,True,,True,1,False,1000,True,1.0
./expes/v2_2020-12-06_dh_200-prng-1,30_issda_200,200,rng-200,31,rng,num-start-11,11,25726,1000.3028945922852,False,,False,0,True,1000,True,0.0
./expes/v2_2020-12-06_dh_200-prng-1,30_issda_200,200,rng-200,121,rng,num-start-901,901,25726,22.910304307937622,True,,True,1,False,1000,True,1.0
./expes/v2_2020-12-06_dh_200-prng-1,30_issda_200,200,rng-200,71,rng,num-start-831,831,25726,20.29652452468872,True,,True,1,False,1000,True,1.0
./expes/v2_2020-12-06_dh_200-prng-1,30_issda_200,200,rng-200,71,rng,num-start-821,821,25726,19.743762016296387,True,,True,1,False,1000,True,1.0
./expes/v2_2020-12-06_dh_200-prng-1,30_issda_200,200,rng-200,11,rng,num-start-621,621,25726,14.792954444885254,True,,True,1,False,1000,True,1.0
./expes/v2_2020-12-06_dh_200-prng-1,30_issda_200,200,rng-200,141,rng,num-start-411,411,25726,9.599679946899414,True,,True,1,False,1000,True,1.0
./expes/v2_2020-12-06_dh_200-prng-1,30_issda_200,200,rng-200,51,rng,num-start-391,391,25726,10.177217245101929,True,,True,1,False,1000,True,1.0
./expes/v2_2020-12-06_dh_200-prng-1,30_issda_200,200,rng-200,1,rng,num-start-411,411,25726,8.771894693374634,True,,True,1,False,1000,True,1.0
./expes/v2_2020-12-06_dh_200-prng-1,30_issda_200,200,rng-200,21,rng,num-start-81,81,25726,1.9772241115570068,True,,True,1,False,1000,True,1.0
./expes/v2_2020-12-06_dh_200-prng-1,30_issda_200,200,rng-200,61,rng,num-start-441,441,25726,10.078742504119873,True,,True,1,False,1000,True,1.0
./expes/v2_2020-12-06_dh_200-prng-1,30_issda_200,200,rng-200,131,rng,num-start-841,841,25726,19.719512224197388,True,,True,1,False,1000,True,1.0
./expes/v2_2020-12-06_dh_200-prng-1,30_issda_200,200,rng-200,121,rng,num-start-851,851,25726,19.526965618133545,True,,True,1,False,1000,True,1.0
./expes/v2_2020-12-06_dh_200-prng-1,30_issda_200,200,rng-200,191,rng,num-start-671,671,25726,14.14527177810669,True,,True,1,False,1000,True,1.0
./expes/v2_2020-12-06_dh_200-prng-1,30_issda_200,200,rng-200,71,rng,num-start-881,881,25726,20.447361946105957,True,,True,1,False,1000,True,1.0
./expes/v2_2020-12-06_dh_200-prng-1,30_issda_200,200,rng-200,61,rng,num-start-141,141,25726,3.627293109893799,True,,True,1,False,1000,True,1.0
./expes/v2_2020-12-06_dh_200-prng-1,30_issda_200,200,rng-200,171,rng,num-start-501,501,25726,11.287065744400024,True,,True,1,False,1000,True,1.0
./expes/v2_2020-12-06_dh_200-prng-1,30_issda_200,200,rng-200,11,rng,num-start-941,941,25726,20.149717807769775,True,,True,1,False,1000,True,1.0
./expes/v2_2020-12-06_dh_200-prng-1,30_issda_200,200,rng-200,61,rng,num-start-641,641,25726,15.220078945159912,True,,True,1,False,1000,True,1.0
./expes/v2_2020-12-06_dh_200-prng-1,30_issda_200,200,rng-200,91,rng,num-start-961,961,25726,23.40130305290222,True,,True,1,False,1000,True,1.0
./expes/v2_2020-12-06_dh_200-prng-1,30_issda_200,200,rng-200,161,rng,num-start-981,981,25726,22.912391901016235,True,,True,1,False,1000,True,1.0
./expes/v2_2020-12-06_dh_200-prng-1,30_issda_200,200,rng-200,61,rng,num-start-581,581,25726,13.631929874420166,True,,True,1,False,1000,True,1.0
./expes/v2_2020-12-06_dh_200-prng-1,30_issda_200,200,rng-200,51,rng,num-start-451,451,25726,10.730660676956177,True,,True,1,False,1000,True,1.0
./expes/v2_2020-12-06_dh_200-prng-1,30_issda_200,200,rng-200,71,rng,num-start-371,371,25726,9.051875352859497,True,,True,1,False,1000,True,1.0
./expes/v2_2020-12-06_dh_200-prng-1,30_issda_200,200,rng-200,11,rng,num-start-671,671,25726,15.017172574996948,True,,True,1,False,1000,True,1.0
./expes/v2_2020-12-06_dh_200-prng-1,30_issda_200,200,rng-200,101,rng,num-start-461,461,25726,10.84833312034607,True,,True,1,False,1000,True,1.0
./expes/v2_2020-12-06_dh_200-prng-1,30_issda_200,200,rng-200,71,rng,num-start-71,71,25726,3.1636321544647217,True,,True,1,False,1000,True,1.0
./expes/v2_2020-12-06_dh_200-prng-1,30_issda_200,200,rng-200,51,rng,num-start-181,181,25726,4.547718286514282,True,,True,1,False,1000,True,1.0
./expes/v2_2020-12-06_dh_200-prng-1,30_issda_200,200,rng-200,171,rng,num-start-721,721,25726,17.18587613105774,True,,True,1,False,1000,True,1.0
./expes/v2_2020-12-06_dh_200-prng-1,30_issda_200,200,rng-200,71,rng,num-start-871,871,25726,22.078198194503784,True,,True,1,False,1000,True,1.0
./expes/v2_2020-12-06_dh_200-prng-1,30_issda_200,200,rng-200,111,rng,num-start-771,771,25726,18.3118634223938,True,,True,1,False,1000,True,1.0
./expes/v2_2020-12-06_dh_200-prng-1,30_issda_200,200,rng-200,141,rng,num-start-601,601,25726,14.569359540939331,True,,True,1,False,1000,True,1.0
./expes/v2_2020-12-06_dh_200-prng-1,30_issda_200,200,rng-200,121,rng,num-start-161,161,25726,4.344465255737305,True,,True,1,False,1000,True,1.0
./expes/v2_2020-12-06_dh_200-prng-1,30_issda_200,200,rng-200,1,rng,num-start-891,891,25726,19.170755863189697,True,,True,1,False,1000,True,1.0
./expes/v2_2020-12-06_dh_200-prng-1,30_issda_200,200,rng-200,191,rng,num-start-421,421,25726,9.971802949905396,True,,True,1,False,1000,True,1.0
./expes/v2_2020-12-06_dh_200-prng-1,30_issda_200,200,rng-200,61,rng,num-start-281,281,25726,6.941792964935303,True,,True,1,False,1000,True,1.0
./expes/v2_2020-12-06_dh_200-prng-1,30_issda_200,200,rng-200,121,rng,num-start-21,21,25726,1000.5507271289825,False,,False,0,True,1000,True,0.0
