expe,clients,clients_size,clients_subset,agg_size,method,days,days_size,days_total,time,valid,valid_sum,success,nsols,wall_hit,wall_time,pooled,valid_sums
./expes/v2_2020-11-29_di_1000-prng-1,daily_issda_1000,1000,rng-1000,351,rng,num-start-221,221,536,1015.872298002243,False,,False,0,True,1000,True,0.0
./expes/v2_2020-11-29_di_1000-prng-1,daily_issda_1000,1000,rng-1000,601,rng,num-start-51,51,536,1003.4421503543854,False,,False,0,True,1000,True,0.0
./expes/v2_2020-11-29_di_1000-prng-1,daily_issda_1000,1000,rng-1000,551,rng,num-start-251,251,536,1017.7396490573883,False,,False,0,True,1000,True,0.0
./expes/v2_2020-11-29_di_1000-prng-1,daily_issda_1000,1000,rng-1000,751,rng,num-start-251,251,536,1017.2136106491089,False,,False,0,True,1000,True,0.0
./expes/v2_2020-11-29_di_1000-prng-1,daily_issda_1000,1000,rng-1000,151,rng,num-start-261,261,536,1018.5101408958435,False,,False,0,True,1000,True,0.0
./expes/v2_2020-11-29_di_1000-prng-1,daily_issda_1000,1000,rng-1000,951,rng,num-start-51,51,536,1003.4909431934357,False,,False,0,True,1000,True,0.0
./expes/v2_2020-11-29_di_1000-prng-1,daily_issda_1000,1000,rng-1000,601,rng,num-start-271,271,536,1019.7727470397949,False,,False,0,True,1000,True,0.0
./expes/v2_2020-11-29_di_1000-prng-1,daily_issda_1000,1000,rng-1000,401,rng,num-start-111,111,536,1008.162801027298,False,,False,0,True,1000,True,0.0
./expes/v2_2020-11-29_di_1000-prng-1,daily_issda_1000,1000,rng-1000,651,rng,num-start-191,191,536,1017.3485305309296,False,,False,0,True,1000,True,0.0
./expes/v2_2020-11-29_di_1000-prng-1,daily_issda_1000,1000,rng-1000,201,rng,num-start-141,141,536,1009.4977791309357,False,,False,0,True,1000,True,0.0
./expes/v2_2020-11-29_di_1000-prng-1,daily_issda_1000,1000,rng-1000,751,rng,num-start-221,221,536,1015.4165141582489,False,,False,0,True,1000,True,0.0
./expes/v2_2020-11-29_di_1000-prng-1,daily_issda_1000,1000,rng-1000,701,rng,num-start-151,151,536,1010.2219038009644,False,,False,0,True,1000,True,0.0
./expes/v2_2020-11-29_di_1000-prng-1,daily_issda_1000,1000,rng-1000,851,rng,num-start-271,271,536,425.9989905357361,True,,True,1,False,1000,True,1.0
./expes/v2_2020-11-29_di_1000-prng-1,daily_issda_1000,1000,rng-1000,651,rng,num-start-261,261,536,1017.4604940414429,False,,False,0,True,1000,True,0.0
./expes/v2_2020-11-29_di_1000-prng-1,daily_issda_1000,1000,rng-1000,251,rng,num-start-1,1,536,2.4297821521759033,False,,False,2,False,1000,True,1.0
./expes/v2_2020-11-29_di_1000-prng-1,daily_issda_1000,1000,rng-1000,751,rng,num-start-181,181,536,1012.7788672447205,False,,False,0,True,1000,True,0.0
./expes/v2_2020-11-29_di_1000-prng-1,daily_issda_1000,1000,rng-1000,251,rng,num-start-21,21,536,1001.5686028003693,False,,False,0,True,1000,True,0.0
./expes/v2_2020-11-29_di_1000-prng-1,daily_issda_1000,1000,rng-1000,851,rng,num-start-211,211,536,1015.2641842365265,False,,False,0,True,1000,True,0.0
./expes/v2_2020-11-29_di_1000-prng-1,daily_issda_1000,1000,rng-1000,751,rng,num-start-151,151,536,1010.0231459140778,False,,False,0,True,1000,True,0.0
./expes/v2_2020-11-29_di_1000-prng-1,daily_issda_1000,1000,rng-1000,851,rng,num-start-181,181,536,1012.4357304573059,False,,False,0,True,1000,True,0.0
./expes/v2_2020-11-29_di_1000-prng-1,daily_issda_1000,1000,rng-1000,251,rng,num-start-231,231,536,1016.8240098953247,False,,False,0,True,1000,True,0.0
./expes/v2_2020-11-29_di_1000-prng-1,daily_issda_1000,1000,rng-1000,101,rng,num-start-121,121,536,1008.1746649742126,False,,False,0,True,1000,True,0.0
./expes/v2_2020-11-29_di_1000-prng-1,daily_issda_1000,1000,rng-1000,951,rng,num-start-181,181,536,21.39492630958557,True,,True,1,False,1000,True,1.0
./expes/v2_2020-11-29_di_1000-prng-1,daily_issda_1000,1000,rng-1000,201,rng,num-start-21,21,536,1001.580858707428,False,,False,0,True,1000,True,0.0
./expes/v2_2020-11-29_di_1000-prng-1,daily_issda_1000,1000,rng-1000,51,rng,num-start-261,261,536,33.24570083618164,True,,True,1,False,1000,True,1.0
./expes/v2_2020-11-29_di_1000-prng-1,daily_issda_1000,1000,rng-1000,551,rng,num-start-91,91,536,1006.3369715213776,False,,False,0,True,1000,True,0.0
./expes/v2_2020-11-29_di_1000-prng-1,daily_issda_1000,1000,rng-1000,501,rng,num-start-241,241,536,1017.0300672054291,False,,False,0,True,1000,True,0.0
./expes/v2_2020-11-29_di_1000-prng-1,daily_issda_1000,1000,rng-1000,401,rng,num-start-251,251,536,1017.4268724918365,False,,False,0,True,1000,True,0.0
./expes/v2_2020-11-29_di_1000-prng-1,daily_issda_1000,1000,rng-1000,101,rng,num-start-191,191,536,1012.195769071579,False,,False,0,True,1000,True,0.0
./expes/v2_2020-11-29_di_1000-prng-1,daily_issda_1000,1000,rng-1000,401,rng,num-start-21,21,536,1001.5277454853058,False,,False,0,True,1000,True,0.0
./expes/v2_2020-11-29_di_1000-prng-1,daily_issda_1000,1000,rng-1000,651,rng,num-start-81,81,536,1005.7662410736084,False,,False,0,True,1000,True,0.0
./expes/v2_2020-11-29_di_1000-prng-1,daily_issda_1000,1000,rng-1000,901,rng,num-start-291,291,536,40.61920499801636,True,,True,1,False,1000,True,1.0
./expes/v2_2020-11-29_di_1000-prng-1,daily_issda_1000,1000,rng-1000,801,rng,num-start-41,41,536,1002.8702962398529,False,,False,0,True,1000,True,0.0
./expes/v2_2020-11-29_di_1000-prng-1,daily_issda_1000,1000,rng-1000,301,rng,num-start-241,241,536,1016.3745212554932,False,,False,0,True,1000,True,0.0
./expes/v2_2020-11-29_di_1000-prng-1,daily_issda_1000,1000,rng-1000,951,rng,num-start-1,1,536,9.902276039123535,False,,False,2,False,1000,True,1.0
./expes/v2_2020-11-29_di_1000-prng-1,daily_issda_1000,1000,rng-1000,301,rng,num-start-151,151,536,1009.8441619873047,False,,False,0,True,1000,True,0.0
./expes/v2_2020-11-29_di_1000-prng-1,daily_issda_1000,1000,rng-1000,551,rng,num-start-251,251,536,1016.468581199646,False,,False,0,True,1000,True,0.0
./expes/v2_2020-11-29_di_1000-prng-1,daily_issda_1000,1000,rng-1000,401,rng,num-start-91,91,536,1006.1716322898865,False,,False,0,True,1000,True,0.0
./expes/v2_2020-11-29_di_1000-prng-1,daily_issda_1000,1000,rng-1000,101,rng,num-start-101,101,536,1007.0249593257904,False,,False,0,True,1000,True,0.0
./expes/v2_2020-11-29_di_1000-prng-1,daily_issda_1000,1000,rng-1000,701,rng,num-start-251,251,536,1022.9326972961426,False,,False,0,True,1000,True,0.0
./expes/v2_2020-11-29_di_1000-prng-1,daily_issda_1000,1000,rng-1000,51,rng,num-start-121,121,536,145.18470764160156,True,,True,1,False,1000,True,1.0
./expes/v2_2020-11-29_di_1000-prng-1,daily_issda_1000,1000,rng-1000,401,rng,num-start-171,171,536,1011.9464039802551,False,,False,0,True,1000,True,0.0
./expes/v2_2020-11-29_di_1000-prng-1,daily_issda_1000,1000,rng-1000,151,rng,num-start-221,221,536,1014.0071883201599,False,,False,0,True,1000,True,0.0
./expes/v2_2020-11-29_di_1000-prng-1,daily_issda_1000,1000,rng-1000,401,rng,num-start-281,281,536,1020.0689010620117,False,,False,0,True,1000,True,0.0
./expes/v2_2020-11-29_di_1000-prng-1,daily_issda_1000,1000,rng-1000,401,rng,num-start-271,271,536,1019.041729927063,False,,False,0,True,1000,True,0.0
./expes/v2_2020-11-29_di_1000-prng-1,daily_issda_1000,1000,rng-1000,501,rng,num-start-101,101,536,1006.8610239028931,False,,False,0,True,1000,True,0.0
./expes/v2_2020-11-29_di_1000-prng-1,daily_issda_1000,1000,rng-1000,201,rng,num-start-111,111,536,1007.584255695343,False,,False,0,True,1000,True,0.0
./expes/v2_2020-11-29_di_1000-prng-1,daily_issda_1000,1000,rng-1000,401,rng,num-start-111,111,536,1006.9284670352936,False,,False,0,True,1000,True,0.0
./expes/v2_2020-11-29_di_1000-prng-1,daily_issda_1000,1000,rng-1000,51,rng,num-start-21,21,536,1001.7053418159485,False,,False,0,True,1000,True,0.0
./expes/v2_2020-11-29_di_1000-prng-1,daily_issda_1000,1000,rng-1000,201,rng,num-start-21,21,536,1001.4807646274567,False,,False,0,True,1000,True,0.0
./expes/v2_2020-11-29_di_1000-prng-1,daily_issda_1000,1000,rng-1000,401,rng,num-start-141,141,536,1009.2846961021423,False,,False,0,True,1000,True,0.0
./expes/v2_2020-11-29_di_1000-prng-1,daily_issda_1000,1000,rng-1000,201,rng,num-start-211,211,536,1014.7342472076416,False,,False,0,True,1000,True,0.0
./expes/v2_2020-11-29_di_1000-prng-1,daily_issda_1000,1000,rng-1000,751,rng,num-start-191,191,536,1013.2149477005005,False,,False,0,True,1000,True,0.0
./expes/v2_2020-11-29_di_1000-prng-1,daily_issda_1000,1000,rng-1000,51,rng,num-start-51,51,536,1003.51051902771,False,,False,0,True,1000,True,0.0
./expes/v2_2020-11-29_di_1000-prng-1,daily_issda_1000,1000,rng-1000,51,rng,num-start-231,231,536,123.98168468475342,True,,True,1,False,1000,True,1.0
./expes/v2_2020-11-29_di_1000-prng-1,daily_issda_1000,1000,rng-1000,751,rng,num-start-31,31,536,1002.2754089832306,False,,False,0,True,1000,True,0.0
./expes/v2_2020-11-29_di_1000-prng-1,daily_issda_1000,1000,rng-1000,801,rng,num-start-251,251,536,1017.5840249061584,False,,False,0,True,1000,True,0.0
./expes/v2_2020-11-29_di_1000-prng-1,daily_issda_1000,1000,rng-1000,701,rng,num-start-231,231,536,1015.6553435325623,False,,False,0,True,1000,True,0.0
./expes/v2_2020-11-29_di_1000-prng-1,daily_issda_1000,1000,rng-1000,201,rng,num-start-161,161,536,1010.9577655792236,False,,False,0,True,1000,True,0.0
./expes/v2_2020-11-29_di_1000-prng-1,daily_issda_1000,1000,rng-1000,351,rng,num-start-201,201,536,1013.8972518444061,False,,False,0,True,1000,True,0.0
./expes/v2_2020-11-29_di_1000-prng-1,daily_issda_1000,1000,rng-1000,451,rng,num-start-51,51,536,1003.4836058616638,False,,False,0,True,1000,True,0.0
./expes/v2_2020-11-29_di_1000-prng-1,daily_issda_1000,1000,rng-1000,51,rng,num-start-161,161,536,63.01692748069763,True,,True,1,False,1000,True,1.0
./expes/v2_2020-11-29_di_1000-prng-1,daily_issda_1000,1000,rng-1000,601,rng,num-start-61,61,536,1004.376683473587,False,,False,0,True,1000,True,0.0
./expes/v2_2020-11-29_di_1000-prng-1,daily_issda_1000,1000,rng-1000,151,rng,num-start-101,101,536,1006.7669112682343,False,,False,0,True,1000,True,0.0
./expes/v2_2020-11-29_di_1000-prng-1,daily_issda_1000,1000,rng-1000,751,rng,num-start-271,271,536,1019.6130146980286,False,,False,0,True,1000,True,0.0
./expes/v2_2020-11-29_di_1000-prng-1,daily_issda_1000,1000,rng-1000,551,rng,num-start-91,91,536,1006.5109996795654,False,,False,0,True,1000,True,0.0
./expes/v2_2020-11-29_di_1000-prng-1,daily_issda_1000,1000,rng-1000,951,rng,num-start-41,41,536,1002.8599886894226,False,,False,0,True,1000,True,0.0
./expes/v2_2020-11-29_di_1000-prng-1,daily_issda_1000,1000,rng-1000,101,rng,num-start-251,251,536,246.75602293014526,True,,True,1,False,1000,True,1.0
./expes/v2_2020-11-29_di_1000-prng-1,daily_issda_1000,1000,rng-1000,251,rng,num-start-1,1,536,6.362505197525024,False,,False,2,False,1000,True,1.0
./expes/v2_2020-11-29_di_1000-prng-1,daily_issda_1000,1000,rng-1000,651,rng,num-start-261,261,536,1018.4078631401062,False,,False,0,True,1000,True,0.0
./expes/v2_2020-11-29_di_1000-prng-1,daily_issda_1000,1000,rng-1000,101,rng,num-start-41,41,536,1002.9170613288879,False,,False,0,True,1000,True,0.0
./expes/v2_2020-11-29_di_1000-prng-1,daily_issda_1000,1000,rng-1000,201,rng,num-start-261,261,536,1017.7498188018799,False,,False,0,True,1000,True,0.0
./expes/v2_2020-11-29_di_1000-prng-1,daily_issda_1000,1000,rng-1000,951,rng,num-start-221,221,536,160.4225251674652,True,,True,1,False,1000,True,1.0
./expes/v2_2020-11-29_di_1000-prng-1,daily_issda_1000,1000,rng-1000,301,rng,num-start-131,131,536,1009.0402736663818,False,,False,0,True,1000,True,0.0
./expes/v2_2020-11-29_di_1000-prng-1,daily_issda_1000,1000,rng-1000,351,rng,num-start-221,221,536,1015.0479156970978,False,,False,0,True,1000,True,0.0
./expes/v2_2020-11-29_di_1000-prng-1,daily_issda_1000,1000,rng-1000,201,rng,num-start-281,281,536,1019.8838875293732,False,,False,0,True,1000,True,0.0
./expes/v2_2020-11-29_di_1000-prng-1,daily_issda_1000,1000,rng-1000,851,rng,num-start-181,181,536,1012.7278506755829,False,,False,0,True,1000,True,0.0
./expes/v2_2020-11-29_di_1000-prng-1,daily_issda_1000,1000,rng-1000,451,rng,num-start-201,201,536,1013.4301376342773,False,,False,0,True,1000,True,0.0
./expes/v2_2020-11-29_di_1000-prng-1,daily_issda_1000,1000,rng-1000,901,rng,num-start-111,111,536,1007.5509729385376,False,,False,0,True,1000,True,0.0
./expes/v2_2020-11-29_di_1000-prng-1,daily_issda_1000,1000,rng-1000,401,rng,num-start-41,41,536,1002.6997237205505,False,,False,0,True,1000,True,0.0
./expes/v2_2020-11-29_di_1000-prng-1,daily_issda_1000,1000,rng-1000,801,rng,num-start-261,261,536,1019.0918822288513,False,,False,0,True,1000,True,0.0
./expes/v2_2020-11-29_di_1000-prng-1,daily_issda_1000,1000,rng-1000,601,rng,num-start-241,241,536,1016.7447171211243,False,,False,0,True,1000,True,0.0
./expes/v2_2020-11-29_di_1000-prng-1,daily_issda_1000,1000,rng-1000,501,rng,num-start-41,41,536,1002.8894369602203,False,,False,0,True,1000,True,0.0
./expes/v2_2020-11-29_di_1000-prng-1,daily_issda_1000,1000,rng-1000,51,rng,num-start-101,101,536,1006.8610711097717,False,,False,0,True,1000,True,0.0
./expes/v2_2020-11-29_di_1000-prng-1,daily_issda_1000,1000,rng-1000,851,rng,num-start-101,101,536,1007.2818124294281,False,,False,0,True,1000,True,0.0
./expes/v2_2020-11-29_di_1000-prng-1,daily_issda_1000,1000,rng-1000,251,rng,num-start-231,231,536,1016.2967150211334,False,,False,0,True,1000,True,0.0
./expes/v2_2020-11-29_di_1000-prng-1,daily_issda_1000,1000,rng-1000,851,rng,num-start-11,11,536,1000.7953033447266,False,,False,0,True,1000,True,0.0
./expes/v2_2020-11-29_di_1000-prng-1,daily_issda_1000,1000,rng-1000,151,rng,num-start-21,21,536,1001.5744636058807,False,,False,0,True,1000,True,0.0
./expes/v2_2020-11-29_di_1000-prng-1,daily_issda_1000,1000,rng-1000,201,rng,num-start-61,61,536,1004.3297243118286,False,,False,0,True,1000,True,0.0
./expes/v2_2020-11-29_di_1000-prng-1,daily_issda_1000,1000,rng-1000,201,rng,num-start-81,81,536,1005.5281889438629,False,,False,0,True,1000,True,0.0
./expes/v2_2020-11-29_di_1000-prng-1,daily_issda_1000,1000,rng-1000,301,rng,num-start-281,281,536,1019.7018597126007,False,,False,0,True,1000,True,0.0
./expes/v2_2020-11-29_di_1000-prng-1,daily_issda_1000,1000,rng-1000,751,rng,num-start-171,171,536,1011.7262279987335,False,,False,0,True,1000,True,0.0
./expes/v2_2020-11-29_di_1000-prng-1,daily_issda_1000,1000,rng-1000,601,rng,num-start-191,191,536,1013.3475985527039,False,,False,0,True,1000,True,0.0
./expes/v2_2020-11-29_di_1000-prng-1,daily_issda_1000,1000,rng-1000,1,rng,num-start-261,261,536,17.71324849128723,True,,True,1,False,1000,True,1.0
./expes/v2_2020-11-29_di_1000-prng-1,daily_issda_1000,1000,rng-1000,451,rng,num-start-161,161,536,1011.1071701049805,False,,False,0,True,1000,True,0.0
./expes/v2_2020-11-29_di_1000-prng-1,daily_issda_1000,1000,rng-1000,101,rng,num-start-181,181,536,1012.4966218471527,False,,False,0,True,1000,True,0.0
./expes/v2_2020-11-29_di_1000-prng-1,daily_issda_1000,1000,rng-1000,451,rng,num-start-231,231,536,1016.4650733470917,False,,False,0,True,1000,True,0.0
