expe,clients,clients_size,clients_subset,agg_size,agg_size_pc,method,days,days_size,days_total,noise_method,time,valid,valid_sum,success,score_avg,score_min,score_max,nsols,oracle,wall_hit,wall_time,pooled,pool_size,uuid,infeasible,optimal,valid_sums
./expes/v2_2021-03-23_issda-30_2000-prng-1-w2-p2,30_issda-2000,2000,first-2000,400,20,rng,num-start-200,200,25726,classic,2025.4163978099823,False,,False,0,,,0,"['1', '3', '4', '5', '7', '26', '28', '29', '30', '31', '34', '45', '47', '55', '65', '68', '75', '80', '81', '83', '93', '94', '96', '103', '119', '126', '128', '129', '131', '142', '144', '148', '152', '162', '165', '166', '169', '171', '184', '187', '188', '192', '195', '201', '203', '206', '207', '208', '224', '237', '238', '240', '241', '244', '246', '254', '255', '256', '267', '268', '272', '277', '286', '287', '292', '300', '301', '307', '315', '323', '325', '328', '332', '340', '347', '350', '359', '370', '374', '377', '379', '383', '386', '387', '388', '390', '391', '392', '394', '399', '407', '409', '417', '419', '432', '438', '441', '448', '449', '452', '453', '455', '457', '483', '489', '491', '492', '496', '498', '500', '514', '531', '533', '534', '556', '564', '565', '574', '576', '578', '590', '595', '597', '617', '618', '620', '622', '636', '638', '640', '648', '650', '656', '665', '667', '668', '677', '682', '683', '685', '687', '688', '702', '718', '722', '725', '732', '734', '735', '736', '759', '762', '776', '789', '795', '796', '802', '817', '823', '824', '830', '840', '849', '851', '856', '857', '859', '862', '872', '873', '890', '894', '906', '907', '912', '913', '915', '918', '923', '938', '957', '964', '966', '967', '975', '976', '977', '982', '987', '996', '997', '998', '1003', '1009', '1011', '1013', '1032', '1034', '1041', '1042', '1048', '1068', '1069', '1075', '1081', '1083', '1085', '1091', '1095', '1107', '1108', '1113', '1115', '1121', '1122', '1124', '1129', '1132', '1147', '1149', '1150', '1163', '1164', '1166', '1167', '1176', '1179', '1180', '1188', '1195', '1203', '1204', '1208', '1209', '1218', '1222', '1223', '1233', '1234', '1236', '1237', '1241', '1242', '1246', '1250', '1252', '1254', '1255', '1267', '1271', '1272', '1281', '1291', '1297', '1298', '1299', '1301', '1306', '1312', '1314', '1325', '1330', '1333', '1345', '1347', '1353', '1357', '1364', '1369', '1378', '1380', '1384', '1385', '1390', '1391', '1392', '1394', '1396', '1400', '1401', '1411', '1415', '1429', '1431', '1433', '1435', '1437', '1438', '1442', '1445', '1448', '1453', '1455', '1466', '1470', '1471', '1474', '1486', '1490', '1495', '1496', '1499', '1514', '1519', '1533', '1546', '1548', '1552', '1553', '1561', '1572', '1582', '1604', '1606', '1608', '1616', '1625', '1628', '1635', '1638', '1640', '1645', '1646', '1649', '1657', '1660', '1663', '1664', '1669', '1671', '1674', '1683', '1685', '1690', '1691', '1696', '1698', '1699', '1700', '1701', '1708', '1712', '1716', '1717', '1721', '1726', '1730', '1731', '1732', '1740', '1742', '1749', '1752', '1773', '1777', '1783', '1786', '1790', '1792', '1793', '1796', '1811', '1813', '1824', '1827', '1834', '1840', '1841', '1844', '1848', '1853', '1860', '1864', '1870', '1876', '1878', '1879', '1880', '1881', '1882', '1888', '1889', '1891', '1892', '1911', '1918', '1919', '1940', '1945', '1946', '1953', '1969', '1973', '1974', '1978', '1980', '1982', '1983', '1988', '1996']",True,2000,True,2,601a1d4c82,0.0,0.0,0.0
./expes/v2_2021-03-23_issda-30_2000-prng-1-w2-p2,30_issda-2000,2000,first-2000,800,40,rng,num-start-1600,1600,25726,classic,1829.8092713356018,True,,True,1.0,1.0,1.0,1,"['4', '8', '13', '14', '16', '17', '18', '22', '23', '26', '27', '35', '36', '39', '40', '43', '45', '49', '50', '51', '53', '56', '58', '59', '61', '63', '64', '67', '71', '76', '78', '81', '82', '88', '90', '93', '95', '101', '104', '106', '107', '108', '109', '116', '117', '119', '121', '125', '128', '132', '138', '146', '147', '148', '149', '150', '151', '153', '160', '166', '169', '170', '172', '173', '175', '179', '186', '187', '191', '199', '201', '202', '208', '210', '211', '212', '218', '222', '223', '225', '231', '232', '234', '236', '238', '240', '242', '245', '250', '251', '253', '256', '258', '260', '265', '270', '272', '275', '276', '277', '279', '280', '282', '284', '289', '290', '291', '292', '293', '297', '298', '300', '301', '304', '308', '311', '318', '319', '320', '325', '330', '333', '335', '336', '344', '347', '348', '349', '351', '352', '354', '355', '361', '363', '365', '368', '369', '373', '375', '377', '380', '385', '387', '388', '390', '393', '395', '399', '401', '402', '403', '404', '405', '408', '409', '410', '411', '413', '419', '420', '421', '423', '424', '425', '428', '429', '431', '432', '433', '435', '439', '451', '452', '455', '458', '460', '463', '466', '467', '468', '469', '471', '473', '475', '478', '482', '489', '490', '492', '495', '496', '504', '507', '512', '513', '516', '517', '522', '523', '526', '529', '531', '532', '534', '536', '538', '540', '545', '546', '549', '550', '551', '555', '560', '561', '562', '566', '567', '568', '569', '570', '571', '572', '573', '574', '578', '579', '580', '584', '585', '587', '588', '594', '597', '599', '600', '601', '607', '608', '611', '614', '617', '626', '628', '630', '632', '635', '636', '637', '638', '639', '640', '641', '644', '648', '651', '658', '660', '661', '663', '669', '671', '673', '676', '677', '681', '687', '688', '689', '690', '691', '696', '697', '699', '700', '702', '704', '705', '710', '712', '714', '717', '718', '724', '725', '727', '728', '729', '730', '734', '735', '736', '737', '738', '740', '741', '742', '743', '744', '745', '746', '747', '748', '749', '751', '752', '753', '755', '761', '763', '767', '768', '775', '776', '778', '779', '781', '782', '787', '788', '789', '790', '796', '797', '800', '801', '803', '805', '807', '808', '810', '814', '818', '819', '820', '821', '825', '829', '831', '832', '834', '835', '837', '845', '848', '850', '851', '856', '858', '861', '862', '866', '867', '868', '869', '875', '879', '881', '884', '886', '888', '889', '892', '893', '898', '901', '902', '904', '909', '912', '919', '920', '928', '932', '934', '936', '939', '941', '942', '943', '944', '952', '954', '958', '962', '967', '972', '974', '976', '977', '978', '981', '985', '986', '989', '991', '994', '995', '997', '1000', '1003', '1004', '1005', '1007', '1008', '1009', '1012', '1013', '1021', '1024', '1025', '1026', '1027', '1028', '1029', '1030', '1032', '1033', '1035', '1039', '1043', '1048', '1049', '1052', '1053', '1056', '1057', '1058', '1059', '1063', '1065', '1066', '1067', '1068', '1070', '1071', '1074', '1077', '1078', '1080', '1081', '1083', '1084', '1088', '1092', '1094', '1095', '1096', '1098', '1099', '1101', '1102', '1105', '1108', '1109', '1110', '1113', '1115', '1119', '1120', '1123', '1124', '1125', '1126', '1127', '1130', '1135', '1137', '1138', '1141', '1143', '1144', '1147', '1151', '1154', '1156', '1157', '1164', '1166', '1168', '1169', '1174', '1181', '1183', '1189', '1190', '1202', '1203', '1206', '1208', '1209', '1215', '1217', '1221', '1226', '1227', '1230', '1232', '1234', '1235', '1243', '1244', '1245', '1247', '1248', '1252', '1255', '1262', '1264', '1265', '1266', '1268', '1269', '1271', '1272', '1273', '1275', '1276', '1279', '1280', '1285', '1286', '1289', '1295', '1296', '1299', '1302', '1305', '1307', '1310', '1312', '1313', '1316', '1318', '1320', '1327', '1331', '1332', '1335', '1338', '1340', '1344', '1347', '1349', '1351', '1354', '1355', '1356', '1357', '1359', '1360', '1365', '1367', '1369', '1370', '1371', '1372', '1376', '1377', '1380', '1384', '1388', '1389', '1390', '1391', '1392', '1395', '1396', '1398', '1400', '1402', '1403', '1404', '1405', '1407', '1409', '1410', '1411', '1412', '1414', '1415', '1419', '1422', '1425', '1426', '1428', '1430', '1432', '1435', '1436', '1444', '1446', '1455', '1463', '1465', '1466', '1467', '1473', '1477', '1487', '1488', '1498', '1500', '1504', '1505', '1507', '1510', '1514', '1520', '1523', '1526', '1530', '1533', '1534', '1538', '1540', '1543', '1544', '1548', '1550', '1551', '1552', '1556', '1558', '1560', '1561', '1565', '1567', '1568', '1570', '1575', '1579', '1581', '1582', '1585', '1588', '1592', '1596', '1606', '1607', '1609', '1611', '1613', '1616', '1617', '1618', '1621', '1622', '1623', '1625', '1629', '1631', '1632', '1634', '1635', '1638', '1639', '1640', '1641', '1642', '1646', '1651', '1654', '1655', '1657', '1659', '1660', '1662', '1665', '1669', '1671', '1677', '1678', '1679', '1681', '1682', '1685', '1688', '1690', '1692', '1693', '1701', '1702', '1704', '1705', '1707', '1710', '1711', '1712', '1714', '1716', '1718', '1719', '1722', '1723', '1724', '1726', '1727', '1728', '1729', '1731', '1732', '1734', '1735', '1739', '1740', '1747', '1751', '1753', '1758', '1760', '1761', '1762', '1763', '1766', '1767', '1771', '1773', '1774', '1779', '1781', '1788', '1789', '1802', '1806', '1807', '1812', '1814', '1816', '1818', '1822', '1824', '1829', '1832', '1835', '1836', '1838', '1839', '1845', '1846', '1849', '1850', '1851', '1856', '1857', '1858', '1863', '1865', '1866', '1868', '1874', '1875', '1877', '1878', '1882', '1885', '1892', '1893', '1895', '1897', '1899', '1900', '1908', '1909', '1911', '1912', '1913', '1915', '1918', '1920', '1921', '1925', '1926', '1928', '1933', '1934', '1939', '1941', '1945', '1951', '1952', '1955', '1958', '1959', '1960', '1964', '1965', '1968', '1971', '1972', '1975', '1978', '1979', '1981', '1982', '1989', '1990', '1992', '1999', '2000']",False,2000,True,2,63febca6a2,0.0,1.0,1.0
./expes/v2_2021-03-23_issda-30_2000-prng-1-w2-p2,30_issda-2000,2000,first-2000,600,30,rng,num-start-800,800,25726,classic,2103.842768907547,False,,False,0,,,0,"['1', '2', '4', '10', '16', '21', '22', '31', '32', '36', '40', '41', '43', '49', '52', '53', '57', '58', '60', '63', '65', '72', '82', '83', '88', '92', '95', '98', '103', '105', '106', '112', '114', '122', '123', '127', '128', '133', '137', '140', '141', '143', '144', '149', '153', '154', '158', '166', '167', '171', '184', '185', '186', '191', '194', '195', '196', '199', '201', '203', '210', '212', '214', '218', '219', '220', '227', '229', '230', '231', '232', '234', '235', '236', '243', '244', '245', '247', '249', '250', '252', '253', '258', '264', '267', '270', '273', '274', '277', '281', '289', '294', '300', '301', '307', '314', '316', '325', '330', '332', '338', '339', '345', '349', '350', '352', '353', '358', '360', '364', '366', '372', '374', '377', '387', '388', '389', '395', '397', '400', '403', '405', '407', '408', '409', '411', '415', '416', '419', '420', '421', '426', '429', '434', '438', '443', '444', '447', '455', '456', '458', '461', '463', '464', '468', '469', '472', '473', '480', '483', '484', '496', '498', '500', '501', '502', '505', '506', '507', '509', '510', '513', '516', '517', '519', '522', '523', '524', '525', '526', '530', '534', '539', '540', '542', '545', '547', '555', '556', '558', '560', '562', '564', '571', '575', '576', '577', '578', '579', '580', '597', '601', '606', '607', '608', '616', '617', '620', '621', '625', '626', '629', '634', '637', '640', '644', '647', '650', '652', '661', '680', '683', '684', '687', '691', '694', '696', '697', '703', '709', '712', '714', '718', '720', '722', '724', '726', '729', '734', '739', '740', '745', '746', '748', '749', '751', '754', '755', '756', '764', '771', '772', '777', '780', '783', '784', '787', '788', '791', '792', '795', '805', '807', '808', '813', '815', '825', '827', '831', '833', '844', '856', '858', '864', '866', '867', '869', '871', '873', '874', '880', '886', '893', '896', '898', '899', '904', '905', '907', '912', '913', '917', '921', '922', '925', '927', '929', '932', '933', '942', '944', '956', '960', '961', '962', '963', '965', '969', '972', '974', '975', '977', '984', '987', '992', '993', '994', '996', '997', '998', '1000', '1002', '1005', '1015', '1020', '1025', '1026', '1035', '1038', '1039', '1041', '1048', '1049', '1053', '1058', '1065', '1068', '1069', '1073', '1077', '1080', '1082', '1086', '1092', '1094', '1095', '1096', '1098', '1103', '1107', '1109', '1110', '1111', '1113', '1116', '1117', '1119', '1124', '1130', '1134', '1138', '1140', '1142', '1143', '1144', '1147', '1150', '1161', '1166', '1167', '1171', '1182', '1184', '1186', '1192', '1195', '1197', '1201', '1205', '1206', '1207', '1211', '1216', '1218', '1219', '1220', '1221', '1232', '1234', '1237', '1240', '1245', '1249', '1255', '1261', '1262', '1279', '1281', '1283', '1285', '1287', '1294', '1296', '1298', '1301', '1304', '1306', '1313', '1315', '1318', '1321', '1322', '1323', '1324', '1325', '1327', '1331', '1335', '1336', '1339', '1345', '1346', '1349', '1351', '1356', '1360', '1363', '1365', '1369', '1374', '1377', '1379', '1383', '1386', '1393', '1394', '1395', '1396', '1398', '1402', '1404', '1406', '1407', '1416', '1418', '1427', '1437', '1439', '1440', '1441', '1442', '1444', '1446', '1454', '1464', '1466', '1471', '1472', '1478', '1484', '1485', '1486', '1504', '1506', '1514', '1515', '1516', '1517', '1519', '1525', '1527', '1530', '1539', '1540', '1541', '1546', '1547', '1551', '1557', '1560', '1564', '1565', '1567', '1575', '1577', '1578', '1584', '1585', '1587', '1588', '1593', '1597', '1602', '1603', '1607', '1608', '1613', '1621', '1623', '1626', '1627', '1632', '1634', '1635', '1648', '1651', '1652', '1654', '1655', '1656', '1660', '1664', '1668', '1676', '1680', '1682', '1685', '1686', '1687', '1688', '1691', '1694', '1696', '1697', '1698', '1701', '1711', '1720', '1724', '1737', '1739', '1740', '1741', '1748', '1750', '1752', '1756', '1761', '1762', '1765', '1768', '1770', '1771', '1772', '1773', '1776', '1784', '1786', '1788', '1791', '1792', '1795', '1800', '1802', '1807', '1810', '1815', '1816', '1819', '1821', '1835', '1836', '1837', '1840', '1841', '1842', '1845', '1846', '1847', '1848', '1852', '1853', '1861', '1862', '1864', '1875', '1877', '1879', '1886', '1888', '1896', '1902', '1908', '1910', '1911', '1912', '1913', '1914', '1917', '1918', '1924', '1926', '1930', '1932', '1934', '1938', '1946', '1950', '1951', '1959', '1965', '1967', '1968', '1974', '1983', '1990', '1991', '1993', '1995', '2000']",True,2000,True,2,0499501fd8,0.0,0.0,0.0
./expes/v2_2021-03-23_issda-30_2000-prng-1-w2-p2,30_issda-2000,2000,first-2000,500,25,rng,num-start-800,800,25726,classic,2109.0881123542786,True,,False,1.0,1.0,1.0,1,"['5', '7', '8', '9', '11', '12', '20', '27', '30', '32', '45', '46', '56', '60', '62', '63', '66', '69', '71', '74', '79', '80', '84', '88', '89', '90', '94', '97', '101', '105', '107', '108', '110', '112', '114', '116', '126', '141', '142', '145', '146', '151', '159', '166', '174', '178', '184', '187', '190', '191', '193', '194', '205', '206', '211', '214', '220', '225', '230', '237', '241', '249', '257', '258', '259', '260', '263', '265', '267', '268', '269', '273', '274', '277', '281', '286', '291', '294', '300', '301', '302', '304', '306', '307', '309', '315', '318', '321', '322', '328', '329', '337', '342', '343', '362', '366', '367', '368', '374', '381', '384', '390', '391', '396', '398', '399', '400', '415', '416', '418', '425', '434', '438', '439', '441', '448', '452', '457', '461', '462', '463', '464', '465', '473', '480', '483', '487', '488', '489', '500', '501', '507', '509', '515', '519', '520', '526', '527', '528', '530', '531', '535', '536', '537', '538', '539', '541', '549', '551', '556', '565', '566', '574', '581', '589', '593', '595', '596', '601', '604', '605', '606', '608', '611', '614', '617', '618', '622', '628', '630', '631', '632', '637', '643', '648', '650', '655', '661', '680', '682', '684', '686', '697', '700', '703', '707', '709', '712', '719', '722', '729', '730', '736', '740', '746', '751', '755', '756', '760', '761', '762', '764', '768', '770', '771', '794', '796', '799', '806', '811', '813', '815', '831', '836', '839', '847', '853', '869', '870', '871', '872', '875', '877', '878', '879', '880', '881', '882', '884', '890', '891', '895', '901', '902', '903', '905', '909', '912', '919', '921', '922', '924', '941', '944', '945', '949', '950', '956', '963', '966', '972', '976', '981', '985', '988', '992', '997', '1006', '1017', '1018', '1020', '1026', '1027', '1033', '1045', '1048', '1059', '1065', '1066', '1068', '1070', '1071', '1074', '1075', '1078', '1079', '1082', '1087', '1089', '1090', '1092', '1093', '1094', '1096', '1098', '1100', '1113', '1117', '1118', '1120', '1121', '1126', '1127', '1136', '1138', '1140', '1147', '1156', '1158', '1168', '1170', '1171', '1174', '1175', '1183', '1185', '1190', '1195', '1199', '1205', '1207', '1210', '1211', '1213', '1218', '1219', '1222', '1224', '1229', '1236', '1241', '1246', '1247', '1250', '1252', '1257', '1265', '1269', '1271', '1275', '1285', '1289', '1292', '1298', '1308', '1309', '1313', '1315', '1318', '1322', '1330', '1332', '1334', '1336', '1338', '1339', '1342', '1346', '1365', '1366', '1367', '1372', '1374', '1381', '1387', '1395', '1396', '1401', '1402', '1404', '1416', '1424', '1430', '1432', '1435', '1436', '1437', '1438', '1442', '1445', '1460', '1463', '1467', '1468', '1472', '1473', '1477', '1481', '1485', '1488', '1489', '1491', '1493', '1500', '1502', '1504', '1506', '1508', '1513', '1515', '1517', '1526', '1527', '1533', '1538', '1547', '1553', '1557', '1561', '1564', '1570', '1583', '1585', '1592', '1608', '1611', '1613', '1626', '1627', '1635', '1636', '1641', '1643', '1645', '1646', '1651', '1653', '1657', '1659', '1664', '1674', '1679', '1682', '1683', '1687', '1688', '1689', '1691', '1693', '1696', '1703', '1707', '1709', '1710', '1713', '1716', '1717', '1720', '1733', '1739', '1740', '1741', '1745', '1749', '1765', '1766', '1769', '1775', '1777', '1778', '1779', '1781', '1785', '1795', '1797', '1813', '1815', '1816', '1817', '1820', '1822', '1823', '1827', '1829', '1833', '1839', '1840', '1845', '1847', '1848', '1851', '1855', '1857', '1858', '1863', '1865', '1866', '1869', '1873', '1881', '1886', '1887', '1897', '1909', '1911', '1916', '1920', '1922', '1931', '1945', '1949', '1951', '1954', '1963', '1965', '1970', '1982', '1987', '1989', '1990']",True,2000,True,2,c78b71f840,0.0,0.0,1.0
./expes/v2_2021-03-23_issda-30_2000-prng-1-w2-p2,30_issda-2000,2000,first-2000,900,45,rng,num-start-400,400,25726,classic,2051.609508752823,False,,False,0,,,0,"['2', '3', '4', '5', '7', '8', '9', '11', '12', '14', '17', '20', '24', '27', '28', '30', '32', '33', '35', '36', '37', '40', '42', '45', '46', '54', '56', '57', '58', '60', '62', '63', '66', '69', '71', '73', '74', '76', '79', '80', '84', '86', '88', '89', '90', '92', '94', '95', '96', '97', '101', '105', '107', '108', '110', '111', '112', '114', '116', '117', '123', '125', '126', '133', '135', '137', '138', '139', '140', '141', '142', '145', '146', '151', '153', '155', '159', '160', '163', '164', '165', '166', '167', '169', '174', '177', '178', '181', '183', '184', '187', '188', '190', '191', '193', '194', '199', '205', '206', '208', '211', '212', '214', '219', '220', '225', '229', '230', '232', '233', '237', '239', '241', '243', '245', '249', '251', '253', '256', '257', '258', '259', '260', '262', '263', '264', '265', '267', '268', '269', '271', '273', '274', '277', '281', '284', '286', '287', '288', '291', '293', '294', '299', '300', '301', '302', '303', '304', '305', '306', '307', '309', '310', '315', '316', '317', '318', '319', '321', '322', '326', '328', '329', '330', '337', '342', '343', '346', '347', '348', '357', '360', '361', '362', '363', '364', '365', '366', '367', '368', '374', '380', '381', '384', '386', '390', '391', '392', '394', '396', '397', '398', '399', '400', '405', '414', '415', '416', '417', '418', '420', '421', '422', '425', '426', '427', '429', '431', '434', '435', '438', '439', '441', '442', '446', '448', '450', '452', '455', '457', '461', '462', '463', '464', '465', '473', '474', '478', '480', '482', '483', '487', '488', '489', '491', '493', '494', '497', '500', '501', '502', '504', '507', '509', '510', '513', '515', '519', '520', '522', '526', '527', '528', '530', '531', '535', '536', '537', '538', '539', '541', '549', '551', '556', '559', '565', '566', '568', '574', '575', '577', '580', '581', '585', '588', '589', '593', '595', '596', '599', '601', '604', '605', '606', '608', '610', '611', '614', '615', '617', '618', '619', '622', '625', '626', '627', '628', '630', '631', '632', '633', '637', '642', '643', '648', '650', '655', '661', '665', '671', '673', '677', '680', '682', '684', '686', '693', '696', '697', '699', '700', '703', '707', '709', '712', '713', '715', '717', '719', '722', '729', '730', '731', '736', '740', '742', '745', '746', '748', '751', '755', '756', '760', '761', '762', '764', '768', '769', '770', '771', '772', '778', '781', '782', '787', '792', '794', '795', '796', '798', '799', '801', '806', '807', '811', '813', '815', '816', '819', '820', '822', '824', '826', '831', '833', '836', '839', '841', '847', '848', '849', '853', '855', '856', '861', '864', '866', '867', '869', '870', '871', '872', '874', '875', '876', '877', '878', '879', '880', '881', '882', '884', '886', '890', '891', '894', '895', '896', '901', '902', '903', '905', '906', '907', '909', '911', '912', '915', '917', '918', '919', '921', '922', '924', '925', '927', '929', '937', '940', '941', '944', '945', '947', '949', '950', '951', '954', '956', '958', '963', '966', '968', '970', '972', '975', '976', '979', '980', '981', '984', '985', '987', '988', '992', '996', '997', '998', '1002', '1003', '1004', '1006', '1008', '1009', '1010', '1012', '1016', '1017', '1018', '1020', '1022', '1023', '1026', '1027', '1032', '1033', '1034', '1042', '1045', '1048', '1050', '1052', '1059', '1063', '1065', '1066', '1067', '1068', '1070', '1071', '1072', '1074', '1075', '1078', '1079', '1080', '1082', '1087', '1088', '1089', '1090', '1091', '1092', '1093', '1094', '1096', '1098', '1099', '1100', '1102', '1113', '1117', '1118', '1120', '1121', '1126', '1127', '1130', '1133', '1135', '1136', '1137', '1138', '1140', '1143', '1144', '1147', '1148', '1150', '1154', '1156', '1158', '1159', '1163', '1167', '1168', '1170', '1171', '1172', '1174', '1175', '1176', '1179', '1183', '1184', '1185', '1186', '1187', '1188', '1189', '1190', '1195', '1199', '1202', '1205', '1207', '1210', '1211', '1213', '1217', '1218', '1219', '1220', '1222', '1224', '1227', '1228', '1229', '1230', '1233', '1236', '1237', '1241', '1246', '1247', '1250', '1252', '1254', '1257', '1262', '1265', '1267', '1268', '1269', '1271', '1272', '1275', '1280', '1285', '1287', '1288', '1289', '1291', '1292', '1295', '1298', '1304', '1308', '1309', '1310', '1313', '1314', '1315', '1318', '1322', '1330', '1332', '1334', '1336', '1338', '1339', '1342', '1344', '1346', '1351', '1357', '1361', '1365', '1366', '1367', '1370', '1372', '1374', '1375', '1377', '1381', '1387', '1388', '1395', '1396', '1400', '1401', '1402', '1404', '1408', '1413', '1416', '1418', '1424', '1425', '1427', '1428', '1429', '1430', '1432', '1435', '1436', '1437', '1438', '1439', '1442', '1443', '1445', '1447', '1452', '1454', '1456', '1457', '1460', '1461', '1463', '1464', '1465', '1466', '1467', '1468', '1469', '1472', '1473', '1474', '1475', '1476', '1477', '1479', '1480', '1481', '1482', '1483', '1485', '1488', '1489', '1491', '1493', '1497', '1500', '1502', '1504', '1506', '1508', '1510', '1513', '1515', '1516', '1517', '1520', '1523', '1525', '1526', '1527', '1529', '1530', '1533', '1536', '1537', '1538', '1539', '1540', '1542', '1545', '1547', '1553', '1557', '1561', '1564', '1565', '1566', '1567', '1569', '1570', '1572', '1576', '1577', '1578', '1579', '1580', '1583', '1585', '1587', '1588', '1589', '1592', '1594', '1595', '1596', '1599', '1601', '1602', '1604', '1607', '1608', '1611', '1613', '1618', '1622', '1626', '1627', '1633', '1634', '1635', '1636', '1638', '1641', '1642', '1643', '1645', '1646', '1648', '1649', '1651', '1653', '1656', '1657', '1659', '1664', '1668', '1669', '1671', '1674', '1675', '1677', '1679', '1680', '1682', '1683', '1687', '1688', '1689', '1691', '1693', '1696', '1698', '1703', '1707', '1709', '1710', '1713', '1716', '1717', '1719', '1720', '1721', '1723', '1732', '1733', '1738', '1739', '1740', '1741', '1745', '1746', '1748', '1749', '1753', '1757', '1760', '1765', '1766', '1769', '1773', '1775', '1777', '1778', '1779', '1781', '1783', '1785', '1790', '1792', '1795', '1797', '1800', '1801', '1808', '1810', '1813', '1815', '1816', '1817', '1818', '1820', '1822', '1823', '1825', '1827', '1829', '1832', '1833', '1834', '1839', '1840', '1842', '1845', '1847', '1848', '1851', '1855', '1857', '1858', '1861', '1863', '1865', '1866', '1867', '1868', '1869', '1870', '1873', '1874', '1876', '1881', '1885', '1886', '1887', '1897', '1901', '1909', '1911', '1912', '1916', '1917', '1920', '1921', '1922', '1931', '1932', '1945', '1946', '1947', '1949', '1951', '1954', '1958', '1960', '1962', '1963', '1964', '1965', '1969', '1970', '1972', '1974', '1977', '1982', '1983', '1985', '1987', '1989', '1990', '1991', '1993', '1996']",True,2000,True,2,899b93e328,0.0,0.0,0.0
