expe,clients,clients_size,clients_subset,agg_size,agg_size_pc,method,days,days_size,days_total,noise_method,time,valid,valid_sum,success,score_avg,score_min,score_max,nsols,oracle,wall_hit,wall_time,pooled,pool_size,uuid,infeasible,optimal,valid_sums
./expes/v2_2021-03-23_issda-30_2000-prng-1-w2-p2,30_issda-2000,2000,first-2000,400,20,rng,num-start-2200,2200,25726,classic,1838.7424433231354,True,,True,1.0,1.0,1.0,1,"['5', '6', '15', '18', '34', '35', '39', '45', '47', '51', '54', '55', '66', '69', '75', '81', '84', '89', '93', '96', '100', '102', '123', '127', '128', '131', '132', '137', '140', '145', '148', '149', '151', '155', '159', '172', '175', '177', '181', '187', '188', '192', '194', '195', '202', '204', '207', '208', '211', '212', '215', '219', '221', '230', '233', '234', '238', '246', '248', '249', '253', '258', '259', '263', '276', '279', '280', '282', '284', '286', '287', '304', '314', '317', '320', '325', '336', '340', '349', '351', '354', '359', '370', '376', '382', '384', '390', '392', '393', '404', '409', '413', '415', '416', '425', '429', '432', '453', '459', '461', '462', '464', '472', '477', '494', '496', '500', '502', '503', '509', '511', '512', '519', '530', '534', '535', '537', '539', '542', '549', '551', '556', '562', '563', '568', '572', '576', '582', '585', '586', '593', '594', '601', '602', '606', '613', '617', '623', '624', '627', '632', '633', '634', '637', '638', '650', '651', '663', '665', '667', '671', '676', '680', '682', '710', '712', '718', '725', '731', '742', '752', '756', '757', '772', '777', '788', '792', '796', '800', '803', '806', '812', '813', '819', '823', '827', '831', '833', '844', '847', '849', '855', '862', '867', '872', '875', '878', '879', '880', '881', '893', '895', '898', '899', '902', '910', '912', '917', '921', '922', '925', '926', '928', '931', '934', '938', '939', '943', '945', '949', '952', '955', '957', '960', '962', '963', '975', '978', '980', '983', '984', '996', '1002', '1004', '1011', '1012', '1025', '1029', '1030', '1034', '1036', '1043', '1048', '1051', '1054', '1066', '1067', '1073', '1077', '1083', '1084', '1094', '1110', '1111', '1115', '1117', '1118', '1121', '1136', '1137', '1141', '1145', '1152', '1166', '1167', '1169', '1181', '1184', '1186', '1195', '1198', '1204', '1206', '1208', '1211', '1216', '1217', '1219', '1222', '1226', '1246', '1249', '1256', '1259', '1265', '1271', '1272', '1283', '1299', '1303', '1305', '1313', '1323', '1329', '1330', '1337', '1339', '1345', '1349', '1351', '1355', '1360', '1367', '1368', '1381', '1385', '1387', '1388', '1396', '1398', '1401', '1406', '1408', '1410', '1423', '1426', '1445', '1454', '1465', '1467', '1468', '1470', '1475', '1485', '1491', '1497', '1498', '1503', '1507', '1512', '1513', '1514', '1519', '1528', '1540', '1541', '1548', '1550', '1568', '1584', '1586', '1587', '1588', '1607', '1608', '1609', '1614', '1622', '1629', '1642', '1645', '1646', '1647', '1648', '1655', '1661', '1689', '1692', '1704', '1708', '1710', '1712', '1724', '1729', '1740', '1741', '1747', '1748', '1753', '1762', '1774', '1779', '1786', '1790', '1799', '1800', '1801', '1809', '1812', '1824', '1834', '1836', '1838', '1856', '1874', '1885', '1896', '1903', '1905', '1907', '1911', '1916', '1917', '1924', '1937', '1938', '1946', '1954', '1957', '1959', '1960', '1963', '1970', '1973', '1977', '1981', '1983', '1987', '1989', '1993']",False,2000,True,2,4d092e39f5,0.0,1.0,1.0
./expes/v2_2021-03-23_issda-30_2000-prng-1-w2-p2,30_issda-2000,2000,first-2000,100,5,rng,num-start-1800,1800,25726,classic,801.5050234794617,True,,True,1.0,1.0,1.0,1,"['49', '57', '74', '116', '174', '188', '280', '325', '331', '337', '347', '356', '362', '364', '373', '435', '473', '484', '512', '516', '550', '572', '632', '653', '666', '725', '737', '740', '742', '746', '762', '779', '806', '819', '850', '868', '883', '912', '913', '945', '953', '1004', '1021', '1026', '1029', '1043', '1045', '1053', '1056', '1076', '1077', '1087', '1115', '1147', '1148', '1191', '1216', '1241', '1243', '1308', '1342', '1356', '1372', '1382', '1396', '1465', '1481', '1505', '1508', '1513', '1545', '1563', '1618', '1631', '1632', '1646', '1657', '1703', '1712', '1739', '1749', '1760', '1762', '1768', '1784', '1811', '1827', '1831', '1846', '1857', '1860', '1861', '1895', '1909', '1917', '1942', '1945', '1956', '1958', '1970']",False,2000,True,2,44fee0b764,0.0,1.0,1.0
./expes/v2_2021-03-23_issda-30_2000-prng-1-w2-p2,30_issda-2000,2000,first-2000,400,20,rng,num-start-1200,1200,25726,classic,2157.4602229595184,True,,False,1.0,1.0,1.0,1,"['5', '7', '8', '9', '11', '12', '30', '32', '60', '62', '63', '66', '69', '74', '79', '80', '84', '88', '89', '90', '94', '97', '101', '107', '108', '112', '126', '141', '142', '145', '146', '151', '159', '174', '178', '184', '187', '190', '194', '205', '220', '225', '230', '237', '241', '249', '258', '259', '260', '263', '265', '267', '268', '269', '277', '281', '286', '291', '300', '301', '302', '304', '306', '307', '309', '318', '321', '322', '328', '329', '337', '342', '343', '362', '368', '374', '381', '384', '390', '396', '399', '400', '415', '416', '418', '425', '434', '438', '439', '441', '448', '457', '461', '462', '464', '473', '480', '483', '487', '488', '489', '501', '507', '509', '515', '519', '520', '526', '530', '531', '535', '537', '538', '539', '541', '549', '551', '556', '565', '566', '574', '589', '593', '595', '596', '601', '604', '605', '606', '608', '611', '614', '617', '618', '622', '628', '631', '632', '637', '643', '650', '655', '661', '680', '682', '684', '686', '700', '703', '707', '709', '712', '719', '729', '730', '736', '740', '746', '751', '755', '760', '761', '762', '764', '768', '771', '794', '796', '799', '806', '811', '813', '815', '831', '836', '847', '853', '869', '870', '871', '872', '877', '879', '880', '881', '882', '884', '890', '891', '895', '901', '902', '903', '905', '909', '912', '919', '921', '922', '924', '941', '944', '950', '963', '966', '972', '981', '985', '997', '1006', '1017', '1020', '1027', '1059', '1065', '1066', '1070', '1071', '1074', '1078', '1079', '1082', '1089', '1090', '1092', '1093', '1094', '1096', '1098', '1113', '1117', '1118', '1121', '1126', '1127', '1136', '1138', '1140', '1147', '1156', '1158', '1168', '1175', '1183', '1190', '1195', '1199', '1205', '1211', '1213', '1218', '1219', '1224', '1229', '1236', '1241', '1247', '1252', '1257', '1265', '1271', '1275', '1285', '1289', '1292', '1298', '1308', '1309', '1313', '1318', '1322', '1334', '1336', '1339', '1342', '1346', '1365', '1366', '1372', '1374', '1381', '1387', '1396', '1401', '1402', '1404', '1416', '1424', '1430', '1432', '1436', '1437', '1438', '1442', '1445', '1463', '1467', '1468', '1472', '1473', '1481', '1489', '1491', '1493', '1502', '1504', '1508', '1513', '1515', '1526', '1533', '1547', '1553', '1557', '1561', '1564', '1583', '1585', '1608', '1611', '1613', '1626', '1627', '1635', '1636', '1641', '1643', '1645', '1646', '1651', '1653', '1657', '1659', '1664', '1679', '1683', '1687', '1688', '1689', '1691', '1693', '1696', '1707', '1709', '1710', '1713', '1716', '1717', '1720', '1733', '1739', '1740', '1741', '1745', '1749', '1765', '1769', '1775', '1777', '1778', '1779', '1781', '1785', '1795', '1797', '1815', '1816', '1817', '1820', '1822', '1823', '1829', '1833', '1839', '1840', '1845', '1847', '1848', '1857', '1863', '1865', '1869', '1881', '1886', '1887', '1909', '1911', '1916', '1920', '1922', '1931', '1945', '1949', '1951', '1954', '1970', '1982', '1987', '1989', '1990']",True,2000,True,2,5d0f4bdd87,0.0,0.0,1.0
./expes/v2_2021-03-23_issda-30_2000-prng-1-w2-p2,30_issda-2000,2000,first-2000,100,5,rng,num-start-2400,2400,25726,classic,1422.9999680519104,True,,True,1.0,1.0,1.0,1,"['77', '96', '99', '102', '119', '122', '123', '127', '129', '144', '149', '150', '168', '177', '186', '193', '200', '212', '242', '254', '273', '296', '309', '338', '369', '371', '385', '422', '440', '453', '458', '493', '500', '509', '590', '594', '614', '615', '632', '644', '664', '704', '741', '749', '763', '809', '813', '857', '859', '870', '876', '889', '920', '929', '954', '1014', '1017', '1040', '1049', '1076', '1089', '1098', '1108', '1122', '1129', '1141', '1148', '1156', '1159', '1170', '1177', '1182', '1192', '1194', '1200', '1248', '1268', '1285', '1292', '1309', '1334', '1394', '1397', '1432', '1459', '1494', '1551', '1592', '1598', '1627', '1672', '1682', '1694', '1759', '1793', '1864', '1892', '1941', '1942', '2000']",False,2000,True,2,ef9c15f110,0.0,1.0,1.0
./expes/v2_2021-03-23_issda-30_2000-prng-1-w2-p2,30_issda-2000,2000,first-2000,100,5,rng,num-start-800,800,25726,classic,409.11989164352417,True,,True,1.0,1.0,1.0,1,"['11', '37', '56', '104', '106', '120', '128', '132', '142', '168', '226', '240', '253', '282', '287', '291', '310', '358', '403', '431', '438', '490', '510', '517', '548', '570', '594', '622', '634', '651', '678', '689', '727', '737', '749', '763', '768', '787', '823', '831', '837', '840', '849', '860', '887', '971', '978', '1028', '1037', '1039', '1070', '1080', '1092', '1106', '1107', '1129', '1141', '1145', '1171', '1188', '1229', '1309', '1312', '1355', '1398', '1402', '1405', '1443', '1445', '1446', '1466', '1484', '1514', '1529', '1541', '1569', '1586', '1622', '1643', '1644', '1653', '1664', '1665', '1666', '1670', '1734', '1759', '1761', '1778', '1793', '1808', '1837', '1880', '1885', '1925', '1936', '1957', '1961', '1966', '1968']",False,2000,True,2,7e18fbba7c,0.0,1.0,1.0
./expes/v2_2021-03-23_issda-30_2000-prng-1-w2-p2,30_issda-2000,2000,first-2000,1000,50,rng,num-start-1800,1800,25726,classic,1947.8762512207031,True,,True,1.0,1.0,1.0,1,"['1', '2', '10', '11', '14', '20', '22', '23', '24', '25', '26', '28', '29', '30', '31', '32', '33', '34', '35', '37', '40', '41', '44', '46', '47', '48', '50', '51', '56', '57', '59', '61', '62', '65', '69', '72', '73', '74', '75', '77', '78', '80', '81', '84', '85', '86', '87', '88', '91', '92', '93', '94', '96', '97', '98', '102', '103', '104', '107', '108', '109', '119', '120', '122', '123', '124', '125', '127', '130', '132', '135', '137', '138', '141', '142', '144', '145', '148', '149', '150', '151', '152', '153', '154', '155', '156', '157', '158', '159', '160', '161', '165', '168', '170', '171', '172', '173', '174', '175', '177', '178', '179', '180', '181', '184', '185', '186', '189', '191', '193', '195', '196', '197', '199', '202', '203', '205', '206', '207', '210', '213', '215', '218', '221', '222', '223', '224', '232', '234', '235', '236', '237', '239', '241', '242', '245', '246', '250', '252', '253', '255', '259', '261', '264', '266', '267', '269', '270', '272', '273', '274', '275', '276', '278', '279', '280', '281', '284', '287', '288', '289', '290', '291', '293', '294', '296', '300', '301', '305', '309', '315', '316', '317', '318', '319', '321', '323', '324', '325', '327', '328', '330', '337', '339', '342', '347', '348', '354', '355', '360', '361', '362', '364', '366', '367', '371', '372', '373', '375', '377', '378', '379', '382', '384', '386', '388', '389', '390', '391', '392', '393', '398', '399', '400', '401', '402', '403', '404', '405', '406', '407', '409', '411', '412', '415', '418', '419', '420', '424', '427', '428', '430', '431', '432', '435', '436', '437', '438', '439', '443', '447', '448', '449', '450', '454', '456', '459', '464', '466', '468', '471', '472', '476', '477', '479', '481', '486', '487', '489', '491', '495', '496', '497', '498', '500', '501', '502', '503', '505', '509', '510', '511', '514', '521', '523', '524', '525', '526', '527', '529', '530', '532', '533', '537', '546', '552', '553', '555', '557', '558', '560', '563', '564', '565', '567', '570', '571', '572', '573', '574', '576', '577', '578', '580', '581', '582', '583', '586', '592', '595', '596', '601', '603', '606', '607', '613', '617', '618', '622', '623', '624', '625', '633', '635', '636', '637', '638', '639', '640', '646', '647', '649', '650', '651', '654', '657', '660', '661', '663', '664', '667', '669', '670', '672', '674', '676', '677', '678', '682', '687', '690', '692', '693', '696', '699', '700', '701', '702', '703', '704', '709', '712', '714', '719', '721', '726', '727', '728', '729', '731', '733', '736', '737', '740', '741', '742', '745', '746', '749', '751', '754', '755', '756', '757', '758', '759', '762', '765', '769', '770', '772', '773', '777', '781', '784', '786', '788', '791', '792', '794', '795', '796', '798', '799', '800', '801', '803', '806', '808', '809', '810', '811', '812', '814', '815', '817', '819', '821', '823', '825', '828', '829', '830', '831', '832', '834', '836', '838', '840', '841', '842', '843', '847', '848', '852', '853', '854', '855', '859', '860', '862', '864', '870', '871', '874', '876', '879', '880', '881', '883', '885', '889', '891', '895', '898', '900', '902', '903', '904', '905', '906', '907', '909', '911', '913', '915', '917', '923', '926', '927', '928', '929', '930', '931', '932', '933', '934', '937', '938', '939', '940', '947', '948', '950', '951', '953', '954', '957', '960', '961', '963', '964', '966', '967', '968', '970', '973', '974', '975', '976', '979', '981', '982', '985', '986', '988', '989', '990', '991', '992', '993', '996', '998', '999', '1006', '1009', '1010', '1012', '1013', '1014', '1015', '1017', '1019', '1020', '1021', '1022', '1024', '1025', '1029', '1030', '1031', '1033', '1034', '1036', '1040', '1041', '1043', '1046', '1049', '1050', '1051', '1054', '1055', '1056', '1057', '1058', '1062', '1063', '1064', '1065', '1066', '1067', '1069', '1071', '1072', '1074', '1076', '1079', '1082', '1083', '1085', '1086', '1087', '1088', '1092', '1094', '1096', '1097', '1098', '1100', '1103', '1104', '1106', '1107', '1108', '1109', '1110', '1112', '1113', '1114', '1115', '1116', '1119', '1124', '1126', '1127', '1128', '1129', '1130', '1135', '1145', '1146', '1147', '1149', '1151', '1153', '1154', '1155', '1156', '1157', '1160', '1163', '1164', '1165', '1166', '1167', '1168', '1169', '1172', '1174', '1177', '1178', '1182', '1186', '1188', '1190', '1192', '1193', '1194', '1195', '1197', '1198', '1200', '1202', '1203', '1209', '1211', '1212', '1214', '1219', '1220', '1222', '1224', '1225', '1226', '1228', '1229', '1231', '1232', '1233', '1236', '1237', '1239', '1240', '1245', '1247', '1249', '1250', '1251', '1252', '1253', '1257', '1258', '1259', '1261', '1262', '1266', '1270', '1275', '1277', '1278', '1279', '1280', '1282', '1285', '1286', '1287', '1289', '1290', '1291', '1293', '1297', '1299', '1300', '1303', '1304', '1307', '1308', '1309', '1310', '1311', '1312', '1313', '1315', '1316', '1319', '1321', '1328', '1330', '1332', '1334', '1337', '1338', '1339', '1340', '1342', '1346', '1347', '1352', '1356', '1357', '1360', '1364', '1365', '1368', '1369', '1375', '1377', '1379', '1383', '1386', '1387', '1389', '1390', '1395', '1397', '1398', '1400', '1402', '1403', '1404', '1405', '1407', '1408', '1412', '1416', '1421', '1422', '1423', '1424', '1429', '1431', '1432', '1434', '1436', '1437', '1438', '1442', '1443', '1444', '1447', '1448', '1450', '1452', '1453', '1457', '1463', '1467', '1468', '1470', '1472', '1473', '1476', '1479', '1480', '1481', '1482', '1485', '1486', '1487', '1489', '1492', '1493', '1495', '1497', '1499', '1501', '1504', '1506', '1510', '1514', '1515', '1516', '1518', '1522', '1524', '1525', '1526', '1529', '1531', '1532', '1533', '1534', '1537', '1543', '1544', '1546', '1547', '1548', '1549', '1553', '1555', '1560', '1561', '1562', '1565', '1567', '1568', '1570', '1572', '1574', '1575', '1576', '1583', '1589', '1594', '1595', '1596', '1598', '1600', '1607', '1614', '1618', '1620', '1622', '1623', '1625', '1631', '1632', '1633', '1634', '1635', '1637', '1639', '1640', '1641', '1642', '1644', '1645', '1646', '1647', '1649', '1651', '1654', '1658', '1659', '1660', '1663', '1669', '1670', '1671', '1673', '1675', '1676', '1679', '1682', '1684', '1687', '1688', '1690', '1692', '1697', '1698', '1700', '1701', '1702', '1703', '1704', '1705', '1706', '1713', '1715', '1717', '1718', '1719', '1721', '1725', '1726', '1728', '1730', '1732', '1734', '1736', '1739', '1743', '1744', '1745', '1746', '1750', '1751', '1752', '1753', '1755', '1756', '1763', '1764', '1769', '1770', '1771', '1774', '1775', '1777', '1781', '1782', '1785', '1788', '1793', '1794', '1800', '1801', '1802', '1803', '1805', '1806', '1807', '1813', '1818', '1819', '1821', '1824', '1825', '1827', '1829', '1830', '1833', '1835', '1836', '1837', '1839', '1844', '1845', '1846', '1849', '1854', '1855', '1856', '1857', '1858', '1861', '1862', '1863', '1864', '1865', '1866', '1867', '1870', '1871', '1873', '1874', '1876', '1879', '1882', '1884', '1885', '1886', '1888', '1890', '1892', '1893', '1895', '1896', '1899', '1904', '1905', '1906', '1907', '1909', '1910', '1913', '1914', '1915', '1917', '1918', '1920', '1923', '1925', '1926', '1928', '1934', '1935', '1936', '1937', '1940', '1944', '1946', '1949', '1950', '1951', '1956', '1957', '1960', '1961', '1963', '1965', '1966', '1969', '1972', '1974', '1975', '1976', '1980', '1981', '1982', '1984', '1986', '1987', '1989', '1993', '1994', '1997']",False,2000,True,2,7f16835f59,0.0,1.0,1.0
./expes/v2_2021-03-23_issda-30_2000-prng-1-w2-p2,30_issda-2000,2000,first-2000,800,40,rng,num-start-800,800,25726,classic,2103.4197838306427,False,,False,0,,,0,"['1', '2', '4', '6', '7', '11', '13', '19', '21', '24', '27', '28', '30', '34', '38', '39', '41', '45', '47', '49', '52', '53', '55', '57', '60', '61', '66', '68', '69', '71', '74', '75', '76', '78', '81', '82', '86', '90', '93', '96', '99', '100', '101', '104', '106', '107', '110', '111', '115', '117', '118', '121', '124', '125', '129', '130', '134', '136', '137', '138', '141', '146', '148', '161', '162', '166', '172', '173', '175', '178', '183', '187', '188', '189', '193', '195', '199', '205', '209', '219', '221', '222', '226', '227', '228', '231', '232', '236', '238', '242', '243', '244', '250', '251', '253', '256', '259', '260', '265', '268', '269', '271', '272', '273', '274', '276', '280', '284', '285', '287', '289', '290', '291', '292', '293', '294', '299', '301', '304', '305', '306', '307', '309', '310', '312', '315', '317', '320', '322', '326', '327', '328', '331', '335', '339', '340', '341', '346', '347', '348', '352', '354', '360', '361', '364', '366', '368', '369', '370', '371', '372', '373', '375', '378', '379', '380', '382', '386', '392', '393', '397', '399', '401', '403', '404', '407', '408', '412', '415', '419', '420', '425', '427', '428', '429', '434', '437', '441', '442', '444', '449', '452', '457', '464', '472', '473', '479', '481', '482', '483', '486', '487', '488', '489', '492', '493', '499', '503', '504', '505', '511', '513', '514', '515', '517', '521', '524', '525', '533', '540', '541', '543', '548', '549', '555', '558', '561', '562', '565', '569', '571', '573', '574', '576', '579', '580', '581', '586', '587', '588', '592', '593', '594', '595', '597', '600', '601', '602', '604', '605', '606', '607', '608', '612', '616', '617', '618', '620', '622', '627', '628', '630', '634', '635', '637', '639', '640', '643', '645', '647', '648', '649', '650', '651', '654', '663', '665', '667', '668', '678', '680', '683', '685', '689', '693', '694', '696', '697', '698', '700', '705', '706', '708', '713', '714', '715', '717', '718', '720', '721', '724', '726', '727', '728', '729', '731', '733', '734', '735', '740', '741', '742', '743', '745', '746', '747', '750', '753', '756', '757', '761', '762', '764', '766', '767', '768', '770', '771', '773', '775', '777', '778', '779', '780', '783', '784', '785', '787', '788', '790', '791', '797', '798', '799', '803', '804', '811', '814', '817', '822', '825', '827', '828', '830', '831', '832', '835', '836', '837', '839', '840', '841', '848', '850', '851', '854', '858', '859', '862', '864', '872', '875', '876', '878', '880', '882', '885', '887', '888', '890', '897', '904', '909', '912', '914', '922', '928', '929', '930', '934', '936', '946', '947', '948', '949', '951', '953', '954', '958', '959', '961', '962', '963', '966', '967', '968', '972', '973', '975', '977', '978', '980', '982', '983', '984', '985', '986', '987', '988', '989', '991', '995', '997', '1000', '1003', '1004', '1006', '1007', '1008', '1009', '1011', '1017', '1019', '1020', '1023', '1025', '1030', '1036', '1038', '1042', '1050', '1051', '1056', '1058', '1059', '1060', '1062', '1063', '1070', '1075', '1085', '1086', '1087', '1089', '1090', '1091', '1093', '1102', '1103', '1105', '1109', '1110', '1111', '1114', '1117', '1118', '1121', '1123', '1124', '1125', '1127', '1130', '1131', '1133', '1134', '1137', '1138', '1146', '1148', '1155', '1156', '1158', '1159', '1165', '1170', '1174', '1175', '1176', '1178', '1179', '1185', '1190', '1193', '1200', '1201', '1202', '1204', '1208', '1209', '1210', '1214', '1217', '1219', '1221', '1230', '1231', '1236', '1237', '1246', '1247', '1251', '1253', '1257', '1259', '1260', '1264', '1265', '1266', '1269', '1271', '1272', '1274', '1275', '1276', '1278', '1279', '1280', '1282', '1284', '1285', '1290', '1292', '1293', '1295', '1305', '1308', '1312', '1316', '1320', '1321', '1323', '1326', '1327', '1328', '1329', '1330', '1331', '1332', '1334', '1336', '1339', '1342', '1344', '1345', '1352', '1353', '1355', '1356', '1357', '1360', '1363', '1364', '1368', '1369', '1370', '1374', '1376', '1377', '1380', '1382', '1389', '1394', '1395', '1396', '1397', '1398', '1399', '1404', '1405', '1408', '1409', '1410', '1411', '1412', '1415', '1417', '1423', '1424', '1425', '1427', '1429', '1437', '1439', '1443', '1444', '1445', '1446', '1448', '1450', '1451', '1460', '1461', '1464', '1467', '1468', '1471', '1472', '1474', '1475', '1476', '1477', '1478', '1480', '1481', '1485', '1488', '1494', '1495', '1496', '1498', '1499', '1500', '1501', '1509', '1512', '1516', '1517', '1518', '1520', '1521', '1523', '1526', '1527', '1533', '1536', '1537', '1538', '1541', '1548', '1553', '1555', '1556', '1558', '1561', '1569', '1577', '1585', '1587', '1589', '1590', '1595', '1596', '1599', '1600', '1601', '1602', '1609', '1610', '1614', '1620', '1622', '1627', '1629', '1631', '1632', '1633', '1634', '1636', '1642', '1643', '1645', '1648', '1654', '1655', '1663', '1665', '1666', '1673', '1675', '1677', '1679', '1681', '1682', '1684', '1689', '1693', '1694', '1697', '1700', '1703', '1706', '1707', '1711', '1712', '1713', '1714', '1715', '1718', '1722', '1723', '1724', '1725', '1727', '1729', '1731', '1738', '1739', '1745', '1746', '1749', '1751', '1753', '1759', '1761', '1769', '1775', '1776', '1777', '1778', '1779', '1780', '1782', '1785', '1787', '1793', '1795', '1796', '1800', '1803', '1804', '1819', '1821', '1822', '1823', '1826', '1827', '1829', '1830', '1831', '1833', '1836', '1837', '1841', '1846', '1848', '1850', '1865', '1866', '1867', '1868', '1872', '1874', '1877', '1878', '1881', '1888', '1889', '1892', '1893', '1894', '1899', '1904', '1906', '1915', '1916', '1917', '1918', '1920', '1921', '1923', '1924', '1925', '1927', '1928', '1930', '1931', '1932', '1935', '1936', '1937', '1945', '1946', '1948', '1950', '1951', '1953', '1955', '1957', '1959', '1960', '1961', '1963', '1966', '1967', '1968', '1969', '1970', '1973', '1976', '1977', '1980', '1983', '1984', '1990', '1992', '1993', '1994', '1998', '1999', '2000']",True,2000,True,2,b1a6f43bb1,0.0,0.0,0.0
