expe,clients,clients_size,clients_subset,agg_size,agg_size_pc,method,days,days_size,days_total,noise_method,time,valid,valid_sum,success,score_avg,score_min,score_max,nsols,oracle,wall_hit,wall_time,pooled,pool_size,uuid,infeasible,optimal,valid_sums
./expes/v2_2021-03-23_issda-30_2000-prng-1-w2-p2,30_issda-2000,2000,first-2000,300,15,rng,num-start-2800,2800,25726,classic,1609.2747027873993,True,,True,1.0,1.0,1.0,1,"['11', '17', '20', '22', '25', '32', '37', '40', '43', '54', '56', '57', '59', '101', '102', '103', '104', '106', '107', '110', '111', '120', '128', '132', '142', '154', '159', '168', '175', '191', '192', '193', '202', '203', '217', '226', '227', '232', '240', '253', '266', '281', '282', '284', '287', '291', '309', '310', '331', '335', '347', '350', '353', '358', '367', '376', '377', '387', '394', '395', '401', '403', '407', '418', '431', '433', '435', '438', '448', '456', '461', '470', '474', '490', '496', '510', '513', '514', '515', '517', '529', '540', '544', '548', '559', '565', '570', '594', '603', '605', '618', '622', '625', '630', '634', '635', '639', '642', '647', '648', '651', '652', '654', '674', '678', '681', '687', '689', '691', '713', '727', '729', '737', '746', '749', '754', '763', '768', '787', '802', '805', '823', '826', '827', '831', '836', '837', '840', '849', '859', '860', '866', '887', '889', '912', '913', '920', '921', '928', '933', '941', '950', '957', '958', '967', '971', '973', '978', '984', '990', '994', '997', '1028', '1033', '1037', '1039', '1057', '1061', '1063', '1064', '1070', '1072', '1076', '1080', '1091', '1092', '1099', '1100', '1106', '1107', '1111', '1113', '1126', '1129', '1134', '1135', '1138', '1139', '1141', '1145', '1156', '1164', '1171', '1178', '1180', '1184', '1185', '1188', '1201', '1209', '1212', '1226', '1229', '1237', '1254', '1256', '1272', '1284', '1297', '1304', '1309', '1312', '1347', '1349', '1355', '1367', '1386', '1398', '1402', '1405', '1416', '1433', '1442', '1443', '1445', '1446', '1455', '1465', '1466', '1484', '1485', '1493', '1499', '1514', '1525', '1526', '1529', '1531', '1533', '1540', '1541', '1543', '1546', '1567', '1569', '1579', '1586', '1594', '1598', '1603', '1611', '1622', '1642', '1643', '1644', '1649', '1653', '1661', '1664', '1665', '1666', '1670', '1673', '1679', '1680', '1689', '1693', '1698', '1705', '1715', '1719', '1725', '1734', '1753', '1759', '1761', '1778', '1793', '1808', '1819', '1823', '1830', '1837', '1841', '1847', '1856', '1859', '1861', '1862', '1864', '1878', '1880', '1885', '1897', '1905', '1925', '1930', '1936', '1949', '1957', '1961', '1962', '1966', '1968', '1970', '1976', '1982', '1987', '1992', '1994']",False,2000,True,2,c3f93b6d91,0.0,1.0,1.0
./expes/v2_2021-03-23_issda-30_2000-prng-1-w2-p2,30_issda-2000,2000,first-2000,100,5,rng,num-start-4000,4000,25726,classic,1606.430839061737,True,,True,1.0,1.0,1.0,1,"['1', '45', '59', '76', '94', '166', '181', '184', '191', '193', '200', '240', '245', '299', '396', '397', '404', '406', '408', '412', '502', '513', '536', '544', '559', '597', '624', '655', '688', '732', '739', '741', '742', '765', '840', '848', '870', '881', '912', '964', '994', '997', '1002', '1025', '1032', '1055', '1076', '1103', '1105', '1134', '1154', '1176', '1180', '1202', '1206', '1207', '1233', '1250', '1298', '1301', '1321', '1343', '1358', '1390', '1397', '1405', '1430', '1433', '1436', '1493', '1495', '1505', '1548', '1556', '1562', '1578', '1625', '1632', '1639', '1643', '1646', '1649', '1650', '1684', '1696', '1706', '1730', '1787', '1803', '1828', '1849', '1863', '1865', '1870', '1877', '1911', '1949', '1978', '1987', '2000']",False,2000,True,2,68f502a5f7,0.0,1.0,1.0
./expes/v2_2021-03-23_issda-30_2000-prng-1-w2-p2,30_issda-2000,2000,first-2000,300,15,rng,num-start-800,800,25726,classic,1939.4964883327484,True,,True,1.0,1.0,1.0,1,"['12', '13', '14', '18', '23', '38', '94', '120', '133', '156', '157', '162', '179', '181', '182', '184', '190', '192', '208', '218', '220', '236', '242', '252', '259', '265', '267', '270', '273', '280', '294', '298', '300', '303', '309', '310', '312', '329', '333', '334', '335', '347', '350', '353', '358', '361', '366', '372', '375', '389', '402', '406', '411', '413', '414', '418', '424', '433', '442', '443', '449', '452', '461', '473', '481', '487', '491', '512', '520', '525', '528', '532', '533', '538', '542', '543', '547', '553', '555', '558', '560', '561', '577', '582', '606', '609', '613', '615', '618', '621', '646', '665', '671', '673', '686', '688', '694', '696', '702', '709', '712', '722', '733', '739', '745', '749', '755', '766', '767', '790', '806', '813', '820', '824', '828', '829', '831', '832', '834', '836', '839', '851', '853', '865', '868', '874', '889', '890', '895', '897', '920', '939', '940', '955', '958', '962', '967', '978', '979', '980', '983', '984', '1003', '1007', '1012', '1016', '1026', '1040', '1051', '1052', '1054', '1069', '1070', '1073', '1079', '1086', '1091', '1095', '1102', '1107', '1109', '1114', '1116', '1124', '1131', '1140', '1143', '1144', '1145', '1158', '1164', '1171', '1173', '1174', '1176', '1179', '1186', '1203', '1206', '1216', '1229', '1235', '1244', '1251', '1252', '1261', '1287', '1290', '1293', '1326', '1327', '1328', '1336', '1347', '1355', '1383', '1385', '1388', '1393', '1396', '1401', '1402', '1406', '1412', '1417', '1422', '1431', '1432', '1438', '1444', '1449', '1452', '1453', '1467', '1474', '1480', '1490', '1496', '1505', '1508', '1513', '1519', '1522', '1529', '1549', '1550', '1553', '1554', '1556', '1562', '1574', '1575', '1578', '1581', '1584', '1589', '1594', '1595', '1598', '1605', '1607', '1613', '1620', '1623', '1625', '1627', '1632', '1644', '1652', '1654', '1660', '1662', '1663', '1674', '1676', '1688', '1691', '1695', '1697', '1700', '1706', '1711', '1712', '1713', '1720', '1728', '1729', '1733', '1736', '1749', '1758', '1769', '1774', '1780', '1789', '1792', '1795', '1811', '1817', '1825', '1827', '1841', '1842', '1854', '1865', '1869', '1891', '1896', '1899', '1905', '1910', '1919', '1934', '1938', '1946', '1950', '1962', '1981', '1993', '1999']",False,2000,True,2,fe78ef6d9e,0.0,1.0,1.0
./expes/v2_2021-03-23_issda-30_2000-prng-1-w2-p2,30_issda-2000,2000,first-2000,200,10,rng,num-start-600,600,25726,classic,1266.7622141838074,True,,True,1.0,1.0,1.0,1,"['6', '15', '18', '34', '35', '47', '51', '54', '81', '89', '93', '127', '132', '137', '140', '145', '151', '155', '159', '175', '188', '202', '204', '208', '215', '221', '230', '233', '234', '246', '248', '259', '263', '276', '279', '284', '304', '314', '325', '351', '359', '376', '393', '404', '409', '413', '415', '416', '425', '429', '432', '477', '502', '519', '534', '535', '539', '542', '549', '563', '576', '582', '586', '593', '594', '601', '602', '613', '617', '632', '638', '651', '663', '667', '671', '712', '731', '756', '772', '788', '796', '800', '806', '812', '827', '833', '844', '849', '862', '867', '878', '879', '881', '895', '899', '902', '921', '925', '926', '931', '934', '939', '945', '949', '955', '957', '960', '962', '975', '983', '984', '1011', '1012', '1025', '1029', '1030', '1036', '1043', '1048', '1051', '1066', '1073', '1084', '1110', '1111', '1117', '1118', '1121', '1166', '1167', '1169', '1181', '1186', '1198', '1206', '1217', '1219', '1265', '1271', '1272', '1283', '1299', '1305', '1329', '1330', '1337', '1339', '1345', '1349', '1385', '1387', '1388', '1401', '1408', '1445', '1491', '1498', '1503', '1507', '1540', '1541', '1548', '1568', '1584', '1587', '1608', '1622', '1642', '1645', '1646', '1647', '1661', '1689', '1704', '1708', '1710', '1747', '1753', '1774', '1799', '1800', '1801', '1809', '1824', '1834', '1836', '1838', '1856', '1874', '1885', '1903', '1916', '1938', '1946', '1954', '1959', '1960', '1963', '1977', '1983']",False,2000,True,2,f28d418ac7,0.0,1.0,1.0
./expes/v2_2021-03-23_issda-30_2000-prng-1-w2-p2,30_issda-2000,2000,first-2000,300,15,rng,num-start-1200,1200,25726,classic,751.7477130889893,True,,True,1.0,1.0,1.0,1,"['12', '13', '14', '18', '23', '38', '94', '120', '133', '156', '157', '162', '179', '181', '182', '184', '190', '192', '208', '218', '220', '236', '242', '252', '259', '265', '267', '270', '273', '280', '294', '298', '300', '303', '309', '310', '312', '329', '333', '334', '335', '347', '350', '353', '358', '361', '366', '372', '375', '389', '402', '406', '411', '413', '414', '418', '424', '433', '442', '443', '449', '452', '461', '473', '481', '487', '491', '512', '520', '525', '528', '532', '533', '538', '542', '543', '547', '553', '555', '558', '560', '561', '577', '582', '606', '609', '613', '615', '618', '621', '646', '665', '671', '673', '686', '688', '694', '696', '702', '709', '712', '722', '733', '739', '745', '749', '755', '766', '767', '790', '806', '813', '820', '824', '828', '829', '831', '832', '834', '836', '839', '851', '853', '865', '868', '874', '889', '890', '895', '897', '920', '939', '940', '955', '958', '962', '967', '978', '979', '980', '983', '984', '1003', '1007', '1012', '1016', '1026', '1040', '1051', '1052', '1054', '1069', '1070', '1073', '1079', '1086', '1091', '1095', '1102', '1107', '1109', '1114', '1116', '1124', '1131', '1140', '1143', '1144', '1145', '1158', '1164', '1171', '1173', '1174', '1176', '1179', '1186', '1203', '1206', '1216', '1229', '1235', '1244', '1251', '1252', '1261', '1287', '1290', '1293', '1326', '1327', '1328', '1336', '1347', '1355', '1383', '1385', '1388', '1393', '1396', '1401', '1402', '1406', '1412', '1417', '1422', '1431', '1432', '1438', '1444', '1449', '1452', '1453', '1467', '1474', '1480', '1490', '1496', '1505', '1508', '1513', '1519', '1522', '1529', '1549', '1550', '1553', '1554', '1556', '1562', '1574', '1575', '1578', '1581', '1584', '1589', '1594', '1595', '1598', '1605', '1607', '1613', '1620', '1623', '1625', '1627', '1632', '1644', '1652', '1654', '1660', '1662', '1663', '1674', '1676', '1688', '1691', '1695', '1697', '1700', '1706', '1711', '1712', '1713', '1720', '1728', '1729', '1733', '1736', '1749', '1758', '1769', '1774', '1780', '1789', '1792', '1795', '1811', '1817', '1825', '1827', '1841', '1842', '1854', '1865', '1869', '1891', '1896', '1899', '1905', '1910', '1919', '1934', '1938', '1946', '1950', '1962', '1981', '1993', '1999']",False,2000,True,2,a2eef699c9,0.0,1.0,1.0
./expes/v2_2021-03-23_issda-30_2000-prng-1-w2-p2,30_issda-2000,2000,first-2000,100,5,rng,num-start-800,800,25726,classic,1262.7556767463684,True,,True,1.0,1.0,1.0,1,"['4', '7', '11', '27', '45', '60', '107', '134', '136', '148', '209', '232', '260', '271', '285', '299', '322', '327', '340', '341', '373', '404', '408', '420', '429', '442', '444', '505', '511', '524', '541', '573', '593', '612', '618', '627', '635', '643', '680', '693', '728', '735', '740', '762', '780', '785', '798', '836', '850', '912', '954', '961', '1086', '1105', '1114', '1176', '1201', '1221', '1236', '1265', '1266', '1276', '1282', '1330', '1336', '1389', '1415', '1450', '1498', '1516', '1520', '1561', '1569', '1585', '1590', '1629', '1633', '1675', '1677', '1722', '1724', '1777', '1779', '1785', '1787', '1795', '1831', '1846', '1877', '1889', '1917', '1928', '1931', '1932', '1967', '1970', '1977', '1980', '1984', '1992']",False,2000,True,2,11dfd36128,0.0,1.0,1.0
./expes/v2_2021-03-23_issda-30_2000-prng-1-w2-p2,30_issda-2000,2000,first-2000,100,5,rng,num-start-200,200,25726,classic,2035.4427697658539,False,,False,0,,,0,"['12', '13', '21', '27', '29', '42', '46', '57', '91', '135', '172', '177', '252', '291', '316', '317', '337', '353', '452', '456', '460', '465', '481', '488', '520', '529', '531', '580', '584', '601', '607', '608', '619', '624', '633', '635', '636', '649', '687', '713', '741', '765', '839', '854', '861', '867', '912', '915', '929', '931', '936', '944', '952', '961', '973', '985', '988', '1004', '1007', '1013', '1059', '1072', '1153', '1186', '1227', '1234', '1235', '1242', '1284', '1293', '1301', '1317', '1347', '1366', '1367', '1432', '1433', '1441', '1457', '1491', '1523', '1603', '1614', '1617', '1619', '1630', '1655', '1669', '1706', '1721', '1726', '1741', '1750', '1771', '1830', '1882', '1943', '1950', '1959', '1995']",True,2000,True,2,16c052ab4b,0.0,0.0,0.0
./expes/v2_2021-03-23_issda-30_2000-prng-1-w2-p2,30_issda-2000,2000,first-2000,100,5,rng,num-start-1200,1200,25726,classic,740.3543972969055,True,,True,1.0,1.0,1.0,1,"['49', '57', '74', '116', '174', '188', '280', '325', '331', '337', '347', '356', '362', '364', '373', '435', '473', '484', '512', '516', '550', '572', '632', '653', '666', '725', '737', '740', '742', '746', '762', '779', '806', '819', '850', '868', '883', '912', '913', '945', '953', '1004', '1021', '1026', '1029', '1043', '1045', '1053', '1056', '1076', '1077', '1087', '1115', '1147', '1148', '1191', '1216', '1241', '1243', '1308', '1342', '1356', '1372', '1382', '1396', '1465', '1481', '1505', '1508', '1513', '1545', '1563', '1618', '1631', '1632', '1646', '1657', '1703', '1712', '1739', '1749', '1760', '1762', '1768', '1784', '1811', '1827', '1831', '1846', '1857', '1860', '1861', '1895', '1909', '1917', '1942', '1945', '1956', '1958', '1970']",False,2000,True,2,a6fa377047,0.0,1.0,1.0
./expes/v2_2021-03-23_issda-30_2000-prng-1-w2-p2,30_issda-2000,2000,first-2000,100,5,rng,num-start-2400,2400,25726,classic,933.6232380867004,True,,True,1.0,1.0,1.0,1,"['4', '7', '11', '27', '45', '60', '107', '134', '136', '148', '209', '232', '260', '271', '285', '299', '322', '327', '340', '341', '373', '404', '408', '420', '429', '442', '444', '505', '511', '524', '541', '573', '593', '612', '618', '627', '635', '643', '680', '693', '728', '735', '740', '762', '780', '785', '798', '836', '850', '912', '954', '961', '1086', '1105', '1114', '1176', '1201', '1221', '1236', '1265', '1266', '1276', '1282', '1330', '1336', '1389', '1415', '1450', '1498', '1516', '1520', '1561', '1569', '1585', '1590', '1629', '1633', '1675', '1677', '1722', '1724', '1777', '1779', '1785', '1787', '1795', '1831', '1846', '1877', '1889', '1917', '1928', '1931', '1932', '1967', '1970', '1977', '1980', '1984', '1992']",False,2000,True,2,15691cfc04,0.0,1.0,1.0
./expes/v2_2021-03-23_issda-30_2000-prng-1-w2-p2,30_issda-2000,2000,first-2000,300,15,rng,num-start-1800,1800,25726,classic,1098.7179055213928,True,,True,1.0,1.0,1.0,1,"['3', '26', '28', '29', '34', '45', '47', '55', '68', '75', '80', '81', '83', '93', '119', '126', '128', '129', '142', '144', '148', '152', '165', '169', '184', '187', '188', '192', '195', '203', '207', '208', '224', '237', '238', '240', '241', '246', '254', '255', '256', '267', '286', '287', '292', '300', '301', '307', '315', '325', '332', '347', '350', '359', '370', '377', '379', '383', '387', '388', '390', '392', '399', '409', '417', '419', '432', '441', '448', '449', '452', '453', '455', '483', '489', '496', '498', '500', '514', '531', '533', '534', '556', '564', '565', '578', '590', '595', '597', '617', '618', '622', '636', '638', '648', '650', '656', '665', '667', '677', '682', '683', '687', '702', '718', '725', '732', '734', '735', '759', '762', '789', '796', '802', '817', '830', '840', '859', '862', '872', '873', '890', '894', '906', '907', '912', '918', '923', '938', '957', '964', '966', '967', '976', '977', '982', '996', '997', '1003', '1009', '1011', '1032', '1034', '1041', '1042', '1048', '1068', '1069', '1075', '1085', '1091', '1095', '1107', '1108', '1113', '1115', '1121', '1122', '1124', '1129', '1132', '1147', '1149', '1163', '1166', '1167', '1176', '1179', '1180', '1188', '1195', '1203', '1204', '1208', '1222', '1223', '1233', '1234', '1236', '1241', '1242', '1252', '1254', '1255', '1267', '1271', '1281', '1291', '1299', '1301', '1312', '1314', '1325', '1330', '1345', '1347', '1353', '1364', '1369', '1378', '1385', '1391', '1392', '1394', '1396', '1400', '1401', '1415', '1429', '1433', '1435', '1442', '1445', '1448', '1455', '1471', '1474', '1490', '1495', '1496', '1499', '1519', '1548', '1552', '1553', '1572', '1604', '1606', '1608', '1616', '1625', '1628', '1635', '1638', '1640', '1645', '1646', '1649', '1660', '1663', '1669', '1671', '1674', '1683', '1690', '1691', '1696', '1699', '1700', '1701', '1708', '1712', '1716', '1717', '1721', '1726', '1730', '1731', '1732', '1740', '1742', '1752', '1773', '1777', '1783', '1792', '1793', '1796', '1824', '1827', '1834', '1840', '1841', '1844', '1848', '1853', '1860', '1864', '1870', '1876', '1878', '1879', '1880', '1881', '1882', '1888', '1889', '1891', '1892', '1911', '1918', '1919', '1946', '1969', '1974', '1978', '1980', '1982', '1983', '1988']",False,2000,True,2,0b8f410e72,0.0,1.0,1.0
./expes/v2_2021-03-23_issda-30_2000-prng-1-w2-p2,30_issda-2000,2000,first-2000,400,20,rng,num-start-3600,3600,25726,classic,2450.1183359622955,True,,True,1.0,1.0,1.0,1,"['11', '16', '17', '20', '22', '25', '32', '37', '40', '43', '54', '56', '57', '59', '62', '69', '101', '102', '103', '104', '106', '107', '110', '111', '120', '123', '128', '132', '135', '142', '151', '154', '159', '166', '168', '171', '175', '191', '192', '193', '202', '203', '217', '226', '227', '232', '240', '241', '252', '253', '256', '261', '263', '266', '281', '282', '284', '287', '291', '293', '309', '310', '311', '316', '331', '335', '337', '347', '350', '353', '358', '367', '376', '377', '386', '387', '394', '395', '401', '403', '407', '411', '418', '431', '433', '435', '438', '448', '455', '456', '461', '470', '474', '490', '496', '499', '510', '512', '513', '514', '515', '517', '523', '529', '538', '540', '544', '548', '552', '559', '565', '570', '577', '581', '584', '594', '602', '603', '605', '618', '622', '625', '630', '634', '635', '636', '639', '642', '647', '648', '650', '651', '652', '654', '659', '667', '674', '678', '681', '685', '687', '689', '691', '695', '712', '713', '727', '729', '731', '737', '746', '749', '754', '763', '768', '787', '796', '802', '805', '820', '823', '826', '827', '831', '834', '836', '837', '840', '849', '854', '859', '860', '862', '866', '877', '887', '889', '893', '897', '907', '912', '913', '920', '921', '928', '933', '941', '950', '957', '958', '967', '971', '973', '978', '984', '989', '990', '994', '997', '1011', '1013', '1028', '1033', '1034', '1037', '1039', '1057', '1061', '1063', '1064', '1070', '1072', '1076', '1077', '1080', '1082', '1091', '1092', '1096', '1099', '1100', '1103', '1104', '1105', '1106', '1107', '1111', '1113', '1114', '1126', '1129', '1134', '1135', '1138', '1139', '1141', '1145', '1146', '1156', '1164', '1171', '1172', '1178', '1180', '1184', '1185', '1188', '1191', '1201', '1202', '1209', '1212', '1226', '1229', '1237', '1238', '1254', '1256', '1272', '1283', '1284', '1297', '1304', '1309', '1312', '1330', '1347', '1349', '1355', '1359', '1367', '1386', '1395', '1398', '1402', '1403', '1405', '1416', '1433', '1442', '1443', '1445', '1446', '1455', '1465', '1466', '1484', '1485', '1493', '1497', '1499', '1513', '1514', '1525', '1526', '1529', '1531', '1533', '1535', '1537', '1540', '1541', '1543', '1546', '1552', '1556', '1557', '1567', '1569', '1579', '1586', '1594', '1598', '1600', '1603', '1607', '1611', '1613', '1622', '1627', '1642', '1643', '1644', '1645', '1649', '1653', '1661', '1664', '1665', '1666', '1670', '1673', '1679', '1680', '1682', '1684', '1689', '1693', '1698', '1702', '1705', '1715', '1719', '1725', '1734', '1742', '1753', '1759', '1761', '1772', '1777', '1778', '1789', '1793', '1805', '1808', '1819', '1823', '1830', '1837', '1838', '1841', '1844', '1847', '1856', '1859', '1861', '1862', '1864', '1870', '1878', '1880', '1885', '1892', '1893', '1897', '1905', '1911', '1917', '1925', '1926', '1930', '1936', '1949', '1957', '1958', '1960', '1961', '1962', '1966', '1968', '1970', '1976', '1982', '1987', '1992', '1994', '1996', '1997', '1998']",False,2000,True,2,c6f0299b79,0.0,1.0,1.0
./expes/v2_2021-03-23_issda-30_2000-prng-1-w2-p2,30_issda-2000,2000,first-2000,100,5,rng,num-start-2200,2200,25726,classic,695.3546900749207,True,,True,1.0,1.0,1.0,1,"['15', '41', '53', '89', '95', '121', '137', '167', '178', '183', '185', '212', '218', '318', '331', '338', '354', '365', '397', '400', '440', '455', '478', '484', '507', '510', '532', '534', '537', '557', '567', '574', '575', '591', '593', '594', '598', '615', '622', '625', '635', '639', '692', '738', '763', '795', '812', '823', '848', '868', '883', '925', '948', '970', '981', '1037', '1042', '1063', '1066', '1095', '1100', '1122', '1126', '1173', '1227', '1241', '1283', '1285', '1313', '1328', '1376', '1444', '1478', '1499', '1568', '1597', '1634', '1640', '1653', '1665', '1676', '1694', '1698', '1722', '1731', '1737', '1738', '1751', '1773', '1777', '1803', '1807', '1862', '1880', '1900', '1915', '1930', '1932', '1935', '1968']",False,2000,True,2,a9520fb702,0.0,1.0,1.0
./expes/v2_2021-03-23_issda-30_2000-prng-1-w2-p2,30_issda-2000,2000,first-2000,800,40,rng,num-start-3000,3000,25726,classic,2198.0323643684387,True,,True,1.0,1.0,1.0,1,"['4', '7', '9', '10', '11', '18', '19', '22', '24', '33', '36', '37', '40', '41', '44', '49', '50', '51', '52', '57', '58', '61', '64', '65', '66', '69', '70', '73', '74', '75', '77', '84', '89', '94', '95', '96', '101', '102', '105', '110', '111', '116', '117', '121', '123', '124', '126', '127', '130', '133', '135', '137', '139', '146', '149', '150', '151', '152', '155', '157', '158', '159', '164', '165', '167', '170', '173', '174', '177', '180', '183', '186', '188', '189', '191', '192', '193', '194', '195', '197', '204', '205', '206', '208', '209', '214', '216', '218', '222', '228', '230', '232', '236', '238', '239', '243', '250', '252', '261', '262', '263', '264', '270', '272', '274', '275', '277', '278', '280', '283', '287', '288', '290', '292', '295', '297', '301', '307', '309', '310', '311', '315', '320', '321', '322', '323', '325', '326', '329', '331', '333', '337', '341', '343', '347', '348', '350', '353', '354', '355', '356', '358', '359', '361', '362', '364', '370', '372', '373', '377', '380', '382', '385', '389', '392', '393', '394', '407', '409', '414', '419', '420', '426', '427', '431', '432', '435', '436', '438', '442', '443', '444', '446', '449', '452', '455', '461', '462', '465', '467', '468', '473', '475', '476', '477', '478', '481', '484', '485', '488', '492', '494', '495', '502', '505', '506', '508', '510', '511', '512', '513', '514', '515', '516', '519', '520', '521', '523', '524', '526', '527', '529', '531', '532', '537', '541', '545', '547', '550', '551', '557', '560', '562', '569', '571', '572', '575', '579', '583', '586', '588', '594', '596', '598', '604', '607', '608', '620', '622', '623', '627', '631', '632', '634', '635', '639', '640', '641', '642', '645', '648', '649', '653', '657', '658', '665', '666', '669', '672', '674', '675', '678', '679', '684', '686', '689', '690', '691', '693', '699', '700', '701', '702', '705', '707', '712', '718', '719', '725', '730', '733', '735', '736', '737', '738', '739', '740', '742', '743', '746', '747', '750', '751', '753', '762', '763', '764', '765', '766', '768', '775', '777', '779', '782', '784', '785', '788', '790', '791', '799', '800', '801', '802', '803', '804', '805', '806', '809', '810', '819', '820', '822', '823', '825', '826', '828', '829', '830', '833', '838', '842', '844', '845', '850', '854', '857', '859', '860', '861', '867', '868', '872', '876', '881', '883', '889', '890', '894', '899', '903', '904', '906', '907', '909', '911', '912', '913', '918', '919', '925', '928', '929', '930', '931', '932', '936', '937', '938', '941', '943', '945', '949', '952', '953', '954', '955', '956', '957', '958', '961', '964', '968', '969', '971', '973', '977', '979', '983', '988', '989', '991', '992', '994', '995', '996', '997', '998', '1001', '1002', '1004', '1005', '1008', '1016', '1020', '1021', '1023', '1025', '1026', '1029', '1030', '1033', '1034', '1040', '1041', '1042', '1043', '1045', '1046', '1048', '1049', '1052', '1053', '1054', '1055', '1056', '1058', '1061', '1062', '1064', '1067', '1070', '1071', '1072', '1073', '1074', '1075', '1076', '1077', '1078', '1087', '1090', '1092', '1097', '1102', '1103', '1104', '1108', '1109', '1112', '1115', '1116', '1117', '1122', '1124', '1128', '1130', '1142', '1143', '1147', '1148', '1150', '1152', '1156', '1160', '1163', '1166', '1171', '1175', '1177', '1180', '1182', '1189', '1190', '1191', '1198', '1200', '1201', '1205', '1206', '1208', '1211', '1212', '1216', '1218', '1219', '1222', '1224', '1240', '1241', '1242', '1243', '1251', '1253', '1254', '1255', '1257', '1261', '1262', '1263', '1267', '1269', '1273', '1274', '1275', '1277', '1278', '1279', '1281', '1286', '1288', '1295', '1297', '1298', '1301', '1305', '1306', '1307', '1308', '1310', '1313', '1315', '1317', '1324', '1327', '1328', '1330', '1332', '1335', '1338', '1339', '1342', '1349', '1350', '1354', '1356', '1359', '1362', '1366', '1370', '1371', '1372', '1374', '1378', '1382', '1383', '1384', '1386', '1390', '1391', '1393', '1394', '1395', '1396', '1398', '1402', '1403', '1404', '1408', '1413', '1414', '1417', '1419', '1425', '1432', '1433', '1441', '1443', '1445', '1446', '1447', '1449', '1451', '1454', '1456', '1457', '1458', '1460', '1461', '1462', '1463', '1465', '1466', '1467', '1468', '1469', '1472', '1473', '1474', '1475', '1481', '1482', '1483', '1487', '1491', '1492', '1493', '1494', '1497', '1498', '1500', '1505', '1508', '1509', '1513', '1516', '1521', '1525', '1526', '1528', '1532', '1535', '1537', '1538', '1539', '1541', '1544', '1545', '1546', '1547', '1548', '1556', '1557', '1558', '1560', '1563', '1566', '1569', '1570', '1571', '1573', '1574', '1584', '1588', '1592', '1595', '1600', '1604', '1606', '1607', '1613', '1615', '1618', '1622', '1627', '1629', '1630', '1631', '1632', '1635', '1636', '1637', '1639', '1642', '1644', '1646', '1647', '1648', '1651', '1652', '1656', '1657', '1659', '1664', '1666', '1669', '1670', '1671', '1672', '1675', '1677', '1679', '1681', '1687', '1689', '1690', '1691', '1703', '1707', '1708', '1711', '1712', '1713', '1715', '1716', '1718', '1722', '1732', '1734', '1738', '1739', '1741', '1743', '1746', '1749', '1755', '1758', '1760', '1762', '1766', '1767', '1768', '1770', '1774', '1781', '1783', '1784', '1785', '1791', '1792', '1794', '1796', '1798', '1799', '1800', '1804', '1805', '1806', '1807', '1809', '1811', '1812', '1813', '1818', '1819', '1822', '1827', '1831', '1833', '1834', '1840', '1841', '1843', '1845', '1846', '1848', '1850', '1855', '1857', '1859', '1860', '1861', '1867', '1868', '1874', '1875', '1876', '1877', '1880', '1882', '1885', '1886', '1887', '1888', '1889', '1892', '1895', '1897', '1903', '1904', '1909', '1910', '1914', '1916', '1917', '1919', '1920', '1922', '1923', '1926', '1927', '1932', '1933', '1941', '1942', '1943', '1944', '1945', '1946', '1955', '1956', '1958', '1961', '1962', '1964', '1965', '1966', '1968', '1970', '1971', '1973', '1980', '1981', '1983', '1985', '1986', '1988', '1989', '1990', '1992', '1995']",False,2000,True,2,4677a32e09,0.0,1.0,1.0
./expes/v2_2021-03-23_issda-30_2000-prng-1-w2-p2,30_issda-2000,2000,first-2000,900,45,rng,num-start-2200,2200,25726,classic,1716.2794771194458,True,,True,1.0,1.0,1.0,1,"['1', '3', '4', '12', '13', '14', '16', '18', '19', '23', '24', '25', '27', '30', '34', '36', '38', '42', '43', '45', '47', '48', '50', '55', '59', '60', '64', '72', '73', '74', '76', '79', '83', '84', '86', '87', '92', '93', '94', '95', '96', '97', '98', '102', '106', '111', '113', '115', '117', '120', '125', '129', '130', '133', '136', '137', '140', '141', '142', '144', '147', '156', '157', '159', '160', '161', '162', '164', '168', '170', '171', '172', '178', '179', '180', '181', '182', '184', '185', '189', '190', '192', '193', '208', '213', '218', '220', '221', '223', '227', '228', '229', '235', '236', '239', '240', '242', '243', '244', '248', '249', '250', '252', '256', '258', '259', '262', '263', '265', '267', '268', '270', '272', '273', '277', '280', '281', '285', '286', '287', '290', '294', '297', '298', '300', '301', '303', '306', '308', '309', '310', '312', '314', '320', '321', '329', '331', '333', '334', '335', '337', '342', '343', '344', '347', '350', '353', '355', '357', '358', '360', '361', '362', '365', '366', '372', '374', '375', '377', '378', '383', '385', '386', '387', '389', '390', '392', '394', '396', '402', '406', '409', '411', '413', '414', '415', '416', '418', '419', '422', '423', '424', '428', '429', '430', '432', '433', '436', '438', '440', '442', '443', '446', '447', '449', '450', '452', '456', '459', '461', '462', '472', '473', '478', '479', '481', '483', '484', '487', '489', '491', '492', '495', '496', '497', '504', '505', '507', '508', '510', '511', '512', '516', '520', '523', '524', '525', '528', '529', '530', '531', '532', '533', '535', '538', '540', '542', '543', '546', '547', '550', '553', '554', '555', '556', '558', '560', '561', '562', '564', '565', '567', '568', '571', '575', '577', '579', '581', '582', '583', '588', '592', '593', '598', '599', '603', '606', '609', '612', '613', '615', '616', '618', '619', '621', '623', '627', '629', '632', '633', '635', '641', '644', '646', '647', '651', '655', '659', '660', '661', '664', '665', '671', '672', '673', '675', '677', '679', '680', '681', '683', '685', '686', '688', '690', '693', '694', '696', '697', '698', '702', '706', '707', '708', '709', '712', '715', '716', '717', '718', '722', '726', '730', '731', '733', '736', '738', '739', '740', '741', '744', '745', '748', '749', '750', '753', '754', '755', '761', '764', '765', '766', '767', '770', '775', '776', '778', '779', '780', '785', '786', '790', '793', '798', '799', '800', '802', '804', '806', '808', '813', '814', '820', '823', '824', '826', '828', '829', '831', '832', '833', '834', '836', '837', '838', '839', '844', '847', '848', '849', '850', '851', '853', '855', '856', '860', '864', '865', '866', '867', '868', '869', '870', '871', '874', '875', '876', '877', '878', '879', '880', '882', '883', '888', '889', '890', '893', '895', '897', '911', '913', '915', '920', '930', '931', '932', '933', '936', '939', '940', '942', '943', '946', '949', '950', '953', '954', '955', '958', '959', '960', '961', '962', '963', '964', '967', '969', '970', '973', '974', '978', '979', '980', '983', '984', '985', '994', '997', '999', '1003', '1005', '1006', '1007', '1008', '1009', '1010', '1012', '1014', '1016', '1018', '1023', '1026', '1029', '1035', '1038', '1039', '1040', '1043', '1044', '1046', '1047', '1049', '1051', '1052', '1054', '1058', '1062', '1064', '1066', '1067', '1069', '1070', '1073', '1075', '1078', '1079', '1080', '1083', '1085', '1086', '1087', '1091', '1093', '1095', '1102', '1104', '1107', '1109', '1110', '1111', '1114', '1116', '1117', '1118', '1119', '1123', '1124', '1125', '1127', '1129', '1130', '1131', '1132', '1133', '1137', '1140', '1143', '1144', '1145', '1149', '1150', '1152', '1158', '1159', '1164', '1166', '1167', '1170', '1171', '1173', '1174', '1176', '1179', '1183', '1186', '1190', '1192', '1194', '1195', '1196', '1197', '1198', '1203', '1206', '1207', '1208', '1210', '1212', '1216', '1218', '1219', '1224', '1225', '1229', '1230', '1235', '1238', '1242', '1244', '1250', '1251', '1252', '1254', '1255', '1258', '1260', '1261', '1264', '1266', '1267', '1275', '1276', '1277', '1281', '1283', '1287', '1289', '1290', '1291', '1292', '1293', '1295', '1299', '1300', '1304', '1306', '1308', '1309', '1322', '1325', '1326', '1327', '1328', '1329', '1330', '1336', '1339', '1344', '1345', '1346', '1347', '1353', '1354', '1355', '1359', '1361', '1363', '1367', '1370', '1372', '1375', '1376', '1378', '1381', '1383', '1384', '1385', '1386', '1388', '1389', '1390', '1391', '1393', '1395', '1396', '1397', '1400', '1401', '1402', '1406', '1407', '1408', '1412', '1414', '1415', '1417', '1418', '1419', '1421', '1422', '1427', '1431', '1432', '1433', '1436', '1437', '1438', '1440', '1444', '1446', '1447', '1449', '1451', '1452', '1453', '1454', '1458', '1461', '1462', '1464', '1467', '1469', '1471', '1472', '1474', '1477', '1478', '1480', '1482', '1489', '1490', '1496', '1500', '1504', '1505', '1506', '1507', '1508', '1513', '1519', '1522', '1525', '1526', '1527', '1529', '1532', '1533', '1538', '1544', '1545', '1548', '1549', '1550', '1551', '1552', '1553', '1554', '1556', '1557', '1562', '1564', '1567', '1570', '1572', '1573', '1574', '1575', '1578', '1579', '1581', '1584', '1586', '1587', '1589', '1592', '1593', '1594', '1595', '1598', '1599', '1600', '1605', '1606', '1607', '1609', '1613', '1614', '1615', '1618', '1620', '1621', '1622', '1623', '1625', '1626', '1627', '1628', '1629', '1632', '1639', '1642', '1644', '1646', '1650', '1652', '1654', '1656', '1657', '1658', '1660', '1662', '1663', '1664', '1666', '1667', '1668', '1669', '1674', '1676', '1681', '1683', '1684', '1688', '1691', '1692', '1693', '1695', '1697', '1698', '1700', '1703', '1705', '1706', '1708', '1711', '1712', '1713', '1715', '1718', '1719', '1720', '1722', '1724', '1726', '1728', '1729', '1733', '1734', '1736', '1738', '1743', '1746', '1749', '1750', '1751', '1754', '1756', '1758', '1760', '1762', '1766', '1769', '1774', '1777', '1778', '1780', '1783', '1789', '1790', '1791', '1792', '1795', '1801', '1804', '1805', '1806', '1807', '1811', '1813', '1814', '1817', '1818', '1822', '1823', '1825', '1826', '1827', '1829', '1834', '1837', '1841', '1842', '1843', '1844', '1847', '1854', '1857', '1858', '1859', '1865', '1867', '1869', '1871', '1874', '1875', '1876', '1879', '1880', '1887', '1888', '1889', '1891', '1895', '1896', '1899', '1900', '1904', '1905', '1909', '1910', '1912', '1916', '1919', '1921', '1922', '1923', '1925', '1931', '1934', '1935', '1936', '1938', '1939', '1941', '1946', '1947', '1948', '1950', '1951', '1955', '1956', '1959', '1960', '1961', '1962', '1964', '1966', '1968', '1979', '1980', '1981', '1982', '1983', '1985', '1986', '1987', '1993', '1994', '1998', '1999']",False,2000,True,2,da7b736e4e,0.0,1.0,1.0
./expes/v2_2021-03-23_issda-30_2000-prng-1-w2-p2,30_issda-2000,2000,first-2000,600,30,rng,num-start-600,600,25726,classic,2107.9842522144318,False,,False,0,,,0,"['6', '8', '10', '16', '17', '19', '24', '31', '32', '35', '36', '39', '49', '59', '60', '63', '64', '70', '75', '80', '85', '87', '89', '91', '98', '99', '112', '113', '115', '116', '121', '122', '124', '127', '128', '132', '134', '135', '138', '141', '145', '150', '151', '152', '161', '162', '168', '174', '183', '187', '190', '198', '202', '204', '205', '206', '222', '223', '231', '237', '239', '240', '247', '248', '249', '252', '256', '264', '267', '270', '282', '285', '288', '292', '295', '296', '298', '301', '302', '306', '311', '312', '315', '319', '321', '322', '324', '325', '328', '330', '331', '335', '337', '341', '344', '347', '348', '349', '351', '353', '355', '361', '367', '368', '376', '379', '383', '401', '402', '421', '423', '428', '436', '438', '440', '441', '444', '449', '450', '451', '453', '454', '456', '458', '462', '463', '467', '469', '470', '474', '475', '476', '479', '481', '482', '490', '491', '493', '497', '500', '507', '511', '514', '515', '516', '521', '523', '524', '526', '533', '535', '536', '537', '540', '553', '556', '558', '560', '562', '575', '587', '588', '589', '595', '606', '607', '620', '623', '626', '628', '636', '638', '639', '642', '645', '646', '649', '652', '653', '659', '660', '661', '663', '666', '674', '676', '677', '678', '679', '680', '681', '683', '685', '686', '688', '689', '691', '693', '694', '697', '702', '704', '705', '706', '712', '713', '723', '724', '725', '728', '729', '732', '736', '738', '740', '753', '755', '756', '760', '763', '771', '775', '778', '781', '789', '793', '796', '797', '799', '800', '804', '807', '810', '815', '818', '823', '825', '829', '830', '831', '835', '836', '849', '855', '857', '860', '862', '864', '867', '874', '878', '883', '886', '889', '890', '894', '900', '901', '903', '905', '906', '910', '912', '913', '920', '922', '923', '924', '926', '931', '933', '939', '942', '945', '947', '951', '955', '956', '957', '958', '959', '960', '963', '964', '970', '972', '974', '976', '981', '983', '986', '987', '988', '992', '995', '1003', '1005', '1008', '1009', '1012', '1014', '1015', '1017', '1020', '1021', '1022', '1024', '1025', '1027', '1029', '1036', '1037', '1039', '1041', '1046', '1048', '1050', '1057', '1061', '1062', '1064', '1065', '1066', '1068', '1071', '1085', '1086', '1089', '1094', '1097', '1098', '1114', '1115', '1119', '1122', '1124', '1127', '1130', '1135', '1137', '1141', '1147', '1157', '1158', '1161', '1167', '1168', '1169', '1170', '1172', '1178', '1180', '1183', '1186', '1191', '1196', '1197', '1199', '1202', '1203', '1209', '1216', '1220', '1222', '1225', '1236', '1239', '1251', '1254', '1257', '1258', '1260', '1263', '1265', '1267', '1271', '1275', '1280', '1283', '1286', '1288', '1293', '1300', '1302', '1303', '1307', '1314', '1322', '1323', '1324', '1325', '1328', '1329', '1330', '1336', '1342', '1343', '1344', '1346', '1349', '1350', '1352', '1357', '1362', '1363', '1370', '1371', '1376', '1379', '1386', '1387', '1388', '1390', '1396', '1398', '1402', '1404', '1410', '1412', '1414', '1415', '1417', '1419', '1422', '1423', '1425', '1427', '1428', '1436', '1438', '1445', '1450', '1451', '1454', '1459', '1472', '1473', '1476', '1477', '1478', '1482', '1483', '1486', '1489', '1493', '1506', '1508', '1511', '1515', '1518', '1520', '1522', '1524', '1526', '1527', '1537', '1538', '1539', '1544', '1547', '1551', '1554', '1557', '1558', '1572', '1574', '1581', '1585', '1586', '1592', '1593', '1595', '1602', '1604', '1606', '1608', '1615', '1616', '1623', '1625', '1627', '1631', '1634', '1636', '1637', '1640', '1645', '1646', '1648', '1649', '1650', '1651', '1659', '1660', '1662', '1667', '1681', '1683', '1686', '1690', '1695', '1701', '1711', '1716', '1717', '1718', '1721', '1722', '1724', '1728', '1729', '1735', '1736', '1737', '1743', '1748', '1749', '1752', '1753', '1756', '1757', '1763', '1768', '1769', '1773', '1776', '1777', '1780', '1781', '1783', '1787', '1792', '1793', '1797', '1800', '1802', '1806', '1809', '1812', '1813', '1816', '1817', '1823', '1827', '1829', '1830', '1831', '1842', '1847', '1848', '1854', '1857', '1858', '1859', '1862', '1863', '1867', '1870', '1874', '1877', '1884', '1886', '1888', '1889', '1890', '1893', '1895', '1896', '1900', '1901', '1906', '1908', '1913', '1914', '1915', '1916', '1918', '1922', '1927', '1935', '1936', '1938', '1940', '1942', '1945', '1947', '1948', '1950', '1953', '1958', '1965', '1967', '1971', '1977', '1981', '1982', '1983', '1987', '1992', '2000']",True,2000,True,2,b66ca80cac,0.0,0.0,0.0
./expes/v2_2021-03-23_issda-30_2000-prng-1-w2-p2,30_issda-2000,2000,first-2000,700,35,rng,num-start-2400,2400,25726,classic,2252.368456840515,True,,True,1.0,1.0,1.0,1,"['1', '2', '10', '11', '14', '20', '23', '24', '25', '26', '30', '31', '32', '33', '34', '35', '37', '40', '41', '44', '46', '47', '48', '50', '51', '57', '59', '61', '62', '65', '69', '72', '73', '74', '75', '77', '80', '84', '85', '86', '87', '91', '92', '96', '97', '98', '108', '122', '123', '124', '130', '132', '135', '137', '138', '141', '142', '144', '145', '148', '149', '150', '151', '152', '153', '154', '155', '160', '161', '165', '170', '171', '172', '174', '175', '177', '179', '180', '181', '185', '186', '189', '191', '193', '197', '199', '203', '206', '207', '213', '215', '218', '221', '222', '223', '224', '232', '235', '237', '239', '242', '250', '252', '253', '259', '261', '266', '267', '269', '270', '272', '275', '276', '278', '279', '280', '284', '288', '289', '290', '291', '294', '300', '301', '305', '316', '319', '323', '325', '327', '328', '337', '342', '347', '348', '355', '360', '361', '364', '366', '367', '371', '375', '378', '379', '382', '384', '386', '388', '389', '390', '391', '393', '398', '399', '401', '403', '404', '405', '406', '407', '409', '411', '412', '415', '418', '419', '420', '427', '428', '430', '432', '435', '436', '437', '438', '439', '443', '447', '448', '450', '454', '459', '464', '466', '468', '471', '472', '477', '479', '487', '489', '491', '495', '496', '497', '498', '501', '505', '511', '514', '521', '523', '524', '525', '526', '527', '529', '532', '533', '537', '546', '552', '553', '558', '560', '564', '567', '570', '574', '576', '578', '582', '592', '595', '596', '601', '603', '607', '617', '622', '623', '624', '633', '635', '636', '637', '638', '639', '646', '647', '649', '650', '654', '657', '660', '669', '670', '674', '677', '678', '682', '687', '690', '696', '700', '701', '702', '703', '704', '709', '712', '714', '719', '721', '726', '728', '733', '740', '742', '754', '756', '762', '769', '770', '772', '773', '777', '781', '784', '786', '788', '791', '792', '795', '796', '800', '803', '806', '808', '809', '812', '814', '821', '825', '828', '829', '830', '834', '840', '841', '842', '843', '847', '848', '853', '855', '859', '860', '862', '864', '879', '883', '889', '891', '895', '900', '902', '903', '905', '906', '913', '915', '917', '923', '926', '927', '928', '929', '932', '937', '938', '940', '948', '950', '951', '953', '954', '963', '964', '966', '968', '970', '973', '974', '975', '976', '982', '985', '986', '988', '989', '991', '996', '998', '999', '1006', '1009', '1010', '1012', '1017', '1019', '1020', '1021', '1022', '1024', '1025', '1030', '1031', '1034', '1036', '1041', '1043', '1046', '1049', '1050', '1051', '1054', '1055', '1057', '1058', '1062', '1063', '1064', '1065', '1066', '1069', '1071', '1074', '1076', '1079', '1083', '1085', '1087', '1088', '1092', '1094', '1096', '1097', '1098', '1100', '1103', '1104', '1106', '1109', '1112', '1113', '1115', '1116', '1119', '1127', '1128', '1129', '1130', '1135', '1145', '1146', '1147', '1151', '1153', '1154', '1156', '1160', '1165', '1168', '1169', '1172', '1174', '1177', '1182', '1186', '1190', '1193', '1194', '1195', '1197', '1202', '1203', '1209', '1211', '1214', '1220', '1222', '1226', '1229', '1232', '1233', '1236', '1237', '1240', '1245', '1247', '1249', '1250', '1251', '1253', '1257', '1258', '1259', '1261', '1262', '1266', '1270', '1275', '1277', '1280', '1282', '1285', '1286', '1287', '1289', '1290', '1291', '1293', '1297', '1299', '1300', '1303', '1304', '1308', '1309', '1310', '1311', '1312', '1313', '1315', '1319', '1330', '1332', '1334', '1337', '1339', '1340', '1342', '1346', '1352', '1357', '1364', '1375', '1377', '1383', '1389', '1390', '1397', '1398', '1402', '1403', '1404', '1405', '1407', '1408', '1412', '1416', '1421', '1422', '1429', '1431', '1434', '1436', '1437', '1438', '1442', '1443', '1444', '1448', '1450', '1452', '1457', '1463', '1467', '1470', '1472', '1476', '1479', '1480', '1482', '1486', '1489', '1492', '1493', '1497', '1499', '1501', '1506', '1510', '1514', '1515', '1516', '1518', '1534', '1537', '1544', '1546', '1547', '1549', '1553', '1561', '1570', '1574', '1576', '1583', '1594', '1595', '1596', '1598', '1600', '1614', '1618', '1620', '1622', '1625', '1632', '1633', '1635', '1637', '1639', '1640', '1641', '1645', '1646', '1647', '1651', '1654', '1658', '1659', '1660', '1671', '1675', '1676', '1679', '1682', '1684', '1687', '1688', '1690', '1698', '1700', '1701', '1702', '1703', '1704', '1705', '1706', '1715', '1717', '1719', '1721', '1725', '1726', '1728', '1732', '1734', '1736', '1739', '1743', '1744', '1745', '1746', '1750', '1752', '1753', '1755', '1756', '1769', '1770', '1771', '1774', '1775', '1777', '1782', '1785', '1788', '1800', '1801', '1802', '1803', '1807', '1813', '1818', '1821', '1824', '1825', '1827', '1829', '1835', '1836', '1844', '1845', '1846', '1849', '1854', '1855', '1856', '1858', '1861', '1864', '1865', '1867', '1873', '1874', '1876', '1879', '1884', '1885', '1886', '1890', '1892', '1893', '1895', '1896', '1899', '1904', '1906', '1907', '1909', '1910', '1914', '1917', '1918', '1926', '1928', '1934', '1937', '1940', '1944', '1946', '1956', '1960', '1961', '1963', '1965', '1972', '1974', '1975', '1976', '1984', '1986', '1989', '1993', '1997']",False,2000,True,2,cf52bd45b4,0.0,1.0,1.0
./expes/v2_2021-03-23_issda-30_2000-prng-1-w2-p2,30_issda-2000,2000,first-2000,500,25,rng,num-start-3000,3000,25726,classic,2096.69899392128,True,,True,1.0,1.0,1.0,1,"['5', '7', '8', '9', '11', '12', '20', '27', '30', '32', '45', '46', '56', '60', '62', '63', '66', '69', '71', '74', '79', '80', '84', '88', '89', '90', '94', '97', '101', '105', '107', '108', '110', '112', '114', '116', '126', '141', '142', '145', '146', '151', '159', '166', '174', '178', '184', '187', '190', '191', '193', '194', '205', '206', '211', '214', '220', '225', '230', '237', '241', '249', '257', '258', '259', '260', '263', '265', '267', '268', '269', '273', '274', '277', '281', '286', '291', '294', '300', '301', '302', '304', '306', '307', '309', '315', '318', '321', '322', '328', '329', '337', '342', '343', '362', '366', '367', '368', '374', '381', '384', '390', '391', '396', '398', '399', '400', '415', '416', '418', '425', '434', '438', '439', '441', '448', '452', '457', '461', '462', '463', '464', '465', '473', '480', '483', '487', '488', '489', '500', '501', '507', '509', '515', '519', '520', '526', '527', '528', '530', '531', '535', '536', '537', '538', '539', '541', '549', '551', '556', '565', '566', '574', '581', '589', '593', '595', '596', '601', '604', '605', '606', '608', '611', '614', '617', '618', '622', '628', '630', '631', '632', '637', '643', '648', '650', '655', '661', '680', '682', '684', '686', '697', '700', '703', '707', '709', '712', '719', '722', '729', '730', '736', '740', '746', '751', '755', '756', '760', '761', '762', '764', '768', '770', '771', '794', '796', '799', '806', '811', '813', '815', '831', '836', '839', '847', '853', '869', '870', '871', '872', '875', '877', '878', '879', '880', '881', '882', '884', '890', '891', '895', '901', '902', '903', '905', '909', '912', '919', '921', '922', '924', '941', '944', '945', '949', '950', '956', '963', '966', '972', '976', '981', '985', '988', '992', '997', '1006', '1017', '1018', '1020', '1026', '1027', '1033', '1045', '1048', '1059', '1065', '1066', '1068', '1070', '1071', '1074', '1075', '1078', '1079', '1082', '1087', '1089', '1090', '1092', '1093', '1094', '1096', '1098', '1100', '1113', '1117', '1118', '1120', '1121', '1126', '1127', '1136', '1138', '1140', '1147', '1156', '1158', '1168', '1170', '1171', '1174', '1175', '1183', '1185', '1190', '1195', '1199', '1205', '1207', '1210', '1211', '1213', '1218', '1219', '1222', '1224', '1229', '1236', '1241', '1246', '1247', '1250', '1252', '1257', '1265', '1269', '1271', '1275', '1285', '1289', '1292', '1298', '1308', '1309', '1313', '1315', '1318', '1322', '1330', '1332', '1334', '1336', '1338', '1339', '1342', '1346', '1365', '1366', '1367', '1372', '1374', '1381', '1387', '1395', '1396', '1401', '1402', '1404', '1416', '1424', '1430', '1432', '1435', '1436', '1437', '1438', '1442', '1445', '1460', '1463', '1467', '1468', '1472', '1473', '1477', '1481', '1485', '1488', '1489', '1491', '1493', '1500', '1502', '1504', '1506', '1508', '1513', '1515', '1517', '1526', '1527', '1533', '1538', '1547', '1553', '1557', '1561', '1564', '1570', '1583', '1585', '1592', '1608', '1611', '1613', '1626', '1627', '1635', '1636', '1641', '1643', '1645', '1646', '1651', '1653', '1657', '1659', '1664', '1674', '1679', '1682', '1683', '1687', '1688', '1689', '1691', '1693', '1696', '1703', '1707', '1709', '1710', '1713', '1716', '1717', '1720', '1733', '1739', '1740', '1741', '1745', '1749', '1765', '1766', '1769', '1775', '1777', '1778', '1779', '1781', '1785', '1795', '1797', '1813', '1815', '1816', '1817', '1820', '1822', '1823', '1827', '1829', '1833', '1839', '1840', '1845', '1847', '1848', '1851', '1855', '1857', '1858', '1863', '1865', '1866', '1869', '1873', '1881', '1886', '1887', '1897', '1909', '1911', '1916', '1920', '1922', '1931', '1945', '1949', '1951', '1954', '1963', '1965', '1970', '1982', '1987', '1989', '1990']",False,2000,True,2,8287ebe7a9,0.0,1.0,1.0
./expes/v2_2021-03-23_issda-30_2000-prng-1-w2-p2,30_issda-2000,2000,first-2000,900,45,rng,num-start-200,200,25726,classic,2037.506704568863,False,,False,0,,,0,"['1', '3', '7', '10', '12', '14', '22', '23', '25', '27', '28', '29', '30', '32', '34', '35', '41', '44', '45', '46', '47', '53', '57', '58', '61', '63', '66', '67', '68', '69', '70', '71', '72', '75', '76', '77', '80', '81', '82', '90', '91', '93', '101', '103', '105', '112', '114', '115', '118', '119', '122', '123', '125', '129', '130', '132', '134', '136', '140', '141', '144', '145', '147', '148', '152', '153', '154', '164', '165', '167', '168', '169', '170', '171', '172', '173', '175', '177', '178', '179', '182', '183', '184', '186', '190', '192', '194', '195', '196', '197', '199', '200', '205', '206', '208', '210', '212', '216', '217', '218', '219', '220', '221', '222', '223', '224', '227', '228', '229', '230', '233', '234', '237', '239', '240', '241', '242', '243', '245', '248', '250', '254', '255', '259', '261', '262', '263', '267', '272', '277', '279', '280', '281', '282', '285', '286', '288', '289', '292', '294', '299', '300', '302', '303', '304', '305', '307', '308', '315', '316', '317', '320', '322', '325', '327', '328', '330', '331', '332', '335', '338', '340', '341', '347', '348', '349', '350', '351', '353', '355', '356', '357', '359', '362', '364', '365', '372', '373', '375', '378', '379', '384', '388', '389', '392', '394', '396', '398', '401', '402', '405', '407', '408', '411', '412', '414', '415', '417', '421', '426', '427', '429', '431', '433', '434', '438', '446', '447', '450', '451', '453', '454', '456', '459', '462', '465', '470', '473', '475', '477', '480', '481', '483', '485', '487', '490', '492', '497', '500', '501', '504', '505', '506', '507', '508', '509', '512', '519', '520', '522', '523', '530', '535', '539', '542', '545', '546', '547', '551', '555', '562', '563', '564', '566', '567', '568', '579', '583', '584', '586', '589', '590', '592', '593', '594', '595', '597', '598', '599', '601', '605', '606', '607', '608', '611', '612', '614', '615', '618', '619', '620', '625', '631', '633', '634', '636', '637', '638', '639', '641', '642', '643', '644', '645', '646', '649', '654', '655', '656', '658', '661', '663', '664', '667', '670', '673', '674', '676', '682', '684', '687', '690', '691', '692', '693', '694', '698', '699', '701', '703', '705', '706', '709', '710', '711', '713', '714', '720', '722', '724', '729', '731', '732', '733', '734', '738', '739', '741', '742', '746', '748', '750', '751', '754', '756', '757', '758', '759', '761', '762', '763', '764', '768', '769', '772', '773', '776', '777', '779', '780', '781', '786', '787', '788', '791', '792', '795', '798', '799', '800', '801', '807', '808', '809', '812', '813', '814', '815', '818', '820', '821', '822', '825', '826', '832', '834', '835', '836', '840', '843', '844', '849', '850', '854', '856', '860', '864', '868', '869', '870', '871', '872', '873', '876', '880', '883', '884', '886', '890', '891', '893', '894', '895', '898', '899', '901', '902', '903', '905', '908', '909', '910', '911', '912', '914', '915', '916', '918', '919', '920', '922', '928', '929', '931', '933', '935', '938', '941', '942', '948', '949', '959', '961', '963', '966', '967', '970', '971', '972', '975', '977', '978', '981', '987', '991', '992', '994', '995', '997', '998', '999', '1000', '1001', '1003', '1004', '1005', '1006', '1013', '1014', '1018', '1019', '1020', '1021', '1022', '1023', '1024', '1025', '1028', '1029', '1030', '1032', '1033', '1034', '1035', '1037', '1038', '1039', '1040', '1041', '1045', '1046', '1047', '1049', '1053', '1054', '1058', '1059', '1063', '1065', '1066', '1067', '1069', '1070', '1072', '1073', '1076', '1077', '1079', '1080', '1082', '1083', '1084', '1090', '1093', '1095', '1106', '1108', '1117', '1119', '1120', '1121', '1122', '1123', '1126', '1131', '1136', '1138', '1139', '1142', '1146', '1149', '1150', '1152', '1153', '1154', '1155', '1156', '1160', '1161', '1163', '1165', '1166', '1171', '1173', '1174', '1175', '1180', '1181', '1185', '1186', '1188', '1190', '1191', '1195', '1197', '1199', '1200', '1206', '1209', '1213', '1217', '1218', '1222', '1224', '1226', '1229', '1230', '1231', '1232', '1235', '1238', '1239', '1240', '1243', '1244', '1249', '1250', '1251', '1253', '1255', '1256', '1257', '1259', '1264', '1265', '1271', '1273', '1278', '1279', '1280', '1281', '1288', '1289', '1291', '1294', '1295', '1296', '1299', '1302', '1303', '1310', '1312', '1315', '1319', '1323', '1324', '1326', '1327', '1331', '1332', '1333', '1335', '1337', '1339', '1340', '1341', '1342', '1344', '1345', '1346', '1347', '1348', '1349', '1354', '1358', '1359', '1362', '1363', '1366', '1367', '1368', '1370', '1371', '1373', '1379', '1385', '1386', '1389', '1390', '1393', '1396', '1401', '1402', '1403', '1407', '1409', '1410', '1414', '1415', '1416', '1418', '1419', '1420', '1422', '1424', '1426', '1428', '1432', '1436', '1437', '1438', '1441', '1443', '1444', '1445', '1446', '1451', '1452', '1453', '1454', '1455', '1463', '1466', '1467', '1469', '1470', '1472', '1473', '1474', '1475', '1477', '1478', '1481', '1484', '1485', '1486', '1487', '1491', '1492', '1493', '1502', '1505', '1508', '1509', '1510', '1511', '1518', '1519', '1522', '1523', '1524', '1525', '1531', '1533', '1534', '1535', '1536', '1543', '1547', '1548', '1549', '1555', '1556', '1561', '1562', '1566', '1569', '1570', '1571', '1573', '1575', '1577', '1581', '1586', '1592', '1595', '1597', '1598', '1600', '1602', '1605', '1608', '1610', '1611', '1612', '1616', '1619', '1620', '1623', '1625', '1628', '1630', '1632', '1636', '1637', '1645', '1648', '1649', '1653', '1654', '1655', '1656', '1661', '1662', '1665', '1666', '1668', '1669', '1670', '1673', '1678', '1682', '1685', '1686', '1690', '1691', '1695', '1696', '1697', '1698', '1699', '1700', '1701', '1703', '1707', '1709', '1712', '1713', '1715', '1716', '1717', '1719', '1721', '1724', '1726', '1728', '1729', '1731', '1733', '1735', '1740', '1742', '1746', '1751', '1752', '1755', '1756', '1758', '1760', '1762', '1772', '1775', '1779', '1780', '1781', '1786', '1793', '1795', '1796', '1797', '1799', '1802', '1805', '1806', '1807', '1809', '1811', '1814', '1818', '1820', '1822', '1824', '1826', '1827', '1829', '1830', '1834', '1837', '1838', '1840', '1844', '1847', '1848', '1850', '1851', '1854', '1855', '1857', '1858', '1860', '1862', '1864', '1867', '1869', '1870', '1872', '1876', '1877', '1882', '1883', '1884', '1885', '1886', '1887', '1888', '1890', '1892', '1894', '1895', '1896', '1900', '1902', '1903', '1908', '1910', '1911', '1918', '1919', '1925', '1929', '1930', '1932', '1935', '1937', '1938', '1939', '1941', '1942', '1946', '1949', '1950', '1954', '1958', '1959', '1961', '1962', '1964', '1965', '1971', '1976', '1977', '1978', '1981', '1983', '1987', '1989', '1990', '1993', '1997', '1999']",True,2000,True,2,6818f47b58,0.0,0.0,0.0
./expes/v2_2021-03-23_issda-30_2000-prng-1-w2-p2,30_issda-2000,2000,first-2000,300,15,rng,num-start-4000,4000,25726,classic,2742.8522520065308,True,,False,1.0,1.0,1.0,1,"['6', '15', '18', '34', '35', '47', '51', '54', '66', '69', '75', '81', '84', '89', '93', '96', '127', '128', '132', '137', '140', '145', '148', '151', '155', '159', '175', '181', '187', '188', '192', '194', '202', '204', '207', '208', '215', '219', '221', '230', '233', '234', '238', '246', '248', '249', '259', '263', '276', '279', '284', '287', '304', '314', '317', '325', '340', '349', '351', '359', '376', '384', '392', '393', '404', '409', '413', '415', '416', '425', '429', '432', '459', '461', '464', '477', '502', '503', '512', '519', '534', '535', '537', '539', '542', '549', '562', '563', '568', '576', '582', '585', '586', '593', '594', '601', '602', '606', '613', '617', '627', '632', '637', '638', '650', '651', '663', '665', '667', '671', '676', '680', '712', '731', '742', '752', '756', '757', '772', '777', '788', '796', '800', '803', '806', '812', '827', '831', '833', '844', '847', '849', '862', '867', '878', '879', '880', '881', '893', '895', '899', '902', '910', '912', '921', '922', '925', '926', '931', '934', '938', '939', '945', '949', '955', '957', '960', '962', '963', '975', '980', '983', '984', '1011', '1012', '1025', '1029', '1030', '1034', '1036', '1043', '1048', '1051', '1054', '1066', '1073', '1083', '1084', '1110', '1111', '1117', '1118', '1121', '1136', '1152', '1166', '1167', '1169', '1181', '1186', '1198', '1204', '1206', '1208', '1211', '1216', '1217', '1219', '1222', '1256', '1265', '1271', '1272', '1283', '1299', '1303', '1305', '1313', '1323', '1329', '1330', '1337', '1339', '1345', '1349', '1351', '1360', '1368', '1385', '1387', '1388', '1396', '1398', '1401', '1406', '1408', '1423', '1426', '1445', '1454', '1465', '1467', '1468', '1470', '1475', '1485', '1491', '1497', '1498', '1503', '1507', '1512', '1528', '1540', '1541', '1548', '1568', '1584', '1587', '1608', '1622', '1642', '1645', '1646', '1647', '1661', '1689', '1692', '1704', '1708', '1710', '1712', '1724', '1729', '1741', '1747', '1748', '1753', '1762', '1774', '1779', '1786', '1790', '1799', '1800', '1801', '1809', '1812', '1824', '1834', '1836', '1838', '1856', '1874', '1885', '1903', '1905', '1916', '1917', '1938', '1946', '1954', '1957', '1959', '1960', '1963', '1977', '1983', '1989', '1993']",True,2000,True,2,aaf9113f81,0.0,0.0,1.0
./expes/v2_2021-03-23_issda-30_2000-prng-1-w2-p2,30_issda-2000,2000,first-2000,500,25,rng,num-start-1200,1200,25726,classic,2217.7055282592773,True,,False,1.0,1.0,1.0,1,"['4', '5', '12', '18', '19', '22', '26', '30', '35', '36', '37', '38', '43', '45', '46', '49', '53', '56', '58', '59', '60', '61', '63', '67', '71', '73', '77', '78', '81', '82', '83', '90', '94', '98', '115', '121', '129', '130', '132', '134', '143', '145', '150', '157', '168', '171', '174', '178', '188', '193', '198', '203', '205', '206', '210', '211', '214', '221', '222', '223', '225', '234', '235', '236', '237', '242', '248', '257', '258', '265', '268', '273', '276', '277', '278', '300', '302', '322', '325', '326', '327', '329', '332', '336', '342', '343', '345', '346', '348', '349', '352', '355', '363', '371', '379', '381', '385', '386', '389', '398', '409', '410', '411', '412', '421', '422', '426', '429', '430', '435', '437', '444', '446', '449', '452', '455', '458', '459', '462', '465', '469', '471', '473', '476', '478', '481', '482', '491', '495', '498', '512', '517', '519', '520', '523', '530', '546', '547', '549', '551', '552', '559', '568', '576', '577', '582', '594', '595', '597', '603', '604', '606', '607', '608', '611', '612', '622', '628', '632', '636', '639', '642', '645', '650', '651', '656', '657', '658', '660', '667', '672', '679', '681', '682', '694', '695', '697', '699', '704', '705', '706', '708', '709', '711', '724', '731', '747', '748', '752', '754', '759', '768', '775', '777', '778', '779', '781', '786', '792', '799', '802', '806', '807', '809', '814', '817', '824', '828', '829', '833', '847', '849', '853', '863', '865', '873', '874', '880', '885', '887', '892', '897', '899', '913', '921', '922', '924', '928', '932', '938', '939', '941', '942', '944', '962', '968', '971', '977', '984', '986', '993', '994', '1000', '1002', '1003', '1009', '1015', '1016', '1017', '1023', '1024', '1026', '1029', '1033', '1034', '1035', '1037', '1040', '1042', '1043', '1045', '1050', '1053', '1058', '1063', '1067', '1073', '1081', '1091', '1095', '1103', '1106', '1107', '1109', '1112', '1116', '1122', '1123', '1124', '1127', '1128', '1129', '1133', '1136', '1140', '1149', '1150', '1154', '1156', '1157', '1160', '1166', '1168', '1169', '1175', '1180', '1184', '1185', '1188', '1197', '1202', '1204', '1207', '1210', '1211', '1212', '1215', '1222', '1229', '1230', '1232', '1237', '1241', '1245', '1248', '1254', '1255', '1257', '1260', '1276', '1277', '1280', '1289', '1292', '1293', '1302', '1316', '1326', '1328', '1329', '1331', '1335', '1336', '1345', '1351', '1352', '1360', '1362', '1364', '1373', '1374', '1379', '1381', '1382', '1383', '1387', '1389', '1395', '1406', '1408', '1424', '1426', '1439', '1440', '1441', '1442', '1444', '1457', '1458', '1465', '1473', '1478', '1483', '1486', '1487', '1488', '1494', '1496', '1501', '1511', '1512', '1517', '1522', '1524', '1545', '1548', '1555', '1559', '1562', '1565', '1572', '1573', '1578', '1579', '1589', '1593', '1595', '1597', '1598', '1602', '1603', '1605', '1609', '1611', '1612', '1615', '1616', '1618', '1631', '1633', '1634', '1636', '1643', '1644', '1646', '1648', '1652', '1658', '1662', '1666', '1673', '1674', '1676', '1679', '1681', '1692', '1696', '1697', '1700', '1705', '1712', '1716', '1721', '1723', '1724', '1731', '1734', '1736', '1738', '1742', '1744', '1748', '1756', '1757', '1759', '1762', '1764', '1774', '1777', '1778', '1782', '1786', '1794', '1800', '1805', '1808', '1813', '1815', '1818', '1825', '1830', '1835', '1837', '1843', '1845', '1847', '1863', '1864', '1865', '1866', '1871', '1873', '1877', '1879', '1885', '1889', '1895', '1896', '1897', '1898', '1907', '1910', '1918', '1921', '1922', '1924', '1927', '1928', '1933', '1934', '1936', '1946', '1950', '1951', '1955', '1956', '1961', '1966', '1971', '1976', '1978', '1981', '1983', '1985', '1987', '1988', '1994', '1995', '1998', '1999']",True,2000,True,2,9bd10d01d9,0.0,0.0,1.0
