expe,clients,clients_size,clients_subset,agg_size,agg_size_pc,method,days,days_size,days_total,noise_method,time,valid,valid_sum,success,score_avg,score_min,score_max,nsols,oracle,wall_hit,wall_time,pooled,pool_size,uuid,infeasible,optimal,valid_sums
./expes/v2_2021-03-23_issda-30_2000-prng-1-w2-p2,30_issda-2000,2000,first-2000,600,30,rng,num-start-1400,1400,25726,classic,1098.1566710472107,True,,True,1.0,1.0,1.0,1,"['2', '7', '8', '11', '12', '14', '15', '17', '18', '20', '21', '23', '25', '27', '31', '32', '36', '38', '40', '42', '46', '49', '53', '54', '56', '59', '60', '61', '62', '70', '71', '74', '80', '84', '85', '87', '89', '97', '100', '102', '104', '105', '106', '108', '109', '111', '113', '119', '121', '124', '125', '130', '132', '133', '135', '136', '137', '141', '142', '147', '153', '155', '156', '161', '166', '167', '170', '171', '172', '173', '174', '176', '178', '180', '182', '188', '189', '192', '194', '197', '198', '203', '204', '205', '209', '212', '213', '218', '223', '226', '227', '228', '229', '230', '242', '246', '247', '249', '263', '266', '271', '272', '273', '276', '277', '282', '283', '284', '285', '289', '292', '295', '298', '301', '304', '305', '306', '322', '332', '333', '335', '337', '341', '345', '347', '350', '351', '352', '354', '355', '361', '365', '367', '372', '374', '382', '383', '387', '388', '391', '394', '405', '406', '408', '409', '411', '414', '416', '420', '421', '428', '430', '431', '432', '433', '438', '444', '452', '453', '455', '456', '459', '460', '466', '473', '474', '476', '484', '485', '488', '498', '499', '507', '509', '515', '519', '526', '531', '533', '538', '539', '547', '548', '550', '553', '559', '562', '564', '567', '569', '571', '576', '583', '584', '595', '597', '603', '607', '615', '616', '617', '620', '627', '630', '633', '645', '646', '651', '657', '659', '663', '666', '673', '674', '675', '677', '678', '684', '685', '687', '692', '693', '698', '700', '706', '709', '711', '712', '715', '724', '727', '732', '736', '747', '749', '750', '757', '761', '763', '764', '765', '776', '777', '782', '785', '786', '789', '791', '796', '797', '798', '810', '813', '816', '817', '818', '822', '824', '825', '826', '827', '833', '840', '843', '854', '855', '861', '864', '866', '867', '870', '871', '875', '878', '881', '888', '893', '896', '900', '901', '910', '916', '920', '923', '925', '926', '929', '934', '936', '940', '946', '949', '950', '956', '958', '964', '971', '973', '974', '980', '981', '985', '988', '1004', '1007', '1008', '1013', '1016', '1017', '1018', '1019', '1026', '1029', '1030', '1035', '1037', '1042', '1044', '1045', '1053', '1056', '1059', '1060', '1061', '1064', '1070', '1071', '1073', '1080', '1084', '1093', '1097', '1101', '1102', '1106', '1110', '1111', '1113', '1114', '1115', '1118', '1121', '1124', '1132', '1136', '1137', '1139', '1146', '1148', '1151', '1154', '1158', '1160', '1162', '1165', '1169', '1174', '1176', '1177', '1179', '1185', '1186', '1188', '1190', '1197', '1199', '1202', '1204', '1205', '1206', '1209', '1210', '1212', '1215', '1223', '1224', '1228', '1231', '1235', '1238', '1239', '1240', '1242', '1243', '1245', '1246', '1247', '1248', '1251', '1252', '1253', '1255', '1256', '1263', '1275', '1280', '1281', '1284', '1290', '1295', '1300', '1305', '1309', '1315', '1317', '1322', '1327', '1330', '1334', '1350', '1359', '1368', '1371', '1372', '1373', '1375', '1381', '1386', '1387', '1389', '1390', '1391', '1393', '1396', '1399', '1400', '1402', '1405', '1409', '1410', '1414', '1419', '1421', '1426', '1428', '1433', '1434', '1436', '1441', '1442', '1445', '1452', '1453', '1458', '1466', '1469', '1474', '1476', '1485', '1487', '1489', '1490', '1492', '1495', '1503', '1508', '1510', '1511', '1518', '1523', '1527', '1528', '1529', '1531', '1532', '1533', '1542', '1546', '1558', '1560', '1561', '1564', '1565', '1566', '1567', '1572', '1580', '1581', '1583', '1585', '1586', '1587', '1589', '1592', '1593', '1595', '1598', '1599', '1604', '1606', '1611', '1618', '1625', '1628', '1631', '1636', '1637', '1638', '1639', '1645', '1654', '1656', '1658', '1659', '1669', '1681', '1686', '1688', '1706', '1708', '1715', '1719', '1720', '1728', '1732', '1733', '1734', '1743', '1745', '1746', '1760', '1762', '1770', '1774', '1775', '1776', '1777', '1779', '1780', '1786', '1791', '1792', '1794', '1796', '1797', '1800', '1801', '1803', '1804', '1806', '1810', '1816', '1817', '1818', '1820', '1821', '1822', '1825', '1828', '1829', '1834', '1835', '1837', '1840', '1841', '1847', '1849', '1856', '1857', '1861', '1863', '1867', '1874', '1880', '1883', '1885', '1887', '1891', '1893', '1894', '1903', '1907', '1918', '1922', '1925', '1927', '1928', '1933', '1934', '1938', '1939', '1940', '1947', '1948', '1949', '1954', '1957', '1958', '1963', '1968', '1970', '1971', '1972', '1975', '1980', '1982', '1984', '1997', '1998', '2000']",False,2000,True,2,51770b07ed,0.0,1.0,1.0
./expes/v2_2021-03-23_issda-30_2000-prng-1-w2-p2,30_issda-2000,2000,first-2000,600,30,rng,num-start-3800,3800,25726,classic,2730.95636844635,True,,False,1.0,1.0,1.0,1,"['1', '3', '8', '9', '12', '13', '19', '21', '23', '27', '29', '30', '35', '40', '41', '42', '44', '45', '46', '47', '51', '54', '57', '58', '63', '67', '68', '73', '75', '78', '80', '81', '88', '89', '90', '91', '96', '99', '106', '108', '113', '114', '116', '119', '120', '122', '133', '135', '146', '150', '153', '157', '161', '162', '163', '164', '165', '169', '172', '177', '183', '184', '186', '187', '189', '191', '199', '202', '205', '207', '212', '214', '219', '220', '222', '223', '233', '236', '238', '241', '242', '245', '249', '252', '254', '255', '257', '258', '268', '269', '274', '280', '290', '291', '294', '295', '296', '301', '302', '304', '309', '313', '314', '316', '317', '319', '323', '324', '327', '337', '342', '344', '348', '349', '352', '353', '354', '355', '357', '365', '373', '374', '379', '381', '389', '391', '395', '397', '400', '402', '406', '413', '416', '417', '418', '421', '424', '428', '429', '430', '434', '436', '440', '443', '448', '449', '452', '454', '456', '457', '459', '460', '461', '465', '467', '471', '476', '481', '483', '487', '488', '490', '491', '495', '498', '501', '504', '512', '520', '523', '524', '529', '531', '533', '535', '538', '539', '541', '548', '549', '551', '552', '558', '560', '571', '580', '582', '584', '588', '593', '594', '596', '601', '603', '605', '607', '608', '610', '619', '620', '621', '624', '625', '629', '633', '635', '636', '642', '643', '647', '649', '650', '655', '656', '660', '667', '673', '683', '686', '687', '689', '690', '700', '705', '706', '713', '715', '716', '717', '724', '725', '726', '733', '740', '741', '743', '747', '757', '765', '766', '767', '769', '771', '773', '785', '786', '787', '792', '793', '796', '802', '805', '808', '810', '811', '819', '820', '823', '825', '826', '827', '829', '830', '832', '834', '836', '837', '838', '839', '840', '843', '844', '845', '846', '852', '854', '856', '857', '858', '860', '861', '867', '874', '876', '877', '880', '887', '889', '894', '899', '904', '906', '910', '912', '915', '916', '917', '922', '929', '931', '934', '936', '942', '944', '946', '947', '952', '956', '961', '966', '968', '972', '973', '978', '985', '986', '988', '991', '995', '1000', '1004', '1005', '1007', '1012', '1013', '1016', '1017', '1019', '1020', '1022', '1023', '1027', '1030', '1032', '1045', '1046', '1047', '1052', '1053', '1058', '1059', '1062', '1072', '1073', '1077', '1083', '1089', '1090', '1092', '1095', '1097', '1101', '1103', '1105', '1110', '1129', '1133', '1134', '1153', '1157', '1162', '1171', '1173', '1176', '1186', '1189', '1193', '1202', '1203', '1208', '1209', '1215', '1216', '1219', '1222', '1224', '1227', '1234', '1235', '1237', '1242', '1243', '1248', '1250', '1252', '1255', '1256', '1258', '1260', '1264', '1277', '1281', '1282', '1284', '1287', '1288', '1293', '1296', '1297', '1301', '1307', '1308', '1312', '1313', '1317', '1320', '1321', '1332', '1335', '1337', '1339', '1341', '1342', '1343', '1347', '1349', '1351', '1353', '1357', '1358', '1364', '1365', '1366', '1367', '1369', '1370', '1392', '1395', '1397', '1407', '1408', '1411', '1413', '1415', '1417', '1421', '1425', '1429', '1430', '1432', '1433', '1434', '1441', '1448', '1449', '1450', '1457', '1463', '1472', '1474', '1477', '1483', '1485', '1487', '1491', '1496', '1497', '1500', '1508', '1510', '1512', '1513', '1516', '1521', '1522', '1523', '1533', '1536', '1540', '1542', '1547', '1553', '1554', '1559', '1564', '1565', '1566', '1568', '1576', '1583', '1584', '1586', '1598', '1602', '1603', '1604', '1605', '1610', '1612', '1614', '1616', '1617', '1619', '1630', '1631', '1635', '1636', '1646', '1647', '1650', '1651', '1652', '1655', '1664', '1667', '1669', '1671', '1674', '1677', '1686', '1688', '1692', '1693', '1694', '1700', '1704', '1706', '1711', '1721', '1722', '1724', '1725', '1726', '1727', '1729', '1732', '1735', '1736', '1738', '1741', '1750', '1763', '1771', '1772', '1773', '1777', '1778', '1784', '1788', '1795', '1809', '1810', '1811', '1812', '1813', '1814', '1820', '1830', '1836', '1837', '1842', '1843', '1849', '1855', '1857', '1865', '1875', '1877', '1882', '1883', '1884', '1886', '1892', '1895', '1896', '1901', '1902', '1905', '1908', '1915', '1921', '1925', '1927', '1932', '1933', '1942', '1943', '1947', '1949', '1950', '1952', '1953', '1954', '1959', '1961', '1962', '1965', '1971', '1976', '1979', '1981', '1983', '1984', '1985', '1988', '1989', '1991', '1993', '1995', '1996']",True,2000,True,2,e1013953fc,0.0,0.0,1.0
./expes/v2_2021-03-23_issda-30_2000-prng-1-w2-p2,30_issda-2000,2000,first-2000,800,40,rng,num-start-1400,1400,25726,classic,2268.380082845688,True,,False,1.0,1.0,1.0,1,"['1', '3', '4', '6', '7', '10', '11', '13', '20', '21', '22', '24', '26', '27', '29', '31', '35', '38', '40', '42', '45', '58', '59', '62', '63', '64', '66', '67', '68', '70', '73', '76', '78', '82', '85', '93', '94', '103', '104', '106', '107', '111', '112', '116', '117', '118', '120', '121', '122', '123', '125', '126', '128', '130', '131', '137', '140', '142', '145', '152', '153', '154', '156', '157', '159', '160', '161', '166', '170', '172', '176', '178', '180', '181', '183', '184', '185', '186', '190', '191', '192', '193', '194', '197', '200', '206', '208', '209', '213', '215', '216', '223', '225', '227', '229', '230', '233', '234', '235', '240', '245', '246', '248', '252', '253', '256', '258', '260', '261', '262', '263', '270', '272', '273', '276', '278', '280', '281', '283', '286', '291', '292', '296', '297', '299', '302', '303', '306', '308', '309', '310', '312', '316', '317', '318', '323', '324', '325', '329', '330', '333', '334', '335', '337', '346', '347', '349', '352', '353', '355', '359', '361', '362', '365', '373', '374', '376', '377', '379', '380', '381', '385', '386', '387', '391', '394', '395', '396', '397', '398', '402', '403', '404', '406', '407', '408', '412', '414', '418', '429', '430', '439', '442', '443', '446', '449', '453', '454', '457', '458', '461', '462', '464', '472', '475', '476', '479', '489', '493', '498', '499', '501', '502', '503', '512', '513', '515', '516', '517', '519', '522', '523', '524', '525', '536', '539', '540', '541', '544', '545', '549', '552', '554', '557', '559', '560', '562', '563', '565', '567', '569', '570', '574', '577', '586', '588', '593', '596', '597', '598', '602', '603', '613', '616', '620', '622', '623', '624', '625', '627', '634', '640', '649', '652', '655', '656', '657', '663', '667', '674', '675', '678', '681', '682', '688', '689', '692', '693', '698', '704', '705', '709', '717', '718', '719', '721', '732', '736', '738', '739', '740', '741', '742', '744', '745', '747', '751', '752', '753', '759', '760', '761', '763', '765', '767', '768', '771', '773', '774', '778', '779', '780', '781', '787', '788', '792', '796', '798', '799', '806', '815', '816', '818', '819', '827', '829', '834', '835', '838', '840', '841', '844', '848', '849', '856', '859', '864', '865', '867', '870', '872', '873', '874', '879', '881', '882', '883', '887', '893', '897', '899', '900', '901', '903', '904', '909', '910', '912', '913', '914', '916', '919', '921', '925', '926', '928', '933', '934', '938', '939', '948', '950', '951', '957', '961', '964', '965', '968', '969', '971', '973', '975', '978', '979', '980', '981', '982', '983', '984', '989', '991', '994', '995', '996', '997', '999', '1000', '1001', '1002', '1007', '1008', '1013', '1015', '1018', '1019', '1024', '1025', '1026', '1029', '1030', '1032', '1033', '1035', '1038', '1039', '1040', '1052', '1055', '1059', '1060', '1065', '1066', '1068', '1070', '1075', '1076', '1077', '1078', '1080', '1081', '1088', '1089', '1093', '1097', '1100', '1102', '1103', '1105', '1107', '1109', '1110', '1112', '1113', '1114', '1116', '1117', '1118', '1121', '1129', '1130', '1134', '1139', '1141', '1143', '1144', '1147', '1149', '1154', '1155', '1156', '1158', '1165', '1166', '1167', '1169', '1172', '1173', '1175', '1176', '1180', '1182', '1187', '1198', '1202', '1205', '1206', '1207', '1208', '1210', '1212', '1213', '1214', '1215', '1217', '1218', '1220', '1224', '1233', '1234', '1236', '1239', '1243', '1246', '1248', '1250', '1253', '1254', '1257', '1258', '1262', '1263', '1266', '1267', '1268', '1269', '1271', '1274', '1275', '1278', '1281', '1282', '1283', '1284', '1287', '1288', '1289', '1292', '1293', '1298', '1300', '1301', '1306', '1307', '1308', '1310', '1312', '1315', '1317', '1319', '1320', '1321', '1322', '1323', '1324', '1328', '1331', '1333', '1334', '1340', '1341', '1343', '1344', '1345', '1351', '1355', '1356', '1357', '1358', '1359', '1360', '1362', '1366', '1367', '1369', '1373', '1375', '1380', '1385', '1387', '1390', '1391', '1394', '1395', '1397', '1401', '1405', '1406', '1409', '1411', '1414', '1415', '1416', '1418', '1421', '1422', '1423', '1425', '1430', '1433', '1436', '1437', '1438', '1439', '1442', '1444', '1446', '1449', '1451', '1457', '1459', '1460', '1462', '1463', '1465', '1468', '1470', '1472', '1473', '1474', '1478', '1480', '1483', '1484', '1488', '1490', '1491', '1492', '1493', '1494', '1495', '1499', '1503', '1504', '1505', '1511', '1514', '1516', '1518', '1522', '1524', '1526', '1527', '1529', '1530', '1534', '1537', '1539', '1542', '1543', '1547', '1548', '1551', '1553', '1555', '1556', '1557', '1561', '1562', '1563', '1564', '1567', '1568', '1572', '1574', '1576', '1578', '1585', '1588', '1591', '1592', '1594', '1595', '1596', '1598', '1603', '1606', '1611', '1613', '1620', '1621', '1625', '1628', '1629', '1631', '1632', '1634', '1639', '1642', '1643', '1646', '1647', '1649', '1650', '1651', '1652', '1656', '1658', '1663', '1667', '1670', '1671', '1672', '1673', '1675', '1676', '1677', '1680', '1684', '1696', '1697', '1701', '1703', '1705', '1706', '1709', '1712', '1715', '1717', '1718', '1722', '1724', '1725', '1729', '1730', '1731', '1741', '1747', '1748', '1751', '1752', '1758', '1760', '1761', '1765', '1770', '1773', '1777', '1781', '1782', '1783', '1785', '1787', '1793', '1795', '1800', '1801', '1803', '1807', '1808', '1809', '1810', '1811', '1813', '1819', '1821', '1822', '1823', '1825', '1828', '1829', '1830', '1831', '1836', '1842', '1843', '1849', '1853', '1860', '1862', '1863', '1865', '1867', '1868', '1870', '1871', '1877', '1878', '1883', '1884', '1887', '1889', '1891', '1893', '1894', '1898', '1899', '1900', '1902', '1903', '1911', '1913', '1914', '1919', '1921', '1922', '1925', '1927', '1931', '1933', '1936', '1937', '1941', '1942', '1943', '1946', '1948', '1949', '1950', '1954', '1963', '1971', '1976', '1977', '1978', '1979', '1981', '1982', '1984', '1985', '1986', '1987', '1988', '1989', '1990', '1992', '1994', '1995', '1997', '1998', '2000']",True,2000,True,2,c69d4c391b,0.0,0.0,1.0
./expes/v2_2021-03-23_issda-30_2000-prng-1-w2-p2,30_issda-2000,2000,first-2000,600,30,rng,num-start-200,200,25726,classic,2038.4441585540771,False,,False,0,,,0,"['4', '7', '9', '10', '11', '18', '22', '24', '33', '36', '37', '40', '41', '44', '49', '50', '51', '52', '57', '61', '64', '65', '66', '69', '73', '74', '75', '77', '84', '89', '94', '101', '105', '110', '111', '116', '117', '121', '123', '124', '135', '137', '139', '146', '150', '151', '152', '155', '157', '164', '165', '167', '170', '173', '174', '177', '180', '188', '192', '193', '194', '197', '205', '206', '208', '209', '216', '218', '228', '230', '232', '236', '238', '243', '250', '252', '262', '264', '270', '277', '280', '283', '287', '288', '290', '295', '297', '301', '310', '311', '315', '320', '321', '322', '323', '325', '329', '331', '333', '337', '341', '347', '348', '350', '353', '354', '356', '361', '362', '364', '370', '372', '373', '377', '385', '392', '393', '394', '407', '409', '420', '426', '427', '431', '432', '435', '436', '442', '444', '446', '449', '455', '461', '462', '465', '468', '473', '475', '477', '481', '484', '494', '502', '506', '508', '510', '511', '512', '514', '516', '519', '520', '521', '523', '524', '526', '527', '531', '532', '537', '541', '545', '547', '550', '551', '560', '562', '571', '572', '579', '583', '586', '588', '594', '596', '604', '607', '608', '622', '627', '632', '634', '635', '639', '641', '648', '653', '665', '666', '672', '674', '675', '678', '686', '691', '699', '700', '705', '707', '712', '718', '719', '725', '730', '733', '735', '737', '738', '740', '742', '743', '746', '750', '751', '762', '763', '764', '765', '768', '779', '782', '784', '785', '788', '790', '791', '799', '800', '801', '803', '805', '806', '809', '810', '819', '823', '825', '826', '828', '829', '830', '833', '838', '842', '845', '850', '854', '857', '859', '860', '867', '868', '872', '876', '883', '889', '890', '899', '904', '911', '912', '913', '918', '919', '925', '929', '930', '932', '936', '937', '941', '943', '945', '949', '952', '953', '955', '956', '957', '958', '964', '968', '969', '979', '983', '988', '989', '992', '994', '995', '996', '997', '998', '1001', '1002', '1004', '1005', '1008', '1020', '1021', '1023', '1026', '1029', '1030', '1033', '1040', '1041', '1043', '1045', '1048', '1049', '1052', '1053', '1054', '1055', '1056', '1058', '1061', '1062', '1064', '1067', '1070', '1072', '1073', '1074', '1076', '1077', '1078', '1087', '1092', '1097', '1108', '1115', '1117', '1122', '1124', '1130', '1142', '1143', '1147', '1148', '1152', '1160', '1163', '1166', '1171', '1175', '1177', '1180', '1189', '1191', '1198', '1200', '1201', '1205', '1206', '1208', '1211', '1212', '1216', '1219', '1222', '1240', '1241', '1242', '1243', '1251', '1254', '1255', '1257', '1261', '1262', '1263', '1267', '1273', '1274', '1277', '1278', '1279', '1281', '1286', '1301', '1306', '1308', '1313', '1315', '1327', '1328', '1332', '1335', '1338', '1342', '1349', '1350', '1354', '1356', '1359', '1366', '1371', '1372', '1374', '1378', '1382', '1383', '1384', '1390', '1391', '1394', '1395', '1396', '1398', '1402', '1403', '1404', '1408', '1414', '1417', '1419', '1425', '1432', '1433', '1441', '1445', '1446', '1447', '1451', '1454', '1456', '1458', '1460', '1461', '1463', '1465', '1466', '1467', '1469', '1473', '1474', '1481', '1482', '1483', '1487', '1491', '1493', '1494', '1497', '1498', '1505', '1508', '1509', '1513', '1516', '1521', '1525', '1526', '1528', '1532', '1537', '1538', '1544', '1545', '1546', '1547', '1548', '1556', '1557', '1558', '1560', '1563', '1566', '1569', '1571', '1584', '1588', '1592', '1600', '1604', '1607', '1613', '1615', '1618', '1622', '1627', '1631', '1632', '1636', '1637', '1639', '1642', '1644', '1646', '1647', '1648', '1651', '1652', '1657', '1659', '1664', '1666', '1669', '1670', '1671', '1672', '1675', '1679', '1681', '1690', '1691', '1703', '1707', '1711', '1712', '1713', '1715', '1718', '1722', '1739', '1741', '1746', '1749', '1760', '1762', '1767', '1768', '1770', '1774', '1784', '1791', '1792', '1794', '1796', '1798', '1804', '1805', '1806', '1807', '1809', '1811', '1812', '1813', '1818', '1822', '1827', '1831', '1833', '1834', '1840', '1843', '1846', '1848', '1850', '1855', '1857', '1859', '1860', '1861', '1867', '1868', '1874', '1876', '1877', '1882', '1885', '1886', '1888', '1889', '1895', '1903', '1909', '1910', '1914', '1916', '1917', '1919', '1922', '1923', '1927', '1932', '1933', '1941', '1942', '1945', '1946', '1955', '1956', '1958', '1961', '1964', '1965', '1966', '1968', '1970', '1971', '1973', '1980', '1985', '1988', '1989', '1992', '1995']",True,2000,True,2,3187e88894,0.0,0.0,0.0
./expes/v2_2021-03-23_issda-30_2000-prng-1-w2-p2,30_issda-2000,2000,first-2000,600,30,rng,num-start-3200,3200,25726,classic,2642.3284373283386,True,,False,1.0,1.0,1.0,1,"['4', '8', '13', '14', '16', '18', '23', '26', '27', '35', '36', '39', '43', '45', '49', '51', '53', '56', '58', '59', '61', '63', '64', '67', '76', '78', '81', '82', '88', '90', '95', '101', '106', '107', '108', '109', '116', '117', '121', '125', '128', '132', '147', '148', '150', '153', '160', '169', '170', '172', '173', '179', '186', '187', '191', '199', '201', '202', '210', '211', '212', '218', '222', '225', '231', '232', '234', '238', '242', '245', '251', '253', '256', '258', '260', '265', '270', '276', '277', '279', '280', '282', '284', '291', '292', '293', '298', '301', '304', '318', '319', '330', '333', '335', '344', '348', '349', '351', '354', '361', '365', '368', '369', '373', '375', '377', '387', '388', '390', '393', '399', '401', '404', '405', '408', '409', '410', '411', '413', '419', '421', '424', '428', '429', '431', '433', '435', '439', '451', '452', '455', '458', '460', '463', '466', '467', '469', '471', '473', '475', '482', '489', '492', '495', '496', '504', '507', '512', '516', '517', '522', '523', '529', '532', '536', '538', '540', '545', '546', '549', '550', '551', '555', '561', '562', '567', '569', '570', '571', '572', '573', '578', '580', '584', '585', '597', '601', '607', '608', '611', '626', '630', '632', '635', '637', '638', '639', '640', '641', '648', '651', '658', '660', '661', '663', '671', '676', '681', '687', '690', '691', '696', '697', '699', '700', '702', '704', '705', '712', '714', '717', '718', '724', '725', '729', '730', '735', '738', '740', '741', '742', '743', '744', '745', '746', '747', '748', '749', '751', '753', '755', '761', '768', '776', '778', '781', '782', '788', '789', '790', '796', '797', '801', '805', '808', '810', '819', '821', '829', '831', '832', '834', '835', '837', '845', '850', '851', '856', '858', '861', '867', '868', '869', '875', '879', '881', '884', '886', '888', '892', '893', '901', '902', '909', '912', '919', '920', '934', '936', '941', '942', '943', '944', '952', '958', '962', '967', '972', '974', '976', '977', '978', '986', '989', '994', '995', '997', '1000', '1004', '1007', '1008', '1009', '1013', '1021', '1024', '1025', '1026', '1027', '1029', '1032', '1035', '1039', '1043', '1048', '1052', '1053', '1056', '1058', '1059', '1063', '1067', '1068', '1071', '1080', '1081', '1084', '1095', '1096', '1098', '1099', '1102', '1105', '1108', '1109', '1110', '1113', '1115', '1119', '1120', '1123', '1124', '1125', '1127', '1135', '1137', '1138', '1141', '1143', '1144', '1147', '1154', '1156', '1157', '1168', '1169', '1174', '1181', '1189', '1190', '1202', '1203', '1206', '1215', '1217', '1221', '1227', '1230', '1232', '1234', '1243', '1244', '1245', '1247', '1248', '1252', '1255', '1262', '1264', '1266', '1268', '1269', '1273', '1275', '1276', '1279', '1280', '1285', '1286', '1289', '1295', '1296', '1299', '1302', '1305', '1307', '1310', '1312', '1313', '1318', '1331', '1332', '1335', '1338', '1344', '1347', '1349', '1351', '1354', '1355', '1356', '1359', '1360', '1365', '1367', '1369', '1370', '1371', '1380', '1384', '1390', '1391', '1395', '1396', '1398', '1400', '1402', '1403', '1404', '1405', '1407', '1410', '1411', '1412', '1414', '1415', '1422', '1425', '1426', '1428', '1430', '1432', '1435', '1444', '1446', '1455', '1465', '1466', '1467', '1473', '1477', '1487', '1488', '1498', '1500', '1504', '1505', '1507', '1510', '1514', '1520', '1526', '1530', '1533', '1534', '1543', '1544', '1550', '1551', '1556', '1558', '1560', '1561', '1567', '1568', '1570', '1575', '1579', '1581', '1582', '1585', '1588', '1606', '1607', '1609', '1613', '1616', '1617', '1622', '1623', '1625', '1629', '1631', '1632', '1634', '1635', '1639', '1640', '1641', '1642', '1646', '1651', '1654', '1657', '1660', '1662', '1665', '1669', '1671', '1677', '1678', '1679', '1682', '1685', '1692', '1701', '1704', '1707', '1711', '1712', '1714', '1718', '1719', '1722', '1726', '1727', '1728', '1731', '1732', '1739', '1747', '1751', '1753', '1760', '1761', '1766', '1767', '1771', '1773', '1774', '1779', '1788', '1789', '1802', '1806', '1807', '1812', '1814', '1816', '1818', '1822', '1829', '1832', '1835', '1838', '1839', '1846', '1849', '1851', '1856', '1865', '1866', '1868', '1874', '1875', '1878', '1882', '1885', '1892', '1893', '1895', '1897', '1899', '1900', '1911', '1912', '1913', '1915', '1918', '1925', '1928', '1933', '1934', '1939', '1941', '1945', '1951', '1952', '1958', '1959', '1964', '1968', '1971', '1972', '1975', '1978', '1982', '1989', '1990', '1992', '2000']",True,2000,True,2,aa41073c51,0.0,0.0,1.0
./expes/v2_2021-03-23_issda-30_2000-prng-1-w2-p2,30_issda-2000,2000,first-2000,400,20,rng,num-start-3400,3400,25726,classic,2234.6142625808716,True,,True,1.0,1.0,1.0,1,"['6', '9', '11', '16', '31', '33', '34', '52', '66', '67', '68', '71', '73', '76', '90', '91', '92', '95', '104', '110', '114', '129', '133', '134', '135', '144', '148', '152', '156', '164', '166', '172', '183', '190', '196', '197', '198', '203', '217', '223', '232', '238', '239', '245', '273', '275', '279', '285', '286', '290', '294', '307', '312', '315', '321', '325', '329', '334', '338', '340', '341', '346', '357', '358', '361', '366', '374', '382', '391', '392', '393', '394', '397', '399', '400', '401', '410', '413', '423', '426', '428', '430', '451', '459', '460', '483', '487', '489', '491', '492', '494', '495', '497', '503', '505', '512', '522', '531', '537', '538', '540', '545', '547', '557', '563', '568', '569', '579', '581', '585', '593', '603', '607', '617', '620', '621', '628', '631', '632', '644', '655', '660', '662', '665', '672', '673', '680', '695', '700', '703', '712', '713', '715', '716', '717', '728', '738', '740', '743', '747', '750', '752', '766', '767', '769', '782', '783', '788', '795', '800', '804', '813', '821', '822', '829', '830', '837', '846', '849', '851', '852', '861', '862', '863', '864', '867', '868', '869', '874', '879', '888', '891', '892', '893', '894', '899', '900', '901', '904', '905', '913', '915', '916', '917', '918', '923', '930', '934', '936', '939', '940', '946', '948', '950', '956', '963', '977', '978', '981', '983', '984', '989', '994', '1003', '1004', '1007', '1016', '1018', '1023', '1024', '1027', '1028', '1038', '1040', '1065', '1066', '1067', '1069', '1070', '1071', '1072', '1076', '1093', '1097', '1099', '1104', '1106', '1109', '1116', '1125', '1128', '1138', '1139', '1145', '1156', '1162', '1167', '1168', '1171', '1172', '1177', '1179', '1184', '1194', '1198', '1203', '1206', '1212', '1216', '1219', '1220', '1224', '1232', '1234', '1235', '1236', '1241', '1243', '1246', '1249', '1250', '1257', '1265', '1268', '1285', '1288', '1310', '1317', '1329', '1331', '1335', '1336', '1338', '1339', '1348', '1353', '1356', '1361', '1366', '1373', '1380', '1381', '1383', '1395', '1402', '1405', '1408', '1413', '1424', '1430', '1438', '1460', '1471', '1475', '1476', '1479', '1480', '1488', '1503', '1508', '1515', '1517', '1523', '1524', '1526', '1527', '1535', '1539', '1556', '1565', '1571', '1573', '1579', '1582', '1583', '1584', '1587', '1589', '1593', '1604', '1612', '1616', '1620', '1626', '1633', '1638', '1641', '1648', '1654', '1659', '1661', '1664', '1666', '1673', '1674', '1676', '1682', '1687', '1688', '1694', '1695', '1698', '1699', '1707', '1714', '1725', '1729', '1736', '1737', '1744', '1748', '1752', '1759', '1762', '1766', '1768', '1772', '1781', '1785', '1786', '1792', '1818', '1819', '1821', '1830', '1837', '1839', '1840', '1853', '1856', '1860', '1863', '1865', '1866', '1870', '1871', '1874', '1884', '1886', '1890', '1893', '1911', '1917', '1928', '1932', '1937', '1941', '1948', '1951', '1952', '1956', '1971', '1974', '1976', '1984', '1986', '1987', '1988', '1995', '1997']",False,2000,True,2,0cf422792e,0.0,1.0,1.0
./expes/v2_2021-03-23_issda-30_2000-prng-1-w2-p2,30_issda-2000,2000,first-2000,400,20,rng,num-start-1400,1400,25726,classic,2269.3596506118774,True,,False,1.0,1.0,1.0,1,"['6', '9', '11', '16', '31', '33', '34', '52', '66', '67', '68', '71', '73', '76', '90', '91', '92', '95', '104', '110', '114', '129', '133', '134', '135', '144', '148', '152', '156', '164', '166', '172', '183', '190', '196', '197', '198', '203', '217', '223', '232', '238', '239', '245', '273', '275', '279', '285', '286', '290', '294', '307', '312', '315', '321', '325', '329', '334', '338', '340', '341', '346', '357', '358', '361', '366', '374', '382', '391', '392', '393', '394', '397', '399', '400', '401', '410', '413', '423', '426', '428', '430', '451', '459', '460', '483', '487', '489', '491', '492', '494', '495', '497', '503', '505', '512', '522', '531', '537', '538', '540', '545', '547', '557', '563', '568', '569', '579', '581', '585', '593', '603', '607', '617', '620', '621', '628', '631', '632', '644', '655', '660', '662', '665', '672', '673', '680', '695', '700', '703', '712', '713', '715', '716', '717', '728', '738', '740', '743', '747', '750', '752', '766', '767', '769', '782', '783', '788', '795', '800', '804', '813', '821', '822', '829', '830', '837', '846', '849', '851', '852', '861', '862', '863', '864', '867', '868', '869', '874', '879', '888', '891', '892', '893', '894', '899', '900', '901', '904', '905', '913', '915', '916', '917', '918', '923', '930', '934', '936', '939', '940', '946', '948', '950', '956', '963', '977', '978', '981', '983', '984', '989', '994', '1003', '1004', '1007', '1016', '1018', '1023', '1024', '1027', '1028', '1038', '1040', '1065', '1066', '1067', '1069', '1070', '1071', '1072', '1076', '1093', '1097', '1099', '1104', '1106', '1109', '1116', '1125', '1128', '1138', '1139', '1145', '1156', '1162', '1167', '1168', '1171', '1172', '1177', '1179', '1184', '1194', '1198', '1203', '1206', '1212', '1216', '1219', '1220', '1224', '1232', '1234', '1235', '1236', '1241', '1243', '1246', '1249', '1250', '1257', '1265', '1268', '1285', '1288', '1310', '1317', '1329', '1331', '1335', '1336', '1338', '1339', '1348', '1353', '1356', '1361', '1366', '1373', '1380', '1381', '1383', '1395', '1402', '1405', '1408', '1413', '1424', '1430', '1438', '1460', '1471', '1475', '1476', '1479', '1480', '1488', '1503', '1508', '1515', '1517', '1523', '1524', '1526', '1527', '1535', '1539', '1556', '1565', '1571', '1573', '1579', '1582', '1583', '1584', '1587', '1589', '1593', '1604', '1612', '1616', '1620', '1626', '1633', '1638', '1641', '1648', '1654', '1659', '1661', '1664', '1666', '1673', '1674', '1676', '1682', '1687', '1688', '1694', '1695', '1698', '1699', '1707', '1714', '1725', '1729', '1736', '1737', '1744', '1748', '1752', '1759', '1762', '1766', '1768', '1772', '1781', '1785', '1786', '1792', '1818', '1819', '1821', '1830', '1837', '1839', '1840', '1853', '1856', '1860', '1863', '1865', '1866', '1870', '1871', '1874', '1884', '1886', '1890', '1893', '1911', '1917', '1928', '1932', '1937', '1941', '1948', '1951', '1952', '1956', '1971', '1974', '1976', '1984', '1986', '1987', '1988', '1995', '1997']",True,2000,True,2,f401040e7c,0.0,0.0,1.0
./expes/v2_2021-03-23_issda-30_2000-prng-1-w2-p2,30_issda-2000,2000,first-2000,100,5,rng,num-start-2400,2400,25726,classic,771.5109326839447,True,,True,1.0,1.0,1.0,1,"['49', '57', '74', '116', '174', '188', '280', '325', '331', '337', '347', '356', '362', '364', '373', '435', '473', '484', '512', '516', '550', '572', '632', '653', '666', '725', '737', '740', '742', '746', '762', '779', '806', '819', '850', '868', '883', '912', '913', '945', '953', '1004', '1021', '1026', '1029', '1043', '1045', '1053', '1056', '1076', '1077', '1087', '1115', '1147', '1148', '1191', '1216', '1241', '1243', '1308', '1342', '1356', '1372', '1382', '1396', '1465', '1481', '1505', '1508', '1513', '1545', '1563', '1618', '1631', '1632', '1646', '1657', '1703', '1712', '1739', '1749', '1760', '1762', '1768', '1784', '1811', '1827', '1831', '1846', '1857', '1860', '1861', '1895', '1909', '1917', '1942', '1945', '1956', '1958', '1970']",False,2000,True,2,9437fc9813,0.0,1.0,1.0
./expes/v2_2021-03-23_issda-30_2000-prng-1-w2-p2,30_issda-2000,2000,first-2000,800,40,rng,num-start-1000,1000,25726,classic,2194.125023841858,True,,False,1.0,1.0,1.0,1,"['5', '6', '11', '14', '15', '18', '26', '27', '31', '34', '35', '37', '39', '41', '45', '47', '48', '50', '51', '52', '54', '55', '57', '66', '69', '71', '73', '75', '81', '84', '86', '87', '89', '90', '93', '96', '98', '100', '102', '114', '118', '123', '127', '128', '130', '131', '132', '135', '137', '140', '141', '142', '145', '147', '148', '149', '151', '153', '155', '159', '162', '164', '167', '171', '172', '175', '177', '181', '187', '188', '192', '193', '194', '195', '196', '202', '204', '207', '208', '210', '211', '212', '215', '219', '221', '223', '227', '228', '230', '232', '233', '234', '236', '238', '239', '245', '246', '248', '249', '253', '258', '259', '262', '263', '264', '265', '271', '272', '273', '274', '276', '279', '280', '282', '284', '286', '287', '294', '297', '300', '304', '305', '307', '309', '310', '312', '314', '316', '317', '320', '325', '326', '336', '337', '338', '340', '341', '342', '349', '351', '352', '354', '359', '361', '362', '363', '365', '366', '369', '370', '371', '372', '376', '380', '382', '383', '384', '385', '387', '388', '389', '390', '392', '393', '397', '402', '404', '409', '413', '414', '415', '416', '421', '425', '428', '429', '431', '432', '436', '441', '453', '459', '461', '462', '464', '465', '466', '472', '477', '486', '489', '493', '494', '495', '496', '500', '502', '503', '509', '511', '512', '515', '517', '519', '521', '523', '530', '533', '534', '535', '537', '539', '540', '542', '549', '551', '556', '557', '560', '562', '563', '564', '567', '568', '571', '572', '576', '579', '582', '585', '586', '591', '592', '593', '594', '597', '599', '601', '602', '606', '612', '613', '614', '616', '617', '623', '624', '627', '630', '632', '633', '634', '636', '637', '638', '641', '642', '646', '648', '650', '651', '660', '663', '665', '667', '671', '672', '674', '675', '676', '680', '682', '684', '689', '690', '696', '698', '700', '703', '707', '710', '711', '712', '716', '718', '720', '721', '724', '725', '726', '731', '734', '735', '737', '742', '744', '745', '746', '747', '750', '751', '752', '755', '756', '757', '758', '760', '763', '771', '772', '777', '781', '785', '788', '792', '793', '794', '795', '796', '800', '803', '804', '806', '812', '813', '819', '821', '823', '827', '829', '830', '831', '833', '844', '847', '848', '849', '852', '855', '857', '862', '867', '872', '874', '875', '878', '879', '880', '881', '882', '888', '890', '893', '895', '896', '897', '898', '899', '901', '902', '906', '910', '912', '914', '915', '917', '921', '922', '923', '925', '926', '928', '930', '931', '932', '934', '937', '938', '939', '941', '943', '945', '947', '949', '952', '955', '956', '957', '959', '960', '962', '963', '967', '968', '969', '975', '978', '979', '980', '982', '983', '984', '987', '989', '995', '996', '998', '999', '1001', '1002', '1004', '1006', '1008', '1011', '1012', '1015', '1018', '1019', '1022', '1025', '1028', '1029', '1030', '1034', '1036', '1043', '1048', '1049', '1050', '1051', '1054', '1056', '1057', '1058', '1065', '1066', '1067', '1069', '1072', '1073', '1075', '1077', '1078', '1080', '1083', '1084', '1085', '1087', '1089', '1090', '1094', '1095', '1098', '1099', '1100', '1102', '1105', '1106', '1110', '1111', '1115', '1117', '1118', '1120', '1121', '1124', '1126', '1129', '1134', '1135', '1136', '1137', '1141', '1145', '1151', '1152', '1153', '1156', '1165', '1166', '1167', '1169', '1175', '1178', '1179', '1181', '1184', '1186', '1188', '1190', '1193', '1194', '1195', '1198', '1199', '1204', '1206', '1208', '1211', '1213', '1215', '1216', '1217', '1218', '1219', '1221', '1222', '1223', '1224', '1226', '1227', '1246', '1248', '1249', '1251', '1256', '1259', '1261', '1265', '1267', '1268', '1269', '1270', '1271', '1272', '1274', '1280', '1282', '1283', '1286', '1290', '1293', '1299', '1301', '1302', '1303', '1305', '1308', '1310', '1311', '1313', '1320', '1323', '1325', '1329', '1330', '1331', '1333', '1337', '1339', '1344', '1345', '1347', '1349', '1351', '1352', '1355', '1360', '1364', '1367', '1368', '1370', '1371', '1372', '1376', '1380', '1381', '1385', '1387', '1388', '1389', '1394', '1396', '1398', '1401', '1405', '1406', '1408', '1410', '1411', '1420', '1423', '1426', '1427', '1429', '1432', '1435', '1438', '1445', '1452', '1454', '1461', '1465', '1467', '1468', '1470', '1473', '1474', '1475', '1485', '1486', '1491', '1497', '1498', '1503', '1507', '1509', '1512', '1513', '1514', '1519', '1524', '1525', '1528', '1532', '1534', '1540', '1541', '1543', '1545', '1546', '1548', '1550', '1553', '1556', '1557', '1559', '1561', '1565', '1568', '1570', '1572', '1577', '1584', '1586', '1587', '1588', '1594', '1595', '1601', '1602', '1604', '1605', '1607', '1608', '1609', '1612', '1614', '1617', '1618', '1622', '1624', '1625', '1626', '1629', '1630', '1632', '1639', '1642', '1645', '1646', '1647', '1648', '1655', '1661', '1663', '1667', '1670', '1673', '1675', '1679', '1684', '1686', '1688', '1689', '1692', '1696', '1702', '1704', '1705', '1708', '1710', '1712', '1715', '1722', '1724', '1729', '1730', '1731', '1733', '1735', '1737', '1738', '1740', '1741', '1742', '1744', '1747', '1748', '1752', '1753', '1754', '1755', '1762', '1763', '1766', '1767', '1770', '1774', '1777', '1779', '1786', '1790', '1799', '1800', '1801', '1804', '1809', '1811', '1812', '1814', '1815', '1816', '1820', '1822', '1824', '1831', '1832', '1833', '1834', '1836', '1837', '1838', '1839', '1851', '1853', '1854', '1856', '1859', '1860', '1862', '1863', '1865', '1874', '1876', '1883', '1885', '1887', '1892', '1896', '1898', '1901', '1903', '1905', '1907', '1908', '1911', '1913', '1914', '1915', '1916', '1917', '1918', '1919', '1921', '1924', '1925', '1929', '1933', '1936', '1937', '1938', '1941', '1942', '1945', '1946', '1947', '1954', '1956', '1957', '1959', '1960', '1963', '1964', '1970', '1973', '1974', '1977', '1978', '1979', '1980', '1981', '1983', '1984', '1987', '1989', '1991', '1993', '1995', '1999']",True,2000,True,2,a71b3504f5,0.0,0.0,1.0
./expes/v2_2021-03-23_issda-30_2000-prng-1-w2-p2,30_issda-2000,2000,first-2000,1000,50,rng,num-start-800,800,25726,classic,2160.9323613643646,False,,False,0,,,0,"['1', '2', '4', '6', '8', '10', '13', '16', '21', '22', '25', '26', '29', '30', '31', '32', '34', '36', '37', '38', '40', '41', '43', '44', '45', '47', '49', '52', '53', '57', '58', '59', '60', '62', '63', '65', '67', '71', '72', '78', '79', '80', '81', '82', '83', '85', '86', '88', '92', '95', '98', '102', '103', '105', '106', '107', '108', '112', '113', '114', '116', '121', '122', '123', '124', '127', '128', '131', '132', '133', '137', '138', '140', '141', '143', '144', '149', '153', '154', '155', '158', '159', '160', '166', '167', '171', '175', '176', '180', '182', '184', '185', '186', '191', '192', '193', '194', '195', '196', '198', '199', '201', '203', '204', '210', '211', '212', '214', '218', '219', '220', '223', '226', '227', '229', '230', '231', '232', '234', '235', '236', '238', '239', '243', '244', '245', '247', '249', '250', '251', '252', '253', '255', '258', '259', '260', '262', '264', '267', '268', '270', '271', '273', '274', '277', '281', '284', '289', '290', '291', '294', '300', '301', '305', '307', '310', '314', '316', '319', '325', '329', '330', '331', '332', '333', '334', '338', '339', '343', '344', '345', '348', '349', '350', '352', '353', '358', '360', '363', '364', '366', '369', '370', '371', '372', '374', '377', '379', '380', '381', '383', '387', '388', '389', '391', '393', '394', '395', '397', '400', '403', '405', '407', '408', '409', '410', '411', '415', '416', '419', '420', '421', '422', '425', '426', '427', '429', '431', '432', '434', '438', '442', '443', '444', '447', '449', '451', '455', '456', '457', '458', '461', '462', '463', '464', '468', '469', '471', '472', '473', '477', '478', '480', '483', '484', '485', '487', '490', '494', '495', '496', '498', '500', '501', '502', '505', '506', '507', '509', '510', '512', '513', '515', '516', '517', '519', '520', '522', '523', '524', '525', '526', '530', '533', '534', '539', '540', '541', '542', '544', '545', '547', '550', '552', '555', '556', '557', '558', '559', '560', '561', '562', '564', '565', '566', '570', '571', '573', '575', '576', '577', '578', '579', '580', '581', '582', '587', '588', '589', '594', '596', '597', '598', '599', '601', '602', '603', '604', '606', '607', '608', '614', '615', '616', '617', '620', '621', '625', '626', '628', '629', '634', '636', '637', '640', '641', '643', '644', '647', '648', '650', '652', '653', '654', '657', '659', '660', '661', '662', '663', '666', '667', '668', '672', '675', '677', '680', '683', '684', '685', '686', '687', '688', '691', '694', '696', '697', '699', '701', '703', '704', '709', '712', '714', '718', '720', '722', '724', '726', '729', '731', '734', '738', '739', '740', '745', '746', '748', '749', '751', '754', '755', '756', '759', '763', '764', '771', '772', '774', '776', '777', '778', '780', '781', '782', '783', '784', '787', '788', '789', '791', '792', '793', '794', '795', '798', '799', '800', '805', '807', '808', '809', '813', '814', '815', '818', '819', '820', '822', '824', '825', '827', '831', '832', '833', '837', '844', '845', '847', '849', '850', '855', '856', '858', '859', '862', '863', '864', '866', '867', '869', '871', '873', '874', '879', '880', '881', '884', '885', '886', '890', '893', '896', '898', '899', '901', '904', '905', '907', '910', '912', '913', '914', '917', '918', '920', '921', '922', '925', '927', '929', '930', '931', '932', '933', '937', '942', '944', '955', '956', '958', '959', '960', '961', '962', '963', '965', '966', '969', '970', '972', '973', '974', '975', '977', '979', '981', '984', '986', '987', '990', '992', '993', '994', '995', '996', '997', '998', '1000', '1002', '1003', '1005', '1006', '1012', '1013', '1014', '1015', '1020', '1022', '1025', '1026', '1029', '1031', '1033', '1034', '1035', '1036', '1038', '1039', '1041', '1044', '1046', '1048', '1049', '1053', '1058', '1061', '1062', '1065', '1066', '1068', '1069', '1073', '1077', '1078', '1080', '1082', '1086', '1087', '1088', '1089', '1090', '1092', '1094', '1095', '1096', '1098', '1101', '1103', '1107', '1109', '1110', '1111', '1113', '1115', '1116', '1117', '1119', '1120', '1121', '1122', '1124', '1125', '1126', '1128', '1130', '1132', '1134', '1136', '1138', '1140', '1142', '1143', '1144', '1145', '1146', '1147', '1150', '1158', '1161', '1162', '1163', '1164', '1166', '1167', '1168', '1169', '1171', '1174', '1177', '1178', '1182', '1183', '1184', '1186', '1192', '1195', '1197', '1201', '1205', '1206', '1207', '1211', '1214', '1216', '1218', '1219', '1220', '1221', '1222', '1226', '1229', '1232', '1234', '1235', '1237', '1240', '1244', '1245', '1248', '1249', '1253', '1255', '1261', '1262', '1265', '1267', '1270', '1272', '1279', '1281', '1283', '1285', '1286', '1287', '1294', '1296', '1297', '1298', '1301', '1304', '1306', '1310', '1311', '1313', '1315', '1318', '1321', '1322', '1323', '1324', '1325', '1326', '1327', '1329', '1330', '1331', '1335', '1336', '1339', '1343', '1344', '1345', '1346', '1348', '1349', '1351', '1352', '1356', '1359', '1360', '1363', '1365', '1369', '1373', '1374', '1375', '1377', '1379', '1380', '1383', '1386', '1388', '1393', '1394', '1395', '1396', '1398', '1402', '1403', '1404', '1406', '1407', '1409', '1413', '1416', '1417', '1418', '1427', '1431', '1432', '1437', '1439', '1440', '1441', '1442', '1443', '1444', '1446', '1453', '1454', '1456', '1457', '1460', '1463', '1464', '1465', '1466', '1470', '1471', '1472', '1474', '1476', '1478', '1480', '1484', '1485', '1486', '1487', '1488', '1489', '1491', '1496', '1497', '1500', '1504', '1506', '1509', '1514', '1515', '1516', '1517', '1519', '1522', '1525', '1527', '1529', '1530', '1532', '1533', '1539', '1540', '1541', '1542', '1546', '1547', '1548', '1551', '1552', '1555', '1557', '1558', '1559', '1560', '1562', '1563', '1564', '1565', '1567', '1571', '1575', '1576', '1577', '1578', '1580', '1584', '1585', '1587', '1588', '1590', '1593', '1597', '1602', '1603', '1606', '1607', '1608', '1610', '1613', '1615', '1621', '1623', '1624', '1626', '1627', '1632', '1633', '1634', '1635', '1637', '1639', '1641', '1646', '1648', '1650', '1651', '1652', '1654', '1655', '1656', '1658', '1659', '1660', '1661', '1664', '1668', '1670', '1673', '1676', '1678', '1680', '1681', '1682', '1683', '1685', '1686', '1687', '1688', '1691', '1694', '1695', '1696', '1697', '1698', '1701', '1702', '1703', '1704', '1705', '1710', '1711', '1713', '1714', '1720', '1724', '1731', '1732', '1735', '1737', '1739', '1740', '1741', '1742', '1745', '1747', '1748', '1750', '1752', '1754', '1756', '1761', '1762', '1764', '1765', '1768', '1769', '1770', '1771', '1772', '1773', '1776', '1777', '1779', '1781', '1784', '1785', '1786', '1787', '1788', '1790', '1791', '1792', '1795', '1800', '1802', '1803', '1807', '1810', '1814', '1815', '1816', '1819', '1820', '1821', '1835', '1836', '1837', '1839', '1840', '1841', '1842', '1845', '1846', '1847', '1848', '1849', '1852', '1853', '1861', '1862', '1864', '1865', '1875', '1877', '1879', '1884', '1886', '1887', '1888', '1889', '1891', '1893', '1894', '1895', '1896', '1898', '1900', '1901', '1902', '1903', '1906', '1907', '1908', '1910', '1911', '1912', '1913', '1914', '1917', '1918', '1920', '1921', '1924', '1926', '1930', '1932', '1934', '1935', '1936', '1937', '1938', '1940', '1946', '1948', '1949', '1950', '1951', '1955', '1959', '1962', '1964', '1965', '1967', '1968', '1969', '1971', '1972', '1974', '1977', '1980', '1983', '1984', '1986', '1988', '1990', '1991', '1992', '1993', '1995', '2000']",True,2000,True,2,90876f7f83,0.0,0.0,0.0
./expes/v2_2021-03-23_issda-30_2000-prng-1-w2-p2,30_issda-2000,2000,first-2000,700,35,rng,num-start-3800,3800,25726,classic,2746.953103542328,True,,False,1.0,1.0,1.0,1,"['3', '5', '7', '8', '9', '11', '12', '20', '24', '27', '30', '32', '33', '40', '42', '45', '46', '54', '56', '60', '62', '63', '66', '69', '71', '74', '79', '80', '84', '88', '89', '90', '92', '94', '95', '97', '101', '105', '107', '108', '110', '111', '112', '114', '116', '117', '125', '126', '138', '139', '141', '142', '145', '146', '151', '159', '160', '164', '165', '166', '174', '178', '181', '183', '184', '187', '188', '190', '191', '193', '194', '199', '205', '206', '208', '211', '212', '214', '220', '225', '229', '230', '232', '237', '241', '245', '249', '253', '256', '257', '258', '259', '260', '263', '264', '265', '267', '268', '269', '273', '274', '277', '281', '286', '288', '291', '293', '294', '299', '300', '301', '302', '304', '306', '307', '309', '310', '315', '316', '318', '321', '322', '326', '328', '329', '330', '337', '342', '343', '346', '347', '357', '362', '365', '366', '367', '368', '374', '380', '381', '384', '386', '390', '391', '396', '398', '399', '400', '415', '416', '418', '422', '425', '426', '427', '434', '435', '438', '439', '441', '442', '448', '450', '452', '457', '461', '462', '463', '464', '465', '473', '474', '478', '480', '483', '487', '488', '489', '494', '497', '500', '501', '502', '507', '509', '513', '515', '519', '520', '522', '526', '527', '528', '530', '531', '535', '536', '537', '538', '539', '541', '549', '551', '556', '559', '565', '566', '574', '575', '577', '580', '581', '589', '593', '595', '596', '601', '604', '605', '606', '608', '610', '611', '614', '615', '617', '618', '622', '625', '626', '628', '630', '631', '632', '637', '642', '643', '648', '650', '655', '661', '665', '671', '673', '680', '682', '684', '686', '693', '697', '700', '703', '707', '709', '712', '713', '715', '719', '722', '729', '730', '731', '736', '740', '742', '745', '746', '751', '755', '756', '760', '761', '762', '764', '768', '769', '770', '771', '772', '778', '781', '792', '794', '796', '798', '799', '806', '807', '811', '813', '815', '816', '820', '822', '831', '836', '839', '841', '847', '848', '849', '853', '856', '861', '864', '869', '870', '871', '872', '874', '875', '876', '877', '878', '879', '880', '881', '882', '884', '886', '890', '891', '894', '895', '896', '901', '902', '903', '905', '909', '911', '912', '917', '919', '921', '922', '924', '927', '941', '944', '945', '947', '949', '950', '956', '963', '966', '972', '976', '979', '980', '981', '985', '987', '988', '992', '997', '998', '1004', '1006', '1008', '1010', '1017', '1018', '1020', '1022', '1023', '1026', '1027', '1033', '1045', '1048', '1050', '1052', '1059', '1063', '1065', '1066', '1067', '1068', '1070', '1071', '1074', '1075', '1078', '1079', '1080', '1082', '1087', '1088', '1089', '1090', '1091', '1092', '1093', '1094', '1096', '1098', '1099', '1100', '1113', '1117', '1118', '1120', '1121', '1126', '1127', '1130', '1135', '1136', '1137', '1138', '1140', '1143', '1144', '1147', '1150', '1154', '1156', '1158', '1159', '1168', '1170', '1171', '1172', '1174', '1175', '1179', '1183', '1184', '1185', '1186', '1188', '1190', '1195', '1199', '1205', '1207', '1210', '1211', '1213', '1217', '1218', '1219', '1222', '1224', '1227', '1228', '1229', '1236', '1241', '1246', '1247', '1250', '1252', '1257', '1265', '1269', '1271', '1272', '1275', '1280', '1285', '1287', '1289', '1291', '1292', '1295', '1298', '1308', '1309', '1313', '1315', '1318', '1322', '1330', '1332', '1334', '1336', '1338', '1339', '1342', '1344', '1346', '1351', '1365', '1366', '1367', '1372', '1374', '1377', '1381', '1387', '1395', '1396', '1401', '1402', '1404', '1416', '1424', '1427', '1430', '1432', '1435', '1436', '1437', '1438', '1442', '1443', '1445', '1447', '1452', '1454', '1460', '1461', '1463', '1465', '1466', '1467', '1468', '1472', '1473', '1477', '1480', '1481', '1485', '1488', '1489', '1491', '1493', '1500', '1502', '1504', '1506', '1508', '1513', '1515', '1517', '1520', '1523', '1526', '1527', '1530', '1533', '1536', '1537', '1538', '1539', '1540', '1542', '1547', '1553', '1557', '1561', '1564', '1569', '1570', '1576', '1577', '1583', '1585', '1588', '1589', '1592', '1595', '1596', '1602', '1604', '1607', '1608', '1611', '1613', '1618', '1626', '1627', '1633', '1635', '1636', '1638', '1641', '1643', '1645', '1646', '1649', '1651', '1653', '1656', '1657', '1659', '1664', '1668', '1669', '1674', '1675', '1677', '1679', '1680', '1682', '1683', '1687', '1688', '1689', '1691', '1693', '1696', '1703', '1707', '1709', '1710', '1713', '1716', '1717', '1719', '1720', '1721', '1723', '1733', '1739', '1740', '1741', '1745', '1746', '1748', '1749', '1753', '1757', '1760', '1765', '1766', '1769', '1775', '1777', '1778', '1779', '1781', '1785', '1795', '1797', '1810', '1813', '1815', '1816', '1817', '1820', '1822', '1823', '1825', '1827', '1829', '1832', '1833', '1834', '1839', '1840', '1845', '1847', '1848', '1851', '1855', '1857', '1858', '1863', '1865', '1866', '1868', '1869', '1870', '1873', '1881', '1885', '1886', '1887', '1897', '1901', '1909', '1911', '1912', '1916', '1920', '1922', '1931', '1932', '1945', '1946', '1949', '1951', '1954', '1958', '1960', '1963', '1965', '1970', '1977', '1982', '1983', '1987', '1989', '1990', '1991', '1996']",True,2000,True,2,caee54c493,0.0,0.0,1.0
./expes/v2_2021-03-23_issda-30_2000-prng-1-w2-p2,30_issda-2000,2000,first-2000,600,30,rng,num-start-2800,2800,25726,classic,2151.3980503082275,True,,True,1.0,1.0,1.0,1,"['2', '7', '8', '11', '12', '14', '15', '17', '18', '20', '21', '23', '25', '27', '31', '32', '36', '38', '40', '42', '46', '49', '53', '54', '56', '59', '60', '61', '62', '70', '71', '74', '80', '84', '85', '87', '89', '97', '100', '102', '104', '105', '106', '108', '109', '111', '113', '119', '121', '124', '125', '130', '132', '133', '135', '136', '137', '141', '142', '147', '153', '155', '156', '161', '166', '167', '170', '171', '172', '173', '174', '176', '178', '180', '182', '188', '189', '192', '194', '197', '198', '203', '204', '205', '209', '212', '213', '218', '223', '226', '227', '228', '229', '230', '242', '246', '247', '249', '263', '266', '271', '272', '273', '276', '277', '282', '283', '284', '285', '289', '292', '295', '298', '301', '304', '305', '306', '322', '332', '333', '335', '337', '341', '345', '347', '350', '351', '352', '354', '355', '361', '365', '367', '372', '374', '382', '383', '387', '388', '391', '394', '405', '406', '408', '409', '411', '414', '416', '420', '421', '428', '430', '431', '432', '433', '438', '444', '452', '453', '455', '456', '459', '460', '466', '473', '474', '476', '484', '485', '488', '498', '499', '507', '509', '515', '519', '526', '531', '533', '538', '539', '547', '548', '550', '553', '559', '562', '564', '567', '569', '571', '576', '583', '584', '595', '597', '603', '607', '615', '616', '617', '620', '627', '630', '633', '645', '646', '651', '657', '659', '663', '666', '673', '674', '675', '677', '678', '684', '685', '687', '692', '693', '698', '700', '706', '709', '711', '712', '715', '724', '727', '732', '736', '747', '749', '750', '757', '761', '763', '764', '765', '776', '777', '782', '785', '786', '789', '791', '796', '797', '798', '810', '813', '816', '817', '818', '822', '824', '825', '826', '827', '833', '840', '843', '854', '855', '861', '864', '866', '867', '870', '871', '875', '878', '881', '888', '893', '896', '900', '901', '910', '916', '920', '923', '925', '926', '929', '934', '936', '940', '946', '949', '950', '956', '958', '964', '971', '973', '974', '980', '981', '985', '988', '1004', '1007', '1008', '1013', '1016', '1017', '1018', '1019', '1026', '1029', '1030', '1035', '1037', '1042', '1044', '1045', '1053', '1056', '1059', '1060', '1061', '1064', '1070', '1071', '1073', '1080', '1084', '1093', '1097', '1101', '1102', '1106', '1110', '1111', '1113', '1114', '1115', '1118', '1121', '1124', '1132', '1136', '1137', '1139', '1146', '1148', '1151', '1154', '1158', '1160', '1162', '1165', '1169', '1174', '1176', '1177', '1179', '1185', '1186', '1188', '1190', '1197', '1199', '1202', '1204', '1205', '1206', '1209', '1210', '1212', '1215', '1223', '1224', '1228', '1231', '1235', '1238', '1239', '1240', '1242', '1243', '1245', '1246', '1247', '1248', '1251', '1252', '1253', '1255', '1256', '1263', '1275', '1280', '1281', '1284', '1290', '1295', '1300', '1305', '1309', '1315', '1317', '1322', '1327', '1330', '1334', '1350', '1359', '1368', '1371', '1372', '1373', '1375', '1381', '1386', '1387', '1389', '1390', '1391', '1393', '1396', '1399', '1400', '1402', '1405', '1409', '1410', '1414', '1419', '1421', '1426', '1428', '1433', '1434', '1436', '1441', '1442', '1445', '1452', '1453', '1458', '1466', '1469', '1474', '1476', '1485', '1487', '1489', '1490', '1492', '1495', '1503', '1508', '1510', '1511', '1518', '1523', '1527', '1528', '1529', '1531', '1532', '1533', '1542', '1546', '1558', '1560', '1561', '1564', '1565', '1566', '1567', '1572', '1580', '1581', '1583', '1585', '1586', '1587', '1589', '1592', '1593', '1595', '1598', '1599', '1604', '1606', '1611', '1618', '1625', '1628', '1631', '1636', '1637', '1638', '1639', '1645', '1654', '1656', '1658', '1659', '1669', '1681', '1686', '1688', '1706', '1708', '1715', '1719', '1720', '1728', '1732', '1733', '1734', '1743', '1745', '1746', '1760', '1762', '1770', '1774', '1775', '1776', '1777', '1779', '1780', '1786', '1791', '1792', '1794', '1796', '1797', '1800', '1801', '1803', '1804', '1806', '1810', '1816', '1817', '1818', '1820', '1821', '1822', '1825', '1828', '1829', '1834', '1835', '1837', '1840', '1841', '1847', '1849', '1856', '1857', '1861', '1863', '1867', '1874', '1880', '1883', '1885', '1887', '1891', '1893', '1894', '1903', '1907', '1918', '1922', '1925', '1927', '1928', '1933', '1934', '1938', '1939', '1940', '1947', '1948', '1949', '1954', '1957', '1958', '1963', '1968', '1970', '1971', '1972', '1975', '1980', '1982', '1984', '1997', '1998', '2000']",False,2000,True,2,962d830415,0.0,1.0,1.0
./expes/v2_2021-03-23_issda-30_2000-prng-1-w2-p2,30_issda-2000,2000,first-2000,1000,50,rng,num-start-1200,1200,25726,classic,2225.863089323044,True,,False,1.0,1.0,1.0,1,"['1', '5', '6', '7', '9', '11', '14', '15', '18', '26', '27', '30', '31', '32', '34', '35', '37', '39', '41', '43', '45', '47', '48', '49', '50', '51', '52', '54', '55', '57', '66', '69', '71', '73', '75', '81', '84', '85', '86', '87', '89', '90', '93', '96', '98', '100', '102', '110', '114', '118', '123', '124', '127', '128', '130', '131', '132', '133', '135', '136', '137', '140', '141', '142', '145', '147', '148', '149', '151', '153', '155', '159', '162', '164', '167', '171', '172', '173', '175', '176', '177', '178', '180', '181', '184', '187', '188', '190', '192', '193', '194', '195', '196', '199', '202', '204', '207', '208', '210', '211', '212', '215', '216', '218', '219', '220', '221', '223', '224', '227', '228', '230', '232', '233', '234', '236', '238', '239', '242', '245', '246', '248', '249', '251', '253', '257', '258', '259', '262', '263', '264', '265', '267', '271', '272', '273', '274', '275', '276', '277', '279', '280', '282', '284', '286', '287', '288', '290', '294', '297', '300', '304', '305', '307', '309', '310', '312', '314', '316', '317', '320', '321', '325', '326', '336', '337', '338', '340', '341', '342', '344', '348', '349', '351', '352', '354', '359', '360', '361', '362', '363', '365', '366', '367', '369', '370', '371', '372', '376', '377', '380', '382', '383', '384', '385', '387', '388', '389', '390', '392', '393', '394', '396', '397', '399', '401', '402', '404', '409', '410', '413', '414', '415', '416', '421', '422', '424', '425', '428', '429', '430', '431', '432', '436', '438', '441', '444', '446', '448', '450', '453', '455', '456', '459', '461', '462', '463', '464', '465', '466', '472', '475', '477', '478', '480', '486', '489', '493', '494', '495', '496', '497', '500', '502', '503', '509', '510', '511', '512', '515', '517', '519', '520', '521', '523', '529', '530', '533', '534', '535', '537', '539', '540', '542', '549', '550', '551', '554', '555', '556', '557', '559', '560', '562', '563', '564', '567', '568', '571', '572', '576', '579', '581', '582', '583', '585', '586', '591', '592', '593', '594', '597', '599', '601', '602', '603', '606', '608', '609', '612', '613', '614', '616', '617', '619', '623', '624', '627', '630', '632', '633', '634', '636', '637', '638', '641', '642', '646', '648', '650', '651', '655', '660', '663', '664', '665', '667', '671', '672', '674', '675', '676', '680', '682', '683', '684', '689', '690', '695', '696', '698', '699', '700', '703', '707', '710', '711', '712', '716', '718', '720', '721', '723', '724', '725', '726', '727', '731', '734', '735', '737', '742', '743', '744', '745', '746', '747', '750', '751', '752', '755', '756', '757', '758', '760', '763', '767', '771', '772', '776', '777', '781', '783', '785', '788', '792', '793', '794', '795', '796', '798', '800', '801', '803', '804', '806', '812', '813', '814', '817', '819', '821', '823', '827', '829', '830', '831', '833', '834', '843', '844', '845', '846', '847', '848', '849', '852', '854', '855', '856', '857', '862', '867', '872', '874', '875', '878', '879', '880', '881', '882', '888', '889', '890', '891', '893', '895', '896', '897', '898', '899', '901', '902', '906', '908', '910', '912', '914', '915', '917', '918', '921', '922', '923', '925', '926', '928', '930', '931', '932', '933', '934', '937', '938', '939', '941', '943', '945', '947', '949', '950', '952', '955', '956', '957', '959', '960', '962', '963', '964', '967', '968', '969', '975', '978', '979', '980', '982', '983', '984', '986', '987', '989', '991', '994', '995', '996', '998', '999', '1001', '1002', '1003', '1004', '1006', '1008', '1009', '1011', '1012', '1015', '1018', '1019', '1021', '1022', '1025', '1026', '1028', '1029', '1030', '1034', '1036', '1043', '1045', '1048', '1049', '1050', '1051', '1053', '1054', '1056', '1057', '1058', '1065', '1066', '1067', '1069', '1072', '1073', '1075', '1077', '1078', '1080', '1083', '1084', '1085', '1086', '1087', '1089', '1090', '1094', '1095', '1098', '1099', '1100', '1101', '1102', '1104', '1105', '1106', '1108', '1110', '1111', '1112', '1115', '1117', '1118', '1120', '1121', '1124', '1125', '1126', '1129', '1134', '1135', '1136', '1137', '1141', '1143', '1145', '1151', '1152', '1153', '1155', '1156', '1165', '1166', '1167', '1169', '1175', '1178', '1179', '1181', '1184', '1186', '1188', '1190', '1191', '1193', '1194', '1195', '1198', '1199', '1200', '1202', '1203', '1204', '1206', '1208', '1210', '1211', '1213', '1215', '1216', '1217', '1218', '1219', '1221', '1222', '1223', '1224', '1226', '1227', '1229', '1232', '1240', '1243', '1246', '1248', '1249', '1250', '1251', '1254', '1256', '1259', '1261', '1265', '1267', '1268', '1269', '1270', '1271', '1272', '1274', '1280', '1281', '1282', '1283', '1286', '1287', '1290', '1292', '1293', '1298', '1299', '1301', '1302', '1303', '1305', '1308', '1310', '1311', '1313', '1315', '1320', '1323', '1325', '1329', '1330', '1331', '1333', '1336', '1337', '1339', '1344', '1345', '1347', '1349', '1351', '1352', '1353', '1355', '1356', '1360', '1364', '1367', '1368', '1370', '1371', '1372', '1373', '1374', '1376', '1378', '1380', '1381', '1385', '1387', '1388', '1389', '1391', '1394', '1396', '1397', '1398', '1401', '1405', '1406', '1407', '1408', '1409', '1410', '1411', '1415', '1420', '1423', '1424', '1426', '1427', '1428', '1429', '1432', '1435', '1436', '1437', '1438', '1442', '1445', '1452', '1454', '1461', '1463', '1465', '1467', '1468', '1469', '1470', '1473', '1474', '1475', '1484', '1485', '1486', '1490', '1491', '1497', '1498', '1500', '1501', '1503', '1507', '1509', '1510', '1512', '1513', '1514', '1515', '1519', '1523', '1524', '1525', '1526', '1528', '1532', '1534', '1540', '1541', '1543', '1545', '1546', '1548', '1550', '1553', '1556', '1557', '1559', '1560', '1561', '1565', '1568', '1569', '1570', '1572', '1577', '1584', '1585', '1586', '1587', '1588', '1591', '1594', '1595', '1600', '1601', '1602', '1604', '1605', '1607', '1608', '1609', '1611', '1612', '1614', '1617', '1618', '1622', '1623', '1624', '1625', '1626', '1629', '1630', '1632', '1639', '1642', '1644', '1645', '1646', '1647', '1648', '1653', '1655', '1661', '1662', '1663', '1667', '1670', '1673', '1674', '1675', '1679', '1680', '1684', '1686', '1688', '1689', '1690', '1692', '1696', '1698', '1700', '1702', '1704', '1705', '1708', '1709', '1710', '1712', '1715', '1716', '1720', '1722', '1724', '1729', '1730', '1731', '1732', '1733', '1735', '1737', '1738', '1740', '1741', '1742', '1744', '1745', '1746', '1747', '1748', '1752', '1753', '1754', '1755', '1761', '1762', '1763', '1766', '1767', '1768', '1770', '1774', '1776', '1777', '1779', '1786', '1790', '1795', '1799', '1800', '1801', '1804', '1807', '1809', '1811', '1812', '1814', '1815', '1816', '1820', '1822', '1824', '1831', '1832', '1833', '1834', '1835', '1836', '1837', '1838', '1839', '1843', '1848', '1849', '1850', '1851', '1853', '1854', '1855', '1856', '1859', '1860', '1862', '1863', '1865', '1874', '1876', '1883', '1884', '1885', '1887', '1892', '1893', '1894', '1896', '1897', '1898', '1901', '1903', '1905', '1906', '1907', '1908', '1909', '1911', '1913', '1914', '1915', '1916', '1917', '1918', '1919', '1921', '1924', '1925', '1929', '1932', '1933', '1934', '1936', '1937', '1938', '1941', '1942', '1945', '1946', '1947', '1949', '1952', '1954', '1956', '1957', '1959', '1960', '1963', '1964', '1970', '1973', '1974', '1977', '1978', '1979', '1980', '1981', '1983', '1984', '1987', '1989', '1990', '1991', '1993', '1995', '1999']",True,2000,True,2,f5a4f31679,0.0,0.0,1.0
./expes/v2_2021-03-23_issda-30_2000-prng-1-w2-p2,30_issda-2000,2000,first-2000,400,20,rng,num-start-1200,1200,25726,classic,2232.0334033966064,True,,False,1.0,1.0,1.0,1,"['1', '2', '10', '20', '23', '24', '26', '30', '31', '32', '34', '35', '37', '41', '44', '46', '61', '62', '69', '72', '74', '80', '86', '87', '92', '96', '98', '108', '122', '123', '124', '130', '137', '138', '141', '142', '144', '148', '149', '150', '151', '152', '153', '154', '155', '160', '161', '165', '171', '172', '174', '175', '179', '180', '185', '186', '189', '193', '206', '207', '213', '221', '222', '224', '232', '237', '239', '242', '259', '261', '266', '269', '270', '276', '278', '279', '280', '284', '288', '291', '294', '300', '316', '323', '325', '348', '360', '361', '364', '375', '379', '382', '384', '386', '389', '390', '391', '401', '403', '407', '411', '415', '418', '428', '430', '432', '435', '436', '437', '438', '439', '450', '468', '471', '472', '479', '489', '495', '496', '498', '505', '511', '514', '521', '523', '524', '527', '529', '552', '553', '570', '574', '578', '592', '596', '601', '603', '607', '617', '622', '623', '636', '637', '638', '639', '646', '649', '654', '669', '670', '674', '677', '678', '682', '690', '700', '702', '719', '721', '733', '742', '754', '756', '762', '769', '777', '784', '786', '788', '791', '792', '796', '803', '808', '809', '812', '814', '821', '829', '834', '840', '843', '853', '855', '859', '860', '862', '864', '883', '903', '905', '906', '913', '915', '917', '923', '926', '927', '928', '929', '937', '938', '948', '951', '953', '954', '963', '970', '973', '975', '982', '985', '988', '989', '991', '996', '998', '1006', '1017', '1019', '1021', '1024', '1041', '1043', '1049', '1050', '1051', '1054', '1062', '1063', '1064', '1066', '1069', '1083', '1088', '1104', '1109', '1119', '1129', '1135', '1146', '1147', '1154', '1160', '1172', '1174', '1177', '1182', '1190', '1194', '1195', '1197', '1203', '1209', '1211', '1214', '1220', '1222', '1226', '1229', '1232', '1233', '1237', '1247', '1250', '1251', '1253', '1258', '1259', '1261', '1262', '1275', '1277', '1280', '1285', '1289', '1290', '1299', '1300', '1303', '1304', '1310', '1312', '1315', '1319', '1332', '1339', '1340', '1342', '1346', '1352', '1357', '1364', '1383', '1389', '1397', '1403', '1404', '1407', '1416', '1421', '1422', '1431', '1436', '1442', '1443', '1448', '1450', '1452', '1476', '1486', '1492', '1497', '1499', '1501', '1506', '1510', '1514', '1515', '1516', '1534', '1537', '1544', '1546', '1553', '1570', '1576', '1583', '1594', '1595', '1598', '1600', '1620', '1625', '1633', '1646', '1647', '1651', '1659', '1675', '1687', '1701', '1704', '1705', '1717', '1721', '1726', '1734', '1736', '1746', '1750', '1752', '1755', '1756', '1769', '1771', '1774', '1775', '1785', '1802', '1803', '1807', '1813', '1824', '1825', '1827', '1836', '1844', '1845', '1854', '1855', '1861', '1865', '1873', '1874', '1879', '1886', '1890', '1892', '1893', '1899', '1904', '1906', '1909', '1914', '1918', '1926', '1934', '1940', '1946', '1961', '1963', '1965', '1972', '1974', '1975', '1976', '1989', '1993', '1997']",True,2000,True,2,48d42116bb,0.0,0.0,1.0
./expes/v2_2021-03-23_issda-30_2000-prng-1-w2-p2,30_issda-2000,2000,first-2000,100,5,rng,num-start-3800,3800,25726,classic,1257.1826660633087,True,,True,1.0,1.0,1.0,1,"['4', '7', '11', '27', '45', '60', '107', '134', '136', '148', '209', '232', '260', '271', '285', '299', '322', '327', '340', '341', '373', '404', '408', '420', '429', '442', '444', '505', '511', '524', '541', '573', '593', '612', '618', '627', '635', '643', '680', '693', '728', '735', '740', '762', '780', '785', '798', '836', '850', '912', '954', '961', '1086', '1105', '1114', '1176', '1201', '1221', '1236', '1265', '1266', '1276', '1282', '1330', '1336', '1389', '1415', '1450', '1498', '1516', '1520', '1561', '1569', '1585', '1590', '1629', '1633', '1675', '1677', '1722', '1724', '1777', '1779', '1785', '1787', '1795', '1831', '1846', '1877', '1889', '1917', '1928', '1931', '1932', '1967', '1970', '1977', '1980', '1984', '1992']",False,2000,True,2,dfa2cedad4,0.0,1.0,1.0
./expes/v2_2021-03-23_issda-30_2000-prng-1-w2-p2,30_issda-2000,2000,first-2000,600,30,rng,num-start-1200,1200,25726,classic,966.0284531116486,True,,True,1.0,1.0,1.0,1,"['1', '6', '10', '11', '13', '20', '21', '22', '26', '27', '31', '35', '38', '42', '45', '58', '59', '62', '63', '64', '66', '67', '68', '70', '76', '78', '82', '93', '94', '103', '104', '106', '107', '111', '117', '121', '122', '123', '126', '128', '131', '140', '142', '152', '153', '154', '156', '157', '159', '166', '170', '172', '176', '180', '181', '183', '184', '190', '191', '192', '193', '197', '200', '206', '215', '216', '223', '230', '234', '235', '240', '245', '246', '253', '258', '260', '261', '263', '272', '273', '276', '278', '280', '281', '283', '286', '292', '296', '297', '299', '303', '306', '308', '310', '312', '317', '323', '324', '329', '330', '334', '335', '337', '346', '347', '353', '355', '361', '362', '365', '373', '374', '377', '380', '381', '385', '386', '387', '394', '395', '396', '397', '398', '402', '404', '406', '408', '412', '414', '429', '430', '439', '442', '454', '457', '458', '461', '462', '464', '472', '475', '476', '479', '489', '493', '498', '499', '502', '503', '512', '513', '515', '516', '519', '522', '523', '524', '525', '536', '541', '544', '545', '549', '552', '554', '557', '559', '560', '562', '565', '567', '569', '574', '577', '586', '588', '593', '596', '597', '598', '602', '613', '622', '624', '625', '627', '640', '649', '652', '655', '656', '663', '667', '675', '678', '682', '688', '689', '692', '698', '704', '705', '718', '732', '738', '739', '740', '741', '742', '744', '745', '747', '751', '752', '753', '759', '760', '761', '763', '765', '768', '771', '773', '774', '778', '779', '780', '781', '787', '788', '792', '796', '798', '806', '815', '816', '819', '834', '835', '838', '840', '841', '844', '848', '856', '859', '864', '865', '867', '870', '872', '874', '879', '881', '883', '887', '893', '897', '901', '903', '904', '909', '910', '912', '914', '916', '919', '921', '925', '926', '939', '948', '950', '951', '957', '961', '964', '965', '968', '969', '971', '973', '978', '979', '981', '982', '984', '991', '994', '995', '996', '997', '999', '1000', '1001', '1002', '1007', '1008', '1013', '1018', '1019', '1024', '1025', '1029', '1030', '1032', '1039', '1052', '1055', '1059', '1060', '1065', '1066', '1070', '1075', '1076', '1077', '1078', '1080', '1081', '1088', '1097', '1102', '1103', '1105', '1107', '1109', '1112', '1114', '1118', '1121', '1129', '1130', '1134', '1143', '1144', '1147', '1149', '1154', '1155', '1156', '1158', '1165', '1166', '1167', '1173', '1175', '1176', '1180', '1187', '1198', '1202', '1205', '1206', '1207', '1208', '1210', '1213', '1214', '1217', '1220', '1224', '1233', '1234', '1236', '1239', '1243', '1246', '1250', '1254', '1257', '1262', '1263', '1266', '1267', '1269', '1271', '1275', '1278', '1281', '1282', '1284', '1287', '1289', '1293', '1298', '1300', '1301', '1306', '1308', '1310', '1315', '1320', '1321', '1322', '1323', '1324', '1328', '1333', '1334', '1340', '1343', '1345', '1351', '1355', '1356', '1358', '1366', '1369', '1373', '1375', '1380', '1385', '1387', '1390', '1391', '1394', '1395', '1397', '1401', '1405', '1409', '1414', '1415', '1416', '1418', '1421', '1422', '1423', '1425', '1430', '1433', '1436', '1437', '1438', '1446', '1451', '1457', '1460', '1462', '1463', '1465', '1468', '1472', '1473', '1478', '1480', '1483', '1484', '1493', '1494', '1495', '1499', '1505', '1514', '1516', '1522', '1526', '1527', '1529', '1537', '1539', '1543', '1548', '1551', '1553', '1555', '1556', '1557', '1562', '1563', '1564', '1568', '1572', '1574', '1578', '1585', '1591', '1592', '1594', '1595', '1596', '1598', '1603', '1606', '1611', '1613', '1620', '1621', '1625', '1629', '1631', '1632', '1639', '1643', '1646', '1649', '1650', '1651', '1652', '1656', '1658', '1663', '1667', '1671', '1672', '1673', '1676', '1684', '1696', '1697', '1701', '1703', '1705', '1706', '1709', '1715', '1718', '1722', '1725', '1730', '1731', '1741', '1748', '1751', '1752', '1758', '1760', '1765', '1770', '1773', '1781', '1782', '1783', '1785', '1787', '1795', '1801', '1803', '1809', '1813', '1819', '1822', '1828', '1830', '1831', '1842', '1843', '1849', '1853', '1860', '1862', '1863', '1865', '1867', '1870', '1871', '1877', '1883', '1884', '1887', '1889', '1891', '1893', '1898', '1899', '1900', '1902', '1903', '1911', '1914', '1919', '1922', '1925', '1927', '1933', '1936', '1941', '1942', '1943', '1946', '1948', '1949', '1950', '1954', '1963', '1971', '1976', '1977', '1978', '1979', '1984', '1985', '1987', '1989', '1990', '1992', '1995', '1997', '2000']",False,2000,True,2,5bab9892ab,0.0,1.0,1.0
./expes/v2_2021-03-23_issda-30_2000-prng-1-w2-p2,30_issda-2000,2000,first-2000,800,40,rng,num-start-3200,3200,25726,classic,2637.0893642902374,True,,False,1.0,1.0,1.0,1,"['1', '2', '4', '6', '7', '11', '13', '19', '21', '24', '27', '28', '30', '34', '38', '39', '41', '45', '47', '49', '52', '53', '55', '57', '60', '61', '66', '68', '69', '71', '74', '75', '76', '78', '81', '82', '86', '90', '93', '96', '99', '100', '101', '104', '106', '107', '110', '111', '115', '117', '118', '121', '124', '125', '129', '130', '134', '136', '137', '138', '141', '146', '148', '161', '162', '166', '172', '173', '175', '178', '183', '187', '188', '189', '193', '195', '199', '205', '209', '219', '221', '222', '226', '227', '228', '231', '232', '236', '238', '242', '243', '244', '250', '251', '253', '256', '259', '260', '265', '268', '269', '271', '272', '273', '274', '276', '280', '284', '285', '287', '289', '290', '291', '292', '293', '294', '299', '301', '304', '305', '306', '307', '309', '310', '312', '315', '317', '320', '322', '326', '327', '328', '331', '335', '339', '340', '341', '346', '347', '348', '352', '354', '360', '361', '364', '366', '368', '369', '370', '371', '372', '373', '375', '378', '379', '380', '382', '386', '392', '393', '397', '399', '401', '403', '404', '407', '408', '412', '415', '419', '420', '425', '427', '428', '429', '434', '437', '441', '442', '444', '449', '452', '457', '464', '472', '473', '479', '481', '482', '483', '486', '487', '488', '489', '492', '493', '499', '503', '504', '505', '511', '513', '514', '515', '517', '521', '524', '525', '533', '540', '541', '543', '548', '549', '555', '558', '561', '562', '565', '569', '571', '573', '574', '576', '579', '580', '581', '586', '587', '588', '592', '593', '594', '595', '597', '600', '601', '602', '604', '605', '606', '607', '608', '612', '616', '617', '618', '620', '622', '627', '628', '630', '634', '635', '637', '639', '640', '643', '645', '647', '648', '649', '650', '651', '654', '663', '665', '667', '668', '678', '680', '683', '685', '689', '693', '694', '696', '697', '698', '700', '705', '706', '708', '713', '714', '715', '717', '718', '720', '721', '724', '726', '727', '728', '729', '731', '733', '734', '735', '740', '741', '742', '743', '745', '746', '747', '750', '753', '756', '757', '761', '762', '764', '766', '767', '768', '770', '771', '773', '775', '777', '778', '779', '780', '783', '784', '785', '787', '788', '790', '791', '797', '798', '799', '803', '804', '811', '814', '817', '822', '825', '827', '828', '830', '831', '832', '835', '836', '837', '839', '840', '841', '848', '850', '851', '854', '858', '859', '862', '864', '872', '875', '876', '878', '880', '882', '885', '887', '888', '890', '897', '904', '909', '912', '914', '922', '928', '929', '930', '934', '936', '946', '947', '948', '949', '951', '953', '954', '958', '959', '961', '962', '963', '966', '967', '968', '972', '973', '975', '977', '978', '980', '982', '983', '984', '985', '986', '987', '988', '989', '991', '995', '997', '1000', '1003', '1004', '1006', '1007', '1008', '1009', '1011', '1017', '1019', '1020', '1023', '1025', '1030', '1036', '1038', '1042', '1050', '1051', '1056', '1058', '1059', '1060', '1062', '1063', '1070', '1075', '1085', '1086', '1087', '1089', '1090', '1091', '1093', '1102', '1103', '1105', '1109', '1110', '1111', '1114', '1117', '1118', '1121', '1123', '1124', '1125', '1127', '1130', '1131', '1133', '1134', '1137', '1138', '1146', '1148', '1155', '1156', '1158', '1159', '1165', '1170', '1174', '1175', '1176', '1178', '1179', '1185', '1190', '1193', '1200', '1201', '1202', '1204', '1208', '1209', '1210', '1214', '1217', '1219', '1221', '1230', '1231', '1236', '1237', '1246', '1247', '1251', '1253', '1257', '1259', '1260', '1264', '1265', '1266', '1269', '1271', '1272', '1274', '1275', '1276', '1278', '1279', '1280', '1282', '1284', '1285', '1290', '1292', '1293', '1295', '1305', '1308', '1312', '1316', '1320', '1321', '1323', '1326', '1327', '1328', '1329', '1330', '1331', '1332', '1334', '1336', '1339', '1342', '1344', '1345', '1352', '1353', '1355', '1356', '1357', '1360', '1363', '1364', '1368', '1369', '1370', '1374', '1376', '1377', '1380', '1382', '1389', '1394', '1395', '1396', '1397', '1398', '1399', '1404', '1405', '1408', '1409', '1410', '1411', '1412', '1415', '1417', '1423', '1424', '1425', '1427', '1429', '1437', '1439', '1443', '1444', '1445', '1446', '1448', '1450', '1451', '1460', '1461', '1464', '1467', '1468', '1471', '1472', '1474', '1475', '1476', '1477', '1478', '1480', '1481', '1485', '1488', '1494', '1495', '1496', '1498', '1499', '1500', '1501', '1509', '1512', '1516', '1517', '1518', '1520', '1521', '1523', '1526', '1527', '1533', '1536', '1537', '1538', '1541', '1548', '1553', '1555', '1556', '1558', '1561', '1569', '1577', '1585', '1587', '1589', '1590', '1595', '1596', '1599', '1600', '1601', '1602', '1609', '1610', '1614', '1620', '1622', '1627', '1629', '1631', '1632', '1633', '1634', '1636', '1642', '1643', '1645', '1648', '1654', '1655', '1663', '1665', '1666', '1673', '1675', '1677', '1679', '1681', '1682', '1684', '1689', '1693', '1694', '1697', '1700', '1703', '1706', '1707', '1711', '1712', '1713', '1714', '1715', '1718', '1722', '1723', '1724', '1725', '1727', '1729', '1731', '1738', '1739', '1745', '1746', '1749', '1751', '1753', '1759', '1761', '1769', '1775', '1776', '1777', '1778', '1779', '1780', '1782', '1785', '1787', '1793', '1795', '1796', '1800', '1803', '1804', '1819', '1821', '1822', '1823', '1826', '1827', '1829', '1830', '1831', '1833', '1836', '1837', '1841', '1846', '1848', '1850', '1865', '1866', '1867', '1868', '1872', '1874', '1877', '1878', '1881', '1888', '1889', '1892', '1893', '1894', '1899', '1904', '1906', '1915', '1916', '1917', '1918', '1920', '1921', '1923', '1924', '1925', '1927', '1928', '1930', '1931', '1932', '1935', '1936', '1937', '1945', '1946', '1948', '1950', '1951', '1953', '1955', '1957', '1959', '1960', '1961', '1963', '1966', '1967', '1968', '1969', '1970', '1973', '1976', '1977', '1980', '1983', '1984', '1990', '1992', '1993', '1994', '1998', '1999', '2000']",True,2000,True,2,3bd7327d2c,0.0,0.0,1.0
