expe,clients,clients_size,clients_subset,agg_size,agg_size_pc,method,days,days_size,days_total,noise_method,time,valid,valid_sum,success,score_avg,score_min,score_max,nsols,oracle,wall_hit,wall_time,pooled,pool_size,uuid,infeasible,optimal,valid_sums
./expes/v2_2021-03-23_issda-30_2000-prng-1-w2-p2,30_issda-2000,2000,first-2000,600,30,rng,num-start-3400,3400,25726,classic,2416.526955842972,True,,False,1.0,1.0,1.0,1,"['2', '7', '8', '11', '12', '14', '15', '17', '18', '20', '21', '23', '25', '27', '31', '32', '36', '38', '40', '42', '46', '49', '53', '54', '56', '59', '60', '61', '62', '70', '71', '74', '80', '84', '85', '87', '89', '97', '100', '102', '104', '105', '106', '108', '109', '111', '113', '119', '121', '124', '125', '130', '132', '133', '135', '136', '137', '141', '142', '147', '153', '155', '156', '161', '166', '167', '170', '171', '172', '173', '174', '176', '178', '180', '182', '188', '189', '192', '194', '197', '198', '203', '204', '205', '209', '212', '213', '218', '223', '226', '227', '228', '229', '230', '242', '246', '247', '249', '263', '266', '271', '272', '273', '276', '277', '282', '283', '284', '285', '289', '292', '295', '298', '301', '304', '305', '306', '322', '332', '333', '335', '337', '341', '345', '347', '350', '351', '352', '354', '355', '361', '365', '367', '372', '374', '382', '383', '387', '388', '391', '394', '405', '406', '408', '409', '411', '414', '416', '420', '421', '428', '430', '431', '432', '433', '438', '444', '452', '453', '455', '456', '459', '460', '466', '473', '474', '476', '484', '485', '488', '498', '499', '507', '509', '515', '519', '526', '531', '533', '538', '539', '547', '548', '550', '553', '559', '562', '564', '567', '569', '571', '576', '583', '584', '595', '597', '603', '607', '615', '616', '617', '620', '627', '630', '633', '645', '646', '651', '657', '659', '663', '666', '673', '674', '675', '677', '678', '684', '685', '687', '692', '693', '698', '700', '706', '709', '711', '712', '715', '724', '727', '732', '736', '747', '749', '750', '757', '761', '763', '764', '765', '776', '777', '782', '785', '786', '789', '791', '796', '797', '798', '810', '813', '816', '817', '818', '822', '824', '825', '826', '827', '833', '840', '843', '854', '855', '861', '864', '866', '867', '870', '871', '875', '878', '881', '888', '893', '896', '900', '901', '910', '916', '920', '923', '925', '926', '929', '934', '936', '940', '946', '949', '950', '956', '958', '964', '971', '973', '974', '980', '981', '985', '988', '1004', '1007', '1008', '1013', '1016', '1017', '1018', '1019', '1026', '1029', '1030', '1035', '1037', '1042', '1044', '1045', '1053', '1056', '1059', '1060', '1061', '1064', '1070', '1071', '1073', '1080', '1084', '1093', '1097', '1101', '1102', '1106', '1110', '1111', '1113', '1114', '1115', '1118', '1121', '1124', '1132', '1136', '1137', '1139', '1146', '1148', '1151', '1154', '1158', '1160', '1162', '1165', '1169', '1174', '1176', '1177', '1179', '1185', '1186', '1188', '1190', '1197', '1199', '1202', '1204', '1205', '1206', '1209', '1210', '1212', '1215', '1223', '1224', '1228', '1231', '1235', '1238', '1239', '1240', '1242', '1243', '1245', '1246', '1247', '1248', '1251', '1252', '1253', '1255', '1256', '1263', '1275', '1280', '1281', '1284', '1290', '1295', '1300', '1305', '1309', '1315', '1317', '1322', '1327', '1330', '1334', '1350', '1359', '1368', '1371', '1372', '1373', '1375', '1381', '1386', '1387', '1389', '1390', '1391', '1393', '1396', '1399', '1400', '1402', '1405', '1409', '1410', '1414', '1419', '1421', '1426', '1428', '1433', '1434', '1436', '1441', '1442', '1445', '1452', '1453', '1458', '1466', '1469', '1474', '1476', '1485', '1487', '1489', '1490', '1492', '1495', '1503', '1508', '1510', '1511', '1518', '1523', '1527', '1528', '1529', '1531', '1532', '1533', '1542', '1546', '1558', '1560', '1561', '1564', '1565', '1566', '1567', '1572', '1580', '1581', '1583', '1585', '1586', '1587', '1589', '1592', '1593', '1595', '1598', '1599', '1604', '1606', '1611', '1618', '1625', '1628', '1631', '1636', '1637', '1638', '1639', '1645', '1654', '1656', '1658', '1659', '1669', '1681', '1686', '1688', '1706', '1708', '1715', '1719', '1720', '1728', '1732', '1733', '1734', '1743', '1745', '1746', '1760', '1762', '1770', '1774', '1775', '1776', '1777', '1779', '1780', '1786', '1791', '1792', '1794', '1796', '1797', '1800', '1801', '1803', '1804', '1806', '1810', '1816', '1817', '1818', '1820', '1821', '1822', '1825', '1828', '1829', '1834', '1835', '1837', '1840', '1841', '1847', '1849', '1856', '1857', '1861', '1863', '1867', '1874', '1880', '1883', '1885', '1887', '1891', '1893', '1894', '1903', '1907', '1918', '1922', '1925', '1927', '1928', '1933', '1934', '1938', '1939', '1940', '1947', '1948', '1949', '1954', '1957', '1958', '1963', '1968', '1970', '1971', '1972', '1975', '1980', '1982', '1984', '1997', '1998', '2000']",True,2000,True,2,b0cda6c3aa,0.0,0.0,1.0
./expes/v2_2021-03-23_issda-30_2000-prng-1-w2-p2,30_issda-2000,2000,first-2000,400,20,rng,num-start-3600,3600,25726,classic,2242.861490011215,True,,True,1.0,1.0,1.0,1,"['1', '3', '4', '5', '7', '26', '28', '29', '30', '31', '34', '45', '47', '55', '65', '68', '75', '80', '81', '83', '93', '94', '96', '103', '119', '126', '128', '129', '131', '142', '144', '148', '152', '162', '165', '166', '169', '171', '184', '187', '188', '192', '195', '201', '203', '206', '207', '208', '224', '237', '238', '240', '241', '244', '246', '254', '255', '256', '267', '268', '272', '277', '286', '287', '292', '300', '301', '307', '315', '323', '325', '328', '332', '340', '347', '350', '359', '370', '374', '377', '379', '383', '386', '387', '388', '390', '391', '392', '394', '399', '407', '409', '417', '419', '432', '438', '441', '448', '449', '452', '453', '455', '457', '483', '489', '491', '492', '496', '498', '500', '514', '531', '533', '534', '556', '564', '565', '574', '576', '578', '590', '595', '597', '617', '618', '620', '622', '636', '638', '640', '648', '650', '656', '665', '667', '668', '677', '682', '683', '685', '687', '688', '702', '718', '722', '725', '732', '734', '735', '736', '759', '762', '776', '789', '795', '796', '802', '817', '823', '824', '830', '840', '849', '851', '856', '857', '859', '862', '872', '873', '890', '894', '906', '907', '912', '913', '915', '918', '923', '938', '957', '964', '966', '967', '975', '976', '977', '982', '987', '996', '997', '998', '1003', '1009', '1011', '1013', '1032', '1034', '1041', '1042', '1048', '1068', '1069', '1075', '1081', '1083', '1085', '1091', '1095', '1107', '1108', '1113', '1115', '1121', '1122', '1124', '1129', '1132', '1147', '1149', '1150', '1163', '1164', '1166', '1167', '1176', '1179', '1180', '1188', '1195', '1203', '1204', '1208', '1209', '1218', '1222', '1223', '1233', '1234', '1236', '1237', '1241', '1242', '1246', '1250', '1252', '1254', '1255', '1267', '1271', '1272', '1281', '1291', '1297', '1298', '1299', '1301', '1306', '1312', '1314', '1325', '1330', '1333', '1345', '1347', '1353', '1357', '1364', '1369', '1378', '1380', '1384', '1385', '1390', '1391', '1392', '1394', '1396', '1400', '1401', '1411', '1415', '1429', '1431', '1433', '1435', '1437', '1438', '1442', '1445', '1448', '1453', '1455', '1466', '1470', '1471', '1474', '1486', '1490', '1495', '1496', '1499', '1514', '1519', '1533', '1546', '1548', '1552', '1553', '1561', '1572', '1582', '1604', '1606', '1608', '1616', '1625', '1628', '1635', '1638', '1640', '1645', '1646', '1649', '1657', '1660', '1663', '1664', '1669', '1671', '1674', '1683', '1685', '1690', '1691', '1696', '1698', '1699', '1700', '1701', '1708', '1712', '1716', '1717', '1721', '1726', '1730', '1731', '1732', '1740', '1742', '1749', '1752', '1773', '1777', '1783', '1786', '1790', '1792', '1793', '1796', '1811', '1813', '1824', '1827', '1834', '1840', '1841', '1844', '1848', '1853', '1860', '1864', '1870', '1876', '1878', '1879', '1880', '1881', '1882', '1888', '1889', '1891', '1892', '1911', '1918', '1919', '1940', '1945', '1946', '1953', '1969', '1973', '1974', '1978', '1980', '1982', '1983', '1988', '1996']",False,2000,True,2,eafd07f01c,0.0,1.0,1.0
./expes/v2_2021-03-23_issda-30_2000-prng-1-w2-p2,30_issda-2000,2000,first-2000,700,35,rng,num-start-3800,3800,25726,classic,2480.591565132141,True,,False,1.0,1.0,1.0,1,"['1', '3', '4', '8', '9', '11', '24', '25', '30', '32', '35', '38', '39', '40', '44', '47', '48', '53', '56', '57', '58', '60', '71', '76', '77', '81', '82', '86', '87', '89', '93', '96', '99', '102', '104', '108', '111', '112', '114', '117', '118', '119', '121', '122', '123', '125', '127', '128', '129', '130', '132', '134', '137', '138', '141', '144', '145', '149', '150', '159', '165', '166', '168', '170', '172', '173', '174', '176', '177', '178', '182', '184', '186', '187', '189', '192', '193', '200', '201', '208', '210', '211', '212', '213', '215', '218', '225', '226', '232', '237', '240', '242', '246', '247', '250', '251', '252', '254', '258', '261', '265', '266', '268', '269', '273', '281', '282', '286', '287', '290', '293', '295', '296', '299', '300', '301', '305', '306', '307', '309', '310', '311', '312', '317', '318', '320', '323', '326', '331', '333', '334', '335', '338', '341', '343', '345', '349', '353', '361', '365', '366', '369', '371', '372', '374', '375', '376', '380', '385', '389', '391', '392', '397', '399', '400', '401', '403', '407', '409', '410', '412', '414', '415', '419', '421', '422', '426', '428', '433', '436', '440', '441', '447', '450', '452', '453', '456', '457', '458', '459', '465', '469', '471', '473', '476', '477', '478', '489', '491', '493', '497', '500', '501', '504', '508', '509', '513', '516', '517', '519', '524', '530', '531', '532', '534', '535', '537', '539', '540', '542', '543', '544', '549', '551', '553', '554', '555', '557', '568', '570', '571', '572', '573', '578', '583', '589', '590', '594', '600', '601', '606', '611', '614', '615', '621', '624', '625', '631', '632', '634', '635', '639', '643', '644', '648', '653', '663', '664', '667', '668', '670', '674', '676', '679', '681', '687', '692', '693', '695', '697', '701', '702', '704', '705', '706', '711', '712', '716', '718', '725', '728', '729', '731', '735', '741', '745', '746', '747', '749', '750', '752', '757', '763', '771', '780', '781', '782', '788', '791', '796', '801', '804', '806', '807', '808', '809', '811', '813', '815', '816', '818', '819', '821', '823', '828', '829', '832', '851', '854', '856', '857', '859', '862', '863', '864', '865', '870', '872', '876', '878', '882', '883', '884', '886', '889', '902', '903', '906', '908', '913', '914', '916', '917', '920', '927', '929', '930', '935', '936', '939', '940', '941', '946', '949', '954', '955', '958', '963', '968', '970', '971', '972', '973', '980', '981', '982', '984', '987', '989', '991', '994', '998', '1000', '1002', '1010', '1012', '1013', '1014', '1017', '1018', '1025', '1027', '1028', '1030', '1034', '1036', '1037', '1038', '1040', '1041', '1046', '1049', '1050', '1054', '1055', '1056', '1058', '1059', '1060', '1061', '1062', '1072', '1073', '1076', '1079', '1080', '1082', '1084', '1087', '1088', '1089', '1090', '1091', '1093', '1095', '1098', '1099', '1108', '1110', '1113', '1115', '1119', '1121', '1122', '1123', '1124', '1126', '1127', '1129', '1133', '1135', '1138', '1140', '1141', '1143', '1146', '1148', '1151', '1156', '1159', '1160', '1161', '1169', '1170', '1174', '1177', '1182', '1184', '1188', '1192', '1194', '1195', '1200', '1202', '1207', '1210', '1218', '1221', '1222', '1227', '1231', '1234', '1240', '1242', '1246', '1247', '1248', '1249', '1250', '1252', '1253', '1255', '1256', '1257', '1258', '1265', '1268', '1274', '1278', '1279', '1281', '1285', '1288', '1290', '1292', '1300', '1303', '1304', '1309', '1317', '1318', '1326', '1331', '1332', '1334', '1338', '1342', '1344', '1345', '1347', '1349', '1353', '1357', '1361', '1363', '1368', '1369', '1370', '1372', '1374', '1375', '1377', '1385', '1394', '1396', '1397', '1398', '1399', '1409', '1410', '1414', '1415', '1418', '1419', '1424', '1426', '1428', '1432', '1435', '1437', '1441', '1447', '1448', '1454', '1458', '1459', '1467', '1468', '1479', '1481', '1485', '1486', '1488', '1493', '1494', '1498', '1502', '1513', '1516', '1517', '1518', '1523', '1530', '1535', '1536', '1537', '1538', '1548', '1551', '1553', '1554', '1556', '1557', '1565', '1566', '1574', '1581', '1582', '1590', '1591', '1592', '1596', '1598', '1603', '1606', '1607', '1615', '1617', '1619', '1627', '1633', '1635', '1637', '1638', '1641', '1642', '1646', '1651', '1652', '1654', '1656', '1662', '1670', '1672', '1674', '1676', '1678', '1679', '1682', '1684', '1692', '1693', '1694', '1698', '1703', '1705', '1709', '1710', '1715', '1721', '1722', '1723', '1732', '1739', '1740', '1747', '1748', '1754', '1759', '1760', '1767', '1769', '1770', '1783', '1784', '1785', '1786', '1788', '1790', '1791', '1792', '1793', '1795', '1796', '1799', '1801', '1802', '1807', '1808', '1809', '1810', '1811', '1813', '1817', '1821', '1829', '1831', '1834', '1838', '1839', '1843', '1844', '1852', '1854', '1856', '1861', '1863', '1864', '1867', '1869', '1873', '1875', '1878', '1880', '1882', '1883', '1890', '1892', '1898', '1901', '1910', '1912', '1913', '1915', '1920', '1922', '1925', '1927', '1929', '1930', '1932', '1935', '1938', '1940', '1941', '1942', '1944', '1947', '1948', '1950', '1951', '1952', '1956', '1957', '1959', '1962', '1968', '1970', '1971', '1978', '1982', '1985', '1988', '1989', '1990', '1991', '1992', '1994', '1996', '2000']",True,2000,True,2,67738e6e72,0.0,0.0,1.0
./expes/v2_2021-03-23_issda-30_2000-prng-1-w2-p2,30_issda-2000,2000,first-2000,500,25,rng,num-start-1000,1000,25726,classic,2131.871381521225,True,,False,1.0,1.0,1.0,1,"['11', '15', '16', '17', '20', '22', '25', '32', '37', '40', '43', '54', '56', '57', '59', '62', '69', '73', '101', '102', '103', '104', '106', '107', '110', '111', '120', '123', '124', '128', '132', '135', '142', '145', '150', '151', '154', '158', '159', '162', '166', '168', '171', '175', '178', '191', '192', '193', '202', '203', '214', '217', '226', '227', '232', '240', '241', '251', '252', '253', '256', '261', '263', '264', '266', '281', '282', '284', '287', '291', '293', '294', '305', '307', '309', '310', '311', '316', '331', '333', '335', '337', '346', '347', '349', '350', '353', '358', '367', '376', '377', '386', '387', '388', '392', '394', '395', '401', '403', '407', '411', '417', '418', '427', '431', '433', '435', '437', '438', '444', '448', '455', '456', '461', '470', '474', '483', '484', '486', '490', '496', '497', '499', '500', '510', '512', '513', '514', '515', '517', '523', '528', '529', '532', '538', '540', '544', '545', '548', '552', '554', '559', '565', '570', '577', '581', '584', '591', '592', '594', '602', '603', '605', '608', '618', '620', '622', '625', '630', '631', '632', '634', '635', '636', '639', '642', '647', '648', '650', '651', '652', '654', '659', '667', '674', '678', '681', '685', '687', '689', '691', '695', '696', '712', '713', '721', '727', '729', '731', '737', '743', '746', '749', '754', '757', '763', '768', '769', '775', '786', '787', '796', '802', '805', '820', '823', '826', '827', '828', '829', '831', '834', '836', '837', '840', '849', '850', '854', '859', '860', '862', '866', '867', '875', '877', '882', '887', '889', '893', '894', '897', '907', '908', '912', '913', '920', '921', '928', '933', '941', '948', '950', '957', '958', '967', '971', '973', '978', '984', '989', '990', '994', '997', '1008', '1010', '1011', '1013', '1016', '1028', '1029', '1033', '1034', '1037', '1039', '1053', '1056', '1057', '1061', '1063', '1064', '1070', '1072', '1076', '1077', '1080', '1082', '1091', '1092', '1096', '1099', '1100', '1103', '1104', '1105', '1106', '1107', '1111', '1113', '1114', '1116', '1121', '1126', '1129', '1134', '1135', '1138', '1139', '1141', '1145', '1146', '1156', '1164', '1166', '1171', '1172', '1178', '1180', '1184', '1185', '1188', '1191', '1193', '1201', '1202', '1209', '1212', '1226', '1229', '1237', '1238', '1250', '1254', '1256', '1264', '1272', '1282', '1283', '1284', '1295', '1297', '1302', '1304', '1309', '1312', '1325', '1330', '1332', '1340', '1347', '1349', '1355', '1359', '1367', '1383', '1386', '1395', '1398', '1402', '1403', '1405', '1412', '1416', '1433', '1442', '1443', '1445', '1446', '1455', '1458', '1465', '1466', '1484', '1485', '1489', '1493', '1497', '1499', '1510', '1513', '1514', '1523', '1525', '1526', '1529', '1531', '1533', '1535', '1537', '1540', '1541', '1543', '1546', '1547', '1552', '1553', '1556', '1557', '1564', '1567', '1569', '1579', '1582', '1585', '1586', '1594', '1598', '1600', '1603', '1607', '1611', '1613', '1622', '1626', '1627', '1637', '1642', '1643', '1644', '1645', '1649', '1653', '1661', '1664', '1665', '1666', '1670', '1673', '1676', '1679', '1680', '1682', '1684', '1689', '1693', '1698', '1702', '1705', '1715', '1719', '1725', '1734', '1742', '1749', '1753', '1759', '1761', '1769', '1772', '1777', '1778', '1780', '1789', '1793', '1805', '1808', '1819', '1823', '1829', '1830', '1837', '1838', '1840', '1841', '1844', '1847', '1848', '1856', '1858', '1859', '1861', '1862', '1864', '1870', '1878', '1880', '1885', '1888', '1892', '1893', '1897', '1905', '1907', '1911', '1917', '1923', '1925', '1926', '1927', '1930', '1936', '1944', '1949', '1957', '1958', '1960', '1961', '1962', '1966', '1968', '1970', '1975', '1976', '1982', '1987', '1990', '1992', '1994', '1996', '1997', '1998']",True,2000,True,2,99bb84f9f1,0.0,0.0,1.0
./expes/v2_2021-03-23_issda-30_2000-prng-1-w2-p2,30_issda-2000,2000,first-2000,100,5,rng,num-start-3800,3800,25726,classic,1174.2233231067657,True,,True,1.0,1.0,1.0,1,"['30', '62', '146', '174', '241', '259', '267', '268', '277', '286', '301', '302', '362', '368', '381', '384', '415', '439', '462', '473', '480', '519', '526', '531', '537', '538', '539', '565', '574', '596', '601', '604', '643', '709', '729', '730', '746', '761', '811', '880', '881', '884', '895', '902', '909', '919', '924', '941', '997', '1006', '1071', '1089', '1098', '1126', '1136', '1156', '1183', '1218', '1241', '1247', '1252', '1298', '1308', '1313', '1336', '1342', '1365', '1374', '1387', '1401', '1402', '1404', '1416', '1493', '1504', '1526', '1533', '1547', '1626', '1627', '1635', '1643', '1651', '1659', '1679', '1693', '1709', '1716', '1733', '1740', '1741', '1781', '1785', '1797', '1820', '1822', '1823', '1840', '1863', '1945']",False,2000,True,2,820df60d6f,0.0,1.0,1.0
./expes/v2_2021-03-23_issda-30_2000-prng-1-w2-p2,30_issda-2000,2000,first-2000,400,20,rng,num-start-1000,1000,25726,classic,2133.7710325717926,True,,False,1.0,1.0,1.0,1,"['5', '7', '8', '9', '11', '12', '30', '32', '60', '62', '63', '66', '69', '74', '79', '80', '84', '88', '89', '90', '94', '97', '101', '107', '108', '112', '126', '141', '142', '145', '146', '151', '159', '174', '178', '184', '187', '190', '194', '205', '220', '225', '230', '237', '241', '249', '258', '259', '260', '263', '265', '267', '268', '269', '277', '281', '286', '291', '300', '301', '302', '304', '306', '307', '309', '318', '321', '322', '328', '329', '337', '342', '343', '362', '368', '374', '381', '384', '390', '396', '399', '400', '415', '416', '418', '425', '434', '438', '439', '441', '448', '457', '461', '462', '464', '473', '480', '483', '487', '488', '489', '501', '507', '509', '515', '519', '520', '526', '530', '531', '535', '537', '538', '539', '541', '549', '551', '556', '565', '566', '574', '589', '593', '595', '596', '601', '604', '605', '606', '608', '611', '614', '617', '618', '622', '628', '631', '632', '637', '643', '650', '655', '661', '680', '682', '684', '686', '700', '703', '707', '709', '712', '719', '729', '730', '736', '740', '746', '751', '755', '760', '761', '762', '764', '768', '771', '794', '796', '799', '806', '811', '813', '815', '831', '836', '847', '853', '869', '870', '871', '872', '877', '879', '880', '881', '882', '884', '890', '891', '895', '901', '902', '903', '905', '909', '912', '919', '921', '922', '924', '941', '944', '950', '963', '966', '972', '981', '985', '997', '1006', '1017', '1020', '1027', '1059', '1065', '1066', '1070', '1071', '1074', '1078', '1079', '1082', '1089', '1090', '1092', '1093', '1094', '1096', '1098', '1113', '1117', '1118', '1121', '1126', '1127', '1136', '1138', '1140', '1147', '1156', '1158', '1168', '1175', '1183', '1190', '1195', '1199', '1205', '1211', '1213', '1218', '1219', '1224', '1229', '1236', '1241', '1247', '1252', '1257', '1265', '1271', '1275', '1285', '1289', '1292', '1298', '1308', '1309', '1313', '1318', '1322', '1334', '1336', '1339', '1342', '1346', '1365', '1366', '1372', '1374', '1381', '1387', '1396', '1401', '1402', '1404', '1416', '1424', '1430', '1432', '1436', '1437', '1438', '1442', '1445', '1463', '1467', '1468', '1472', '1473', '1481', '1489', '1491', '1493', '1502', '1504', '1508', '1513', '1515', '1526', '1533', '1547', '1553', '1557', '1561', '1564', '1583', '1585', '1608', '1611', '1613', '1626', '1627', '1635', '1636', '1641', '1643', '1645', '1646', '1651', '1653', '1657', '1659', '1664', '1679', '1683', '1687', '1688', '1689', '1691', '1693', '1696', '1707', '1709', '1710', '1713', '1716', '1717', '1720', '1733', '1739', '1740', '1741', '1745', '1749', '1765', '1769', '1775', '1777', '1778', '1779', '1781', '1785', '1795', '1797', '1815', '1816', '1817', '1820', '1822', '1823', '1829', '1833', '1839', '1840', '1845', '1847', '1848', '1857', '1863', '1865', '1869', '1881', '1886', '1887', '1909', '1911', '1916', '1920', '1922', '1931', '1945', '1949', '1951', '1954', '1970', '1982', '1987', '1989', '1990']",True,2000,True,2,fc2b9bca2a,0.0,0.0,1.0
./expes/v2_2021-03-23_issda-30_2000-prng-1-w2-p2,30_issda-2000,2000,first-2000,700,35,rng,num-start-4000,4000,25726,classic,2522.530848503113,True,,False,1.0,1.0,1.0,1,"['1', '3', '7', '8', '9', '12', '13', '16', '19', '21', '23', '27', '29', '30', '32', '35', '40', '41', '42', '44', '45', '46', '47', '51', '54', '57', '58', '63', '67', '68', '73', '75', '78', '80', '81', '84', '88', '89', '90', '91', '96', '99', '106', '108', '113', '114', '116', '119', '120', '122', '123', '133', '135', '146', '150', '153', '157', '161', '162', '163', '164', '165', '169', '172', '177', '183', '184', '186', '187', '189', '190', '191', '198', '199', '202', '205', '207', '212', '214', '219', '220', '222', '223', '231', '233', '236', '238', '241', '242', '245', '247', '249', '252', '254', '255', '257', '258', '261', '268', '269', '271', '274', '280', '290', '291', '294', '295', '296', '301', '302', '304', '309', '311', '313', '314', '316', '317', '319', '323', '324', '327', '328', '337', '342', '344', '348', '349', '352', '353', '354', '355', '357', '365', '373', '374', '379', '381', '389', '391', '392', '395', '397', '400', '402', '406', '410', '413', '416', '417', '418', '420', '421', '424', '428', '429', '430', '434', '436', '437', '440', '443', '447', '448', '449', '452', '454', '456', '457', '459', '460', '461', '465', '467', '471', '476', '481', '482', '483', '487', '488', '490', '491', '495', '498', '500', '501', '502', '503', '504', '505', '506', '512', '520', '523', '524', '527', '529', '531', '533', '535', '538', '539', '541', '548', '549', '551', '552', '558', '560', '561', '571', '577', '580', '582', '584', '587', '588', '593', '594', '596', '597', '601', '603', '605', '607', '608', '610', '614', '619', '620', '621', '624', '625', '627', '629', '633', '634', '635', '636', '641', '642', '643', '645', '647', '649', '650', '655', '656', '658', '659', '660', '664', '667', '673', '683', '684', '685', '686', '687', '689', '690', '692', '700', '705', '706', '713', '715', '716', '717', '719', '723', '724', '725', '726', '733', '740', '741', '743', '747', '751', '757', '764', '765', '766', '767', '769', '771', '773', '784', '785', '786', '787', '792', '793', '796', '802', '805', '808', '810', '811', '815', '817', '819', '820', '823', '825', '826', '827', '829', '830', '832', '833', '834', '836', '837', '838', '839', '840', '843', '844', '845', '846', '848', '852', '854', '856', '857', '858', '860', '861', '863', '867', '874', '876', '877', '878', '879', '880', '885', '887', '889', '894', '899', '904', '906', '910', '912', '915', '916', '917', '922', '929', '931', '934', '936', '942', '943', '944', '946', '947', '952', '956', '961', '966', '968', '972', '973', '978', '985', '986', '988', '991', '995', '1000', '1004', '1005', '1007', '1012', '1013', '1016', '1017', '1019', '1020', '1022', '1023', '1027', '1030', '1032', '1041', '1044', '1045', '1046', '1047', '1049', '1052', '1053', '1058', '1059', '1062', '1067', '1072', '1073', '1077', '1083', '1089', '1090', '1092', '1095', '1097', '1101', '1103', '1105', '1110', '1129', '1132', '1133', '1134', '1146', '1153', '1157', '1162', '1171', '1173', '1176', '1186', '1189', '1193', '1202', '1203', '1208', '1209', '1211', '1215', '1216', '1219', '1222', '1223', '1224', '1227', '1234', '1235', '1237', '1242', '1243', '1245', '1248', '1250', '1252', '1255', '1256', '1257', '1258', '1260', '1264', '1277', '1280', '1281', '1282', '1284', '1285', '1287', '1288', '1293', '1295', '1296', '1297', '1301', '1305', '1307', '1308', '1312', '1313', '1317', '1318', '1319', '1320', '1321', '1332', '1335', '1337', '1339', '1341', '1342', '1343', '1347', '1349', '1351', '1353', '1355', '1357', '1358', '1364', '1365', '1366', '1367', '1369', '1370', '1392', '1395', '1397', '1407', '1408', '1411', '1413', '1415', '1417', '1421', '1425', '1429', '1430', '1432', '1433', '1434', '1435', '1441', '1448', '1449', '1450', '1452', '1457', '1463', '1472', '1474', '1477', '1480', '1483', '1485', '1487', '1491', '1496', '1497', '1499', '1500', '1506', '1508', '1510', '1511', '1512', '1513', '1516', '1521', '1522', '1523', '1533', '1536', '1540', '1542', '1547', '1553', '1554', '1559', '1564', '1565', '1566', '1568', '1576', '1583', '1584', '1586', '1598', '1599', '1602', '1603', '1604', '1605', '1610', '1612', '1614', '1616', '1617', '1619', '1630', '1631', '1635', '1636', '1645', '1646', '1647', '1650', '1651', '1652', '1655', '1659', '1664', '1667', '1669', '1671', '1674', '1677', '1678', '1686', '1688', '1689', '1692', '1693', '1694', '1696', '1700', '1704', '1706', '1711', '1712', '1714', '1721', '1722', '1724', '1725', '1726', '1727', '1729', '1732', '1735', '1736', '1738', '1741', '1750', '1763', '1770', '1771', '1772', '1773', '1777', '1778', '1784', '1785', '1786', '1788', '1795', '1801', '1806', '1809', '1810', '1811', '1812', '1813', '1814', '1820', '1830', '1831', '1833', '1836', '1837', '1842', '1843', '1848', '1849', '1855', '1857', '1865', '1872', '1875', '1877', '1880', '1882', '1883', '1884', '1886', '1892', '1895', '1896', '1901', '1902', '1905', '1908', '1913', '1915', '1921', '1925', '1927', '1932', '1933', '1940', '1942', '1943', '1947', '1948', '1949', '1950', '1952', '1953', '1954', '1959', '1961', '1962', '1965', '1971', '1976', '1979', '1981', '1983', '1984', '1985', '1986', '1987', '1988', '1989', '1991', '1993', '1995', '1996']",True,2000,True,2,9af194c39e,0.0,0.0,1.0
./expes/v2_2021-03-23_issda-30_2000-prng-1-w2-p2,30_issda-2000,2000,first-2000,200,10,rng,num-start-3000,3000,25726,classic,1831.5073773860931,True,,True,1.0,1.0,1.0,1,"['7', '25', '28', '35', '41', '53', '63', '69', '70', '77', '90', '119', '129', '130', '132', '144', '147', '165', '175', '177', '184', '195', '199', '200', '219', '221', '233', '239', '248', '259', '277', '281', '285', '288', '292', '304', '305', '308', '315', '325', '330', '341', '349', '359', '389', '394', '396', '398', '405', '414', '426', '429', '451', '465', '475', '480', '481', '500', '507', '522', '530', '547', '583', '586', '592', '606', '612', '614', '615', '633', '643', '667', '694', '698', '701', '703', '705', '720', '729', '731', '732', '738', '750', '759', '769', '772', '773', '777', '780', '792', '800', '812', '821', '825', '834', '835', '840', '854', '856', '868', '873', '893', '912', '914', '929', '935', '941', '972', '994', '999', '1000', '1001', '1014', '1020', '1032', '1035', '1038', '1040', '1045', '1059', '1066', '1067', '1080', '1083', '1090', '1106', '1117', '1142', '1156', '1166', '1174', '1175', '1186', '1191', '1197', '1206', '1232', '1238', '1243', '1271', '1278', '1315', '1319', '1323', '1331', '1346', '1347', '1349', '1354', '1358', '1359', '1414', '1416', '1436', '1437', '1438', '1444', '1445', '1451', '1469', '1487', '1493', '1524', '1555', '1566', '1570', '1632', '1655', '1656', '1662', '1668', '1699', '1701', '1709', '1713', '1728', '1746', '1752', '1755', '1762', '1799', '1805', '1826', '1838', '1847', '1848', '1850', '1851', '1854', '1860', '1867', '1870', '1910', '1918', '1938', '1946', '1971', '1977', '1993', '1997']",False,2000,True,2,0d2cd157d7,0.0,1.0,1.0
./expes/v2_2021-03-23_issda-30_2000-prng-1-w2-p2,30_issda-2000,2000,first-2000,600,30,rng,num-start-3000,3000,25726,classic,2006.0484006404877,True,,True,1.0,1.0,1.0,1,"['11', '15', '16', '17', '20', '22', '24', '25', '32', '37', '40', '43', '54', '56', '57', '59', '62', '63', '64', '69', '70', '73', '74', '90', '101', '102', '103', '104', '106', '107', '110', '111', '114', '120', '123', '124', '128', '132', '135', '142', '145', '147', '150', '151', '154', '158', '159', '162', '166', '168', '171', '175', '178', '180', '191', '192', '193', '201', '202', '203', '204', '214', '217', '221', '226', '227', '232', '240', '241', '251', '252', '253', '255', '256', '257', '261', '263', '264', '265', '266', '269', '281', '282', '284', '287', '291', '293', '294', '301', '305', '307', '309', '310', '311', '316', '322', '331', '333', '335', '337', '346', '347', '349', '350', '353', '356', '358', '367', '376', '377', '386', '387', '388', '392', '394', '395', '401', '402', '403', '405', '407', '408', '411', '417', '418', '427', '431', '433', '435', '437', '438', '439', '444', '448', '450', '455', '456', '461', '467', '470', '472', '474', '483', '484', '486', '490', '496', '497', '499', '500', '510', '512', '513', '514', '515', '517', '523', '526', '528', '529', '532', '533', '538', '540', '542', '544', '545', '548', '552', '554', '559', '563', '565', '570', '577', '581', '584', '591', '592', '594', '597', '602', '603', '604', '605', '607', '608', '618', '620', '622', '625', '630', '631', '632', '634', '635', '636', '638', '639', '642', '647', '648', '650', '651', '652', '654', '659', '667', '670', '674', '675', '678', '681', '685', '686', '687', '689', '691', '695', '696', '712', '713', '720', '721', '727', '728', '729', '731', '737', '743', '746', '749', '752', '754', '757', '762', '763', '768', '769', '775', '776', '778', '786', '787', '791', '796', '802', '805', '807', '820', '823', '826', '827', '828', '829', '831', '833', '834', '836', '837', '840', '849', '850', '854', '859', '860', '862', '866', '867', '875', '877', '882', '887', '889', '893', '894', '897', '904', '905', '907', '908', '912', '913', '915', '920', '921', '928', '933', '941', '948', '950', '957', '958', '967', '970', '971', '973', '978', '981', '984', '987', '989', '990', '992', '994', '996', '997', '1008', '1010', '1011', '1013', '1016', '1018', '1026', '1027', '1028', '1029', '1033', '1034', '1037', '1039', '1053', '1056', '1057', '1060', '1061', '1063', '1064', '1070', '1072', '1076', '1077', '1080', '1082', '1089', '1091', '1092', '1096', '1099', '1100', '1103', '1104', '1105', '1106', '1107', '1111', '1113', '1114', '1116', '1121', '1126', '1129', '1134', '1135', '1138', '1139', '1141', '1145', '1146', '1154', '1156', '1164', '1166', '1171', '1172', '1178', '1180', '1184', '1185', '1188', '1191', '1193', '1197', '1201', '1202', '1209', '1212', '1226', '1229', '1231', '1237', '1238', '1250', '1253', '1254', '1255', '1256', '1262', '1264', '1272', '1282', '1283', '1284', '1295', '1297', '1298', '1302', '1304', '1309', '1312', '1324', '1325', '1326', '1327', '1330', '1332', '1333', '1340', '1347', '1349', '1350', '1355', '1359', '1367', '1383', '1386', '1395', '1398', '1402', '1403', '1404', '1405', '1412', '1416', '1419', '1433', '1442', '1443', '1445', '1446', '1449', '1453', '1455', '1458', '1465', '1466', '1478', '1484', '1485', '1489', '1493', '1497', '1499', '1510', '1511', '1513', '1514', '1523', '1525', '1526', '1529', '1531', '1533', '1535', '1537', '1540', '1541', '1543', '1546', '1547', '1552', '1553', '1554', '1556', '1557', '1564', '1566', '1567', '1569', '1572', '1573', '1579', '1582', '1585', '1586', '1591', '1594', '1598', '1600', '1602', '1603', '1607', '1611', '1613', '1622', '1626', '1627', '1628', '1630', '1637', '1642', '1643', '1644', '1645', '1649', '1653', '1655', '1658', '1661', '1664', '1665', '1666', '1668', '1670', '1673', '1676', '1679', '1680', '1682', '1684', '1689', '1693', '1698', '1702', '1705', '1715', '1719', '1725', '1734', '1738', '1742', '1745', '1749', '1753', '1756', '1757', '1759', '1761', '1769', '1772', '1777', '1778', '1780', '1786', '1789', '1793', '1794', '1800', '1805', '1808', '1819', '1823', '1829', '1830', '1837', '1838', '1840', '1841', '1842', '1844', '1845', '1847', '1848', '1856', '1858', '1859', '1861', '1862', '1864', '1870', '1878', '1880', '1881', '1885', '1888', '1892', '1893', '1897', '1905', '1907', '1911', '1917', '1923', '1925', '1926', '1927', '1930', '1931', '1936', '1944', '1948', '1949', '1957', '1958', '1960', '1961', '1962', '1966', '1968', '1970', '1975', '1976', '1982', '1987', '1990', '1992', '1994', '1996', '1997', '1998']",False,2000,True,2,51c7397028,0.0,1.0,1.0
./expes/v2_2021-03-23_issda-30_2000-prng-1-w2-p2,30_issda-2000,2000,first-2000,1000,50,rng,num-start-3600,3600,25726,classic,2445.36066699028,True,,False,1.0,1.0,1.0,1,"['2', '4', '5', '8', '9', '11', '12', '16', '18', '19', '21', '22', '23', '26', '28', '30', '32', '35', '36', '37', '38', '39', '41', '42', '43', '44', '45', '46', '48', '49', '50', '53', '56', '58', '59', '60', '61', '63', '64', '66', '67', '71', '72', '73', '77', '78', '81', '82', '83', '84', '85', '90', '93', '94', '95', '98', '99', '100', '102', '107', '114', '115', '117', '121', '128', '129', '130', '132', '134', '138', '139', '140', '141', '143', '145', '146', '147', '149', '150', '151', '154', '157', '158', '162', '167', '168', '171', '172', '174', '175', '178', '183', '184', '186', '188', '189', '191', '193', '196', '198', '202', '203', '205', '206', '207', '210', '211', '214', '218', '219', '221', '222', '223', '225', '228', '229', '232', '234', '235', '236', '237', '238', '242', '245', '248', '250', '253', '254', '257', '258', '259', '265', '268', '273', '276', '277', '278', '280', '283', '284', '285', '290', '291', '298', '300', '302', '304', '307', '312', '316', '320', '322', '324', '325', '326', '327', '328', '329', '332', '333', '336', '337', '338', '339', '340', '342', '343', '345', '346', '348', '349', '352', '353', '354', '355', '362', '363', '364', '365', '368', '371', '376', '379', '381', '383', '385', '386', '389', '398', '402', '405', '408', '409', '410', '411', '412', '418', '420', '421', '422', '423', '424', '426', '428', '429', '430', '434', '435', '437', '438', '441', '444', '446', '449', '450', '451', '452', '455', '456', '458', '459', '461', '462', '463', '465', '466', '467', '469', '471', '473', '475', '476', '478', '479', '481', '482', '483', '486', '489', '491', '493', '494', '495', '497', '498', '500', '501', '502', '504', '505', '507', '508', '509', '512', '513', '514', '517', '518', '519', '520', '523', '529', '530', '531', '532', '534', '537', '542', '546', '547', '548', '549', '551', '552', '553', '554', '555', '559', '560', '563', '564', '565', '568', '569', '576', '577', '581', '582', '584', '589', '594', '595', '596', '597', '602', '603', '604', '606', '607', '608', '609', '611', '612', '613', '614', '621', '622', '624', '625', '626', '628', '629', '630', '632', '635', '636', '638', '639', '641', '642', '645', '648', '649', '650', '651', '655', '656', '657', '658', '659', '660', '663', '667', '671', '672', '676', '677', '679', '681', '682', '684', '685', '689', '691', '694', '695', '696', '697', '699', '702', '704', '705', '706', '708', '709', '711', '713', '716', '718', '724', '727', '728', '729', '731', '732', '736', '737', '739', '740', '747', '748', '752', '754', '755', '756', '759', '762', '766', '768', '773', '774', '775', '776', '777', '778', '779', '781', '784', '785', '786', '787', '792', '794', '798', '799', '800', '802', '804', '806', '807', '809', '811', '814', '815', '817', '818', '819', '820', '821', '822', '823', '824', '825', '828', '829', '830', '833', '834', '837', '838', '843', '845', '847', '849', '853', '854', '861', '863', '865', '866', '873', '874', '880', '881', '884', '885', '887', '892', '896', '897', '898', '899', '900', '903', '906', '907', '909', '912', '913', '915', '918', '921', '922', '924', '926', '928', '929', '932', '934', '938', '939', '941', '942', '944', '946', '947', '948', '952', '957', '959', '961', '962', '968', '971', '977', '981', '984', '986', '991', '993', '994', '995', '996', '1000', '1002', '1003', '1006', '1009', '1010', '1011', '1013', '1014', '1015', '1016', '1017', '1023', '1024', '1025', '1026', '1027', '1029', '1031', '1033', '1034', '1035', '1037', '1039', '1040', '1042', '1043', '1045', '1046', '1047', '1048', '1050', '1053', '1054', '1055', '1058', '1059', '1063', '1067', '1072', '1073', '1074', '1078', '1079', '1081', '1082', '1083', '1088', '1091', '1094', '1095', '1101', '1102', '1103', '1105', '1106', '1107', '1109', '1110', '1111', '1112', '1115', '1116', '1117', '1118', '1121', '1122', '1123', '1124', '1125', '1127', '1128', '1129', '1132', '1133', '1136', '1140', '1141', '1143', '1146', '1148', '1149', '1150', '1154', '1156', '1157', '1160', '1166', '1167', '1168', '1169', '1170', '1171', '1173', '1175', '1177', '1180', '1184', '1185', '1186', '1187', '1188', '1189', '1191', '1197', '1200', '1202', '1204', '1207', '1210', '1211', '1212', '1215', '1216', '1218', '1221', '1222', '1224', '1226', '1229', '1230', '1231', '1232', '1233', '1237', '1240', '1241', '1242', '1245', '1248', '1249', '1250', '1251', '1252', '1253', '1254', '1255', '1256', '1257', '1260', '1264', '1266', '1270', '1274', '1275', '1276', '1277', '1280', '1282', '1286', '1288', '1289', '1290', '1292', '1293', '1298', '1302', '1303', '1305', '1309', '1312', '1316', '1318', '1322', '1324', '1326', '1327', '1328', '1329', '1330', '1331', '1335', '1336', '1338', '1339', '1345', '1346', '1350', '1351', '1352', '1353', '1354', '1356', '1358', '1360', '1362', '1363', '1364', '1368', '1370', '1373', '1374', '1377', '1379', '1381', '1382', '1383', '1387', '1388', '1389', '1390', '1395', '1396', '1397', '1400', '1403', '1406', '1407', '1408', '1410', '1411', '1413', '1415', '1417', '1419', '1424', '1426', '1432', '1433', '1435', '1437', '1439', '1440', '1441', '1442', '1444', '1448', '1451', '1453', '1455', '1457', '1458', '1459', '1460', '1462', '1464', '1465', '1466', '1467', '1469', '1471', '1472', '1473', '1474', '1478', '1480', '1483', '1484', '1486', '1487', '1488', '1492', '1494', '1495', '1496', '1498', '1500', '1501', '1503', '1506', '1509', '1510', '1511', '1512', '1513', '1516', '1517', '1522', '1524', '1526', '1528', '1529', '1531', '1534', '1536', '1538', '1539', '1541', '1543', '1545', '1548', '1552', '1554', '1555', '1559', '1560', '1562', '1564', '1565', '1569', '1572', '1573', '1576', '1578', '1579', '1589', '1590', '1593', '1594', '1595', '1596', '1597', '1598', '1602', '1603', '1604', '1605', '1608', '1609', '1611', '1612', '1615', '1616', '1618', '1621', '1623', '1624', '1625', '1626', '1629', '1631', '1633', '1634', '1635', '1636', '1643', '1644', '1646', '1647', '1648', '1650', '1652', '1654', '1655', '1656', '1657', '1658', '1661', '1662', '1666', '1669', '1670', '1673', '1674', '1676', '1679', '1680', '1681', '1682', '1683', '1689', '1692', '1696', '1697', '1698', '1699', '1700', '1702', '1705', '1706', '1710', '1711', '1712', '1713', '1716', '1721', '1722', '1723', '1724', '1725', '1729', '1731', '1732', '1734', '1735', '1736', '1737', '1738', '1739', '1742', '1743', '1744', '1745', '1748', '1752', '1753', '1754', '1756', '1757', '1759', '1760', '1762', '1764', '1766', '1767', '1773', '1774', '1776', '1777', '1778', '1779', '1782', '1784', '1786', '1790', '1794', '1795', '1797', '1800', '1801', '1803', '1805', '1806', '1808', '1809', '1813', '1815', '1817', '1818', '1821', '1825', '1826', '1829', '1830', '1831', '1835', '1837', '1839', '1842', '1843', '1845', '1847', '1850', '1851', '1852', '1858', '1862', '1863', '1864', '1865', '1866', '1870', '1871', '1872', '1873', '1877', '1879', '1880', '1882', '1883', '1885', '1886', '1887', '1888', '1889', '1891', '1893', '1895', '1896', '1897', '1898', '1901', '1902', '1905', '1907', '1910', '1911', '1912', '1918', '1920', '1921', '1922', '1924', '1926', '1927', '1928', '1929', '1933', '1934', '1936', '1937', '1938', '1945', '1946', '1950', '1951', '1955', '1956', '1957', '1959', '1961', '1965', '1966', '1967', '1971', '1974', '1975', '1976', '1977', '1978', '1980', '1981', '1982', '1983', '1985', '1987', '1988', '1990', '1992', '1993', '1994', '1995', '1996', '1997', '1998', '1999', '2000']",True,2000,True,2,1a1eb530c4,0.0,0.0,1.0
./expes/v2_2021-03-23_issda-30_2000-prng-1-w2-p2,30_issda-2000,2000,first-2000,1000,50,rng,num-start-2600,2600,25726,classic,2319.6650438308716,True,,False,1.0,1.0,1.0,1,"['1', '2', '10', '11', '14', '20', '22', '23', '24', '25', '26', '28', '29', '30', '31', '32', '33', '34', '35', '37', '40', '41', '44', '46', '47', '48', '50', '51', '56', '57', '59', '61', '62', '65', '69', '72', '73', '74', '75', '77', '78', '80', '81', '84', '85', '86', '87', '88', '91', '92', '93', '94', '96', '97', '98', '102', '103', '104', '107', '108', '109', '119', '120', '122', '123', '124', '125', '127', '130', '132', '135', '137', '138', '141', '142', '144', '145', '148', '149', '150', '151', '152', '153', '154', '155', '156', '157', '158', '159', '160', '161', '165', '168', '170', '171', '172', '173', '174', '175', '177', '178', '179', '180', '181', '184', '185', '186', '189', '191', '193', '195', '196', '197', '199', '202', '203', '205', '206', '207', '210', '213', '215', '218', '221', '222', '223', '224', '232', '234', '235', '236', '237', '239', '241', '242', '245', '246', '250', '252', '253', '255', '259', '261', '264', '266', '267', '269', '270', '272', '273', '274', '275', '276', '278', '279', '280', '281', '284', '287', '288', '289', '290', '291', '293', '294', '296', '300', '301', '305', '309', '315', '316', '317', '318', '319', '321', '323', '324', '325', '327', '328', '330', '337', '339', '342', '347', '348', '354', '355', '360', '361', '362', '364', '366', '367', '371', '372', '373', '375', '377', '378', '379', '382', '384', '386', '388', '389', '390', '391', '392', '393', '398', '399', '400', '401', '402', '403', '404', '405', '406', '407', '409', '411', '412', '415', '418', '419', '420', '424', '427', '428', '430', '431', '432', '435', '436', '437', '438', '439', '443', '447', '448', '449', '450', '454', '456', '459', '464', '466', '468', '471', '472', '476', '477', '479', '481', '486', '487', '489', '491', '495', '496', '497', '498', '500', '501', '502', '503', '505', '509', '510', '511', '514', '521', '523', '524', '525', '526', '527', '529', '530', '532', '533', '537', '546', '552', '553', '555', '557', '558', '560', '563', '564', '565', '567', '570', '571', '572', '573', '574', '576', '577', '578', '580', '581', '582', '583', '586', '592', '595', '596', '601', '603', '606', '607', '613', '617', '618', '622', '623', '624', '625', '633', '635', '636', '637', '638', '639', '640', '646', '647', '649', '650', '651', '654', '657', '660', '661', '663', '664', '667', '669', '670', '672', '674', '676', '677', '678', '682', '687', '690', '692', '693', '696', '699', '700', '701', '702', '703', '704', '709', '712', '714', '719', '721', '726', '727', '728', '729', '731', '733', '736', '737', '740', '741', '742', '745', '746', '749', '751', '754', '755', '756', '757', '758', '759', '762', '765', '769', '770', '772', '773', '777', '781', '784', '786', '788', '791', '792', '794', '795', '796', '798', '799', '800', '801', '803', '806', '808', '809', '810', '811', '812', '814', '815', '817', '819', '821', '823', '825', '828', '829', '830', '831', '832', '834', '836', '838', '840', '841', '842', '843', '847', '848', '852', '853', '854', '855', '859', '860', '862', '864', '870', '871', '874', '876', '879', '880', '881', '883', '885', '889', '891', '895', '898', '900', '902', '903', '904', '905', '906', '907', '909', '911', '913', '915', '917', '923', '926', '927', '928', '929', '930', '931', '932', '933', '934', '937', '938', '939', '940', '947', '948', '950', '951', '953', '954', '957', '960', '961', '963', '964', '966', '967', '968', '970', '973', '974', '975', '976', '979', '981', '982', '985', '986', '988', '989', '990', '991', '992', '993', '996', '998', '999', '1006', '1009', '1010', '1012', '1013', '1014', '1015', '1017', '1019', '1020', '1021', '1022', '1024', '1025', '1029', '1030', '1031', '1033', '1034', '1036', '1040', '1041', '1043', '1046', '1049', '1050', '1051', '1054', '1055', '1056', '1057', '1058', '1062', '1063', '1064', '1065', '1066', '1067', '1069', '1071', '1072', '1074', '1076', '1079', '1082', '1083', '1085', '1086', '1087', '1088', '1092', '1094', '1096', '1097', '1098', '1100', '1103', '1104', '1106', '1107', '1108', '1109', '1110', '1112', '1113', '1114', '1115', '1116', '1119', '1124', '1126', '1127', '1128', '1129', '1130', '1135', '1145', '1146', '1147', '1149', '1151', '1153', '1154', '1155', '1156', '1157', '1160', '1163', '1164', '1165', '1166', '1167', '1168', '1169', '1172', '1174', '1177', '1178', '1182', '1186', '1188', '1190', '1192', '1193', '1194', '1195', '1197', '1198', '1200', '1202', '1203', '1209', '1211', '1212', '1214', '1219', '1220', '1222', '1224', '1225', '1226', '1228', '1229', '1231', '1232', '1233', '1236', '1237', '1239', '1240', '1245', '1247', '1249', '1250', '1251', '1252', '1253', '1257', '1258', '1259', '1261', '1262', '1266', '1270', '1275', '1277', '1278', '1279', '1280', '1282', '1285', '1286', '1287', '1289', '1290', '1291', '1293', '1297', '1299', '1300', '1303', '1304', '1307', '1308', '1309', '1310', '1311', '1312', '1313', '1315', '1316', '1319', '1321', '1328', '1330', '1332', '1334', '1337', '1338', '1339', '1340', '1342', '1346', '1347', '1352', '1356', '1357', '1360', '1364', '1365', '1368', '1369', '1375', '1377', '1379', '1383', '1386', '1387', '1389', '1390', '1395', '1397', '1398', '1400', '1402', '1403', '1404', '1405', '1407', '1408', '1412', '1416', '1421', '1422', '1423', '1424', '1429', '1431', '1432', '1434', '1436', '1437', '1438', '1442', '1443', '1444', '1447', '1448', '1450', '1452', '1453', '1457', '1463', '1467', '1468', '1470', '1472', '1473', '1476', '1479', '1480', '1481', '1482', '1485', '1486', '1487', '1489', '1492', '1493', '1495', '1497', '1499', '1501', '1504', '1506', '1510', '1514', '1515', '1516', '1518', '1522', '1524', '1525', '1526', '1529', '1531', '1532', '1533', '1534', '1537', '1543', '1544', '1546', '1547', '1548', '1549', '1553', '1555', '1560', '1561', '1562', '1565', '1567', '1568', '1570', '1572', '1574', '1575', '1576', '1583', '1589', '1594', '1595', '1596', '1598', '1600', '1607', '1614', '1618', '1620', '1622', '1623', '1625', '1631', '1632', '1633', '1634', '1635', '1637', '1639', '1640', '1641', '1642', '1644', '1645', '1646', '1647', '1649', '1651', '1654', '1658', '1659', '1660', '1663', '1669', '1670', '1671', '1673', '1675', '1676', '1679', '1682', '1684', '1687', '1688', '1690', '1692', '1697', '1698', '1700', '1701', '1702', '1703', '1704', '1705', '1706', '1713', '1715', '1717', '1718', '1719', '1721', '1725', '1726', '1728', '1730', '1732', '1734', '1736', '1739', '1743', '1744', '1745', '1746', '1750', '1751', '1752', '1753', '1755', '1756', '1763', '1764', '1769', '1770', '1771', '1774', '1775', '1777', '1781', '1782', '1785', '1788', '1793', '1794', '1800', '1801', '1802', '1803', '1805', '1806', '1807', '1813', '1818', '1819', '1821', '1824', '1825', '1827', '1829', '1830', '1833', '1835', '1836', '1837', '1839', '1844', '1845', '1846', '1849', '1854', '1855', '1856', '1857', '1858', '1861', '1862', '1863', '1864', '1865', '1866', '1867', '1870', '1871', '1873', '1874', '1876', '1879', '1882', '1884', '1885', '1886', '1888', '1890', '1892', '1893', '1895', '1896', '1899', '1904', '1905', '1906', '1907', '1909', '1910', '1913', '1914', '1915', '1917', '1918', '1920', '1923', '1925', '1926', '1928', '1934', '1935', '1936', '1937', '1940', '1944', '1946', '1949', '1950', '1951', '1956', '1957', '1960', '1961', '1963', '1965', '1966', '1969', '1972', '1974', '1975', '1976', '1980', '1981', '1982', '1984', '1986', '1987', '1989', '1993', '1994', '1997']",True,2000,True,2,a2e2c5f687,0.0,0.0,1.0
./expes/v2_2021-03-23_issda-30_2000-prng-1-w2-p2,30_issda-2000,2000,first-2000,300,15,rng,num-start-4000,4000,25726,classic,2003.6585853099823,True,,True,1.0,1.0,1.0,1,"['15', '20', '38', '41', '53', '65', '73', '76', '83', '84', '88', '89', '92', '95', '106', '114', '121', '122', '127', '128', '137', '153', '160', '167', '170', '178', '183', '185', '191', '199', '207', '212', '218', '233', '240', '251', '280', '291', '298', '307', '314', '318', '326', '331', '338', '339', '346', '348', '354', '364', '365', '377', '385', '393', '397', '400', '401', '407', '411', '414', '416', '425', '426', '427', '432', '440', '441', '442', '449', '455', '469', '475', '478', '484', '487', '496', '497', '507', '510', '511', '513', '519', '521', '532', '534', '536', '537', '550', '557', '566', '567', '569', '574', '575', '586', '591', '592', '593', '594', '595', '596', '598', '599', '600', '601', '607', '615', '622', '625', '635', '639', '645', '646', '657', '659', '662', '663', '666', '670', '679', '690', '692', '694', '703', '729', '732', '738', '743', '745', '748', '763', '782', '794', '795', '804', '812', '823', '826', '839', '841', '846', '848', '855', '861', '863', '868', '869', '877', '881', '883', '893', '899', '900', '904', '909', '910', '925', '932', '941', '948', '966', '970', '979', '981', '1005', '1008', '1013', '1017', '1022', '1037', '1042', '1063', '1066', '1077', '1082', '1084', '1095', '1100', '1119', '1122', '1126', '1144', '1158', '1167', '1171', '1173', '1174', '1193', '1194', '1206', '1220', '1227', '1241', '1243', '1261', '1266', '1271', '1283', '1285', '1286', '1296', '1300', '1301', '1313', '1316', '1326', '1328', '1335', '1336', '1338', '1340', '1341', '1346', '1376', '1380', '1383', '1387', '1393', '1405', '1429', '1436', '1444', '1451', '1470', '1478', '1499', '1506', '1510', '1526', '1530', '1568', '1582', '1585', '1588', '1597', '1606', '1620', '1634', '1638', '1640', '1641', '1642', '1648', '1653', '1665', '1669', '1676', '1694', '1698', '1702', '1710', '1720', '1722', '1731', '1737', '1738', '1751', '1759', '1765', '1766', '1773', '1777', '1781', '1782', '1784', '1790', '1803', '1807', '1822', '1825', '1832', '1835', '1843', '1845', '1846', '1853', '1862', '1871', '1878', '1880', '1890', '1894', '1900', '1901', '1905', '1915', '1930', '1932', '1934', '1935', '1956', '1959', '1966', '1968', '1970', '1972', '1976', '1979', '1988', '1989']",False,2000,True,2,fa7036bf2a,0.0,1.0,1.0
./expes/v2_2021-03-23_issda-30_2000-prng-1-w2-p2,30_issda-2000,2000,first-2000,1000,50,rng,num-start-800,800,25726,classic,2101.2084040641785,False,,False,0,,,0,"['1', '2', '3', '5', '7', '8', '9', '10', '12', '13', '16', '17', '19', '21', '23', '27', '28', '29', '30', '32', '35', '37', '40', '41', '42', '44', '45', '46', '47', '48', '50', '51', '54', '57', '58', '63', '66', '67', '68', '69', '73', '75', '77', '78', '80', '81', '84', '88', '89', '90', '91', '96', '98', '99', '106', '108', '110', '111', '113', '114', '115', '116', '119', '120', '122', '123', '125', '127', '131', '133', '134', '135', '137', '146', '147', '148', '150', '152', '153', '157', '161', '162', '163', '164', '165', '169', '172', '177', '178', '179', '182', '183', '184', '186', '187', '189', '190', '191', '192', '196', '198', '199', '202', '205', '207', '208', '211', '212', '213', '214', '215', '218', '219', '220', '221', '222', '223', '231', '233', '236', '238', '239', '241', '242', '245', '247', '249', '252', '253', '254', '255', '256', '257', '258', '261', '268', '269', '271', '274', '276', '280', '285', '290', '291', '292', '294', '295', '296', '301', '302', '303', '304', '309', '311', '313', '314', '315', '316', '317', '318', '319', '321', '322', '323', '324', '325', '326', '327', '328', '330', '337', '338', '342', '344', '347', '348', '349', '352', '353', '354', '355', '357', '360', '365', '368', '369', '373', '374', '379', '381', '384', '387', '389', '391', '392', '393', '395', '397', '400', '401', '402', '405', '406', '407', '408', '410', '413', '416', '417', '418', '419', '420', '421', '424', '427', '428', '429', '430', '432', '434', '435', '436', '437', '440', '443', '445', '446', '447', '448', '449', '452', '454', '456', '457', '459', '460', '461', '465', '467', '471', '476', '479', '481', '482', '483', '485', '486', '487', '488', '490', '491', '494', '495', '497', '498', '500', '501', '502', '503', '504', '505', '506', '509', '512', '513', '519', '520', '523', '524', '527', '529', '531', '533', '535', '538', '539', '540', '541', '545', '548', '549', '551', '552', '553', '554', '556', '558', '560', '561', '565', '567', '571', '573', '577', '579', '580', '581', '582', '583', '584', '587', '588', '591', '593', '594', '595', '596', '597', '601', '602', '603', '605', '607', '608', '609', '610', '612', '613', '614', '616', '619', '620', '621', '624', '625', '626', '627', '629', '631', '632', '633', '634', '635', '636', '641', '642', '643', '645', '646', '647', '649', '650', '655', '656', '658', '659', '660', '662', '664', '667', '673', '681', '683', '684', '685', '686', '687', '689', '690', '692', '693', '696', '700', '703', '704', '705', '706', '707', '711', '713', '715', '716', '717', '719', '723', '724', '725', '726', '727', '728', '731', '733', '736', '738', '740', '741', '743', '747', '751', '756', '757', '761', '763', '764', '765', '766', '767', '769', '771', '773', '774', '778', '779', '780', '783', '784', '785', '786', '787', '790', '792', '793', '795', '796', '802', '805', '808', '810', '811', '815', '817', '819', '820', '823', '825', '826', '827', '829', '830', '832', '833', '834', '836', '837', '838', '839', '840', '843', '844', '845', '846', '848', '850', '852', '854', '855', '856', '857', '858', '859', '860', '861', '863', '865', '867', '869', '874', '875', '876', '877', '878', '879', '880', '884', '885', '887', '889', '891', '892', '893', '894', '896', '899', '901', '902', '904', '906', '910', '911', '912', '914', '915', '916', '917', '922', '926', '929', '931', '934', '936', '941', '942', '943', '944', '946', '947', '952', '954', '956', '960', '961', '966', '968', '971', '972', '973', '978', '985', '986', '988', '991', '994', '995', '999', '1000', '1001', '1003', '1004', '1005', '1007', '1009', '1012', '1013', '1015', '1016', '1017', '1019', '1020', '1022', '1023', '1024', '1027', '1028', '1030', '1032', '1041', '1044', '1045', '1046', '1047', '1049', '1052', '1053', '1058', '1059', '1060', '1061', '1062', '1067', '1072', '1073', '1077', '1078', '1081', '1083', '1087', '1089', '1090', '1092', '1094', '1095', '1097', '1099', '1101', '1102', '1103', '1105', '1106', '1110', '1111', '1112', '1125', '1127', '1129', '1132', '1133', '1134', '1136', '1142', '1144', '1146', '1149', '1150', '1152', '1153', '1157', '1162', '1163', '1166', '1168', '1169', '1171', '1173', '1176', '1177', '1184', '1186', '1189', '1193', '1202', '1203', '1207', '1208', '1209', '1211', '1212', '1213', '1215', '1216', '1217', '1218', '1219', '1220', '1222', '1223', '1224', '1225', '1227', '1234', '1235', '1237', '1238', '1241', '1242', '1243', '1245', '1248', '1250', '1251', '1252', '1253', '1255', '1256', '1257', '1258', '1260', '1263', '1264', '1267', '1269', '1271', '1273', '1275', '1276', '1277', '1280', '1281', '1282', '1284', '1285', '1287', '1288', '1293', '1295', '1296', '1297', '1301', '1302', '1304', '1305', '1307', '1308', '1311', '1312', '1313', '1314', '1317', '1318', '1319', '1320', '1321', '1329', '1332', '1334', '1335', '1337', '1339', '1341', '1342', '1343', '1344', '1347', '1349', '1351', '1352', '1353', '1355', '1356', '1357', '1358', '1364', '1365', '1366', '1367', '1369', '1370', '1371', '1374', '1380', '1381', '1391', '1392', '1394', '1395', '1397', '1402', '1407', '1408', '1411', '1413', '1415', '1417', '1421', '1425', '1426', '1429', '1430', '1432', '1433', '1434', '1435', '1441', '1442', '1443', '1448', '1449', '1450', '1452', '1457', '1460', '1463', '1469', '1471', '1472', '1473', '1474', '1475', '1477', '1478', '1480', '1483', '1485', '1487', '1491', '1496', '1497', '1499', '1500', '1502', '1506', '1508', '1509', '1510', '1511', '1512', '1513', '1516', '1521', '1522', '1523', '1525', '1528', '1533', '1535', '1536', '1540', '1542', '1547', '1548', '1549', '1551', '1553', '1554', '1556', '1558', '1559', '1560', '1562', '1564', '1565', '1566', '1567', '1568', '1574', '1576', '1580', '1583', '1584', '1586', '1589', '1591', '1595', '1596', '1597', '1598', '1599', '1600', '1602', '1603', '1604', '1605', '1607', '1609', '1610', '1611', '1612', '1614', '1616', '1617', '1618', '1619', '1624', '1628', '1629', '1630', '1631', '1635', '1636', '1637', '1638', '1645', '1646', '1647', '1648', '1650', '1651', '1652', '1653', '1654', '1655', '1656', '1658', '1659', '1660', '1664', '1667', '1669', '1671', '1674', '1677', '1678', '1680', '1683', '1686', '1688', '1689', '1692', '1693', '1694', '1696', '1697', '1700', '1703', '1704', '1706', '1707', '1709', '1710', '1711', '1712', '1714', '1717', '1721', '1722', '1724', '1725', '1726', '1727', '1729', '1731', '1732', '1735', '1736', '1738', '1741', '1745', '1746', '1748', '1750', '1752', '1754', '1760', '1762', '1763', '1764', '1765', '1770', '1771', '1772', '1773', '1776', '1777', '1778', '1784', '1785', '1786', '1787', '1788', '1789', '1791', '1795', '1801', '1803', '1806', '1809', '1810', '1811', '1812', '1813', '1814', '1816', '1820', '1825', '1830', '1831', '1833', '1836', '1837', '1839', '1842', '1843', '1847', '1848', '1849', '1852', '1855', '1857', '1858', '1865', '1872', '1873', '1874', '1875', '1877', '1879', '1880', '1882', '1883', '1884', '1885', '1886', '1888', '1892', '1895', '1896', '1897', '1900', '1901', '1902', '1905', '1908', '1909', '1913', '1915', '1921', '1925', '1927', '1930', '1931', '1932', '1933', '1934', '1940', '1941', '1942', '1943', '1947', '1948', '1949', '1950', '1952', '1953', '1954', '1955', '1956', '1957', '1959', '1961', '1962', '1965', '1970', '1971', '1973', '1976', '1978', '1979', '1981', '1982', '1983', '1984', '1985', '1986', '1987', '1988', '1989', '1990', '1991', '1993', '1995', '1996']",True,2000,True,2,640ddf9431,0.0,0.0,0.0
./expes/v2_2021-03-23_issda-30_2000-prng-1-w2-p2,30_issda-2000,2000,first-2000,200,10,rng,num-start-200,200,25726,classic,2026.655076265335,False,,False,0,,,0,"['11', '20', '37', '40', '43', '56', '101', '102', '103', '104', '106', '111', '120', '128', '132', '142', '154', '168', '175', '191', '193', '226', '227', '240', '253', '266', '282', '284', '287', '291', '309', '310', '331', '335', '350', '358', '376', '395', '401', '403', '407', '431', '435', '438', '461', '490', '496', '510', '513', '514', '515', '517', '529', '544', '548', '559', '565', '570', '594', '605', '622', '625', '630', '634', '635', '639', '647', '648', '651', '654', '678', '681', '687', '689', '713', '727', '737', '749', '763', '768', '787', '802', '823', '826', '827', '831', '837', '840', '849', '859', '860', '887', '957', '971', '978', '984', '994', '997', '1028', '1037', '1039', '1070', '1076', '1080', '1091', '1092', '1100', '1106', '1107', '1111', '1113', '1129', '1134', '1138', '1141', '1145', '1156', '1171', '1178', '1180', '1185', '1188', '1209', '1229', '1237', '1272', '1297', '1304', '1309', '1312', '1347', '1349', '1355', '1386', '1398', '1402', '1405', '1416', '1443', '1445', '1446', '1465', '1466', '1484', '1485', '1493', '1499', '1514', '1526', '1529', '1531', '1533', '1541', '1543', '1569', '1579', '1586', '1603', '1611', '1622', '1642', '1643', '1644', '1649', '1653', '1661', '1664', '1665', '1666', '1670', '1673', '1698', '1719', '1725', '1734', '1759', '1761', '1778', '1793', '1808', '1819', '1823', '1837', '1847', '1859', '1862', '1864', '1878', '1880', '1885', '1897', '1925', '1936', '1949', '1957', '1961', '1962', '1966', '1968', '1994']",True,2000,True,2,a9256e9c8f,0.0,0.0,0.0
./expes/v2_2021-03-23_issda-30_2000-prng-1-w2-p2,30_issda-2000,2000,first-2000,400,20,rng,num-start-800,800,25726,classic,2101.499480009079,True,,False,1.0,1.0,1.0,1,"['2', '4', '7', '11', '19', '24', '27', '38', '45', '47', '57', '60', '66', '68', '71', '74', '76', '86', '96', '100', '107', '111', '115', '117', '121', '130', '134', '136', '148', '161', '162', '166', '183', '187', '189', '195', '209', '219', '222', '227', '231', '232', '236', '244', '260', '268', '271', '272', '274', '285', '290', '291', '299', '301', '304', '305', '306', '322', '327', '328', '331', '340', '341', '346', '347', '352', '354', '361', '364', '366', '368', '369', '370', '371', '372', '373', '379', '397', '401', '403', '404', '407', '408', '419', '420', '425', '427', '429', '442', '444', '449', '464', '487', '488', '504', '505', '511', '513', '514', '524', '525', '541', '543', '555', '558', '561', '562', '565', '571', '573', '576', '580', '592', '593', '597', '602', '604', '605', '606', '612', '618', '620', '627', '628', '634', '635', '640', '643', '647', '649', '650', '651', '668', '680', '685', '693', '694', '696', '697', '698', '705', '706', '708', '713', '717', '718', '720', '727', '728', '729', '731', '733', '735', '740', '742', '743', '745', '747', '750', '753', '762', '764', '766', '771', '773', '779', '780', '785', '798', '827', '828', '831', '832', '836', '837', '840', '848', '850', '851', '854', '858', '862', '864', '887', '890', '904', '912', '922', '928', '929', '934', '947', '948', '949', '953', '954', '961', '963', '966', '968', '972', '978', '982', '985', '986', '989', '991', '995', '1000', '1008', '1011', '1023', '1025', '1030', '1050', '1051', '1056', '1058', '1062', '1070', '1075', '1085', '1086', '1090', '1093', '1105', '1114', '1117', '1121', '1123', '1125', '1127', '1133', '1146', '1156', '1176', '1185', '1190', '1201', '1202', '1204', '1208', '1209', '1217', '1221', '1231', '1236', '1251', '1253', '1257', '1264', '1265', '1266', '1271', '1276', '1278', '1279', '1282', '1284', '1285', '1292', '1293', '1305', '1308', '1320', '1326', '1330', '1331', '1332', '1334', '1336', '1357', '1360', '1364', '1369', '1374', '1376', '1380', '1389', '1405', '1410', '1411', '1412', '1415', '1417', '1423', '1427', '1439', '1443', '1444', '1450', '1467', '1471', '1472', '1474', '1475', '1476', '1477', '1495', '1496', '1498', '1499', '1512', '1516', '1517', '1520', '1533', '1536', '1548', '1555', '1556', '1561', '1569', '1577', '1585', '1587', '1589', '1590', '1599', '1600', '1602', '1610', '1614', '1629', '1633', '1634', '1636', '1642', '1673', '1675', '1677', '1679', '1684', '1693', '1697', '1703', '1711', '1714', '1718', '1722', '1723', '1724', '1727', '1731', '1745', '1746', '1749', '1753', '1761', '1775', '1776', '1777', '1778', '1779', '1782', '1785', '1787', '1795', '1827', '1829', '1831', '1837', '1846', '1848', '1850', '1877', '1881', '1889', '1892', '1893', '1904', '1917', '1918', '1920', '1921', '1924', '1928', '1930', '1931', '1932', '1937', '1945', '1946', '1950', '1955', '1957', '1959', '1960', '1966', '1967', '1970', '1976', '1977', '1980', '1983', '1984', '1992', '1998', '1999', '2000']",True,2000,True,2,7905ebff0e,0.0,0.0,1.0
./expes/v2_2021-03-23_issda-30_2000-prng-1-w2-p2,30_issda-2000,2000,first-2000,200,10,rng,num-start-2400,2400,25726,classic,1177.93599152565,True,,True,1.0,1.0,1.0,1,"['15', '20', '38', '41', '53', '88', '89', '92', '95', '114', '121', '122', '127', '128', '137', '160', '167', '170', '178', '183', '185', '199', '207', '212', '218', '233', '251', '280', '298', '314', '318', '326', '331', '338', '346', '348', '354', '364', '365', '377', '393', '397', '400', '401', '407', '416', '425', '426', '440', '455', '469', '478', '484', '487', '507', '510', '513', '532', '534', '537', '557', '566', '567', '569', '574', '575', '586', '591', '592', '593', '594', '595', '596', '598', '599', '601', '615', '622', '625', '635', '639', '657', '659', '662', '663', '670', '679', '692', '703', '729', '732', '738', '743', '745', '748', '763', '782', '795', '812', '823', '841', '846', '848', '868', '869', '883', '893', '900', '904', '910', '925', '932', '941', '948', '966', '970', '981', '1037', '1042', '1063', '1066', '1095', '1100', '1122', '1126', '1144', '1171', '1173', '1174', '1193', '1206', '1227', '1241', '1261', '1266', '1271', '1283', '1285', '1296', '1300', '1301', '1313', '1328', '1336', '1376', '1380', '1383', '1393', '1429', '1436', '1444', '1451', '1478', '1499', '1506', '1510', '1530', '1568', '1588', '1597', '1606', '1634', '1640', '1648', '1653', '1665', '1676', '1694', '1698', '1720', '1722', '1731', '1737', '1738', '1751', '1765', '1766', '1773', '1777', '1781', '1803', '1807', '1832', '1835', '1853', '1862', '1871', '1878', '1880', '1900', '1915', '1930', '1932', '1935', '1956', '1966', '1968', '1970', '1976', '1979']",False,2000,True,2,01aff00957,0.0,1.0,1.0
./expes/v2_2021-03-23_issda-30_2000-prng-1-w2-p2,30_issda-2000,2000,first-2000,800,40,rng,num-start-1800,1800,25726,classic,1609.0789802074432,True,,True,1.0,1.0,1.0,1,"['12', '13', '14', '18', '19', '23', '27', '30', '34', '36', '38', '42', '43', '45', '47', '48', '55', '59', '60', '64', '73', '74', '76', '84', '86', '87', '92', '93', '94', '95', '97', '98', '102', '106', '113', '115', '117', '120', '125', '129', '130', '133', '136', '137', '141', '142', '144', '147', '156', '157', '159', '161', '162', '164', '168', '171', '172', '178', '179', '180', '181', '182', '184', '185', '190', '192', '193', '208', '218', '220', '221', '223', '227', '229', '235', '236', '239', '242', '244', '250', '252', '256', '258', '259', '262', '263', '265', '267', '270', '272', '273', '277', '280', '281', '285', '286', '287', '294', '297', '298', '300', '301', '303', '306', '308', '309', '310', '312', '314', '320', '321', '329', '331', '333', '334', '335', '337', '342', '343', '344', '347', '350', '353', '357', '358', '360', '361', '362', '365', '366', '372', '374', '375', '377', '378', '385', '386', '387', '389', '390', '392', '396', '402', '406', '409', '411', '413', '414', '415', '418', '419', '422', '423', '424', '428', '429', '430', '432', '433', '436', '438', '440', '442', '443', '446', '449', '450', '452', '456', '459', '461', '462', '472', '473', '478', '479', '481', '483', '484', '487', '489', '491', '492', '495', '497', '504', '505', '507', '510', '511', '512', '516', '520', '524', '525', '528', '529', '530', '531', '532', '533', '535', '538', '540', '542', '543', '547', '550', '553', '554', '555', '556', '558', '560', '561', '562', '564', '565', '567', '571', '575', '577', '579', '582', '583', '588', '592', '593', '598', '599', '603', '606', '609', '612', '613', '615', '616', '618', '619', '621', '623', '627', '629', '632', '633', '635', '641', '644', '646', '647', '651', '655', '659', '660', '661', '664', '665', '671', '672', '673', '675', '679', '680', '681', '683', '685', '686', '688', '690', '693', '694', '696', '697', '698', '702', '706', '707', '708', '709', '712', '716', '717', '718', '722', '726', '730', '731', '733', '736', '738', '739', '740', '741', '744', '745', '748', '749', '750', '753', '754', '755', '764', '766', '767', '770', '775', '776', '778', '780', '786', '790', '793', '798', '799', '800', '802', '804', '806', '808', '813', '814', '820', '824', '826', '828', '829', '831', '832', '833', '834', '836', '837', '838', '839', '844', '848', '849', '850', '851', '853', '855', '856', '860', '864', '865', '866', '867', '868', '870', '874', '875', '876', '877', '878', '882', '883', '888', '889', '890', '893', '895', '897', '911', '913', '915', '920', '930', '931', '932', '933', '936', '939', '940', '942', '949', '950', '953', '954', '955', '958', '959', '962', '963', '964', '967', '969', '970', '973', '978', '979', '980', '983', '984', '985', '994', '997', '999', '1003', '1005', '1006', '1007', '1008', '1010', '1012', '1014', '1016', '1018', '1023', '1026', '1029', '1035', '1038', '1039', '1040', '1043', '1046', '1047', '1049', '1051', '1052', '1054', '1058', '1062', '1064', '1066', '1067', '1069', '1070', '1073', '1075', '1078', '1079', '1083', '1085', '1086', '1087', '1091', '1095', '1102', '1104', '1107', '1109', '1111', '1114', '1116', '1117', '1119', '1124', '1125', '1127', '1129', '1130', '1131', '1133', '1137', '1140', '1143', '1144', '1145', '1149', '1152', '1158', '1159', '1164', '1166', '1167', '1170', '1171', '1173', '1174', '1176', '1179', '1183', '1186', '1192', '1194', '1195', '1198', '1203', '1206', '1207', '1208', '1210', '1216', '1218', '1224', '1225', '1229', '1230', '1235', '1238', '1242', '1244', '1250', '1251', '1252', '1254', '1255', '1258', '1260', '1261', '1264', '1266', '1267', '1275', '1277', '1281', '1283', '1287', '1289', '1290', '1291', '1292', '1293', '1300', '1304', '1306', '1308', '1309', '1322', '1325', '1326', '1327', '1328', '1330', '1336', '1339', '1344', '1345', '1346', '1347', '1353', '1354', '1355', '1359', '1367', '1370', '1372', '1375', '1376', '1378', '1381', '1383', '1384', '1385', '1386', '1388', '1389', '1390', '1391', '1393', '1395', '1396', '1400', '1401', '1402', '1406', '1407', '1408', '1412', '1414', '1415', '1417', '1419', '1421', '1422', '1427', '1431', '1432', '1433', '1436', '1438', '1440', '1444', '1446', '1447', '1449', '1451', '1452', '1453', '1454', '1458', '1461', '1462', '1464', '1467', '1469', '1471', '1472', '1474', '1478', '1480', '1482', '1489', '1490', '1496', '1505', '1506', '1507', '1508', '1513', '1519', '1522', '1525', '1526', '1527', '1529', '1533', '1538', '1544', '1545', '1548', '1549', '1550', '1551', '1552', '1553', '1554', '1556', '1557', '1562', '1572', '1573', '1574', '1575', '1578', '1579', '1581', '1584', '1587', '1589', '1592', '1593', '1594', '1595', '1598', '1599', '1600', '1605', '1606', '1607', '1609', '1613', '1615', '1618', '1620', '1621', '1622', '1623', '1625', '1626', '1627', '1628', '1629', '1632', '1639', '1642', '1644', '1646', '1652', '1654', '1657', '1660', '1662', '1663', '1664', '1666', '1668', '1669', '1674', '1676', '1681', '1683', '1688', '1691', '1692', '1693', '1695', '1697', '1700', '1703', '1705', '1706', '1708', '1711', '1712', '1713', '1715', '1719', '1720', '1722', '1724', '1726', '1728', '1729', '1733', '1736', '1738', '1743', '1746', '1749', '1750', '1754', '1756', '1758', '1760', '1762', '1766', '1769', '1774', '1777', '1780', '1783', '1789', '1790', '1791', '1792', '1795', '1801', '1804', '1805', '1806', '1807', '1811', '1814', '1817', '1818', '1823', '1825', '1826', '1827', '1829', '1834', '1837', '1841', '1842', '1843', '1844', '1847', '1854', '1857', '1858', '1859', '1865', '1867', '1869', '1871', '1875', '1876', '1879', '1880', '1888', '1889', '1891', '1895', '1896', '1899', '1900', '1904', '1905', '1909', '1910', '1912', '1916', '1919', '1921', '1923', '1925', '1931', '1934', '1935', '1936', '1938', '1939', '1941', '1946', '1947', '1950', '1951', '1955', '1956', '1959', '1960', '1961', '1962', '1964', '1966', '1968', '1979', '1980', '1981', '1982', '1983', '1985', '1986', '1987', '1993', '1994', '1998', '1999']",False,2000,True,2,6a975ef14a,0.0,1.0,1.0
