expe,clients,clients_size,clients_subset,agg_size,agg_size_pc,method,days,days_size,days_total,noise_method,time,valid,valid_sum,success,score_avg,score_min,score_max,nsols,oracle,wall_hit,wall_time,pooled,pool_size,uuid,infeasible,optimal,valid_sums
./expes/v4_2021-03-18_issda_1000-prng-1-w1-p100-ukn95_99,30_issda-1000,995,first-1000,500,50,rng,num-start-600,600,25726,ukn-95-99,72.00190377235413,False,,False,0.2964155403668617,0.2816013784277831,0.9160818641703311,100,"['1', '3', '5', '6', '7', '10', '11', '13', '14', '16', '18', '19', '21', '23', '29', '30', '31', '32', '33', '34', '35', '38', '39', '41', '47', '52', '53', '54', '56', '59', '61', '62', '63', '64', '66', '70', '71', '76', '77', '78', '79', '80', '83', '86', '88', '90', '91', '92', '95', '96', '97', '99', '100', '103', '108', '112', '115', '117', '118', '120', '123', '127', '129', '130', '131', '132', '136', '137', '138', '139', '140', '141', '142', '143', '146', '148', '149', '150', '153', '154', '155', '156', '159', '162', '165', '167', '168', '169', '173', '174', '177', '178', '181', '183', '187', '189', '190', '191', '193', '194', '197', '198', '199', '201', '202', '203', '204', '206', '207', '215', '220', '221', '227', '229', '231', '232', '236', '238', '240', '245', '247', '249', '250', '251', '252', '256', '257', '258', '260', '261', '262', '263', '268', '271', '272', '273', '275', '276', '277', '279', '280', '281', '283', '284', '285', '287', '289', '293', '294', '297', '298', '299', '301', '307', '311', '312', '314', '320', '325', '326', '328', '332', '334', '338', '339', '341', '344', '345', '346', '349', '352', '353', '359', '366', '369', '370', '371', '372', '373', '376', '377', '380', '381', '382', '383', '384', '386', '387', '389', '390', '391', '394', '396', '398', '399', '403', '408', '410', '417', '419', '420', '421', '424', '428', '430', '432', '433', '434', '435', '436', '437', '440', '441', '442', '444', '447', '449', '451', '452', '455', '456', '457', '458', '460', '461', '463', '470', '474', '475', '476', '479', '481', '482', '483', '484', '485', '486', '487', '489', '490', '491', '492', '496', '497', '498', '499', '500', '501', '504', '507', '509', '510', '512', '513', '515', '516', '520', '526', '528', '530', '533', '535', '538', '539', '540', '541', '544', '549', '551', '552', '553', '554', '555', '556', '557', '559', '561', '565', '567', '572', '574', '575', '577', '578', '579', '583', '584', '587', '588', '590', '594', '599', '601', '603', '604', '605', '607', '609', '610', '612', '617', '618', '620', '622', '623', '625', '627', '629', '631', '632', '633', '634', '635', '636', '639', '641', '642', '644', '645', '647', '649', '650', '651', '653', '654', '655', '660', '661', '662', '664', '667', '670', '672', '673', '676', '678', '679', '683', '685', '687', '688', '690', '693', '694', '695', '696', '697', '698', '699', '701', '703', '705', '707', '708', '709', '711', '712', '713', '715', '717', '718', '719', '723', '726', '729', '730', '731', '732', '733', '734', '736', '737', '739', '740', '742', '747', '748', '750', '753', '757', '758', '761', '763', '764', '765', '769', '770', '774', '776', '777', '778', '779', '781', '782', '784', '786', '789', '793', '796', '797', '798', '799', '802', '803', '806', '807', '810', '811', '813', '815', '816', '820', '822', '823', '825', '826', '828', '829', '832', '834', '836', '837', '838', '842', '848', '849', '851', '852', '853', '855', '859', '861', '863', '865', '866', '871', '874', '876', '879', '880', '883', '885', '887', '891', '892', '893', '894', '898', '901', '902', '907', '910', '911', '914', '915', '916', '921', '922', '925', '927', '930', '931', '932', '933', '934', '935', '936', '939', '942', '944', '945', '946', '947', '950', '951', '956', '957', '960', '961', '963', '964', '967', '968', '971', '972', '973', '974', '975', '982', '986', '988', '989', '990', '993', '994', '995', '996', '998', '999', '1000']",False,1000,True,100,df9401c2af,0.0,1.0,0.0
./expes/v4_2021-03-18_issda_1000-prng-1-w1-p100-ukn95_99,30_issda-1000,999,first-1000,100,10,rng,num-start-900,900,25726,ukn-95-99,183.81866121292114,False,,False,0.594662048854066,0.5741329721017348,0.9683455531083541,100,"['2', '4', '6', '14', '23', '30', '54', '67', '68', '74', '105', '116', '130', '136', '143', '150', '161', '164', '170', '171', '187', '202', '204', '210', '215', '221', '222', '253', '256', '262', '271', '287', '297', '306', '309', '314', '318', '322', '340', '347', '364', '368', '370', '381', '390', '393', '399', '418', '425', '456', '477', '481', '493', '543', '553', '557', '588', '601', '611', '618', '633', '638', '641', '665', '668', '695', '708', '714', '725', '749', '758', '760', '781', '785', '793', '795', '815', '817', '838', '839', '861', '862', '889', '890', '893', '894', '898', '916', '923', '939', '945', '959', '964', '966', '984', '985', '989', '990', '992', '996']",False,1000,True,100,d0a00c9f63,0.0,1.0,0.0
./expes/v4_2021-03-18_issda_1000-prng-1-w1-p100-ukn95_99,30_issda-1000,999,first-1000,150,15,rng,num-start-100,100,25726,ukn-95-99,11.491523742675781,False,,False,0.513648453324397,0.48276207588743014,0.9683455531083541,100,"['8', '19', '21', '27', '44', '45', '48', '61', '64', '69', '84', '85', '89', '92', '93', '104', '106', '109', '126', '149', '159', '166', '169', '177', '182', '183', '189', '199', '200', '201', '204', '208', '220', '228', '235', '239', '242', '244', '254', '255', '266', '267', '269', '279', '283', '284', '285', '287', '288', '293', '296', '297', '298', '299', '308', '311', '313', '318', '320', '329', '332', '335', '340', '346', '352', '365', '366', '369', '382', '398', '406', '412', '423', '424', '434', '442', '447', '452', '463', '471', '474', '483', '485', '491', '519', '521', '532', '533', '548', '550', '561', '563', '572', '587', '597', '603', '614', '621', '631', '642', '643', '648', '650', '651', '657', '664', '688', '690', '692', '715', '718', '722', '726', '739', '750', '753', '765', '784', '799', '817', '820', '827', '833', '838', '847', '849', '860', '861', '866', '869', '876', '883', '887', '889', '902', '904', '918', '927', '931', '936', '940', '950', '958', '965', '966', '968', '978', '983', '984', '988']",False,1000,True,100,179236d94f,0.0,1.0,0.0
./expes/v4_2021-03-18_issda_1000-prng-1-w1-p100-ukn95_99,30_issda-1000,1000,first-1000,50,5,rng,num-start-700,700,25726,ukn-95-99,1049.259081363678,False,,False,0.7727449553903373,0.7468912011326669,1.0,33,"['21', '27', '61', '69', '89', '93', '106', '109', '159', '169', '177', '199', '220', '228', '242', '267', '269', '279', '284', '297', '311', '318', '369', '382', '406', '412', '491', '533', '550', '563', '621', '643', '657', '739', '750', '784', '799', '820', '827', '847', '849', '866', '869', '876', '889', '902', '940', '950', '966', '984']",True,1000,True,100,e2ad5cb6dd,0.0,0.0,0.0
