expe,clients,clients_size,clients_subset,agg_size,agg_size_pc,method,days,days_size,days_total,noise_method,time,valid,valid_sum,success,score_avg,score_min,score_max,nsols,oracle,wall_hit,wall_time,pooled,pool_size,uuid,infeasible,optimal,valid_sums
./expes/v4_2021-03-18_issda_1000-prng-1-w1-p100-ukn95_99,30_issda-1000,999,first-1000,150,15,rng,num-start-500,500,25726,ukn-95-99,97.7966046333313,False,,False,0.51971673487402,0.492540612403199,0.9683455531083541,100,"['3', '10', '13', '23', '27', '30', '31', '32', '36', '45', '65', '89', '97', '103', '105', '111', '121', '124', '138', '168', '173', '175', '178', '191', '195', '205', '215', '222', '225', '228', '233', '235', '237', '238', '239', '249', '262', '273', '291', '297', '304', '311', '316', '326', '341', '354', '376', '380', '384', '389', '391', '400', '403', '404', '414', '425', '427', '433', '444', '449', '450', '457', '461', '471', '481', '484', '492', '500', '502', '508', '512', '513', '515', '518', '520', '521', '534', '541', '553', '555', '562', '567', '570', '583', '593', '602', '604', '606', '608', '623', '630', '645', '658', '663', '666', '668', '680', '681', '687', '691', '694', '703', '713', '720', '721', '729', '739', '742', '744', '751', '756', '761', '762', '780', '781', '783', '786', '790', '795', '798', '808', '817', '822', '850', '856', '858', '861', '867', '868', '869', '874', '881', '903', '904', '915', '918', '924', '933', '939', '943', '945', '949', '959', '962', '964', '968', '976', '991', '993', '997']",False,1000,True,100,75b098032c,0.0,1.0,0.0
./expes/v4_2021-03-18_issda_1000-prng-1-w1-p100-ukn95_99,30_issda-1000,996,first-1000,450,45,rng,num-start-600,600,25726,ukn-95-99,73.27382159233093,False,,False,0.30496624696662356,0.059562808820937896,0.9223459546850981,100,"['1', '2', '3', '4', '6', '10', '12', '14', '15', '17', '19', '21', '23', '24', '25', '28', '29', '30', '33', '34', '36', '37', '38', '41', '43', '48', '50', '54', '56', '58', '59', '61', '65', '67', '68', '74', '81', '83', '92', '94', '95', '98', '105', '110', '111', '114', '116', '118', '122', '125', '130', '133', '134', '136', '137', '140', '143', '145', '146', '147', '150', '151', '152', '153', '159', '161', '163', '164', '166', '170', '171', '173', '174', '176', '177', '181', '182', '183', '184', '185', '186', '187', '190', '196', '199', '201', '202', '204', '210', '213', '214', '215', '221', '222', '225', '232', '244', '250', '252', '253', '256', '257', '258', '259', '262', '263', '267', '271', '272', '275', '278', '279', '281', '283', '286', '287', '288', '290', '293', '294', '296', '297', '299', '301', '302', '303', '304', '306', '308', '309', '310', '311', '314', '315', '317', '318', '319', '320', '322', '324', '325', '326', '327', '334', '340', '343', '345', '347', '348', '349', '353', '354', '357', '359', '360', '361', '364', '365', '366', '367', '368', '370', '371', '372', '373', '374', '375', '377', '379', '381', '382', '383', '385', '386', '387', '389', '390', '392', '393', '394', '395', '399', '402', '414', '416', '418', '419', '420', '424', '425', '426', '427', '429', '430', '431', '432', '438', '440', '443', '444', '445', '452', '455', '456', '461', '464', '465', '467', '474', '475', '476', '477', '479', '481', '482', '483', '484', '486', '487', '488', '489', '490', '491', '492', '493', '494', '495', '496', '498', '500', '502', '504', '505', '506', '509', '512', '513', '515', '525', '526', '528', '529', '531', '535', '538', '543', '545', '546', '547', '552', '553', '557', '559', '561', '562', '563', '564', '567', '573', '574', '578', '580', '588', '590', '593', '595', '597', '601', '602', '604', '605', '609', '610', '611', '616', '618', '619', '623', '624', '626', '627', '629', '630', '632', '633', '636', '637', '638', '639', '640', '641', '642', '643', '645', '646', '647', '648', '653', '654', '658', '660', '661', '663', '664', '665', '666', '667', '668', '676', '678', '679', '680', '682', '685', '687', '688', '690', '695', '699', '703', '704', '705', '706', '708', '709', '712', '714', '720', '722', '725', '726', '734', '736', '737', '738', '739', '748', '749', '750', '756', '758', '759', '760', '762', '763', '767', '768', '774', '777', '778', '779', '781', '785', '789', '793', '794', '795', '798', '800', '801', '805', '807', '815', '817', '818', '821', '827', '833', '837', '838', '839', '840', '841', '842', '847', '849', '850', '852', '856', '857', '859', '861', '862', '864', '865', '866', '873', '875', '876', '877', '880', '881', '885', '888', '889', '890', '891', '893', '894', '898', '902', '910', '913', '914', '915', '916', '917', '919', '921', '923', '924', '925', '933', '934', '936', '939', '941', '945', '946', '947', '952', '958', '959', '960', '961', '962', '964', '965', '966', '968', '969', '973', '974', '975', '977', '978', '979', '980', '981', '982', '983', '984', '985', '988', '989', '990', '992', '996', '999', '1000']",False,1000,True,100,cf404a0d99,0.0,1.0,0.0
./expes/v4_2021-03-18_issda_1000-prng-1-w1-p100-ukn95_99,30_issda-1000,997,first-1000,350,35,rng,num-start-400,400,25726,ukn-95-99,41.77493953704834,False,,False,0.3319688298890167,0.16345998494564018,0.9451178700051548,100,"['2', '3', '6', '9', '10', '13', '15', '18', '19', '22', '23', '25', '27', '29', '30', '31', '32', '34', '36', '37', '39', '45', '49', '58', '61', '65', '72', '73', '79', '86', '89', '94', '97', '99', '102', '103', '105', '107', '111', '112', '113', '117', '121', '124', '129', '133', '134', '138', '139', '150', '161', '163', '164', '165', '168', '172', '173', '175', '176', '178', '182', '186', '190', '191', '193', '195', '199', '205', '206', '211', '215', '218', '219', '222', '223', '225', '226', '228', '229', '231', '233', '235', '236', '237', '238', '239', '249', '256', '259', '260', '262', '265', '273', '276', '280', '288', '289', '291', '297', '298', '302', '304', '306', '311', '314', '316', '318', '320', '326', '329', '330', '334', '336', '340', '341', '348', '352', '353', '354', '355', '356', '362', '366', '374', '376', '380', '384', '388', '389', '391', '393', '396', '400', '403', '404', '405', '407', '412', '414', '415', '424', '425', '427', '432', '433', '437', '440', '443', '444', '449', '450', '457', '461', '462', '464', '466', '470', '471', '472', '481', '484', '486', '492', '493', '497', '500', '502', '505', '508', '509', '512', '513', '515', '517', '518', '519', '520', '521', '522', '523', '525', '527', '529', '532', '534', '537', '541', '552', '553', '554', '555', '558', '562', '564', '565', '567', '568', '570', '575', '577', '579', '583', '584', '588', '590', '592', '593', '599', '602', '604', '605', '606', '608', '615', '621', '623', '624', '627', '628', '630', '638', '639', '640', '645', '646', '647', '651', '658', '663', '664', '665', '666', '668', '673', '676', '680', '681', '682', '687', '690', '691', '692', '694', '695', '703', '712', '713', '720', '721', '722', '729', '737', '739', '742', '744', '747', '748', '751', '756', '759', '761', '762', '773', '774', '780', '781', '783', '786', '790', '795', '797', '798', '799', '802', '803', '806', '808', '816', '817', '818', '822', '823', '824', '829', '831', '833', '837', '840', '841', '848', '850', '853', '856', '858', '861', '862', '867', '868', '869', '871', '872', '874', '878', '879', '880', '881', '882', '889', '891', '893', '897', '900', '903', '904', '908', '915', '918', '919', '922', '923', '924', '932', '933', '939', '940', '943', '945', '949', '954', '959', '961', '962', '964', '967', '968', '973', '975', '976', '978', '981', '983', '986', '989', '991', '992', '993', '997', '998', '999', '1000']",False,1000,True,100,605456112b,0.0,1.0,0.0
./expes/v4_2021-03-18_issda_1000-prng-1-w1-p100-ukn95_99,30_issda-1000,997,first-1000,350,35,rng,num-start-600,600,25726,ukn-95-99,61.81231498718262,False,,False,0.33972525333953996,0.16345998494564018,0.9451178700051548,100,"['4', '5', '7', '13', '14', '18', '21', '23', '24', '27', '32', '34', '35', '39', '45', '47', '51', '53', '60', '63', '65', '66', '71', '72', '74', '82', '83', '84', '86', '87', '88', '89', '92', '93', '96', '98', '100', '109', '110', '111', '112', '115', '117', '120', '124', '125', '130', '139', '141', '143', '144', '146', '152', '153', '154', '158', '159', '163', '165', '168', '171', '175', '177', '180', '183', '195', '197', '198', '199', '201', '203', '206', '207', '211', '213', '215', '216', '217', '226', '230', '231', '233', '235', '238', '240', '241', '250', '251', '252', '254', '256', '261', '265', '274', '276', '278', '281', '284', '292', '293', '296', '297', '298', '299', '303', '304', '306', '307', '308', '310', '317', '320', '322', '329', '332', '334', '346', '347', '349', '351', '352', '353', '360', '365', '366', '369', '370', '371', '373', '375', '377', '379', '380', '385', '386', '387', '388', '389', '390', '391', '393', '394', '396', '398', '400', '404', '406', '407', '411', '413', '417', '418', '420', '422', '427', '428', '430', '434', '437', '438', '442', '443', '447', '451', '453', '456', '457', '464', '465', '467', '468', '469', '471', '483', '485', '486', '497', '500', '501', '502', '507', '509', '510', '511', '514', '515', '516', '517', '518', '519', '520', '523', '527', '529', '530', '533', '534', '537', '538', '539', '540', '541', '542', '545', '553', '559', '561', '571', '578', '581', '583', '587', '588', '593', '594', '595', '596', '599', '600', '603', '611', '615', '616', '619', '620', '622', '625', '627', '628', '633', '636', '639', '640', '641', '648', '658', '660', '662', '663', '664', '666', '668', '671', '673', '674', '675', '677', '679', '680', '690', '693', '701', '707', '708', '718', '719', '722', '723', '726', '733', '735', '737', '739', '743', '744', '746', '747', '751', '759', '762', '763', '766', '767', '774', '778', '783', '785', '799', '800', '803', '806', '810', '813', '816', '824', '827', '828', '831', '833', '834', '837', '839', '841', '843', '845', '846', '850', '851', '852', '855', '856', '857', '859', '863', '864', '867', '868', '871', '873', '876', '878', '881', '888', '890', '897', '900', '903', '905', '910', '913', '917', '919', '924', '925', '926', '927', '929', '930', '931', '932', '934', '935', '941', '942', '943', '950', '951', '955', '959', '965', '969', '973', '981', '982', '986', '989', '992', '994', '997', '999']",False,1000,True,100,e015337928,0.0,1.0,0.0
./expes/v4_2021-03-18_issda_1000-prng-1-w1-p100-ukn95_99,30_issda-1000,995,first-1000,500,50,rng,num-start-400,400,25726,ukn-95-99,41.446163177490234,False,,False,0.29855034154308036,-0.0005028916586418131,0.9160818641703311,100,"['2', '4', '5', '6', '9', '12', '17', '18', '19', '20', '21', '22', '25', '26', '29', '31', '32', '33', '35', '37', '38', '39', '42', '45', '47', '51', '53', '55', '58', '59', '61', '62', '68', '69', '70', '73', '75', '76', '78', '79', '82', '83', '84', '85', '87', '89', '90', '94', '96', '97', '99', '103', '104', '105', '108', '109', '114', '115', '116', '118', '119', '122', '125', '126', '131', '132', '135', '139', '140', '142', '144', '145', '148', '149', '151', '155', '156', '158', '160', '161', '162', '163', '165', '166', '169', '171', '174', '175', '177', '178', '181', '182', '185', '186', '187', '189', '193', '196', '197', '204', '205', '210', '213', '214', '216', '218', '221', '222', '223', '225', '228', '231', '233', '234', '237', '238', '239', '241', '242', '247', '251', '253', '254', '255', '256', '257', '258', '260', '261', '262', '263', '264', '266', '269', '271', '273', '274', '275', '276', '280', '281', '286', '292', '293', '294', '297', '298', '304', '311', '314', '316', '317', '318', '320', '321', '324', '327', '333', '336', '337', '338', '339', '343', '346', '350', '353', '354', '356', '359', '360', '363', '365', '367', '368', '369', '370', '371', '372', '373', '375', '376', '381', '382', '383', '384', '390', '392', '393', '394', '395', '396', '400', '401', '402', '403', '405', '410', '412', '413', '414', '415', '417', '419', '421', '423', '425', '427', '429', '430', '434', '436', '438', '442', '445', '450', '452', '456', '457', '459', '460', '463', '465', '466', '468', '469', '471', '472', '473', '475', '476', '477', '478', '479', '482', '484', '485', '490', '492', '494', '495', '496', '497', '498', '499', '501', '502', '503', '504', '510', '511', '513', '515', '517', '520', '521', '522', '523', '524', '525', '526', '527', '528', '529', '531', '532', '534', '535', '536', '537', '538', '539', '544', '546', '549', '554', '558', '559', '561', '562', '565', '571', '572', '574', '576', '580', '582', '583', '586', '588', '589', '590', '595', '596', '599', '600', '601', '603', '604', '606', '608', '610', '611', '620', '621', '622', '626', '627', '628', '629', '631', '632', '634', '637', '639', '640', '641', '643', '651', '653', '654', '657', '658', '664', '666', '668', '669', '671', '675', '677', '678', '680', '683', '686', '687', '689', '691', '692', '695', '696', '697', '698', '699', '701', '702', '704', '707', '709', '710', '713', '716', '717', '721', '723', '724', '726', '727', '728', '729', '730', '731', '732', '733', '734', '735', '737', '741', '742', '744', '746', '747', '749', '753', '754', '755', '757', '758', '761', '763', '764', '766', '769', '772', '773', '774', '778', '779', '780', '782', '783', '785', '786', '792', '794', '796', '800', '802', '804', '807', '808', '809', '811', '814', '816', '818', '819', '820', '821', '822', '823', '824', '826', '829', '830', '832', '833', '835', '836', '838', '840', '841', '845', '846', '852', '854', '856', '857', '858', '859', '861', '870', '871', '873', '875', '880', '881', '884', '885', '887', '892', '896', '897', '898', '899', '902', '903', '904', '905', '906', '907', '909', '911', '914', '916', '917', '920', '922', '923', '924', '925', '928', '929', '930', '931', '934', '937', '938', '939', '941', '943', '944', '945', '948', '952', '955', '957', '958', '959', '960', '961', '962', '964', '966', '967', '971', '973', '978', '979', '981', '982', '983', '984', '985', '986', '987', '990', '993', '994', '995', '996', '998']",False,1000,True,100,d52bf41f64,0.0,1.0,0.0
./expes/v4_2021-03-18_issda_1000-prng-1-w1-p100-ukn95_99,30_issda-1000,996,first-1000,450,45,rng,num-start-800,800,25726,ukn-95-99,83.32419776916504,False,,False,0.31974136095069094,0.3068896119302126,0.9365957375051759,100,"['1', '2', '3', '4', '9', '10', '13', '14', '15', '16', '17', '20', '23', '24', '28', '33', '34', '37', '38', '39', '40', '41', '42', '43', '44', '47', '48', '50', '52', '60', '63', '64', '65', '66', '68', '71', '72', '73', '74', '76', '81', '83', '84', '85', '86', '87', '90', '92', '94', '96', '98', '101', '102', '103', '104', '112', '118', '119', '120', '121', '122', '123', '127', '128', '133', '134', '136', '137', '139', '142', '143', '144', '146', '150', '151', '154', '155', '158', '159', '160', '162', '163', '164', '166', '168', '170', '171', '174', '175', '180', '183', '184', '185', '187', '189', '190', '192', '193', '194', '195', '196', '197', '200', '203', '204', '205', '209', '210', '211', '213', '216', '219', '221', '224', '225', '226', '227', '228', '229', '242', '245', '246', '248', '249', '250', '257', '263', '266', '267', '277', '278', '282', '283', '286', '287', '288', '289', '295', '297', '298', '299', '301', '307', '309', '310', '311', '316', '318', '319', '320', '323', '324', '325', '328', '333', '334', '337', '339', '341', '342', '343', '344', '346', '347', '351', '352', '356', '359', '361', '363', '366', '367', '368', '370', '376', '377', '380', '381', '382', '385', '388', '395', '398', '401', '404', '405', '407', '409', '412', '413', '415', '420', '425', '426', '428', '429', '430', '431', '436', '437', '445', '446', '447', '453', '454', '456', '457', '458', '459', '460', '462', '464', '469', '470', '479', '482', '483', '484', '486', '488', '489', '490', '491', '493', '494', '498', '499', '502', '505', '506', '507', '510', '516', '517', '521', '524', '532', '534', '535', '536', '538', '541', '542', '543', '546', '548', '551', '554', '557', '558', '561', '562', '565', '566', '570', '572', '574', '575', '579', '582', '583', '584', '588', '590', '594', '598', '602', '604', '605', '609', '611', '612', '617', '618', '619', '621', '623', '625', '626', '627', '628', '634', '636', '641', '642', '643', '646', '649', '650', '651', '653', '655', '656', '657', '660', '661', '663', '665', '667', '670', '672', '673', '674', '677', '679', '682', '685', '689', '690', '692', '693', '695', '696', '697', '698', '700', '701', '704', '706', '708', '715', '716', '717', '718', '719', '721', '723', '724', '727', '728', '730', '733', '735', '736', '737', '743', '745', '747', '748', '749', '750', '753', '757', '760', '767', '768', '773', '774', '776', '777', '781', '786', '791', '799', '802', '803', '804', '808', '809', '812', '813', '814', '818', '819', '820', '823', '825', '826', '828', '829', '830', '832', '835', '836', '837', '842', '843', '845', '846', '848', '849', '850', '851', '854', '856', '858', '859', '861', '862', '863', '865', '866', '867', '870', '871', '872', '875', '876', '878', '883', '887', '889', '892', '893', '895', '896', '897', '898', '906', '907', '912', '914', '916', '917', '920', '921', '922', '924', '925', '927', '930', '931', '932', '935', '936', '938', '939', '940', '941', '942', '944', '945', '946', '956', '957', '959', '960', '961', '970', '973', '977', '985', '987', '989', '990', '991', '992', '994', '998', '1000']",False,1000,True,100,f17fec20b8,0.0,1.0,0.0
