expe,clients,clients_size,clients_subset,agg_size,agg_size_pc,method,days,days_size,days_total,noise_method,time,valid,valid_sum,success,score_avg,score_min,score_max,nsols,oracle,wall_hit,wall_time,pooled,pool_size,uuid,infeasible,optimal,valid_sums
./expes/v4_2021-03-18_issda_1000-prng-1-w1-p100-ukn95_99,30_issda-1000,997,first-1000,350,35,rng,num-start-700,700,25726,ukn-95-99,78.47949624061584,False,,False,0.33810968024269383,0.32262614357693,0.9451178700051548,100,"['1', '7', '13', '16', '18', '19', '21', '23', '30', '31', '32', '33', '34', '35', '38', '39', '47', '54', '56', '59', '64', '66', '71', '76', '77', '78', '79', '80', '83', '86', '88', '91', '92', '96', '97', '99', '100', '103', '108', '115', '117', '120', '123', '127', '130', '131', '132', '139', '141', '142', '146', '148', '149', '150', '154', '155', '159', '162', '165', '167', '174', '177', '178', '187', '189', '190', '191', '193', '194', '197', '198', '199', '201', '202', '203', '204', '206', '215', '229', '238', '245', '250', '251', '252', '256', '257', '258', '261', '263', '268', '272', '273', '275', '276', '280', '281', '283', '284', '287', '289', '293', '297', '298', '299', '311', '312', '314', '320', '326', '328', '332', '338', '341', '344', '345', '352', '359', '366', '369', '370', '371', '373', '376', '380', '381', '383', '384', '386', '387', '389', '390', '399', '408', '410', '419', '420', '421', '424', '432', '433', '434', '435', '437', '441', '442', '444', '451', '452', '455', '456', '457', '458', '461', '463', '474', '476', '479', '481', '482', '483', '485', '487', '489', '490', '491', '496', '497', '498', '499', '500', '501', '504', '507', '509', '510', '512', '513', '515', '516', '520', '528', '530', '533', '535', '538', '539', '541', '549', '551', '552', '553', '561', '565', '567', '572', '574', '577', '583', '584', '588', '590', '594', '601', '603', '604', '609', '612', '617', '618', '620', '622', '623', '625', '627', '629', '632', '633', '634', '635', '636', '639', '641', '644', '645', '647', '649', '650', '651', '653', '654', '655', '661', '662', '664', '670', '672', '673', '676', '679', '685', '687', '688', '693', '695', '696', '697', '698', '699', '703', '711', '712', '715', '717', '718', '719', '723', '726', '730', '731', '732', '736', '737', '739', '740', '742', '747', '748', '750', '753', '757', '758', '761', '764', '765', '770', '774', '778', '781', '784', '789', '793', '797', '798', '802', '803', '811', '813', '816', '820', '822', '823', '825', '826', '834', '836', '837', '838', '842', '848', '852', '853', '855', '859', '865', '874', '879', '887', '892', '894', '898', '901', '902', '907', '911', '914', '915', '922', '925', '927', '930', '931', '932', '933', '934', '935', '936', '939', '942', '945', '946', '947', '950', '956', '957', '960', '961', '963', '964', '967', '971', '973', '975', '986', '988', '989', '990', '994', '995', '999', '1000']",False,1000,True,100,80d3cc7caa,0.0,1.0,0.0
./expes/v4_2021-03-18_issda_1000-prng-1-w1-p100-ukn95_99,30_issda-1000,999,first-1000,150,15,rng,num-start-100,100,25726,ukn-95-99,13.841396570205688,False,,False,0.49959279670073725,0.48470293798213004,0.9683455531083541,100,"['13', '14', '21', '27', '32', '35', '39', '45', '60', '65', '66', '74', '88', '89', '92', '100', '111', '117', '120', '130', '139', '141', '146', '152', '154', '163', '165', '171', '180', '197', '198', '199', '203', '207', '213', '215', '226', '233', '240', '241', '250', '254', '261', '265', '274', '292', '293', '303', '306', '308', '317', '322', '347', '351', '352', '353', '365', '366', '380', '385', '386', '387', '389', '390', '396', '400', '406', '411', '413', '418', '427', '434', '437', '456', '465', '468', '471', '486', '497', '500', '501', '507', '510', '516', '519', '520', '523', '530', '533', '542', '545', '553', '559', '571', '587', '593', '596', '599', '616', '622', '636', '639', '658', '660', '666', '673', '674', '677', '679', '680', '707', '708', '718', '719', '722', '723', '744', '747', '778', '783', '785', '816', '828', '831', '834', '850', '851', '855', '857', '864', '873', '876', '878', '881', '900', '903', '913', '919', '924', '925', '926', '930', '934', '935', '955', '969', '973', '986', '997', '999']",False,1000,True,100,948cf0b6e7,0.0,1.0,0.0
./expes/v4_2021-03-18_issda_1000-prng-1-w1-p100-ukn95_99,30_issda-1000,996,first-1000,400,40,rng,num-start-400,400,25726,ukn-95-99,30.244839906692505,False,,False,0.3095814905510936,0.29253797800672443,0.9223459546850981,100,"['1', '4', '6', '7', '8', '9', '13', '14', '16', '18', '19', '23', '25', '27', '30', '31', '35', '36', '37', '40', '42', '43', '45', '49', '50', '52', '53', '54', '55', '56', '57', '60', '61', '62', '63', '65', '66', '67', '68', '69', '71', '77', '78', '83', '84', '85', '86', '87', '89', '90', '91', '96', '97', '99', '102', '103', '105', '106', '107', '109', '112', '113', '114', '115', '121', '123', '124', '125', '132', '133', '136', '137', '141', '142', '143', '145', '146', '149', '152', '153', '161', '166', '167', '169', '173', '174', '176', '177', '178', '181', '186', '191', '192', '194', '197', '203', '204', '205', '206', '208', '210', '214', '215', '216', '219', '226', '227', '228', '230', '237', '242', '243', '244', '249', '250', '254', '255', '258', '260', '263', '266', '269', '270', '274', '275', '277', '281', '282', '284', '285', '288', '292', '298', '299', '302', '304', '308', '310', '315', '317', '323', '326', '330', '333', '337', '339', '342', '343', '347', '350', '355', '356', '358', '362', '364', '375', '379', '381', '382', '383', '388', '389', '391', '393', '396', '398', '399', '407', '408', '411', '412', '413', '417', '420', '422', '427', '428', '431', '432', '433', '435', '436', '439', '444', '447', '450', '455', '460', '462', '463', '465', '468', '470', '475', '479', '482', '486', '487', '490', '493', '494', '502', '504', '507', '508', '509', '510', '513', '515', '518', '519', '523', '530', '531', '532', '535', '537', '540', '542', '549', '551', '553', '556', '558', '559', '561', '562', '568', '569', '570', '573', '574', '576', '577', '579', '580', '587', '588', '589', '590', '593', '594', '595', '599', '600', '603', '605', '606', '608', '612', '618', '619', '620', '621', '622', '623', '624', '626', '627', '628', '632', '638', '640', '642', '645', '650', '653', '655', '658', '659', '661', '664', '667', '680', '684', '688', '691', '693', '695', '696', '698', '700', '705', '710', '713', '717', '718', '721', '723', '726', '727', '733', '737', '738', '743', '744', '745', '746', '748', '754', '755', '756', '759', '764', '765', '766', '771', '779', '782', '783', '784', '791', '792', '793', '794', '795', '797', '799', '800', '802', '803', '806', '809', '813', '814', '816', '818', '819', '820', '823', '827', '829', '830', '835', '841', '843', '853', '858', '864', '866', '867', '872', '873', '880', '881', '885', '888', '889', '890', '893', '896', '897', '898', '899', '900', '901', '902', '903', '908', '909', '911', '914', '915', '917', '918', '920', '921', '924', '928', '929', '932', '934', '940', '942', '943', '944', '946', '947', '954', '959', '961', '963', '964', '967', '969', '970', '974', '975', '977', '979', '982', '984', '985', '986', '988', '990', '991', '992', '999', '1000']",False,1000,True,100,c7c1f6b3a5,0.0,1.0,0.0
./expes/v4_2021-03-18_issda_1000-prng-1-w1-p100-ukn95_99,30_issda-1000,995,first-1000,500,50,rng,num-start-100,100,25726,ukn-95-99,7.55943751335144,False,,False,0.2921473690996448,0.27463323645903137,0.9160818641703311,100,"['2', '4', '5', '6', '8', '12', '14', '16', '19', '21', '22', '23', '25', '27', '28', '29', '30', '32', '33', '34', '35', '36', '37', '38', '44', '45', '46', '47', '48', '51', '52', '53', '55', '57', '62', '63', '65', '66', '68', '69', '70', '71', '74', '79', '80', '82', '86', '88', '89', '91', '95', '99', '100', '102', '103', '105', '106', '107', '108', '110', '111', '112', '117', '118', '122', '123', '124', '125', '126', '127', '128', '129', '130', '131', '132', '133', '134', '135', '137', '138', '140', '142', '147', '153', '155', '156', '160', '161', '164', '165', '167', '168', '174', '176', '182', '183', '184', '185', '188', '190', '191', '192', '196', '197', '203', '204', '205', '217', '223', '224', '227', '228', '230', '231', '233', '238', '240', '241', '242', '244', '245', '246', '248', '251', '255', '256', '258', '259', '265', '266', '269', '270', '271', '272', '274', '276', '277', '278', '281', '286', '287', '292', '294', '296', '298', '299', '301', '306', '307', '308', '309', '311', '312', '318', '321', '322', '323', '324', '327', '328', '330', '331', '333', '334', '335', '336', '337', '339', '341', '342', '345', '348', '349', '350', '353', '354', '355', '359', '360', '361', '362', '369', '370', '373', '375', '377', '379', '382', '383', '384', '385', '386', '387', '390', '396', '397', '399', '400', '404', '405', '407', '410', '411', '418', '420', '421', '423', '424', '426', '427', '429', '430', '431', '432', '434', '436', '437', '438', '439', '441', '442', '445', '446', '447', '448', '449', '454', '456', '462', '466', '468', '472', '476', '478', '481', '482', '485', '486', '488', '489', '493', '494', '495', '496', '500', '502', '507', '509', '510', '513', '515', '516', '518', '520', '523', '524', '525', '528', '530', '531', '532', '533', '534', '536', '538', '540', '542', '543', '545', '547', '548', '549', '550', '554', '555', '557', '558', '562', '563', '564', '565', '567', '568', '569', '570', '573', '578', '581', '582', '583', '585', '586', '588', '589', '591', '593', '594', '595', '599', '600', '601', '602', '603', '604', '605', '606', '607', '610', '614', '615', '616', '619', '620', '621', '624', '626', '627', '630', '631', '633', '635', '636', '638', '641', '642', '643', '644', '648', '649', '650', '651', '652', '655', '658', '659', '660', '662', '663', '666', '670', '672', '676', '679', '684', '688', '689', '690', '691', '692', '693', '695', '696', '698', '699', '701', '703', '707', '708', '711', '712', '713', '714', '715', '716', '717', '720', '724', '730', '731', '732', '733', '734', '735', '736', '737', '738', '741', '746', '750', '752', '753', '756', '760', '764', '766', '767', '771', '772', '775', '777', '779', '780', '786', '788', '791', '793', '794', '796', '798', '799', '802', '806', '807', '808', '810', '811', '812', '813', '815', '818', '820', '821', '823', '824', '826', '827', '830', '831', '832', '833', '837', '840', '844', '848', '852', '853', '854', '857', '858', '859', '862', '864', '865', '871', '873', '875', '876', '877', '878', '879', '882', '883', '884', '885', '887', '888', '889', '891', '892', '894', '900', '901', '902', '903', '905', '907', '908', '909', '911', '912', '919', '920', '922', '926', '927', '931', '935', '938', '939', '940', '943', '944', '945', '947', '949', '950', '952', '957', '959', '962', '964', '966', '972', '973', '974', '976', '978', '981', '982', '984', '987', '988', '989', '990', '991', '993', '995', '996', '997', '999']",False,1000,True,100,664a7754e5,0.0,1.0,0.0
./expes/v4_2021-03-18_issda_1000-prng-1-w1-p100-ukn95_99,30_issda-1000,1000,first-1000,50,5,rng,num-start-200,200,25726,ukn-95-99,1012.7810876369476,False,,False,0.7318753816404003,0.7170157600146607,1.0,27,"['21', '32', '45', '65', '88', '92', '100', '117', '130', '141', '197', '198', '215', '233', '240', '254', '265', '274', '380', '385', '389', '396', '400', '411', '413', '418', '465', '471', '486', '497', '500', '507', '519', '533', '587', '636', '658', '679', '718', '722', '744', '778', '831', '834', '850', '851', '919', '924', '934', '986']",True,1000,True,100,eec8f65841,0.0,0.0,0.0
