expe,clients,clients_size,clients_subset,agg_size,agg_size_pc,method,days,days_size,days_total,noise_method,time,valid,valid_sum,success,score_avg,score_min,score_max,nsols,oracle,wall_hit,wall_time,pooled,pool_size,uuid,infeasible,optimal,valid_sums
./expes/v4_2021-03-18_issda_1000-prng-1-w1-p100-ukn95_99,30_issda-1000,996,first-1000,400,40,rng,num-start-100,100,25726,ukn-95-99,9.314904689788818,False,,False,0.3209475766814158,0.10557280900008414,0.9365957375051759,100,"['4', '5', '7', '13', '14', '18', '21', '23', '24', '27', '32', '34', '35', '38', '39', '40', '45', '47', '51', '53', '59', '60', '63', '65', '66', '67', '68', '71', '72', '74', '77', '82', '83', '84', '85', '86', '87', '88', '89', '90', '92', '93', '95', '96', '98', '100', '103', '109', '110', '111', '112', '115', '117', '120', '124', '125', '130', '139', '141', '143', '144', '146', '152', '153', '154', '158', '159', '161', '163', '164', '165', '168', '171', '175', '177', '180', '181', '183', '195', '196', '197', '198', '199', '201', '203', '204', '206', '207', '211', '213', '215', '216', '217', '226', '228', '230', '231', '233', '235', '237', '238', '240', '241', '250', '251', '252', '254', '256', '261', '262', '265', '271', '274', '276', '278', '281', '284', '290', '292', '293', '296', '297', '298', '299', '301', '303', '304', '306', '307', '308', '310', '317', '320', '322', '327', '328', '329', '332', '334', '335', '346', '347', '349', '351', '352', '353', '357', '360', '365', '366', '367', '369', '370', '371', '373', '375', '376', '377', '379', '380', '385', '386', '387', '388', '389', '390', '391', '393', '394', '396', '398', '399', '400', '404', '406', '407', '411', '413', '417', '418', '420', '422', '427', '428', '430', '434', '437', '438', '442', '443', '445', '447', '451', '453', '456', '457', '464', '465', '467', '468', '469', '471', '474', '483', '485', '486', '497', '500', '501', '502', '507', '509', '510', '511', '514', '515', '516', '517', '518', '519', '520', '523', '527', '529', '530', '533', '534', '537', '538', '539', '540', '541', '542', '545', '548', '553', '559', '561', '570', '571', '578', '580', '581', '583', '587', '588', '593', '594', '595', '596', '599', '600', '603', '611', '615', '616', '619', '620', '622', '625', '627', '628', '633', '636', '639', '640', '641', '648', '658', '660', '662', '663', '664', '666', '668', '669', '670', '671', '673', '674', '675', '677', '679', '680', '686', '690', '693', '701', '702', '707', '708', '718', '719', '722', '723', '726', '733', '735', '737', '739', '743', '744', '746', '747', '751', '754', '759', '762', '763', '766', '767', '768', '774', '778', '783', '785', '799', '800', '801', '803', '806', '810', '813', '816', '824', '827', '828', '831', '833', '834', '835', '837', '839', '841', '843', '845', '846', '849', '850', '851', '852', '855', '856', '857', '859', '863', '864', '867', '868', '871', '873', '876', '878', '880', '881', '886', '888', '890', '897', '900', '903', '905', '910', '913', '915', '917', '919', '922', '924', '925', '926', '927', '928', '929', '930', '931', '932', '934', '935', '939', '941', '942', '943', '948', '950', '951', '955', '959', '965', '969', '973', '981', '982', '986', '989', '991', '992', '994', '997', '999']",False,1000,True,100,19e676c082,0.0,1.0,0.0
./expes/v4_2021-03-18_issda_1000-prng-1-w1-p100-ukn95_99,30_issda-1000,995,first-1000,500,50,rng,num-start-500,500,25726,ukn-95-99,53.052263498306274,False,,False,0.30904375167978115,-0.0005028916586418131,0.9160818641703311,100,"['1', '2', '3', '4', '6', '10', '11', '12', '14', '15', '17', '19', '21', '23', '24', '25', '27', '28', '29', '30', '33', '34', '36', '37', '38', '41', '43', '45', '48', '50', '51', '54', '56', '58', '59', '61', '65', '67', '68', '69', '71', '74', '81', '83', '88', '92', '94', '95', '98', '105', '110', '111', '114', '116', '118', '122', '125', '126', '127', '130', '133', '134', '136', '137', '138', '140', '143', '145', '146', '147', '150', '151', '152', '153', '154', '158', '159', '161', '163', '164', '166', '170', '171', '173', '174', '176', '177', '181', '182', '183', '184', '185', '186', '187', '188', '190', '196', '199', '201', '202', '204', '210', '213', '214', '215', '219', '221', '222', '225', '232', '236', '244', '250', '252', '253', '256', '257', '258', '259', '262', '263', '267', '271', '272', '274', '275', '278', '279', '281', '283', '286', '287', '288', '290', '293', '294', '296', '297', '299', '300', '301', '302', '303', '304', '306', '308', '309', '310', '311', '314', '315', '317', '318', '319', '320', '322', '323', '324', '325', '326', '327', '334', '339', '340', '342', '343', '345', '347', '348', '349', '353', '354', '357', '359', '360', '361', '364', '365', '366', '367', '368', '370', '371', '372', '373', '374', '375', '377', '379', '381', '382', '383', '385', '386', '387', '389', '390', '392', '393', '394', '395', '399', '402', '409', '414', '415', '416', '418', '419', '420', '424', '425', '426', '427', '429', '430', '431', '432', '436', '438', '440', '443', '444', '445', '449', '452', '455', '456', '461', '464', '465', '467', '474', '475', '476', '477', '479', '481', '482', '483', '484', '486', '487', '488', '489', '490', '491', '492', '493', '494', '495', '496', '498', '499', '500', '502', '504', '505', '506', '509', '510', '512', '513', '515', '525', '526', '528', '529', '531', '535', '538', '543', '545', '546', '547', '551', '552', '553', '555', '557', '559', '561', '562', '563', '564', '567', '569', '573', '574', '578', '580', '585', '588', '590', '593', '595', '597', '600', '601', '602', '604', '605', '609', '610', '611', '616', '618', '619', '623', '624', '626', '627', '629', '630', '632', '633', '636', '637', '638', '639', '640', '641', '642', '643', '645', '646', '647', '648', '653', '654', '658', '660', '661', '662', '663', '664', '665', '666', '667', '668', '676', '677', '678', '679', '680', '682', '685', '687', '688', '690', '695', '699', '702', '703', '704', '705', '706', '708', '709', '712', '714', '719', '720', '722', '723', '725', '726', '730', '734', '736', '737', '738', '739', '740', '748', '749', '750', '751', '756', '758', '759', '760', '761', '762', '763', '764', '767', '768', '774', '777', '778', '779', '781', '785', '789', '793', '794', '795', '798', '800', '801', '805', '807', '811', '815', '817', '818', '821', '822', '827', '832', '833', '837', '838', '839', '840', '841', '842', '845', '847', '849', '850', '852', '856', '857', '859', '861', '862', '863', '864', '865', '866', '873', '875', '876', '877', '880', '881', '885', '888', '889', '890', '891', '893', '894', '898', '900', '902', '910', '911', '913', '914', '915', '916', '917', '919', '921', '923', '924', '925', '933', '934', '936', '939', '941', '945', '946', '947', '952', '958', '959', '960', '961', '962', '964', '965', '966', '968', '969', '973', '974', '975', '976', '977', '978', '979', '980', '981', '982', '983', '984', '985', '988', '989', '990', '992', '996', '997', '999', '1000']",False,1000,True,100,58cfad1dfc,0.0,1.0,0.0
./expes/v4_2021-03-18_issda_1000-prng-1-w1-p100-ukn95_99,30_issda-1000,1000,first-1000,50,5,rng,num-start-1000,1000,25726,ukn-95-99,1063.356957912445,False,,False,0.8313384460660571,0.785416575556158,1.0,50,"['21', '27', '61', '69', '89', '93', '106', '109', '159', '169', '177', '199', '220', '228', '242', '267', '269', '279', '284', '297', '311', '318', '369', '382', '406', '412', '491', '533', '550', '563', '621', '643', '657', '739', '750', '784', '799', '820', '827', '847', '849', '866', '869', '876', '889', '902', '940', '950', '966', '984']",True,1000,True,100,4e1ed40e10,0.0,0.0,0.0
