expe,clients,clients_size,clients_subset,agg_size,method,days,days_size,days_total,time,valid,valid_sum,success,nsols,wall_hit,wall_time,pooled,valid_sums
./expes/v2_2020-12-02_dh_300-prng-1,30_issda_300,300,rng-300,61,rng,num-start-13001,13001,25726,345.13608860969543,True,,True,1,False,1000,True,1.0
./expes/v2_2020-12-02_dh_300-prng-1,30_issda_300,300,rng-300,171,rng,num-start-3001,3001,25726,75.57600808143616,True,,True,1,False,1000,True,1.0
./expes/v2_2020-12-02_dh_300-prng-1,30_issda_300,300,rng-300,51,rng,num-start-5001,5001,25726,124.18217444419861,True,,True,1,False,1000,True,1.0
./expes/v2_2020-12-02_dh_300-prng-1,30_issda_300,300,rng-300,81,rng,num-start-1001,1001,25726,28.961981773376465,True,,True,1,False,1000,True,1.0
./expes/v2_2020-12-02_dh_300-prng-1,30_issda_300,300,rng-300,61,rng,num-start-10001,10001,25726,266.9702124595642,True,,True,1,False,1000,True,1.0
./expes/v2_2020-12-02_dh_300-prng-1,30_issda_300,300,rng-300,221,rng,num-start-11001,11001,25726,298.13912200927734,True,,True,1,False,1000,True,1.0
./expes/v2_2020-12-02_dh_300-prng-1,30_issda_300,300,rng-300,71,rng,num-start-8001,8001,25726,239.16559624671936,True,,True,1,False,1000,True,1.0
./expes/v2_2020-12-02_dh_300-prng-1,30_issda_300,300,rng-300,131,rng,num-start-8001,8001,25726,212.63050413131714,True,,True,1,False,1000,True,1.0
./expes/v2_2020-12-02_dh_300-prng-1,30_issda_300,300,rng-300,1,rng,num-start-14001,14001,25726,224.04911756515503,True,,True,1,False,1000,True,1.0
./expes/v2_2020-12-02_dh_300-prng-1,30_issda_300,300,rng-300,261,rng,num-start-6001,6001,25726,92.86471772193909,True,,True,1,False,1000,True,1.0
./expes/v2_2020-12-02_dh_300-prng-1,30_issda_300,300,rng-300,211,rng,num-start-10001,10001,25726,241.334219455719,True,,True,1,False,1000,True,1.0
./expes/v2_2020-12-02_dh_300-prng-1,30_issda_300,300,rng-300,101,rng,num-start-10001,10001,25726,255.20400834083557,True,,True,1,False,1000,True,1.0
./expes/v2_2020-12-02_dh_300-prng-1,30_issda_300,300,rng-300,41,rng,num-start-3001,3001,25726,59.914509534835815,True,,True,1,False,1000,True,1.0
./expes/v2_2020-12-02_dh_300-prng-1,30_issda_300,300,rng-300,11,rng,num-start-15001,15001,25726,207.3476758003235,True,,True,1,False,1000,True,1.0
./expes/v2_2020-12-02_dh_300-prng-1,30_issda_300,300,rng-300,131,rng,num-start-14001,14001,25726,370.7079803943634,True,,True,1,False,1000,True,1.0
./expes/v2_2020-12-02_dh_300-prng-1,30_issda_300,300,rng-300,221,rng,num-start-1001,1001,25726,19.012615203857422,True,,True,1,False,1000,True,1.0
./expes/v2_2020-12-02_dh_300-prng-1,30_issda_300,300,rng-300,171,rng,num-start-6001,6001,25726,119.42042756080627,True,,True,1,False,1000,True,1.0
./expes/v2_2020-12-02_dh_300-prng-1,30_issda_300,300,rng-300,1,rng,num-start-7001,7001,25726,94.52071762084961,True,,True,1,False,1000,True,1.0
./expes/v2_2020-12-02_dh_300-prng-1,30_issda_300,300,rng-300,171,rng,num-start-14001,14001,25726,343.77587151527405,True,,True,1,False,1000,True,1.0
./expes/v2_2020-12-02_dh_300-prng-1,30_issda_300,300,rng-300,51,rng,num-start-15001,15001,25726,373.12859535217285,True,,True,1,False,1000,True,1.0
./expes/v2_2020-12-02_dh_300-prng-1,30_issda_300,300,rng-300,261,rng,num-start-9001,9001,25726,291.6050546169281,True,,True,1,False,1000,True,1.0
./expes/v2_2020-12-02_dh_300-prng-1,30_issda_300,300,rng-300,71,rng,num-start-14001,14001,25726,365.22515630722046,True,,True,1,False,1000,True,1.0
./expes/v2_2020-12-02_dh_300-prng-1,30_issda_300,300,rng-300,141,rng,num-start-10001,10001,25726,247.01532459259033,True,,True,1,False,1000,True,1.0
./expes/v2_2020-12-02_dh_300-prng-1,30_issda_300,300,rng-300,211,rng,num-start-5001,5001,25726,117.08716154098511,True,,True,1,False,1000,True,1.0
./expes/v2_2020-12-02_dh_300-prng-1,30_issda_300,300,rng-300,291,rng,num-start-8001,8001,25726,132.11087107658386,True,,True,1,False,1000,True,1.0
./expes/v2_2020-12-02_dh_300-prng-1,30_issda_300,300,rng-300,41,rng,num-start-13001,13001,25726,295.3696024417877,True,,True,1,False,1000,True,1.0
./expes/v2_2020-12-02_dh_300-prng-1,30_issda_300,300,rng-300,31,rng,num-start-5001,5001,25726,174.4391417503357,True,,True,1,False,1000,True,1.0
./expes/v2_2020-12-02_dh_300-prng-1,30_issda_300,300,rng-300,21,rng,num-start-1001,1001,25726,17.966185331344604,True,,True,1,False,1000,True,1.0
./expes/v2_2020-12-02_dh_300-prng-1,30_issda_300,300,rng-300,81,rng,num-start-1,1,25726,0.06226778030395508,False,,False,2,False,1000,True,1.0
./expes/v2_2020-12-02_dh_300-prng-1,30_issda_300,300,rng-300,221,rng,num-start-3001,3001,25726,63.52243185043335,True,,True,1,False,1000,True,1.0
./expes/v2_2020-12-02_dh_300-prng-1,30_issda_300,300,rng-300,141,rng,num-start-4001,4001,25726,68.56238222122192,True,,True,1,False,1000,True,1.0
./expes/v2_2020-12-02_dh_300-prng-1,30_issda_300,300,rng-300,71,rng,num-start-4001,4001,25726,92.12470626831055,True,,True,1,False,1000,True,1.0
./expes/v2_2020-12-02_dh_300-prng-1,30_issda_300,300,rng-300,51,rng,num-start-10001,10001,25726,211.39484190940857,True,,True,1,False,1000,True,1.0
./expes/v2_2020-12-02_dh_300-prng-1,30_issda_300,300,rng-300,251,rng,num-start-2001,2001,25726,51.30010509490967,True,,True,1,False,1000,True,1.0
./expes/v2_2020-12-02_dh_300-prng-1,30_issda_300,300,rng-300,71,rng,num-start-1,1,25726,0.14633798599243164,False,,False,2,False,1000,True,1.0
./expes/v2_2020-12-02_dh_300-prng-1,30_issda_300,300,rng-300,51,rng,num-start-15001,15001,25726,268.8379213809967,True,,True,1,False,1000,True,1.0
./expes/v2_2020-12-02_dh_300-prng-1,30_issda_300,300,rng-300,231,rng,num-start-13001,13001,25726,407.2508051395416,True,,True,1,False,1000,True,1.0
./expes/v2_2020-12-02_dh_300-prng-1,30_issda_300,300,rng-300,141,rng,num-start-2001,2001,25726,35.96553707122803,True,,True,1,False,1000,True,1.0
./expes/v2_2020-12-02_dh_300-prng-1,30_issda_300,300,rng-300,161,rng,num-start-7001,7001,25726,168.36233806610107,True,,True,1,False,1000,True,1.0
./expes/v2_2020-12-02_dh_300-prng-1,30_issda_300,300,rng-300,41,rng,num-start-5001,5001,25726,86.50950527191162,True,,True,1,False,1000,True,1.0
./expes/v2_2020-12-02_dh_300-prng-1,30_issda_300,300,rng-300,211,rng,num-start-2001,2001,25726,41.00866985321045,True,,True,1,False,1000,True,1.0
./expes/v2_2020-12-02_dh_300-prng-1,30_issda_300,300,rng-300,81,rng,num-start-1,1,25726,0.05536842346191406,False,,False,2,False,1000,True,1.0
./expes/v2_2020-12-02_dh_300-prng-1,30_issda_300,300,rng-300,11,rng,num-start-13001,13001,25726,190.5875883102417,True,,True,1,False,1000,True,1.0
./expes/v2_2020-12-02_dh_300-prng-1,30_issda_300,300,rng-300,151,rng,num-start-1,1,25726,0.06754660606384277,False,,False,2,False,1000,True,1.0
./expes/v2_2020-12-02_dh_300-prng-1,30_issda_300,300,rng-300,151,rng,num-start-9001,9001,25726,231.44730615615845,True,,True,1,False,1000,True,1.0
./expes/v2_2020-12-02_dh_300-prng-1,30_issda_300,300,rng-300,21,rng,num-start-16001,16001,25726,296.3586730957031,True,,True,1,False,1000,True,1.0
./expes/v2_2020-12-02_dh_300-prng-1,30_issda_300,300,rng-300,121,rng,num-start-3001,3001,25726,59.72449731826782,True,,True,1,False,1000,True,1.0
./expes/v2_2020-12-02_dh_300-prng-1,30_issda_300,300,rng-300,151,rng,num-start-7001,7001,25726,164.66717767715454,True,,True,1,False,1000,True,1.0
./expes/v2_2020-12-02_dh_300-prng-1,30_issda_300,300,rng-300,271,rng,num-start-12001,12001,25726,269.98431277275085,True,,True,1,False,1000,True,1.0
./expes/v2_2020-12-02_dh_300-prng-1,30_issda_300,300,rng-300,161,rng,num-start-10001,10001,25726,218.23261666297913,True,,True,1,False,1000,True,1.0
./expes/v2_2020-12-02_dh_300-prng-1,30_issda_300,300,rng-300,221,rng,num-start-8001,8001,25726,186.5600061416626,True,,True,1,False,1000,True,1.0
./expes/v2_2020-12-02_dh_300-prng-1,30_issda_300,300,rng-300,271,rng,num-start-10001,10001,25726,161.23746275901794,True,,True,1,False,1000,True,1.0
./expes/v2_2020-12-02_dh_300-prng-1,30_issda_300,300,rng-300,51,rng,num-start-10001,10001,25726,239.8478901386261,True,,True,1,False,1000,True,1.0
./expes/v2_2020-12-02_dh_300-prng-1,30_issda_300,300,rng-300,21,rng,num-start-5001,5001,25726,93.0108335018158,True,,True,1,False,1000,True,1.0
./expes/v2_2020-12-02_dh_300-prng-1,30_issda_300,300,rng-300,281,rng,num-start-9001,9001,25726,194.54097747802734,True,,True,1,False,1000,True,1.0
./expes/v2_2020-12-02_dh_300-prng-1,30_issda_300,300,rng-300,81,rng,num-start-5001,5001,25726,144.16511702537537,True,,True,1,False,1000,True,1.0
./expes/v2_2020-12-02_dh_300-prng-1,30_issda_300,300,rng-300,171,rng,num-start-14001,14001,25726,351.87421917915344,True,,True,1,False,1000,True,1.0
./expes/v2_2020-12-02_dh_300-prng-1,30_issda_300,300,rng-300,291,rng,num-start-1001,1001,25726,18.002524614334106,True,,True,1,False,1000,True,1.0
./expes/v2_2020-12-02_dh_300-prng-1,30_issda_300,300,rng-300,31,rng,num-start-16001,16001,25726,371.184180021286,True,,True,1,False,1000,True,1.0
./expes/v2_2020-12-02_dh_300-prng-1,30_issda_300,300,rng-300,271,rng,num-start-4001,4001,25726,105.37267470359802,True,,True,1,False,1000,True,1.0
./expes/v2_2020-12-02_dh_300-prng-1,30_issda_300,300,rng-300,291,rng,num-start-2001,2001,25726,37.6423065662384,True,,True,1,False,1000,True,1.0
./expes/v2_2020-12-02_dh_300-prng-1,30_issda_300,300,rng-300,211,rng,num-start-10001,10001,25726,287.9026074409485,True,,True,1,False,1000,True,1.0
./expes/v2_2020-12-02_dh_300-prng-1,30_issda_300,300,rng-300,271,rng,num-start-13001,13001,25726,216.85640788078308,True,,True,1,False,1000,True,1.0
./expes/v2_2020-12-02_dh_300-prng-1,30_issda_300,300,rng-300,41,rng,num-start-5001,5001,25726,89.67385411262512,True,,True,1,False,1000,True,1.0
./expes/v2_2020-12-02_dh_300-prng-1,30_issda_300,300,rng-300,51,rng,num-start-14001,14001,25726,286.5326600074768,True,,True,1,False,1000,True,1.0
./expes/v2_2020-12-02_dh_300-prng-1,30_issda_300,300,rng-300,211,rng,num-start-1,1,25726,0.04318857192993164,False,,False,2,False,1000,True,1.0
./expes/v2_2020-12-02_dh_300-prng-1,30_issda_300,300,rng-300,261,rng,num-start-13001,13001,25726,288.0275182723999,True,,True,1,False,1000,True,1.0
./expes/v2_2020-12-02_dh_300-prng-1,30_issda_300,300,rng-300,71,rng,num-start-15001,15001,25726,419.5952875614166,True,,True,1,False,1000,True,1.0
./expes/v2_2020-12-02_dh_300-prng-1,30_issda_300,300,rng-300,101,rng,num-start-11001,11001,25726,253.3244755268097,True,,True,1,False,1000,True,1.0
./expes/v2_2020-12-02_dh_300-prng-1,30_issda_300,300,rng-300,291,rng,num-start-15001,15001,25726,210.36157751083374,True,,True,1,False,1000,True,1.0
./expes/v2_2020-12-02_dh_300-prng-1,30_issda_300,300,rng-300,21,rng,num-start-1,1,25726,0.054303646087646484,False,,False,2,False,1000,True,1.0
./expes/v2_2020-12-02_dh_300-prng-1,30_issda_300,300,rng-300,21,rng,num-start-10001,10001,25726,163.63627076148987,True,,True,1,False,1000,True,1.0
./expes/v2_2020-12-02_dh_300-prng-1,30_issda_300,300,rng-300,61,rng,num-start-7001,7001,25726,129.99031376838684,True,,True,1,False,1000,True,1.0
./expes/v2_2020-12-02_dh_300-prng-1,30_issda_300,300,rng-300,51,rng,num-start-3001,3001,25726,55.866586208343506,True,,True,1,False,1000,True,1.0
./expes/v2_2020-12-02_dh_300-prng-1,30_issda_300,300,rng-300,81,rng,num-start-14001,14001,25726,349.726665019989,True,,True,1,False,1000,True,1.0
./expes/v2_2020-12-02_dh_300-prng-1,30_issda_300,300,rng-300,241,rng,num-start-1,1,25726,0.06955862045288086,False,,False,2,False,1000,True,1.0
./expes/v2_2020-12-02_dh_300-prng-1,30_issda_300,300,rng-300,81,rng,num-start-3001,3001,25726,70.00864672660828,True,,True,1,False,1000,True,1.0
./expes/v2_2020-12-02_dh_300-prng-1,30_issda_300,300,rng-300,181,rng,num-start-4001,4001,25726,75.9746527671814,True,,True,1,False,1000,True,1.0
./expes/v2_2020-12-02_dh_300-prng-1,30_issda_300,300,rng-300,151,rng,num-start-6001,6001,25726,127.60156846046448,True,,True,1,False,1000,True,1.0
./expes/v2_2020-12-02_dh_300-prng-1,30_issda_300,300,rng-300,1,rng,num-start-3001,3001,25726,40.65283250808716,True,,True,1,False,1000,True,1.0
./expes/v2_2020-12-02_dh_300-prng-1,30_issda_300,300,rng-300,11,rng,num-start-2001,2001,25726,27.705915451049805,True,,True,1,False,1000,True,1.0
./expes/v2_2020-12-02_dh_300-prng-1,30_issda_300,300,rng-300,121,rng,num-start-12001,12001,25726,320.1551203727722,True,,True,1,False,1000,True,1.0
./expes/v2_2020-12-02_dh_300-prng-1,30_issda_300,300,rng-300,121,rng,num-start-1001,1001,25726,30.07690930366516,True,,True,1,False,1000,True,1.0
./expes/v2_2020-12-02_dh_300-prng-1,30_issda_300,300,rng-300,191,rng,num-start-16001,16001,25726,373.71395325660706,True,,True,1,False,1000,True,1.0
./expes/v2_2020-12-02_dh_300-prng-1,30_issda_300,300,rng-300,161,rng,num-start-1,1,25726,0.04647636413574219,False,,False,2,False,1000,True,1.0
./expes/v2_2020-12-02_dh_300-prng-1,30_issda_300,300,rng-300,61,rng,num-start-1001,1001,25726,21.498234272003174,True,,True,1,False,1000,True,1.0
./expes/v2_2020-12-02_dh_300-prng-1,30_issda_300,300,rng-300,41,rng,num-start-16001,16001,25726,298.145370721817,True,,True,1,False,1000,True,1.0
./expes/v2_2020-12-02_dh_300-prng-1,30_issda_300,300,rng-300,201,rng,num-start-1001,1001,25726,20.569941997528076,True,,True,1,False,1000,True,1.0
./expes/v2_2020-12-02_dh_300-prng-1,30_issda_300,300,rng-300,121,rng,num-start-13001,13001,25726,345.299875497818,True,,True,1,False,1000,True,1.0
./expes/v2_2020-12-02_dh_300-prng-1,30_issda_300,300,rng-300,141,rng,num-start-7001,7001,25726,157.41629934310913,True,,True,1,False,1000,True,1.0
./expes/v2_2020-12-02_dh_300-prng-1,30_issda_300,300,rng-300,71,rng,num-start-1001,1001,25726,23.234123706817627,True,,True,1,False,1000,True,1.0
./expes/v2_2020-12-02_dh_300-prng-1,30_issda_300,300,rng-300,61,rng,num-start-11001,11001,25726,238.17974710464478,True,,True,1,False,1000,True,1.0
./expes/v2_2020-12-02_dh_300-prng-1,30_issda_300,300,rng-300,61,rng,num-start-5001,5001,25726,127.07563853263855,True,,True,1,False,1000,True,1.0
./expes/v2_2020-12-02_dh_300-prng-1,30_issda_300,300,rng-300,11,rng,num-start-7001,7001,25726,112.5693244934082,True,,True,1,False,1000,True,1.0
./expes/v2_2020-12-02_dh_300-prng-1,30_issda_300,300,rng-300,11,rng,num-start-8001,8001,25726,115.18682360649109,True,,True,1,False,1000,True,1.0
./expes/v2_2020-12-02_dh_300-prng-1,30_issda_300,300,rng-300,231,rng,num-start-3001,3001,25726,63.72205376625061,True,,True,1,False,1000,True,1.0
./expes/v2_2020-12-02_dh_300-prng-1,30_issda_300,300,rng-300,141,rng,num-start-13001,13001,25726,313.3890428543091,True,,True,1,False,1000,True,1.0
./expes/v2_2020-12-02_dh_300-prng-1,30_issda_300,300,rng-300,31,rng,num-start-11001,11001,25726,203.61407232284546,True,,True,1,False,1000,True,1.0
./expes/v2_2020-12-02_dh_300-prng-1,30_issda_300,300,rng-300,21,rng,num-start-7001,7001,25726,120.75041246414185,True,,True,1,False,1000,True,1.0
./expes/v2_2020-12-02_dh_300-prng-1,30_issda_300,300,rng-300,61,rng,num-start-6001,6001,25726,148.61677765846252,True,,True,1,False,1000,True,1.0
./expes/v2_2020-12-02_dh_300-prng-1,30_issda_300,300,rng-300,81,rng,num-start-13001,13001,25726,250.4788146018982,True,,True,1,False,1000,True,1.0
./expes/v2_2020-12-02_dh_300-prng-1,30_issda_300,300,rng-300,141,rng,num-start-6001,6001,25726,155.12324810028076,True,,True,1,False,1000,True,1.0
./expes/v2_2020-12-02_dh_300-prng-1,30_issda_300,300,rng-300,251,rng,num-start-15001,15001,25726,360.70856165885925,True,,True,1,False,1000,True,1.0
./expes/v2_2020-12-02_dh_300-prng-1,30_issda_300,300,rng-300,261,rng,num-start-1001,1001,25726,25.45452117919922,True,,True,1,False,1000,True,1.0
./expes/v2_2020-12-02_dh_300-prng-1,30_issda_300,300,rng-300,11,rng,num-start-2001,2001,25726,33.3762149810791,True,,True,1,False,1000,True,1.0
./expes/v2_2020-12-02_dh_300-prng-1,30_issda_300,300,rng-300,211,rng,num-start-15001,15001,25726,423.5768504142761,True,,True,1,False,1000,True,1.0
./expes/v2_2020-12-02_dh_300-prng-1,30_issda_300,300,rng-300,221,rng,num-start-1,1,25726,0.04454827308654785,False,,False,2,False,1000,True,1.0
./expes/v2_2020-12-02_dh_300-prng-1,30_issda_300,300,rng-300,51,rng,num-start-14001,14001,25726,288.6600332260132,True,,True,1,False,1000,True,1.0
./expes/v2_2020-12-02_dh_300-prng-1,30_issda_300,300,rng-300,51,rng,num-start-6001,6001,25726,112.21828436851501,True,,True,1,False,1000,True,1.0
./expes/v2_2020-12-02_dh_300-prng-1,30_issda_300,300,rng-300,111,rng,num-start-14001,14001,25726,312.5020570755005,True,,True,1,False,1000,True,1.0
./expes/v2_2020-12-02_dh_300-prng-1,30_issda_300,300,rng-300,81,rng,num-start-2001,2001,25726,45.007755517959595,True,,True,1,False,1000,True,1.0
./expes/v2_2020-12-02_dh_300-prng-1,30_issda_300,300,rng-300,271,rng,num-start-9001,9001,25726,185.10587739944458,True,,True,1,False,1000,True,1.0
./expes/v2_2020-12-02_dh_300-prng-1,30_issda_300,300,rng-300,291,rng,num-start-15001,15001,25726,205.59752559661865,True,,True,1,False,1000,True,1.0
./expes/v2_2020-12-02_dh_300-prng-1,30_issda_300,300,rng-300,61,rng,num-start-4001,4001,25726,70.01432418823242,True,,True,1,False,1000,True,1.0
./expes/v2_2020-12-02_dh_300-prng-1,30_issda_300,300,rng-300,151,rng,num-start-5001,5001,25726,115.11167550086975,True,,True,1,False,1000,True,1.0
./expes/v2_2020-12-02_dh_300-prng-1,30_issda_300,300,rng-300,11,rng,num-start-9001,9001,25726,114.06290912628174,True,,True,1,False,1000,True,1.0
./expes/v2_2020-12-02_dh_300-prng-1,30_issda_300,300,rng-300,61,rng,num-start-12001,12001,25726,245.72334384918213,True,,True,1,False,1000,True,1.0
./expes/v2_2020-12-02_dh_300-prng-1,30_issda_300,300,rng-300,1,rng,num-start-1,1,25726,0.054463863372802734,False,,False,2,False,1000,True,1.0
./expes/v2_2020-12-02_dh_300-prng-1,30_issda_300,300,rng-300,131,rng,num-start-5001,5001,25726,143.19282031059265,True,,True,1,False,1000,True,1.0
./expes/v2_2020-12-02_dh_300-prng-1,30_issda_300,300,rng-300,251,rng,num-start-9001,9001,25726,200.3265027999878,True,,True,1,False,1000,True,1.0
./expes/v2_2020-12-02_dh_300-prng-1,30_issda_300,300,rng-300,51,rng,num-start-6001,6001,25726,118.92067098617554,True,,True,1,False,1000,True,1.0
./expes/v2_2020-12-02_dh_300-prng-1,30_issda_300,300,rng-300,131,rng,num-start-6001,6001,25726,146.37578535079956,True,,True,1,False,1000,True,1.0
./expes/v2_2020-12-02_dh_300-prng-1,30_issda_300,300,rng-300,21,rng,num-start-14001,14001,25726,296.45931482315063,True,,True,1,False,1000,True,1.0
./expes/v2_2020-12-02_dh_300-prng-1,30_issda_300,300,rng-300,161,rng,num-start-6001,6001,25726,134.94037866592407,True,,True,1,False,1000,True,1.0
./expes/v2_2020-12-02_dh_300-prng-1,30_issda_300,300,rng-300,211,rng,num-start-12001,12001,25726,305.60709404945374,True,,True,1,False,1000,True,1.0
./expes/v2_2020-12-02_dh_300-prng-1,30_issda_300,300,rng-300,101,rng,num-start-9001,9001,25726,208.71377897262573,True,,True,1,False,1000,True,1.0
./expes/v2_2020-12-02_dh_300-prng-1,30_issda_300,300,rng-300,141,rng,num-start-11001,11001,25726,259.9450333118439,True,,True,1,False,1000,True,1.0
./expes/v2_2020-12-02_dh_300-prng-1,30_issda_300,300,rng-300,1,rng,num-start-3001,3001,25726,41.35033631324768,True,,True,1,False,1000,True,1.0
./expes/v2_2020-12-02_dh_300-prng-1,30_issda_300,300,rng-300,11,rng,num-start-2001,2001,25726,27.56917905807495,True,,True,1,False,1000,True,1.0
./expes/v2_2020-12-02_dh_300-prng-1,30_issda_300,300,rng-300,221,rng,num-start-16001,16001,25726,330.57013750076294,True,,True,1,False,1000,True,1.0
./expes/v2_2020-12-02_dh_300-prng-1,30_issda_300,300,rng-300,121,rng,num-start-15001,15001,25726,339.75700330734253,True,,True,1,False,1000,True,1.0
./expes/v2_2020-12-02_dh_300-prng-1,30_issda_300,300,rng-300,191,rng,num-start-11001,11001,25726,268.3202118873596,True,,True,1,False,1000,True,1.0
./expes/v2_2020-12-02_dh_300-prng-1,30_issda_300,300,rng-300,181,rng,num-start-4001,4001,25726,87.11544418334961,True,,True,1,False,1000,True,1.0
./expes/v2_2020-12-02_dh_300-prng-1,30_issda_300,300,rng-300,111,rng,num-start-5001,5001,25726,113.49290537834167,True,,True,1,False,1000,True,1.0
./expes/v2_2020-12-02_dh_300-prng-1,30_issda_300,300,rng-300,121,rng,num-start-10001,10001,25726,226.65255188941956,True,,True,1,False,1000,True,1.0
./expes/v2_2020-12-02_dh_300-prng-1,30_issda_300,300,rng-300,211,rng,num-start-10001,10001,25726,217.62025594711304,True,,True,1,False,1000,True,1.0
./expes/v2_2020-12-02_dh_300-prng-1,30_issda_300,300,rng-300,1,rng,num-start-16001,16001,25726,217.09333443641663,True,,True,1,False,1000,True,1.0
./expes/v2_2020-12-02_dh_300-prng-1,30_issda_300,300,rng-300,111,rng,num-start-1,1,25726,0.04455971717834473,False,,False,2,False,1000,True,1.0
./expes/v2_2020-12-02_dh_300-prng-1,30_issda_300,300,rng-300,31,rng,num-start-10001,10001,25726,228.7902114391327,True,,True,1,False,1000,True,1.0
./expes/v2_2020-12-02_dh_300-prng-1,30_issda_300,300,rng-300,171,rng,num-start-15001,15001,25726,482.1030716896057,True,,True,1,False,1000,True,1.0
./expes/v2_2020-12-02_dh_300-prng-1,30_issda_300,300,rng-300,241,rng,num-start-14001,14001,25726,393.2740685939789,True,,True,1,False,1000,True,1.0
./expes/v2_2020-12-02_dh_300-prng-1,30_issda_300,300,rng-300,41,rng,num-start-6001,6001,25726,112.42473268508911,True,,True,1,False,1000,True,1.0
./expes/v2_2020-12-02_dh_300-prng-1,30_issda_300,300,rng-300,181,rng,num-start-16001,16001,25726,402.0392053127289,True,,True,1,False,1000,True,1.0
./expes/v2_2020-12-02_dh_300-prng-1,30_issda_300,300,rng-300,261,rng,num-start-10001,10001,25726,185.46362853050232,True,,True,1,False,1000,True,1.0
./expes/v2_2020-12-02_dh_300-prng-1,30_issda_300,300,rng-300,21,rng,num-start-16001,16001,25726,300.69916701316833,True,,True,1,False,1000,True,1.0
./expes/v2_2020-12-02_dh_300-prng-1,30_issda_300,300,rng-300,131,rng,num-start-3001,3001,25726,67.9968843460083,True,,True,1,False,1000,True,1.0
./expes/v2_2020-12-02_dh_300-prng-1,30_issda_300,300,rng-300,41,rng,num-start-1001,1001,25726,18.117840051651,True,,True,1,False,1000,True,1.0
./expes/v2_2020-12-02_dh_300-prng-1,30_issda_300,300,rng-300,11,rng,num-start-14001,14001,25726,197.2570812702179,True,,True,1,False,1000,True,1.0
./expes/v2_2020-12-02_dh_300-prng-1,30_issda_300,300,rng-300,201,rng,num-start-10001,10001,25726,187.50155115127563,True,,True,1,False,1000,True,1.0
./expes/v2_2020-12-02_dh_300-prng-1,30_issda_300,300,rng-300,151,rng,num-start-1001,1001,25726,20.969730377197266,True,,True,1,False,1000,True,1.0
./expes/v2_2020-12-02_dh_300-prng-1,30_issda_300,300,rng-300,271,rng,num-start-1001,1001,25726,17.190430402755737,True,,True,1,False,1000,True,1.0
./expes/v2_2020-12-02_dh_300-prng-1,30_issda_300,300,rng-300,71,rng,num-start-2001,2001,25726,46.3454327583313,True,,True,1,False,1000,True,1.0
./expes/v2_2020-12-02_dh_300-prng-1,30_issda_300,300,rng-300,31,rng,num-start-6001,6001,25726,109.03917193412781,True,,True,1,False,1000,True,1.0
./expes/v2_2020-12-02_dh_300-prng-1,30_issda_300,300,rng-300,1,rng,num-start-4001,4001,25726,52.78911113739014,True,,True,1,False,1000,True,1.0
./expes/v2_2020-12-02_dh_300-prng-1,30_issda_300,300,rng-300,1,rng,num-start-6001,6001,25726,79.7206060886383,True,,True,1,False,1000,True,1.0
./expes/v2_2020-12-02_dh_300-prng-1,30_issda_300,300,rng-300,121,rng,num-start-1001,1001,25726,19.604228258132935,True,,True,1,False,1000,True,1.0
./expes/v2_2020-12-02_dh_300-prng-1,30_issda_300,300,rng-300,81,rng,num-start-6001,6001,25726,97.98604393005371,True,,True,1,False,1000,True,1.0
./expes/v2_2020-12-02_dh_300-prng-1,30_issda_300,300,rng-300,121,rng,num-start-12001,12001,25726,347.8377323150635,True,,True,1,False,1000,True,1.0
./expes/v2_2020-12-02_dh_300-prng-1,30_issda_300,300,rng-300,61,rng,num-start-14001,14001,25726,267.69148325920105,True,,True,1,False,1000,True,1.0
./expes/v2_2020-12-02_dh_300-prng-1,30_issda_300,300,rng-300,201,rng,num-start-6001,6001,25726,125.80564260482788,True,,True,1,False,1000,True,1.0
./expes/v2_2020-12-02_dh_300-prng-1,30_issda_300,300,rng-300,61,rng,num-start-10001,10001,25726,276.90885758399963,True,,True,1,False,1000,True,1.0
./expes/v2_2020-12-02_dh_300-prng-1,30_issda_300,300,rng-300,291,rng,num-start-1001,1001,25726,15.705440521240234,True,,True,1,False,1000,True,1.0
./expes/v2_2020-12-02_dh_300-prng-1,30_issda_300,300,rng-300,111,rng,num-start-4001,4001,25726,134.78050017356873,True,,True,1,False,1000,True,1.0
./expes/v2_2020-12-02_dh_300-prng-1,30_issda_300,300,rng-300,131,rng,num-start-3001,3001,25726,69.18516254425049,True,,True,1,False,1000,True,1.0
./expes/v2_2020-12-02_dh_300-prng-1,30_issda_300,300,rng-300,221,rng,num-start-10001,10001,25726,302.18034172058105,True,,True,1,False,1000,True,1.0
./expes/v2_2020-12-02_dh_300-prng-1,30_issda_300,300,rng-300,151,rng,num-start-1,1,25726,0.05271506309509277,False,,False,2,False,1000,True,1.0
./expes/v2_2020-12-02_dh_300-prng-1,30_issda_300,300,rng-300,71,rng,num-start-7001,7001,25726,122.83017086982727,True,,True,1,False,1000,True,1.0
./expes/v2_2020-12-02_dh_300-prng-1,30_issda_300,300,rng-300,151,rng,num-start-2001,2001,25726,41.848135471343994,True,,True,1,False,1000,True,1.0
./expes/v2_2020-12-02_dh_300-prng-1,30_issda_300,300,rng-300,11,rng,num-start-3001,3001,25726,41.121692419052124,True,,True,1,False,1000,True,1.0
./expes/v2_2020-12-02_dh_300-prng-1,30_issda_300,300,rng-300,61,rng,num-start-7001,7001,25726,129.01942253112793,True,,True,1,False,1000,True,1.0
./expes/v2_2020-12-02_dh_300-prng-1,30_issda_300,300,rng-300,141,rng,num-start-4001,4001,25726,102.5617995262146,True,,True,1,False,1000,True,1.0
./expes/v2_2020-12-02_dh_300-prng-1,30_issda_300,300,rng-300,81,rng,num-start-11001,11001,25726,234.73107051849365,True,,True,1,False,1000,True,1.0
./expes/v2_2020-12-02_dh_300-prng-1,30_issda_300,300,rng-300,221,rng,num-start-6001,6001,25726,144.89209055900574,True,,True,1,False,1000,True,1.0
./expes/v2_2020-12-02_dh_300-prng-1,30_issda_300,300,rng-300,91,rng,num-start-9001,9001,25726,160.16784024238586,True,,True,1,False,1000,True,1.0
./expes/v2_2020-12-02_dh_300-prng-1,30_issda_300,300,rng-300,41,rng,num-start-7001,7001,25726,149.6100471019745,True,,True,1,False,1000,True,1.0
./expes/v2_2020-12-02_dh_300-prng-1,30_issda_300,300,rng-300,101,rng,num-start-16001,16001,25726,437.09559631347656,True,,True,1,False,1000,True,1.0
./expes/v2_2020-12-02_dh_300-prng-1,30_issda_300,300,rng-300,251,rng,num-start-2001,2001,25726,41.95214915275574,True,,True,1,False,1000,True,1.0
./expes/v2_2020-12-02_dh_300-prng-1,30_issda_300,300,rng-300,161,rng,num-start-16001,16001,25726,576.2992568016052,True,,True,1,False,1000,True,1.0
./expes/v2_2020-12-02_dh_300-prng-1,30_issda_300,300,rng-300,101,rng,num-start-8001,8001,25726,180.5750014781952,True,,True,1,False,1000,True,1.0
./expes/v2_2020-12-02_dh_300-prng-1,30_issda_300,300,rng-300,211,rng,num-start-12001,12001,25726,250.03649806976318,True,,True,1,False,1000,True,1.0
./expes/v2_2020-12-02_dh_300-prng-1,30_issda_300,300,rng-300,61,rng,num-start-5001,5001,25726,114.62801551818848,True,,True,1,False,1000,True,1.0
./expes/v2_2020-12-02_dh_300-prng-1,30_issda_300,300,rng-300,111,rng,num-start-9001,9001,25726,231.830908536911,True,,True,1,False,1000,True,1.0
./expes/v2_2020-12-02_dh_300-prng-1,30_issda_300,300,rng-300,261,rng,num-start-2001,2001,25726,36.40819597244263,True,,True,1,False,1000,True,1.0
./expes/v2_2020-12-02_dh_300-prng-1,30_issda_300,300,rng-300,141,rng,num-start-4001,4001,25726,92.00383687019348,True,,True,1,False,1000,True,1.0
./expes/v2_2020-12-02_dh_300-prng-1,30_issda_300,300,rng-300,261,rng,num-start-5001,5001,25726,101.50647354125977,True,,True,1,False,1000,True,1.0
./expes/v2_2020-12-02_dh_300-prng-1,30_issda_300,300,rng-300,191,rng,num-start-1001,1001,25726,19.21517014503479,True,,True,1,False,1000,True,1.0
./expes/v2_2020-12-02_dh_300-prng-1,30_issda_300,300,rng-300,191,rng,num-start-6001,6001,25726,149.80391883850098,True,,True,1,False,1000,True,1.0
./expes/v2_2020-12-02_dh_300-prng-1,30_issda_300,300,rng-300,191,rng,num-start-8001,8001,25726,179.93845582008362,True,,True,1,False,1000,True,1.0
./expes/v2_2020-12-02_dh_300-prng-1,30_issda_300,300,rng-300,131,rng,num-start-2001,2001,25726,43.53690505027771,True,,True,1,False,1000,True,1.0
./expes/v2_2020-12-02_dh_300-prng-1,30_issda_300,300,rng-300,291,rng,num-start-9001,9001,25726,122.54510974884033,True,,True,1,False,1000,True,1.0
./expes/v2_2020-12-02_dh_300-prng-1,30_issda_300,300,rng-300,71,rng,num-start-6001,6001,25726,118.4697916507721,True,,True,1,False,1000,True,1.0
./expes/v2_2020-12-02_dh_300-prng-1,30_issda_300,300,rng-300,81,rng,num-start-1001,1001,25726,19.158853769302368,True,,True,1,False,1000,True,1.0
./expes/v2_2020-12-02_dh_300-prng-1,30_issda_300,300,rng-300,181,rng,num-start-9001,9001,25726,186.82539081573486,True,,True,1,False,1000,True,1.0
./expes/v2_2020-12-02_dh_300-prng-1,30_issda_300,300,rng-300,161,rng,num-start-16001,16001,25726,381.3893060684204,True,,True,1,False,1000,True,1.0
./expes/v2_2020-12-02_dh_300-prng-1,30_issda_300,300,rng-300,151,rng,num-start-16001,16001,25726,351.8665144443512,True,,True,1,False,1000,True,1.0
./expes/v2_2020-12-02_dh_300-prng-1,30_issda_300,300,rng-300,111,rng,num-start-16001,16001,25726,421.55138063430786,True,,True,1,False,1000,True,1.0
./expes/v2_2020-12-02_dh_300-prng-1,30_issda_300,300,rng-300,151,rng,num-start-1001,1001,25726,19.76531744003296,True,,True,1,False,1000,True,1.0
./expes/v2_2020-12-02_dh_300-prng-1,30_issda_300,300,rng-300,251,rng,num-start-15001,15001,25726,249.9854199886322,True,,True,1,False,1000,True,1.0
./expes/v2_2020-12-02_dh_300-prng-1,30_issda_300,300,rng-300,251,rng,num-start-7001,7001,25726,160.4075117111206,True,,True,1,False,1000,True,1.0
./expes/v2_2020-12-02_dh_300-prng-1,30_issda_300,300,rng-300,91,rng,num-start-4001,4001,25726,96.01518940925598,True,,True,1,False,1000,True,1.0
./expes/v2_2020-12-02_dh_300-prng-1,30_issda_300,300,rng-300,11,rng,num-start-8001,8001,25726,116.17007398605347,True,,True,1,False,1000,True,1.0
./expes/v2_2020-12-02_dh_300-prng-1,30_issda_300,300,rng-300,281,rng,num-start-4001,4001,25726,66.93254566192627,True,,True,1,False,1000,True,1.0
./expes/v2_2020-12-02_dh_300-prng-1,30_issda_300,300,rng-300,71,rng,num-start-4001,4001,25726,87.14310216903687,True,,True,1,False,1000,True,1.0
./expes/v2_2020-12-02_dh_300-prng-1,30_issda_300,300,rng-300,131,rng,num-start-4001,4001,25726,81.90638160705566,True,,True,1,False,1000,True,1.0
./expes/v2_2020-12-02_dh_300-prng-1,30_issda_300,300,rng-300,221,rng,num-start-2001,2001,25726,39.65062856674194,True,,True,1,False,1000,True,1.0
./expes/v2_2020-12-02_dh_300-prng-1,30_issda_300,300,rng-300,131,rng,num-start-6001,6001,25726,140.82782983779907,True,,True,1,False,1000,True,1.0
./expes/v2_2020-12-02_dh_300-prng-1,30_issda_300,300,rng-300,221,rng,num-start-14001,14001,25726,372.2332229614258,True,,True,1,False,1000,True,1.0
./expes/v2_2020-12-02_dh_300-prng-1,30_issda_300,300,rng-300,51,rng,num-start-8001,8001,25726,156.3290090560913,True,,True,1,False,1000,True,1.0
./expes/v2_2020-12-02_dh_300-prng-1,30_issda_300,300,rng-300,221,rng,num-start-13001,13001,25726,283.07353949546814,True,,True,1,False,1000,True,1.0
./expes/v2_2020-12-02_dh_300-prng-1,30_issda_300,300,rng-300,171,rng,num-start-16001,16001,25726,275.39075565338135,True,,True,1,False,1000,True,1.0
./expes/v2_2020-12-02_dh_300-prng-1,30_issda_300,300,rng-300,51,rng,num-start-2001,2001,25726,41.86207437515259,True,,True,1,False,1000,True,1.0
./expes/v2_2020-12-02_dh_300-prng-1,30_issda_300,300,rng-300,31,rng,num-start-9001,9001,25726,157.07831287384033,True,,True,1,False,1000,True,1.0
./expes/v2_2020-12-02_dh_300-prng-1,30_issda_300,300,rng-300,191,rng,num-start-4001,4001,25726,79.96350169181824,True,,True,1,False,1000,True,1.0
./expes/v2_2020-12-02_dh_300-prng-1,30_issda_300,300,rng-300,101,rng,num-start-4001,4001,25726,80.55799436569214,True,,True,1,False,1000,True,1.0
./expes/v2_2020-12-02_dh_300-prng-1,30_issda_300,300,rng-300,1,rng,num-start-16001,16001,25726,224.65961289405823,True,,True,1,False,1000,True,1.0
./expes/v2_2020-12-02_dh_300-prng-1,30_issda_300,300,rng-300,101,rng,num-start-15001,15001,25726,346.4994285106659,True,,True,1,False,1000,True,1.0
./expes/v2_2020-12-02_dh_300-prng-1,30_issda_300,300,rng-300,151,rng,num-start-1001,1001,25726,19.98720073699951,True,,True,1,False,1000,True,1.0
./expes/v2_2020-12-02_dh_300-prng-1,30_issda_300,300,rng-300,151,rng,num-start-15001,15001,25726,415.4802567958832,True,,True,1,False,1000,True,1.0
./expes/v2_2020-12-02_dh_300-prng-1,30_issda_300,300,rng-300,271,rng,num-start-4001,4001,25726,74.62063241004944,True,,True,1,False,1000,True,1.0
./expes/v2_2020-12-02_dh_300-prng-1,30_issda_300,300,rng-300,201,rng,num-start-4001,4001,25726,98.59282898902893,True,,True,1,False,1000,True,1.0
./expes/v2_2020-12-02_dh_300-prng-1,30_issda_300,300,rng-300,231,rng,num-start-5001,5001,25726,91.09964847564697,True,,True,1,False,1000,True,1.0
./expes/v2_2020-12-02_dh_300-prng-1,30_issda_300,300,rng-300,61,rng,num-start-14001,14001,25726,236.76647210121155,True,,True,1,False,1000,True,1.0
./expes/v2_2020-12-02_dh_300-prng-1,30_issda_300,300,rng-300,281,rng,num-start-3001,3001,25726,47.2180438041687,True,,True,1,False,1000,True,1.0
./expes/v2_2020-12-02_dh_300-prng-1,30_issda_300,300,rng-300,161,rng,num-start-7001,7001,25726,170.1362807750702,True,,True,1,False,1000,True,1.0
./expes/v2_2020-12-02_dh_300-prng-1,30_issda_300,300,rng-300,141,rng,num-start-1001,1001,25726,18.755982398986816,True,,True,1,False,1000,True,1.0
./expes/v2_2020-12-02_dh_300-prng-1,30_issda_300,300,rng-300,171,rng,num-start-9001,9001,25726,209.94476342201233,True,,True,1,False,1000,True,1.0
./expes/v2_2020-12-02_dh_300-prng-1,30_issda_300,300,rng-300,11,rng,num-start-1001,1001,25726,15.363326787948608,True,,True,1,False,1000,True,1.0
./expes/v2_2020-12-02_dh_300-prng-1,30_issda_300,300,rng-300,21,rng,num-start-16001,16001,25726,282.4604651927948,True,,True,1,False,1000,True,1.0
./expes/v2_2020-12-02_dh_300-prng-1,30_issda_300,300,rng-300,241,rng,num-start-4001,4001,25726,80.63989567756653,True,,True,1,False,1000,True,1.0
./expes/v2_2020-12-02_dh_300-prng-1,30_issda_300,300,rng-300,281,rng,num-start-5001,5001,25726,89.13591289520264,True,,True,1,False,1000,True,1.0
./expes/v2_2020-12-02_dh_300-prng-1,30_issda_300,300,rng-300,91,rng,num-start-11001,11001,25726,276.7756221294403,True,,True,1,False,1000,True,1.0
./expes/v2_2020-12-02_dh_300-prng-1,30_issda_300,300,rng-300,21,rng,num-start-5001,5001,25726,91.98620176315308,True,,True,1,False,1000,True,1.0
./expes/v2_2020-12-02_dh_300-prng-1,30_issda_300,300,rng-300,81,rng,num-start-11001,11001,25726,285.08855390548706,True,,True,1,False,1000,True,1.0
./expes/v2_2020-12-02_dh_300-prng-1,30_issda_300,300,rng-300,181,rng,num-start-15001,15001,25726,384.7691185474396,True,,True,1,False,1000,True,1.0
./expes/v2_2020-12-02_dh_300-prng-1,30_issda_300,300,rng-300,261,rng,num-start-11001,11001,25726,264.5880789756775,True,,True,1,False,1000,True,1.0
./expes/v2_2020-12-02_dh_300-prng-1,30_issda_300,300,rng-300,71,rng,num-start-5001,5001,25726,82.64701223373413,True,,True,1,False,1000,True,1.0
./expes/v2_2020-12-02_dh_300-prng-1,30_issda_300,300,rng-300,101,rng,num-start-5001,5001,25726,128.18604564666748,True,,True,1,False,1000,True,1.0
./expes/v2_2020-12-02_dh_300-prng-1,30_issda_300,300,rng-300,21,rng,num-start-5001,5001,25726,96.6808135509491,True,,True,1,False,1000,True,1.0
./expes/v2_2020-12-02_dh_300-prng-1,30_issda_300,300,rng-300,201,rng,num-start-4001,4001,25726,64.5814459323883,True,,True,1,False,1000,True,1.0
./expes/v2_2020-12-02_dh_300-prng-1,30_issda_300,300,rng-300,31,rng,num-start-10001,10001,25726,178.04983830451965,True,,True,1,False,1000,True,1.0
./expes/v2_2020-12-02_dh_300-prng-1,30_issda_300,300,rng-300,141,rng,num-start-6001,6001,25726,130.84380960464478,True,,True,1,False,1000,True,1.0
./expes/v2_2020-12-02_dh_300-prng-1,30_issda_300,300,rng-300,221,rng,num-start-1001,1001,25726,20.58574676513672,True,,True,1,False,1000,True,1.0
./expes/v2_2020-12-02_dh_300-prng-1,30_issda_300,300,rng-300,11,rng,num-start-10001,10001,25726,172.17603874206543,True,,True,1,False,1000,True,1.0
./expes/v2_2020-12-02_dh_300-prng-1,30_issda_300,300,rng-300,291,rng,num-start-10001,10001,25726,136.66670513153076,True,,True,1,False,1000,True,1.0
./expes/v2_2020-12-02_dh_300-prng-1,30_issda_300,300,rng-300,271,rng,num-start-5001,5001,25726,75.68402671813965,True,,True,1,False,1000,True,1.0
./expes/v2_2020-12-02_dh_300-prng-1,30_issda_300,300,rng-300,31,rng,num-start-9001,9001,25726,299.79858136177063,True,,True,1,False,1000,True,1.0
./expes/v2_2020-12-02_dh_300-prng-1,30_issda_300,300,rng-300,11,rng,num-start-1001,1001,25726,15.708243131637573,True,,True,1,False,1000,True,1.0
./expes/v2_2020-12-02_dh_300-prng-1,30_issda_300,300,rng-300,1,rng,num-start-7001,7001,25726,97.24464774131775,True,,True,1,False,1000,True,1.0
./expes/v2_2020-12-02_dh_300-prng-1,30_issda_300,300,rng-300,11,rng,num-start-2001,2001,25726,27.5979962348938,True,,True,1,False,1000,True,1.0
./expes/v2_2020-12-02_dh_300-prng-1,30_issda_300,300,rng-300,151,rng,num-start-12001,12001,25726,340.98794078826904,True,,True,1,False,1000,True,1.0
./expes/v2_2020-12-02_dh_300-prng-1,30_issda_300,300,rng-300,81,rng,num-start-7001,7001,25726,129.68991661071777,True,,True,1,False,1000,True,1.0
./expes/v2_2020-12-02_dh_300-prng-1,30_issda_300,300,rng-300,111,rng,num-start-11001,11001,25726,355.9731569290161,True,,True,1,False,1000,True,1.0
./expes/v2_2020-12-02_dh_300-prng-1,30_issda_300,300,rng-300,241,rng,num-start-11001,11001,25726,295.22482562065125,True,,True,1,False,1000,True,1.0
./expes/v2_2020-12-02_dh_300-prng-1,30_issda_300,300,rng-300,261,rng,num-start-2001,2001,25726,30.772599697113037,True,,True,1,False,1000,True,1.0
./expes/v2_2020-12-02_dh_300-prng-1,30_issda_300,300,rng-300,221,rng,num-start-7001,7001,25726,174.9511799812317,True,,True,1,False,1000,True,1.0
./expes/v2_2020-12-02_dh_300-prng-1,30_issda_300,300,rng-300,241,rng,num-start-1,1,25726,0.03483462333679199,False,,False,2,False,1000,True,1.0
./expes/v2_2020-12-02_dh_300-prng-1,30_issda_300,300,rng-300,121,rng,num-start-11001,11001,25726,252.71427273750305,True,,True,1,False,1000,True,1.0
./expes/v2_2020-12-02_dh_300-prng-1,30_issda_300,300,rng-300,21,rng,num-start-9001,9001,25726,193.1140022277832,True,,True,1,False,1000,True,1.0
./expes/v2_2020-12-02_dh_300-prng-1,30_issda_300,300,rng-300,281,rng,num-start-5001,5001,25726,109.65491271018982,True,,True,1,False,1000,True,1.0
./expes/v2_2020-12-02_dh_300-prng-1,30_issda_300,300,rng-300,201,rng,num-start-3001,3001,25726,62.31476545333862,True,,True,1,False,1000,True,1.0
./expes/v2_2020-12-02_dh_300-prng-1,30_issda_300,300,rng-300,61,rng,num-start-8001,8001,25726,171.67522954940796,True,,True,1,False,1000,True,1.0
./expes/v2_2020-12-02_dh_300-prng-1,30_issda_300,300,rng-300,211,rng,num-start-2001,2001,25726,34.735326528549194,True,,True,1,False,1000,True,1.0
./expes/v2_2020-12-02_dh_300-prng-1,30_issda_300,300,rng-300,31,rng,num-start-11001,11001,25726,199.22448253631592,True,,True,1,False,1000,True,1.0
./expes/v2_2020-12-02_dh_300-prng-1,30_issda_300,300,rng-300,21,rng,num-start-1001,1001,25726,13.703006982803345,True,,True,1,False,1000,True,1.0
./expes/v2_2020-12-02_dh_300-prng-1,30_issda_300,300,rng-300,31,rng,num-start-5001,5001,25726,74.94592905044556,True,,True,1,False,1000,True,1.0
./expes/v2_2020-12-02_dh_300-prng-1,30_issda_300,300,rng-300,51,rng,num-start-5001,5001,25726,91.74749493598938,True,,True,1,False,1000,True,1.0
./expes/v2_2020-12-02_dh_300-prng-1,30_issda_300,300,rng-300,171,rng,num-start-14001,14001,25726,438.6826524734497,True,,True,1,False,1000,True,1.0
./expes/v2_2020-12-02_dh_300-prng-1,30_issda_300,300,rng-300,91,rng,num-start-1001,1001,25726,18.53464436531067,True,,True,1,False,1000,True,1.0
./expes/v2_2020-12-02_dh_300-prng-1,30_issda_300,300,rng-300,221,rng,num-start-13001,13001,25726,294.9270067214966,True,,True,1,False,1000,True,1.0
./expes/v2_2020-12-02_dh_300-prng-1,30_issda_300,300,rng-300,131,rng,num-start-6001,6001,25726,132.26400423049927,True,,True,1,False,1000,True,1.0
./expes/v2_2020-12-02_dh_300-prng-1,30_issda_300,300,rng-300,51,rng,num-start-5001,5001,25726,138.52460718154907,True,,True,1,False,1000,True,1.0
./expes/v2_2020-12-02_dh_300-prng-1,30_issda_300,300,rng-300,271,rng,num-start-4001,4001,25726,96.20966362953186,True,,True,1,False,1000,True,1.0
./expes/v2_2020-12-02_dh_300-prng-1,30_issda_300,300,rng-300,271,rng,num-start-7001,7001,25726,131.54022073745728,True,,True,1,False,1000,True,1.0
./expes/v2_2020-12-02_dh_300-prng-1,30_issda_300,300,rng-300,201,rng,num-start-10001,10001,25726,232.14879441261292,True,,True,1,False,1000,True,1.0
./expes/v2_2020-12-02_dh_300-prng-1,30_issda_300,300,rng-300,291,rng,num-start-13001,13001,25726,166.58569622039795,True,,True,1,False,1000,True,1.0
./expes/v2_2020-12-02_dh_300-prng-1,30_issda_300,300,rng-300,151,rng,num-start-11001,11001,25726,202.6568021774292,True,,True,1,False,1000,True,1.0
./expes/v2_2020-12-02_dh_300-prng-1,30_issda_300,300,rng-300,21,rng,num-start-1,1,25726,0.12653160095214844,False,,False,2,False,1000,True,1.0
./expes/v2_2020-12-02_dh_300-prng-1,30_issda_300,300,rng-300,111,rng,num-start-5001,5001,25726,110.61812973022461,True,,True,1,False,1000,True,1.0
./expes/v2_2020-12-02_dh_300-prng-1,30_issda_300,300,rng-300,1,rng,num-start-3001,3001,25726,40.67544913291931,True,,True,1,False,1000,True,1.0
./expes/v2_2020-12-02_dh_300-prng-1,30_issda_300,300,rng-300,141,rng,num-start-1001,1001,25726,20.9969584941864,True,,True,1,False,1000,True,1.0
./expes/v2_2020-12-02_dh_300-prng-1,30_issda_300,300,rng-300,161,rng,num-start-8001,8001,25726,135.9852192401886,True,,True,1,False,1000,True,1.0
./expes/v2_2020-12-02_dh_300-prng-1,30_issda_300,300,rng-300,121,rng,num-start-16001,16001,25726,368.54254817962646,True,,True,1,False,1000,True,1.0
./expes/v2_2020-12-02_dh_300-prng-1,30_issda_300,300,rng-300,1,rng,num-start-10001,10001,25726,135.3483247756958,True,,True,1,False,1000,True,1.0
./expes/v2_2020-12-02_dh_300-prng-1,30_issda_300,300,rng-300,211,rng,num-start-13001,13001,25726,489.555034160614,True,,True,1,False,1000,True,1.0
./expes/v2_2020-12-02_dh_300-prng-1,30_issda_300,300,rng-300,21,rng,num-start-2001,2001,25726,30.75563144683838,True,,True,1,False,1000,True,1.0
./expes/v2_2020-12-02_dh_300-prng-1,30_issda_300,300,rng-300,171,rng,num-start-5001,5001,25726,95.6805694103241,True,,True,1,False,1000,True,1.0
./expes/v2_2020-12-02_dh_300-prng-1,30_issda_300,300,rng-300,271,rng,num-start-1,1,25726,0.07355761528015137,False,,False,2,False,1000,True,1.0
./expes/v2_2020-12-02_dh_300-prng-1,30_issda_300,300,rng-300,151,rng,num-start-8001,8001,25726,230.79786944389343,True,,True,1,False,1000,True,1.0
./expes/v2_2020-12-02_dh_300-prng-1,30_issda_300,300,rng-300,201,rng,num-start-11001,11001,25726,197.03383493423462,True,,True,1,False,1000,True,1.0
./expes/v2_2020-12-02_dh_300-prng-1,30_issda_300,300,rng-300,271,rng,num-start-6001,6001,25726,118.69248580932617,True,,True,1,False,1000,True,1.0
./expes/v2_2020-12-02_dh_300-prng-1,30_issda_300,300,rng-300,91,rng,num-start-11001,11001,25726,243.460853099823,True,,True,1,False,1000,True,1.0
./expes/v2_2020-12-02_dh_300-prng-1,30_issda_300,300,rng-300,191,rng,num-start-9001,9001,25726,216.66316938400269,True,,True,1,False,1000,True,1.0
./expes/v2_2020-12-02_dh_300-prng-1,30_issda_300,300,rng-300,81,rng,num-start-12001,12001,25726,242.7873969078064,True,,True,1,False,1000,True,1.0
./expes/v2_2020-12-02_dh_300-prng-1,30_issda_300,300,rng-300,251,rng,num-start-10001,10001,25726,259.82207894325256,True,,True,1,False,1000,True,1.0
./expes/v2_2020-12-02_dh_300-prng-1,30_issda_300,300,rng-300,271,rng,num-start-16001,16001,25726,315.50395011901855,True,,True,1,False,1000,True,1.0
./expes/v2_2020-12-02_dh_300-prng-1,30_issda_300,300,rng-300,1,rng,num-start-6001,6001,25726,75.86422991752625,True,,True,1,False,1000,True,1.0
./expes/v2_2020-12-02_dh_300-prng-1,30_issda_300,300,rng-300,241,rng,num-start-13001,13001,25726,282.97291827201843,True,,True,1,False,1000,True,1.0
./expes/v2_2020-12-02_dh_300-prng-1,30_issda_300,300,rng-300,61,rng,num-start-11001,11001,25726,227.0689296722412,True,,True,1,False,1000,True,1.0
./expes/v2_2020-12-02_dh_300-prng-1,30_issda_300,300,rng-300,191,rng,num-start-8001,8001,25726,185.28552508354187,True,,True,1,False,1000,True,1.0
./expes/v2_2020-12-02_dh_300-prng-1,30_issda_300,300,rng-300,211,rng,num-start-9001,9001,25726,279.19113206863403,True,,True,1,False,1000,True,1.0
./expes/v2_2020-12-02_dh_300-prng-1,30_issda_300,300,rng-300,1,rng,num-start-15001,15001,25726,206.90873384475708,True,,True,1,False,1000,True,1.0
./expes/v2_2020-12-02_dh_300-prng-1,30_issda_300,300,rng-300,181,rng,num-start-7001,7001,25726,149.72255182266235,True,,True,1,False,1000,True,1.0
./expes/v2_2020-12-02_dh_300-prng-1,30_issda_300,300,rng-300,141,rng,num-start-10001,10001,25726,247.1776533126831,True,,True,1,False,1000,True,1.0
./expes/v2_2020-12-02_dh_300-prng-1,30_issda_300,300,rng-300,261,rng,num-start-9001,9001,25726,266.4251358509064,True,,True,1,False,1000,True,1.0
./expes/v2_2020-12-02_dh_300-prng-1,30_issda_300,300,rng-300,211,rng,num-start-15001,15001,25726,350.3497745990753,True,,True,1,False,1000,True,1.0
./expes/v2_2020-12-02_dh_300-prng-1,30_issda_300,300,rng-300,271,rng,num-start-5001,5001,25726,122.07768750190735,True,,True,1,False,1000,True,1.0
./expes/v2_2020-12-02_dh_300-prng-1,30_issda_300,300,rng-300,81,rng,num-start-14001,14001,25726,293.4153277873993,True,,True,1,False,1000,True,1.0
./expes/v2_2020-12-02_dh_300-prng-1,30_issda_300,300,rng-300,81,rng,num-start-9001,9001,25726,235.70204973220825,True,,True,1,False,1000,True,1.0
./expes/v2_2020-12-02_dh_300-prng-1,30_issda_300,300,rng-300,111,rng,num-start-12001,12001,25726,339.6462607383728,True,,True,1,False,1000,True,1.0
./expes/v2_2020-12-02_dh_300-prng-1,30_issda_300,300,rng-300,131,rng,num-start-15001,15001,25726,370.2678773403168,True,,True,1,False,1000,True,1.0
./expes/v2_2020-12-02_dh_300-prng-1,30_issda_300,300,rng-300,271,rng,num-start-1,1,25726,0.0817263126373291,False,,False,2,False,1000,True,1.0
./expes/v2_2020-12-02_dh_300-prng-1,30_issda_300,300,rng-300,11,rng,num-start-5001,5001,25726,77.64726686477661,True,,True,1,False,1000,True,1.0
./expes/v2_2020-12-02_dh_300-prng-1,30_issda_300,300,rng-300,161,rng,num-start-1001,1001,25726,22.020402431488037,True,,True,1,False,1000,True,1.0
./expes/v2_2020-12-02_dh_300-prng-1,30_issda_300,300,rng-300,191,rng,num-start-16001,16001,25726,403.3226013183594,True,,True,1,False,1000,True,1.0
./expes/v2_2020-12-02_dh_300-prng-1,30_issda_300,300,rng-300,1,rng,num-start-1,1,25726,0.024738550186157227,False,,False,2,False,1000,True,1.0
./expes/v2_2020-12-02_dh_300-prng-1,30_issda_300,300,rng-300,41,rng,num-start-1001,1001,25726,24.33287000656128,True,,True,1,False,1000,True,1.0
./expes/v2_2020-12-02_dh_300-prng-1,30_issda_300,300,rng-300,221,rng,num-start-14001,14001,25726,470.9870283603668,True,,True,1,False,1000,True,1.0
./expes/v2_2020-12-02_dh_300-prng-1,30_issda_300,300,rng-300,111,rng,num-start-15001,15001,25726,295.27446365356445,True,,True,1,False,1000,True,1.0
./expes/v2_2020-12-02_dh_300-prng-1,30_issda_300,300,rng-300,201,rng,num-start-14001,14001,25726,346.636741399765,True,,True,1,False,1000,True,1.0
./expes/v2_2020-12-02_dh_300-prng-1,30_issda_300,300,rng-300,221,rng,num-start-5001,5001,25726,103.6574866771698,True,,True,1,False,1000,True,1.0
./expes/v2_2020-12-02_dh_300-prng-1,30_issda_300,300,rng-300,151,rng,num-start-3001,3001,25726,64.295645236969,True,,True,1,False,1000,True,1.0
./expes/v2_2020-12-02_dh_300-prng-1,30_issda_300,300,rng-300,11,rng,num-start-6001,6001,25726,82.6408326625824,True,,True,1,False,1000,True,1.0
./expes/v2_2020-12-02_dh_300-prng-1,30_issda_300,300,rng-300,21,rng,num-start-3001,3001,25726,51.79154133796692,True,,True,1,False,1000,True,1.0
./expes/v2_2020-12-02_dh_300-prng-1,30_issda_300,300,rng-300,171,rng,num-start-12001,12001,25726,260.916805267334,True,,True,1,False,1000,True,1.0
./expes/v2_2020-12-02_dh_300-prng-1,30_issda_300,300,rng-300,91,rng,num-start-15001,15001,25726,278.589905500412,True,,True,1,False,1000,True,1.0
./expes/v2_2020-12-02_dh_300-prng-1,30_issda_300,300,rng-300,101,rng,num-start-11001,11001,25726,241.0445580482483,True,,True,1,False,1000,True,1.0
./expes/v2_2020-12-02_dh_300-prng-1,30_issda_300,300,rng-300,231,rng,num-start-8001,8001,25726,169.2839434146881,True,,True,1,False,1000,True,1.0
./expes/v2_2020-12-02_dh_300-prng-1,30_issda_300,300,rng-300,241,rng,num-start-13001,13001,25726,271.8291096687317,True,,True,1,False,1000,True,1.0
./expes/v2_2020-12-02_dh_300-prng-1,30_issda_300,300,rng-300,151,rng,num-start-1,1,25726,0.08052253723144531,False,,False,2,False,1000,True,1.0
./expes/v2_2020-12-02_dh_300-prng-1,30_issda_300,300,rng-300,81,rng,num-start-5001,5001,25726,106.24122142791748,True,,True,1,False,1000,True,1.0
./expes/v2_2020-12-02_dh_300-prng-1,30_issda_300,300,rng-300,221,rng,num-start-6001,6001,25726,102.19648337364197,True,,True,1,False,1000,True,1.0
./expes/v2_2020-12-02_dh_300-prng-1,30_issda_300,300,rng-300,291,rng,num-start-5001,5001,25726,75.19024729728699,True,,True,1,False,1000,True,1.0
./expes/v2_2020-12-02_dh_300-prng-1,30_issda_300,300,rng-300,61,rng,num-start-4001,4001,25726,89.20928883552551,True,,True,1,False,1000,True,1.0
./expes/v2_2020-12-02_dh_300-prng-1,30_issda_300,300,rng-300,141,rng,num-start-1,1,25726,0.033290863037109375,False,,False,2,False,1000,True,1.0
./expes/v2_2020-12-02_dh_300-prng-1,30_issda_300,300,rng-300,81,rng,num-start-7001,7001,25726,115.23222136497498,True,,True,1,False,1000,True,1.0
./expes/v2_2020-12-02_dh_300-prng-1,30_issda_300,300,rng-300,21,rng,num-start-9001,9001,25726,180.99170184135437,True,,True,1,False,1000,True,1.0
./expes/v2_2020-12-02_dh_300-prng-1,30_issda_300,300,rng-300,91,rng,num-start-2001,2001,25726,56.0602912902832,True,,True,1,False,1000,True,1.0
./expes/v2_2020-12-02_dh_300-prng-1,30_issda_300,300,rng-300,241,rng,num-start-13001,13001,25726,269.0569682121277,True,,True,1,False,1000,True,1.0
./expes/v2_2020-12-02_dh_300-prng-1,30_issda_300,300,rng-300,121,rng,num-start-15001,15001,25726,343.8773543834686,True,,True,1,False,1000,True,1.0
./expes/v2_2020-12-02_dh_300-prng-1,30_issda_300,300,rng-300,11,rng,num-start-15001,15001,25726,225.40972876548767,True,,True,1,False,1000,True,1.0
./expes/v2_2020-12-02_dh_300-prng-1,30_issda_300,300,rng-300,131,rng,num-start-6001,6001,25726,117.19401097297668,True,,True,1,False,1000,True,1.0
./expes/v2_2020-12-02_dh_300-prng-1,30_issda_300,300,rng-300,181,rng,num-start-12001,12001,25726,229.87327313423157,True,,True,1,False,1000,True,1.0
./expes/v2_2020-12-02_dh_300-prng-1,30_issda_300,300,rng-300,61,rng,num-start-13001,13001,25726,271.5061836242676,True,,True,1,False,1000,True,1.0
./expes/v2_2020-12-02_dh_300-prng-1,30_issda_300,300,rng-300,11,rng,num-start-8001,8001,25726,109.5042462348938,True,,True,1,False,1000,True,1.0
./expes/v2_2020-12-02_dh_300-prng-1,30_issda_300,300,rng-300,271,rng,num-start-16001,16001,25726,336.87332367897034,True,,True,1,False,1000,True,1.0
./expes/v2_2020-12-02_dh_300-prng-1,30_issda_300,300,rng-300,71,rng,num-start-12001,12001,25726,230.7688398361206,True,,True,1,False,1000,True,1.0
./expes/v2_2020-12-02_dh_300-prng-1,30_issda_300,300,rng-300,221,rng,num-start-15001,15001,25726,408.1540160179138,True,,True,1,False,1000,True,1.0
./expes/v2_2020-12-02_dh_300-prng-1,30_issda_300,300,rng-300,131,rng,num-start-1,1,25726,0.3539719581604004,False,,False,2,False,1000,True,1.0
./expes/v2_2020-12-02_dh_300-prng-1,30_issda_300,300,rng-300,1,rng,num-start-15001,15001,25726,206.66119003295898,True,,True,1,False,1000,True,1.0
./expes/v2_2020-12-02_dh_300-prng-1,30_issda_300,300,rng-300,131,rng,num-start-2001,2001,25726,46.25841450691223,True,,True,1,False,1000,True,1.0
./expes/v2_2020-12-02_dh_300-prng-1,30_issda_300,300,rng-300,211,rng,num-start-1,1,25726,0.05364727973937988,False,,False,2,False,1000,True,1.0
./expes/v2_2020-12-02_dh_300-prng-1,30_issda_300,300,rng-300,91,rng,num-start-12001,12001,25726,270.68498969078064,True,,True,1,False,1000,True,1.0
./expes/v2_2020-12-02_dh_300-prng-1,30_issda_300,300,rng-300,261,rng,num-start-7001,7001,25726,129.2320945262909,True,,True,1,False,1000,True,1.0
./expes/v2_2020-12-02_dh_300-prng-1,30_issda_300,300,rng-300,211,rng,num-start-9001,9001,25726,202.31444597244263,True,,True,1,False,1000,True,1.0
./expes/v2_2020-12-02_dh_300-prng-1,30_issda_300,300,rng-300,81,rng,num-start-5001,5001,25726,97.3529167175293,True,,True,1,False,1000,True,1.0
./expes/v2_2020-12-02_dh_300-prng-1,30_issda_300,300,rng-300,171,rng,num-start-9001,9001,25726,231.93191409111023,True,,True,1,False,1000,True,1.0
./expes/v2_2020-12-02_dh_300-prng-1,30_issda_300,300,rng-300,21,rng,num-start-5001,5001,25726,78.20461845397949,True,,True,1,False,1000,True,1.0
./expes/v2_2020-12-02_dh_300-prng-1,30_issda_300,300,rng-300,141,rng,num-start-14001,14001,25726,299.7045648097992,True,,True,1,False,1000,True,1.0
./expes/v2_2020-12-02_dh_300-prng-1,30_issda_300,300,rng-300,251,rng,num-start-12001,12001,25726,276.6178705692291,True,,True,1,False,1000,True,1.0
./expes/v2_2020-12-02_dh_300-prng-1,30_issda_300,300,rng-300,101,rng,num-start-9001,9001,25726,238.41932129859924,True,,True,1,False,1000,True,1.0
./expes/v2_2020-12-02_dh_300-prng-1,30_issda_300,300,rng-300,11,rng,num-start-13001,13001,25726,166.81524634361267,True,,True,1,False,1000,True,1.0
./expes/v2_2020-12-02_dh_300-prng-1,30_issda_300,300,rng-300,241,rng,num-start-14001,14001,25726,287.7139689922333,True,,True,1,False,1000,True,1.0
./expes/v2_2020-12-02_dh_300-prng-1,30_issda_300,300,rng-300,131,rng,num-start-11001,11001,25726,274.9289083480835,True,,True,1,False,1000,True,1.0
./expes/v2_2020-12-02_dh_300-prng-1,30_issda_300,300,rng-300,51,rng,num-start-9001,9001,25726,170.72755360603333,True,,True,1,False,1000,True,1.0
./expes/v2_2020-12-02_dh_300-prng-1,30_issda_300,300,rng-300,251,rng,num-start-9001,9001,25726,235.48741960525513,True,,True,1,False,1000,True,1.0
./expes/v2_2020-12-02_dh_300-prng-1,30_issda_300,300,rng-300,131,rng,num-start-12001,12001,25726,290.48657989501953,True,,True,1,False,1000,True,1.0
./expes/v2_2020-12-02_dh_300-prng-1,30_issda_300,300,rng-300,221,rng,num-start-10001,10001,25726,202.78938102722168,True,,True,1,False,1000,True,1.0
./expes/v2_2020-12-02_dh_300-prng-1,30_issda_300,300,rng-300,191,rng,num-start-6001,6001,25726,121.9831976890564,True,,True,1,False,1000,True,1.0
./expes/v2_2020-12-02_dh_300-prng-1,30_issda_300,300,rng-300,71,rng,num-start-1001,1001,25726,21.51874327659607,True,,True,1,False,1000,True,1.0
./expes/v2_2020-12-02_dh_300-prng-1,30_issda_300,300,rng-300,91,rng,num-start-5001,5001,25726,133.4434425830841,True,,True,1,False,1000,True,1.0
./expes/v2_2020-12-02_dh_300-prng-1,30_issda_300,300,rng-300,291,rng,num-start-13001,13001,25726,179.90276908874512,True,,True,1,False,1000,True,1.0
./expes/v2_2020-12-02_dh_300-prng-1,30_issda_300,300,rng-300,51,rng,num-start-1001,1001,25726,20.903592824935913,True,,True,1,False,1000,True,1.0
./expes/v2_2020-12-02_dh_300-prng-1,30_issda_300,300,rng-300,171,rng,num-start-8001,8001,25726,172.79599499702454,True,,True,1,False,1000,True,1.0
./expes/v2_2020-12-02_dh_300-prng-1,30_issda_300,300,rng-300,281,rng,num-start-2001,2001,25726,35.76365041732788,True,,True,1,False,1000,True,1.0
./expes/v2_2020-12-02_dh_300-prng-1,30_issda_300,300,rng-300,21,rng,num-start-16001,16001,25726,383.018648147583,True,,True,1,False,1000,True,1.0
./expes/v2_2020-12-02_dh_300-prng-1,30_issda_300,300,rng-300,241,rng,num-start-2001,2001,25726,37.70023274421692,True,,True,1,False,1000,True,1.0
./expes/v2_2020-12-02_dh_300-prng-1,30_issda_300,300,rng-300,1,rng,num-start-7001,7001,25726,98.14226198196411,True,,True,1,False,1000,True,1.0
./expes/v2_2020-12-02_dh_300-prng-1,30_issda_300,300,rng-300,191,rng,num-start-15001,15001,25726,334.18967843055725,True,,True,1,False,1000,True,1.0
./expes/v2_2020-12-02_dh_300-prng-1,30_issda_300,300,rng-300,231,rng,num-start-4001,4001,25726,84.19891571998596,True,,True,1,False,1000,True,1.0
./expes/v2_2020-12-02_dh_300-prng-1,30_issda_300,300,rng-300,81,rng,num-start-14001,14001,25726,343.265837430954,True,,True,1,False,1000,True,1.0
./expes/v2_2020-12-02_dh_300-prng-1,30_issda_300,300,rng-300,191,rng,num-start-5001,5001,25726,109.83390927314758,True,,True,1,False,1000,True,1.0
./expes/v2_2020-12-02_dh_300-prng-1,30_issda_300,300,rng-300,191,rng,num-start-10001,10001,25726,254.39731812477112,True,,True,1,False,1000,True,1.0
./expes/v2_2020-12-02_dh_300-prng-1,30_issda_300,300,rng-300,71,rng,num-start-14001,14001,25726,285.6911437511444,True,,True,1,False,1000,True,1.0
./expes/v2_2020-12-02_dh_300-prng-1,30_issda_300,300,rng-300,221,rng,num-start-4001,4001,25726,108.44181227684021,True,,True,1,False,1000,True,1.0
./expes/v2_2020-12-02_dh_300-prng-1,30_issda_300,300,rng-300,71,rng,num-start-2001,2001,25726,40.535396099090576,True,,True,1,False,1000,True,1.0
./expes/v2_2020-12-02_dh_300-prng-1,30_issda_300,300,rng-300,181,rng,num-start-9001,9001,25726,205.1878538131714,True,,True,1,False,1000,True,1.0
./expes/v2_2020-12-02_dh_300-prng-1,30_issda_300,300,rng-300,171,rng,num-start-8001,8001,25726,139.03553414344788,True,,True,1,False,1000,True,1.0
./expes/v2_2020-12-02_dh_300-prng-1,30_issda_300,300,rng-300,91,rng,num-start-1,1,25726,0.06300950050354004,False,,False,2,False,1000,True,1.0
./expes/v2_2020-12-02_dh_300-prng-1,30_issda_300,300,rng-300,41,rng,num-start-13001,13001,25726,303.65719294548035,True,,True,1,False,1000,True,1.0
./expes/v2_2020-12-02_dh_300-prng-1,30_issda_300,300,rng-300,41,rng,num-start-4001,4001,25726,78.85956645011902,True,,True,1,False,1000,True,1.0
./expes/v2_2020-12-02_dh_300-prng-1,30_issda_300,300,rng-300,141,rng,num-start-2001,2001,25726,47.17048716545105,True,,True,1,False,1000,True,1.0
./expes/v2_2020-12-02_dh_300-prng-1,30_issda_300,300,rng-300,141,rng,num-start-8001,8001,25726,258.85096406936646,True,,True,1,False,1000,True,1.0
./expes/v2_2020-12-02_dh_300-prng-1,30_issda_300,300,rng-300,131,rng,num-start-1001,1001,25726,18.833852291107178,True,,True,1,False,1000,True,1.0
./expes/v2_2020-12-02_dh_300-prng-1,30_issda_300,300,rng-300,261,rng,num-start-2001,2001,25726,36.32705736160278,True,,True,1,False,1000,True,1.0
./expes/v2_2020-12-02_dh_300-prng-1,30_issda_300,300,rng-300,291,rng,num-start-14001,14001,25726,194.85936403274536,True,,True,1,False,1000,True,1.0
./expes/v2_2020-12-02_dh_300-prng-1,30_issda_300,300,rng-300,81,rng,num-start-4001,4001,25726,68.68384385108948,True,,True,1,False,1000,True,1.0
./expes/v2_2020-12-02_dh_300-prng-1,30_issda_300,300,rng-300,51,rng,num-start-3001,3001,25726,58.927114486694336,True,,True,1,False,1000,True,1.0
./expes/v2_2020-12-02_dh_300-prng-1,30_issda_300,300,rng-300,281,rng,num-start-6001,6001,25726,86.43376779556274,True,,True,1,False,1000,True,1.0
./expes/v2_2020-12-02_dh_300-prng-1,30_issda_300,300,rng-300,271,rng,num-start-15001,15001,25726,281.36528515815735,True,,True,1,False,1000,True,1.0
./expes/v2_2020-12-02_dh_300-prng-1,30_issda_300,300,rng-300,261,rng,num-start-1001,1001,25726,17.681475162506104,True,,True,1,False,1000,True,1.0
./expes/v2_2020-12-02_dh_300-prng-1,30_issda_300,300,rng-300,261,rng,num-start-16001,16001,25726,371.8533248901367,True,,True,1,False,1000,True,1.0
./expes/v2_2020-12-02_dh_300-prng-1,30_issda_300,300,rng-300,91,rng,num-start-12001,12001,25726,266.01751708984375,True,,True,1,False,1000,True,1.0
./expes/v2_2020-12-02_dh_300-prng-1,30_issda_300,300,rng-300,131,rng,num-start-7001,7001,25726,159.4535083770752,True,,True,1,False,1000,True,1.0
./expes/v2_2020-12-02_dh_300-prng-1,30_issda_300,300,rng-300,61,rng,num-start-16001,16001,25726,371.85565423965454,True,,True,1,False,1000,True,1.0
./expes/v2_2020-12-02_dh_300-prng-1,30_issda_300,300,rng-300,121,rng,num-start-9001,9001,25726,233.1094126701355,True,,True,1,False,1000,True,1.0
./expes/v2_2020-12-02_dh_300-prng-1,30_issda_300,300,rng-300,1,rng,num-start-13001,13001,25726,172.9613540172577,True,,True,1,False,1000,True,1.0
./expes/v2_2020-12-02_dh_300-prng-1,30_issda_300,300,rng-300,271,rng,num-start-16001,16001,25726,315.4711127281189,True,,True,1,False,1000,True,1.0
./expes/v2_2020-12-02_dh_300-prng-1,30_issda_300,300,rng-300,121,rng,num-start-3001,3001,25726,71.18156576156616,True,,True,1,False,1000,True,1.0
./expes/v2_2020-12-02_dh_300-prng-1,30_issda_300,300,rng-300,141,rng,num-start-6001,6001,25726,133.19365882873535,True,,True,1,False,1000,True,1.0
./expes/v2_2020-12-02_dh_300-prng-1,30_issda_300,300,rng-300,261,rng,num-start-11001,11001,25726,296.22229385375977,True,,True,1,False,1000,True,1.0
./expes/v2_2020-12-02_dh_300-prng-1,30_issda_300,300,rng-300,71,rng,num-start-2001,2001,25726,43.04446363449097,True,,True,1,False,1000,True,1.0
./expes/v2_2020-12-02_dh_300-prng-1,30_issda_300,300,rng-300,281,rng,num-start-2001,2001,25726,30.551371097564697,True,,True,1,False,1000,True,1.0
./expes/v2_2020-12-02_dh_300-prng-1,30_issda_300,300,rng-300,181,rng,num-start-5001,5001,25726,98.43587327003479,True,,True,1,False,1000,True,1.0
./expes/v2_2020-12-02_dh_300-prng-1,30_issda_300,300,rng-300,161,rng,num-start-8001,8001,25726,196.49915742874146,True,,True,1,False,1000,True,1.0
./expes/v2_2020-12-02_dh_300-prng-1,30_issda_300,300,rng-300,231,rng,num-start-1001,1001,25726,23.234997034072876,True,,True,1,False,1000,True,1.0
./expes/v2_2020-12-02_dh_300-prng-1,30_issda_300,300,rng-300,81,rng,num-start-10001,10001,25726,218.8990478515625,True,,True,1,False,1000,True,1.0
./expes/v2_2020-12-02_dh_300-prng-1,30_issda_300,300,rng-300,81,rng,num-start-7001,7001,25726,143.32084798812866,True,,True,1,False,1000,True,1.0
./expes/v2_2020-12-02_dh_300-prng-1,30_issda_300,300,rng-300,131,rng,num-start-13001,13001,25726,301.41424226760864,True,,True,1,False,1000,True,1.0
./expes/v2_2020-12-02_dh_300-prng-1,30_issda_300,300,rng-300,191,rng,num-start-9001,9001,25726,156.15656328201294,True,,True,1,False,1000,True,1.0
./expes/v2_2020-12-02_dh_300-prng-1,30_issda_300,300,rng-300,101,rng,num-start-11001,11001,25726,323.7220969200134,True,,True,1,False,1000,True,1.0
