expe,clients,clients_size,clients_subset,agg_size,method,days,days_size,days_total,time,valid,valid_sum,success,nsols,wall_hit,wall_time,pooled,valid_sums
./expes/v2_2020-12-02_dh_300-prng-1,30_issda_300,300,rng-300,21,rng,num-start-3001,3001,25726,72.57955813407898,True,,True,1,False,1000,True,1.0
./expes/v2_2020-12-02_dh_300-prng-1,30_issda_300,300,rng-300,81,rng,num-start-2001,2001,25726,52.90540313720703,True,,True,1,False,1000,True,1.0
./expes/v2_2020-12-02_dh_300-prng-1,30_issda_300,300,rng-300,71,rng,num-start-2001,2001,25726,60.527257204055786,True,,True,1,False,1000,True,1.0
./expes/v2_2020-12-02_dh_300-prng-1,30_issda_300,300,rng-300,211,rng,num-start-9001,9001,25726,269.6136953830719,True,,True,1,False,1000,True,1.0
./expes/v2_2020-12-02_dh_300-prng-1,30_issda_300,300,rng-300,11,rng,num-start-12001,12001,25726,279.56769371032715,True,,True,1,False,1000,True,1.0
./expes/v2_2020-12-02_dh_300-prng-1,30_issda_300,300,rng-300,281,rng,num-start-3001,3001,25726,66.89304113388062,True,,True,1,False,1000,True,1.0
./expes/v2_2020-12-02_dh_300-prng-1,30_issda_300,300,rng-300,281,rng,num-start-3001,3001,25726,57.62459588050842,True,,True,1,False,1000,True,1.0
./expes/v2_2020-12-02_dh_300-prng-1,30_issda_300,300,rng-300,281,rng,num-start-1,1,25726,0.06389093399047852,False,,False,2,False,1000,True,1.0
./expes/v2_2020-12-02_dh_300-prng-1,30_issda_300,300,rng-300,81,rng,num-start-13001,13001,25726,378.99153113365173,True,,True,1,False,1000,True,1.0
./expes/v2_2020-12-02_dh_300-prng-1,30_issda_300,300,rng-300,51,rng,num-start-1,1,25726,0.1075444221496582,False,,False,2,False,1000,True,1.0
