expe,clients,clients_size,clients_subset,agg_size,method,days,days_size,days_total,time,valid,valid_sum,success,nsols,wall_hit,wall_time,pooled,valid_sums
./expes/v2_2020-12-02_dh_300-prng-1,30_issda_300,300,rng-300,181,rng,num-start-8001,8001,25726,212.0056209564209,True,,True,1,False,1000,True,1.0
./expes/v2_2020-12-02_dh_300-prng-1,30_issda_300,300,rng-300,241,rng,num-start-13001,13001,25726,465.7885913848877,True,,True,1,False,1000,True,1.0
./expes/v2_2020-12-02_dh_300-prng-1,30_issda_300,300,rng-300,81,rng,num-start-7001,7001,25726,215.95734095573425,True,,True,1,False,1000,True,1.0
./expes/v2_2020-12-02_dh_300-prng-1,30_issda_300,300,rng-300,241,rng,num-start-13001,13001,25726,398.6059412956238,True,,True,1,False,1000,True,1.0
./expes/v2_2020-12-02_dh_300-prng-1,30_issda_300,300,rng-300,191,rng,num-start-7001,7001,25726,224.16621470451355,True,,True,1,False,1000,True,1.0
./expes/v2_2020-12-02_dh_300-prng-1,30_issda_300,300,rng-300,211,rng,num-start-4001,4001,25726,101.18708968162537,True,,True,1,False,1000,True,1.0
./expes/v2_2020-12-02_dh_300-prng-1,30_issda_300,300,rng-300,201,rng,num-start-13001,13001,25726,340.60126185417175,True,,True,1,False,1000,True,1.0
./expes/v2_2020-12-02_dh_300-prng-1,30_issda_300,300,rng-300,261,rng,num-start-11001,11001,25726,285.22802329063416,True,,True,1,False,1000,True,1.0
./expes/v2_2020-12-02_dh_300-prng-1,30_issda_300,300,rng-300,41,rng,num-start-4001,4001,25726,102.99296569824219,True,,True,1,False,1000,True,1.0
./expes/v2_2020-12-02_dh_300-prng-1,30_issda_300,300,rng-300,241,rng,num-start-8001,8001,25726,243.07706809043884,True,,True,1,False,1000,True,1.0
./expes/v2_2020-12-02_dh_300-prng-1,30_issda_300,300,rng-300,31,rng,num-start-1001,1001,25726,26.0316424369812,True,,True,1,False,1000,True,1.0
./expes/v2_2020-12-02_dh_300-prng-1,30_issda_300,300,rng-300,251,rng,num-start-7001,7001,25726,144.7070128917694,True,,True,1,False,1000,True,1.0
./expes/v2_2020-12-02_dh_300-prng-1,30_issda_300,300,rng-300,221,rng,num-start-4001,4001,25726,97.02135443687439,True,,True,1,False,1000,True,1.0
./expes/v2_2020-12-02_dh_300-prng-1,30_issda_300,300,rng-300,291,rng,num-start-10001,10001,25726,168.6447627544403,True,,True,1,False,1000,True,1.0
./expes/v2_2020-12-02_dh_300-prng-1,30_issda_300,300,rng-300,201,rng,num-start-11001,11001,25726,349.55245661735535,True,,True,1,False,1000,True,1.0
./expes/v2_2020-12-02_dh_300-prng-1,30_issda_300,300,rng-300,91,rng,num-start-10001,10001,25726,242.1424000263214,True,,True,1,False,1000,True,1.0
./expes/v2_2020-12-02_dh_300-prng-1,30_issda_300,300,rng-300,41,rng,num-start-8001,8001,25726,159.26796007156372,True,,True,1,False,1000,True,1.0
./expes/v2_2020-12-02_dh_300-prng-1,30_issda_300,300,rng-300,101,rng,num-start-10001,10001,25726,273.8488528728485,True,,True,1,False,1000,True,1.0
./expes/v2_2020-12-02_dh_300-prng-1,30_issda_300,300,rng-300,201,rng,num-start-7001,7001,25726,210.06932592391968,True,,True,1,False,1000,True,1.0
./expes/v2_2020-12-02_dh_300-prng-1,30_issda_300,300,rng-300,71,rng,num-start-15001,15001,25726,422.38913917541504,True,,True,1,False,1000,True,1.0
./expes/v2_2020-12-02_dh_300-prng-1,30_issda_300,300,rng-300,171,rng,num-start-6001,6001,25726,197.49078392982483,True,,True,1,False,1000,True,1.0
./expes/v2_2020-12-02_dh_300-prng-1,30_issda_300,300,rng-300,121,rng,num-start-8001,8001,25726,228.0724024772644,True,,True,1,False,1000,True,1.0
./expes/v2_2020-12-02_dh_300-prng-1,30_issda_300,300,rng-300,131,rng,num-start-4001,4001,25726,103.09891128540039,True,,True,1,False,1000,True,1.0
./expes/v2_2020-12-02_dh_300-prng-1,30_issda_300,300,rng-300,271,rng,num-start-16001,16001,25726,455.41832637786865,True,,True,1,False,1000,True,1.0
./expes/v2_2020-12-02_dh_300-prng-1,30_issda_300,300,rng-300,91,rng,num-start-3001,3001,25726,63.35980415344238,True,,True,1,False,1000,True,1.0
./expes/v2_2020-12-02_dh_300-prng-1,30_issda_300,300,rng-300,231,rng,num-start-16001,16001,25726,429.05765891075134,True,,True,1,False,1000,True,1.0
./expes/v2_2020-12-02_dh_300-prng-1,30_issda_300,300,rng-300,101,rng,num-start-2001,2001,25726,59.755446434020996,True,,True,1,False,1000,True,1.0
./expes/v2_2020-12-02_dh_300-prng-1,30_issda_300,300,rng-300,191,rng,num-start-9001,9001,25726,239.25938057899475,True,,True,1,False,1000,True,1.0
./expes/v2_2020-12-02_dh_300-prng-1,30_issda_300,300,rng-300,241,rng,num-start-2001,2001,25726,62.63000702857971,True,,True,1,False,1000,True,1.0
./expes/v2_2020-12-02_dh_300-prng-1,30_issda_300,300,rng-300,91,rng,num-start-13001,13001,25726,348.53213334083557,True,,True,1,False,1000,True,1.0
./expes/v2_2020-12-02_dh_300-prng-1,30_issda_300,300,rng-300,71,rng,num-start-2001,2001,25726,49.37248969078064,True,,True,1,False,1000,True,1.0
./expes/v2_2020-12-02_dh_300-prng-1,30_issda_300,300,rng-300,61,rng,num-start-16001,16001,25726,361.13176441192627,True,,True,1,False,1000,True,1.0
./expes/v2_2020-12-02_dh_300-prng-1,30_issda_300,300,rng-300,281,rng,num-start-16001,16001,25726,292.95989060401917,True,,True,1,False,1000,True,1.0
./expes/v2_2020-12-02_dh_300-prng-1,30_issda_300,300,rng-300,241,rng,num-start-2001,2001,25726,49.73908233642578,True,,True,1,False,1000,True,1.0
./expes/v2_2020-12-02_dh_300-prng-1,30_issda_300,300,rng-300,231,rng,num-start-4001,4001,25726,97.30007743835449,True,,True,1,False,1000,True,1.0
./expes/v2_2020-12-02_dh_300-prng-1,30_issda_300,300,rng-300,31,rng,num-start-7001,7001,25726,142.91268730163574,True,,True,1,False,1000,True,1.0
./expes/v2_2020-12-02_dh_300-prng-1,30_issda_300,300,rng-300,131,rng,num-start-6001,6001,25726,175.9018714427948,True,,True,1,False,1000,True,1.0
./expes/v2_2020-12-02_dh_300-prng-1,30_issda_300,300,rng-300,131,rng,num-start-10001,10001,25726,332.4491562843323,True,,True,1,False,1000,True,1.0
./expes/v2_2020-12-02_dh_300-prng-1,30_issda_300,300,rng-300,191,rng,num-start-8001,8001,25726,215.07785153388977,True,,True,1,False,1000,True,1.0
./expes/v2_2020-12-02_dh_300-prng-1,30_issda_300,300,rng-300,51,rng,num-start-14001,14001,25726,350.85699915885925,True,,True,1,False,1000,True,1.0
./expes/v2_2020-12-02_dh_300-prng-1,30_issda_300,300,rng-300,181,rng,num-start-3001,3001,25726,72.36037468910217,True,,True,1,False,1000,True,1.0
./expes/v2_2020-12-02_dh_300-prng-1,30_issda_300,300,rng-300,171,rng,num-start-11001,11001,25726,280.5711741447449,True,,True,1,False,1000,True,1.0
./expes/v2_2020-12-02_dh_300-prng-1,30_issda_300,300,rng-300,211,rng,num-start-7001,7001,25726,179.23365688323975,True,,True,1,False,1000,True,1.0
./expes/v2_2020-12-02_dh_300-prng-1,30_issda_300,300,rng-300,141,rng,num-start-1001,1001,25726,25.77463150024414,True,,True,1,False,1000,True,1.0
./expes/v2_2020-12-02_dh_300-prng-1,30_issda_300,300,rng-300,21,rng,num-start-14001,14001,25726,544.2151763439178,True,,True,1,False,1000,True,1.0
./expes/v2_2020-12-02_dh_300-prng-1,30_issda_300,300,rng-300,231,rng,num-start-5001,5001,25726,119.40941762924194,True,,True,1,False,1000,True,1.0
./expes/v2_2020-12-02_dh_300-prng-1,30_issda_300,300,rng-300,31,rng,num-start-4001,4001,25726,98.90076017379761,True,,True,1,False,1000,True,1.0
./expes/v2_2020-12-02_dh_300-prng-1,30_issda_300,300,rng-300,271,rng,num-start-12001,12001,25726,255.66119265556335,True,,True,1,False,1000,True,1.0
./expes/v2_2020-12-02_dh_300-prng-1,30_issda_300,300,rng-300,91,rng,num-start-1001,1001,25726,30.662490129470825,True,,True,1,False,1000,True,1.0
./expes/v2_2020-12-02_dh_300-prng-1,30_issda_300,300,rng-300,81,rng,num-start-9001,9001,25726,224.45816445350647,True,,True,1,False,1000,True,1.0
./expes/v2_2020-12-02_dh_300-prng-1,30_issda_300,300,rng-300,181,rng,num-start-3001,3001,25726,87.01180100440979,True,,True,1,False,1000,True,1.0
./expes/v2_2020-12-02_dh_300-prng-1,30_issda_300,300,rng-300,91,rng,num-start-14001,14001,25726,397.63091588020325,True,,True,1,False,1000,True,1.0
./expes/v2_2020-12-02_dh_300-prng-1,30_issda_300,300,rng-300,41,rng,num-start-16001,16001,25726,327.73641061782837,True,,True,1,False,1000,True,1.0
./expes/v2_2020-12-02_dh_300-prng-1,30_issda_300,300,rng-300,161,rng,num-start-6001,6001,25726,158.46727633476257,True,,True,1,False,1000,True,1.0
./expes/v2_2020-12-02_dh_300-prng-1,30_issda_300,300,rng-300,271,rng,num-start-1,1,25726,0.05032777786254883,False,,False,2,False,1000,True,1.0
./expes/v2_2020-12-02_dh_300-prng-1,30_issda_300,300,rng-300,1,rng,num-start-5001,5001,25726,85.09373950958252,True,,True,1,False,1000,True,1.0
./expes/v2_2020-12-02_dh_300-prng-1,30_issda_300,300,rng-300,121,rng,num-start-2001,2001,25726,52.606199979782104,True,,True,1,False,1000,True,1.0
./expes/v2_2020-12-02_dh_300-prng-1,30_issda_300,300,rng-300,291,rng,num-start-7001,7001,25726,126.449387550354,True,,True,1,False,1000,True,1.0
./expes/v2_2020-12-02_dh_300-prng-1,30_issda_300,300,rng-300,271,rng,num-start-8001,8001,25726,288.91600823402405,True,,True,1,False,1000,True,1.0
./expes/v2_2020-12-02_dh_300-prng-1,30_issda_300,300,rng-300,221,rng,num-start-8001,8001,25726,198.7271671295166,True,,True,1,False,1000,True,1.0
./expes/v2_2020-12-02_dh_300-prng-1,30_issda_300,300,rng-300,251,rng,num-start-14001,14001,25726,520.8853719234467,True,,True,1,False,1000,True,1.0
./expes/v2_2020-12-02_dh_300-prng-1,30_issda_300,300,rng-300,41,rng,num-start-9001,9001,25726,191.52550339698792,True,,True,1,False,1000,True,1.0
./expes/v2_2020-12-02_dh_300-prng-1,30_issda_300,300,rng-300,141,rng,num-start-12001,12001,25726,394.8340194225311,True,,True,1,False,1000,True,1.0
./expes/v2_2020-12-02_dh_300-prng-1,30_issda_300,300,rng-300,241,rng,num-start-13001,13001,25726,458.77210998535156,True,,True,1,False,1000,True,1.0
./expes/v2_2020-12-02_dh_300-prng-1,30_issda_300,300,rng-300,51,rng,num-start-15001,15001,25726,336.2975661754608,True,,True,1,False,1000,True,1.0
./expes/v2_2020-12-02_dh_300-prng-1,30_issda_300,300,rng-300,61,rng,num-start-10001,10001,25726,235.24670886993408,True,,True,1,False,1000,True,1.0
./expes/v2_2020-12-02_dh_300-prng-1,30_issda_300,300,rng-300,181,rng,num-start-1001,1001,25726,22.30828022956848,True,,True,1,False,1000,True,1.0
./expes/v2_2020-12-02_dh_300-prng-1,30_issda_300,300,rng-300,101,rng,num-start-2001,2001,25726,50.16674065589905,True,,True,1,False,1000,True,1.0
./expes/v2_2020-12-02_dh_300-prng-1,30_issda_300,300,rng-300,211,rng,num-start-5001,5001,25726,125.72097492218018,True,,True,1,False,1000,True,1.0
./expes/v2_2020-12-02_dh_300-prng-1,30_issda_300,300,rng-300,211,rng,num-start-14001,14001,25726,371.0858461856842,True,,True,1,False,1000,True,1.0
./expes/v2_2020-12-02_dh_300-prng-1,30_issda_300,300,rng-300,241,rng,num-start-13001,13001,25726,279.8607089519501,True,,True,1,False,1000,True,1.0
./expes/v2_2020-12-02_dh_300-prng-1,30_issda_300,300,rng-300,61,rng,num-start-9001,9001,25726,273.1535782814026,True,,True,1,False,1000,True,1.0
./expes/v2_2020-12-02_dh_300-prng-1,30_issda_300,300,rng-300,221,rng,num-start-1001,1001,25726,22.71017074584961,True,,True,1,False,1000,True,1.0
./expes/v2_2020-12-02_dh_300-prng-1,30_issda_300,300,rng-300,41,rng,num-start-3001,3001,25726,71.32915425300598,True,,True,1,False,1000,True,1.0
./expes/v2_2020-12-02_dh_300-prng-1,30_issda_300,300,rng-300,291,rng,num-start-11001,11001,25726,182.9575138092041,True,,True,1,False,1000,True,1.0
./expes/v2_2020-12-02_dh_300-prng-1,30_issda_300,300,rng-300,281,rng,num-start-15001,15001,25726,351.3719758987427,True,,True,1,False,1000,True,1.0
./expes/v2_2020-12-02_dh_300-prng-1,30_issda_300,300,rng-300,171,rng,num-start-1,1,25726,0.04645967483520508,False,,False,2,False,1000,True,1.0
./expes/v2_2020-12-02_dh_300-prng-1,30_issda_300,300,rng-300,21,rng,num-start-8001,8001,25726,152.4477722644806,True,,True,1,False,1000,True,1.0
./expes/v2_2020-12-02_dh_300-prng-1,30_issda_300,300,rng-300,241,rng,num-start-9001,9001,25726,324.932492017746,True,,True,1,False,1000,True,1.0
./expes/v2_2020-12-02_dh_300-prng-1,30_issda_300,300,rng-300,91,rng,num-start-5001,5001,25726,133.1292450428009,True,,True,1,False,1000,True,1.0
./expes/v2_2020-12-02_dh_300-prng-1,30_issda_300,300,rng-300,191,rng,num-start-1001,1001,25726,24.806251764297485,True,,True,1,False,1000,True,1.0
./expes/v2_2020-12-02_dh_300-prng-1,30_issda_300,300,rng-300,51,rng,num-start-1001,1001,25726,26.702837705612183,True,,True,1,False,1000,True,1.0
./expes/v2_2020-12-02_dh_300-prng-1,30_issda_300,300,rng-300,231,rng,num-start-4001,4001,25726,93.62432551383972,True,,True,1,False,1000,True,1.0
./expes/v2_2020-12-02_dh_300-prng-1,30_issda_300,300,rng-300,101,rng,num-start-16001,16001,25726,551.0076847076416,True,,True,1,False,1000,True,1.0
./expes/v2_2020-12-02_dh_300-prng-1,30_issda_300,300,rng-300,241,rng,num-start-16001,16001,25726,404.9802553653717,True,,True,1,False,1000,True,1.0
./expes/v2_2020-12-02_dh_300-prng-1,30_issda_300,300,rng-300,211,rng,num-start-5001,5001,25726,125.19338345527649,True,,True,1,False,1000,True,1.0
./expes/v2_2020-12-02_dh_300-prng-1,30_issda_300,300,rng-300,241,rng,num-start-1,1,25726,0.0441126823425293,False,,False,2,False,1000,True,1.0
./expes/v2_2020-12-02_dh_300-prng-1,30_issda_300,300,rng-300,221,rng,num-start-9001,9001,25726,202.93958401679993,True,,True,1,False,1000,True,1.0
./expes/v2_2020-12-02_dh_300-prng-1,30_issda_300,300,rng-300,241,rng,num-start-4001,4001,25726,89.31851744651794,True,,True,1,False,1000,True,1.0
./expes/v2_2020-12-02_dh_300-prng-1,30_issda_300,300,rng-300,41,rng,num-start-4001,4001,25726,89.15421104431152,True,,True,1,False,1000,True,1.0
./expes/v2_2020-12-02_dh_300-prng-1,30_issda_300,300,rng-300,1,rng,num-start-11001,11001,25726,175.3333399295807,True,,True,1,False,1000,True,1.0
./expes/v2_2020-12-02_dh_300-prng-1,30_issda_300,300,rng-300,91,rng,num-start-4001,4001,25726,94.96599841117859,True,,True,1,False,1000,True,1.0
./expes/v2_2020-12-02_dh_300-prng-1,30_issda_300,300,rng-300,31,rng,num-start-3001,3001,25726,71.18297219276428,True,,True,1,False,1000,True,1.0
./expes/v2_2020-12-02_dh_300-prng-1,30_issda_300,300,rng-300,1,rng,num-start-7001,7001,25726,115.37442755699158,True,,True,1,False,1000,True,1.0
./expes/v2_2020-12-02_dh_300-prng-1,30_issda_300,300,rng-300,231,rng,num-start-14001,14001,25726,341.6062126159668,True,,True,1,False,1000,True,1.0
./expes/v2_2020-12-02_dh_300-prng-1,30_issda_300,300,rng-300,181,rng,num-start-5001,5001,25726,137.39482402801514,True,,True,1,False,1000,True,1.0
./expes/v2_2020-12-02_dh_300-prng-1,30_issda_300,300,rng-300,121,rng,num-start-6001,6001,25726,161.23636674880981,True,,True,1,False,1000,True,1.0
./expes/v2_2020-12-02_dh_300-prng-1,30_issda_300,300,rng-300,231,rng,num-start-15001,15001,25726,427.4611494541168,True,,True,1,False,1000,True,1.0
