expe,clients,clients_size,clients_subset,agg_size,method,days,days_size,days_total,time,valid,valid_sum,success,nsols,wall_hit,wall_time,pooled,valid_sums
./expes/v2_2020-12-02_dh_300-prng-1,30_issda_300,300,rng-300,101,rng,num-start-7001,7001,25726,193.3308563232422,True,,True,1,False,1000,True,1.0
./expes/v2_2020-12-02_dh_300-prng-1,30_issda_300,300,rng-300,31,rng,num-start-8001,8001,25726,180.5253574848175,True,,True,1,False,1000,True,1.0
./expes/v2_2020-12-02_dh_300-prng-1,30_issda_300,300,rng-300,31,rng,num-start-8001,8001,25726,202.74997997283936,True,,True,1,False,1000,True,1.0
./expes/v2_2020-12-02_dh_300-prng-1,30_issda_300,300,rng-300,81,rng,num-start-1001,1001,25726,23.154520988464355,True,,True,1,False,1000,True,1.0
./expes/v2_2020-12-02_dh_300-prng-1,30_issda_300,300,rng-300,41,rng,num-start-13001,13001,25726,378.6174831390381,True,,True,1,False,1000,True,1.0
./expes/v2_2020-12-02_dh_300-prng-1,30_issda_300,300,rng-300,281,rng,num-start-10001,10001,25726,257.1728913784027,True,,True,1,False,1000,True,1.0
./expes/v2_2020-12-02_dh_300-prng-1,30_issda_300,300,rng-300,261,rng,num-start-8001,8001,25726,213.8181767463684,True,,True,1,False,1000,True,1.0
./expes/v2_2020-12-02_dh_300-prng-1,30_issda_300,300,rng-300,61,rng,num-start-6001,6001,25726,131.96852159500122,True,,True,1,False,1000,True,1.0
./expes/v2_2020-12-02_dh_300-prng-1,30_issda_300,300,rng-300,1,rng,num-start-1001,1001,25726,16.410382509231567,True,,True,1,False,1000,True,1.0
./expes/v2_2020-12-02_dh_300-prng-1,30_issda_300,300,rng-300,41,rng,num-start-9001,9001,25726,201.7632348537445,True,,True,1,False,1000,True,1.0
./expes/v2_2020-12-02_dh_300-prng-1,30_issda_300,300,rng-300,261,rng,num-start-10001,10001,25726,207.86408615112305,True,,True,1,False,1000,True,1.0
./expes/v2_2020-12-02_dh_300-prng-1,30_issda_300,300,rng-300,201,rng,num-start-4001,4001,25726,101.41989421844482,True,,True,1,False,1000,True,1.0
./expes/v2_2020-12-02_dh_300-prng-1,30_issda_300,300,rng-300,51,rng,num-start-3001,3001,25726,74.5285131931305,True,,True,1,False,1000,True,1.0
./expes/v2_2020-12-02_dh_300-prng-1,30_issda_300,300,rng-300,41,rng,num-start-8001,8001,25726,181.9610846042633,True,,True,1,False,1000,True,1.0
./expes/v2_2020-12-02_dh_300-prng-1,30_issda_300,300,rng-300,51,rng,num-start-5001,5001,25726,121.8257348537445,True,,True,1,False,1000,True,1.0
./expes/v2_2020-12-02_dh_300-prng-1,30_issda_300,300,rng-300,261,rng,num-start-14001,14001,25726,450.77814841270447,True,,True,1,False,1000,True,1.0
./expes/v2_2020-12-02_dh_300-prng-1,30_issda_300,300,rng-300,131,rng,num-start-10001,10001,25726,265.4593346118927,True,,True,1,False,1000,True,1.0
./expes/v2_2020-12-02_dh_300-prng-1,30_issda_300,300,rng-300,51,rng,num-start-10001,10001,25726,227.23458123207092,True,,True,1,False,1000,True,1.0
./expes/v2_2020-12-02_dh_300-prng-1,30_issda_300,300,rng-300,101,rng,num-start-3001,3001,25726,89.02110743522644,True,,True,1,False,1000,True,1.0
./expes/v2_2020-12-02_dh_300-prng-1,30_issda_300,300,rng-300,241,rng,num-start-11001,11001,25726,296.19310331344604,True,,True,1,False,1000,True,1.0
./expes/v2_2020-12-02_dh_300-prng-1,30_issda_300,300,rng-300,81,rng,num-start-1,1,25726,0.03811979293823242,False,,False,2,False,1000,True,1.0
./expes/v2_2020-12-02_dh_300-prng-1,30_issda_300,300,rng-300,191,rng,num-start-3001,3001,25726,89.4347755908966,True,,True,1,False,1000,True,1.0
./expes/v2_2020-12-02_dh_300-prng-1,30_issda_300,300,rng-300,231,rng,num-start-5001,5001,25726,117.34197735786438,True,,True,1,False,1000,True,1.0
./expes/v2_2020-12-02_dh_300-prng-1,30_issda_300,300,rng-300,61,rng,num-start-11001,11001,25726,259.82456040382385,True,,True,1,False,1000,True,1.0
./expes/v2_2020-12-02_dh_300-prng-1,30_issda_300,300,rng-300,11,rng,num-start-6001,6001,25726,105.3011736869812,True,,True,1,False,1000,True,1.0
./expes/v2_2020-12-02_dh_300-prng-1,30_issda_300,300,rng-300,91,rng,num-start-7001,7001,25726,176.09726333618164,True,,True,1,False,1000,True,1.0
./expes/v2_2020-12-02_dh_300-prng-1,30_issda_300,300,rng-300,181,rng,num-start-10001,10001,25726,293.6651260852814,True,,True,1,False,1000,True,1.0
./expes/v2_2020-12-02_dh_300-prng-1,30_issda_300,300,rng-300,31,rng,num-start-6001,6001,25726,122.11183667182922,True,,True,1,False,1000,True,1.0
./expes/v2_2020-12-02_dh_300-prng-1,30_issda_300,300,rng-300,131,rng,num-start-3001,3001,25726,99.12062001228333,True,,True,1,False,1000,True,1.0
./expes/v2_2020-12-02_dh_300-prng-1,30_issda_300,300,rng-300,101,rng,num-start-4001,4001,25726,104.31672668457031,True,,True,1,False,1000,True,1.0
./expes/v2_2020-12-02_dh_300-prng-1,30_issda_300,300,rng-300,151,rng,num-start-15001,15001,25726,426.6927344799042,True,,True,1,False,1000,True,1.0
./expes/v2_2020-12-02_dh_300-prng-1,30_issda_300,300,rng-300,251,rng,num-start-3001,3001,25726,64.31796407699585,True,,True,1,False,1000,True,1.0
./expes/v2_2020-12-02_dh_300-prng-1,30_issda_300,300,rng-300,261,rng,num-start-13001,13001,25726,365.6167666912079,True,,True,1,False,1000,True,1.0
./expes/v2_2020-12-02_dh_300-prng-1,30_issda_300,300,rng-300,221,rng,num-start-6001,6001,25726,177.3606243133545,True,,True,1,False,1000,True,1.0
./expes/v2_2020-12-02_dh_300-prng-1,30_issda_300,300,rng-300,81,rng,num-start-5001,5001,25726,199.05569314956665,True,,True,1,False,1000,True,1.0
./expes/v2_2020-12-02_dh_300-prng-1,30_issda_300,300,rng-300,101,rng,num-start-1,1,25726,0.07541537284851074,False,,False,2,False,1000,True,1.0
./expes/v2_2020-12-02_dh_300-prng-1,30_issda_300,300,rng-300,251,rng,num-start-2001,2001,25726,54.73644661903381,True,,True,1,False,1000,True,1.0
./expes/v2_2020-12-02_dh_300-prng-1,30_issda_300,300,rng-300,81,rng,num-start-13001,13001,25726,373.0240581035614,True,,True,1,False,1000,True,1.0
./expes/v2_2020-12-02_dh_300-prng-1,30_issda_300,300,rng-300,121,rng,num-start-1001,1001,25726,26.127744674682617,True,,True,1,False,1000,True,1.0
./expes/v2_2020-12-02_dh_300-prng-1,30_issda_300,300,rng-300,231,rng,num-start-15001,15001,25726,361.88828444480896,True,,True,1,False,1000,True,1.0
./expes/v2_2020-12-02_dh_300-prng-1,30_issda_300,300,rng-300,261,rng,num-start-2001,2001,25726,51.41259241104126,True,,True,1,False,1000,True,1.0
./expes/v2_2020-12-02_dh_300-prng-1,30_issda_300,300,rng-300,41,rng,num-start-14001,14001,25726,345.64089012145996,True,,True,1,False,1000,True,1.0
./expes/v2_2020-12-02_dh_300-prng-1,30_issda_300,300,rng-300,101,rng,num-start-10001,10001,25726,257.6128640174866,True,,True,1,False,1000,True,1.0
./expes/v2_2020-12-02_dh_300-prng-1,30_issda_300,300,rng-300,271,rng,num-start-5001,5001,25726,102.29398107528687,True,,True,1,False,1000,True,1.0
./expes/v2_2020-12-02_dh_300-prng-1,30_issda_300,300,rng-300,91,rng,num-start-10001,10001,25726,312.4939422607422,True,,True,1,False,1000,True,1.0
./expes/v2_2020-12-02_dh_300-prng-1,30_issda_300,300,rng-300,171,rng,num-start-7001,7001,25726,188.94342231750488,True,,True,1,False,1000,True,1.0
./expes/v2_2020-12-02_dh_300-prng-1,30_issda_300,300,rng-300,261,rng,num-start-12001,12001,25726,294.62614488601685,True,,True,1,False,1000,True,1.0
./expes/v2_2020-12-02_dh_300-prng-1,30_issda_300,300,rng-300,31,rng,num-start-9001,9001,25726,178.6018693447113,True,,True,1,False,1000,True,1.0
./expes/v2_2020-12-02_dh_300-prng-1,30_issda_300,300,rng-300,271,rng,num-start-1001,1001,25726,24.362609148025513,True,,True,1,False,1000,True,1.0
./expes/v2_2020-12-02_dh_300-prng-1,30_issda_300,300,rng-300,151,rng,num-start-2001,2001,25726,50.411256074905396,True,,True,1,False,1000,True,1.0
./expes/v2_2020-12-02_dh_300-prng-1,30_issda_300,300,rng-300,151,rng,num-start-5001,5001,25726,147.35419726371765,True,,True,1,False,1000,True,1.0
./expes/v2_2020-12-02_dh_300-prng-1,30_issda_300,300,rng-300,231,rng,num-start-13001,13001,25726,395.8903098106384,True,,True,1,False,1000,True,1.0
./expes/v2_2020-12-02_dh_300-prng-1,30_issda_300,300,rng-300,61,rng,num-start-12001,12001,25726,321.5417158603668,True,,True,1,False,1000,True,1.0
./expes/v2_2020-12-02_dh_300-prng-1,30_issda_300,300,rng-300,101,rng,num-start-5001,5001,25726,133.9287383556366,True,,True,1,False,1000,True,1.0
./expes/v2_2020-12-02_dh_300-prng-1,30_issda_300,300,rng-300,251,rng,num-start-13001,13001,25726,318.7760241031647,True,,True,1,False,1000,True,1.0
./expes/v2_2020-12-02_dh_300-prng-1,30_issda_300,300,rng-300,211,rng,num-start-13001,13001,25726,381.85673809051514,True,,True,1,False,1000,True,1.0
./expes/v2_2020-12-02_dh_300-prng-1,30_issda_300,300,rng-300,211,rng,num-start-16001,16001,25726,412.0237023830414,True,,True,1,False,1000,True,1.0
./expes/v2_2020-12-02_dh_300-prng-1,30_issda_300,300,rng-300,101,rng,num-start-4001,4001,25726,86.85212516784668,True,,True,1,False,1000,True,1.0
./expes/v2_2020-12-02_dh_300-prng-1,30_issda_300,300,rng-300,271,rng,num-start-11001,11001,25726,293.2560589313507,True,,True,1,False,1000,True,1.0
./expes/v2_2020-12-02_dh_300-prng-1,30_issda_300,300,rng-300,131,rng,num-start-2001,2001,25726,60.49068570137024,True,,True,1,False,1000,True,1.0
./expes/v2_2020-12-02_dh_300-prng-1,30_issda_300,300,rng-300,201,rng,num-start-14001,14001,25726,342.68070340156555,True,,True,1,False,1000,True,1.0
./expes/v2_2020-12-02_dh_300-prng-1,30_issda_300,300,rng-300,61,rng,num-start-13001,13001,25726,330.6371228694916,True,,True,1,False,1000,True,1.0
./expes/v2_2020-12-02_dh_300-prng-1,30_issda_300,300,rng-300,221,rng,num-start-6001,6001,25726,151.23357367515564,True,,True,1,False,1000,True,1.0
./expes/v2_2020-12-02_dh_300-prng-1,30_issda_300,300,rng-300,61,rng,num-start-1001,1001,25726,20.595037698745728,True,,True,1,False,1000,True,1.0
./expes/v2_2020-12-02_dh_300-prng-1,30_issda_300,300,rng-300,121,rng,num-start-13001,13001,25726,336.37487411499023,True,,True,1,False,1000,True,1.0
./expes/v2_2020-12-02_dh_300-prng-1,30_issda_300,300,rng-300,121,rng,num-start-9001,9001,25726,251.787987947464,True,,True,1,False,1000,True,1.0
./expes/v2_2020-12-02_dh_300-prng-1,30_issda_300,300,rng-300,161,rng,num-start-6001,6001,25726,141.15391850471497,True,,True,1,False,1000,True,1.0
./expes/v2_2020-12-02_dh_300-prng-1,30_issda_300,300,rng-300,51,rng,num-start-14001,14001,25726,357.26471281051636,True,,True,1,False,1000,True,1.0
./expes/v2_2020-12-02_dh_300-prng-1,30_issda_300,300,rng-300,261,rng,num-start-4001,4001,25726,100.61648869514465,True,,True,1,False,1000,True,1.0
./expes/v2_2020-12-02_dh_300-prng-1,30_issda_300,300,rng-300,51,rng,num-start-4001,4001,25726,92.34269142150879,True,,True,1,False,1000,True,1.0
./expes/v2_2020-12-02_dh_300-prng-1,30_issda_300,300,rng-300,191,rng,num-start-10001,10001,25726,264.81770420074463,True,,True,1,False,1000,True,1.0
./expes/v2_2020-12-02_dh_300-prng-1,30_issda_300,300,rng-300,151,rng,num-start-5001,5001,25726,130.16047930717468,True,,True,1,False,1000,True,1.0
./expes/v2_2020-12-02_dh_300-prng-1,30_issda_300,300,rng-300,11,rng,num-start-3001,3001,25726,54.76370358467102,True,,True,1,False,1000,True,1.0
./expes/v2_2020-12-02_dh_300-prng-1,30_issda_300,300,rng-300,141,rng,num-start-13001,13001,25726,384.76878905296326,True,,True,1,False,1000,True,1.0
./expes/v2_2020-12-02_dh_300-prng-1,30_issda_300,300,rng-300,81,rng,num-start-6001,6001,25726,141.31255865097046,True,,True,1,False,1000,True,1.0
./expes/v2_2020-12-02_dh_300-prng-1,30_issda_300,300,rng-300,271,rng,num-start-2001,2001,25726,45.499475955963135,True,,True,1,False,1000,True,1.0
./expes/v2_2020-12-02_dh_300-prng-1,30_issda_300,300,rng-300,211,rng,num-start-1001,1001,25726,23.348101377487183,True,,True,1,False,1000,True,1.0
./expes/v2_2020-12-02_dh_300-prng-1,30_issda_300,300,rng-300,41,rng,num-start-7001,7001,25726,152.75113010406494,True,,True,1,False,1000,True,1.0
./expes/v2_2020-12-02_dh_300-prng-1,30_issda_300,300,rng-300,181,rng,num-start-3001,3001,25726,79.3422737121582,True,,True,1,False,1000,True,1.0
./expes/v2_2020-12-02_dh_300-prng-1,30_issda_300,300,rng-300,281,rng,num-start-9001,9001,25726,173.9529812335968,True,,True,1,False,1000,True,1.0
./expes/v2_2020-12-02_dh_300-prng-1,30_issda_300,300,rng-300,201,rng,num-start-14001,14001,25726,382.9019560813904,True,,True,1,False,1000,True,1.0
./expes/v2_2020-12-02_dh_300-prng-1,30_issda_300,300,rng-300,261,rng,num-start-3001,3001,25726,75.65566182136536,True,,True,1,False,1000,True,1.0
./expes/v2_2020-12-02_dh_300-prng-1,30_issda_300,300,rng-300,251,rng,num-start-12001,12001,25726,281.93641209602356,True,,True,1,False,1000,True,1.0
./expes/v2_2020-12-02_dh_300-prng-1,30_issda_300,300,rng-300,211,rng,num-start-3001,3001,25726,72.04777073860168,True,,True,1,False,1000,True,1.0
./expes/v2_2020-12-02_dh_300-prng-1,30_issda_300,300,rng-300,151,rng,num-start-12001,12001,25726,323.010290145874,True,,True,1,False,1000,True,1.0
./expes/v2_2020-12-02_dh_300-prng-1,30_issda_300,300,rng-300,261,rng,num-start-1001,1001,25726,22.979555130004883,True,,True,1,False,1000,True,1.0
./expes/v2_2020-12-02_dh_300-prng-1,30_issda_300,300,rng-300,81,rng,num-start-4001,4001,25726,101.54603958129883,True,,True,1,False,1000,True,1.0
./expes/v2_2020-12-02_dh_300-prng-1,30_issda_300,300,rng-300,231,rng,num-start-16001,16001,25726,371.76718616485596,True,,True,1,False,1000,True,1.0
./expes/v2_2020-12-02_dh_300-prng-1,30_issda_300,300,rng-300,51,rng,num-start-10001,10001,25726,233.13204908370972,True,,True,1,False,1000,True,1.0
./expes/v2_2020-12-02_dh_300-prng-1,30_issda_300,300,rng-300,71,rng,num-start-3001,3001,25726,77.80300092697144,True,,True,1,False,1000,True,1.0
./expes/v2_2020-12-02_dh_300-prng-1,30_issda_300,300,rng-300,111,rng,num-start-12001,12001,25726,346.95500135421753,True,,True,1,False,1000,True,1.0
./expes/v2_2020-12-02_dh_300-prng-1,30_issda_300,300,rng-300,181,rng,num-start-14001,14001,25726,448.3949661254883,True,,True,1,False,1000,True,1.0
./expes/v2_2020-12-02_dh_300-prng-1,30_issda_300,300,rng-300,71,rng,num-start-8001,8001,25726,192.95002722740173,True,,True,1,False,1000,True,1.0
./expes/v2_2020-12-02_dh_300-prng-1,30_issda_300,300,rng-300,271,rng,num-start-16001,16001,25726,338.9819447994232,True,,True,1,False,1000,True,1.0
./expes/v2_2020-12-02_dh_300-prng-1,30_issda_300,300,rng-300,121,rng,num-start-4001,4001,25726,88.09531497955322,True,,True,1,False,1000,True,1.0
./expes/v2_2020-12-02_dh_300-prng-1,30_issda_300,300,rng-300,231,rng,num-start-5001,5001,25726,114.12437438964844,True,,True,1,False,1000,True,1.0
./expes/v2_2020-12-02_dh_300-prng-1,30_issda_300,300,rng-300,91,rng,num-start-3001,3001,25726,75.55926179885864,True,,True,1,False,1000,True,1.0
./expes/v2_2020-12-02_dh_300-prng-1,30_issda_300,300,rng-300,221,rng,num-start-11001,11001,25726,248.00464487075806,True,,True,1,False,1000,True,1.0
./expes/v2_2020-12-02_dh_300-prng-1,30_issda_300,300,rng-300,211,rng,num-start-16001,16001,25726,491.43913316726685,True,,True,1,False,1000,True,1.0
./expes/v2_2020-12-02_dh_300-prng-1,30_issda_300,300,rng-300,41,rng,num-start-1,1,25726,0.24065566062927246,False,,False,2,False,1000,True,1.0
./expes/v2_2020-12-02_dh_300-prng-1,30_issda_300,300,rng-300,251,rng,num-start-5001,5001,25726,111.26066756248474,True,,True,1,False,1000,True,1.0
./expes/v2_2020-12-02_dh_300-prng-1,30_issda_300,300,rng-300,101,rng,num-start-16001,16001,25726,472.33012771606445,True,,True,1,False,1000,True,1.0
./expes/v2_2020-12-02_dh_300-prng-1,30_issda_300,300,rng-300,61,rng,num-start-10001,10001,25726,202.49443078041077,True,,True,1,False,1000,True,1.0
./expes/v2_2020-12-02_dh_300-prng-1,30_issda_300,300,rng-300,141,rng,num-start-1001,1001,25726,21.21103072166443,True,,True,1,False,1000,True,1.0
./expes/v2_2020-12-02_dh_300-prng-1,30_issda_300,300,rng-300,171,rng,num-start-8001,8001,25726,191.74816942214966,True,,True,1,False,1000,True,1.0
./expes/v2_2020-12-02_dh_300-prng-1,30_issda_300,300,rng-300,101,rng,num-start-9001,9001,25726,222.40505051612854,True,,True,1,False,1000,True,1.0
./expes/v2_2020-12-02_dh_300-prng-1,30_issda_300,300,rng-300,21,rng,num-start-3001,3001,25726,41.52818179130554,True,,True,1,False,1000,True,1.0
./expes/v2_2020-12-02_dh_300-prng-1,30_issda_300,300,rng-300,161,rng,num-start-10001,10001,25726,265.522846698761,True,,True,1,False,1000,True,1.0
./expes/v2_2020-12-02_dh_300-prng-1,30_issda_300,300,rng-300,231,rng,num-start-10001,10001,25726,305.5179841518402,True,,True,1,False,1000,True,1.0
./expes/v2_2020-12-02_dh_300-prng-1,30_issda_300,300,rng-300,231,rng,num-start-10001,10001,25726,250.7310733795166,True,,True,1,False,1000,True,1.0
./expes/v2_2020-12-02_dh_300-prng-1,30_issda_300,300,rng-300,141,rng,num-start-12001,12001,25726,242.30459141731262,True,,True,1,False,1000,True,1.0
./expes/v2_2020-12-02_dh_300-prng-1,30_issda_300,300,rng-300,201,rng,num-start-12001,12001,25726,274.6794412136078,True,,True,1,False,1000,True,1.0
./expes/v2_2020-12-02_dh_300-prng-1,30_issda_300,300,rng-300,171,rng,num-start-2001,2001,25726,42.69108724594116,True,,True,1,False,1000,True,1.0
./expes/v2_2020-12-02_dh_300-prng-1,30_issda_300,300,rng-300,141,rng,num-start-8001,8001,25726,196.5854618549347,True,,True,1,False,1000,True,1.0
./expes/v2_2020-12-02_dh_300-prng-1,30_issda_300,300,rng-300,1,rng,num-start-4001,4001,25726,55.83558893203735,True,,True,1,False,1000,True,1.0
./expes/v2_2020-12-02_dh_300-prng-1,30_issda_300,300,rng-300,241,rng,num-start-3001,3001,25726,49.88320326805115,True,,True,1,False,1000,True,1.0
./expes/v2_2020-12-02_dh_300-prng-1,30_issda_300,300,rng-300,251,rng,num-start-3001,3001,25726,55.91515851020813,True,,True,1,False,1000,True,1.0
./expes/v2_2020-12-02_dh_300-prng-1,30_issda_300,300,rng-300,121,rng,num-start-7001,7001,25726,175.10516095161438,True,,True,1,False,1000,True,1.0
./expes/v2_2020-12-02_dh_300-prng-1,30_issda_300,300,rng-300,51,rng,num-start-12001,12001,25726,282.3298354148865,True,,True,1,False,1000,True,1.0
./expes/v2_2020-12-02_dh_300-prng-1,30_issda_300,300,rng-300,171,rng,num-start-16001,16001,25726,358.947313785553,True,,True,1,False,1000,True,1.0
./expes/v2_2020-12-02_dh_300-prng-1,30_issda_300,300,rng-300,241,rng,num-start-1,1,25726,0.0704505443572998,False,,False,2,False,1000,True,1.0
./expes/v2_2020-12-02_dh_300-prng-1,30_issda_300,300,rng-300,141,rng,num-start-1001,1001,25726,21.910651206970215,True,,True,1,False,1000,True,1.0
./expes/v2_2020-12-02_dh_300-prng-1,30_issda_300,300,rng-300,181,rng,num-start-11001,11001,25726,289.62423038482666,True,,True,1,False,1000,True,1.0
./expes/v2_2020-12-02_dh_300-prng-1,30_issda_300,300,rng-300,91,rng,num-start-16001,16001,25726,356.57653999328613,True,,True,1,False,1000,True,1.0
./expes/v2_2020-12-02_dh_300-prng-1,30_issda_300,300,rng-300,1,rng,num-start-3001,3001,25726,39.549235582351685,True,,True,1,False,1000,True,1.0
./expes/v2_2020-12-02_dh_300-prng-1,30_issda_300,300,rng-300,141,rng,num-start-5001,5001,25726,113.35814142227173,True,,True,1,False,1000,True,1.0
./expes/v2_2020-12-02_dh_300-prng-1,30_issda_300,300,rng-300,121,rng,num-start-16001,16001,25726,390.61237502098083,True,,True,1,False,1000,True,1.0
./expes/v2_2020-12-02_dh_300-prng-1,30_issda_300,300,rng-300,81,rng,num-start-6001,6001,25726,122.64068698883057,True,,True,1,False,1000,True,1.0
./expes/v2_2020-12-02_dh_300-prng-1,30_issda_300,300,rng-300,81,rng,num-start-10001,10001,25726,229.94427824020386,True,,True,1,False,1000,True,1.0
./expes/v2_2020-12-02_dh_300-prng-1,30_issda_300,300,rng-300,231,rng,num-start-13001,13001,25726,317.1189601421356,True,,True,1,False,1000,True,1.0
./expes/v2_2020-12-02_dh_300-prng-1,30_issda_300,300,rng-300,241,rng,num-start-9001,9001,25726,268.2986752986908,True,,True,1,False,1000,True,1.0
./expes/v2_2020-12-02_dh_300-prng-1,30_issda_300,300,rng-300,261,rng,num-start-1001,1001,25726,17.48214292526245,True,,True,1,False,1000,True,1.0
./expes/v2_2020-12-02_dh_300-prng-1,30_issda_300,300,rng-300,111,rng,num-start-3001,3001,25726,63.79714393615723,True,,True,1,False,1000,True,1.0
./expes/v2_2020-12-02_dh_300-prng-1,30_issda_300,300,rng-300,31,rng,num-start-15001,15001,25726,302.7076807022095,True,,True,1,False,1000,True,1.0
./expes/v2_2020-12-02_dh_300-prng-1,30_issda_300,300,rng-300,21,rng,num-start-13001,13001,25726,220.87291145324707,True,,True,1,False,1000,True,1.0
./expes/v2_2020-12-02_dh_300-prng-1,30_issda_300,300,rng-300,241,rng,num-start-16001,16001,25726,319.4517025947571,True,,True,1,False,1000,True,1.0
./expes/v2_2020-12-02_dh_300-prng-1,30_issda_300,300,rng-300,141,rng,num-start-8001,8001,25726,198.6662335395813,True,,True,1,False,1000,True,1.0
./expes/v2_2020-12-02_dh_300-prng-1,30_issda_300,300,rng-300,101,rng,num-start-14001,14001,25726,346.1404755115509,True,,True,1,False,1000,True,1.0
./expes/v2_2020-12-02_dh_300-prng-1,30_issda_300,300,rng-300,71,rng,num-start-7001,7001,25726,119.74391436576843,True,,True,1,False,1000,True,1.0
./expes/v2_2020-12-02_dh_300-prng-1,30_issda_300,300,rng-300,241,rng,num-start-11001,11001,25726,194.90318703651428,True,,True,1,False,1000,True,1.0
./expes/v2_2020-12-02_dh_300-prng-1,30_issda_300,300,rng-300,91,rng,num-start-13001,13001,25726,277.3621115684509,True,,True,1,False,1000,True,1.0
./expes/v2_2020-12-02_dh_300-prng-1,30_issda_300,300,rng-300,281,rng,num-start-8001,8001,25726,132.75848150253296,True,,True,1,False,1000,True,1.0
./expes/v2_2020-12-02_dh_300-prng-1,30_issda_300,300,rng-300,121,rng,num-start-6001,6001,25726,196.10512256622314,True,,True,1,False,1000,True,1.0
./expes/v2_2020-12-02_dh_300-prng-1,30_issda_300,300,rng-300,11,rng,num-start-9001,9001,25726,143.42224597930908,True,,True,1,False,1000,True,1.0
./expes/v2_2020-12-02_dh_300-prng-1,30_issda_300,300,rng-300,131,rng,num-start-3001,3001,25726,61.25114679336548,True,,True,1,False,1000,True,1.0
./expes/v2_2020-12-02_dh_300-prng-1,30_issda_300,300,rng-300,261,rng,num-start-15001,15001,25726,478.42725014686584,True,,True,1,False,1000,True,1.0
./expes/v2_2020-12-02_dh_300-prng-1,30_issda_300,300,rng-300,211,rng,num-start-3001,3001,25726,70.80932688713074,True,,True,1,False,1000,True,1.0
./expes/v2_2020-12-02_dh_300-prng-1,30_issda_300,300,rng-300,31,rng,num-start-16001,16001,25726,297.69957399368286,True,,True,1,False,1000,True,1.0
./expes/v2_2020-12-02_dh_300-prng-1,30_issda_300,300,rng-300,1,rng,num-start-6001,6001,25726,88.05725359916687,True,,True,1,False,1000,True,1.0
./expes/v2_2020-12-02_dh_300-prng-1,30_issda_300,300,rng-300,21,rng,num-start-5001,5001,25726,98.77648305892944,True,,True,1,False,1000,True,1.0
./expes/v2_2020-12-02_dh_300-prng-1,30_issda_300,300,rng-300,131,rng,num-start-5001,5001,25726,128.60363841056824,True,,True,1,False,1000,True,1.0
./expes/v2_2020-12-02_dh_300-prng-1,30_issda_300,300,rng-300,281,rng,num-start-3001,3001,25726,51.151001930236816,True,,True,1,False,1000,True,1.0
./expes/v2_2020-12-02_dh_300-prng-1,30_issda_300,300,rng-300,1,rng,num-start-12001,12001,25726,165.130774974823,True,,True,1,False,1000,True,1.0
./expes/v2_2020-12-02_dh_300-prng-1,30_issda_300,300,rng-300,171,rng,num-start-10001,10001,25726,277.31340408325195,True,,True,1,False,1000,True,1.0
./expes/v2_2020-12-02_dh_300-prng-1,30_issda_300,300,rng-300,271,rng,num-start-1,1,25726,0.07647919654846191,False,,False,2,False,1000,True,1.0
./expes/v2_2020-12-02_dh_300-prng-1,30_issda_300,300,rng-300,221,rng,num-start-13001,13001,25726,233.50047993659973,True,,True,1,False,1000,True,1.0
./expes/v2_2020-12-02_dh_300-prng-1,30_issda_300,300,rng-300,151,rng,num-start-2001,2001,25726,42.698737382888794,True,,True,1,False,1000,True,1.0
./expes/v2_2020-12-02_dh_300-prng-1,30_issda_300,300,rng-300,181,rng,num-start-1,1,25726,0.061370134353637695,False,,False,2,False,1000,True,1.0
./expes/v2_2020-12-02_dh_300-prng-1,30_issda_300,300,rng-300,51,rng,num-start-7001,7001,25726,154.53951382637024,True,,True,1,False,1000,True,1.0
./expes/v2_2020-12-02_dh_300-prng-1,30_issda_300,300,rng-300,81,rng,num-start-6001,6001,25726,126.33031344413757,True,,True,1,False,1000,True,1.0
./expes/v2_2020-12-02_dh_300-prng-1,30_issda_300,300,rng-300,281,rng,num-start-6001,6001,25726,112.28536319732666,True,,True,1,False,1000,True,1.0
./expes/v2_2020-12-02_dh_300-prng-1,30_issda_300,300,rng-300,131,rng,num-start-1,1,25726,0.04258155822753906,False,,False,2,False,1000,True,1.0
./expes/v2_2020-12-02_dh_300-prng-1,30_issda_300,300,rng-300,251,rng,num-start-2001,2001,25726,40.00299286842346,True,,True,1,False,1000,True,1.0
./expes/v2_2020-12-02_dh_300-prng-1,30_issda_300,300,rng-300,1,rng,num-start-2001,2001,25726,27.056681871414185,True,,True,1,False,1000,True,1.0
./expes/v2_2020-12-02_dh_300-prng-1,30_issda_300,300,rng-300,201,rng,num-start-1001,1001,25726,21.13183832168579,True,,True,1,False,1000,True,1.0
./expes/v2_2020-12-02_dh_300-prng-1,30_issda_300,300,rng-300,291,rng,num-start-5001,5001,25726,71.6000587940216,True,,True,1,False,1000,True,1.0
./expes/v2_2020-12-02_dh_300-prng-1,30_issda_300,300,rng-300,171,rng,num-start-13001,13001,25726,313.955687046051,True,,True,1,False,1000,True,1.0
./expes/v2_2020-12-02_dh_300-prng-1,30_issda_300,300,rng-300,91,rng,num-start-12001,12001,25726,311.1479344367981,True,,True,1,False,1000,True,1.0
./expes/v2_2020-12-02_dh_300-prng-1,30_issda_300,300,rng-300,81,rng,num-start-7001,7001,25726,174.95232725143433,True,,True,1,False,1000,True,1.0
./expes/v2_2020-12-02_dh_300-prng-1,30_issda_300,300,rng-300,291,rng,num-start-11001,11001,25726,150.8048768043518,True,,True,1,False,1000,True,1.0
./expes/v2_2020-12-02_dh_300-prng-1,30_issda_300,300,rng-300,41,rng,num-start-13001,13001,25726,240.26239156723022,True,,True,1,False,1000,True,1.0
./expes/v2_2020-12-02_dh_300-prng-1,30_issda_300,300,rng-300,251,rng,num-start-5001,5001,25726,100.25038981437683,True,,True,1,False,1000,True,1.0
./expes/v2_2020-12-02_dh_300-prng-1,30_issda_300,300,rng-300,271,rng,num-start-4001,4001,25726,70.95117807388306,True,,True,1,False,1000,True,1.0
./expes/v2_2020-12-02_dh_300-prng-1,30_issda_300,300,rng-300,61,rng,num-start-13001,13001,25726,263.13217544555664,True,,True,1,False,1000,True,1.0
./expes/v2_2020-12-02_dh_300-prng-1,30_issda_300,300,rng-300,131,rng,num-start-5001,5001,25726,109.21320676803589,True,,True,1,False,1000,True,1.0
./expes/v2_2020-12-02_dh_300-prng-1,30_issda_300,300,rng-300,61,rng,num-start-15001,15001,25726,297.3878107070923,True,,True,1,False,1000,True,1.0
./expes/v2_2020-12-02_dh_300-prng-1,30_issda_300,300,rng-300,171,rng,num-start-1001,1001,25726,23.29779887199402,True,,True,1,False,1000,True,1.0
./expes/v2_2020-12-02_dh_300-prng-1,30_issda_300,300,rng-300,31,rng,num-start-9001,9001,25726,157.9975974559784,True,,True,1,False,1000,True,1.0
./expes/v2_2020-12-02_dh_300-prng-1,30_issda_300,300,rng-300,41,rng,num-start-4001,4001,25726,97.66259598731995,True,,True,1,False,1000,True,1.0
./expes/v2_2020-12-02_dh_300-prng-1,30_issda_300,300,rng-300,231,rng,num-start-5001,5001,25726,110.18247818946838,True,,True,1,False,1000,True,1.0
./expes/v2_2020-12-02_dh_300-prng-1,30_issda_300,300,rng-300,121,rng,num-start-5001,5001,25726,125.87239503860474,True,,True,1,False,1000,True,1.0
./expes/v2_2020-12-02_dh_300-prng-1,30_issda_300,300,rng-300,201,rng,num-start-3001,3001,25726,56.85136294364929,True,,True,1,False,1000,True,1.0
./expes/v2_2020-12-02_dh_300-prng-1,30_issda_300,300,rng-300,261,rng,num-start-2001,2001,25726,35.894010066986084,True,,True,1,False,1000,True,1.0
./expes/v2_2020-12-02_dh_300-prng-1,30_issda_300,300,rng-300,61,rng,num-start-1,1,25726,0.05053210258483887,False,,False,2,False,1000,True,1.0
./expes/v2_2020-12-02_dh_300-prng-1,30_issda_300,300,rng-300,61,rng,num-start-15001,15001,25726,325.2282803058624,True,,True,1,False,1000,True,1.0
./expes/v2_2020-12-02_dh_300-prng-1,30_issda_300,300,rng-300,41,rng,num-start-11001,11001,25726,216.5960590839386,True,,True,1,False,1000,True,1.0
./expes/v2_2020-12-02_dh_300-prng-1,30_issda_300,300,rng-300,21,rng,num-start-2001,2001,25726,37.66549873352051,True,,True,1,False,1000,True,1.0
./expes/v2_2020-12-02_dh_300-prng-1,30_issda_300,300,rng-300,61,rng,num-start-13001,13001,25726,288.0193073749542,True,,True,1,False,1000,True,1.0
./expes/v2_2020-12-02_dh_300-prng-1,30_issda_300,300,rng-300,281,rng,num-start-15001,15001,25726,274.4426283836365,True,,True,1,False,1000,True,1.0
./expes/v2_2020-12-02_dh_300-prng-1,30_issda_300,300,rng-300,191,rng,num-start-3001,3001,25726,62.32046294212341,True,,True,1,False,1000,True,1.0
./expes/v2_2020-12-02_dh_300-prng-1,30_issda_300,300,rng-300,121,rng,num-start-7001,7001,25726,144.05891227722168,True,,True,1,False,1000,True,1.0
./expes/v2_2020-12-02_dh_300-prng-1,30_issda_300,300,rng-300,1,rng,num-start-8001,8001,25726,109.10083746910095,True,,True,1,False,1000,True,1.0
./expes/v2_2020-12-02_dh_300-prng-1,30_issda_300,300,rng-300,141,rng,num-start-14001,14001,25726,334.62210059165955,True,,True,1,False,1000,True,1.0
./expes/v2_2020-12-02_dh_300-prng-1,30_issda_300,300,rng-300,41,rng,num-start-14001,14001,25726,269.0596344470978,True,,True,1,False,1000,True,1.0
./expes/v2_2020-12-02_dh_300-prng-1,30_issda_300,300,rng-300,111,rng,num-start-3001,3001,25726,58.4354248046875,True,,True,1,False,1000,True,1.0
./expes/v2_2020-12-02_dh_300-prng-1,30_issda_300,300,rng-300,211,rng,num-start-7001,7001,25726,174.9836232662201,True,,True,1,False,1000,True,1.0
./expes/v2_2020-12-02_dh_300-prng-1,30_issda_300,300,rng-300,11,rng,num-start-6001,6001,25726,91.45906329154968,True,,True,1,False,1000,True,1.0
./expes/v2_2020-12-02_dh_300-prng-1,30_issda_300,300,rng-300,121,rng,num-start-5001,5001,25726,92.40342164039612,True,,True,1,False,1000,True,1.0
./expes/v2_2020-12-02_dh_300-prng-1,30_issda_300,300,rng-300,161,rng,num-start-8001,8001,25726,150.81521439552307,True,,True,1,False,1000,True,1.0
./expes/v2_2020-12-02_dh_300-prng-1,30_issda_300,300,rng-300,31,rng,num-start-3001,3001,25726,58.66157031059265,True,,True,1,False,1000,True,1.0
./expes/v2_2020-12-02_dh_300-prng-1,30_issda_300,300,rng-300,221,rng,num-start-6001,6001,25726,135.82992339134216,True,,True,1,False,1000,True,1.0
./expes/v2_2020-12-02_dh_300-prng-1,30_issda_300,300,rng-300,251,rng,num-start-1001,1001,25726,17.9024338722229,True,,True,1,False,1000,True,1.0
./expes/v2_2020-12-02_dh_300-prng-1,30_issda_300,300,rng-300,171,rng,num-start-11001,11001,25726,251.41637516021729,True,,True,1,False,1000,True,1.0
./expes/v2_2020-12-02_dh_300-prng-1,30_issda_300,300,rng-300,161,rng,num-start-14001,14001,25726,341.1878614425659,True,,True,1,False,1000,True,1.0
./expes/v2_2020-12-02_dh_300-prng-1,30_issda_300,300,rng-300,271,rng,num-start-5001,5001,25726,138.8683876991272,True,,True,1,False,1000,True,1.0
./expes/v2_2020-12-02_dh_300-prng-1,30_issda_300,300,rng-300,101,rng,num-start-16001,16001,25726,386.5976593494415,True,,True,1,False,1000,True,1.0
./expes/v2_2020-12-02_dh_300-prng-1,30_issda_300,300,rng-300,221,rng,num-start-13001,13001,25726,319.6753673553467,True,,True,1,False,1000,True,1.0
./expes/v2_2020-12-02_dh_300-prng-1,30_issda_300,300,rng-300,91,rng,num-start-1001,1001,25726,21.339374780654907,True,,True,1,False,1000,True,1.0
./expes/v2_2020-12-02_dh_300-prng-1,30_issda_300,300,rng-300,111,rng,num-start-15001,15001,25726,386.2826826572418,True,,True,1,False,1000,True,1.0
./expes/v2_2020-12-02_dh_300-prng-1,30_issda_300,300,rng-300,61,rng,num-start-3001,3001,25726,52.46957516670227,True,,True,1,False,1000,True,1.0
./expes/v2_2020-12-02_dh_300-prng-1,30_issda_300,300,rng-300,231,rng,num-start-1,1,25726,0.12377095222473145,False,,False,2,False,1000,True,1.0
./expes/v2_2020-12-02_dh_300-prng-1,30_issda_300,300,rng-300,71,rng,num-start-6001,6001,25726,165.24656629562378,True,,True,1,False,1000,True,1.0
./expes/v2_2020-12-02_dh_300-prng-1,30_issda_300,300,rng-300,151,rng,num-start-8001,8001,25726,201.2374861240387,True,,True,1,False,1000,True,1.0
./expes/v2_2020-12-02_dh_300-prng-1,30_issda_300,300,rng-300,231,rng,num-start-3001,3001,25726,63.137614250183105,True,,True,1,False,1000,True,1.0
./expes/v2_2020-12-02_dh_300-prng-1,30_issda_300,300,rng-300,31,rng,num-start-11001,11001,25726,227.10008025169373,True,,True,1,False,1000,True,1.0
./expes/v2_2020-12-02_dh_300-prng-1,30_issda_300,300,rng-300,131,rng,num-start-8001,8001,25726,204.9710774421692,True,,True,1,False,1000,True,1.0
./expes/v2_2020-12-02_dh_300-prng-1,30_issda_300,300,rng-300,271,rng,num-start-13001,13001,25726,228.20124292373657,True,,True,1,False,1000,True,1.0
./expes/v2_2020-12-02_dh_300-prng-1,30_issda_300,300,rng-300,101,rng,num-start-16001,16001,25726,470.03540301322937,True,,True,1,False,1000,True,1.0
./expes/v2_2020-12-02_dh_300-prng-1,30_issda_300,300,rng-300,131,rng,num-start-5001,5001,25726,95.24907040596008,True,,True,1,False,1000,True,1.0
./expes/v2_2020-12-02_dh_300-prng-1,30_issda_300,300,rng-300,141,rng,num-start-8001,8001,25726,124.69719743728638,True,,True,1,False,1000,True,1.0
./expes/v2_2020-12-02_dh_300-prng-1,30_issda_300,300,rng-300,71,rng,num-start-9001,9001,25726,200.5460081100464,True,,True,1,False,1000,True,1.0
./expes/v2_2020-12-02_dh_300-prng-1,30_issda_300,300,rng-300,121,rng,num-start-4001,4001,25726,85.0856237411499,True,,True,1,False,1000,True,1.0
./expes/v2_2020-12-02_dh_300-prng-1,30_issda_300,300,rng-300,191,rng,num-start-1,1,25726,0.05889296531677246,False,,False,2,False,1000,True,1.0
./expes/v2_2020-12-02_dh_300-prng-1,30_issda_300,300,rng-300,51,rng,num-start-3001,3001,25726,63.383410930633545,True,,True,1,False,1000,True,1.0
./expes/v2_2020-12-02_dh_300-prng-1,30_issda_300,300,rng-300,101,rng,num-start-7001,7001,25726,172.01326966285706,True,,True,1,False,1000,True,1.0
./expes/v2_2020-12-02_dh_300-prng-1,30_issda_300,300,rng-300,171,rng,num-start-15001,15001,25726,282.0378270149231,True,,True,1,False,1000,True,1.0
./expes/v2_2020-12-02_dh_300-prng-1,30_issda_300,300,rng-300,21,rng,num-start-3001,3001,25726,76.6227171421051,True,,True,1,False,1000,True,1.0
./expes/v2_2020-12-02_dh_300-prng-1,30_issda_300,300,rng-300,71,rng,num-start-11001,11001,25726,207.25788283348083,True,,True,1,False,1000,True,1.0
./expes/v2_2020-12-02_dh_300-prng-1,30_issda_300,300,rng-300,191,rng,num-start-15001,15001,25726,365.8893189430237,True,,True,1,False,1000,True,1.0
./expes/v2_2020-12-02_dh_300-prng-1,30_issda_300,300,rng-300,281,rng,num-start-14001,14001,25726,220.5081160068512,True,,True,1,False,1000,True,1.0
./expes/v2_2020-12-02_dh_300-prng-1,30_issda_300,300,rng-300,251,rng,num-start-9001,9001,25726,175.67579793930054,True,,True,1,False,1000,True,1.0
./expes/v2_2020-12-02_dh_300-prng-1,30_issda_300,300,rng-300,161,rng,num-start-13001,13001,25726,225.4234220981598,True,,True,1,False,1000,True,1.0
./expes/v2_2020-12-02_dh_300-prng-1,30_issda_300,300,rng-300,21,rng,num-start-6001,6001,25726,104.64573574066162,True,,True,1,False,1000,True,1.0
./expes/v2_2020-12-02_dh_300-prng-1,30_issda_300,300,rng-300,191,rng,num-start-13001,13001,25726,296.2093060016632,True,,True,1,False,1000,True,1.0
./expes/v2_2020-12-02_dh_300-prng-1,30_issda_300,300,rng-300,81,rng,num-start-5001,5001,25726,101.12399983406067,True,,True,1,False,1000,True,1.0
./expes/v2_2020-12-02_dh_300-prng-1,30_issda_300,300,rng-300,31,rng,num-start-13001,13001,25726,230.05567622184753,True,,True,1,False,1000,True,1.0
./expes/v2_2020-12-02_dh_300-prng-1,30_issda_300,300,rng-300,211,rng,num-start-14001,14001,25726,331.254278421402,True,,True,1,False,1000,True,1.0
./expes/v2_2020-12-02_dh_300-prng-1,30_issda_300,300,rng-300,121,rng,num-start-5001,5001,25726,108.85667681694031,True,,True,1,False,1000,True,1.0
./expes/v2_2020-12-02_dh_300-prng-1,30_issda_300,300,rng-300,291,rng,num-start-11001,11001,25726,149.38368439674377,True,,True,1,False,1000,True,1.0
./expes/v2_2020-12-02_dh_300-prng-1,30_issda_300,300,rng-300,201,rng,num-start-5001,5001,25726,122.09104609489441,True,,True,1,False,1000,True,1.0
./expes/v2_2020-12-02_dh_300-prng-1,30_issda_300,300,rng-300,271,rng,num-start-9001,9001,25726,223.22807359695435,True,,True,1,False,1000,True,1.0
./expes/v2_2020-12-02_dh_300-prng-1,30_issda_300,300,rng-300,171,rng,num-start-14001,14001,25726,312.66685819625854,True,,True,1,False,1000,True,1.0
./expes/v2_2020-12-02_dh_300-prng-1,30_issda_300,300,rng-300,121,rng,num-start-9001,9001,25726,172.38687586784363,True,,True,1,False,1000,True,1.0
./expes/v2_2020-12-02_dh_300-prng-1,30_issda_300,300,rng-300,31,rng,num-start-16001,16001,25726,278.47365379333496,True,,True,1,False,1000,True,1.0
./expes/v2_2020-12-02_dh_300-prng-1,30_issda_300,300,rng-300,221,rng,num-start-16001,16001,25726,304.1778118610382,True,,True,1,False,1000,True,1.0
./expes/v2_2020-12-02_dh_300-prng-1,30_issda_300,300,rng-300,281,rng,num-start-4001,4001,25726,80.61263918876648,True,,True,1,False,1000,True,1.0
./expes/v2_2020-12-02_dh_300-prng-1,30_issda_300,300,rng-300,211,rng,num-start-8001,8001,25726,138.18263721466064,True,,True,1,False,1000,True,1.0
./expes/v2_2020-12-02_dh_300-prng-1,30_issda_300,300,rng-300,201,rng,num-start-12001,12001,25726,242.26327681541443,True,,True,1,False,1000,True,1.0
./expes/v2_2020-12-02_dh_300-prng-1,30_issda_300,300,rng-300,21,rng,num-start-4001,4001,25726,58.421735525131226,True,,True,1,False,1000,True,1.0
./expes/v2_2020-12-02_dh_300-prng-1,30_issda_300,300,rng-300,191,rng,num-start-12001,12001,25726,316.008748292923,True,,True,1,False,1000,True,1.0
./expes/v2_2020-12-02_dh_300-prng-1,30_issda_300,300,rng-300,11,rng,num-start-3001,3001,25726,37.986602544784546,True,,True,1,False,1000,True,1.0
./expes/v2_2020-12-02_dh_300-prng-1,30_issda_300,300,rng-300,161,rng,num-start-10001,10001,25726,255.31389737129211,True,,True,1,False,1000,True,1.0
./expes/v2_2020-12-02_dh_300-prng-1,30_issda_300,300,rng-300,101,rng,num-start-13001,13001,25726,301.0789713859558,True,,True,1,False,1000,True,1.0
./expes/v2_2020-12-02_dh_300-prng-1,30_issda_300,300,rng-300,51,rng,num-start-12001,12001,25726,226.36381244659424,True,,True,1,False,1000,True,1.0
./expes/v2_2020-12-02_dh_300-prng-1,30_issda_300,300,rng-300,271,rng,num-start-1001,1001,25726,20.041017532348633,True,,True,1,False,1000,True,1.0
./expes/v2_2020-12-02_dh_300-prng-1,30_issda_300,300,rng-300,221,rng,num-start-4001,4001,25726,72.01072359085083,True,,True,1,False,1000,True,1.0
./expes/v2_2020-12-02_dh_300-prng-1,30_issda_300,300,rng-300,111,rng,num-start-3001,3001,25726,60.01630997657776,True,,True,1,False,1000,True,1.0
./expes/v2_2020-12-02_dh_300-prng-1,30_issda_300,300,rng-300,101,rng,num-start-1001,1001,25726,19.744662761688232,True,,True,1,False,1000,True,1.0
./expes/v2_2020-12-02_dh_300-prng-1,30_issda_300,300,rng-300,241,rng,num-start-10001,10001,25726,178.44333267211914,True,,True,1,False,1000,True,1.0
./expes/v2_2020-12-02_dh_300-prng-1,30_issda_300,300,rng-300,111,rng,num-start-7001,7001,25726,114.1392879486084,True,,True,1,False,1000,True,1.0
./expes/v2_2020-12-02_dh_300-prng-1,30_issda_300,300,rng-300,171,rng,num-start-9001,9001,25726,193.28929567337036,True,,True,1,False,1000,True,1.0
./expes/v2_2020-12-02_dh_300-prng-1,30_issda_300,300,rng-300,201,rng,num-start-9001,9001,25726,187.40525841712952,True,,True,1,False,1000,True,1.0
./expes/v2_2020-12-02_dh_300-prng-1,30_issda_300,300,rng-300,1,rng,num-start-15001,15001,25726,189.98346138000488,True,,True,1,False,1000,True,1.0
./expes/v2_2020-12-02_dh_300-prng-1,30_issda_300,300,rng-300,31,rng,num-start-5001,5001,25726,77.07202458381653,True,,True,1,False,1000,True,1.0
./expes/v2_2020-12-02_dh_300-prng-1,30_issda_300,300,rng-300,241,rng,num-start-3001,3001,25726,65.70852041244507,True,,True,1,False,1000,True,1.0
./expes/v2_2020-12-02_dh_300-prng-1,30_issda_300,300,rng-300,151,rng,num-start-10001,10001,25726,225.71167039871216,True,,True,1,False,1000,True,1.0
./expes/v2_2020-12-02_dh_300-prng-1,30_issda_300,300,rng-300,291,rng,num-start-6001,6001,25726,80.62079691886902,True,,True,1,False,1000,True,1.0
./expes/v2_2020-12-02_dh_300-prng-1,30_issda_300,300,rng-300,131,rng,num-start-4001,4001,25726,102.25173902511597,True,,True,1,False,1000,True,1.0
./expes/v2_2020-12-02_dh_300-prng-1,30_issda_300,300,rng-300,251,rng,num-start-10001,10001,25726,345.92078614234924,True,,True,1,False,1000,True,1.0
./expes/v2_2020-12-02_dh_300-prng-1,30_issda_300,300,rng-300,111,rng,num-start-15001,15001,25726,432.4315106868744,True,,True,1,False,1000,True,1.0
./expes/v2_2020-12-02_dh_300-prng-1,30_issda_300,300,rng-300,161,rng,num-start-9001,9001,25726,220.84988617897034,True,,True,1,False,1000,True,1.0
./expes/v2_2020-12-02_dh_300-prng-1,30_issda_300,300,rng-300,231,rng,num-start-1,1,25726,0.05035853385925293,False,,False,2,False,1000,True,1.0
./expes/v2_2020-12-02_dh_300-prng-1,30_issda_300,300,rng-300,71,rng,num-start-6001,6001,25726,105.83135080337524,True,,True,1,False,1000,True,1.0
./expes/v2_2020-12-02_dh_300-prng-1,30_issda_300,300,rng-300,211,rng,num-start-7001,7001,25726,160.90998601913452,True,,True,1,False,1000,True,1.0
./expes/v2_2020-12-02_dh_300-prng-1,30_issda_300,300,rng-300,231,rng,num-start-3001,3001,25726,46.12951183319092,True,,True,1,False,1000,True,1.0
./expes/v2_2020-12-02_dh_300-prng-1,30_issda_300,300,rng-300,181,rng,num-start-10001,10001,25726,326.82004022598267,True,,True,1,False,1000,True,1.0
./expes/v2_2020-12-02_dh_300-prng-1,30_issda_300,300,rng-300,161,rng,num-start-7001,7001,25726,138.39002084732056,True,,True,1,False,1000,True,1.0
./expes/v2_2020-12-02_dh_300-prng-1,30_issda_300,300,rng-300,271,rng,num-start-14001,14001,25726,357.170095205307,True,,True,1,False,1000,True,1.0
./expes/v2_2020-12-02_dh_300-prng-1,30_issda_300,300,rng-300,71,rng,num-start-10001,10001,25726,182.5836992263794,True,,True,1,False,1000,True,1.0
./expes/v2_2020-12-02_dh_300-prng-1,30_issda_300,300,rng-300,281,rng,num-start-11001,11001,25726,162.93198442459106,True,,True,1,False,1000,True,1.0
./expes/v2_2020-12-02_dh_300-prng-1,30_issda_300,300,rng-300,71,rng,num-start-16001,16001,25726,294.18192052841187,True,,True,1,False,1000,True,1.0
./expes/v2_2020-12-02_dh_300-prng-1,30_issda_300,300,rng-300,161,rng,num-start-5001,5001,25726,143.9497151374817,True,,True,1,False,1000,True,1.0
./expes/v2_2020-12-02_dh_300-prng-1,30_issda_300,300,rng-300,71,rng,num-start-10001,10001,25726,249.1699583530426,True,,True,1,False,1000,True,1.0
./expes/v2_2020-12-02_dh_300-prng-1,30_issda_300,300,rng-300,191,rng,num-start-14001,14001,25726,406.0984239578247,True,,True,1,False,1000,True,1.0
./expes/v2_2020-12-02_dh_300-prng-1,30_issda_300,300,rng-300,171,rng,num-start-12001,12001,25726,258.43140387535095,True,,True,1,False,1000,True,1.0
./expes/v2_2020-12-02_dh_300-prng-1,30_issda_300,300,rng-300,251,rng,num-start-1001,1001,25726,20.12671160697937,True,,True,1,False,1000,True,1.0
./expes/v2_2020-12-02_dh_300-prng-1,30_issda_300,300,rng-300,51,rng,num-start-5001,5001,25726,97.88885998725891,True,,True,1,False,1000,True,1.0
./expes/v2_2020-12-02_dh_300-prng-1,30_issda_300,300,rng-300,51,rng,num-start-1001,1001,25726,20.1460382938385,True,,True,1,False,1000,True,1.0
./expes/v2_2020-12-02_dh_300-prng-1,30_issda_300,300,rng-300,41,rng,num-start-1,1,25726,0.05980086326599121,False,,False,2,False,1000,True,1.0
./expes/v2_2020-12-02_dh_300-prng-1,30_issda_300,300,rng-300,101,rng,num-start-3001,3001,25726,62.751089334487915,True,,True,1,False,1000,True,1.0
./expes/v2_2020-12-02_dh_300-prng-1,30_issda_300,300,rng-300,61,rng,num-start-15001,15001,25726,296.27164936065674,True,,True,1,False,1000,True,1.0
./expes/v2_2020-12-02_dh_300-prng-1,30_issda_300,300,rng-300,241,rng,num-start-15001,15001,25726,346.76520824432373,True,,True,1,False,1000,True,1.0
./expes/v2_2020-12-02_dh_300-prng-1,30_issda_300,300,rng-300,271,rng,num-start-16001,16001,25726,294.1549611091614,True,,True,1,False,1000,True,1.0
./expes/v2_2020-12-02_dh_300-prng-1,30_issda_300,300,rng-300,71,rng,num-start-11001,11001,25726,342.47413992881775,True,,True,1,False,1000,True,1.0
./expes/v2_2020-12-02_dh_300-prng-1,30_issda_300,300,rng-300,221,rng,num-start-15001,15001,25726,451.1912670135498,True,,True,1,False,1000,True,1.0
./expes/v2_2020-12-02_dh_300-prng-1,30_issda_300,300,rng-300,291,rng,num-start-7001,7001,25726,100.61831665039062,True,,True,1,False,1000,True,1.0
./expes/v2_2020-12-02_dh_300-prng-1,30_issda_300,300,rng-300,81,rng,num-start-1001,1001,25726,20.531962871551514,True,,True,1,False,1000,True,1.0
./expes/v2_2020-12-02_dh_300-prng-1,30_issda_300,300,rng-300,171,rng,num-start-6001,6001,25726,127.76620507240295,True,,True,1,False,1000,True,1.0
./expes/v2_2020-12-02_dh_300-prng-1,30_issda_300,300,rng-300,141,rng,num-start-12001,12001,25726,362.2741074562073,True,,True,1,False,1000,True,1.0
./expes/v2_2020-12-02_dh_300-prng-1,30_issda_300,300,rng-300,21,rng,num-start-13001,13001,25726,216.48190832138062,True,,True,1,False,1000,True,1.0
./expes/v2_2020-12-02_dh_300-prng-1,30_issda_300,300,rng-300,161,rng,num-start-4001,4001,25726,83.16870450973511,True,,True,1,False,1000,True,1.0
./expes/v2_2020-12-02_dh_300-prng-1,30_issda_300,300,rng-300,171,rng,num-start-6001,6001,25726,119.08191800117493,True,,True,1,False,1000,True,1.0
./expes/v2_2020-12-02_dh_300-prng-1,30_issda_300,300,rng-300,261,rng,num-start-12001,12001,25726,220.62528729438782,True,,True,1,False,1000,True,1.0
./expes/v2_2020-12-02_dh_300-prng-1,30_issda_300,300,rng-300,181,rng,num-start-14001,14001,25726,429.08644247055054,True,,True,1,False,1000,True,1.0
./expes/v2_2020-12-02_dh_300-prng-1,30_issda_300,300,rng-300,131,rng,num-start-15001,15001,25726,326.5678913593292,True,,True,1,False,1000,True,1.0
./expes/v2_2020-12-02_dh_300-prng-1,30_issda_300,300,rng-300,231,rng,num-start-15001,15001,25726,296.00583386421204,True,,True,1,False,1000,True,1.0
./expes/v2_2020-12-02_dh_300-prng-1,30_issda_300,300,rng-300,111,rng,num-start-14001,14001,25726,332.26762342453003,True,,True,1,False,1000,True,1.0
./expes/v2_2020-12-02_dh_300-prng-1,30_issda_300,300,rng-300,51,rng,num-start-7001,7001,25726,119.95294046401978,True,,True,1,False,1000,True,1.0
./expes/v2_2020-12-02_dh_300-prng-1,30_issda_300,300,rng-300,201,rng,num-start-10001,10001,25726,268.5638704299927,True,,True,1,False,1000,True,1.0
./expes/v2_2020-12-02_dh_300-prng-1,30_issda_300,300,rng-300,291,rng,num-start-7001,7001,25726,86.28309893608093,True,,True,1,False,1000,True,1.0
./expes/v2_2020-12-02_dh_300-prng-1,30_issda_300,300,rng-300,51,rng,num-start-12001,12001,25726,239.6213777065277,True,,True,1,False,1000,True,1.0
./expes/v2_2020-12-02_dh_300-prng-1,30_issda_300,300,rng-300,181,rng,num-start-10001,10001,25726,245.24546456336975,True,,True,1,False,1000,True,1.0
./expes/v2_2020-12-02_dh_300-prng-1,30_issda_300,300,rng-300,121,rng,num-start-15001,15001,25726,492.31191182136536,True,,True,1,False,1000,True,1.0
./expes/v2_2020-12-02_dh_300-prng-1,30_issda_300,300,rng-300,1,rng,num-start-3001,3001,25726,36.66069531440735,True,,True,1,False,1000,True,1.0
./expes/v2_2020-12-02_dh_300-prng-1,30_issda_300,300,rng-300,41,rng,num-start-15001,15001,25726,292.46101927757263,True,,True,1,False,1000,True,1.0
./expes/v2_2020-12-02_dh_300-prng-1,30_issda_300,300,rng-300,161,rng,num-start-3001,3001,25726,74.6194634437561,True,,True,1,False,1000,True,1.0
./expes/v2_2020-12-02_dh_300-prng-1,30_issda_300,300,rng-300,151,rng,num-start-5001,5001,25726,122.40301156044006,True,,True,1,False,1000,True,1.0
./expes/v2_2020-12-02_dh_300-prng-1,30_issda_300,300,rng-300,291,rng,num-start-12001,12001,25726,162.69610714912415,True,,True,1,False,1000,True,1.0
./expes/v2_2020-12-02_dh_300-prng-1,30_issda_300,300,rng-300,201,rng,num-start-9001,9001,25726,212.3918628692627,True,,True,1,False,1000,True,1.0
./expes/v2_2020-12-02_dh_300-prng-1,30_issda_300,300,rng-300,281,rng,num-start-12001,12001,25726,176.6582317352295,True,,True,1,False,1000,True,1.0
./expes/v2_2020-12-02_dh_300-prng-1,30_issda_300,300,rng-300,201,rng,num-start-10001,10001,25726,231.42434668540955,True,,True,1,False,1000,True,1.0
./expes/v2_2020-12-02_dh_300-prng-1,30_issda_300,300,rng-300,141,rng,num-start-12001,12001,25726,254.0598487854004,True,,True,1,False,1000,True,1.0
./expes/v2_2020-12-02_dh_300-prng-1,30_issda_300,300,rng-300,291,rng,num-start-16001,16001,25726,219.91098594665527,True,,True,1,False,1000,True,1.0
./expes/v2_2020-12-02_dh_300-prng-1,30_issda_300,300,rng-300,221,rng,num-start-1001,1001,25726,19.144436836242676,True,,True,1,False,1000,True,1.0
./expes/v2_2020-12-02_dh_300-prng-1,30_issda_300,300,rng-300,201,rng,num-start-9001,9001,25726,243.8595893383026,True,,True,1,False,1000,True,1.0
./expes/v2_2020-12-02_dh_300-prng-1,30_issda_300,300,rng-300,261,rng,num-start-4001,4001,25726,80.88918042182922,True,,True,1,False,1000,True,1.0
./expes/v2_2020-12-02_dh_300-prng-1,30_issda_300,300,rng-300,71,rng,num-start-2001,2001,25726,50.050482511520386,True,,True,1,False,1000,True,1.0
./expes/v2_2020-12-02_dh_300-prng-1,30_issda_300,300,rng-300,71,rng,num-start-7001,7001,25726,154.1347942352295,True,,True,1,False,1000,True,1.0
./expes/v2_2020-12-02_dh_300-prng-1,30_issda_300,300,rng-300,241,rng,num-start-1001,1001,25726,18.77645444869995,True,,True,1,False,1000,True,1.0
./expes/v2_2020-12-02_dh_300-prng-1,30_issda_300,300,rng-300,171,rng,num-start-3001,3001,25726,63.13702154159546,True,,True,1,False,1000,True,1.0
./expes/v2_2020-12-02_dh_300-prng-1,30_issda_300,300,rng-300,11,rng,num-start-11001,11001,25726,153.43768119812012,True,,True,1,False,1000,True,1.0
./expes/v2_2020-12-02_dh_300-prng-1,30_issda_300,300,rng-300,261,rng,num-start-1001,1001,25726,17.690849781036377,True,,True,1,False,1000,True,1.0
./expes/v2_2020-12-02_dh_300-prng-1,30_issda_300,300,rng-300,71,rng,num-start-12001,12001,25726,199.5644850730896,True,,True,1,False,1000,True,1.0
./expes/v2_2020-12-02_dh_300-prng-1,30_issda_300,300,rng-300,111,rng,num-start-9001,9001,25726,192.50654363632202,True,,True,1,False,1000,True,1.0
./expes/v2_2020-12-02_dh_300-prng-1,30_issda_300,300,rng-300,171,rng,num-start-13001,13001,25726,269.5124661922455,True,,True,1,False,1000,True,1.0
./expes/v2_2020-12-02_dh_300-prng-1,30_issda_300,300,rng-300,221,rng,num-start-7001,7001,25726,160.64947128295898,True,,True,1,False,1000,True,1.0
./expes/v2_2020-12-02_dh_300-prng-1,30_issda_300,300,rng-300,251,rng,num-start-9001,9001,25726,174.2365996837616,True,,True,1,False,1000,True,1.0
./expes/v2_2020-12-02_dh_300-prng-1,30_issda_300,300,rng-300,261,rng,num-start-16001,16001,25726,321.8891055583954,True,,True,1,False,1000,True,1.0
./expes/v2_2020-12-02_dh_300-prng-1,30_issda_300,300,rng-300,191,rng,num-start-5001,5001,25726,89.39217376708984,True,,True,1,False,1000,True,1.0
./expes/v2_2020-12-02_dh_300-prng-1,30_issda_300,300,rng-300,111,rng,num-start-16001,16001,25726,430.6739501953125,True,,True,1,False,1000,True,1.0
./expes/v2_2020-12-02_dh_300-prng-1,30_issda_300,300,rng-300,281,rng,num-start-7001,7001,25726,121.68008637428284,True,,True,1,False,1000,True,1.0
./expes/v2_2020-12-02_dh_300-prng-1,30_issda_300,300,rng-300,21,rng,num-start-13001,13001,25726,270.06941533088684,True,,True,1,False,1000,True,1.0
./expes/v2_2020-12-02_dh_300-prng-1,30_issda_300,300,rng-300,251,rng,num-start-13001,13001,25726,301.3250319957733,True,,True,1,False,1000,True,1.0
./expes/v2_2020-12-02_dh_300-prng-1,30_issda_300,300,rng-300,41,rng,num-start-1001,1001,25726,17.927539110183716,True,,True,1,False,1000,True,1.0
./expes/v2_2020-12-02_dh_300-prng-1,30_issda_300,300,rng-300,271,rng,num-start-10001,10001,25726,217.84545946121216,True,,True,1,False,1000,True,1.0
./expes/v2_2020-12-02_dh_300-prng-1,30_issda_300,300,rng-300,281,rng,num-start-15001,15001,25726,285.13609051704407,True,,True,1,False,1000,True,1.0
./expes/v2_2020-12-02_dh_300-prng-1,30_issda_300,300,rng-300,251,rng,num-start-12001,12001,25726,248.96138286590576,True,,True,1,False,1000,True,1.0
./expes/v2_2020-12-02_dh_300-prng-1,30_issda_300,300,rng-300,31,rng,num-start-15001,15001,25726,267.9884777069092,True,,True,1,False,1000,True,1.0
./expes/v2_2020-12-02_dh_300-prng-1,30_issda_300,300,rng-300,211,rng,num-start-11001,11001,25726,299.9323732852936,True,,True,1,False,1000,True,1.0
./expes/v2_2020-12-02_dh_300-prng-1,30_issda_300,300,rng-300,51,rng,num-start-2001,2001,25726,41.791425943374634,True,,True,1,False,1000,True,1.0
./expes/v2_2020-12-02_dh_300-prng-1,30_issda_300,300,rng-300,131,rng,num-start-13001,13001,25726,339.3193597793579,True,,True,1,False,1000,True,1.0
./expes/v2_2020-12-02_dh_300-prng-1,30_issda_300,300,rng-300,201,rng,num-start-8001,8001,25726,173.85230541229248,True,,True,1,False,1000,True,1.0
./expes/v2_2020-12-02_dh_300-prng-1,30_issda_300,300,rng-300,281,rng,num-start-3001,3001,25726,78.30765962600708,True,,True,1,False,1000,True,1.0
./expes/v2_2020-12-02_dh_300-prng-1,30_issda_300,300,rng-300,291,rng,num-start-6001,6001,25726,80.09807419776917,True,,True,1,False,1000,True,1.0
./expes/v2_2020-12-02_dh_300-prng-1,30_issda_300,300,rng-300,11,rng,num-start-5001,5001,25726,65.4050841331482,True,,True,1,False,1000,True,1.0
./expes/v2_2020-12-02_dh_300-prng-1,30_issda_300,300,rng-300,261,rng,num-start-1,1,25726,0.06691622734069824,False,,False,2,False,1000,True,1.0
./expes/v2_2020-12-02_dh_300-prng-1,30_issda_300,300,rng-300,161,rng,num-start-13001,13001,25726,392.41702032089233,True,,True,1,False,1000,True,1.0
./expes/v2_2020-12-02_dh_300-prng-1,30_issda_300,300,rng-300,111,rng,num-start-5001,5001,25726,140.4357476234436,True,,True,1,False,1000,True,1.0
./expes/v2_2020-12-02_dh_300-prng-1,30_issda_300,300,rng-300,111,rng,num-start-5001,5001,25726,98.18326449394226,True,,True,1,False,1000,True,1.0
./expes/v2_2020-12-02_dh_300-prng-1,30_issda_300,300,rng-300,21,rng,num-start-7001,7001,25726,134.62000513076782,True,,True,1,False,1000,True,1.0
./expes/v2_2020-12-02_dh_300-prng-1,30_issda_300,300,rng-300,191,rng,num-start-7001,7001,25726,178.4980571269989,True,,True,1,False,1000,True,1.0
./expes/v2_2020-12-02_dh_300-prng-1,30_issda_300,300,rng-300,271,rng,num-start-13001,13001,25726,346.40619349479675,True,,True,1,False,1000,True,1.0
./expes/v2_2020-12-02_dh_300-prng-1,30_issda_300,300,rng-300,21,rng,num-start-8001,8001,25726,134.08927392959595,True,,True,1,False,1000,True,1.0
./expes/v2_2020-12-02_dh_300-prng-1,30_issda_300,300,rng-300,161,rng,num-start-1001,1001,25726,23.51943588256836,True,,True,1,False,1000,True,1.0
./expes/v2_2020-12-02_dh_300-prng-1,30_issda_300,300,rng-300,151,rng,num-start-9001,9001,25726,253.38652873039246,True,,True,1,False,1000,True,1.0
./expes/v2_2020-12-02_dh_300-prng-1,30_issda_300,300,rng-300,141,rng,num-start-10001,10001,25726,207.465069770813,True,,True,1,False,1000,True,1.0
./expes/v2_2020-12-02_dh_300-prng-1,30_issda_300,300,rng-300,231,rng,num-start-8001,8001,25726,190.16079664230347,True,,True,1,False,1000,True,1.0
./expes/v2_2020-12-02_dh_300-prng-1,30_issda_300,300,rng-300,291,rng,num-start-16001,16001,25726,218.65044784545898,True,,True,1,False,1000,True,1.0
./expes/v2_2020-12-02_dh_300-prng-1,30_issda_300,300,rng-300,111,rng,num-start-8001,8001,25726,210.747713804245,True,,True,1,False,1000,True,1.0
./expes/v2_2020-12-02_dh_300-prng-1,30_issda_300,300,rng-300,181,rng,num-start-4001,4001,25726,85.86208462715149,True,,True,1,False,1000,True,1.0
./expes/v2_2020-12-02_dh_300-prng-1,30_issda_300,300,rng-300,51,rng,num-start-1001,1001,25726,20.76967740058899,True,,True,1,False,1000,True,1.0
./expes/v2_2020-12-02_dh_300-prng-1,30_issda_300,300,rng-300,191,rng,num-start-2001,2001,25726,43.71907353401184,True,,True,1,False,1000,True,1.0
./expes/v2_2020-12-02_dh_300-prng-1,30_issda_300,300,rng-300,131,rng,num-start-15001,15001,25726,447.50162076950073,True,,True,1,False,1000,True,1.0
./expes/v2_2020-12-02_dh_300-prng-1,30_issda_300,300,rng-300,291,rng,num-start-13001,13001,25726,166.96254348754883,True,,True,1,False,1000,True,1.0
./expes/v2_2020-12-02_dh_300-prng-1,30_issda_300,300,rng-300,21,rng,num-start-1001,1001,25726,16.162593841552734,True,,True,1,False,1000,True,1.0
./expes/v2_2020-12-02_dh_300-prng-1,30_issda_300,300,rng-300,81,rng,num-start-1001,1001,25726,23.829145431518555,True,,True,1,False,1000,True,1.0
./expes/v2_2020-12-02_dh_300-prng-1,30_issda_300,300,rng-300,281,rng,num-start-15001,15001,25726,297.1765673160553,True,,True,1,False,1000,True,1.0
./expes/v2_2020-12-02_dh_300-prng-1,30_issda_300,300,rng-300,51,rng,num-start-9001,9001,25726,182.40699577331543,True,,True,1,False,1000,True,1.0
./expes/v2_2020-12-02_dh_300-prng-1,30_issda_300,300,rng-300,171,rng,num-start-14001,14001,25726,303.6504056453705,True,,True,1,False,1000,True,1.0
./expes/v2_2020-12-02_dh_300-prng-1,30_issda_300,300,rng-300,131,rng,num-start-9001,9001,25726,267.4446041584015,True,,True,1,False,1000,True,1.0
./expes/v2_2020-12-02_dh_300-prng-1,30_issda_300,300,rng-300,51,rng,num-start-13001,13001,25726,259.97081303596497,True,,True,1,False,1000,True,1.0
./expes/v2_2020-12-02_dh_300-prng-1,30_issda_300,300,rng-300,241,rng,num-start-8001,8001,25726,162.50576400756836,True,,True,1,False,1000,True,1.0
./expes/v2_2020-12-02_dh_300-prng-1,30_issda_300,300,rng-300,131,rng,num-start-12001,12001,25726,222.04686379432678,True,,True,1,False,1000,True,1.0
./expes/v2_2020-12-02_dh_300-prng-1,30_issda_300,300,rng-300,291,rng,num-start-13001,13001,25726,180.73569321632385,True,,True,1,False,1000,True,1.0
./expes/v2_2020-12-02_dh_300-prng-1,30_issda_300,300,rng-300,141,rng,num-start-5001,5001,25726,110.1098279953003,True,,True,1,False,1000,True,1.0
./expes/v2_2020-12-02_dh_300-prng-1,30_issda_300,300,rng-300,211,rng,num-start-5001,5001,25726,111.99402642250061,True,,True,1,False,1000,True,1.0
./expes/v2_2020-12-02_dh_300-prng-1,30_issda_300,300,rng-300,111,rng,num-start-1001,1001,25726,21.192810773849487,True,,True,1,False,1000,True,1.0
./expes/v2_2020-12-02_dh_300-prng-1,30_issda_300,300,rng-300,291,rng,num-start-16001,16001,25726,196.6951780319214,True,,True,1,False,1000,True,1.0
