expe,clients,clients_size,clients_subset,agg_size,method,days,days_size,days_total,time,valid,valid_sum,success,nsols,wall_hit,wall_time,pooled,valid_sums
./expes/v2_2020-12-02_dh_300-prng-1,30_issda_300,300,rng-300,231,rng,num-start-1,1,25726,0.17525601387023926,False,,False,2,False,1000,True,1.0
./expes/v2_2020-12-02_dh_300-prng-1,30_issda_300,300,rng-300,21,rng,num-start-4001,4001,25726,136.32062292099,True,,True,1,False,1000,True,1.0
./expes/v2_2020-12-02_dh_300-prng-1,30_issda_300,300,rng-300,41,rng,num-start-1001,1001,25726,36.408589124679565,True,,True,1,False,1000,True,1.0
./expes/v2_2020-12-02_dh_300-prng-1,30_issda_300,300,rng-300,211,rng,num-start-14001,14001,25726,539.067498922348,True,,True,1,False,1000,True,1.0
./expes/v2_2020-12-02_dh_300-prng-1,30_issda_300,300,rng-300,271,rng,num-start-5001,5001,25726,188.13409042358398,True,,True,1,False,1000,True,1.0
./expes/v2_2020-12-02_dh_300-prng-1,30_issda_300,300,rng-300,21,rng,num-start-1,1,25726,0.07430887222290039,False,,False,2,False,1000,True,1.0
./expes/v2_2020-12-02_dh_300-prng-1,30_issda_300,300,rng-300,191,rng,num-start-11001,11001,25726,478.2793769836426,True,,True,1,False,1000,True,1.0
./expes/v2_2020-12-02_dh_300-prng-1,30_issda_300,300,rng-300,141,rng,num-start-5001,5001,25726,213.44192051887512,True,,True,1,False,1000,True,1.0
./expes/v2_2020-12-02_dh_300-prng-1,30_issda_300,300,rng-300,151,rng,num-start-8001,8001,25726,285.427787065506,True,,True,1,False,1000,True,1.0
./expes/v2_2020-12-02_dh_300-prng-1,30_issda_300,300,rng-300,191,rng,num-start-13001,13001,25726,517.4302060604095,True,,True,1,False,1000,True,1.0
./expes/v2_2020-12-02_dh_300-prng-1,30_issda_300,300,rng-300,161,rng,num-start-8001,8001,25726,314.40551710128784,True,,True,1,False,1000,True,1.0
./expes/v2_2020-12-02_dh_300-prng-1,30_issda_300,300,rng-300,241,rng,num-start-6001,6001,25726,224.5226171016693,True,,True,1,False,1000,True,1.0
./expes/v2_2020-12-02_dh_300-prng-1,30_issda_300,300,rng-300,81,rng,num-start-13001,13001,25726,472.4989273548126,True,,True,1,False,1000,True,1.0
./expes/v2_2020-12-02_dh_300-prng-1,30_issda_300,300,rng-300,41,rng,num-start-11001,11001,25726,371.6960275173187,True,,True,1,False,1000,True,1.0
./expes/v2_2020-12-02_dh_300-prng-1,30_issda_300,300,rng-300,171,rng,num-start-16001,16001,25726,611.3500225543976,True,,True,1,False,1000,True,1.0
./expes/v2_2020-12-02_dh_300-prng-1,30_issda_300,300,rng-300,111,rng,num-start-12001,12001,25726,441.4127142429352,True,,True,1,False,1000,True,1.0
./expes/v2_2020-12-02_dh_300-prng-1,30_issda_300,300,rng-300,1,rng,num-start-14001,14001,25726,397.13075590133667,True,,True,1,False,1000,True,1.0
./expes/v2_2020-12-02_dh_300-prng-1,30_issda_300,300,rng-300,11,rng,num-start-1001,1001,25726,31.781946659088135,True,,True,1,False,1000,True,1.0
./expes/v2_2020-12-02_dh_300-prng-1,30_issda_300,300,rng-300,221,rng,num-start-7001,7001,25726,249.87785124778748,True,,True,1,False,1000,True,1.0
./expes/v2_2020-12-02_dh_300-prng-1,30_issda_300,300,rng-300,71,rng,num-start-14001,14001,25726,496.78447675704956,True,,True,1,False,1000,True,1.0
./expes/v2_2020-12-02_dh_300-prng-1,30_issda_300,300,rng-300,1,rng,num-start-16001,16001,25726,449.02202129364014,True,,True,1,False,1000,True,1.0
./expes/v2_2020-12-02_dh_300-prng-1,30_issda_300,300,rng-300,281,rng,num-start-11001,11001,25726,340.72842836380005,True,,True,1,False,1000,True,1.0
./expes/v2_2020-12-02_dh_300-prng-1,30_issda_300,300,rng-300,191,rng,num-start-14001,14001,25726,499.8039994239807,True,,True,1,False,1000,True,1.0
./expes/v2_2020-12-02_dh_300-prng-1,30_issda_300,300,rng-300,221,rng,num-start-2001,2001,25726,68.91375160217285,True,,True,1,False,1000,True,1.0
./expes/v2_2020-12-02_dh_300-prng-1,30_issda_300,300,rng-300,181,rng,num-start-10001,10001,25726,354.5315363407135,True,,True,1,False,1000,True,1.0
./expes/v2_2020-12-02_dh_300-prng-1,30_issda_300,300,rng-300,231,rng,num-start-11001,11001,25726,434.65001940727234,True,,True,1,False,1000,True,1.0
./expes/v2_2020-12-02_dh_300-prng-1,30_issda_300,300,rng-300,231,rng,num-start-10001,10001,25726,405.2382826805115,True,,True,1,False,1000,True,1.0
./expes/v2_2020-12-02_dh_300-prng-1,30_issda_300,300,rng-300,161,rng,num-start-3001,3001,25726,106.10974359512329,True,,True,1,False,1000,True,1.0
./expes/v2_2020-12-02_dh_300-prng-1,30_issda_300,300,rng-300,231,rng,num-start-15001,15001,25726,547.1057195663452,True,,True,1,False,1000,True,1.0
./expes/v2_2020-12-02_dh_300-prng-1,30_issda_300,300,rng-300,101,rng,num-start-10001,10001,25726,336.7763454914093,True,,True,1,False,1000,True,1.0
./expes/v2_2020-12-02_dh_300-prng-1,30_issda_300,300,rng-300,81,rng,num-start-13001,13001,25726,476.1344063282013,True,,True,1,False,1000,True,1.0
./expes/v2_2020-12-02_dh_300-prng-1,30_issda_300,300,rng-300,211,rng,num-start-5001,5001,25726,165.04928612709045,True,,True,1,False,1000,True,1.0
./expes/v2_2020-12-02_dh_300-prng-1,30_issda_300,300,rng-300,211,rng,num-start-13001,13001,25726,474.72314500808716,True,,True,1,False,1000,True,1.0
./expes/v2_2020-12-02_dh_300-prng-1,30_issda_300,300,rng-300,191,rng,num-start-1001,1001,25726,35.66322612762451,True,,True,1,False,1000,True,1.0
./expes/v2_2020-12-02_dh_300-prng-1,30_issda_300,300,rng-300,181,rng,num-start-6001,6001,25726,230.42051434516907,True,,True,1,False,1000,True,1.0
./expes/v2_2020-12-02_dh_300-prng-1,30_issda_300,300,rng-300,11,rng,num-start-13001,13001,25726,379.0462703704834,True,,True,1,False,1000,True,1.0
./expes/v2_2020-12-02_dh_300-prng-1,30_issda_300,300,rng-300,251,rng,num-start-7001,7001,25726,294.8257746696472,True,,True,1,False,1000,True,1.0
./expes/v2_2020-12-02_dh_300-prng-1,30_issda_300,300,rng-300,241,rng,num-start-10001,10001,25726,387.29676580429077,True,,True,1,False,1000,True,1.0
./expes/v2_2020-12-02_dh_300-prng-1,30_issda_300,300,rng-300,171,rng,num-start-1001,1001,25726,33.888529539108276,True,,True,1,False,1000,True,1.0
./expes/v2_2020-12-02_dh_300-prng-1,30_issda_300,300,rng-300,271,rng,num-start-6001,6001,25726,203.60337114334106,True,,True,1,False,1000,True,1.0
./expes/v2_2020-12-02_dh_300-prng-1,30_issda_300,300,rng-300,161,rng,num-start-9001,9001,25726,338.0165922641754,True,,True,1,False,1000,True,1.0
./expes/v2_2020-12-02_dh_300-prng-1,30_issda_300,300,rng-300,221,rng,num-start-9001,9001,25726,312.2428913116455,True,,True,1,False,1000,True,1.0
./expes/v2_2020-12-02_dh_300-prng-1,30_issda_300,300,rng-300,111,rng,num-start-16001,16001,25726,530.6855797767639,True,,True,1,False,1000,True,1.0
./expes/v2_2020-12-02_dh_300-prng-1,30_issda_300,300,rng-300,271,rng,num-start-11001,11001,25726,365.8550193309784,True,,True,1,False,1000,True,1.0
./expes/v2_2020-12-02_dh_300-prng-1,30_issda_300,300,rng-300,31,rng,num-start-5001,5001,25726,161.89889574050903,True,,True,1,False,1000,True,1.0
./expes/v2_2020-12-02_dh_300-prng-1,30_issda_300,300,rng-300,231,rng,num-start-1,1,25726,0.16411232948303223,False,,False,2,False,1000,True,1.0
./expes/v2_2020-12-02_dh_300-prng-1,30_issda_300,300,rng-300,221,rng,num-start-4001,4001,25726,143.13816571235657,True,,True,1,False,1000,True,1.0
./expes/v2_2020-12-02_dh_300-prng-1,30_issda_300,300,rng-300,211,rng,num-start-8001,8001,25726,284.04061102867126,True,,True,1,False,1000,True,1.0
./expes/v2_2020-12-02_dh_300-prng-1,30_issda_300,300,rng-300,1,rng,num-start-4001,4001,25726,112.84119844436646,True,,True,1,False,1000,True,1.0
./expes/v2_2020-12-02_dh_300-prng-1,30_issda_300,300,rng-300,111,rng,num-start-2001,2001,25726,69.35949802398682,True,,True,1,False,1000,True,1.0
./expes/v2_2020-12-02_dh_300-prng-1,30_issda_300,300,rng-300,51,rng,num-start-16001,16001,25726,578.7946803569794,True,,True,1,False,1000,True,1.0
./expes/v2_2020-12-02_dh_300-prng-1,30_issda_300,300,rng-300,201,rng,num-start-2001,2001,25726,69.74237108230591,True,,True,1,False,1000,True,1.0
./expes/v2_2020-12-02_dh_300-prng-1,30_issda_300,300,rng-300,111,rng,num-start-11001,11001,25726,468.95378947257996,True,,True,1,False,1000,True,1.0
./expes/v2_2020-12-02_dh_300-prng-1,30_issda_300,300,rng-300,121,rng,num-start-4001,4001,25726,144.5823838710785,True,,True,1,False,1000,True,1.0
./expes/v2_2020-12-02_dh_300-prng-1,30_issda_300,300,rng-300,231,rng,num-start-2001,2001,25726,71.61652565002441,True,,True,1,False,1000,True,1.0
./expes/v2_2020-12-02_dh_300-prng-1,30_issda_300,300,rng-300,221,rng,num-start-12001,12001,25726,503.26627564430237,True,,True,1,False,1000,True,1.0
./expes/v2_2020-12-02_dh_300-prng-1,30_issda_300,300,rng-300,31,rng,num-start-1001,1001,25726,31.492758989334106,True,,True,1,False,1000,True,1.0
./expes/v2_2020-12-02_dh_300-prng-1,30_issda_300,300,rng-300,141,rng,num-start-10001,10001,25726,398.1833472251892,True,,True,1,False,1000,True,1.0
./expes/v2_2020-12-02_dh_300-prng-1,30_issda_300,300,rng-300,181,rng,num-start-4001,4001,25726,135.76506233215332,True,,True,1,False,1000,True,1.0
./expes/v2_2020-12-02_dh_300-prng-1,30_issda_300,300,rng-300,101,rng,num-start-1001,1001,25726,35.77488398551941,True,,True,1,False,1000,True,1.0
./expes/v2_2020-12-02_dh_300-prng-1,30_issda_300,300,rng-300,101,rng,num-start-9001,9001,25726,328.9923725128174,True,,True,1,False,1000,True,1.0
./expes/v2_2020-12-02_dh_300-prng-1,30_issda_300,300,rng-300,151,rng,num-start-10001,10001,25726,373.59675216674805,True,,True,1,False,1000,True,1.0
./expes/v2_2020-12-02_dh_300-prng-1,30_issda_300,300,rng-300,21,rng,num-start-6001,6001,25726,188.8962278366089,True,,True,1,False,1000,True,1.0
./expes/v2_2020-12-02_dh_300-prng-1,30_issda_300,300,rng-300,251,rng,num-start-4001,4001,25726,137.2963845729828,True,,True,1,False,1000,True,1.0
./expes/v2_2020-12-02_dh_300-prng-1,30_issda_300,300,rng-300,81,rng,num-start-16001,16001,25726,610.468761920929,True,,True,1,False,1000,True,1.0
./expes/v2_2020-12-02_dh_300-prng-1,30_issda_300,300,rng-300,171,rng,num-start-12001,12001,25726,475.02450251579285,True,,True,1,False,1000,True,1.0
./expes/v2_2020-12-02_dh_300-prng-1,30_issda_300,300,rng-300,231,rng,num-start-3001,3001,25726,99.83823490142822,True,,True,1,False,1000,True,1.0
./expes/v2_2020-12-02_dh_300-prng-1,30_issda_300,300,rng-300,71,rng,num-start-15001,15001,25726,528.6205801963806,True,,True,1,False,1000,True,1.0
./expes/v2_2020-12-02_dh_300-prng-1,30_issda_300,300,rng-300,101,rng,num-start-9001,9001,25726,360.56394839286804,True,,True,1,False,1000,True,1.0
./expes/v2_2020-12-02_dh_300-prng-1,30_issda_300,300,rng-300,221,rng,num-start-4001,4001,25726,136.26734805107117,True,,True,1,False,1000,True,1.0
./expes/v2_2020-12-02_dh_300-prng-1,30_issda_300,300,rng-300,31,rng,num-start-7001,7001,25726,215.08186388015747,True,,True,1,False,1000,True,1.0
./expes/v2_2020-12-02_dh_300-prng-1,30_issda_300,300,rng-300,1,rng,num-start-1,1,25726,0.08470988273620605,True,,True,1,False,1000,True,1.0
./expes/v2_2020-12-02_dh_300-prng-1,30_issda_300,300,rng-300,111,rng,num-start-2001,2001,25726,74.18169212341309,True,,True,1,False,1000,True,1.0
./expes/v2_2020-12-02_dh_300-prng-1,30_issda_300,300,rng-300,251,rng,num-start-9001,9001,25726,330.14004373550415,True,,True,1,False,1000,True,1.0
./expes/v2_2020-12-02_dh_300-prng-1,30_issda_300,300,rng-300,151,rng,num-start-15001,15001,25726,516.189338684082,True,,True,1,False,1000,True,1.0
./expes/v2_2020-12-02_dh_300-prng-1,30_issda_300,300,rng-300,211,rng,num-start-12001,12001,25726,423.39633345603943,True,,True,1,False,1000,True,1.0
./expes/v2_2020-12-02_dh_300-prng-1,30_issda_300,300,rng-300,241,rng,num-start-15001,15001,25726,509.10800528526306,True,,True,1,False,1000,True,1.0
./expes/v2_2020-12-02_dh_300-prng-1,30_issda_300,300,rng-300,101,rng,num-start-10001,10001,25726,349.7681746482849,True,,True,1,False,1000,True,1.0
./expes/v2_2020-12-02_dh_300-prng-1,30_issda_300,300,rng-300,261,rng,num-start-11001,11001,25726,382.65900683403015,True,,True,1,False,1000,True,1.0
./expes/v2_2020-12-02_dh_300-prng-1,30_issda_300,300,rng-300,111,rng,num-start-13001,13001,25726,492.6339817047119,True,,True,1,False,1000,True,1.0
./expes/v2_2020-12-02_dh_300-prng-1,30_issda_300,300,rng-300,281,rng,num-start-1001,1001,25726,33.0738263130188,True,,True,1,False,1000,True,1.0
./expes/v2_2020-12-02_dh_300-prng-1,30_issda_300,300,rng-300,1,rng,num-start-10001,10001,25726,289.64952540397644,True,,True,1,False,1000,True,1.0
./expes/v2_2020-12-02_dh_300-prng-1,30_issda_300,300,rng-300,71,rng,num-start-15001,15001,25726,562.2984325885773,True,,True,1,False,1000,True,1.0
./expes/v2_2020-12-02_dh_300-prng-1,30_issda_300,300,rng-300,21,rng,num-start-5001,5001,25726,149.5631227493286,True,,True,1,False,1000,True,1.0
./expes/v2_2020-12-02_dh_300-prng-1,30_issda_300,300,rng-300,91,rng,num-start-13001,13001,25726,429.88647198677063,True,,True,1,False,1000,True,1.0
./expes/v2_2020-12-02_dh_300-prng-1,30_issda_300,300,rng-300,131,rng,num-start-12001,12001,25726,445.9326286315918,True,,True,1,False,1000,True,1.0
./expes/v2_2020-12-02_dh_300-prng-1,30_issda_300,300,rng-300,41,rng,num-start-16001,16001,25726,508.87844586372375,True,,True,1,False,1000,True,1.0
./expes/v2_2020-12-02_dh_300-prng-1,30_issda_300,300,rng-300,61,rng,num-start-2001,2001,25726,71.37646436691284,True,,True,1,False,1000,True,1.0
./expes/v2_2020-12-02_dh_300-prng-1,30_issda_300,300,rng-300,101,rng,num-start-9001,9001,25726,323.16153264045715,True,,True,1,False,1000,True,1.0
./expes/v2_2020-12-02_dh_300-prng-1,30_issda_300,300,rng-300,221,rng,num-start-2001,2001,25726,69.9399778842926,True,,True,1,False,1000,True,1.0
./expes/v2_2020-12-02_dh_300-prng-1,30_issda_300,300,rng-300,171,rng,num-start-8001,8001,25726,283.9692175388336,True,,True,1,False,1000,True,1.0
./expes/v2_2020-12-02_dh_300-prng-1,30_issda_300,300,rng-300,61,rng,num-start-12001,12001,25726,434.9347198009491,True,,True,1,False,1000,True,1.0
./expes/v2_2020-12-02_dh_300-prng-1,30_issda_300,300,rng-300,241,rng,num-start-12001,12001,25726,432.88326621055603,True,,True,1,False,1000,True,1.0
./expes/v2_2020-12-02_dh_300-prng-1,30_issda_300,300,rng-300,101,rng,num-start-16001,16001,25726,639.6067435741425,True,,True,1,False,1000,True,1.0
./expes/v2_2020-12-02_dh_300-prng-1,30_issda_300,300,rng-300,141,rng,num-start-1,1,25726,0.0564727783203125,False,,False,2,False,1000,True,1.0
./expes/v2_2020-12-02_dh_300-prng-1,30_issda_300,300,rng-300,61,rng,num-start-9001,9001,25726,325.1946065425873,True,,True,1,False,1000,True,1.0
./expes/v2_2020-12-02_dh_300-prng-1,30_issda_300,300,rng-300,31,rng,num-start-1,1,25726,0.09445834159851074,False,,False,2,False,1000,True,1.0
./expes/v2_2020-12-02_dh_300-prng-1,30_issda_300,300,rng-300,91,rng,num-start-13001,13001,25726,463.3305096626282,True,,True,1,False,1000,True,1.0
./expes/v2_2020-12-02_dh_300-prng-1,30_issda_300,300,rng-300,61,rng,num-start-12001,12001,25726,405.32256054878235,True,,True,1,False,1000,True,1.0
./expes/v2_2020-12-02_dh_300-prng-1,30_issda_300,300,rng-300,1,rng,num-start-8001,8001,25726,219.51833820343018,True,,True,1,False,1000,True,1.0
./expes/v2_2020-12-02_dh_300-prng-1,30_issda_300,300,rng-300,51,rng,num-start-1001,1001,25726,31.02903175354004,True,,True,1,False,1000,True,1.0
./expes/v2_2020-12-02_dh_300-prng-1,30_issda_300,300,rng-300,291,rng,num-start-2001,2001,25726,55.39620804786682,True,,True,1,False,1000,True,1.0
./expes/v2_2020-12-02_dh_300-prng-1,30_issda_300,300,rng-300,231,rng,num-start-14001,14001,25726,479.1819097995758,True,,True,1,False,1000,True,1.0
./expes/v2_2020-12-02_dh_300-prng-1,30_issda_300,300,rng-300,31,rng,num-start-6001,6001,25726,191.0195345878601,True,,True,1,False,1000,True,1.0
./expes/v2_2020-12-02_dh_300-prng-1,30_issda_300,300,rng-300,241,rng,num-start-16001,16001,25726,675.3966882228851,True,,True,1,False,1000,True,1.0
./expes/v2_2020-12-02_dh_300-prng-1,30_issda_300,300,rng-300,91,rng,num-start-2001,2001,25726,73.3072874546051,True,,True,1,False,1000,True,1.0
./expes/v2_2020-12-02_dh_300-prng-1,30_issda_300,300,rng-300,81,rng,num-start-12001,12001,25726,436.214905500412,True,,True,1,False,1000,True,1.0
./expes/v2_2020-12-02_dh_300-prng-1,30_issda_300,300,rng-300,171,rng,num-start-8001,8001,25726,309.04622197151184,True,,True,1,False,1000,True,1.0
./expes/v2_2020-12-02_dh_300-prng-1,30_issda_300,300,rng-300,181,rng,num-start-10001,10001,25726,438.30910992622375,True,,True,1,False,1000,True,1.0
./expes/v2_2020-12-02_dh_300-prng-1,30_issda_300,300,rng-300,161,rng,num-start-13001,13001,25726,468.76502299308777,True,,True,1,False,1000,True,1.0
./expes/v2_2020-12-02_dh_300-prng-1,30_issda_300,300,rng-300,51,rng,num-start-7001,7001,25726,228.68880486488342,True,,True,1,False,1000,True,1.0
./expes/v2_2020-12-02_dh_300-prng-1,30_issda_300,300,rng-300,291,rng,num-start-15001,15001,25726,466.0373463630676,True,,True,1,False,1000,True,1.0
./expes/v2_2020-12-02_dh_300-prng-1,30_issda_300,300,rng-300,261,rng,num-start-2001,2001,25726,68.23852443695068,True,,True,1,False,1000,True,1.0
./expes/v2_2020-12-02_dh_300-prng-1,30_issda_300,300,rng-300,11,rng,num-start-14001,14001,25726,391.586962223053,True,,True,1,False,1000,True,1.0
./expes/v2_2020-12-02_dh_300-prng-1,30_issda_300,300,rng-300,251,rng,num-start-16001,16001,25726,553.6281034946442,True,,True,1,False,1000,True,1.0
./expes/v2_2020-12-02_dh_300-prng-1,30_issda_300,300,rng-300,131,rng,num-start-9001,9001,25726,346.6402759552002,True,,True,1,False,1000,True,1.0
./expes/v2_2020-12-02_dh_300-prng-1,30_issda_300,300,rng-300,101,rng,num-start-8001,8001,25726,300.89703726768494,True,,True,1,False,1000,True,1.0
./expes/v2_2020-12-02_dh_300-prng-1,30_issda_300,300,rng-300,11,rng,num-start-1001,1001,25726,30.644763708114624,True,,True,1,False,1000,True,1.0
./expes/v2_2020-12-02_dh_300-prng-1,30_issda_300,300,rng-300,121,rng,num-start-1001,1001,25726,36.17768907546997,True,,True,1,False,1000,True,1.0
./expes/v2_2020-12-02_dh_300-prng-1,30_issda_300,300,rng-300,271,rng,num-start-11001,11001,25726,356.4982602596283,True,,True,1,False,1000,True,1.0
./expes/v2_2020-12-02_dh_300-prng-1,30_issda_300,300,rng-300,181,rng,num-start-14001,14001,25726,536.1019077301025,True,,True,1,False,1000,True,1.0
./expes/v2_2020-12-02_dh_300-prng-1,30_issda_300,300,rng-300,191,rng,num-start-1001,1001,25726,32.586934089660645,True,,True,1,False,1000,True,1.0
./expes/v2_2020-12-02_dh_300-prng-1,30_issda_300,300,rng-300,141,rng,num-start-6001,6001,25726,221.0734601020813,True,,True,1,False,1000,True,1.0
./expes/v2_2020-12-02_dh_300-prng-1,30_issda_300,300,rng-300,21,rng,num-start-8001,8001,25726,240.27893042564392,True,,True,1,False,1000,True,1.0
./expes/v2_2020-12-02_dh_300-prng-1,30_issda_300,300,rng-300,171,rng,num-start-3001,3001,25726,103.07767009735107,True,,True,1,False,1000,True,1.0
./expes/v2_2020-12-02_dh_300-prng-1,30_issda_300,300,rng-300,271,rng,num-start-3001,3001,25726,86.82242059707642,True,,True,1,False,1000,True,1.0
./expes/v2_2020-12-02_dh_300-prng-1,30_issda_300,300,rng-300,191,rng,num-start-5001,5001,25726,192.60261034965515,True,,True,1,False,1000,True,1.0
./expes/v2_2020-12-02_dh_300-prng-1,30_issda_300,300,rng-300,221,rng,num-start-11001,11001,25726,388.902485370636,True,,True,1,False,1000,True,1.0
./expes/v2_2020-12-02_dh_300-prng-1,30_issda_300,300,rng-300,111,rng,num-start-9001,9001,25726,344.2713830471039,True,,True,1,False,1000,True,1.0
./expes/v2_2020-12-02_dh_300-prng-1,30_issda_300,300,rng-300,171,rng,num-start-1001,1001,25726,33.69794964790344,True,,True,1,False,1000,True,1.0
./expes/v2_2020-12-02_dh_300-prng-1,30_issda_300,300,rng-300,271,rng,num-start-8001,8001,25726,291.203111410141,True,,True,1,False,1000,True,1.0
./expes/v2_2020-12-02_dh_300-prng-1,30_issda_300,300,rng-300,11,rng,num-start-3001,3001,25726,87.41427373886108,True,,True,1,False,1000,True,1.0
./expes/v2_2020-12-02_dh_300-prng-1,30_issda_300,300,rng-300,191,rng,num-start-14001,14001,25726,542.3062498569489,True,,True,1,False,1000,True,1.0
./expes/v2_2020-12-02_dh_300-prng-1,30_issda_300,300,rng-300,181,rng,num-start-11001,11001,25726,420.37145018577576,True,,True,1,False,1000,True,1.0
./expes/v2_2020-12-02_dh_300-prng-1,30_issda_300,300,rng-300,161,rng,num-start-15001,15001,25726,647.7731637954712,True,,True,1,False,1000,True,1.0
./expes/v2_2020-12-02_dh_300-prng-1,30_issda_300,300,rng-300,11,rng,num-start-14001,14001,25726,397.98195791244507,True,,True,1,False,1000,True,1.0
./expes/v2_2020-12-02_dh_300-prng-1,30_issda_300,300,rng-300,261,rng,num-start-11001,11001,25726,361.6628692150116,True,,True,1,False,1000,True,1.0
./expes/v2_2020-12-02_dh_300-prng-1,30_issda_300,300,rng-300,131,rng,num-start-3001,3001,25726,113.30983686447144,True,,True,1,False,1000,True,1.0
./expes/v2_2020-12-02_dh_300-prng-1,30_issda_300,300,rng-300,171,rng,num-start-10001,10001,25726,376.4554030895233,True,,True,1,False,1000,True,1.0
./expes/v2_2020-12-02_dh_300-prng-1,30_issda_300,300,rng-300,1,rng,num-start-7001,7001,25726,198.5158998966217,True,,True,1,False,1000,True,1.0
./expes/v2_2020-12-02_dh_300-prng-1,30_issda_300,300,rng-300,61,rng,num-start-2001,2001,25726,64.50599670410156,True,,True,1,False,1000,True,1.0
./expes/v2_2020-12-02_dh_300-prng-1,30_issda_300,300,rng-300,201,rng,num-start-3001,3001,25726,113.2014422416687,True,,True,1,False,1000,True,1.0
./expes/v2_2020-12-02_dh_300-prng-1,30_issda_300,300,rng-300,241,rng,num-start-4001,4001,25726,131.35072135925293,True,,True,1,False,1000,True,1.0
./expes/v2_2020-12-02_dh_300-prng-1,30_issda_300,300,rng-300,291,rng,num-start-1001,1001,25726,27.878793954849243,True,,True,1,False,1000,True,1.0
./expes/v2_2020-12-02_dh_300-prng-1,30_issda_300,300,rng-300,91,rng,num-start-2001,2001,25726,66.24820065498352,True,,True,1,False,1000,True,1.0
./expes/v2_2020-12-02_dh_300-prng-1,30_issda_300,300,rng-300,211,rng,num-start-2001,2001,25726,69.24189352989197,True,,True,1,False,1000,True,1.0
./expes/v2_2020-12-02_dh_300-prng-1,30_issda_300,300,rng-300,131,rng,num-start-7001,7001,25726,268.6736078262329,True,,True,1,False,1000,True,1.0
./expes/v2_2020-12-02_dh_300-prng-1,30_issda_300,300,rng-300,31,rng,num-start-11001,11001,25726,357.104266166687,True,,True,1,False,1000,True,1.0
./expes/v2_2020-12-02_dh_300-prng-1,30_issda_300,300,rng-300,131,rng,num-start-6001,6001,25726,215.01161289215088,True,,True,1,False,1000,True,1.0
./expes/v2_2020-12-02_dh_300-prng-1,30_issda_300,300,rng-300,231,rng,num-start-3001,3001,25726,111.2385504245758,True,,True,1,False,1000,True,1.0
./expes/v2_2020-12-02_dh_300-prng-1,30_issda_300,300,rng-300,261,rng,num-start-10001,10001,25726,348.5738365650177,True,,True,1,False,1000,True,1.0
./expes/v2_2020-12-02_dh_300-prng-1,30_issda_300,300,rng-300,251,rng,num-start-13001,13001,25726,563.000773191452,True,,True,1,False,1000,True,1.0
./expes/v2_2020-12-02_dh_300-prng-1,30_issda_300,300,rng-300,31,rng,num-start-1,1,25726,0.07711029052734375,False,,False,2,False,1000,True,1.0
./expes/v2_2020-12-02_dh_300-prng-1,30_issda_300,300,rng-300,91,rng,num-start-2001,2001,25726,68.08828330039978,True,,True,1,False,1000,True,1.0
./expes/v2_2020-12-02_dh_300-prng-1,30_issda_300,300,rng-300,91,rng,num-start-4001,4001,25726,136.6005277633667,True,,True,1,False,1000,True,1.0
./expes/v2_2020-12-02_dh_300-prng-1,30_issda_300,300,rng-300,281,rng,num-start-16001,16001,25726,514.4619698524475,True,,True,1,False,1000,True,1.0
./expes/v2_2020-12-02_dh_300-prng-1,30_issda_300,300,rng-300,131,rng,num-start-8001,8001,25726,303.857857465744,True,,True,1,False,1000,True,1.0
./expes/v2_2020-12-02_dh_300-prng-1,30_issda_300,300,rng-300,21,rng,num-start-11001,11001,25726,359.79947900772095,True,,True,1,False,1000,True,1.0
./expes/v2_2020-12-02_dh_300-prng-1,30_issda_300,300,rng-300,131,rng,num-start-1,1,25726,0.07446575164794922,False,,False,2,False,1000,True,1.0
./expes/v2_2020-12-02_dh_300-prng-1,30_issda_300,300,rng-300,141,rng,num-start-11001,11001,25726,436.57826566696167,True,,True,1,False,1000,True,1.0
./expes/v2_2020-12-02_dh_300-prng-1,30_issda_300,300,rng-300,61,rng,num-start-14001,14001,25726,502.741975069046,True,,True,1,False,1000,True,1.0
./expes/v2_2020-12-02_dh_300-prng-1,30_issda_300,300,rng-300,251,rng,num-start-1001,1001,25726,32.04796099662781,True,,True,1,False,1000,True,1.0
./expes/v2_2020-12-02_dh_300-prng-1,30_issda_300,300,rng-300,181,rng,num-start-1,1,25726,0.0817408561706543,False,,False,2,False,1000,True,1.0
./expes/v2_2020-12-02_dh_300-prng-1,30_issda_300,300,rng-300,181,rng,num-start-13001,13001,25726,507.3847920894623,True,,True,1,False,1000,True,1.0
./expes/v2_2020-12-02_dh_300-prng-1,30_issda_300,300,rng-300,181,rng,num-start-1,1,25726,0.094482421875,False,,False,2,False,1000,True,1.0
./expes/v2_2020-12-02_dh_300-prng-1,30_issda_300,300,rng-300,101,rng,num-start-1,1,25726,0.13188385963439941,False,,False,2,False,1000,True,1.0
./expes/v2_2020-12-02_dh_300-prng-1,30_issda_300,300,rng-300,91,rng,num-start-13001,13001,25726,471.9223873615265,True,,True,1,False,1000,True,1.0
./expes/v2_2020-12-02_dh_300-prng-1,30_issda_300,300,rng-300,21,rng,num-start-12001,12001,25726,404.02288150787354,True,,True,1,False,1000,True,1.0
./expes/v2_2020-12-02_dh_300-prng-1,30_issda_300,300,rng-300,241,rng,num-start-15001,15001,25726,525.7549521923065,True,,True,1,False,1000,True,1.0
./expes/v2_2020-12-02_dh_300-prng-1,30_issda_300,300,rng-300,1,rng,num-start-14001,14001,25726,396.39106726646423,True,,True,1,False,1000,True,1.0
./expes/v2_2020-12-02_dh_300-prng-1,30_issda_300,300,rng-300,251,rng,num-start-9001,9001,25726,332.3009479045868,True,,True,1,False,1000,True,1.0
./expes/v2_2020-12-02_dh_300-prng-1,30_issda_300,300,rng-300,61,rng,num-start-15001,15001,25726,542.1713266372681,True,,True,1,False,1000,True,1.0
./expes/v2_2020-12-02_dh_300-prng-1,30_issda_300,300,rng-300,1,rng,num-start-1001,1001,25726,29.44942569732666,True,,True,1,False,1000,True,1.0
./expes/v2_2020-12-02_dh_300-prng-1,30_issda_300,300,rng-300,1,rng,num-start-16001,16001,25726,447.8584830760956,True,,True,1,False,1000,True,1.0
./expes/v2_2020-12-02_dh_300-prng-1,30_issda_300,300,rng-300,81,rng,num-start-1,1,25726,0.07821011543273926,False,,False,2,False,1000,True,1.0
./expes/v2_2020-12-02_dh_300-prng-1,30_issda_300,300,rng-300,31,rng,num-start-1001,1001,25726,35.60203838348389,True,,True,1,False,1000,True,1.0
./expes/v2_2020-12-02_dh_300-prng-1,30_issda_300,300,rng-300,121,rng,num-start-9001,9001,25726,342.47931361198425,True,,True,1,False,1000,True,1.0
./expes/v2_2020-12-02_dh_300-prng-1,30_issda_300,300,rng-300,91,rng,num-start-15001,15001,25726,551.6899256706238,True,,True,1,False,1000,True,1.0
./expes/v2_2020-12-02_dh_300-prng-1,30_issda_300,300,rng-300,251,rng,num-start-11001,11001,25726,398.9978766441345,True,,True,1,False,1000,True,1.0
./expes/v2_2020-12-02_dh_300-prng-1,30_issda_300,300,rng-300,31,rng,num-start-14001,14001,25726,447.262332201004,True,,True,1,False,1000,True,1.0
./expes/v2_2020-12-02_dh_300-prng-1,30_issda_300,300,rng-300,21,rng,num-start-9001,9001,25726,272.00548005104065,True,,True,1,False,1000,True,1.0
./expes/v2_2020-12-02_dh_300-prng-1,30_issda_300,300,rng-300,211,rng,num-start-16001,16001,25726,563.8492248058319,True,,True,1,False,1000,True,1.0
./expes/v2_2020-12-02_dh_300-prng-1,30_issda_300,300,rng-300,221,rng,num-start-5001,5001,25726,167.73319363594055,True,,True,1,False,1000,True,1.0
./expes/v2_2020-12-02_dh_300-prng-1,30_issda_300,300,rng-300,81,rng,num-start-13001,13001,25726,483.0141763687134,True,,True,1,False,1000,True,1.0
./expes/v2_2020-12-02_dh_300-prng-1,30_issda_300,300,rng-300,21,rng,num-start-6001,6001,25726,198.27166891098022,True,,True,1,False,1000,True,1.0
./expes/v2_2020-12-02_dh_300-prng-1,30_issda_300,300,rng-300,101,rng,num-start-7001,7001,25726,250.36520886421204,True,,True,1,False,1000,True,1.0
./expes/v2_2020-12-02_dh_300-prng-1,30_issda_300,300,rng-300,51,rng,num-start-14001,14001,25726,453.84108233451843,True,,True,1,False,1000,True,1.0
./expes/v2_2020-12-02_dh_300-prng-1,30_issda_300,300,rng-300,211,rng,num-start-13001,13001,25726,533.3052146434784,True,,True,1,False,1000,True,1.0
./expes/v2_2020-12-02_dh_300-prng-1,30_issda_300,300,rng-300,101,rng,num-start-7001,7001,25726,253.97982025146484,True,,True,1,False,1000,True,1.0
./expes/v2_2020-12-02_dh_300-prng-1,30_issda_300,300,rng-300,121,rng,num-start-12001,12001,25726,427.6912262439728,True,,True,1,False,1000,True,1.0
./expes/v2_2020-12-02_dh_300-prng-1,30_issda_300,300,rng-300,31,rng,num-start-7001,7001,25726,258.69528579711914,True,,True,1,False,1000,True,1.0
./expes/v2_2020-12-02_dh_300-prng-1,30_issda_300,300,rng-300,271,rng,num-start-5001,5001,25726,149.16194891929626,True,,True,1,False,1000,True,1.0
./expes/v2_2020-12-02_dh_300-prng-1,30_issda_300,300,rng-300,231,rng,num-start-4001,4001,25726,132.5905168056488,True,,True,1,False,1000,True,1.0
./expes/v2_2020-12-02_dh_300-prng-1,30_issda_300,300,rng-300,251,rng,num-start-14001,14001,25726,458.29379653930664,True,,True,1,False,1000,True,1.0
./expes/v2_2020-12-02_dh_300-prng-1,30_issda_300,300,rng-300,171,rng,num-start-3001,3001,25726,109.24793720245361,True,,True,1,False,1000,True,1.0
./expes/v2_2020-12-02_dh_300-prng-1,30_issda_300,300,rng-300,131,rng,num-start-15001,15001,25726,594.7465944290161,True,,True,1,False,1000,True,1.0
./expes/v2_2020-12-02_dh_300-prng-1,30_issda_300,300,rng-300,251,rng,num-start-1,1,25726,0.0636134147644043,False,,False,2,False,1000,True,1.0
./expes/v2_2020-12-02_dh_300-prng-1,30_issda_300,300,rng-300,191,rng,num-start-12001,12001,25726,436.090398311615,True,,True,1,False,1000,True,1.0
./expes/v2_2020-12-02_dh_300-prng-1,30_issda_300,300,rng-300,171,rng,num-start-1,1,25726,0.11939549446105957,False,,False,2,False,1000,True,1.0
./expes/v2_2020-12-02_dh_300-prng-1,30_issda_300,300,rng-300,81,rng,num-start-3001,3001,25726,108.95938420295715,True,,True,1,False,1000,True,1.0
./expes/v2_2020-12-02_dh_300-prng-1,30_issda_300,300,rng-300,51,rng,num-start-9001,9001,25726,301.3053297996521,True,,True,1,False,1000,True,1.0
./expes/v2_2020-12-02_dh_300-prng-1,30_issda_300,300,rng-300,281,rng,num-start-5001,5001,25726,159.0203890800476,True,,True,1,False,1000,True,1.0
./expes/v2_2020-12-02_dh_300-prng-1,30_issda_300,300,rng-300,171,rng,num-start-9001,9001,25726,319.77513885498047,True,,True,1,False,1000,True,1.0
./expes/v2_2020-12-02_dh_300-prng-1,30_issda_300,300,rng-300,191,rng,num-start-16001,16001,25726,665.4410984516144,True,,True,1,False,1000,True,1.0
./expes/v2_2020-12-02_dh_300-prng-1,30_issda_300,300,rng-300,201,rng,num-start-11001,11001,25726,426.46973514556885,True,,True,1,False,1000,True,1.0
./expes/v2_2020-12-02_dh_300-prng-1,30_issda_300,300,rng-300,151,rng,num-start-9001,9001,25726,348.89880537986755,True,,True,1,False,1000,True,1.0
./expes/v2_2020-12-02_dh_300-prng-1,30_issda_300,300,rng-300,181,rng,num-start-11001,11001,25726,416.2628161907196,True,,True,1,False,1000,True,1.0
./expes/v2_2020-12-02_dh_300-prng-1,30_issda_300,300,rng-300,171,rng,num-start-6001,6001,25726,220.23855876922607,True,,True,1,False,1000,True,1.0
./expes/v2_2020-12-02_dh_300-prng-1,30_issda_300,300,rng-300,281,rng,num-start-5001,5001,25726,148.0663709640503,True,,True,1,False,1000,True,1.0
./expes/v2_2020-12-02_dh_300-prng-1,30_issda_300,300,rng-300,121,rng,num-start-16001,16001,25726,580.7758021354675,True,,True,1,False,1000,True,1.0
./expes/v2_2020-12-02_dh_300-prng-1,30_issda_300,300,rng-300,161,rng,num-start-15001,15001,25726,614.7242419719696,True,,True,1,False,1000,True,1.0
./expes/v2_2020-12-02_dh_300-prng-1,30_issda_300,300,rng-300,261,rng,num-start-10001,10001,25726,332.65031576156616,True,,True,1,False,1000,True,1.0
./expes/v2_2020-12-02_dh_300-prng-1,30_issda_300,300,rng-300,231,rng,num-start-3001,3001,25726,96.64483594894409,True,,True,1,False,1000,True,1.0
./expes/v2_2020-12-02_dh_300-prng-1,30_issda_300,300,rng-300,211,rng,num-start-6001,6001,25726,223.82211470603943,True,,True,1,False,1000,True,1.0
./expes/v2_2020-12-02_dh_300-prng-1,30_issda_300,300,rng-300,51,rng,num-start-13001,13001,25726,468.97288703918457,True,,True,1,False,1000,True,1.0
./expes/v2_2020-12-02_dh_300-prng-1,30_issda_300,300,rng-300,241,rng,num-start-6001,6001,25726,197.03554463386536,True,,True,1,False,1000,True,1.0
./expes/v2_2020-12-02_dh_300-prng-1,30_issda_300,300,rng-300,191,rng,num-start-16001,16001,25726,685.7139105796814,True,,True,1,False,1000,True,1.0
./expes/v2_2020-12-02_dh_300-prng-1,30_issda_300,300,rng-300,231,rng,num-start-9001,9001,25726,323.83378648757935,True,,True,1,False,1000,True,1.0
./expes/v2_2020-12-02_dh_300-prng-1,30_issda_300,300,rng-300,61,rng,num-start-15001,15001,25726,564.2988412380219,True,,True,1,False,1000,True,1.0
./expes/v2_2020-12-02_dh_300-prng-1,30_issda_300,300,rng-300,21,rng,num-start-15001,15001,25726,447.5862982273102,True,,True,1,False,1000,True,1.0
./expes/v2_2020-12-02_dh_300-prng-1,30_issda_300,300,rng-300,1,rng,num-start-1,1,25726,0.03852653503417969,True,,True,1,False,1000,True,1.0
./expes/v2_2020-12-02_dh_300-prng-1,30_issda_300,300,rng-300,101,rng,num-start-6001,6001,25726,224.25295853614807,True,,True,1,False,1000,True,1.0
./expes/v2_2020-12-02_dh_300-prng-1,30_issda_300,300,rng-300,131,rng,num-start-8001,8001,25726,285.42491841316223,True,,True,1,False,1000,True,1.0
./expes/v2_2020-12-02_dh_300-prng-1,30_issda_300,300,rng-300,11,rng,num-start-6001,6001,25726,183.1920826435089,True,,True,1,False,1000,True,1.0
./expes/v2_2020-12-02_dh_300-prng-1,30_issda_300,300,rng-300,101,rng,num-start-1001,1001,25726,35.45757699012756,True,,True,1,False,1000,True,1.0
./expes/v2_2020-12-02_dh_300-prng-1,30_issda_300,300,rng-300,151,rng,num-start-15001,15001,25726,594.4613695144653,True,,True,1,False,1000,True,1.0
./expes/v2_2020-12-02_dh_300-prng-1,30_issda_300,300,rng-300,181,rng,num-start-3001,3001,25726,115.56567907333374,True,,True,1,False,1000,True,1.0
./expes/v2_2020-12-02_dh_300-prng-1,30_issda_300,300,rng-300,41,rng,num-start-2001,2001,25726,67.0510926246643,True,,True,1,False,1000,True,1.0
./expes/v2_2020-12-02_dh_300-prng-1,30_issda_300,300,rng-300,251,rng,num-start-7001,7001,25726,217.83265161514282,True,,True,1,False,1000,True,1.0
./expes/v2_2020-12-02_dh_300-prng-1,30_issda_300,300,rng-300,111,rng,num-start-5001,5001,25726,183.06692743301392,True,,True,1,False,1000,True,1.0
./expes/v2_2020-12-02_dh_300-prng-1,30_issda_300,300,rng-300,51,rng,num-start-4001,4001,25726,131.38583326339722,True,,True,1,False,1000,True,1.0
./expes/v2_2020-12-02_dh_300-prng-1,30_issda_300,300,rng-300,241,rng,num-start-15001,15001,25726,541.9951272010803,True,,True,1,False,1000,True,1.0
./expes/v2_2020-12-02_dh_300-prng-1,30_issda_300,300,rng-300,201,rng,num-start-10001,10001,25726,339.6685929298401,True,,True,1,False,1000,True,1.0
./expes/v2_2020-12-02_dh_300-prng-1,30_issda_300,300,rng-300,251,rng,num-start-12001,12001,25726,424.97604060173035,True,,True,1,False,1000,True,1.0
./expes/v2_2020-12-02_dh_300-prng-1,30_issda_300,300,rng-300,251,rng,num-start-9001,9001,25726,310.6135742664337,True,,True,1,False,1000,True,1.0
./expes/v2_2020-12-02_dh_300-prng-1,30_issda_300,300,rng-300,231,rng,num-start-11001,11001,25726,401.44830322265625,True,,True,1,False,1000,True,1.0
./expes/v2_2020-12-02_dh_300-prng-1,30_issda_300,300,rng-300,211,rng,num-start-12001,12001,25726,426.9719064235687,True,,True,1,False,1000,True,1.0
./expes/v2_2020-12-02_dh_300-prng-1,30_issda_300,300,rng-300,21,rng,num-start-6001,6001,25726,210.9846739768982,True,,True,1,False,1000,True,1.0
./expes/v2_2020-12-02_dh_300-prng-1,30_issda_300,300,rng-300,61,rng,num-start-7001,7001,25726,235.73100090026855,True,,True,1,False,1000,True,1.0
