expe,clients,clients_size,clients_subset,agg_size,method,days,days_size,days_total,time,valid,valid_sum,success,nsols,wall_hit,wall_time,pooled,valid_sums
./expes/v2_2020-11-23_di_50-prng-1,daily_issda_50,50,rng-50,1,rng,num-start-261,261,536,1.3713045120239258,True,,True,1,False,1000,True,1.0
./expes/v2_2020-11-23_di_50-prng-1,daily_issda_50,50,rng-50,21,rng,num-start-271,271,536,1.3931748867034912,True,,True,1,False,1000,True,1.0
./expes/v2_2020-11-23_di_50-prng-1,daily_issda_50,50,rng-50,11,rng,num-start-231,231,536,1.1695690155029297,True,,True,1,False,1000,True,1.0
./expes/v2_2020-11-23_di_50-prng-1,daily_issda_50,50,rng-50,21,rng,num-start-231,231,536,1.1572153568267822,True,,True,1,False,1000,True,1.0
./expes/v2_2020-11-23_di_50-prng-1,daily_issda_50,50,rng-50,31,rng,num-start-31,31,536,0.3092005252838135,True,,True,1,False,1000,True,1.0
./expes/v2_2020-11-23_di_50-prng-1,daily_issda_50,50,rng-50,41,rng,num-start-31,31,536,0.24697661399841309,True,,True,1,False,1000,True,1.0
./expes/v2_2020-11-23_di_50-prng-1,daily_issda_50,50,rng-50,21,rng,num-start-51,51,536,0.3399498462677002,True,,True,1,False,1000,True,1.0
./expes/v2_2020-11-23_di_50-prng-1,daily_issda_50,50,rng-50,21,rng,num-start-171,171,536,0.987086296081543,True,,True,1,False,1000,True,1.0
./expes/v2_2020-11-23_di_50-prng-1,daily_issda_50,50,rng-50,41,rng,num-start-161,161,536,0.9368586540222168,True,,True,1,False,1000,True,1.0
./expes/v2_2020-11-23_di_50-prng-1,daily_issda_50,50,rng-50,1,rng,num-start-201,201,536,1.009613037109375,True,,True,1,False,1000,True,1.0
./expes/v2_2020-11-23_di_50-prng-1,daily_issda_50,50,rng-50,41,rng,num-start-221,221,536,1.1168477535247803,True,,True,1,False,1000,True,1.0
./expes/v2_2020-11-23_di_50-prng-1,daily_issda_50,50,rng-50,31,rng,num-start-101,101,536,0.6018531322479248,True,,True,1,False,1000,True,1.0
./expes/v2_2020-11-23_di_50-prng-1,daily_issda_50,50,rng-50,31,rng,num-start-31,31,536,0.24054455757141113,True,,True,1,False,1000,True,1.0
./expes/v2_2020-11-23_di_50-prng-1,daily_issda_50,50,rng-50,21,rng,num-start-181,181,536,1.0969622135162354,True,,True,1,False,1000,True,1.0
./expes/v2_2020-11-23_di_50-prng-1,daily_issda_50,50,rng-50,21,rng,num-start-181,181,536,1.0868887901306152,True,,True,1,False,1000,True,1.0
./expes/v2_2020-11-23_di_50-prng-1,daily_issda_50,50,rng-50,21,rng,num-start-41,41,536,0.30950427055358887,True,,True,1,False,1000,True,1.0
./expes/v2_2020-11-23_di_50-prng-1,daily_issda_50,50,rng-50,11,rng,num-start-131,131,536,0.7873392105102539,True,,True,1,False,1000,True,1.0
./expes/v2_2020-11-23_di_50-prng-1,daily_issda_50,50,rng-50,31,rng,num-start-141,141,536,0.8303000926971436,True,,True,1,False,1000,True,1.0
./expes/v2_2020-11-23_di_50-prng-1,daily_issda_50,50,rng-50,41,rng,num-start-1,1,536,0.4776890277862549,False,,False,2,False,1000,True,1.0
./expes/v2_2020-11-23_di_50-prng-1,daily_issda_50,50,rng-50,31,rng,num-start-41,41,536,0.32419872283935547,True,,True,1,False,1000,True,1.0
./expes/v2_2020-11-23_di_50-prng-1,daily_issda_50,50,rng-50,11,rng,num-start-11,11,536,0.21959948539733887,True,,True,1,False,1000,True,1.0
./expes/v2_2020-11-23_di_50-prng-1,daily_issda_50,50,rng-50,1,rng,num-start-111,111,536,0.5546257495880127,True,,True,1,False,1000,True,1.0
./expes/v2_2020-11-23_di_50-prng-1,daily_issda_50,50,rng-50,41,rng,num-start-151,151,536,0.878089427947998,True,,True,1,False,1000,True,1.0
./expes/v2_2020-11-23_di_50-prng-1,daily_issda_50,50,rng-50,11,rng,num-start-91,91,536,0.580676794052124,True,,True,1,False,1000,True,1.0
./expes/v2_2020-11-23_di_50-prng-1,daily_issda_50,50,rng-50,41,rng,num-start-71,71,536,0.45938563346862793,True,,True,1,False,1000,True,1.0
./expes/v2_2020-11-23_di_50-prng-1,daily_issda_50,50,rng-50,1,rng,num-start-11,11,536,0.05906963348388672,True,,True,1,False,1000,True,1.0
./expes/v2_2020-11-23_di_50-prng-1,daily_issda_50,50,rng-50,11,rng,num-start-71,71,536,0.453336238861084,True,,True,1,False,1000,True,1.0
./expes/v2_2020-11-23_di_50-prng-1,daily_issda_50,50,rng-50,11,rng,num-start-211,211,536,1.2257978916168213,True,,True,1,False,1000,True,1.0
./expes/v2_2020-11-23_di_50-prng-1,daily_issda_50,50,rng-50,11,rng,num-start-131,131,536,0.7877981662750244,True,,True,1,False,1000,True,1.0
./expes/v2_2020-11-23_di_50-prng-1,daily_issda_50,50,rng-50,11,rng,num-start-261,261,536,1.305795669555664,True,,True,1,False,1000,True,1.0
./expes/v2_2020-11-23_di_50-prng-1,daily_issda_50,50,rng-50,11,rng,num-start-81,81,536,0.5322413444519043,True,,True,1,False,1000,True,1.0
./expes/v2_2020-11-23_di_50-prng-1,daily_issda_50,50,rng-50,11,rng,num-start-191,191,536,1.1059238910675049,True,,True,1,False,1000,True,1.0
./expes/v2_2020-11-23_di_50-prng-1,daily_issda_50,50,rng-50,41,rng,num-start-11,11,536,0.23813629150390625,True,,True,1,False,1000,True,1.0
./expes/v2_2020-11-23_di_50-prng-1,daily_issda_50,50,rng-50,21,rng,num-start-141,141,536,0.833855152130127,True,,True,1,False,1000,True,1.0
./expes/v2_2020-11-23_di_50-prng-1,daily_issda_50,50,rng-50,31,rng,num-start-31,31,536,0.23642230033874512,True,,True,1,False,1000,True,1.0
./expes/v2_2020-11-23_di_50-prng-1,daily_issda_50,50,rng-50,1,rng,num-start-251,251,536,1.2385444641113281,True,,True,1,False,1000,True,1.0
./expes/v2_2020-11-23_di_50-prng-1,daily_issda_50,50,rng-50,1,rng,num-start-171,171,536,0.856224775314331,True,,True,1,False,1000,True,1.0
./expes/v2_2020-11-23_di_50-prng-1,daily_issda_50,50,rng-50,41,rng,num-start-231,231,536,1.1921143531799316,True,,True,1,False,1000,True,1.0
./expes/v2_2020-11-23_di_50-prng-1,daily_issda_50,50,rng-50,1,rng,num-start-191,191,536,0.9635782241821289,True,,True,1,False,1000,True,1.0
./expes/v2_2020-11-23_di_50-prng-1,daily_issda_50,50,rng-50,1,rng,num-start-1,1,536,0.010346174240112305,True,,True,1,False,1000,True,1.0
./expes/v2_2020-11-23_di_50-prng-1,daily_issda_50,50,rng-50,11,rng,num-start-291,291,536,1.4918084144592285,True,,True,1,False,1000,True,1.0
./expes/v2_2020-11-23_di_50-prng-1,daily_issda_50,50,rng-50,41,rng,num-start-211,211,536,1.2359898090362549,True,,True,1,False,1000,True,1.0
./expes/v2_2020-11-23_di_50-prng-1,daily_issda_50,50,rng-50,21,rng,num-start-61,61,536,0.39759230613708496,True,,True,1,False,1000,True,1.0
./expes/v2_2020-11-23_di_50-prng-1,daily_issda_50,50,rng-50,11,rng,num-start-71,71,536,0.4819514751434326,True,,True,1,False,1000,True,1.0
./expes/v2_2020-11-23_di_50-prng-1,daily_issda_50,50,rng-50,41,rng,num-start-71,71,536,0.4378018379211426,True,,True,1,False,1000,True,1.0
./expes/v2_2020-11-23_di_50-prng-1,daily_issda_50,50,rng-50,21,rng,num-start-171,171,536,1.0122780799865723,True,,True,1,False,1000,True,1.0
./expes/v2_2020-11-23_di_50-prng-1,daily_issda_50,50,rng-50,41,rng,num-start-161,161,536,0.9579787254333496,True,,True,1,False,1000,True,1.0
./expes/v2_2020-11-23_di_50-prng-1,daily_issda_50,50,rng-50,21,rng,num-start-1,1,536,0.5832421779632568,False,,False,2,False,1000,True,1.0
./expes/v2_2020-11-23_di_50-prng-1,daily_issda_50,50,rng-50,31,rng,num-start-261,261,536,1.3213646411895752,True,,True,1,False,1000,True,1.0
./expes/v2_2020-11-23_di_50-prng-1,daily_issda_50,50,rng-50,41,rng,num-start-31,31,536,0.2799100875854492,True,,True,1,False,1000,True,1.0
./expes/v2_2020-11-23_di_50-prng-1,daily_issda_50,50,rng-50,31,rng,num-start-151,151,536,0.9092264175415039,True,,True,1,False,1000,True,1.0
./expes/v2_2020-11-23_di_50-prng-1,daily_issda_50,50,rng-50,21,rng,num-start-161,161,536,0.9857709407806396,True,,True,1,False,1000,True,1.0
./expes/v2_2020-11-23_di_50-prng-1,daily_issda_50,50,rng-50,41,rng,num-start-241,241,536,1.2023975849151611,True,,True,1,False,1000,True,1.0
./expes/v2_2020-11-23_di_50-prng-1,daily_issda_50,50,rng-50,21,rng,num-start-61,61,536,0.436962366104126,True,,True,1,False,1000,True,1.0
./expes/v2_2020-11-23_di_50-prng-1,daily_issda_50,50,rng-50,1,rng,num-start-271,271,536,1.3260576725006104,True,,True,1,False,1000,True,1.0
./expes/v2_2020-11-23_di_50-prng-1,daily_issda_50,50,rng-50,41,rng,num-start-31,31,536,0.27413368225097656,True,,True,1,False,1000,True,1.0
./expes/v2_2020-11-23_di_50-prng-1,daily_issda_50,50,rng-50,31,rng,num-start-281,281,536,1.4223570823669434,True,,True,1,False,1000,True,1.0
