expe,clients,clients_size,clients_subset,agg_size,method,days,days_size,days_total,time,valid,valid_sum,success,nsols,wall_hit,wall_time,pooled,valid_sums
./expes/v2_2020-11-09_3bh_150-prng-1,30_base_hphc_150,150,first-150,111,rng,num-start-991,991,17520,23.33455729484558,True,,True,1,False,1000,True,1.0
./expes/v2_2020-11-09_3bh_150-prng-1,30_base_hphc_150,150,first-150,101,rng,num-start-291,291,17520,6.805851221084595,True,,True,1,False,1000,True,1.0
./expes/v2_2020-11-09_3bh_150-prng-1,30_base_hphc_150,150,first-150,1,rng,num-start-521,521,17520,10.263107538223267,True,,True,1,False,1000,True,1.0
./expes/v2_2020-11-09_3bh_150-prng-1,30_base_hphc_150,150,first-150,131,rng,num-start-191,191,17520,4.449422597885132,True,,True,1,False,1000,True,1.0
./expes/v2_2020-11-09_3bh_150-prng-1,30_base_hphc_150,150,first-150,31,rng,num-start-21,21,17520,1000.7328782081604,False,,False,0,True,1000,True,0.0
./expes/v2_2020-11-09_3bh_150-prng-1,30_base_hphc_150,150,first-150,71,rng,num-start-51,51,17520,2.4259252548217773,True,,True,1,False,1000,True,1.0
./expes/v2_2020-11-09_3bh_150-prng-1,30_base_hphc_150,150,first-150,21,rng,num-start-781,781,17520,17.410982131958008,True,,True,1,False,1000,True,1.0
./expes/v2_2020-11-09_3bh_150-prng-1,30_base_hphc_150,150,first-150,11,rng,num-start-171,171,17520,3.873577117919922,True,,True,1,False,1000,True,1.0
./expes/v2_2020-11-09_3bh_150-prng-1,30_base_hphc_150,150,first-150,121,rng,num-start-511,511,17520,10.977912187576294,True,,True,1,False,1000,True,1.0
./expes/v2_2020-11-09_3bh_150-prng-1,30_base_hphc_150,150,first-150,71,rng,num-start-261,261,17520,5.976262807846069,True,,True,1,False,1000,True,1.0
./expes/v2_2020-11-09_3bh_150-prng-1,30_base_hphc_150,150,first-150,21,rng,num-start-871,871,17520,19.59352993965149,True,,True,1,False,1000,True,1.0
./expes/v2_2020-11-09_3bh_150-prng-1,30_base_hphc_150,150,first-150,11,rng,num-start-761,761,17520,17.066051721572876,True,,True,1,False,1000,True,1.0
./expes/v2_2020-11-09_3bh_150-prng-1,30_base_hphc_150,150,first-150,51,rng,num-start-271,271,17520,6.145978212356567,True,,True,1,False,1000,True,1.0
./expes/v2_2020-11-09_3bh_150-prng-1,30_base_hphc_150,150,first-150,51,rng,num-start-361,361,17520,8.146001100540161,True,,True,1,False,1000,True,1.0
./expes/v2_2020-11-09_3bh_150-prng-1,30_base_hphc_150,150,first-150,1,rng,num-start-801,801,17520,15.890956163406372,True,,True,1,False,1000,True,1.0
./expes/v2_2020-11-09_3bh_150-prng-1,30_base_hphc_150,150,first-150,101,rng,num-start-61,61,17520,1.4032258987426758,True,,True,1,False,1000,True,1.0
./expes/v2_2020-11-09_3bh_150-prng-1,30_base_hphc_150,150,first-150,1,rng,num-start-531,531,17520,10.54200792312622,True,,True,1,False,1000,True,1.0
./expes/v2_2020-11-09_3bh_150-prng-1,30_base_hphc_150,150,first-150,121,rng,num-start-101,101,17520,2.316432476043701,True,,True,1,False,1000,True,1.0
./expes/v2_2020-11-09_3bh_150-prng-1,30_base_hphc_150,150,first-150,31,rng,num-start-161,161,17520,3.724442720413208,True,,True,1,False,1000,True,1.0
./expes/v2_2020-11-09_3bh_150-prng-1,30_base_hphc_150,150,first-150,111,rng,num-start-861,861,17520,19.61756157875061,True,,True,1,False,1000,True,1.0
./expes/v2_2020-11-09_3bh_150-prng-1,30_base_hphc_150,150,first-150,101,rng,num-start-601,601,17520,13.793169021606445,True,,True,1,False,1000,True,1.0
./expes/v2_2020-11-09_3bh_150-prng-1,30_base_hphc_150,150,first-150,141,rng,num-start-151,151,17520,3.3754403591156006,True,,True,1,False,1000,True,1.0
./expes/v2_2020-11-09_3bh_150-prng-1,30_base_hphc_150,150,first-150,111,rng,num-start-311,311,17520,6.923842668533325,True,,True,1,False,1000,True,1.0
./expes/v2_2020-11-09_3bh_150-prng-1,30_base_hphc_150,150,first-150,31,rng,num-start-761,761,17520,16.393637895584106,True,,True,1,False,1000,True,1.0
./expes/v2_2020-11-09_3bh_150-prng-1,30_base_hphc_150,150,first-150,71,rng,num-start-361,361,17520,8.330404996871948,True,,True,1,False,1000,True,1.0
./expes/v2_2020-11-09_3bh_150-prng-1,30_base_hphc_150,150,first-150,41,rng,num-start-221,221,17520,4.79310941696167,True,,True,1,False,1000,True,1.0
./expes/v2_2020-11-09_3bh_150-prng-1,30_base_hphc_150,150,first-150,141,rng,num-start-781,781,17520,15.953531265258789,True,,True,1,False,1000,True,1.0
./expes/v2_2020-11-09_3bh_150-prng-1,30_base_hphc_150,150,first-150,71,rng,num-start-451,451,17520,9.827749490737915,True,,True,1,False,1000,True,1.0
./expes/v2_2020-11-09_3bh_150-prng-1,30_base_hphc_150,150,first-150,21,rng,num-start-841,841,17520,18.737238883972168,True,,True,1,False,1000,True,1.0
./expes/v2_2020-11-09_3bh_150-prng-1,30_base_hphc_150,150,first-150,71,rng,num-start-291,291,17520,6.805705547332764,True,,True,1,False,1000,True,1.0
./expes/v2_2020-11-09_3bh_150-prng-1,30_base_hphc_150,150,first-150,11,rng,num-start-541,541,17520,11.594738483428955,True,,True,1,False,1000,True,1.0
./expes/v2_2020-11-09_3bh_150-prng-1,30_base_hphc_150,150,first-150,121,rng,num-start-31,31,17520,4.848292827606201,True,,True,1,False,1000,True,1.0
./expes/v2_2020-11-09_3bh_150-prng-1,30_base_hphc_150,150,first-150,1,rng,num-start-541,541,17520,10.887105941772461,True,,True,1,False,1000,True,1.0
./expes/v2_2020-11-09_3bh_150-prng-1,30_base_hphc_150,150,first-150,21,rng,num-start-341,341,17520,7.615935564041138,True,,True,1,False,1000,True,1.0
./expes/v2_2020-11-09_3bh_150-prng-1,30_base_hphc_150,150,first-150,11,rng,num-start-821,821,17520,17.496962547302246,True,,True,1,False,1000,True,1.0
./expes/v2_2020-11-09_3bh_150-prng-1,30_base_hphc_150,150,first-150,61,rng,num-start-861,861,17520,20.335975885391235,True,,True,1,False,1000,True,1.0
./expes/v2_2020-11-09_3bh_150-prng-1,30_base_hphc_150,150,first-150,91,rng,num-start-161,161,17520,3.7953834533691406,True,,True,1,False,1000,True,1.0
./expes/v2_2020-11-09_3bh_150-prng-1,30_base_hphc_150,150,first-150,111,rng,num-start-451,451,17520,10.127999067306519,True,,True,1,False,1000,True,1.0
./expes/v2_2020-11-09_3bh_150-prng-1,30_base_hphc_150,150,first-150,61,rng,num-start-201,201,17520,4.553385496139526,True,,True,1,False,1000,True,1.0
./expes/v2_2020-11-09_3bh_150-prng-1,30_base_hphc_150,150,first-150,71,rng,num-start-711,711,17520,17.425790548324585,True,,True,1,False,1000,True,1.0
./expes/v2_2020-11-09_3bh_150-prng-1,30_base_hphc_150,150,first-150,61,rng,num-start-71,71,17520,2.8364028930664062,True,,True,1,False,1000,True,1.0
./expes/v2_2020-11-09_3bh_150-prng-1,30_base_hphc_150,150,first-150,11,rng,num-start-261,261,17520,5.881214380264282,True,,True,1,False,1000,True,1.0
./expes/v2_2020-11-09_3bh_150-prng-1,30_base_hphc_150,150,first-150,1,rng,num-start-351,351,17520,6.90653657913208,True,,True,1,False,1000,True,1.0
./expes/v2_2020-11-09_3bh_150-prng-1,30_base_hphc_150,150,first-150,141,rng,num-start-381,381,17520,8.05021858215332,True,,True,1,False,1000,True,1.0
./expes/v2_2020-11-09_3bh_150-prng-1,30_base_hphc_150,150,first-150,111,rng,num-start-31,31,17520,1000.7513625621796,False,,False,0,True,1000,True,0.0
./expes/v2_2020-11-09_3bh_150-prng-1,30_base_hphc_150,150,first-150,21,rng,num-start-551,551,17520,11.750109195709229,True,,True,1,False,1000,True,1.0
./expes/v2_2020-11-09_3bh_150-prng-1,30_base_hphc_150,150,first-150,31,rng,num-start-81,81,17520,1.9398443698883057,True,,True,1,False,1000,True,1.0
./expes/v2_2020-11-09_3bh_150-prng-1,30_base_hphc_150,150,first-150,91,rng,num-start-901,901,17520,20.566452503204346,True,,True,1,False,1000,True,1.0
./expes/v2_2020-11-09_3bh_150-prng-1,30_base_hphc_150,150,first-150,71,rng,num-start-841,841,17520,19.689576625823975,True,,True,1,False,1000,True,1.0
./expes/v2_2020-11-09_3bh_150-prng-1,30_base_hphc_150,150,first-150,111,rng,num-start-131,131,17520,3.020488977432251,True,,True,1,False,1000,True,1.0
./expes/v2_2020-11-09_3bh_150-prng-1,30_base_hphc_150,150,first-150,91,rng,num-start-811,811,17520,19.20071816444397,True,,True,1,False,1000,True,1.0
./expes/v2_2020-11-09_3bh_150-prng-1,30_base_hphc_150,150,first-150,81,rng,num-start-451,451,17520,10.430571794509888,True,,True,1,False,1000,True,1.0
./expes/v2_2020-11-09_3bh_150-prng-1,30_base_hphc_150,150,first-150,41,rng,num-start-301,301,17520,6.644994020462036,True,,True,1,False,1000,True,1.0
./expes/v2_2020-11-09_3bh_150-prng-1,30_base_hphc_150,150,first-150,91,rng,num-start-621,621,17520,14.879273176193237,True,,True,1,False,1000,True,1.0
./expes/v2_2020-11-09_3bh_150-prng-1,30_base_hphc_150,150,first-150,1,rng,num-start-861,861,17520,17.218604564666748,True,,True,1,False,1000,True,1.0
./expes/v2_2020-11-09_3bh_150-prng-1,30_base_hphc_150,150,first-150,51,rng,num-start-631,631,17520,14.016491651535034,True,,True,1,False,1000,True,1.0
./expes/v2_2020-11-09_3bh_150-prng-1,30_base_hphc_150,150,first-150,91,rng,num-start-181,181,17520,4.289940118789673,True,,True,1,False,1000,True,1.0
./expes/v2_2020-11-09_3bh_150-prng-1,30_base_hphc_150,150,first-150,31,rng,num-start-141,141,17520,3.2825124263763428,True,,True,1,False,1000,True,1.0
./expes/v2_2020-11-09_3bh_150-prng-1,30_base_hphc_150,150,first-150,31,rng,num-start-981,981,17520,23.85419774055481,True,,True,1,False,1000,True,1.0
./expes/v2_2020-11-09_3bh_150-prng-1,30_base_hphc_150,150,first-150,41,rng,num-start-871,871,17520,20.390820503234863,True,,True,1,False,1000,True,1.0
./expes/v2_2020-11-09_3bh_150-prng-1,30_base_hphc_150,150,first-150,51,rng,num-start-471,471,17520,10.661077499389648,True,,True,1,False,1000,True,1.0
./expes/v2_2020-11-09_3bh_150-prng-1,30_base_hphc_150,150,first-150,121,rng,num-start-881,881,17520,21.073496103286743,True,,True,1,False,1000,True,1.0
./expes/v2_2020-11-09_3bh_150-prng-1,30_base_hphc_150,150,first-150,101,rng,num-start-781,781,17520,17.431586980819702,True,,True,1,False,1000,True,1.0
./expes/v2_2020-11-09_3bh_150-prng-1,30_base_hphc_150,150,first-150,61,rng,num-start-541,541,17520,12.555900573730469,True,,True,1,False,1000,True,1.0
./expes/v2_2020-11-09_3bh_150-prng-1,30_base_hphc_150,150,first-150,101,rng,num-start-501,501,17520,11.437644004821777,True,,True,1,False,1000,True,1.0
./expes/v2_2020-11-09_3bh_150-prng-1,30_base_hphc_150,150,first-150,121,rng,num-start-201,201,17520,4.448990345001221,True,,True,1,False,1000,True,1.0
./expes/v2_2020-11-09_3bh_150-prng-1,30_base_hphc_150,150,first-150,51,rng,num-start-411,411,17520,9.544847249984741,True,,True,1,False,1000,True,1.0
./expes/v2_2020-11-09_3bh_150-prng-1,30_base_hphc_150,150,first-150,21,rng,num-start-411,411,17520,9.360777378082275,True,,True,1,False,1000,True,1.0
./expes/v2_2020-11-09_3bh_150-prng-1,30_base_hphc_150,150,first-150,61,rng,num-start-891,891,17520,20.748512983322144,True,,True,1,False,1000,True,1.0
./expes/v2_2020-11-09_3bh_150-prng-1,30_base_hphc_150,150,first-150,31,rng,num-start-541,541,17520,12.212244987487793,True,,True,1,False,1000,True,1.0
./expes/v2_2020-11-09_3bh_150-prng-1,30_base_hphc_150,150,first-150,1,rng,num-start-111,111,17520,2.283334732055664,True,,True,1,False,1000,True,1.0
./expes/v2_2020-11-09_3bh_150-prng-1,30_base_hphc_150,150,first-150,81,rng,num-start-921,921,17520,20.68833303451538,True,,True,1,False,1000,True,1.0
./expes/v2_2020-11-09_3bh_150-prng-1,30_base_hphc_150,150,first-150,21,rng,num-start-761,761,17520,17.1337730884552,True,,True,1,False,1000,True,1.0
./expes/v2_2020-11-09_3bh_150-prng-1,30_base_hphc_150,150,first-150,31,rng,num-start-991,991,17520,23.874207258224487,True,,True,1,False,1000,True,1.0
./expes/v2_2020-11-09_3bh_150-prng-1,30_base_hphc_150,150,first-150,1,rng,num-start-811,811,17520,16.210620164871216,True,,True,1,False,1000,True,1.0
./expes/v2_2020-11-09_3bh_150-prng-1,30_base_hphc_150,150,first-150,41,rng,num-start-441,441,17520,10.129926919937134,True,,True,1,False,1000,True,1.0
./expes/v2_2020-11-09_3bh_150-prng-1,30_base_hphc_150,150,first-150,121,rng,num-start-261,261,17520,5.822635173797607,True,,True,1,False,1000,True,1.0
./expes/v2_2020-11-09_3bh_150-prng-1,30_base_hphc_150,150,first-150,141,rng,num-start-801,801,17520,16.633997678756714,True,,True,1,False,1000,True,1.0
./expes/v2_2020-11-09_3bh_150-prng-1,30_base_hphc_150,150,first-150,141,rng,num-start-431,431,17520,9.288814783096313,True,,True,1,False,1000,True,1.0
./expes/v2_2020-11-09_3bh_150-prng-1,30_base_hphc_150,150,first-150,81,rng,num-start-461,461,17520,10.260998725891113,True,,True,1,False,1000,True,1.0
./expes/v2_2020-11-09_3bh_150-prng-1,30_base_hphc_150,150,first-150,101,rng,num-start-61,61,17520,2.4168765544891357,True,,True,1,False,1000,True,1.0
./expes/v2_2020-11-09_3bh_150-prng-1,30_base_hphc_150,150,first-150,111,rng,num-start-31,31,17520,465.6848945617676,True,,True,1,False,1000,True,1.0
./expes/v2_2020-11-09_3bh_150-prng-1,30_base_hphc_150,150,first-150,21,rng,num-start-171,171,17520,3.845871686935425,True,,True,1,False,1000,True,1.0
