expe,clients,clients_size,clients_subset,agg_size,method,days,days_size,days_total,time,valid,valid_sum,success,nsols,wall_hit,wall_time,pooled,valid_sums
./expes/v2_2020-11-09_3bh_150-prng-1,30_base_hphc_150,150,first-150,1,rng,num-start-221,221,17520,3.5053019523620605,True,,True,1,False,1000,True,1.0
./expes/v2_2020-11-09_3bh_150-prng-1,30_base_hphc_150,150,first-150,21,rng,num-start-641,641,17520,12.409553527832031,True,,True,1,False,1000,True,1.0
./expes/v2_2020-11-09_3bh_150-prng-1,30_base_hphc_150,150,first-150,91,rng,num-start-81,81,17520,1.596165657043457,True,,True,1,False,1000,True,1.0
./expes/v2_2020-11-09_3bh_150-prng-1,30_base_hphc_150,150,first-150,51,rng,num-start-911,911,17520,15.875299453735352,True,,True,1,False,1000,True,1.0
./expes/v2_2020-11-09_3bh_150-prng-1,30_base_hphc_150,150,first-150,51,rng,num-start-11,11,17520,1000.301914691925,False,,False,0,True,1000,True,0.0
./expes/v2_2020-11-09_3bh_150-prng-1,30_base_hphc_150,150,first-150,1,rng,num-start-261,261,17520,4.064423322677612,True,,True,1,False,1000,True,1.0
./expes/v2_2020-11-09_3bh_150-prng-1,30_base_hphc_150,150,first-150,81,rng,num-start-331,331,17520,6.377184867858887,True,,True,1,False,1000,True,1.0
./expes/v2_2020-11-09_3bh_150-prng-1,30_base_hphc_150,150,first-150,131,rng,num-start-201,201,17520,3.9505198001861572,True,,True,1,False,1000,True,1.0
./expes/v2_2020-11-09_3bh_150-prng-1,30_base_hphc_150,150,first-150,1,rng,num-start-301,301,17520,4.6720685958862305,True,,True,1,False,1000,True,1.0
./expes/v2_2020-11-09_3bh_150-prng-1,30_base_hphc_150,150,first-150,21,rng,num-start-891,891,17520,15.857009172439575,True,,True,1,False,1000,True,1.0
./expes/v2_2020-11-09_3bh_150-prng-1,30_base_hphc_150,150,first-150,11,rng,num-start-581,581,17520,10.079312086105347,True,,True,1,False,1000,True,1.0
./expes/v2_2020-11-09_3bh_150-prng-1,30_base_hphc_150,150,first-150,81,rng,num-start-561,561,17520,10.473772764205933,True,,True,1,False,1000,True,1.0
./expes/v2_2020-11-09_3bh_150-prng-1,30_base_hphc_150,150,first-150,31,rng,num-start-361,361,17520,6.991722345352173,True,,True,1,False,1000,True,1.0
./expes/v2_2020-11-09_3bh_150-prng-1,30_base_hphc_150,150,first-150,121,rng,num-start-211,211,17520,3.9285635948181152,True,,True,1,False,1000,True,1.0
./expes/v2_2020-11-09_3bh_150-prng-1,30_base_hphc_150,150,first-150,71,rng,num-start-301,301,17520,5.553900718688965,True,,True,1,False,1000,True,1.0
./expes/v2_2020-11-09_3bh_150-prng-1,30_base_hphc_150,150,first-150,1,rng,num-start-611,611,17520,9.502384424209595,True,,True,1,False,1000,True,1.0
./expes/v2_2020-11-09_3bh_150-prng-1,30_base_hphc_150,150,first-150,101,rng,num-start-231,231,17520,4.546682119369507,True,,True,1,False,1000,True,1.0
./expes/v2_2020-11-09_3bh_150-prng-1,30_base_hphc_150,150,first-150,81,rng,num-start-711,711,17520,12.714877367019653,True,,True,1,False,1000,True,1.0
./expes/v2_2020-11-09_3bh_150-prng-1,30_base_hphc_150,150,first-150,111,rng,num-start-371,371,17520,6.5394933223724365,True,,True,1,False,1000,True,1.0
./expes/v2_2020-11-09_3bh_150-prng-1,30_base_hphc_150,150,first-150,91,rng,num-start-831,831,17520,15.07688021659851,True,,True,1,False,1000,True,1.0
./expes/v2_2020-11-09_3bh_150-prng-1,30_base_hphc_150,150,first-150,41,rng,num-start-851,851,17520,15.112410306930542,True,,True,1,False,1000,True,1.0
./expes/v2_2020-11-09_3bh_150-prng-1,30_base_hphc_150,150,first-150,71,rng,num-start-351,351,17520,6.599317312240601,True,,True,1,False,1000,True,1.0
./expes/v2_2020-11-09_3bh_150-prng-1,30_base_hphc_150,150,first-150,11,rng,num-start-951,951,17520,16.431962490081787,True,,True,1,False,1000,True,1.0
./expes/v2_2020-11-09_3bh_150-prng-1,30_base_hphc_150,150,first-150,61,rng,num-start-331,331,17520,6.317409038543701,True,,True,1,False,1000,True,1.0
./expes/v2_2020-11-09_3bh_150-prng-1,30_base_hphc_150,150,first-150,81,rng,num-start-691,691,17520,12.48975658416748,True,,True,1,False,1000,True,1.0
./expes/v2_2020-11-09_3bh_150-prng-1,30_base_hphc_150,150,first-150,1,rng,num-start-181,181,17520,2.8367810249328613,True,,True,1,False,1000,True,1.0
./expes/v2_2020-11-09_3bh_150-prng-1,30_base_hphc_150,150,first-150,41,rng,num-start-131,131,17520,2.5811843872070312,True,,True,1,False,1000,True,1.0
./expes/v2_2020-11-09_3bh_150-prng-1,30_base_hphc_150,150,first-150,21,rng,num-start-451,451,17520,8.52999472618103,True,,True,1,False,1000,True,1.0
./expes/v2_2020-11-09_3bh_150-prng-1,30_base_hphc_150,150,first-150,51,rng,num-start-141,141,17520,2.963226318359375,True,,True,1,False,1000,True,1.0
./expes/v2_2020-11-09_3bh_150-prng-1,30_base_hphc_150,150,first-150,61,rng,num-start-981,981,17520,17.209813117980957,True,,True,1,False,1000,True,1.0
./expes/v2_2020-11-09_3bh_150-prng-1,30_base_hphc_150,150,first-150,71,rng,num-start-991,991,17520,17.360185384750366,True,,True,1,False,1000,True,1.0
./expes/v2_2020-11-09_3bh_150-prng-1,30_base_hphc_150,150,first-150,51,rng,num-start-261,261,17520,5.063945770263672,True,,True,1,False,1000,True,1.0
./expes/v2_2020-11-09_3bh_150-prng-1,30_base_hphc_150,150,first-150,141,rng,num-start-171,171,17520,3.374277114868164,True,,True,1,False,1000,True,1.0
./expes/v2_2020-11-09_3bh_150-prng-1,30_base_hphc_150,150,first-150,41,rng,num-start-581,581,17520,10.630239248275757,True,,True,1,False,1000,True,1.0
./expes/v2_2020-11-09_3bh_150-prng-1,30_base_hphc_150,150,first-150,11,rng,num-start-311,311,17520,6.042734861373901,True,,True,1,False,1000,True,1.0
./expes/v2_2020-11-09_3bh_150-prng-1,30_base_hphc_150,150,first-150,71,rng,num-start-251,251,17520,4.6831841468811035,True,,True,1,False,1000,True,1.0
./expes/v2_2020-11-09_3bh_150-prng-1,30_base_hphc_150,150,first-150,81,rng,num-start-121,121,17520,2.643296003341675,True,,True,1,False,1000,True,1.0
./expes/v2_2020-11-09_3bh_150-prng-1,30_base_hphc_150,150,first-150,101,rng,num-start-431,431,17520,8.299168348312378,True,,True,1,False,1000,True,1.0
./expes/v2_2020-11-09_3bh_150-prng-1,30_base_hphc_150,150,first-150,11,rng,num-start-891,891,17520,14.983707189559937,True,,True,1,False,1000,True,1.0
./expes/v2_2020-11-09_3bh_150-prng-1,30_base_hphc_150,150,first-150,111,rng,num-start-111,111,17520,2.211766242980957,True,,True,1,False,1000,True,1.0
./expes/v2_2020-11-09_3bh_150-prng-1,30_base_hphc_150,150,first-150,71,rng,num-start-631,631,17520,11.518554210662842,True,,True,1,False,1000,True,1.0
./expes/v2_2020-11-09_3bh_150-prng-1,30_base_hphc_150,150,first-150,111,rng,num-start-241,241,17520,4.761201858520508,True,,True,1,False,1000,True,1.0
./expes/v2_2020-11-09_3bh_150-prng-1,30_base_hphc_150,150,first-150,81,rng,num-start-51,51,17520,2.9754209518432617,True,,True,1,False,1000,True,1.0
./expes/v2_2020-11-09_3bh_150-prng-1,30_base_hphc_150,150,first-150,81,rng,num-start-71,71,17520,1.6574177742004395,True,,True,1,False,1000,True,1.0
./expes/v2_2020-11-09_3bh_150-prng-1,30_base_hphc_150,150,first-150,121,rng,num-start-841,841,17520,14.799391746520996,True,,True,1,False,1000,True,1.0
./expes/v2_2020-11-09_3bh_150-prng-1,30_base_hphc_150,150,first-150,81,rng,num-start-841,841,17520,16.131773233413696,True,,True,1,False,1000,True,1.0
./expes/v2_2020-11-09_3bh_150-prng-1,30_base_hphc_150,150,first-150,1,rng,num-start-741,741,17520,11.61595368385315,True,,True,1,False,1000,True,1.0
./expes/v2_2020-11-09_3bh_150-prng-1,30_base_hphc_150,150,first-150,51,rng,num-start-921,921,17520,16.825141668319702,True,,True,1,False,1000,True,1.0
./expes/v2_2020-11-09_3bh_150-prng-1,30_base_hphc_150,150,first-150,1,rng,num-start-251,251,17520,3.8117947578430176,True,,True,1,False,1000,True,1.0
./expes/v2_2020-11-09_3bh_150-prng-1,30_base_hphc_150,150,first-150,11,rng,num-start-391,391,17520,6.666774272918701,True,,True,1,False,1000,True,1.0
./expes/v2_2020-11-09_3bh_150-prng-1,30_base_hphc_150,150,first-150,141,rng,num-start-371,371,17520,6.312503099441528,True,,True,1,False,1000,True,1.0
./expes/v2_2020-11-09_3bh_150-prng-1,30_base_hphc_150,150,first-150,111,rng,num-start-711,711,17520,12.174815893173218,True,,True,1,False,1000,True,1.0
./expes/v2_2020-11-09_3bh_150-prng-1,30_base_hphc_150,150,first-150,21,rng,num-start-791,791,17520,13.903570413589478,True,,True,1,False,1000,True,1.0
./expes/v2_2020-11-09_3bh_150-prng-1,30_base_hphc_150,150,first-150,121,rng,num-start-821,821,17520,13.910570859909058,True,,True,1,False,1000,True,1.0
./expes/v2_2020-11-09_3bh_150-prng-1,30_base_hphc_150,150,first-150,91,rng,num-start-131,131,17520,2.5306570529937744,True,,True,1,False,1000,True,1.0
./expes/v2_2020-11-09_3bh_150-prng-1,30_base_hphc_150,150,first-150,141,rng,num-start-391,391,17520,6.679103374481201,True,,True,1,False,1000,True,1.0
./expes/v2_2020-11-09_3bh_150-prng-1,30_base_hphc_150,150,first-150,121,rng,num-start-721,721,17520,12.331509113311768,True,,True,1,False,1000,True,1.0
./expes/v2_2020-11-09_3bh_150-prng-1,30_base_hphc_150,150,first-150,141,rng,num-start-341,341,17520,5.939937353134155,True,,True,1,False,1000,True,1.0
./expes/v2_2020-11-09_3bh_150-prng-1,30_base_hphc_150,150,first-150,131,rng,num-start-271,271,17520,4.769093990325928,True,,True,1,False,1000,True,1.0
./expes/v2_2020-11-09_3bh_150-prng-1,30_base_hphc_150,150,first-150,51,rng,num-start-361,361,17520,6.148290157318115,True,,True,1,False,1000,True,1.0
./expes/v2_2020-11-09_3bh_150-prng-1,30_base_hphc_150,150,first-150,141,rng,num-start-271,271,17520,4.71171760559082,True,,True,1,False,1000,True,1.0
./expes/v2_2020-11-09_3bh_150-prng-1,30_base_hphc_150,150,first-150,111,rng,num-start-281,281,17520,5.103945016860962,True,,True,1,False,1000,True,1.0
./expes/v2_2020-11-09_3bh_150-prng-1,30_base_hphc_150,150,first-150,11,rng,num-start-261,261,17520,4.891887187957764,True,,True,1,False,1000,True,1.0
./expes/v2_2020-11-09_3bh_150-prng-1,30_base_hphc_150,150,first-150,121,rng,num-start-411,411,17520,7.054789066314697,True,,True,1,False,1000,True,1.0
./expes/v2_2020-11-09_3bh_150-prng-1,30_base_hphc_150,150,first-150,31,rng,num-start-931,931,17520,15.829546451568604,True,,True,1,False,1000,True,1.0
./expes/v2_2020-11-09_3bh_150-prng-1,30_base_hphc_150,150,first-150,91,rng,num-start-931,931,17520,17.709117889404297,True,,True,1,False,1000,True,1.0
./expes/v2_2020-11-09_3bh_150-prng-1,30_base_hphc_150,150,first-150,81,rng,num-start-621,621,17520,10.587207078933716,True,,True,1,False,1000,True,1.0
./expes/v2_2020-11-09_3bh_150-prng-1,30_base_hphc_150,150,first-150,81,rng,num-start-1,1,17520,0.02566051483154297,False,,False,2,False,1000,True,1.0
./expes/v2_2020-11-09_3bh_150-prng-1,30_base_hphc_150,150,first-150,121,rng,num-start-161,161,17520,3.058825731277466,True,,True,1,False,1000,True,1.0
./expes/v2_2020-11-09_3bh_150-prng-1,30_base_hphc_150,150,first-150,31,rng,num-start-31,31,17520,1004.3582437038422,False,,False,0,True,1000,True,0.0
./expes/v2_2020-11-09_3bh_150-prng-1,30_base_hphc_150,150,first-150,101,rng,num-start-331,331,17520,6.019061088562012,True,,True,1,False,1000,True,1.0
./expes/v2_2020-11-09_3bh_150-prng-1,30_base_hphc_150,150,first-150,1,rng,num-start-961,961,17520,14.717614889144897,True,,True,1,False,1000,True,1.0
./expes/v2_2020-11-09_3bh_150-prng-1,30_base_hphc_150,150,first-150,1,rng,num-start-591,591,17520,9.135331630706787,True,,True,1,False,1000,True,1.0
./expes/v2_2020-11-09_3bh_150-prng-1,30_base_hphc_150,150,first-150,141,rng,num-start-711,711,17520,12.364011526107788,True,,True,1,False,1000,True,1.0
./expes/v2_2020-11-09_3bh_150-prng-1,30_base_hphc_150,150,first-150,21,rng,num-start-831,831,17520,15.169689893722534,True,,True,1,False,1000,True,1.0
./expes/v2_2020-11-09_3bh_150-prng-1,30_base_hphc_150,150,first-150,121,rng,num-start-81,81,17520,1.7714364528656006,True,,True,1,False,1000,True,1.0
./expes/v2_2020-11-09_3bh_150-prng-1,30_base_hphc_150,150,first-150,111,rng,num-start-81,81,17520,1.5786066055297852,True,,True,1,False,1000,True,1.0
./expes/v2_2020-11-09_3bh_150-prng-1,30_base_hphc_150,150,first-150,131,rng,num-start-621,621,17520,11.389807939529419,True,,True,1,False,1000,True,1.0
./expes/v2_2020-11-09_3bh_150-prng-1,30_base_hphc_150,150,first-150,71,rng,num-start-471,471,17520,8.860533237457275,True,,True,1,False,1000,True,1.0
./expes/v2_2020-11-09_3bh_150-prng-1,30_base_hphc_150,150,first-150,81,rng,num-start-161,161,17520,3.245130777359009,True,,True,1,False,1000,True,1.0
./expes/v2_2020-11-09_3bh_150-prng-1,30_base_hphc_150,150,first-150,11,rng,num-start-371,371,17520,6.508206605911255,True,,True,1,False,1000,True,1.0
./expes/v2_2020-11-09_3bh_150-prng-1,30_base_hphc_150,150,first-150,11,rng,num-start-871,871,17520,15.277420282363892,True,,True,1,False,1000,True,1.0
./expes/v2_2020-11-09_3bh_150-prng-1,30_base_hphc_150,150,first-150,61,rng,num-start-171,171,17520,3.5658318996429443,True,,True,1,False,1000,True,1.0
./expes/v2_2020-11-09_3bh_150-prng-1,30_base_hphc_150,150,first-150,131,rng,num-start-231,231,17520,4.454490423202515,True,,True,1,False,1000,True,1.0
./expes/v2_2020-11-09_3bh_150-prng-1,30_base_hphc_150,150,first-150,11,rng,num-start-371,371,17520,7.125670671463013,True,,True,1,False,1000,True,1.0
./expes/v2_2020-11-09_3bh_150-prng-1,30_base_hphc_150,150,first-150,21,rng,num-start-951,951,17520,16.092819929122925,True,,True,1,False,1000,True,1.0
./expes/v2_2020-11-09_3bh_150-prng-1,30_base_hphc_150,150,first-150,121,rng,num-start-941,941,17520,15.400787115097046,True,,True,1,False,1000,True,1.0
./expes/v2_2020-11-09_3bh_150-prng-1,30_base_hphc_150,150,first-150,81,rng,num-start-971,971,17520,16.24240779876709,True,,True,1,False,1000,True,1.0
./expes/v2_2020-11-09_3bh_150-prng-1,30_base_hphc_150,150,first-150,51,rng,num-start-921,921,17520,15.116008281707764,True,,True,1,False,1000,True,1.0
./expes/v2_2020-11-09_3bh_150-prng-1,30_base_hphc_150,150,first-150,61,rng,num-start-651,651,17520,10.921405792236328,True,,True,1,False,1000,True,1.0
./expes/v2_2020-11-09_3bh_150-prng-1,30_base_hphc_150,150,first-150,41,rng,num-start-401,401,17520,6.965456247329712,True,,True,1,False,1000,True,1.0
./expes/v2_2020-11-09_3bh_150-prng-1,30_base_hphc_150,150,first-150,101,rng,num-start-421,421,17520,7.20686149597168,True,,True,1,False,1000,True,1.0
./expes/v2_2020-11-09_3bh_150-prng-1,30_base_hphc_150,150,first-150,1,rng,num-start-51,51,17520,0.7602829933166504,True,,True,1,False,1000,True,1.0
./expes/v2_2020-11-09_3bh_150-prng-1,30_base_hphc_150,150,first-150,111,rng,num-start-21,21,17520,1000.971785068512,False,,False,0,True,1000,True,0.0
./expes/v2_2020-11-09_3bh_150-prng-1,30_base_hphc_150,150,first-150,81,rng,num-start-421,421,17520,7.6222851276397705,True,,True,1,False,1000,True,1.0
./expes/v2_2020-11-09_3bh_150-prng-1,30_base_hphc_150,150,first-150,61,rng,num-start-471,471,17520,9.42714262008667,True,,True,1,False,1000,True,1.0
./expes/v2_2020-11-09_3bh_150-prng-1,30_base_hphc_150,150,first-150,91,rng,num-start-731,731,17520,13.956770420074463,True,,True,1,False,1000,True,1.0
./expes/v2_2020-11-09_3bh_150-prng-1,30_base_hphc_150,150,first-150,101,rng,num-start-951,951,17520,18.165977478027344,True,,True,1,False,1000,True,1.0
./expes/v2_2020-11-09_3bh_150-prng-1,30_base_hphc_150,150,first-150,1,rng,num-start-391,391,17520,6.0521769523620605,True,,True,1,False,1000,True,1.0
./expes/v2_2020-11-09_3bh_150-prng-1,30_base_hphc_150,150,first-150,121,rng,num-start-681,681,17520,12.491935014724731,True,,True,1,False,1000,True,1.0
./expes/v2_2020-11-09_3bh_150-prng-1,30_base_hphc_150,150,first-150,81,rng,num-start-81,81,17520,1.8417305946350098,True,,True,1,False,1000,True,1.0
./expes/v2_2020-11-09_3bh_150-prng-1,30_base_hphc_150,150,first-150,31,rng,num-start-381,381,17520,7.099161148071289,True,,True,1,False,1000,True,1.0
./expes/v2_2020-11-09_3bh_150-prng-1,30_base_hphc_150,150,first-150,1,rng,num-start-191,191,17520,2.842810869216919,True,,True,1,False,1000,True,1.0
./expes/v2_2020-11-09_3bh_150-prng-1,30_base_hphc_150,150,first-150,81,rng,num-start-421,421,17520,7.487018823623657,True,,True,1,False,1000,True,1.0
./expes/v2_2020-11-09_3bh_150-prng-1,30_base_hphc_150,150,first-150,141,rng,num-start-371,371,17520,6.125003337860107,True,,True,1,False,1000,True,1.0
./expes/v2_2020-11-09_3bh_150-prng-1,30_base_hphc_150,150,first-150,71,rng,num-start-481,481,17520,8.842836380004883,True,,True,1,False,1000,True,1.0
./expes/v2_2020-11-09_3bh_150-prng-1,30_base_hphc_150,150,first-150,21,rng,num-start-1,1,17520,0.025651216506958008,False,,False,2,False,1000,True,1.0
./expes/v2_2020-11-09_3bh_150-prng-1,30_base_hphc_150,150,first-150,41,rng,num-start-881,881,17520,15.386346101760864,True,,True,1,False,1000,True,1.0
./expes/v2_2020-11-09_3bh_150-prng-1,30_base_hphc_150,150,first-150,111,rng,num-start-71,71,17520,1.3460285663604736,True,,True,1,False,1000,True,1.0
./expes/v2_2020-11-09_3bh_150-prng-1,30_base_hphc_150,150,first-150,61,rng,num-start-231,231,17520,4.288963079452515,True,,True,1,False,1000,True,1.0
./expes/v2_2020-11-09_3bh_150-prng-1,30_base_hphc_150,150,first-150,101,rng,num-start-341,341,17520,5.723531246185303,True,,True,1,False,1000,True,1.0
./expes/v2_2020-11-09_3bh_150-prng-1,30_base_hphc_150,150,first-150,91,rng,num-start-321,321,17520,6.64171290397644,True,,True,1,False,1000,True,1.0
./expes/v2_2020-11-09_3bh_150-prng-1,30_base_hphc_150,150,first-150,81,rng,num-start-851,851,17520,14.022900581359863,True,,True,1,False,1000,True,1.0
./expes/v2_2020-11-09_3bh_150-prng-1,30_base_hphc_150,150,first-150,31,rng,num-start-531,531,17520,8.855995178222656,True,,True,1,False,1000,True,1.0
./expes/v2_2020-11-09_3bh_150-prng-1,30_base_hphc_150,150,first-150,141,rng,num-start-721,721,17520,11.185065746307373,True,,True,1,False,1000,True,1.0
./expes/v2_2020-11-09_3bh_150-prng-1,30_base_hphc_150,150,first-150,51,rng,num-start-991,991,17520,17.540537357330322,True,,True,1,False,1000,True,1.0
./expes/v2_2020-11-09_3bh_150-prng-1,30_base_hphc_150,150,first-150,21,rng,num-start-521,521,17520,9.735701322555542,True,,True,1,False,1000,True,1.0
./expes/v2_2020-11-09_3bh_150-prng-1,30_base_hphc_150,150,first-150,1,rng,num-start-481,481,17520,7.382066249847412,True,,True,1,False,1000,True,1.0
./expes/v2_2020-11-09_3bh_150-prng-1,30_base_hphc_150,150,first-150,141,rng,num-start-361,361,17520,5.952928066253662,True,,True,1,False,1000,True,1.0
./expes/v2_2020-11-09_3bh_150-prng-1,30_base_hphc_150,150,first-150,21,rng,num-start-511,511,17520,9.440451860427856,True,,True,1,False,1000,True,1.0
./expes/v2_2020-11-09_3bh_150-prng-1,30_base_hphc_150,150,first-150,41,rng,num-start-51,51,17520,5.9870147705078125,True,,True,1,False,1000,True,1.0
./expes/v2_2020-11-09_3bh_150-prng-1,30_base_hphc_150,150,first-150,51,rng,num-start-551,551,17520,10.543054580688477,True,,True,1,False,1000,True,1.0
./expes/v2_2020-11-09_3bh_150-prng-1,30_base_hphc_150,150,first-150,51,rng,num-start-981,981,17520,18.104604721069336,True,,True,1,False,1000,True,1.0
./expes/v2_2020-11-09_3bh_150-prng-1,30_base_hphc_150,150,first-150,41,rng,num-start-891,891,17520,16.37785840034485,True,,True,1,False,1000,True,1.0
./expes/v2_2020-11-09_3bh_150-prng-1,30_base_hphc_150,150,first-150,101,rng,num-start-301,301,17520,5.856616497039795,True,,True,1,False,1000,True,1.0
./expes/v2_2020-11-09_3bh_150-prng-1,30_base_hphc_150,150,first-150,71,rng,num-start-441,441,17520,8.355833053588867,True,,True,1,False,1000,True,1.0
./expes/v2_2020-11-09_3bh_150-prng-1,30_base_hphc_150,150,first-150,101,rng,num-start-801,801,17520,13.872791767120361,True,,True,1,False,1000,True,1.0
./expes/v2_2020-11-09_3bh_150-prng-1,30_base_hphc_150,150,first-150,51,rng,num-start-551,551,17520,9.56222915649414,True,,True,1,False,1000,True,1.0
./expes/v2_2020-11-09_3bh_150-prng-1,30_base_hphc_150,150,first-150,141,rng,num-start-391,391,17520,6.833887577056885,True,,True,1,False,1000,True,1.0
./expes/v2_2020-11-09_3bh_150-prng-1,30_base_hphc_150,150,first-150,121,rng,num-start-841,841,17520,14.563853740692139,True,,True,1,False,1000,True,1.0
./expes/v2_2020-11-09_3bh_150-prng-1,30_base_hphc_150,150,first-150,31,rng,num-start-301,301,17520,5.689897775650024,True,,True,1,False,1000,True,1.0
./expes/v2_2020-11-09_3bh_150-prng-1,30_base_hphc_150,150,first-150,141,rng,num-start-571,571,17520,9.76909613609314,True,,True,1,False,1000,True,1.0
./expes/v2_2020-11-09_3bh_150-prng-1,30_base_hphc_150,150,first-150,71,rng,num-start-111,111,17520,2.2030136585235596,True,,True,1,False,1000,True,1.0
./expes/v2_2020-11-09_3bh_150-prng-1,30_base_hphc_150,150,first-150,71,rng,num-start-641,641,17520,12.782409906387329,True,,True,1,False,1000,True,1.0
./expes/v2_2020-11-09_3bh_150-prng-1,30_base_hphc_150,150,first-150,71,rng,num-start-751,751,17520,13.497633934020996,True,,True,1,False,1000,True,1.0
./expes/v2_2020-11-09_3bh_150-prng-1,30_base_hphc_150,150,first-150,121,rng,num-start-81,81,17520,1.600292682647705,True,,True,1,False,1000,True,1.0
./expes/v2_2020-11-09_3bh_150-prng-1,30_base_hphc_150,150,first-150,91,rng,num-start-191,191,17520,3.7803144454956055,True,,True,1,False,1000,True,1.0
./expes/v2_2020-11-09_3bh_150-prng-1,30_base_hphc_150,150,first-150,61,rng,num-start-501,501,17520,9.017605543136597,True,,True,1,False,1000,True,1.0
./expes/v2_2020-11-09_3bh_150-prng-1,30_base_hphc_150,150,first-150,121,rng,num-start-441,441,17520,8.17455530166626,True,,True,1,False,1000,True,1.0
./expes/v2_2020-11-09_3bh_150-prng-1,30_base_hphc_150,150,first-150,31,rng,num-start-891,891,17520,15.615824460983276,True,,True,1,False,1000,True,1.0
./expes/v2_2020-11-09_3bh_150-prng-1,30_base_hphc_150,150,first-150,21,rng,num-start-271,271,17520,4.940217733383179,True,,True,1,False,1000,True,1.0
./expes/v2_2020-11-09_3bh_150-prng-1,30_base_hphc_150,150,first-150,51,rng,num-start-751,751,17520,13.33318018913269,True,,True,1,False,1000,True,1.0
./expes/v2_2020-11-09_3bh_150-prng-1,30_base_hphc_150,150,first-150,41,rng,num-start-941,941,17520,16.191245079040527,True,,True,1,False,1000,True,1.0
./expes/v2_2020-11-09_3bh_150-prng-1,30_base_hphc_150,150,first-150,1,rng,num-start-411,411,17520,6.295081377029419,True,,True,1,False,1000,True,1.0
./expes/v2_2020-11-09_3bh_150-prng-1,30_base_hphc_150,150,first-150,91,rng,num-start-281,281,17520,5.4413902759552,True,,True,1,False,1000,True,1.0
./expes/v2_2020-11-09_3bh_150-prng-1,30_base_hphc_150,150,first-150,21,rng,num-start-271,271,17520,5.092928171157837,True,,True,1,False,1000,True,1.0
./expes/v2_2020-11-09_3bh_150-prng-1,30_base_hphc_150,150,first-150,111,rng,num-start-451,451,17520,8.369448900222778,True,,True,1,False,1000,True,1.0
./expes/v2_2020-11-09_3bh_150-prng-1,30_base_hphc_150,150,first-150,41,rng,num-start-801,801,17520,14.174185991287231,True,,True,1,False,1000,True,1.0
./expes/v2_2020-11-09_3bh_150-prng-1,30_base_hphc_150,150,first-150,1,rng,num-start-671,671,17520,10.272724628448486,True,,True,1,False,1000,True,1.0
./expes/v2_2020-11-09_3bh_150-prng-1,30_base_hphc_150,150,first-150,31,rng,num-start-261,261,17520,5.153333425521851,True,,True,1,False,1000,True,1.0
./expes/v2_2020-11-09_3bh_150-prng-1,30_base_hphc_150,150,first-150,141,rng,num-start-991,991,17520,16.045727252960205,True,,True,1,False,1000,True,1.0
./expes/v2_2020-11-09_3bh_150-prng-1,30_base_hphc_150,150,first-150,111,rng,num-start-891,891,17520,16.200032234191895,True,,True,1,False,1000,True,1.0
./expes/v2_2020-11-09_3bh_150-prng-1,30_base_hphc_150,150,first-150,121,rng,num-start-581,581,17520,10.592442512512207,True,,True,1,False,1000,True,1.0
./expes/v2_2020-11-09_3bh_150-prng-1,30_base_hphc_150,150,first-150,51,rng,num-start-321,321,17520,6.5376386642456055,True,,True,1,False,1000,True,1.0
./expes/v2_2020-11-09_3bh_150-prng-1,30_base_hphc_150,150,first-150,101,rng,num-start-271,271,17520,5.452103614807129,True,,True,1,False,1000,True,1.0
./expes/v2_2020-11-09_3bh_150-prng-1,30_base_hphc_150,150,first-150,1,rng,num-start-231,231,17520,3.4335579872131348,True,,True,1,False,1000,True,1.0
./expes/v2_2020-11-09_3bh_150-prng-1,30_base_hphc_150,150,first-150,101,rng,num-start-731,731,17520,12.130911111831665,True,,True,1,False,1000,True,1.0
./expes/v2_2020-11-09_3bh_150-prng-1,30_base_hphc_150,150,first-150,111,rng,num-start-771,771,17520,12.489065647125244,True,,True,1,False,1000,True,1.0
./expes/v2_2020-11-09_3bh_150-prng-1,30_base_hphc_150,150,first-150,141,rng,num-start-61,61,17520,1.1628427505493164,True,,True,1,False,1000,True,1.0
./expes/v2_2020-11-09_3bh_150-prng-1,30_base_hphc_150,150,first-150,31,rng,num-start-871,871,17520,14.761014699935913,True,,True,1,False,1000,True,1.0
./expes/v2_2020-11-09_3bh_150-prng-1,30_base_hphc_150,150,first-150,21,rng,num-start-511,511,17520,8.75355839729309,True,,True,1,False,1000,True,1.0
./expes/v2_2020-11-09_3bh_150-prng-1,30_base_hphc_150,150,first-150,21,rng,num-start-731,731,17520,12.100686073303223,True,,True,1,False,1000,True,1.0
./expes/v2_2020-11-09_3bh_150-prng-1,30_base_hphc_150,150,first-150,41,rng,num-start-61,61,17520,2.8204398155212402,True,,True,1,False,1000,True,1.0
./expes/v2_2020-11-09_3bh_150-prng-1,30_base_hphc_150,150,first-150,91,rng,num-start-741,741,17520,13.249440670013428,True,,True,1,False,1000,True,1.0
./expes/v2_2020-11-09_3bh_150-prng-1,30_base_hphc_150,150,first-150,131,rng,num-start-731,731,17520,12.312601089477539,True,,True,1,False,1000,True,1.0
./expes/v2_2020-11-09_3bh_150-prng-1,30_base_hphc_150,150,first-150,51,rng,num-start-791,791,17520,13.295109748840332,True,,True,1,False,1000,True,1.0
./expes/v2_2020-11-09_3bh_150-prng-1,30_base_hphc_150,150,first-150,101,rng,num-start-981,981,17520,16.351008653640747,True,,True,1,False,1000,True,1.0
./expes/v2_2020-11-09_3bh_150-prng-1,30_base_hphc_150,150,first-150,61,rng,num-start-191,191,17520,3.7890241146087646,True,,True,1,False,1000,True,1.0
./expes/v2_2020-11-09_3bh_150-prng-1,30_base_hphc_150,150,first-150,131,rng,num-start-621,621,17520,10.162912607192993,True,,True,1,False,1000,True,1.0
./expes/v2_2020-11-09_3bh_150-prng-1,30_base_hphc_150,150,first-150,51,rng,num-start-361,361,17520,6.245363473892212,True,,True,1,False,1000,True,1.0
./expes/v2_2020-11-09_3bh_150-prng-1,30_base_hphc_150,150,first-150,91,rng,num-start-521,521,17520,8.874366998672485,True,,True,1,False,1000,True,1.0
./expes/v2_2020-11-09_3bh_150-prng-1,30_base_hphc_150,150,first-150,101,rng,num-start-631,631,17520,10.409553289413452,True,,True,1,False,1000,True,1.0
./expes/v2_2020-11-09_3bh_150-prng-1,30_base_hphc_150,150,first-150,121,rng,num-start-751,751,17520,13.48227858543396,True,,True,1,False,1000,True,1.0
./expes/v2_2020-11-09_3bh_150-prng-1,30_base_hphc_150,150,first-150,1,rng,num-start-681,681,17520,10.221336126327515,True,,True,1,False,1000,True,1.0
./expes/v2_2020-11-09_3bh_150-prng-1,30_base_hphc_150,150,first-150,101,rng,num-start-691,691,17520,12.211370706558228,True,,True,1,False,1000,True,1.0
./expes/v2_2020-11-09_3bh_150-prng-1,30_base_hphc_150,150,first-150,101,rng,num-start-491,491,17520,8.302479028701782,True,,True,1,False,1000,True,1.0
./expes/v2_2020-11-09_3bh_150-prng-1,30_base_hphc_150,150,first-150,31,rng,num-start-711,711,17520,13.043452739715576,True,,True,1,False,1000,True,1.0
./expes/v2_2020-11-09_3bh_150-prng-1,30_base_hphc_150,150,first-150,1,rng,num-start-21,21,17520,0.32254958152770996,True,,True,1,False,1000,True,1.0
./expes/v2_2020-11-09_3bh_150-prng-1,30_base_hphc_150,150,first-150,141,rng,num-start-231,231,17520,4.051298141479492,True,,True,1,False,1000,True,1.0
./expes/v2_2020-11-09_3bh_150-prng-1,30_base_hphc_150,150,first-150,101,rng,num-start-811,811,17520,14.348849773406982,True,,True,1,False,1000,True,1.0
./expes/v2_2020-11-09_3bh_150-prng-1,30_base_hphc_150,150,first-150,81,rng,num-start-61,61,17520,2.7222838401794434,True,,True,1,False,1000,True,1.0
./expes/v2_2020-11-09_3bh_150-prng-1,30_base_hphc_150,150,first-150,71,rng,num-start-891,891,17520,16.384106874465942,True,,True,1,False,1000,True,1.0
./expes/v2_2020-11-09_3bh_150-prng-1,30_base_hphc_150,150,first-150,101,rng,num-start-641,641,17520,11.310817241668701,True,,True,1,False,1000,True,1.0
./expes/v2_2020-11-09_3bh_150-prng-1,30_base_hphc_150,150,first-150,11,rng,num-start-331,331,17520,5.859910249710083,True,,True,1,False,1000,True,1.0
./expes/v2_2020-11-09_3bh_150-prng-1,30_base_hphc_150,150,first-150,91,rng,num-start-721,721,17520,12.162160873413086,True,,True,1,False,1000,True,1.0
./expes/v2_2020-11-09_3bh_150-prng-1,30_base_hphc_150,150,first-150,81,rng,num-start-181,181,17520,3.4261419773101807,True,,True,1,False,1000,True,1.0
./expes/v2_2020-11-09_3bh_150-prng-1,30_base_hphc_150,150,first-150,81,rng,num-start-161,161,17520,3.2288386821746826,True,,True,1,False,1000,True,1.0
./expes/v2_2020-11-09_3bh_150-prng-1,30_base_hphc_150,150,first-150,101,rng,num-start-341,341,17520,5.8987205028533936,True,,True,1,False,1000,True,1.0
./expes/v2_2020-11-09_3bh_150-prng-1,30_base_hphc_150,150,first-150,11,rng,num-start-601,601,17520,10.712353944778442,True,,True,1,False,1000,True,1.0
./expes/v2_2020-11-09_3bh_150-prng-1,30_base_hphc_150,150,first-150,61,rng,num-start-981,981,17520,18.25272297859192,True,,True,1,False,1000,True,1.0
./expes/v2_2020-11-09_3bh_150-prng-1,30_base_hphc_150,150,first-150,101,rng,num-start-211,211,17520,4.198893785476685,True,,True,1,False,1000,True,1.0
./expes/v2_2020-11-09_3bh_150-prng-1,30_base_hphc_150,150,first-150,91,rng,num-start-691,691,17520,12.661091089248657,True,,True,1,False,1000,True,1.0
./expes/v2_2020-11-09_3bh_150-prng-1,30_base_hphc_150,150,first-150,1,rng,num-start-11,11,17520,0.1757035255432129,True,,True,1,False,1000,True,1.0
./expes/v2_2020-11-09_3bh_150-prng-1,30_base_hphc_150,150,first-150,21,rng,num-start-811,811,17520,15.51520824432373,True,,True,1,False,1000,True,1.0
./expes/v2_2020-11-09_3bh_150-prng-1,30_base_hphc_150,150,first-150,101,rng,num-start-21,21,17520,1000.5094850063324,False,,False,0,True,1000,True,0.0
./expes/v2_2020-11-09_3bh_150-prng-1,30_base_hphc_150,150,first-150,31,rng,num-start-981,981,17520,16.54977512359619,True,,True,1,False,1000,True,1.0
./expes/v2_2020-11-09_3bh_150-prng-1,30_base_hphc_150,150,first-150,31,rng,num-start-361,361,17520,6.28655743598938,True,,True,1,False,1000,True,1.0
./expes/v2_2020-11-09_3bh_150-prng-1,30_base_hphc_150,150,first-150,41,rng,num-start-101,101,17520,2.1293210983276367,True,,True,1,False,1000,True,1.0
./expes/v2_2020-11-09_3bh_150-prng-1,30_base_hphc_150,150,first-150,61,rng,num-start-681,681,17520,11.580093145370483,True,,True,1,False,1000,True,1.0
./expes/v2_2020-11-09_3bh_150-prng-1,30_base_hphc_150,150,first-150,111,rng,num-start-871,871,17520,14.37058711051941,True,,True,1,False,1000,True,1.0
./expes/v2_2020-11-09_3bh_150-prng-1,30_base_hphc_150,150,first-150,81,rng,num-start-241,241,17520,4.434824705123901,True,,True,1,False,1000,True,1.0
./expes/v2_2020-11-09_3bh_150-prng-1,30_base_hphc_150,150,first-150,91,rng,num-start-381,381,17520,6.938491344451904,True,,True,1,False,1000,True,1.0
./expes/v2_2020-11-09_3bh_150-prng-1,30_base_hphc_150,150,first-150,141,rng,num-start-621,621,17520,9.995912075042725,True,,True,1,False,1000,True,1.0
./expes/v2_2020-11-09_3bh_150-prng-1,30_base_hphc_150,150,first-150,51,rng,num-start-1,1,17520,0.03516268730163574,False,,False,2,False,1000,True,1.0
./expes/v2_2020-11-09_3bh_150-prng-1,30_base_hphc_150,150,first-150,11,rng,num-start-1,1,17520,0.025975942611694336,False,,False,2,False,1000,True,1.0
./expes/v2_2020-11-09_3bh_150-prng-1,30_base_hphc_150,150,first-150,21,rng,num-start-651,651,17520,10.868871450424194,True,,True,1,False,1000,True,1.0
./expes/v2_2020-11-09_3bh_150-prng-1,30_base_hphc_150,150,first-150,91,rng,num-start-131,131,17520,2.55210018157959,True,,True,1,False,1000,True,1.0
./expes/v2_2020-11-09_3bh_150-prng-1,30_base_hphc_150,150,first-150,121,rng,num-start-751,751,17520,12.440540790557861,True,,True,1,False,1000,True,1.0
./expes/v2_2020-11-09_3bh_150-prng-1,30_base_hphc_150,150,first-150,41,rng,num-start-701,701,17520,12.329637289047241,True,,True,1,False,1000,True,1.0
./expes/v2_2020-11-09_3bh_150-prng-1,30_base_hphc_150,150,first-150,101,rng,num-start-831,831,17520,13.87185263633728,True,,True,1,False,1000,True,1.0
./expes/v2_2020-11-09_3bh_150-prng-1,30_base_hphc_150,150,first-150,111,rng,num-start-101,101,17520,2.057305097579956,True,,True,1,False,1000,True,1.0
./expes/v2_2020-11-09_3bh_150-prng-1,30_base_hphc_150,150,first-150,121,rng,num-start-811,811,17520,13.285051107406616,True,,True,1,False,1000,True,1.0
./expes/v2_2020-11-09_3bh_150-prng-1,30_base_hphc_150,150,first-150,51,rng,num-start-811,811,17520,13.256351947784424,True,,True,1,False,1000,True,1.0
./expes/v2_2020-11-09_3bh_150-prng-1,30_base_hphc_150,150,first-150,121,rng,num-start-321,321,17520,5.676237344741821,True,,True,1,False,1000,True,1.0
./expes/v2_2020-11-09_3bh_150-prng-1,30_base_hphc_150,150,first-150,51,rng,num-start-251,251,17520,4.51145339012146,True,,True,1,False,1000,True,1.0
./expes/v2_2020-11-09_3bh_150-prng-1,30_base_hphc_150,150,first-150,131,rng,num-start-171,171,17520,3.375525712966919,True,,True,1,False,1000,True,1.0
./expes/v2_2020-11-09_3bh_150-prng-1,30_base_hphc_150,150,first-150,121,rng,num-start-331,331,17520,5.722107172012329,True,,True,1,False,1000,True,1.0
./expes/v2_2020-11-09_3bh_150-prng-1,30_base_hphc_150,150,first-150,111,rng,num-start-781,781,17520,12.871942520141602,True,,True,1,False,1000,True,1.0
./expes/v2_2020-11-09_3bh_150-prng-1,30_base_hphc_150,150,first-150,91,rng,num-start-991,991,17520,16.91897201538086,True,,True,1,False,1000,True,1.0
./expes/v2_2020-11-09_3bh_150-prng-1,30_base_hphc_150,150,first-150,101,rng,num-start-11,11,17520,1000.3531277179718,False,,False,0,True,1000,True,0.0
./expes/v2_2020-11-09_3bh_150-prng-1,30_base_hphc_150,150,first-150,91,rng,num-start-801,801,17520,13.756513357162476,True,,True,1,False,1000,True,1.0
./expes/v2_2020-11-09_3bh_150-prng-1,30_base_hphc_150,150,first-150,1,rng,num-start-571,571,17520,8.4988112449646,True,,True,1,False,1000,True,1.0
./expes/v2_2020-11-09_3bh_150-prng-1,30_base_hphc_150,150,first-150,111,rng,num-start-941,941,17520,15.357691287994385,True,,True,1,False,1000,True,1.0
./expes/v2_2020-11-09_3bh_150-prng-1,30_base_hphc_150,150,first-150,81,rng,num-start-251,251,17520,4.589894533157349,True,,True,1,False,1000,True,1.0
./expes/v2_2020-11-09_3bh_150-prng-1,30_base_hphc_150,150,first-150,71,rng,num-start-721,721,17520,12.317280292510986,True,,True,1,False,1000,True,1.0
./expes/v2_2020-11-09_3bh_150-prng-1,30_base_hphc_150,150,first-150,121,rng,num-start-451,451,17520,7.38648533821106,True,,True,1,False,1000,True,1.0
./expes/v2_2020-11-09_3bh_150-prng-1,30_base_hphc_150,150,first-150,21,rng,num-start-871,871,17520,14.615010023117065,True,,True,1,False,1000,True,1.0
./expes/v2_2020-11-09_3bh_150-prng-1,30_base_hphc_150,150,first-150,21,rng,num-start-241,241,17520,4.365482807159424,True,,True,1,False,1000,True,1.0
./expes/v2_2020-11-09_3bh_150-prng-1,30_base_hphc_150,150,first-150,31,rng,num-start-481,481,17520,8.424952745437622,True,,True,1,False,1000,True,1.0
./expes/v2_2020-11-09_3bh_150-prng-1,30_base_hphc_150,150,first-150,81,rng,num-start-361,361,17520,6.256515026092529,True,,True,1,False,1000,True,1.0
./expes/v2_2020-11-09_3bh_150-prng-1,30_base_hphc_150,150,first-150,1,rng,num-start-821,821,17520,12.333827018737793,True,,True,1,False,1000,True,1.0
./expes/v2_2020-11-09_3bh_150-prng-1,30_base_hphc_150,150,first-150,21,rng,num-start-931,931,17520,15.358235836029053,True,,True,1,False,1000,True,1.0
./expes/v2_2020-11-09_3bh_150-prng-1,30_base_hphc_150,150,first-150,111,rng,num-start-481,481,17520,8.360735654830933,True,,True,1,False,1000,True,1.0
./expes/v2_2020-11-09_3bh_150-prng-1,30_base_hphc_150,150,first-150,21,rng,num-start-841,841,17520,14.626390218734741,True,,True,1,False,1000,True,1.0
./expes/v2_2020-11-09_3bh_150-prng-1,30_base_hphc_150,150,first-150,1,rng,num-start-841,841,17520,12.954052209854126,True,,True,1,False,1000,True,1.0
./expes/v2_2020-11-09_3bh_150-prng-1,30_base_hphc_150,150,first-150,71,rng,num-start-941,941,17520,16.295581340789795,True,,True,1,False,1000,True,1.0
./expes/v2_2020-11-09_3bh_150-prng-1,30_base_hphc_150,150,first-150,21,rng,num-start-881,881,17520,15.107860088348389,True,,True,1,False,1000,True,1.0
./expes/v2_2020-11-09_3bh_150-prng-1,30_base_hphc_150,150,first-150,141,rng,num-start-491,491,17520,8.241201400756836,True,,True,1,False,1000,True,1.0
./expes/v2_2020-11-09_3bh_150-prng-1,30_base_hphc_150,150,first-150,11,rng,num-start-61,61,17520,1.3579399585723877,True,,True,1,False,1000,True,1.0
./expes/v2_2020-11-09_3bh_150-prng-1,30_base_hphc_150,150,first-150,1,rng,num-start-201,201,17520,3.0722875595092773,True,,True,1,False,1000,True,1.0
./expes/v2_2020-11-09_3bh_150-prng-1,30_base_hphc_150,150,first-150,121,rng,num-start-161,161,17520,3.1803438663482666,True,,True,1,False,1000,True,1.0
./expes/v2_2020-11-09_3bh_150-prng-1,30_base_hphc_150,150,first-150,91,rng,num-start-391,391,17520,7.316675901412964,True,,True,1,False,1000,True,1.0
./expes/v2_2020-11-09_3bh_150-prng-1,30_base_hphc_150,150,first-150,131,rng,num-start-281,281,17520,5.378149747848511,True,,True,1,False,1000,True,1.0
./expes/v2_2020-11-09_3bh_150-prng-1,30_base_hphc_150,150,first-150,131,rng,num-start-511,511,17520,8.783812761306763,True,,True,1,False,1000,True,1.0
./expes/v2_2020-11-09_3bh_150-prng-1,30_base_hphc_150,150,first-150,131,rng,num-start-41,41,17520,1.6267166137695312,True,,True,1,False,1000,True,1.0
./expes/v2_2020-11-09_3bh_150-prng-1,30_base_hphc_150,150,first-150,121,rng,num-start-721,721,17520,14.19735598564148,True,,True,1,False,1000,True,1.0
./expes/v2_2020-11-09_3bh_150-prng-1,30_base_hphc_150,150,first-150,81,rng,num-start-781,781,17520,14.447318315505981,True,,True,1,False,1000,True,1.0
./expes/v2_2020-11-09_3bh_150-prng-1,30_base_hphc_150,150,first-150,71,rng,num-start-221,221,17520,4.27501654624939,True,,True,1,False,1000,True,1.0
./expes/v2_2020-11-09_3bh_150-prng-1,30_base_hphc_150,150,first-150,1,rng,num-start-451,451,17520,6.9448630809783936,True,,True,1,False,1000,True,1.0
./expes/v2_2020-11-09_3bh_150-prng-1,30_base_hphc_150,150,first-150,121,rng,num-start-941,941,17520,17.930874824523926,True,,True,1,False,1000,True,1.0
./expes/v2_2020-11-09_3bh_150-prng-1,30_base_hphc_150,150,first-150,1,rng,num-start-401,401,17520,6.183140516281128,True,,True,1,False,1000,True,1.0
./expes/v2_2020-11-09_3bh_150-prng-1,30_base_hphc_150,150,first-150,11,rng,num-start-341,341,17520,5.895827293395996,True,,True,1,False,1000,True,1.0
./expes/v2_2020-11-09_3bh_150-prng-1,30_base_hphc_150,150,first-150,11,rng,num-start-801,801,17520,13.354807138442993,True,,True,1,False,1000,True,1.0
./expes/v2_2020-11-09_3bh_150-prng-1,30_base_hphc_150,150,first-150,121,rng,num-start-861,861,17520,14.937143087387085,True,,True,1,False,1000,True,1.0
./expes/v2_2020-11-09_3bh_150-prng-1,30_base_hphc_150,150,first-150,91,rng,num-start-781,781,17520,14.399912357330322,True,,True,1,False,1000,True,1.0
./expes/v2_2020-11-09_3bh_150-prng-1,30_base_hphc_150,150,first-150,71,rng,num-start-831,831,17520,15.150922060012817,True,,True,1,False,1000,True,1.0
./expes/v2_2020-11-09_3bh_150-prng-1,30_base_hphc_150,150,first-150,131,rng,num-start-41,41,17520,3.6886844635009766,True,,True,1,False,1000,True,1.0
./expes/v2_2020-11-09_3bh_150-prng-1,30_base_hphc_150,150,first-150,11,rng,num-start-581,581,17520,10.485746145248413,True,,True,1,False,1000,True,1.0
./expes/v2_2020-11-09_3bh_150-prng-1,30_base_hphc_150,150,first-150,21,rng,num-start-521,521,17520,9.44480013847351,True,,True,1,False,1000,True,1.0
./expes/v2_2020-11-09_3bh_150-prng-1,30_base_hphc_150,150,first-150,61,rng,num-start-661,661,17520,12.057839393615723,True,,True,1,False,1000,True,1.0
./expes/v2_2020-11-09_3bh_150-prng-1,30_base_hphc_150,150,first-150,1,rng,num-start-851,851,17520,13.111024379730225,True,,True,1,False,1000,True,1.0
./expes/v2_2020-11-09_3bh_150-prng-1,30_base_hphc_150,150,first-150,1,rng,num-start-571,571,17520,8.782477378845215,True,,True,1,False,1000,True,1.0
./expes/v2_2020-11-09_3bh_150-prng-1,30_base_hphc_150,150,first-150,91,rng,num-start-431,431,17520,7.942583322525024,True,,True,1,False,1000,True,1.0
./expes/v2_2020-11-09_3bh_150-prng-1,30_base_hphc_150,150,first-150,1,rng,num-start-291,291,17520,4.5274271965026855,True,,True,1,False,1000,True,1.0
./expes/v2_2020-11-09_3bh_150-prng-1,30_base_hphc_150,150,first-150,71,rng,num-start-601,601,17520,10.734028100967407,True,,True,1,False,1000,True,1.0
./expes/v2_2020-11-09_3bh_150-prng-1,30_base_hphc_150,150,first-150,61,rng,num-start-481,481,17520,8.375622272491455,True,,True,1,False,1000,True,1.0
./expes/v2_2020-11-09_3bh_150-prng-1,30_base_hphc_150,150,first-150,51,rng,num-start-121,121,17520,2.5312466621398926,True,,True,1,False,1000,True,1.0
./expes/v2_2020-11-09_3bh_150-prng-1,30_base_hphc_150,150,first-150,21,rng,num-start-701,701,17520,12.372092485427856,True,,True,1,False,1000,True,1.0
./expes/v2_2020-11-09_3bh_150-prng-1,30_base_hphc_150,150,first-150,141,rng,num-start-251,251,17520,4.578789949417114,True,,True,1,False,1000,True,1.0
./expes/v2_2020-11-09_3bh_150-prng-1,30_base_hphc_150,150,first-150,31,rng,num-start-681,681,17520,12.152950048446655,True,,True,1,False,1000,True,1.0
./expes/v2_2020-11-09_3bh_150-prng-1,30_base_hphc_150,150,first-150,141,rng,num-start-271,271,17520,4.935219764709473,True,,True,1,False,1000,True,1.0
./expes/v2_2020-11-09_3bh_150-prng-1,30_base_hphc_150,150,first-150,51,rng,num-start-941,941,17520,17.89061689376831,True,,True,1,False,1000,True,1.0
./expes/v2_2020-11-09_3bh_150-prng-1,30_base_hphc_150,150,first-150,121,rng,num-start-871,871,17520,16.230623245239258,True,,True,1,False,1000,True,1.0
./expes/v2_2020-11-09_3bh_150-prng-1,30_base_hphc_150,150,first-150,111,rng,num-start-31,31,17520,520.8440072536469,True,,True,1,False,1000,True,1.0
./expes/v2_2020-11-09_3bh_150-prng-1,30_base_hphc_150,150,first-150,1,rng,num-start-931,931,17520,13.981011629104614,True,,True,1,False,1000,True,1.0
./expes/v2_2020-11-09_3bh_150-prng-1,30_base_hphc_150,150,first-150,101,rng,num-start-381,381,17520,6.568958282470703,True,,True,1,False,1000,True,1.0
./expes/v2_2020-11-09_3bh_150-prng-1,30_base_hphc_150,150,first-150,61,rng,num-start-251,251,17520,4.587847709655762,True,,True,1,False,1000,True,1.0
./expes/v2_2020-11-09_3bh_150-prng-1,30_base_hphc_150,150,first-150,21,rng,num-start-671,671,17520,11.096714496612549,True,,True,1,False,1000,True,1.0
./expes/v2_2020-11-09_3bh_150-prng-1,30_base_hphc_150,150,first-150,61,rng,num-start-811,811,17520,13.59839653968811,True,,True,1,False,1000,True,1.0
./expes/v2_2020-11-09_3bh_150-prng-1,30_base_hphc_150,150,first-150,141,rng,num-start-141,141,17520,2.679429054260254,True,,True,1,False,1000,True,1.0
./expes/v2_2020-11-09_3bh_150-prng-1,30_base_hphc_150,150,first-150,81,rng,num-start-431,431,17520,7.3357627391815186,True,,True,1,False,1000,True,1.0
./expes/v2_2020-11-09_3bh_150-prng-1,30_base_hphc_150,150,first-150,111,rng,num-start-571,571,17520,9.789602518081665,True,,True,1,False,1000,True,1.0
./expes/v2_2020-11-09_3bh_150-prng-1,30_base_hphc_150,150,first-150,101,rng,num-start-201,201,17520,3.9270849227905273,True,,True,1,False,1000,True,1.0
./expes/v2_2020-11-09_3bh_150-prng-1,30_base_hphc_150,150,first-150,101,rng,num-start-351,351,17520,6.175493955612183,True,,True,1,False,1000,True,1.0
./expes/v2_2020-11-09_3bh_150-prng-1,30_base_hphc_150,150,first-150,121,rng,num-start-551,551,17520,9.44185471534729,True,,True,1,False,1000,True,1.0
./expes/v2_2020-11-09_3bh_150-prng-1,30_base_hphc_150,150,first-150,11,rng,num-start-731,731,17520,12.553212404251099,True,,True,1,False,1000,True,1.0
./expes/v2_2020-11-09_3bh_150-prng-1,30_base_hphc_150,150,first-150,111,rng,num-start-461,461,17520,7.791687488555908,True,,True,1,False,1000,True,1.0
./expes/v2_2020-11-09_3bh_150-prng-1,30_base_hphc_150,150,first-150,1,rng,num-start-631,631,17520,9.49637484550476,True,,True,1,False,1000,True,1.0
./expes/v2_2020-11-09_3bh_150-prng-1,30_base_hphc_150,150,first-150,21,rng,num-start-761,761,17520,13.104011297225952,True,,True,1,False,1000,True,1.0
./expes/v2_2020-11-09_3bh_150-prng-1,30_base_hphc_150,150,first-150,81,rng,num-start-751,751,17520,12.542286396026611,True,,True,1,False,1000,True,1.0
./expes/v2_2020-11-09_3bh_150-prng-1,30_base_hphc_150,150,first-150,31,rng,num-start-31,31,17520,1002.336695432663,False,,False,0,True,1000,True,0.0
./expes/v2_2020-11-09_3bh_150-prng-1,30_base_hphc_150,150,first-150,51,rng,num-start-221,221,17520,4.275423288345337,True,,True,1,False,1000,True,1.0
./expes/v2_2020-11-09_3bh_150-prng-1,30_base_hphc_150,150,first-150,101,rng,num-start-661,661,17520,11.277103900909424,True,,True,1,False,1000,True,1.0
./expes/v2_2020-11-09_3bh_150-prng-1,30_base_hphc_150,150,first-150,11,rng,num-start-521,521,17520,9.251359701156616,True,,True,1,False,1000,True,1.0
./expes/v2_2020-11-09_3bh_150-prng-1,30_base_hphc_150,150,first-150,51,rng,num-start-111,111,17520,2.284850597381592,True,,True,1,False,1000,True,1.0
./expes/v2_2020-11-09_3bh_150-prng-1,30_base_hphc_150,150,first-150,141,rng,num-start-21,21,17520,0.6164534091949463,True,,True,1,False,1000,True,1.0
./expes/v2_2020-11-09_3bh_150-prng-1,30_base_hphc_150,150,first-150,141,rng,num-start-691,691,17520,11.254140377044678,True,,True,1,False,1000,True,1.0
./expes/v2_2020-11-09_3bh_150-prng-1,30_base_hphc_150,150,first-150,31,rng,num-start-541,541,17520,9.909889459609985,True,,True,1,False,1000,True,1.0
