expe,clients,clients_size,clients_subset,agg_size,agg_size_pc,method,days,days_size,days_total,noise_method,time,valid,valid_sum,success,score_avg,score_min,score_max,nsols,oracle,wall_hit,wall_time,pooled,pool_size,uuid,infeasible,optimal,valid_sums
./expes/v2_2021-03-26_issda-30_2000-prng-1-w4-p2,30_issda-2000,2000,first-2000,400,20,rng,num-start-1000,1000,25726,classic,3597.7378013134003,True,,True,1.0,1.0,1.0,1,"['10', '15', '24', '27', '32', '41', '42', '44', '46', '56', '59', '64', '65', '67', '70', '72', '73', '74', '87', '88', '91', '93', '102', '110', '124', '125', '126', '130', '132', '135', '137', '140', '158', '164', '176', '182', '199', '200', '209', '211', '214', '215', '222', '233', '244', '245', '246', '248', '251', '255', '257', '266', '268', '270', '273', '275', '279', '284', '309', '311', '320', '327', '335', '347', '351', '352', '364', '376', '380', '384', '391', '393', '405', '407', '409', '433', '445', '447', '453', '455', '456', '460', '461', '466', '475', '476', '480', '484', '487', '488', '489', '490', '491', '501', '515', '518', '529', '532', '540', '541', '547', '552', '555', '556', '561', '571', '572', '573', '584', '588', '592', '595', '598', '602', '612', '615', '616', '617', '621', '635', '641', '643', '645', '646', '656', '660', '669', '672', '678', '681', '684', '690', '695', '696', '697', '699', '700', '705', '708', '710', '719', '721', '723', '738', '746', '749', '757', '758', '772', '773', '774', '791', '794', '799', '809', '814', '835', '836', '839', '841', '847', '848', '851', '854', '860', '863', '875', '881', '884', '890', '892', '894', '896', '898', '911', '924', '935', '936', '943', '952', '955', '961', '964', '969', '971', '976', '978', '986', '988', '991', '1003', '1014', '1025', '1031', '1036', '1039', '1045', '1050', '1062', '1063', '1066', '1068', '1072', '1076', '1085', '1094', '1095', '1097', '1100', '1108', '1110', '1114', '1115', '1124', '1126', '1129', '1145', '1146', '1164', '1165', '1166', '1172', '1175', '1176', '1178', '1182', '1188', '1190', '1197', '1199', '1201', '1206', '1207', '1208', '1211', '1214', '1219', '1220', '1229', '1231', '1232', '1237', '1240', '1241', '1247', '1251', '1254', '1259', '1262', '1269', '1271', '1276', '1282', '1284', '1285', '1287', '1295', '1297', '1298', '1299', '1300', '1301', '1309', '1315', '1319', '1331', '1332', '1339', '1343', '1358', '1375', '1376', '1377', '1383', '1385', '1389', '1392', '1395', '1397', '1401', '1413', '1421', '1425', '1430', '1431', '1448', '1462', '1463', '1466', '1469', '1472', '1473', '1476', '1492', '1506', '1512', '1519', '1520', '1527', '1532', '1543', '1553', '1560', '1575', '1582', '1592', '1596', '1598', '1603', '1612', '1613', '1615', '1622', '1626', '1640', '1641', '1645', '1647', '1652', '1653', '1654', '1659', '1660', '1662', '1663', '1666', '1673', '1687', '1696', '1704', '1706', '1707', '1708', '1713', '1714', '1716', '1718', '1729', '1741', '1749', '1752', '1753', '1754', '1758', '1763', '1764', '1765', '1769', '1773', '1776', '1778', '1782', '1788', '1800', '1803', '1805', '1810', '1813', '1818', '1822', '1823', '1837', '1838', '1843', '1851', '1852', '1853', '1862', '1870', '1876', '1879', '1885', '1886', '1887', '1888', '1889', '1893', '1897', '1900', '1903', '1917', '1918', '1924', '1927', '1932', '1944', '1946', '1956', '1961', '1962', '1964', '1968', '1973', '1975', '1976', '1978', '1989', '1990', '1991', '1993']",False,4000,True,2,cc42e80215,0.0,1.0,1.0
./expes/v2_2021-03-26_issda-30_2000-prng-1-w4-p2,30_issda-2000,2000,first-2000,500,25,rng,num-start-1600,1600,25726,classic,2159.984941959381,True,,True,1.0,1.0,1.0,1,"['1', '3', '4', '5', '7', '19', '26', '28', '29', '30', '31', '34', '39', '45', '47', '55', '65', '68', '74', '75', '78', '80', '81', '83', '84', '85', '87', '93', '94', '96', '99', '103', '119', '126', '128', '129', '131', '142', '144', '146', '148', '152', '162', '165', '166', '167', '169', '171', '184', '187', '188', '192', '195', '201', '203', '204', '206', '207', '208', '223', '224', '236', '237', '238', '240', '241', '244', '246', '254', '255', '256', '266', '267', '268', '272', '274', '277', '284', '286', '287', '292', '300', '301', '307', '310', '315', '317', '319', '323', '325', '328', '332', '336', '340', '342', '347', '350', '359', '366', '368', '370', '374', '377', '379', '383', '386', '387', '388', '390', '391', '392', '394', '399', '407', '409', '417', '419', '422', '426', '432', '438', '441', '448', '449', '452', '453', '455', '457', '483', '489', '491', '492', '496', '498', '500', '514', '526', '531', '532', '533', '534', '553', '556', '563', '564', '565', '571', '574', '576', '578', '590', '593', '595', '597', '601', '613', '617', '618', '619', '620', '622', '631', '636', '638', '640', '645', '648', '650', '656', '665', '667', '668', '673', '677', '682', '683', '685', '687', '688', '691', '692', '693', '702', '704', '711', '718', '722', '725', '732', '734', '735', '736', '740', '752', '753', '759', '762', '763', '770', '776', '789', '795', '796', '802', '809', '813', '817', '823', '824', '826', '830', '840', '849', '850', '851', '856', '857', '859', '862', '872', '873', '874', '890', '892', '894', '906', '907', '912', '913', '915', '918', '923', '928', '938', '940', '957', '964', '966', '967', '971', '975', '976', '977', '980', '982', '986', '987', '996', '997', '998', '1003', '1009', '1011', '1013', '1020', '1032', '1034', '1041', '1042', '1048', '1067', '1068', '1069', '1072', '1075', '1081', '1083', '1085', '1091', '1095', '1102', '1107', '1108', '1113', '1115', '1121', '1122', '1124', '1129', '1132', '1144', '1147', '1149', '1150', '1157', '1163', '1164', '1166', '1167', '1176', '1179', '1180', '1188', '1195', '1203', '1204', '1208', '1209', '1218', '1222', '1223', '1233', '1234', '1236', '1237', '1241', '1242', '1245', '1246', '1250', '1252', '1254', '1255', '1267', '1271', '1272', '1281', '1284', '1286', '1291', '1297', '1298', '1299', '1301', '1306', '1312', '1314', '1320', '1321', '1325', '1330', '1333', '1339', '1343', '1345', '1347', '1353', '1357', '1364', '1369', '1378', '1380', '1384', '1385', '1390', '1391', '1392', '1394', '1395', '1396', '1400', '1401', '1408', '1411', '1415', '1429', '1431', '1433', '1435', '1437', '1438', '1442', '1445', '1448', '1453', '1455', '1459', '1466', '1470', '1471', '1472', '1474', '1486', '1490', '1493', '1495', '1496', '1497', '1499', '1505', '1514', '1519', '1533', '1535', '1546', '1548', '1552', '1553', '1561', '1572', '1582', '1597', '1604', '1606', '1608', '1616', '1618', '1623', '1625', '1628', '1635', '1638', '1639', '1640', '1645', '1646', '1649', '1651', '1657', '1660', '1663', '1664', '1669', '1671', '1674', '1683', '1685', '1690', '1691', '1696', '1698', '1699', '1700', '1701', '1708', '1712', '1716', '1717', '1721', '1723', '1726', '1730', '1731', '1732', '1734', '1740', '1742', '1744', '1749', '1752', '1756', '1765', '1773', '1777', '1783', '1785', '1786', '1790', '1792', '1793', '1796', '1811', '1813', '1824', '1827', '1832', '1834', '1840', '1841', '1844', '1848', '1849', '1853', '1860', '1861', '1864', '1870', '1872', '1876', '1878', '1879', '1880', '1881', '1882', '1884', '1888', '1889', '1890', '1891', '1892', '1911', '1913', '1918', '1919', '1922', '1939', '1940', '1945', '1946', '1953', '1969', '1973', '1974', '1978', '1980', '1982', '1983', '1988', '1996', '2000']",False,4000,True,2,2ee91b83ce,0.0,1.0,1.0
./expes/v2_2021-03-26_issda-30_2000-prng-1-w4-p2,30_issda-2000,2000,first-2000,100,5,rng,num-start-3400,3400,25726,classic,1306.4248704910278,True,,True,1.0,1.0,1.0,1,"['3', '29', '83', '128', '129', '152', '192', '195', '203', '207', '286', '287', '292', '301', '392', '419', '448', '455', '489', '500', '514', '531', '534', '578', '622', '636', '648', '667', '677', '683', '725', '734', '789', '817', '830', '862', '890', '907', '918', '967', '977', '996', '1011', '1034', '1048', '1068', '1091', '1113', '1124', '1132', '1147', '1163', '1195', '1233', '1252', '1254', '1267', '1281', '1312', '1369', '1401', '1442', '1445', '1455', '1474', '1495', '1496', '1548', '1553', '1606', '1608', '1638', '1645', '1646', '1649', '1660', '1690', '1696', '1700', '1721', '1730', '1742', '1773', '1777', '1783', '1824', '1827', '1841', '1848', '1860', '1864', '1870', '1876', '1879', '1881', '1882', '1978', '1980', '1982', '1983']",False,4000,True,2,ecf683da1f,0.0,1.0,1.0
./expes/v2_2021-03-26_issda-30_2000-prng-1-w4-p2,30_issda-2000,2000,first-2000,900,45,rng,num-start-3400,3400,25726,classic,4713.561866521835,True,,False,1.0,1.0,1.0,1,"['4', '7', '9', '10', '11', '13', '18', '19', '22', '24', '33', '36', '37', '40', '41', '44', '49', '50', '51', '52', '57', '58', '61', '63', '64', '65', '66', '69', '70', '73', '74', '75', '77', '79', '81', '84', '89', '94', '95', '96', '98', '100', '101', '102', '105', '109', '110', '111', '116', '117', '121', '123', '124', '126', '127', '130', '133', '135', '137', '139', '146', '149', '150', '151', '152', '155', '157', '158', '159', '164', '165', '167', '170', '173', '174', '177', '180', '183', '186', '188', '189', '191', '192', '193', '194', '195', '197', '204', '205', '206', '208', '209', '213', '214', '216', '218', '222', '228', '230', '232', '236', '238', '239', '243', '250', '252', '261', '262', '263', '264', '268', '270', '272', '274', '275', '277', '278', '280', '282', '283', '284', '286', '287', '288', '290', '292', '295', '296', '297', '301', '307', '309', '310', '311', '315', '320', '321', '322', '323', '325', '326', '329', '331', '333', '334', '337', '341', '343', '347', '348', '350', '353', '354', '355', '356', '358', '359', '361', '362', '364', '370', '372', '373', '377', '380', '382', '385', '389', '392', '393', '394', '399', '402', '407', '409', '412', '414', '419', '420', '426', '427', '428', '431', '432', '434', '435', '436', '438', '440', '441', '442', '443', '444', '446', '449', '452', '455', '460', '461', '462', '465', '467', '468', '470', '473', '475', '476', '477', '478', '481', '484', '485', '488', '489', '492', '494', '495', '502', '505', '506', '508', '510', '511', '512', '513', '514', '515', '516', '519', '520', '521', '523', '524', '526', '527', '529', '531', '532', '536', '537', '538', '541', '545', '547', '550', '551', '557', '558', '560', '562', '568', '569', '571', '572', '574', '575', '579', '583', '586', '588', '594', '596', '598', '604', '607', '608', '610', '613', '620', '622', '623', '627', '631', '632', '634', '635', '639', '640', '641', '642', '643', '645', '648', '649', '653', '657', '658', '665', '666', '669', '672', '674', '675', '678', '679', '683', '684', '686', '689', '690', '691', '692', '693', '698', '699', '700', '701', '702', '705', '707', '712', '718', '719', '725', '730', '733', '735', '736', '737', '738', '739', '740', '742', '743', '746', '747', '750', '751', '753', '761', '762', '763', '764', '765', '766', '768', '773', '775', '777', '779', '782', '784', '785', '788', '790', '791', '799', '800', '801', '802', '803', '804', '805', '806', '807', '809', '810', '816', '819', '820', '822', '823', '825', '826', '828', '829', '830', '833', '838', '842', '844', '845', '846', '850', '851', '854', '857', '858', '859', '860', '861', '862', '867', '868', '872', '876', '881', '883', '889', '890', '894', '899', '903', '904', '906', '907', '909', '911', '912', '913', '918', '919', '925', '928', '929', '930', '931', '932', '933', '936', '937', '938', '941', '943', '945', '949', '951', '952', '953', '954', '955', '956', '957', '958', '961', '964', '968', '969', '971', '973', '974', '977', '979', '983', '987', '988', '989', '991', '992', '994', '995', '996', '997', '998', '1001', '1002', '1004', '1005', '1008', '1016', '1020', '1021', '1023', '1025', '1026', '1029', '1030', '1033', '1034', '1039', '1040', '1041', '1042', '1043', '1045', '1046', '1047', '1048', '1049', '1052', '1053', '1054', '1055', '1056', '1058', '1061', '1062', '1064', '1067', '1070', '1071', '1072', '1073', '1074', '1075', '1076', '1077', '1078', '1081', '1083', '1087', '1090', '1092', '1097', '1102', '1103', '1104', '1106', '1107', '1108', '1109', '1111', '1112', '1115', '1116', '1117', '1119', '1121', '1122', '1124', '1128', '1130', '1142', '1143', '1145', '1147', '1148', '1150', '1152', '1156', '1160', '1163', '1166', '1171', '1175', '1177', '1180', '1182', '1188', '1189', '1190', '1191', '1198', '1200', '1201', '1205', '1206', '1208', '1211', '1212', '1216', '1218', '1219', '1222', '1224', '1225', '1233', '1240', '1241', '1242', '1243', '1251', '1253', '1254', '1255', '1257', '1261', '1262', '1263', '1267', '1269', '1273', '1274', '1275', '1276', '1277', '1278', '1279', '1281', '1283', '1285', '1286', '1288', '1290', '1295', '1297', '1298', '1301', '1303', '1304', '1305', '1306', '1307', '1308', '1310', '1313', '1315', '1317', '1322', '1324', '1327', '1328', '1330', '1332', '1335', '1338', '1339', '1342', '1349', '1350', '1351', '1354', '1356', '1359', '1362', '1366', '1368', '1370', '1371', '1372', '1374', '1378', '1382', '1383', '1384', '1386', '1390', '1391', '1393', '1394', '1395', '1396', '1397', '1398', '1402', '1403', '1404', '1407', '1408', '1412', '1413', '1414', '1417', '1419', '1422', '1425', '1432', '1433', '1436', '1439', '1440', '1441', '1443', '1445', '1446', '1447', '1449', '1451', '1454', '1456', '1457', '1458', '1460', '1461', '1462', '1463', '1465', '1466', '1467', '1468', '1469', '1470', '1472', '1473', '1474', '1475', '1476', '1479', '1481', '1482', '1483', '1487', '1491', '1492', '1493', '1494', '1497', '1498', '1500', '1504', '1505', '1508', '1509', '1513', '1516', '1521', '1525', '1526', '1528', '1532', '1535', '1537', '1538', '1539', '1540', '1541', '1544', '1545', '1546', '1547', '1548', '1556', '1557', '1558', '1560', '1563', '1566', '1568', '1569', '1570', '1571', '1573', '1574', '1582', '1584', '1588', '1592', '1595', '1600', '1604', '1606', '1607', '1613', '1615', '1618', '1622', '1627', '1629', '1630', '1631', '1632', '1634', '1635', '1636', '1637', '1639', '1642', '1644', '1646', '1647', '1648', '1651', '1652', '1656', '1657', '1659', '1662', '1664', '1666', '1668', '1669', '1670', '1671', '1672', '1675', '1677', '1679', '1680', '1681', '1684', '1686', '1687', '1688', '1689', '1690', '1691', '1703', '1707', '1708', '1711', '1712', '1713', '1715', '1716', '1718', '1722', '1732', '1734', '1738', '1739', '1741', '1743', '1746', '1749', '1755', '1758', '1759', '1760', '1762', '1764', '1766', '1767', '1768', '1770', '1774', '1779', '1781', '1783', '1784', '1785', '1791', '1792', '1794', '1796', '1798', '1799', '1800', '1804', '1805', '1806', '1807', '1809', '1811', '1812', '1813', '1818', '1819', '1822', '1827', '1831', '1833', '1834', '1840', '1841', '1842', '1843', '1845', '1846', '1848', '1849', '1850', '1852', '1855', '1857', '1859', '1860', '1861', '1865', '1867', '1868', '1874', '1875', '1876', '1877', '1878', '1880', '1882', '1885', '1886', '1887', '1888', '1889', '1892', '1895', '1897', '1903', '1904', '1909', '1910', '1914', '1915', '1916', '1917', '1919', '1920', '1922', '1923', '1926', '1927', '1932', '1933', '1934', '1941', '1942', '1943', '1944', '1945', '1946', '1955', '1956', '1958', '1961', '1962', '1964', '1965', '1966', '1968', '1970', '1971', '1973', '1980', '1981', '1983', '1985', '1986', '1988', '1989', '1990', '1992', '1995']",True,4000,True,2,e1662dfaea,0.0,0.0,1.0
./expes/v2_2021-03-26_issda-30_2000-prng-1-w4-p2,30_issda-2000,2000,first-2000,300,15,rng,num-start-2000,2000,25726,classic,1799.8883030414581,True,,True,1.0,1.0,1.0,1,"['4', '5', '12', '19', '26', '30', '35', '37', '43', '45', '46', '49', '53', '58', '59', '60', '61', '63', '67', '71', '73', '90', '115', '130', '143', '145', '171', '178', '188', '193', '205', '210', '222', '223', '225', '234', '242', '248', '265', '276', '300', '327', '329', '336', '343', '345', '346', '349', '355', '363', '371', '379', '381', '386', '389', '409', '410', '421', '429', '430', '444', '449', '452', '455', '462', '465', '469', '471', '473', '476', '478', '498', '512', '520', '523', '530', '546', '551', '552', '559', '576', '582', '594', '595', '604', '608', '622', '632', '639', '651', '660', '679', '682', '704', '705', '706', '708', '709', '724', '731', '747', '752', '759', '768', '778', '781', '786', '792', '799', '806', '807', '814', '828', '829', '847', '849', '853', '863', '865', '873', '874', '885', '887', '897', '899', '913', '921', '924', '928', '932', '939', '941', '942', '962', '968', '971', '984', '986', '994', '1000', '1003', '1015', '1016', '1017', '1023', '1026', '1029', '1034', '1035', '1037', '1040', '1042', '1045', '1050', '1053', '1058', '1063', '1067', '1081', '1103', '1106', '1107', '1109', '1116', '1123', '1124', '1128', '1129', '1133', '1136', '1140', '1150', '1166', '1168', '1184', '1185', '1197', '1204', '1207', '1211', '1215', '1229', '1241', '1245', '1248', '1255', '1260', '1277', '1280', '1289', '1292', '1302', '1316', '1326', '1328', '1331', '1335', '1345', '1351', '1360', '1362', '1373', '1379', '1382', '1387', '1389', '1406', '1424', '1426', '1439', '1440', '1441', '1444', '1457', '1458', '1473', '1478', '1483', '1487', '1494', '1496', '1501', '1512', '1517', '1522', '1524', '1545', '1548', '1559', '1562', '1565', '1572', '1579', '1589', '1593', '1595', '1605', '1611', '1616', '1631', '1633', '1634', '1636', '1643', '1644', '1648', '1658', '1666', '1673', '1674', '1681', '1700', '1705', '1712', '1716', '1721', '1724', '1734', '1736', '1738', '1744', '1748', '1756', '1762', '1764', '1778', '1782', '1805', '1808', '1815', '1830', '1835', '1843', '1847', '1864', '1865', '1877', '1885', '1889', '1898', '1907', '1918', '1922', '1924', '1927', '1928', '1933', '1936', '1946', '1950', '1951', '1956', '1961', '1966', '1978', '1981', '1985', '1994', '1998', '1999']",False,4000,True,2,0e099d9d9d,0.0,1.0,1.0
./expes/v2_2021-03-26_issda-30_2000-prng-1-w4-p2,30_issda-2000,2000,first-2000,200,10,rng,num-start-3000,3000,25726,classic,2957.1579217910767,True,,True,1.0,1.0,1.0,1,"['18', '44', '49', '52', '57', '66', '74', '84', '101', '116', '117', '121', '124', '139', '155', '170', '174', '188', '218', '236', '262', '280', '325', '331', '337', '341', '347', '353', '356', '362', '364', '373', '392', '426', '432', '435', '455', '465', '473', '484', '502', '511', '512', '516', '524', '545', '550', '560', '572', '622', '632', '634', '639', '653', '665', '666', '700', '719', '725', '737', '738', '740', '742', '743', '746', '751', '762', '765', '779', '806', '819', '833', '850', '867', '868', '883', '912', '913', '932', '936', '945', '953', '983', '997', '1002', '1004', '1021', '1026', '1029', '1033', '1040', '1043', '1045', '1049', '1053', '1056', '1061', '1070', '1076', '1077', '1087', '1115', '1142', '1147', '1148', '1152', '1163', '1177', '1191', '1205', '1212', '1216', '1241', '1243', '1262', '1263', '1277', '1308', '1335', '1338', '1342', '1350', '1356', '1372', '1378', '1382', '1396', '1398', '1402', '1433', '1447', '1465', '1469', '1481', '1483', '1487', '1494', '1497', '1505', '1508', '1513', '1526', '1545', '1556', '1563', '1584', '1607', '1618', '1631', '1632', '1637', '1646', '1657', '1666', '1669', '1670', '1681', '1690', '1703', '1711', '1712', '1739', '1749', '1760', '1762', '1768', '1784', '1794', '1796', '1804', '1807', '1809', '1811', '1827', '1831', '1840', '1843', '1846', '1850', '1857', '1859', '1860', '1861', '1867', '1876', '1882', '1885', '1895', '1909', '1914', '1917', '1927', '1933', '1942', '1945', '1955', '1956', '1958', '1961', '1970']",False,4000,True,2,9d6f18c914,0.0,1.0,1.0
./expes/v2_2021-03-26_issda-30_2000-prng-1-w4-p2,30_issda-2000,2000,first-2000,900,45,rng,num-start-2000,2000,25726,classic,2862.1021599769592,True,,True,1.0,1.0,1.0,1,"['1', '3', '4', '5', '7', '15', '16', '17', '18', '19', '20', '21', '26', '28', '29', '30', '31', '32', '34', '39', '42', '43', '45', '47', '51', '55', '57', '58', '61', '62', '63', '65', '67', '68', '69', '73', '74', '75', '78', '79', '80', '81', '82', '83', '84', '85', '87', '92', '93', '94', '95', '96', '97', '99', '103', '114', '119', '124', '126', '128', '129', '131', '135', '136', '140', '142', '144', '145', '146', '148', '150', '152', '155', '157', '160', '161', '162', '165', '166', '167', '168', '169', '171', '172', '173', '174', '175', '178', '179', '184', '186', '187', '188', '190', '192', '195', '201', '203', '204', '206', '207', '208', '209', '211', '215', '216', '223', '224', '228', '230', '231', '233', '235', '236', '237', '238', '240', '241', '243', '244', '246', '248', '249', '253', '254', '255', '256', '257', '261', '266', '267', '268', '271', '272', '274', '276', '277', '284', '286', '287', '289', '291', '292', '294', '299', '300', '301', '304', '305', '307', '310', '311', '315', '316', '317', '319', '320', '321', '323', '325', '328', '330', '332', '335', '336', '340', '342', '347', '350', '358', '359', '365', '366', '368', '370', '373', '374', '377', '379', '380', '383', '386', '387', '388', '390', '391', '392', '394', '399', '400', '402', '406', '407', '409', '414', '417', '418', '419', '420', '422', '423', '425', '426', '427', '431', '432', '438', '441', '443', '445', '448', '449', '451', '452', '453', '455', '457', '461', '471', '473', '476', '477', '479', '483', '485', '489', '490', '491', '492', '496', '498', '500', '508', '509', '511', '514', '518', '522', '524', '526', '527', '529', '531', '532', '533', '534', '535', '537', '538', '553', '554', '556', '563', '564', '565', '568', '571', '574', '576', '578', '580', '581', '588', '590', '593', '594', '595', '597', '600', '601', '602', '603', '604', '607', '611', '612', '613', '614', '616', '617', '618', '619', '620', '621', '622', '626', '631', '636', '638', '640', '645', '647', '648', '650', '652', '656', '657', '660', '661', '664', '665', '667', '668', '670', '673', '677', '678', '682', '683', '685', '687', '688', '691', '692', '693', '697', '698', '702', '704', '706', '708', '710', '711', '713', '718', '722', '723', '725', '727', '728', '731', '732', '734', '735', '736', '740', '741', '742', '750', '752', '753', '755', '756', '757', '759', '761', '762', '763', '770', '771', '772', '775', '776', '777', '783', '786', '787', '789', '792', '794', '795', '796', '802', '803', '807', '809', '812', '813', '816', '817', '823', '824', '826', '830', '831', '832', '836', '837', '840', '843', '849', '850', '851', '852', '854', '855', '856', '857', '859', '860', '861', '862', '864', '865', '867', '869', '872', '873', '874', '883', '884', '885', '890', '892', '894', '904', '906', '907', '911', '912', '913', '914', '915', '918', '919', '920', '923', '925', '928', '929', '930', '933', '938', '939', '940', '944', '947', '948', '955', '957', '964', '965', '966', '967', '970', '971', '975', '976', '977', '980', '982', '986', '987', '988', '990', '996', '997', '998', '1000', '1001', '1003', '1005', '1008', '1009', '1011', '1013', '1015', '1018', '1019', '1020', '1021', '1022', '1029', '1032', '1034', '1035', '1039', '1041', '1042', '1048', '1058', '1061', '1063', '1065', '1066', '1067', '1068', '1069', '1072', '1073', '1075', '1076', '1077', '1078', '1081', '1083', '1084', '1085', '1086', '1091', '1093', '1095', '1097', '1102', '1107', '1108', '1112', '1113', '1114', '1115', '1117', '1120', '1121', '1122', '1124', '1125', '1128', '1129', '1132', '1133', '1140', '1144', '1147', '1149', '1150', '1155', '1157', '1160', '1163', '1164', '1166', '1167', '1168', '1172', '1176', '1179', '1180', '1188', '1190', '1192', '1194', '1195', '1198', '1199', '1201', '1203', '1204', '1208', '1209', '1211', '1215', '1218', '1220', '1222', '1223', '1226', '1230', '1232', '1233', '1234', '1235', '1236', '1237', '1239', '1241', '1242', '1245', '1246', '1248', '1249', '1250', '1252', '1253', '1254', '1255', '1259', '1265', '1267', '1268', '1271', '1272', '1274', '1277', '1281', '1284', '1285', '1286', '1289', '1291', '1294', '1295', '1296', '1297', '1298', '1299', '1301', '1303', '1305', '1306', '1308', '1309', '1312', '1313', '1314', '1320', '1321', '1325', '1330', '1333', '1339', '1343', '1344', '1345', '1346', '1347', '1350', '1353', '1357', '1359', '1364', '1366', '1369', '1370', '1373', '1378', '1380', '1384', '1385', '1387', '1389', '1390', '1391', '1392', '1393', '1394', '1395', '1396', '1398', '1400', '1401', '1406', '1408', '1410', '1411', '1413', '1415', '1417', '1429', '1431', '1432', '1433', '1434', '1435', '1436', '1437', '1438', '1439', '1442', '1445', '1446', '1447', '1448', '1449', '1453', '1455', '1459', '1462', '1464', '1466', '1469', '1470', '1471', '1472', '1474', '1480', '1486', '1490', '1492', '1493', '1494', '1495', '1496', '1497', '1499', '1500', '1504', '1505', '1514', '1518', '1519', '1528', '1529', '1530', '1532', '1533', '1535', '1536', '1539', '1541', '1546', '1547', '1548', '1550', '1552', '1553', '1555', '1557', '1561', '1572', '1573', '1575', '1582', '1583', '1585', '1590', '1591', '1592', '1593', '1594', '1597', '1602', '1604', '1605', '1606', '1608', '1609', '1615', '1616', '1618', '1621', '1623', '1625', '1627', '1628', '1630', '1632', '1634', '1635', '1638', '1639', '1640', '1645', '1646', '1648', '1649', '1651', '1653', '1655', '1657', '1659', '1660', '1663', '1664', '1669', '1671', '1674', '1676', '1678', '1679', '1683', '1684', '1685', '1690', '1691', '1692', '1694', '1696', '1698', '1699', '1700', '1701', '1708', '1712', '1716', '1717', '1721', '1723', '1726', '1729', '1730', '1731', '1732', '1734', '1740', '1742', '1744', '1747', '1749', '1752', '1756', '1760', '1761', '1762', '1763', '1764', '1765', '1766', '1769', '1770', '1772', '1773', '1777', '1780', '1783', '1785', '1786', '1787', '1790', '1791', '1792', '1793', '1794', '1796', '1798', '1799', '1805', '1810', '1811', '1812', '1813', '1814', '1819', '1821', '1823', '1824', '1825', '1827', '1830', '1832', '1834', '1839', '1840', '1841', '1842', '1844', '1846', '1848', '1849', '1850', '1853', '1856', '1860', '1861', '1862', '1864', '1868', '1870', '1872', '1875', '1876', '1878', '1879', '1880', '1881', '1882', '1883', '1884', '1885', '1888', '1889', '1890', '1891', '1892', '1898', '1902', '1908', '1911', '1913', '1914', '1916', '1917', '1918', '1919', '1920', '1922', '1929', '1932', '1935', '1937', '1939', '1940', '1942', '1944', '1945', '1946', '1947', '1951', '1953', '1955', '1959', '1962', '1963', '1965', '1966', '1968', '1969', '1971', '1972', '1973', '1974', '1978', '1980', '1982', '1983', '1984', '1986', '1988', '1992', '1996', '2000']",False,4000,True,2,7587988bec,0.0,1.0,1.0
./expes/v2_2021-03-26_issda-30_2000-prng-1-w4-p2,30_issda-2000,2000,first-2000,800,40,rng,num-start-2800,2800,25726,classic,3464.293122291565,True,,True,1.0,1.0,1.0,1,"['4', '7', '9', '10', '11', '18', '19', '22', '24', '33', '36', '37', '40', '41', '44', '49', '50', '51', '52', '57', '58', '61', '64', '65', '66', '69', '70', '73', '74', '75', '77', '84', '89', '94', '95', '96', '101', '102', '105', '110', '111', '116', '117', '121', '123', '124', '126', '127', '130', '133', '135', '137', '139', '146', '149', '150', '151', '152', '155', '157', '158', '159', '164', '165', '167', '170', '173', '174', '177', '180', '183', '186', '188', '189', '191', '192', '193', '194', '195', '197', '204', '205', '206', '208', '209', '214', '216', '218', '222', '228', '230', '232', '236', '238', '239', '243', '250', '252', '261', '262', '263', '264', '270', '272', '274', '275', '277', '278', '280', '283', '287', '288', '290', '292', '295', '297', '301', '307', '309', '310', '311', '315', '320', '321', '322', '323', '325', '326', '329', '331', '333', '337', '341', '343', '347', '348', '350', '353', '354', '355', '356', '358', '359', '361', '362', '364', '370', '372', '373', '377', '380', '382', '385', '389', '392', '393', '394', '407', '409', '414', '419', '420', '426', '427', '431', '432', '435', '436', '438', '442', '443', '444', '446', '449', '452', '455', '461', '462', '465', '467', '468', '473', '475', '476', '477', '478', '481', '484', '485', '488', '492', '494', '495', '502', '505', '506', '508', '510', '511', '512', '513', '514', '515', '516', '519', '520', '521', '523', '524', '526', '527', '529', '531', '532', '537', '541', '545', '547', '550', '551', '557', '560', '562', '569', '571', '572', '575', '579', '583', '586', '588', '594', '596', '598', '604', '607', '608', '620', '622', '623', '627', '631', '632', '634', '635', '639', '640', '641', '642', '645', '648', '649', '653', '657', '658', '665', '666', '669', '672', '674', '675', '678', '679', '684', '686', '689', '690', '691', '693', '699', '700', '701', '702', '705', '707', '712', '718', '719', '725', '730', '733', '735', '736', '737', '738', '739', '740', '742', '743', '746', '747', '750', '751', '753', '762', '763', '764', '765', '766', '768', '775', '777', '779', '782', '784', '785', '788', '790', '791', '799', '800', '801', '802', '803', '804', '805', '806', '809', '810', '819', '820', '822', '823', '825', '826', '828', '829', '830', '833', '838', '842', '844', '845', '850', '854', '857', '859', '860', '861', '867', '868', '872', '876', '881', '883', '889', '890', '894', '899', '903', '904', '906', '907', '909', '911', '912', '913', '918', '919', '925', '928', '929', '930', '931', '932', '936', '937', '938', '941', '943', '945', '949', '952', '953', '954', '955', '956', '957', '958', '961', '964', '968', '969', '971', '973', '977', '979', '983', '988', '989', '991', '992', '994', '995', '996', '997', '998', '1001', '1002', '1004', '1005', '1008', '1016', '1020', '1021', '1023', '1025', '1026', '1029', '1030', '1033', '1034', '1040', '1041', '1042', '1043', '1045', '1046', '1048', '1049', '1052', '1053', '1054', '1055', '1056', '1058', '1061', '1062', '1064', '1067', '1070', '1071', '1072', '1073', '1074', '1075', '1076', '1077', '1078', '1087', '1090', '1092', '1097', '1102', '1103', '1104', '1108', '1109', '1112', '1115', '1116', '1117', '1122', '1124', '1128', '1130', '1142', '1143', '1147', '1148', '1150', '1152', '1156', '1160', '1163', '1166', '1171', '1175', '1177', '1180', '1182', '1189', '1190', '1191', '1198', '1200', '1201', '1205', '1206', '1208', '1211', '1212', '1216', '1218', '1219', '1222', '1224', '1240', '1241', '1242', '1243', '1251', '1253', '1254', '1255', '1257', '1261', '1262', '1263', '1267', '1269', '1273', '1274', '1275', '1277', '1278', '1279', '1281', '1286', '1288', '1295', '1297', '1298', '1301', '1305', '1306', '1307', '1308', '1310', '1313', '1315', '1317', '1324', '1327', '1328', '1330', '1332', '1335', '1338', '1339', '1342', '1349', '1350', '1354', '1356', '1359', '1362', '1366', '1370', '1371', '1372', '1374', '1378', '1382', '1383', '1384', '1386', '1390', '1391', '1393', '1394', '1395', '1396', '1398', '1402', '1403', '1404', '1408', '1413', '1414', '1417', '1419', '1425', '1432', '1433', '1441', '1443', '1445', '1446', '1447', '1449', '1451', '1454', '1456', '1457', '1458', '1460', '1461', '1462', '1463', '1465', '1466', '1467', '1468', '1469', '1472', '1473', '1474', '1475', '1481', '1482', '1483', '1487', '1491', '1492', '1493', '1494', '1497', '1498', '1500', '1505', '1508', '1509', '1513', '1516', '1521', '1525', '1526', '1528', '1532', '1535', '1537', '1538', '1539', '1541', '1544', '1545', '1546', '1547', '1548', '1556', '1557', '1558', '1560', '1563', '1566', '1569', '1570', '1571', '1573', '1574', '1584', '1588', '1592', '1595', '1600', '1604', '1606', '1607', '1613', '1615', '1618', '1622', '1627', '1629', '1630', '1631', '1632', '1635', '1636', '1637', '1639', '1642', '1644', '1646', '1647', '1648', '1651', '1652', '1656', '1657', '1659', '1664', '1666', '1669', '1670', '1671', '1672', '1675', '1677', '1679', '1681', '1687', '1689', '1690', '1691', '1703', '1707', '1708', '1711', '1712', '1713', '1715', '1716', '1718', '1722', '1732', '1734', '1738', '1739', '1741', '1743', '1746', '1749', '1755', '1758', '1760', '1762', '1766', '1767', '1768', '1770', '1774', '1781', '1783', '1784', '1785', '1791', '1792', '1794', '1796', '1798', '1799', '1800', '1804', '1805', '1806', '1807', '1809', '1811', '1812', '1813', '1818', '1819', '1822', '1827', '1831', '1833', '1834', '1840', '1841', '1843', '1845', '1846', '1848', '1850', '1855', '1857', '1859', '1860', '1861', '1867', '1868', '1874', '1875', '1876', '1877', '1880', '1882', '1885', '1886', '1887', '1888', '1889', '1892', '1895', '1897', '1903', '1904', '1909', '1910', '1914', '1916', '1917', '1919', '1920', '1922', '1923', '1926', '1927', '1932', '1933', '1941', '1942', '1943', '1944', '1945', '1946', '1955', '1956', '1958', '1961', '1962', '1964', '1965', '1966', '1968', '1970', '1971', '1973', '1980', '1981', '1983', '1985', '1986', '1988', '1989', '1990', '1992', '1995']",False,4000,True,2,c54768a3fb,0.0,1.0,1.0
./expes/v2_2021-03-26_issda-30_2000-prng-1-w4-p2,30_issda-2000,2000,first-2000,800,40,rng,num-start-1600,1600,25726,classic,2470.6315488815308,True,,True,1.0,1.0,1.0,1,"['4', '8', '10', '11', '15', '16', '24', '27', '32', '37', '41', '42', '44', '46', '48', '49', '53', '56', '57', '58', '59', '61', '62', '64', '65', '67', '68', '70', '72', '73', '74', '75', '76', '87', '88', '89', '91', '93', '94', '95', '102', '103', '105', '109', '110', '113', '122', '124', '125', '126', '130', '132', '135', '137', '140', '141', '142', '147', '149', '157', '158', '159', '160', '164', '171', '176', '177', '182', '187', '189', '190', '197', '199', '200', '204', '205', '209', '211', '212', '214', '215', '219', '220', '222', '223', '230', '231', '233', '236', '242', '244', '245', '246', '248', '249', '251', '253', '254', '255', '256', '257', '260', '262', '264', '266', '267', '268', '270', '273', '275', '279', '280', '282', '284', '290', '294', '295', '300', '301', '306', '307', '309', '311', '320', '322', '327', '329', '333', '335', '347', '348', '349', '351', '352', '353', '362', '364', '366', '367', '369', '370', '372', '373', '376', '379', '380', '382', '383', '384', '388', '389', '391', '392', '393', '397', '405', '407', '408', '409', '411', '414', '422', '431', '433', '445', '446', '447', '448', '453', '455', '456', '460', '461', '466', '471', '475', '476', '480', '481', '482', '484', '487', '488', '489', '490', '491', '496', '501', '502', '507', '509', '512', '513', '514', '515', '518', '521', '523', '529', '530', '532', '537', '540', '541', '542', '543', '544', '545', '547', '548', '550', '551', '552', '554', '555', '556', '561', '563', '571', '572', '573', '583', '584', '588', '592', '595', '598', '601', '602', '603', '606', '612', '614', '615', '616', '617', '621', '623', '630', '635', '640', '641', '642', '643', '645', '646', '647', '648', '653', '656', '660', '662', '665', '667', '669', '672', '674', '678', '679', '681', '682', '684', '686', '690', '694', '695', '696', '697', '699', '700', '705', '708', '710', '718', '719', '720', '721', '722', '723', '726', '731', '736', '738', '739', '746', '749', '753', '755', '757', '758', '760', '763', '765', '767', '769', '770', '771', '772', '773', '774', '778', '779', '784', '785', '786', '791', '794', '797', '798', '799', '801', '802', '803', '807', '809', '813', '814', '816', '820', '822', '827', '835', '836', '839', '841', '846', '847', '848', '851', '854', '857', '860', '861', '862', '863', '867', '871', '873', '875', '878', '881', '884', '886', '890', '892', '894', '896', '898', '908', '911', '912', '918', '923', '924', '927', '931', '935', '936', '938', '943', '944', '951', '952', '955', '958', '959', '961', '964', '969', '970', '971', '976', '978', '981', '982', '983', '986', '987', '988', '989', '991', '996', '999', '1003', '1004', '1012', '1014', '1017', '1020', '1025', '1029', '1031', '1034', '1036', '1039', '1042', '1045', '1048', '1050', '1055', '1056', '1060', '1062', '1063', '1065', '1066', '1068', '1072', '1076', '1077', '1080', '1081', '1084', '1085', '1086', '1090', '1094', '1095', '1097', '1098', '1099', '1100', '1102', '1108', '1109', '1110', '1113', '1114', '1115', '1116', '1124', '1126', '1127', '1129', '1132', '1134', '1135', '1136', '1137', '1138', '1140', '1141', '1145', '1146', '1147', '1155', '1156', '1160', '1161', '1162', '1164', '1165', '1166', '1168', '1170', '1172', '1175', '1176', '1178', '1180', '1182', '1186', '1188', '1189', '1190', '1195', '1197', '1198', '1199', '1200', '1201', '1202', '1204', '1206', '1207', '1208', '1209', '1211', '1213', '1214', '1219', '1220', '1224', '1227', '1228', '1229', '1231', '1232', '1237', '1238', '1240', '1241', '1245', '1247', '1251', '1254', '1259', '1262', '1266', '1269', '1271', '1274', '1276', '1282', '1284', '1285', '1286', '1287', '1288', '1293', '1295', '1297', '1298', '1299', '1300', '1301', '1304', '1309', '1315', '1317', '1319', '1320', '1321', '1323', '1325', '1327', '1328', '1331', '1332', '1337', '1339', '1340', '1343', '1351', '1357', '1358', '1363', '1366', '1368', '1373', '1375', '1376', '1377', '1378', '1380', '1381', '1383', '1384', '1385', '1389', '1390', '1392', '1395', '1396', '1397', '1401', '1405', '1413', '1415', '1416', '1421', '1422', '1424', '1425', '1427', '1429', '1430', '1431', '1434', '1436', '1437', '1440', '1444', '1445', '1448', '1460', '1462', '1463', '1465', '1466', '1467', '1468', '1469', '1470', '1471', '1472', '1473', '1476', '1477', '1481', '1490', '1491', '1492', '1493', '1496', '1499', '1503', '1504', '1506', '1512', '1515', '1519', '1520', '1521', '1523', '1527', '1531', '1532', '1533', '1534', '1541', '1543', '1544', '1545', '1546', '1549', '1550', '1551', '1553', '1557', '1560', '1572', '1575', '1581', '1582', '1586', '1588', '1589', '1591', '1592', '1596', '1597', '1598', '1601', '1602', '1603', '1604', '1612', '1613', '1615', '1620', '1622', '1623', '1626', '1629', '1635', '1636', '1637', '1640', '1641', '1645', '1647', '1651', '1652', '1653', '1654', '1658', '1659', '1660', '1662', '1663', '1666', '1669', '1671', '1673', '1674', '1679', '1683', '1687', '1696', '1704', '1706', '1707', '1708', '1710', '1713', '1714', '1716', '1718', '1724', '1726', '1728', '1729', '1735', '1741', '1744', '1746', '1749', '1750', '1752', '1753', '1754', '1755', '1756', '1758', '1759', '1761', '1763', '1764', '1765', '1767', '1769', '1770', '1772', '1773', '1776', '1778', '1779', '1781', '1782', '1783', '1787', '1788', '1793', '1800', '1802', '1803', '1804', '1805', '1807', '1810', '1813', '1816', '1817', '1818', '1822', '1823', '1824', '1825', '1826', '1837', '1838', '1839', '1843', '1847', '1851', '1852', '1853', '1856', '1862', '1864', '1866', '1870', '1872', '1876', '1878', '1879', '1885', '1886', '1887', '1888', '1889', '1893', '1897', '1900', '1903', '1904', '1909', '1913', '1914', '1915', '1917', '1918', '1923', '1924', '1927', '1928', '1931', '1932', '1934', '1935', '1936', '1941', '1944', '1945', '1946', '1947', '1948', '1951', '1953', '1956', '1957', '1961', '1962', '1964', '1967', '1968', '1969', '1973', '1975', '1976', '1978', '1980', '1981', '1985', '1989', '1990', '1991', '1993', '1997']",False,4000,True,2,2eef9541f8,0.0,1.0,1.0
./expes/v2_2021-03-26_issda-30_2000-prng-1-w4-p2,30_issda-2000,2000,first-2000,600,30,rng,num-start-3800,3800,25726,classic,4414.786333560944,True,,True,1.0,1.0,1.0,1,"['1', '3', '4', '5', '7', '17', '19', '20', '26', '28', '29', '30', '31', '32', '34', '39', '45', '47', '55', '57', '65', '68', '73', '74', '75', '78', '80', '81', '83', '84', '85', '87', '93', '94', '96', '99', '103', '119', '126', '128', '129', '131', '135', '136', '142', '144', '146', '148', '152', '162', '165', '166', '167', '169', '171', '172', '174', '179', '184', '187', '188', '192', '195', '201', '203', '204', '206', '207', '208', '215', '223', '224', '236', '237', '238', '240', '241', '244', '246', '254', '255', '256', '266', '267', '268', '272', '274', '277', '284', '286', '287', '292', '300', '301', '304', '305', '307', '310', '315', '317', '319', '320', '323', '325', '328', '330', '332', '336', '340', '342', '347', '350', '359', '366', '368', '370', '374', '377', '379', '383', '386', '387', '388', '390', '391', '392', '394', '399', '406', '407', '409', '414', '417', '419', '422', '425', '426', '432', '438', '441', '443', '445', '448', '449', '451', '452', '453', '455', '457', '461', '483', '489', '491', '492', '496', '498', '500', '514', '526', '527', '531', '532', '533', '534', '535', '553', '556', '563', '564', '565', '571', '574', '576', '578', '590', '593', '594', '595', '597', '601', '603', '613', '616', '617', '618', '619', '620', '622', '631', '636', '638', '640', '645', '648', '650', '652', '656', '660', '661', '665', '667', '668', '673', '677', '678', '682', '683', '685', '687', '688', '691', '692', '693', '697', '702', '704', '711', '718', '722', '725', '732', '734', '735', '736', '740', '741', '752', '753', '755', '759', '762', '763', '770', '775', '776', '777', '789', '795', '796', '802', '807', '809', '813', '816', '817', '823', '824', '826', '830', '832', '840', '849', '850', '851', '856', '857', '859', '862', '867', '872', '873', '874', '884', '890', '892', '894', '906', '907', '912', '913', '915', '918', '919', '923', '925', '928', '938', '939', '940', '957', '964', '966', '967', '971', '975', '976', '977', '980', '982', '986', '987', '996', '997', '998', '1000', '1001', '1003', '1009', '1011', '1013', '1015', '1019', '1020', '1021', '1022', '1032', '1034', '1041', '1042', '1048', '1058', '1063', '1067', '1068', '1069', '1072', '1075', '1076', '1077', '1081', '1083', '1085', '1091', '1095', '1102', '1107', '1108', '1112', '1113', '1115', '1120', '1121', '1122', '1124', '1129', '1132', '1140', '1144', '1147', '1149', '1150', '1155', '1157', '1163', '1164', '1166', '1167', '1176', '1179', '1180', '1188', '1194', '1195', '1198', '1199', '1203', '1204', '1208', '1209', '1218', '1222', '1223', '1233', '1234', '1235', '1236', '1237', '1241', '1242', '1245', '1246', '1249', '1250', '1252', '1254', '1255', '1267', '1271', '1272', '1277', '1281', '1284', '1286', '1291', '1297', '1298', '1299', '1301', '1306', '1308', '1309', '1312', '1313', '1314', '1320', '1321', '1325', '1330', '1333', '1339', '1343', '1345', '1347', '1353', '1357', '1364', '1369', '1373', '1378', '1380', '1384', '1385', '1387', '1390', '1391', '1392', '1393', '1394', '1395', '1396', '1400', '1401', '1408', '1411', '1415', '1429', '1431', '1433', '1435', '1437', '1438', '1442', '1445', '1446', '1447', '1448', '1453', '1455', '1459', '1464', '1466', '1470', '1471', '1472', '1474', '1486', '1490', '1493', '1495', '1496', '1497', '1499', '1505', '1514', '1519', '1530', '1533', '1535', '1536', '1541', '1546', '1548', '1552', '1553', '1555', '1561', '1572', '1582', '1592', '1597', '1604', '1606', '1608', '1615', '1616', '1618', '1623', '1625', '1628', '1634', '1635', '1638', '1639', '1640', '1645', '1646', '1649', '1651', '1653', '1655', '1657', '1660', '1663', '1664', '1669', '1671', '1674', '1676', '1683', '1684', '1685', '1690', '1691', '1694', '1696', '1698', '1699', '1700', '1701', '1708', '1712', '1716', '1717', '1721', '1723', '1726', '1729', '1730', '1731', '1732', '1734', '1740', '1742', '1744', '1747', '1749', '1752', '1756', '1765', '1766', '1769', '1773', '1777', '1780', '1783', '1785', '1786', '1790', '1791', '1792', '1793', '1796', '1798', '1811', '1813', '1819', '1824', '1827', '1832', '1834', '1840', '1841', '1842', '1844', '1848', '1849', '1850', '1853', '1860', '1861', '1864', '1870', '1872', '1875', '1876', '1878', '1879', '1880', '1881', '1882', '1884', '1885', '1888', '1889', '1890', '1891', '1892', '1908', '1911', '1913', '1918', '1919', '1922', '1939', '1940', '1942', '1945', '1946', '1953', '1969', '1972', '1973', '1974', '1978', '1980', '1982', '1983', '1988', '1996', '2000']",False,4000,True,2,72d2721853,0.0,1.0,1.0
