expe,clients,clients_size,clients_subset,agg_size,method,days,days_size,days_total,time,valid,valid_sum,success,nsols,wall_hit,wall_time,pooled,valid_sums
./expes/v2_2020-11-04_dbh_200-prng-1,daily_base_hphc_200,200,first-200,21,rng,num-start-111,111,365,2.4601902961730957,True,,True,1,False,1000,True,1.0
./expes/v2_2020-11-04_dbh_200-prng-1,daily_base_hphc_200,200,first-200,71,rng,num-start-31,31,365,1000.5555052757263,False,,False,0,True,1000,True,0.0
./expes/v2_2020-11-04_dbh_200-prng-1,daily_base_hphc_200,200,first-200,141,rng,num-start-21,21,365,1000.3775162696838,False,,False,0,True,1000,True,0.0
