expe,clients,clients_size,clients_subset,agg_size,method,days,days_size,days_total,time,valid,valid_sum,success,nsols,wall_hit,wall_time,pooled,valid_sums
./expes/v2_2020-11-04_dbh_200-prng-1,daily_base_hphc_200,200,first-200,41,rng,num-start-191,191,365,3.179142951965332,True,,True,1,False,1000,True,1.0
./expes/v2_2020-11-04_dbh_200-prng-1,daily_base_hphc_200,200,first-200,111,rng,num-start-51,51,365,1000.688045501709,False,,False,0,True,1000,True,0.0
./expes/v2_2020-11-04_dbh_200-prng-1,daily_base_hphc_200,200,first-200,71,rng,num-start-171,171,365,2.891659736633301,True,,True,1,False,1000,True,1.0
./expes/v2_2020-11-04_dbh_200-prng-1,daily_base_hphc_200,200,first-200,111,rng,num-start-91,91,365,2.6207122802734375,True,,True,1,False,1000,True,1.0
./expes/v2_2020-11-04_dbh_200-prng-1,daily_base_hphc_200,200,first-200,51,rng,num-start-191,191,365,3.2063400745391846,True,,True,1,False,1000,True,1.0
./expes/v2_2020-11-04_dbh_200-prng-1,daily_base_hphc_200,200,first-200,181,rng,num-start-1,1,365,0.11440348625183105,False,,False,2,False,1000,True,1.0
./expes/v2_2020-11-04_dbh_200-prng-1,daily_base_hphc_200,200,first-200,111,rng,num-start-111,111,365,1.9490046501159668,True,,True,1,False,1000,True,1.0
./expes/v2_2020-11-04_dbh_200-prng-1,daily_base_hphc_200,200,first-200,181,rng,num-start-181,181,365,2.8714795112609863,True,,True,1,False,1000,True,1.0
./expes/v2_2020-11-04_dbh_200-prng-1,daily_base_hphc_200,200,first-200,61,rng,num-start-141,141,365,2.44873046875,True,,True,1,False,1000,True,1.0
./expes/v2_2020-11-04_dbh_200-prng-1,daily_base_hphc_200,200,first-200,41,rng,num-start-21,21,365,1000.3045566082001,False,,False,0,True,1000,True,0.0
