expe,clients,clients_size,clients_subset,agg_size,method,days,days_size,days_total,time,valid,valid_sum,success,nsols,wall_hit,wall_time,pooled,valid_sums
./expes/v2_2020-11-09_3bh_250-prng-1,30_base_hphc_250,250,first-250,1,rng,num-start-361,361,17520,10.618965864181519,True,,True,1,False,1000,True,1.0
./expes/v2_2020-11-09_3bh_250-prng-1,30_base_hphc_250,250,first-250,1,rng,num-start-271,271,17520,7.931983232498169,True,,True,1,False,1000,True,1.0
./expes/v2_2020-11-09_3bh_250-prng-1,30_base_hphc_250,250,first-250,111,rng,num-start-241,241,17520,8.297840595245361,True,,True,1,False,1000,True,1.0
./expes/v2_2020-11-09_3bh_250-prng-1,30_base_hphc_250,250,first-250,231,rng,num-start-141,141,17520,4.627714157104492,True,,True,1,False,1000,True,1.0
./expes/v2_2020-11-09_3bh_250-prng-1,30_base_hphc_250,250,first-250,241,rng,num-start-351,351,17520,11.303646802902222,True,,True,1,False,1000,True,1.0
./expes/v2_2020-11-09_3bh_250-prng-1,30_base_hphc_250,250,first-250,51,rng,num-start-761,761,17520,24.848268747329712,True,,True,1,False,1000,True,1.0
./expes/v2_2020-11-09_3bh_250-prng-1,30_base_hphc_250,250,first-250,111,rng,num-start-581,581,17520,20.340609073638916,True,,True,1,False,1000,True,1.0
./expes/v2_2020-11-09_3bh_250-prng-1,30_base_hphc_250,250,first-250,221,rng,num-start-911,911,17520,30.190914392471313,True,,True,1,False,1000,True,1.0
./expes/v2_2020-11-09_3bh_250-prng-1,30_base_hphc_250,250,first-250,121,rng,num-start-321,321,17520,10.743894577026367,True,,True,1,False,1000,True,1.0
./expes/v2_2020-11-09_3bh_250-prng-1,30_base_hphc_250,250,first-250,171,rng,num-start-931,931,17520,30.71871519088745,True,,True,1,False,1000,True,1.0
./expes/v2_2020-11-09_3bh_250-prng-1,30_base_hphc_250,250,first-250,111,rng,num-start-361,361,17520,13.404399633407593,True,,True,1,False,1000,True,1.0
./expes/v2_2020-11-09_3bh_250-prng-1,30_base_hphc_250,250,first-250,81,rng,num-start-11,11,17520,1000.4955909252167,False,,False,0,True,1000,True,0.0
./expes/v2_2020-11-09_3bh_250-prng-1,30_base_hphc_250,250,first-250,101,rng,num-start-571,571,17520,20.56984543800354,True,,True,1,False,1000,True,1.0
./expes/v2_2020-11-09_3bh_250-prng-1,30_base_hphc_250,250,first-250,91,rng,num-start-31,31,17520,1001.0355443954468,False,,False,0,True,1000,True,0.0
./expes/v2_2020-11-09_3bh_250-prng-1,30_base_hphc_250,250,first-250,231,rng,num-start-761,761,17520,24.62278389930725,True,,True,1,False,1000,True,1.0
./expes/v2_2020-11-09_3bh_250-prng-1,30_base_hphc_250,250,first-250,121,rng,num-start-51,51,17520,1001.6075041294098,False,,False,0,True,1000,True,0.0
./expes/v2_2020-11-09_3bh_250-prng-1,30_base_hphc_250,250,first-250,191,rng,num-start-821,821,17520,28.298678874969482,True,,True,1,False,1000,True,1.0
./expes/v2_2020-11-09_3bh_250-prng-1,30_base_hphc_250,250,first-250,81,rng,num-start-351,351,17520,13.252840995788574,True,,True,1,False,1000,True,1.0
./expes/v2_2020-11-09_3bh_250-prng-1,30_base_hphc_250,250,first-250,141,rng,num-start-601,601,17520,22.133472681045532,True,,True,1,False,1000,True,1.0
./expes/v2_2020-11-09_3bh_250-prng-1,30_base_hphc_250,250,first-250,111,rng,num-start-731,731,17520,28.784449815750122,True,,True,1,False,1000,True,1.0
./expes/v2_2020-11-09_3bh_250-prng-1,30_base_hphc_250,250,first-250,191,rng,num-start-161,161,17520,6.266110420227051,True,,True,1,False,1000,True,1.0
./expes/v2_2020-11-09_3bh_250-prng-1,30_base_hphc_250,250,first-250,111,rng,num-start-731,731,17520,23.73231053352356,True,,True,1,False,1000,True,1.0
./expes/v2_2020-11-09_3bh_250-prng-1,30_base_hphc_250,250,first-250,191,rng,num-start-721,721,17520,24.122145414352417,True,,True,1,False,1000,True,1.0
./expes/v2_2020-11-09_3bh_250-prng-1,30_base_hphc_250,250,first-250,51,rng,num-start-721,721,17520,23.134680032730103,True,,True,1,False,1000,True,1.0
./expes/v2_2020-11-09_3bh_250-prng-1,30_base_hphc_250,250,first-250,171,rng,num-start-271,271,17520,9.46177053451538,True,,True,1,False,1000,True,1.0
./expes/v2_2020-11-09_3bh_250-prng-1,30_base_hphc_250,250,first-250,31,rng,num-start-981,981,17520,31.434145212173462,True,,True,1,False,1000,True,1.0
./expes/v2_2020-11-09_3bh_250-prng-1,30_base_hphc_250,250,first-250,191,rng,num-start-531,531,17520,17.63148856163025,True,,True,1,False,1000,True,1.0
