expe,clients,clients_size,clients_subset,agg_size,method,days,days_size,days_total,time,valid,valid_sum,success,nsols,wall_hit,wall_time,pooled,valid_sums
./expes/v2_2020-11-09_3bh_250-prng-1,30_base_hphc_250,250,first-250,91,rng,num-start-961,961,17520,17.212628841400146,True,,True,1,False,1000,True,1.0
./expes/v2_2020-11-09_3bh_250-prng-1,30_base_hphc_250,250,first-250,231,rng,num-start-461,461,17520,6.954624176025391,True,,True,1,False,1000,True,1.0
./expes/v2_2020-11-09_3bh_250-prng-1,30_base_hphc_250,250,first-250,181,rng,num-start-891,891,17520,17.22571849822998,True,,True,1,False,1000,True,1.0
./expes/v2_2020-11-09_3bh_250-prng-1,30_base_hphc_250,250,first-250,51,rng,num-start-231,231,17520,4.548151016235352,True,,True,1,False,1000,True,1.0
./expes/v2_2020-11-09_3bh_250-prng-1,30_base_hphc_250,250,first-250,221,rng,num-start-51,51,17520,2.7030434608459473,True,,True,1,False,1000,True,1.0
./expes/v2_2020-11-09_3bh_250-prng-1,30_base_hphc_250,250,first-250,61,rng,num-start-121,121,17520,2.743265151977539,True,,True,1,False,1000,True,1.0
./expes/v2_2020-11-09_3bh_250-prng-1,30_base_hphc_250,250,first-250,181,rng,num-start-141,141,17520,2.8872416019439697,True,,True,1,False,1000,True,1.0
./expes/v2_2020-11-09_3bh_250-prng-1,30_base_hphc_250,250,first-250,161,rng,num-start-631,631,17520,12.644291400909424,True,,True,1,False,1000,True,1.0
./expes/v2_2020-11-09_3bh_250-prng-1,30_base_hphc_250,250,first-250,211,rng,num-start-711,711,17520,11.417933225631714,True,,True,1,False,1000,True,1.0
./expes/v2_2020-11-09_3bh_250-prng-1,30_base_hphc_250,250,first-250,231,rng,num-start-421,421,17520,7.1763317584991455,True,,True,1,False,1000,True,1.0
./expes/v2_2020-11-09_3bh_250-prng-1,30_base_hphc_250,250,first-250,221,rng,num-start-561,561,17520,9.517764806747437,True,,True,1,False,1000,True,1.0
./expes/v2_2020-11-09_3bh_250-prng-1,30_base_hphc_250,250,first-250,121,rng,num-start-181,181,17520,3.343733072280884,True,,True,1,False,1000,True,1.0
./expes/v2_2020-11-09_3bh_250-prng-1,30_base_hphc_250,250,first-250,231,rng,num-start-361,361,17520,6.0233166217803955,True,,True,1,False,1000,True,1.0
./expes/v2_2020-11-09_3bh_250-prng-1,30_base_hphc_250,250,first-250,211,rng,num-start-61,61,17520,2.858611822128296,True,,True,1,False,1000,True,1.0
./expes/v2_2020-11-09_3bh_250-prng-1,30_base_hphc_250,250,first-250,171,rng,num-start-231,231,17520,4.527615785598755,True,,True,1,False,1000,True,1.0
./expes/v2_2020-11-09_3bh_250-prng-1,30_base_hphc_250,250,first-250,161,rng,num-start-101,101,17520,4.852139472961426,True,,True,1,False,1000,True,1.0
./expes/v2_2020-11-09_3bh_250-prng-1,30_base_hphc_250,250,first-250,21,rng,num-start-11,11,17520,1000.3039748668671,False,,False,0,True,1000,True,0.0
./expes/v2_2020-11-09_3bh_250-prng-1,30_base_hphc_250,250,first-250,101,rng,num-start-191,191,17520,4.195261478424072,True,,True,1,False,1000,True,1.0
./expes/v2_2020-11-09_3bh_250-prng-1,30_base_hphc_250,250,first-250,91,rng,num-start-691,691,17520,13.134522914886475,True,,True,1,False,1000,True,1.0
./expes/v2_2020-11-09_3bh_250-prng-1,30_base_hphc_250,250,first-250,31,rng,num-start-861,861,17520,15.182481288909912,True,,True,1,False,1000,True,1.0
./expes/v2_2020-11-09_3bh_250-prng-1,30_base_hphc_250,250,first-250,191,rng,num-start-171,171,17520,3.5149292945861816,True,,True,1,False,1000,True,1.0
./expes/v2_2020-11-09_3bh_250-prng-1,30_base_hphc_250,250,first-250,11,rng,num-start-651,651,17520,8.649333953857422,True,,True,1,False,1000,True,1.0
./expes/v2_2020-11-09_3bh_250-prng-1,30_base_hphc_250,250,first-250,111,rng,num-start-131,131,17520,4.423868179321289,True,,True,1,False,1000,True,1.0
./expes/v2_2020-11-09_3bh_250-prng-1,30_base_hphc_250,250,first-250,81,rng,num-start-281,281,17520,5.291313409805298,True,,True,1,False,1000,True,1.0
./expes/v2_2020-11-09_3bh_250-prng-1,30_base_hphc_250,250,first-250,11,rng,num-start-601,601,17520,10.742030143737793,True,,True,1,False,1000,True,1.0
./expes/v2_2020-11-09_3bh_250-prng-1,30_base_hphc_250,250,first-250,121,rng,num-start-911,911,17520,16.31250262260437,True,,True,1,False,1000,True,1.0
./expes/v2_2020-11-09_3bh_250-prng-1,30_base_hphc_250,250,first-250,121,rng,num-start-121,121,17520,2.2921643257141113,True,,True,1,False,1000,True,1.0
./expes/v2_2020-11-09_3bh_250-prng-1,30_base_hphc_250,250,first-250,21,rng,num-start-381,381,17520,6.610320806503296,True,,True,1,False,1000,True,1.0
./expes/v2_2020-11-09_3bh_250-prng-1,30_base_hphc_250,250,first-250,181,rng,num-start-361,361,17520,5.704581260681152,True,,True,1,False,1000,True,1.0
./expes/v2_2020-11-09_3bh_250-prng-1,30_base_hphc_250,250,first-250,61,rng,num-start-261,261,17520,5.045227766036987,True,,True,1,False,1000,True,1.0
./expes/v2_2020-11-09_3bh_250-prng-1,30_base_hphc_250,250,first-250,41,rng,num-start-781,781,17520,12.752158164978027,True,,True,1,False,1000,True,1.0
./expes/v2_2020-11-09_3bh_250-prng-1,30_base_hphc_250,250,first-250,181,rng,num-start-771,771,17520,12.910298824310303,True,,True,1,False,1000,True,1.0
./expes/v2_2020-11-09_3bh_250-prng-1,30_base_hphc_250,250,first-250,141,rng,num-start-751,751,17520,13.722024917602539,True,,True,1,False,1000,True,1.0
./expes/v2_2020-11-09_3bh_250-prng-1,30_base_hphc_250,250,first-250,51,rng,num-start-161,161,17520,2.7175753116607666,True,,True,1,False,1000,True,1.0
./expes/v2_2020-11-09_3bh_250-prng-1,30_base_hphc_250,250,first-250,121,rng,num-start-511,511,17520,9.220386981964111,True,,True,1,False,1000,True,1.0
./expes/v2_2020-11-09_3bh_250-prng-1,30_base_hphc_250,250,first-250,211,rng,num-start-51,51,17520,16.668516874313354,True,,True,1,False,1000,True,1.0
./expes/v2_2020-11-09_3bh_250-prng-1,30_base_hphc_250,250,first-250,241,rng,num-start-151,151,17520,2.3634724617004395,True,,True,1,False,1000,True,1.0
./expes/v2_2020-11-09_3bh_250-prng-1,30_base_hphc_250,250,first-250,101,rng,num-start-711,711,17520,13.200564622879028,True,,True,1,False,1000,True,1.0
./expes/v2_2020-11-09_3bh_250-prng-1,30_base_hphc_250,250,first-250,41,rng,num-start-81,81,17520,2.191455125808716,True,,True,1,False,1000,True,1.0
./expes/v2_2020-11-09_3bh_250-prng-1,30_base_hphc_250,250,first-250,181,rng,num-start-791,791,17520,13.589003086090088,True,,True,1,False,1000,True,1.0
./expes/v2_2020-11-09_3bh_250-prng-1,30_base_hphc_250,250,first-250,61,rng,num-start-121,121,17520,2.522270679473877,True,,True,1,False,1000,True,1.0
./expes/v2_2020-11-09_3bh_250-prng-1,30_base_hphc_250,250,first-250,91,rng,num-start-441,441,17520,7.695003986358643,True,,True,1,False,1000,True,1.0
./expes/v2_2020-11-09_3bh_250-prng-1,30_base_hphc_250,250,first-250,31,rng,num-start-781,781,17520,11.851454734802246,True,,True,1,False,1000,True,1.0
./expes/v2_2020-11-09_3bh_250-prng-1,30_base_hphc_250,250,first-250,201,rng,num-start-561,561,17520,12.07471752166748,True,,True,1,False,1000,True,1.0
./expes/v2_2020-11-09_3bh_250-prng-1,30_base_hphc_250,250,first-250,71,rng,num-start-551,551,17520,11.08803915977478,True,,True,1,False,1000,True,1.0
./expes/v2_2020-11-09_3bh_250-prng-1,30_base_hphc_250,250,first-250,41,rng,num-start-221,221,17520,3.5305275917053223,True,,True,1,False,1000,True,1.0
./expes/v2_2020-11-09_3bh_250-prng-1,30_base_hphc_250,250,first-250,171,rng,num-start-171,171,17520,3.120266914367676,True,,True,1,False,1000,True,1.0
./expes/v2_2020-11-09_3bh_250-prng-1,30_base_hphc_250,250,first-250,211,rng,num-start-421,421,17520,5.872120141983032,True,,True,1,False,1000,True,1.0
./expes/v2_2020-11-09_3bh_250-prng-1,30_base_hphc_250,250,first-250,241,rng,num-start-701,701,17520,8.556715250015259,True,,True,1,False,1000,True,1.0
./expes/v2_2020-11-09_3bh_250-prng-1,30_base_hphc_250,250,first-250,171,rng,num-start-371,371,17520,7.456429958343506,True,,True,1,False,1000,True,1.0
./expes/v2_2020-11-09_3bh_250-prng-1,30_base_hphc_250,250,first-250,191,rng,num-start-861,861,17520,14.389117240905762,True,,True,1,False,1000,True,1.0
./expes/v2_2020-11-09_3bh_250-prng-1,30_base_hphc_250,250,first-250,141,rng,num-start-471,471,17520,8.082240581512451,True,,True,1,False,1000,True,1.0
./expes/v2_2020-11-09_3bh_250-prng-1,30_base_hphc_250,250,first-250,181,rng,num-start-171,171,17520,3.31325101852417,True,,True,1,False,1000,True,1.0
./expes/v2_2020-11-09_3bh_250-prng-1,30_base_hphc_250,250,first-250,121,rng,num-start-471,471,17520,9.367121458053589,True,,True,1,False,1000,True,1.0
./expes/v2_2020-11-09_3bh_250-prng-1,30_base_hphc_250,250,first-250,1,rng,num-start-61,61,17520,0.6529953479766846,True,,True,1,False,1000,True,1.0
./expes/v2_2020-11-09_3bh_250-prng-1,30_base_hphc_250,250,first-250,41,rng,num-start-961,961,17520,15.394833326339722,True,,True,1,False,1000,True,1.0
./expes/v2_2020-11-09_3bh_250-prng-1,30_base_hphc_250,250,first-250,41,rng,num-start-851,851,17520,14.31820034980774,True,,True,1,False,1000,True,1.0
./expes/v2_2020-11-09_3bh_250-prng-1,30_base_hphc_250,250,first-250,51,rng,num-start-471,471,17520,8.174643516540527,True,,True,1,False,1000,True,1.0
./expes/v2_2020-11-09_3bh_250-prng-1,30_base_hphc_250,250,first-250,161,rng,num-start-1,1,17520,0.02136373519897461,False,,False,2,False,1000,True,1.0
./expes/v2_2020-11-09_3bh_250-prng-1,30_base_hphc_250,250,first-250,201,rng,num-start-601,601,17520,13.174849033355713,True,,True,1,False,1000,True,1.0
./expes/v2_2020-11-09_3bh_250-prng-1,30_base_hphc_250,250,first-250,221,rng,num-start-331,331,17520,4.90235161781311,True,,True,1,False,1000,True,1.0
./expes/v2_2020-11-09_3bh_250-prng-1,30_base_hphc_250,250,first-250,41,rng,num-start-861,861,17520,15.740959167480469,True,,True,1,False,1000,True,1.0
./expes/v2_2020-11-09_3bh_250-prng-1,30_base_hphc_250,250,first-250,21,rng,num-start-61,61,17520,1.188297986984253,True,,True,1,False,1000,True,1.0
./expes/v2_2020-11-09_3bh_250-prng-1,30_base_hphc_250,250,first-250,121,rng,num-start-191,191,17520,4.210327625274658,True,,True,1,False,1000,True,1.0
./expes/v2_2020-11-09_3bh_250-prng-1,30_base_hphc_250,250,first-250,151,rng,num-start-601,601,17520,13.773110389709473,True,,True,1,False,1000,True,1.0
./expes/v2_2020-11-09_3bh_250-prng-1,30_base_hphc_250,250,first-250,241,rng,num-start-1,1,17520,0.02241206169128418,False,,False,2,False,1000,True,1.0
./expes/v2_2020-11-09_3bh_250-prng-1,30_base_hphc_250,250,first-250,151,rng,num-start-961,961,17520,14.84745979309082,True,,True,1,False,1000,True,1.0
./expes/v2_2020-11-09_3bh_250-prng-1,30_base_hphc_250,250,first-250,231,rng,num-start-391,391,17520,5.492783784866333,True,,True,1,False,1000,True,1.0
./expes/v2_2020-11-09_3bh_250-prng-1,30_base_hphc_250,250,first-250,91,rng,num-start-11,11,17520,1000.5027351379395,False,,False,0,True,1000,True,0.0
./expes/v2_2020-11-09_3bh_250-prng-1,30_base_hphc_250,250,first-250,181,rng,num-start-671,671,17520,128.39423751831055,True,,True,1,False,1000,True,1.0
./expes/v2_2020-11-09_3bh_250-prng-1,30_base_hphc_250,250,first-250,21,rng,num-start-681,681,17520,89.96074438095093,True,,True,1,False,1000,True,1.0
./expes/v2_2020-11-09_3bh_250-prng-1,30_base_hphc_250,250,first-250,41,rng,num-start-801,801,17520,82.2455222606659,True,,True,1,False,1000,True,1.0
./expes/v2_2020-11-09_3bh_250-prng-1,30_base_hphc_250,250,first-250,161,rng,num-start-811,811,17520,163.59913229942322,True,,True,1,False,1000,True,1.0
./expes/v2_2020-11-09_3bh_250-prng-1,30_base_hphc_250,250,first-250,171,rng,num-start-471,471,17520,99.01950645446777,True,,True,1,False,1000,True,1.0
./expes/v2_2020-11-09_3bh_250-prng-1,30_base_hphc_250,250,first-250,101,rng,num-start-401,401,17520,87.25618076324463,True,,True,1,False,1000,True,1.0
./expes/v2_2020-11-09_3bh_250-prng-1,30_base_hphc_250,250,first-250,1,rng,num-start-51,51,17520,95.0325825214386,True,,True,1,False,1000,True,1.0
./expes/v2_2020-11-09_3bh_250-prng-1,30_base_hphc_250,250,first-250,11,rng,num-start-51,51,17520,74.54110836982727,True,,True,1,False,1000,True,1.0
./expes/v2_2020-11-09_3bh_250-prng-1,30_base_hphc_250,250,first-250,131,rng,num-start-31,31,17520,1069.1347892284393,False,,False,0,True,1000,True,0.0
./expes/v2_2020-11-09_3bh_250-prng-1,30_base_hphc_250,250,first-250,161,rng,num-start-441,441,17520,425.9131848812103,True,,True,1,False,1000,True,1.0
./expes/v2_2020-11-09_3bh_250-prng-1,30_base_hphc_250,250,first-250,171,rng,num-start-491,491,17520,143.82987356185913,True,,True,1,False,1000,True,1.0
./expes/v2_2020-11-09_3bh_250-prng-1,30_base_hphc_250,250,first-250,121,rng,num-start-431,431,17520,112.55430054664612,True,,True,1,False,1000,True,1.0
./expes/v2_2020-11-09_3bh_250-prng-1,30_base_hphc_250,250,first-250,231,rng,num-start-361,361,17520,99.00508427619934,True,,True,1,False,1000,True,1.0
./expes/v2_2020-11-09_3bh_250-prng-1,30_base_hphc_250,250,first-250,101,rng,num-start-271,271,17520,145.24527502059937,True,,True,1,False,1000,True,1.0
./expes/v2_2020-11-09_3bh_250-prng-1,30_base_hphc_250,250,first-250,91,rng,num-start-841,841,17520,147.02768731117249,True,,True,1,False,1000,True,1.0
./expes/v2_2020-11-09_3bh_250-prng-1,30_base_hphc_250,250,first-250,71,rng,num-start-371,371,17520,146.20338606834412,True,,True,1,False,1000,True,1.0
./expes/v2_2020-11-09_3bh_250-prng-1,30_base_hphc_250,250,first-250,1,rng,num-start-801,801,17520,75.0557689666748,True,,True,1,False,1000,True,1.0
./expes/v2_2020-11-09_3bh_250-prng-1,30_base_hphc_250,250,first-250,181,rng,num-start-721,721,17520,32.79695105552673,True,,True,1,False,1000,True,1.0
./expes/v2_2020-11-09_3bh_250-prng-1,30_base_hphc_250,250,first-250,91,rng,num-start-931,931,17520,17.0467529296875,True,,True,1,False,1000,True,1.0
./expes/v2_2020-11-09_3bh_250-prng-1,30_base_hphc_250,250,first-250,81,rng,num-start-121,121,17520,5.953437805175781,True,,True,1,False,1000,True,1.0
./expes/v2_2020-11-09_3bh_250-prng-1,30_base_hphc_250,250,first-250,21,rng,num-start-81,81,17520,1.5911002159118652,True,,True,1,False,1000,True,1.0
./expes/v2_2020-11-09_3bh_250-prng-1,30_base_hphc_250,250,first-250,101,rng,num-start-731,731,17520,12.494500875473022,True,,True,1,False,1000,True,1.0
./expes/v2_2020-11-09_3bh_250-prng-1,30_base_hphc_250,250,first-250,131,rng,num-start-781,781,17520,14.82267451286316,True,,True,1,False,1000,True,1.0
./expes/v2_2020-11-09_3bh_250-prng-1,30_base_hphc_250,250,first-250,131,rng,num-start-161,161,17520,3.237212896347046,True,,True,1,False,1000,True,1.0
./expes/v2_2020-11-09_3bh_250-prng-1,30_base_hphc_250,250,first-250,161,rng,num-start-761,761,17520,15.816478252410889,True,,True,1,False,1000,True,1.0
./expes/v2_2020-11-09_3bh_250-prng-1,30_base_hphc_250,250,first-250,171,rng,num-start-631,631,17520,10.996984720230103,True,,True,1,False,1000,True,1.0
./expes/v2_2020-11-09_3bh_250-prng-1,30_base_hphc_250,250,first-250,51,rng,num-start-941,941,17520,17.723647356033325,True,,True,1,False,1000,True,1.0
./expes/v2_2020-11-09_3bh_250-prng-1,30_base_hphc_250,250,first-250,111,rng,num-start-81,81,17520,1001.0788080692291,False,,False,0,True,1000,True,0.0
./expes/v2_2020-11-09_3bh_250-prng-1,30_base_hphc_250,250,first-250,121,rng,num-start-531,531,17520,8.999818801879883,True,,True,1,False,1000,True,1.0
./expes/v2_2020-11-09_3bh_250-prng-1,30_base_hphc_250,250,first-250,41,rng,num-start-731,731,17520,13.807920455932617,True,,True,1,False,1000,True,1.0
./expes/v2_2020-11-09_3bh_250-prng-1,30_base_hphc_250,250,first-250,171,rng,num-start-731,731,17520,12.444830894470215,True,,True,1,False,1000,True,1.0
./expes/v2_2020-11-09_3bh_250-prng-1,30_base_hphc_250,250,first-250,201,rng,num-start-971,971,17520,17.333660364151,True,,True,1,False,1000,True,1.0
./expes/v2_2020-11-09_3bh_250-prng-1,30_base_hphc_250,250,first-250,111,rng,num-start-161,161,17520,3.5325381755828857,True,,True,1,False,1000,True,1.0
./expes/v2_2020-11-09_3bh_250-prng-1,30_base_hphc_250,250,first-250,21,rng,num-start-821,821,17520,15.012709379196167,True,,True,1,False,1000,True,1.0
./expes/v2_2020-11-09_3bh_250-prng-1,30_base_hphc_250,250,first-250,131,rng,num-start-251,251,17520,5.273461818695068,True,,True,1,False,1000,True,1.0
./expes/v2_2020-11-09_3bh_250-prng-1,30_base_hphc_250,250,first-250,31,rng,num-start-461,461,17520,7.1307408809661865,True,,True,1,False,1000,True,1.0
./expes/v2_2020-11-09_3bh_250-prng-1,30_base_hphc_250,250,first-250,21,rng,num-start-311,311,17520,5.368876218795776,True,,True,1,False,1000,True,1.0
./expes/v2_2020-11-09_3bh_250-prng-1,30_base_hphc_250,250,first-250,111,rng,num-start-171,171,17520,3.5261921882629395,True,,True,1,False,1000,True,1.0
./expes/v2_2020-11-09_3bh_250-prng-1,30_base_hphc_250,250,first-250,221,rng,num-start-821,821,17520,13.828427791595459,True,,True,1,False,1000,True,1.0
./expes/v2_2020-11-09_3bh_250-prng-1,30_base_hphc_250,250,first-250,61,rng,num-start-721,721,17520,13.079567193984985,True,,True,1,False,1000,True,1.0
./expes/v2_2020-11-09_3bh_250-prng-1,30_base_hphc_250,250,first-250,21,rng,num-start-731,731,17520,11.90125322341919,True,,True,1,False,1000,True,1.0
./expes/v2_2020-11-09_3bh_250-prng-1,30_base_hphc_250,250,first-250,61,rng,num-start-671,671,17520,11.9769868850708,True,,True,1,False,1000,True,1.0
./expes/v2_2020-11-09_3bh_250-prng-1,30_base_hphc_250,250,first-250,41,rng,num-start-871,871,17520,14.814931631088257,True,,True,1,False,1000,True,1.0
./expes/v2_2020-11-09_3bh_250-prng-1,30_base_hphc_250,250,first-250,41,rng,num-start-571,571,17520,11.067789077758789,True,,True,1,False,1000,True,1.0
./expes/v2_2020-11-09_3bh_250-prng-1,30_base_hphc_250,250,first-250,81,rng,num-start-221,221,17520,5.361542463302612,True,,True,1,False,1000,True,1.0
./expes/v2_2020-11-09_3bh_250-prng-1,30_base_hphc_250,250,first-250,111,rng,num-start-501,501,17520,9.069560527801514,True,,True,1,False,1000,True,1.0
./expes/v2_2020-11-09_3bh_250-prng-1,30_base_hphc_250,250,first-250,211,rng,num-start-481,481,17520,7.139591932296753,True,,True,1,False,1000,True,1.0
./expes/v2_2020-11-09_3bh_250-prng-1,30_base_hphc_250,250,first-250,161,rng,num-start-351,351,17520,6.101377248764038,True,,True,1,False,1000,True,1.0
./expes/v2_2020-11-09_3bh_250-prng-1,30_base_hphc_250,250,first-250,101,rng,num-start-911,911,17520,14.951159238815308,True,,True,1,False,1000,True,1.0
./expes/v2_2020-11-09_3bh_250-prng-1,30_base_hphc_250,250,first-250,51,rng,num-start-751,751,17520,12.241433143615723,True,,True,1,False,1000,True,1.0
./expes/v2_2020-11-09_3bh_250-prng-1,30_base_hphc_250,250,first-250,171,rng,num-start-161,161,17520,3.032197952270508,True,,True,1,False,1000,True,1.0
./expes/v2_2020-11-09_3bh_250-prng-1,30_base_hphc_250,250,first-250,61,rng,num-start-691,691,17520,12.355241775512695,True,,True,1,False,1000,True,1.0
./expes/v2_2020-11-09_3bh_250-prng-1,30_base_hphc_250,250,first-250,231,rng,num-start-591,591,17520,10.011894941329956,True,,True,1,False,1000,True,1.0
./expes/v2_2020-11-09_3bh_250-prng-1,30_base_hphc_250,250,first-250,171,rng,num-start-51,51,17520,1000.6680729389191,False,,False,0,True,1000,True,0.0
./expes/v2_2020-11-09_3bh_250-prng-1,30_base_hphc_250,250,first-250,211,rng,num-start-771,771,17520,186.63954615592957,True,,True,1,False,1000,True,1.0
./expes/v2_2020-11-09_3bh_250-prng-1,30_base_hphc_250,250,first-250,41,rng,num-start-751,751,17520,194.84544777870178,True,,True,1,False,1000,True,1.0
./expes/v2_2020-11-09_3bh_250-prng-1,30_base_hphc_250,250,first-250,31,rng,num-start-881,881,17520,324.6835720539093,True,,True,1,False,1000,True,1.0
./expes/v2_2020-11-09_3bh_250-prng-1,30_base_hphc_250,250,first-250,81,rng,num-start-591,591,17520,203.04314661026,True,,True,1,False,1000,True,1.0
./expes/v2_2020-11-09_3bh_250-prng-1,30_base_hphc_250,250,first-250,241,rng,num-start-411,411,17520,123.1658263206482,True,,True,1,False,1000,True,1.0
./expes/v2_2020-11-09_3bh_250-prng-1,30_base_hphc_250,250,first-250,51,rng,num-start-361,361,17520,70.26021909713745,True,,True,1,False,1000,True,1.0
./expes/v2_2020-11-09_3bh_250-prng-1,30_base_hphc_250,250,first-250,61,rng,num-start-611,611,17520,9.780505895614624,True,,True,1,False,1000,True,1.0
./expes/v2_2020-11-09_3bh_250-prng-1,30_base_hphc_250,250,first-250,111,rng,num-start-701,701,17520,11.94567584991455,True,,True,1,False,1000,True,1.0
./expes/v2_2020-11-09_3bh_250-prng-1,30_base_hphc_250,250,first-250,131,rng,num-start-451,451,17520,8.058052062988281,True,,True,1,False,1000,True,1.0
./expes/v2_2020-11-09_3bh_250-prng-1,30_base_hphc_250,250,first-250,221,rng,num-start-481,481,17520,7.294545412063599,True,,True,1,False,1000,True,1.0
./expes/v2_2020-11-09_3bh_250-prng-1,30_base_hphc_250,250,first-250,231,rng,num-start-181,181,17520,2.95878267288208,True,,True,1,False,1000,True,1.0
./expes/v2_2020-11-09_3bh_250-prng-1,30_base_hphc_250,250,first-250,71,rng,num-start-591,591,17520,9.517375469207764,True,,True,1,False,1000,True,1.0
./expes/v2_2020-11-09_3bh_250-prng-1,30_base_hphc_250,250,first-250,121,rng,num-start-71,71,17520,1000.9550263881683,False,,False,0,True,1000,True,0.0
./expes/v2_2020-11-09_3bh_250-prng-1,30_base_hphc_250,250,first-250,191,rng,num-start-501,501,17520,8.253661155700684,True,,True,1,False,1000,True,1.0
./expes/v2_2020-11-09_3bh_250-prng-1,30_base_hphc_250,250,first-250,131,rng,num-start-161,161,17520,3.416022300720215,True,,True,1,False,1000,True,1.0
./expes/v2_2020-11-09_3bh_250-prng-1,30_base_hphc_250,250,first-250,61,rng,num-start-541,541,17520,10.93836760520935,True,,True,1,False,1000,True,1.0
./expes/v2_2020-11-09_3bh_250-prng-1,30_base_hphc_250,250,first-250,111,rng,num-start-661,661,17520,10.199443817138672,True,,True,1,False,1000,True,1.0
./expes/v2_2020-11-09_3bh_250-prng-1,30_base_hphc_250,250,first-250,101,rng,num-start-131,131,17520,3.1895601749420166,True,,True,1,False,1000,True,1.0
./expes/v2_2020-11-09_3bh_250-prng-1,30_base_hphc_250,250,first-250,41,rng,num-start-271,271,17520,5.2328407764434814,True,,True,1,False,1000,True,1.0
./expes/v2_2020-11-09_3bh_250-prng-1,30_base_hphc_250,250,first-250,211,rng,num-start-281,281,17520,5.271533727645874,True,,True,1,False,1000,True,1.0
./expes/v2_2020-11-09_3bh_250-prng-1,30_base_hphc_250,250,first-250,121,rng,num-start-91,91,17520,7.201649904251099,True,,True,1,False,1000,True,1.0
./expes/v2_2020-11-09_3bh_250-prng-1,30_base_hphc_250,250,first-250,221,rng,num-start-181,181,17520,2.9421939849853516,True,,True,1,False,1000,True,1.0
./expes/v2_2020-11-09_3bh_250-prng-1,30_base_hphc_250,250,first-250,201,rng,num-start-41,41,17520,1000.6673738956451,False,,False,0,True,1000,True,0.0
./expes/v2_2020-11-09_3bh_250-prng-1,30_base_hphc_250,250,first-250,71,rng,num-start-211,211,17520,3.8926310539245605,True,,True,1,False,1000,True,1.0
./expes/v2_2020-11-09_3bh_250-prng-1,30_base_hphc_250,250,first-250,121,rng,num-start-611,611,17520,11.709977149963379,True,,True,1,False,1000,True,1.0
./expes/v2_2020-11-09_3bh_250-prng-1,30_base_hphc_250,250,first-250,121,rng,num-start-481,481,17520,7.399971008300781,True,,True,1,False,1000,True,1.0
./expes/v2_2020-11-09_3bh_250-prng-1,30_base_hphc_250,250,first-250,21,rng,num-start-171,171,17520,3.4630680084228516,True,,True,1,False,1000,True,1.0
./expes/v2_2020-11-09_3bh_250-prng-1,30_base_hphc_250,250,first-250,131,rng,num-start-851,851,17520,15.190928220748901,True,,True,1,False,1000,True,1.0
./expes/v2_2020-11-09_3bh_250-prng-1,30_base_hphc_250,250,first-250,141,rng,num-start-351,351,17520,5.849830627441406,True,,True,1,False,1000,True,1.0
./expes/v2_2020-11-09_3bh_250-prng-1,30_base_hphc_250,250,first-250,151,rng,num-start-701,701,17520,12.907690286636353,True,,True,1,False,1000,True,1.0
./expes/v2_2020-11-09_3bh_250-prng-1,30_base_hphc_250,250,first-250,211,rng,num-start-701,701,17520,11.78883147239685,True,,True,1,False,1000,True,1.0
./expes/v2_2020-11-09_3bh_250-prng-1,30_base_hphc_250,250,first-250,241,rng,num-start-121,121,17520,2.0455868244171143,True,,True,1,False,1000,True,1.0
./expes/v2_2020-11-09_3bh_250-prng-1,30_base_hphc_250,250,first-250,211,rng,num-start-581,581,17520,9.758517980575562,True,,True,1,False,1000,True,1.0
./expes/v2_2020-11-09_3bh_250-prng-1,30_base_hphc_250,250,first-250,171,rng,num-start-811,811,17520,14.582496166229248,True,,True,1,False,1000,True,1.0
./expes/v2_2020-11-09_3bh_250-prng-1,30_base_hphc_250,250,first-250,231,rng,num-start-691,691,17520,11.963874101638794,True,,True,1,False,1000,True,1.0
./expes/v2_2020-11-09_3bh_250-prng-1,30_base_hphc_250,250,first-250,51,rng,num-start-1,1,17520,0.031323909759521484,False,,False,2,False,1000,True,1.0
./expes/v2_2020-11-09_3bh_250-prng-1,30_base_hphc_250,250,first-250,211,rng,num-start-731,731,17520,10.821285009384155,True,,True,1,False,1000,True,1.0
./expes/v2_2020-11-09_3bh_250-prng-1,30_base_hphc_250,250,first-250,121,rng,num-start-191,191,17520,3.9113900661468506,True,,True,1,False,1000,True,1.0
./expes/v2_2020-11-09_3bh_250-prng-1,30_base_hphc_250,250,first-250,141,rng,num-start-1,1,17520,0.021872282028198242,False,,False,2,False,1000,True,1.0
./expes/v2_2020-11-09_3bh_250-prng-1,30_base_hphc_250,250,first-250,131,rng,num-start-371,371,17520,6.566787242889404,True,,True,1,False,1000,True,1.0
./expes/v2_2020-11-09_3bh_250-prng-1,30_base_hphc_250,250,first-250,201,rng,num-start-591,591,17520,9.09907078742981,True,,True,1,False,1000,True,1.0
./expes/v2_2020-11-09_3bh_250-prng-1,30_base_hphc_250,250,first-250,131,rng,num-start-981,981,17520,16.980900287628174,True,,True,1,False,1000,True,1.0
./expes/v2_2020-11-09_3bh_250-prng-1,30_base_hphc_250,250,first-250,241,rng,num-start-411,411,17520,5.1363935470581055,True,,True,1,False,1000,True,1.0
./expes/v2_2020-11-09_3bh_250-prng-1,30_base_hphc_250,250,first-250,121,rng,num-start-561,561,17520,9.038930892944336,True,,True,1,False,1000,True,1.0
./expes/v2_2020-11-09_3bh_250-prng-1,30_base_hphc_250,250,first-250,231,rng,num-start-31,31,17520,8.994341135025024,True,,True,1,False,1000,True,1.0
./expes/v2_2020-11-09_3bh_250-prng-1,30_base_hphc_250,250,first-250,71,rng,num-start-91,91,17520,3.7323176860809326,True,,True,1,False,1000,True,1.0
./expes/v2_2020-11-09_3bh_250-prng-1,30_base_hphc_250,250,first-250,141,rng,num-start-571,571,17520,9.533502578735352,True,,True,1,False,1000,True,1.0
./expes/v2_2020-11-09_3bh_250-prng-1,30_base_hphc_250,250,first-250,171,rng,num-start-791,791,17520,11.655036211013794,True,,True,1,False,1000,True,1.0
./expes/v2_2020-11-09_3bh_250-prng-1,30_base_hphc_250,250,first-250,91,rng,num-start-161,161,17520,2.4492876529693604,True,,True,1,False,1000,True,1.0
./expes/v2_2020-11-09_3bh_250-prng-1,30_base_hphc_250,250,first-250,101,rng,num-start-331,331,17520,5.505943536758423,True,,True,1,False,1000,True,1.0
./expes/v2_2020-11-09_3bh_250-prng-1,30_base_hphc_250,250,first-250,111,rng,num-start-541,541,17520,9.359299659729004,True,,True,1,False,1000,True,1.0
./expes/v2_2020-11-09_3bh_250-prng-1,30_base_hphc_250,250,first-250,71,rng,num-start-421,421,17520,6.953551769256592,True,,True,1,False,1000,True,1.0
./expes/v2_2020-11-09_3bh_250-prng-1,30_base_hphc_250,250,first-250,201,rng,num-start-601,601,17520,9.90583086013794,True,,True,1,False,1000,True,1.0
./expes/v2_2020-11-09_3bh_250-prng-1,30_base_hphc_250,250,first-250,81,rng,num-start-161,161,17520,3.1889021396636963,True,,True,1,False,1000,True,1.0
./expes/v2_2020-11-09_3bh_250-prng-1,30_base_hphc_250,250,first-250,41,rng,num-start-741,741,17520,11.67502737045288,True,,True,1,False,1000,True,1.0
./expes/v2_2020-11-09_3bh_250-prng-1,30_base_hphc_250,250,first-250,1,rng,num-start-731,731,17520,8.393541097640991,True,,True,1,False,1000,True,1.0
./expes/v2_2020-11-09_3bh_250-prng-1,30_base_hphc_250,250,first-250,31,rng,num-start-921,921,17520,17.21430015563965,True,,True,1,False,1000,True,1.0
./expes/v2_2020-11-09_3bh_250-prng-1,30_base_hphc_250,250,first-250,51,rng,num-start-81,81,17520,10.391268968582153,True,,True,1,False,1000,True,1.0
./expes/v2_2020-11-09_3bh_250-prng-1,30_base_hphc_250,250,first-250,11,rng,num-start-391,391,17520,6.225677013397217,True,,True,1,False,1000,True,1.0
./expes/v2_2020-11-09_3bh_250-prng-1,30_base_hphc_250,250,first-250,1,rng,num-start-41,41,17520,0.43955492973327637,True,,True,1,False,1000,True,1.0
./expes/v2_2020-11-09_3bh_250-prng-1,30_base_hphc_250,250,first-250,151,rng,num-start-131,131,17520,5.18518328666687,True,,True,1,False,1000,True,1.0
./expes/v2_2020-11-09_3bh_250-prng-1,30_base_hphc_250,250,first-250,11,rng,num-start-381,381,17520,5.185328483581543,True,,True,1,False,1000,True,1.0
./expes/v2_2020-11-09_3bh_250-prng-1,30_base_hphc_250,250,first-250,141,rng,num-start-481,481,17520,7.852601528167725,True,,True,1,False,1000,True,1.0
./expes/v2_2020-11-09_3bh_250-prng-1,30_base_hphc_250,250,first-250,21,rng,num-start-851,851,17520,13.455409049987793,True,,True,1,False,1000,True,1.0
./expes/v2_2020-11-09_3bh_250-prng-1,30_base_hphc_250,250,first-250,141,rng,num-start-881,881,17520,17.943578720092773,True,,True,1,False,1000,True,1.0
./expes/v2_2020-11-09_3bh_250-prng-1,30_base_hphc_250,250,first-250,181,rng,num-start-591,591,17520,10.527771711349487,True,,True,1,False,1000,True,1.0
./expes/v2_2020-11-09_3bh_250-prng-1,30_base_hphc_250,250,first-250,121,rng,num-start-341,341,17520,4.780496597290039,True,,True,1,False,1000,True,1.0
./expes/v2_2020-11-09_3bh_250-prng-1,30_base_hphc_250,250,first-250,51,rng,num-start-761,761,17520,12.449495553970337,True,,True,1,False,1000,True,1.0
./expes/v2_2020-11-09_3bh_250-prng-1,30_base_hphc_250,250,first-250,41,rng,num-start-741,741,17520,11.342951536178589,True,,True,1,False,1000,True,1.0
./expes/v2_2020-11-09_3bh_250-prng-1,30_base_hphc_250,250,first-250,61,rng,num-start-131,131,17520,2.483107566833496,True,,True,1,False,1000,True,1.0
./expes/v2_2020-11-09_3bh_250-prng-1,30_base_hphc_250,250,first-250,61,rng,num-start-771,771,17520,10.73052167892456,True,,True,1,False,1000,True,1.0
./expes/v2_2020-11-09_3bh_250-prng-1,30_base_hphc_250,250,first-250,41,rng,num-start-761,761,17520,11.2323637008667,True,,True,1,False,1000,True,1.0
./expes/v2_2020-11-09_3bh_250-prng-1,30_base_hphc_250,250,first-250,11,rng,num-start-941,941,17520,14.24525761604309,True,,True,1,False,1000,True,1.0
./expes/v2_2020-11-09_3bh_250-prng-1,30_base_hphc_250,250,first-250,191,rng,num-start-481,481,17520,7.417925119400024,True,,True,1,False,1000,True,1.0
./expes/v2_2020-11-09_3bh_250-prng-1,30_base_hphc_250,250,first-250,101,rng,num-start-381,381,17520,5.522210359573364,True,,True,1,False,1000,True,1.0
./expes/v2_2020-11-09_3bh_250-prng-1,30_base_hphc_250,250,first-250,101,rng,num-start-441,441,17520,7.960937976837158,True,,True,1,False,1000,True,1.0
./expes/v2_2020-11-09_3bh_250-prng-1,30_base_hphc_250,250,first-250,21,rng,num-start-441,441,17520,6.805790901184082,True,,True,1,False,1000,True,1.0
./expes/v2_2020-11-09_3bh_250-prng-1,30_base_hphc_250,250,first-250,101,rng,num-start-821,821,17520,13.702085018157959,True,,True,1,False,1000,True,1.0
./expes/v2_2020-11-09_3bh_250-prng-1,30_base_hphc_250,250,first-250,91,rng,num-start-511,511,17520,8.44557523727417,True,,True,1,False,1000,True,1.0
./expes/v2_2020-11-09_3bh_250-prng-1,30_base_hphc_250,250,first-250,41,rng,num-start-451,451,17520,7.67083740234375,True,,True,1,False,1000,True,1.0
./expes/v2_2020-11-09_3bh_250-prng-1,30_base_hphc_250,250,first-250,71,rng,num-start-181,181,17520,3.3723976612091064,True,,True,1,False,1000,True,1.0
./expes/v2_2020-11-09_3bh_250-prng-1,30_base_hphc_250,250,first-250,111,rng,num-start-911,911,17520,14.95383095741272,True,,True,1,False,1000,True,1.0
./expes/v2_2020-11-09_3bh_250-prng-1,30_base_hphc_250,250,first-250,211,rng,num-start-211,211,17520,3.4295547008514404,True,,True,1,False,1000,True,1.0
./expes/v2_2020-11-09_3bh_250-prng-1,30_base_hphc_250,250,first-250,101,rng,num-start-971,971,17520,14.018117189407349,True,,True,1,False,1000,True,1.0
./expes/v2_2020-11-09_3bh_250-prng-1,30_base_hphc_250,250,first-250,121,rng,num-start-81,81,17520,1001.0635583400726,False,,False,1,True,1000,True,0.0
./expes/v2_2020-11-09_3bh_250-prng-1,30_base_hphc_250,250,first-250,231,rng,num-start-571,571,17520,8.619961500167847,True,,True,1,False,1000,True,1.0
./expes/v2_2020-11-09_3bh_250-prng-1,30_base_hphc_250,250,first-250,161,rng,num-start-181,181,17520,3.41475248336792,True,,True,1,False,1000,True,1.0
./expes/v2_2020-11-09_3bh_250-prng-1,30_base_hphc_250,250,first-250,101,rng,num-start-601,601,17520,10.362618923187256,True,,True,1,False,1000,True,1.0
./expes/v2_2020-11-09_3bh_250-prng-1,30_base_hphc_250,250,first-250,51,rng,num-start-201,201,17520,3.564906597137451,True,,True,1,False,1000,True,1.0
./expes/v2_2020-11-09_3bh_250-prng-1,30_base_hphc_250,250,first-250,121,rng,num-start-221,221,17520,3.5754992961883545,True,,True,1,False,1000,True,1.0
./expes/v2_2020-11-09_3bh_250-prng-1,30_base_hphc_250,250,first-250,201,rng,num-start-691,691,17520,10.834946155548096,True,,True,1,False,1000,True,1.0
./expes/v2_2020-11-09_3bh_250-prng-1,30_base_hphc_250,250,first-250,11,rng,num-start-821,821,17520,11.13376498222351,True,,True,1,False,1000,True,1.0
./expes/v2_2020-11-09_3bh_250-prng-1,30_base_hphc_250,250,first-250,61,rng,num-start-151,151,17520,2.986722469329834,True,,True,1,False,1000,True,1.0
./expes/v2_2020-11-09_3bh_250-prng-1,30_base_hphc_250,250,first-250,81,rng,num-start-341,341,17520,5.393474340438843,True,,True,1,False,1000,True,1.0
./expes/v2_2020-11-09_3bh_250-prng-1,30_base_hphc_250,250,first-250,121,rng,num-start-511,511,17520,8.865970611572266,True,,True,1,False,1000,True,1.0
./expes/v2_2020-11-09_3bh_250-prng-1,30_base_hphc_250,250,first-250,191,rng,num-start-71,71,17520,20.408764123916626,True,,True,1,False,1000,True,1.0
./expes/v2_2020-11-09_3bh_250-prng-1,30_base_hphc_250,250,first-250,31,rng,num-start-631,631,17520,10.82839560508728,True,,True,1,False,1000,True,1.0
./expes/v2_2020-11-09_3bh_250-prng-1,30_base_hphc_250,250,first-250,71,rng,num-start-691,691,17520,11.46421504020691,True,,True,1,False,1000,True,1.0
./expes/v2_2020-11-09_3bh_250-prng-1,30_base_hphc_250,250,first-250,101,rng,num-start-171,171,17520,3.581024169921875,True,,True,1,False,1000,True,1.0
./expes/v2_2020-11-09_3bh_250-prng-1,30_base_hphc_250,250,first-250,221,rng,num-start-571,571,17520,8.87474274635315,True,,True,1,False,1000,True,1.0
./expes/v2_2020-11-09_3bh_250-prng-1,30_base_hphc_250,250,first-250,151,rng,num-start-631,631,17520,10.194705247879028,True,,True,1,False,1000,True,1.0
./expes/v2_2020-11-09_3bh_250-prng-1,30_base_hphc_250,250,first-250,211,rng,num-start-651,651,17520,9.513439655303955,True,,True,1,False,1000,True,1.0
./expes/v2_2020-11-09_3bh_250-prng-1,30_base_hphc_250,250,first-250,91,rng,num-start-71,71,17520,1001.016411781311,False,,False,0,True,1000,True,0.0
./expes/v2_2020-11-09_3bh_250-prng-1,30_base_hphc_250,250,first-250,211,rng,num-start-201,201,17520,3.3532612323760986,True,,True,1,False,1000,True,1.0
./expes/v2_2020-11-09_3bh_250-prng-1,30_base_hphc_250,250,first-250,141,rng,num-start-761,761,17520,13.715178489685059,True,,True,1,False,1000,True,1.0
./expes/v2_2020-11-09_3bh_250-prng-1,30_base_hphc_250,250,first-250,141,rng,num-start-581,581,17520,9.906146764755249,True,,True,1,False,1000,True,1.0
./expes/v2_2020-11-09_3bh_250-prng-1,30_base_hphc_250,250,first-250,51,rng,num-start-831,831,17520,12.102528095245361,True,,True,1,False,1000,True,1.0
./expes/v2_2020-11-09_3bh_250-prng-1,30_base_hphc_250,250,first-250,221,rng,num-start-211,211,17520,3.4304428100585938,True,,True,1,False,1000,True,1.0
./expes/v2_2020-11-09_3bh_250-prng-1,30_base_hphc_250,250,first-250,91,rng,num-start-41,41,17520,1000.6977741718292,False,,False,0,True,1000,True,0.0
./expes/v2_2020-11-09_3bh_250-prng-1,30_base_hphc_250,250,first-250,231,rng,num-start-921,921,17520,12.39938497543335,True,,True,1,False,1000,True,1.0
./expes/v2_2020-11-09_3bh_250-prng-1,30_base_hphc_250,250,first-250,161,rng,num-start-721,721,17520,12.206169128417969,True,,True,1,False,1000,True,1.0
./expes/v2_2020-11-09_3bh_250-prng-1,30_base_hphc_250,250,first-250,171,rng,num-start-441,441,17520,7.218533515930176,True,,True,1,False,1000,True,1.0
./expes/v2_2020-11-09_3bh_250-prng-1,30_base_hphc_250,250,first-250,121,rng,num-start-141,141,17520,2.375676393508911,True,,True,1,False,1000,True,1.0
./expes/v2_2020-11-09_3bh_250-prng-1,30_base_hphc_250,250,first-250,101,rng,num-start-631,631,17520,11.064208984375,True,,True,1,False,1000,True,1.0
./expes/v2_2020-11-09_3bh_250-prng-1,30_base_hphc_250,250,first-250,161,rng,num-start-541,541,17520,9.612359285354614,True,,True,1,False,1000,True,1.0
./expes/v2_2020-11-09_3bh_250-prng-1,30_base_hphc_250,250,first-250,111,rng,num-start-281,281,17520,5.217370510101318,True,,True,1,False,1000,True,1.0
./expes/v2_2020-11-09_3bh_250-prng-1,30_base_hphc_250,250,first-250,31,rng,num-start-891,891,17520,13.819836139678955,True,,True,1,False,1000,True,1.0
./expes/v2_2020-11-09_3bh_250-prng-1,30_base_hphc_250,250,first-250,171,rng,num-start-471,471,17520,7.738301753997803,True,,True,1,False,1000,True,1.0
./expes/v2_2020-11-09_3bh_250-prng-1,30_base_hphc_250,250,first-250,101,rng,num-start-501,501,17520,9.33022665977478,True,,True,1,False,1000,True,1.0
./expes/v2_2020-11-09_3bh_250-prng-1,30_base_hphc_250,250,first-250,231,rng,num-start-411,411,17520,6.092475891113281,True,,True,1,False,1000,True,1.0
./expes/v2_2020-11-09_3bh_250-prng-1,30_base_hphc_250,250,first-250,231,rng,num-start-211,211,17520,3.540663242340088,True,,True,1,False,1000,True,1.0
./expes/v2_2020-11-09_3bh_250-prng-1,30_base_hphc_250,250,first-250,1,rng,num-start-341,341,17520,3.911238670349121,True,,True,1,False,1000,True,1.0
./expes/v2_2020-11-09_3bh_250-prng-1,30_base_hphc_250,250,first-250,31,rng,num-start-161,161,17520,2.4469645023345947,True,,True,1,False,1000,True,1.0
./expes/v2_2020-11-09_3bh_250-prng-1,30_base_hphc_250,250,first-250,71,rng,num-start-991,991,17520,17.93794560432434,True,,True,1,False,1000,True,1.0
./expes/v2_2020-11-09_3bh_250-prng-1,30_base_hphc_250,250,first-250,61,rng,num-start-331,331,17520,5.036178112030029,True,,True,1,False,1000,True,1.0
./expes/v2_2020-11-09_3bh_250-prng-1,30_base_hphc_250,250,first-250,191,rng,num-start-81,81,17520,3.244473695755005,True,,True,1,False,1000,True,1.0
./expes/v2_2020-11-09_3bh_250-prng-1,30_base_hphc_250,250,first-250,61,rng,num-start-71,71,17520,23.49916434288025,True,,True,1,False,1000,True,1.0
./expes/v2_2020-11-09_3bh_250-prng-1,30_base_hphc_250,250,first-250,31,rng,num-start-931,931,17520,17.14158058166504,True,,True,1,False,1000,True,1.0
./expes/v2_2020-11-09_3bh_250-prng-1,30_base_hphc_250,250,first-250,31,rng,num-start-11,11,17520,1006.8689231872559,False,,False,0,True,1000,True,0.0
./expes/v2_2020-11-09_3bh_250-prng-1,30_base_hphc_250,250,first-250,21,rng,num-start-791,791,17520,10.828675270080566,True,,True,1,False,1000,True,1.0
./expes/v2_2020-11-09_3bh_250-prng-1,30_base_hphc_250,250,first-250,121,rng,num-start-791,791,17520,12.92662525177002,True,,True,1,False,1000,True,1.0
./expes/v2_2020-11-09_3bh_250-prng-1,30_base_hphc_250,250,first-250,71,rng,num-start-481,481,17520,7.672250032424927,True,,True,1,False,1000,True,1.0
./expes/v2_2020-11-09_3bh_250-prng-1,30_base_hphc_250,250,first-250,51,rng,num-start-31,31,17520,1000.5273358821869,False,,False,0,True,1000,True,0.0
./expes/v2_2020-11-09_3bh_250-prng-1,30_base_hphc_250,250,first-250,61,rng,num-start-181,181,17520,3.5978455543518066,True,,True,1,False,1000,True,1.0
./expes/v2_2020-11-09_3bh_250-prng-1,30_base_hphc_250,250,first-250,141,rng,num-start-301,301,17520,5.176095485687256,True,,True,1,False,1000,True,1.0
./expes/v2_2020-11-09_3bh_250-prng-1,30_base_hphc_250,250,first-250,181,rng,num-start-521,521,17520,8.694588422775269,True,,True,1,False,1000,True,1.0
./expes/v2_2020-11-09_3bh_250-prng-1,30_base_hphc_250,250,first-250,181,rng,num-start-661,661,17520,11.008196353912354,True,,True,1,False,1000,True,1.0
./expes/v2_2020-11-09_3bh_250-prng-1,30_base_hphc_250,250,first-250,111,rng,num-start-891,891,17520,14.666643619537354,True,,True,1,False,1000,True,1.0
./expes/v2_2020-11-09_3bh_250-prng-1,30_base_hphc_250,250,first-250,121,rng,num-start-21,21,17520,1000.3083000183105,False,,False,0,True,1000,True,0.0
./expes/v2_2020-11-09_3bh_250-prng-1,30_base_hphc_250,250,first-250,211,rng,num-start-391,391,17520,5.945029258728027,True,,True,1,False,1000,True,1.0
./expes/v2_2020-11-09_3bh_250-prng-1,30_base_hphc_250,250,first-250,211,rng,num-start-241,241,17520,3.741187810897827,True,,True,1,False,1000,True,1.0
./expes/v2_2020-11-09_3bh_250-prng-1,30_base_hphc_250,250,first-250,171,rng,num-start-571,571,17520,10.795839309692383,True,,True,1,False,1000,True,1.0
./expes/v2_2020-11-09_3bh_250-prng-1,30_base_hphc_250,250,first-250,1,rng,num-start-631,631,17520,7.400743007659912,True,,True,1,False,1000,True,1.0
./expes/v2_2020-11-09_3bh_250-prng-1,30_base_hphc_250,250,first-250,181,rng,num-start-471,471,17520,7.911392688751221,True,,True,1,False,1000,True,1.0
./expes/v2_2020-11-09_3bh_250-prng-1,30_base_hphc_250,250,first-250,141,rng,num-start-861,861,17520,12.88662576675415,True,,True,1,False,1000,True,1.0
./expes/v2_2020-11-09_3bh_250-prng-1,30_base_hphc_250,250,first-250,141,rng,num-start-411,411,17520,7.9587578773498535,True,,True,1,False,1000,True,1.0
./expes/v2_2020-11-09_3bh_250-prng-1,30_base_hphc_250,250,first-250,201,rng,num-start-781,781,17520,13.586131811141968,True,,True,1,False,1000,True,1.0
./expes/v2_2020-11-09_3bh_250-prng-1,30_base_hphc_250,250,first-250,81,rng,num-start-761,761,17520,11.827088117599487,True,,True,1,False,1000,True,1.0
./expes/v2_2020-11-09_3bh_250-prng-1,30_base_hphc_250,250,first-250,31,rng,num-start-821,821,17520,13.060774087905884,True,,True,1,False,1000,True,1.0
./expes/v2_2020-11-09_3bh_250-prng-1,30_base_hphc_250,250,first-250,91,rng,num-start-771,771,17520,15.953827857971191,True,,True,1,False,1000,True,1.0
./expes/v2_2020-11-09_3bh_250-prng-1,30_base_hphc_250,250,first-250,41,rng,num-start-851,851,17520,15.324432373046875,True,,True,1,False,1000,True,1.0
./expes/v2_2020-11-09_3bh_250-prng-1,30_base_hphc_250,250,first-250,91,rng,num-start-871,871,17520,16.177749633789062,True,,True,1,False,1000,True,1.0
./expes/v2_2020-11-09_3bh_250-prng-1,30_base_hphc_250,250,first-250,51,rng,num-start-201,201,17520,4.010545015335083,True,,True,1,False,1000,True,1.0
./expes/v2_2020-11-09_3bh_250-prng-1,30_base_hphc_250,250,first-250,41,rng,num-start-891,891,17520,13.467355012893677,True,,True,1,False,1000,True,1.0
./expes/v2_2020-11-09_3bh_250-prng-1,30_base_hphc_250,250,first-250,241,rng,num-start-301,301,17520,3.9633140563964844,True,,True,1,False,1000,True,1.0
./expes/v2_2020-11-09_3bh_250-prng-1,30_base_hphc_250,250,first-250,121,rng,num-start-191,191,17520,3.31304669380188,True,,True,1,False,1000,True,1.0
./expes/v2_2020-11-09_3bh_250-prng-1,30_base_hphc_250,250,first-250,201,rng,num-start-731,731,17520,11.754287719726562,True,,True,1,False,1000,True,1.0
./expes/v2_2020-11-09_3bh_250-prng-1,30_base_hphc_250,250,first-250,1,rng,num-start-731,731,17520,8.699451684951782,True,,True,1,False,1000,True,1.0
./expes/v2_2020-11-09_3bh_250-prng-1,30_base_hphc_250,250,first-250,71,rng,num-start-251,251,17520,4.782245874404907,True,,True,1,False,1000,True,1.0
./expes/v2_2020-11-09_3bh_250-prng-1,30_base_hphc_250,250,first-250,51,rng,num-start-731,731,17520,11.582710027694702,True,,True,1,False,1000,True,1.0
./expes/v2_2020-11-09_3bh_250-prng-1,30_base_hphc_250,250,first-250,31,rng,num-start-651,651,17520,13.899317026138306,True,,True,1,False,1000,True,1.0
./expes/v2_2020-11-09_3bh_250-prng-1,30_base_hphc_250,250,first-250,121,rng,num-start-311,311,17520,5.187607049942017,True,,True,1,False,1000,True,1.0
./expes/v2_2020-11-09_3bh_250-prng-1,30_base_hphc_250,250,first-250,181,rng,num-start-671,671,17520,11.031454801559448,True,,True,1,False,1000,True,1.0
./expes/v2_2020-11-09_3bh_250-prng-1,30_base_hphc_250,250,first-250,31,rng,num-start-991,991,17520,14.96889066696167,True,,True,1,False,1000,True,1.0
./expes/v2_2020-11-09_3bh_250-prng-1,30_base_hphc_250,250,first-250,71,rng,num-start-261,261,17520,4.770393133163452,True,,True,1,False,1000,True,1.0
./expes/v2_2020-11-09_3bh_250-prng-1,30_base_hphc_250,250,first-250,141,rng,num-start-281,281,17520,5.384161949157715,True,,True,1,False,1000,True,1.0
./expes/v2_2020-11-09_3bh_250-prng-1,30_base_hphc_250,250,first-250,191,rng,num-start-851,851,17520,15.611615180969238,True,,True,1,False,1000,True,1.0
./expes/v2_2020-11-09_3bh_250-prng-1,30_base_hphc_250,250,first-250,191,rng,num-start-451,451,17520,7.470733642578125,True,,True,1,False,1000,True,1.0
./expes/v2_2020-11-09_3bh_250-prng-1,30_base_hphc_250,250,first-250,11,rng,num-start-841,841,17520,13.045161247253418,True,,True,1,False,1000,True,1.0
./expes/v2_2020-11-09_3bh_250-prng-1,30_base_hphc_250,250,first-250,141,rng,num-start-551,551,17520,10.126861572265625,True,,True,1,False,1000,True,1.0
./expes/v2_2020-11-09_3bh_250-prng-1,30_base_hphc_250,250,first-250,231,rng,num-start-721,721,17520,10.681922435760498,True,,True,1,False,1000,True,1.0
./expes/v2_2020-11-09_3bh_250-prng-1,30_base_hphc_250,250,first-250,151,rng,num-start-101,101,17520,3.8627779483795166,True,,True,1,False,1000,True,1.0
./expes/v2_2020-11-09_3bh_250-prng-1,30_base_hphc_250,250,first-250,71,rng,num-start-11,11,17520,1000.195648431778,False,,False,0,True,1000,True,0.0
