expe,clients,clients_size,clients_subset,agg_size,method,days,days_size,days_total,time,valid,valid_sum,success,nsols,wall_hit,wall_time,pooled,valid_sums
./expes/v2_2020-11-09_3bh_250-prng-1,30_base_hphc_250,250,first-250,181,rng,num-start-281,281,17520,101.47262692451477,True,,True,1,False,1000,True,1.0
./expes/v2_2020-11-09_3bh_250-prng-1,30_base_hphc_250,250,first-250,41,rng,num-start-501,501,17520,53.4836950302124,True,,True,1,False,1000,True,1.0
./expes/v2_2020-11-09_3bh_250-prng-1,30_base_hphc_250,250,first-250,191,rng,num-start-801,801,17520,31.8193576335907,True,,True,1,False,1000,True,1.0
./expes/v2_2020-11-09_3bh_250-prng-1,30_base_hphc_250,250,first-250,191,rng,num-start-171,171,17520,6.349244117736816,True,,True,1,False,1000,True,1.0
./expes/v2_2020-11-09_3bh_250-prng-1,30_base_hphc_250,250,first-250,21,rng,num-start-371,371,17520,13.525891780853271,True,,True,1,False,1000,True,1.0
./expes/v2_2020-11-09_3bh_250-prng-1,30_base_hphc_250,250,first-250,71,rng,num-start-11,11,17520,1000.5499560832977,False,,False,0,True,1000,True,0.0
./expes/v2_2020-11-09_3bh_250-prng-1,30_base_hphc_250,250,first-250,221,rng,num-start-711,711,17520,27.526052236557007,True,,True,1,False,1000,True,1.0
./expes/v2_2020-11-09_3bh_250-prng-1,30_base_hphc_250,250,first-250,131,rng,num-start-91,91,17520,10.37062954902649,True,,True,1,False,1000,True,1.0
./expes/v2_2020-11-09_3bh_250-prng-1,30_base_hphc_250,250,first-250,211,rng,num-start-991,991,17520,34.84530758857727,True,,True,1,False,1000,True,1.0
./expes/v2_2020-11-09_3bh_250-prng-1,30_base_hphc_250,250,first-250,111,rng,num-start-611,611,17520,23.903625965118408,True,,True,1,False,1000,True,1.0
./expes/v2_2020-11-09_3bh_250-prng-1,30_base_hphc_250,250,first-250,221,rng,num-start-711,711,17520,26.257763147354126,True,,True,1,False,1000,True,1.0
./expes/v2_2020-11-09_3bh_250-prng-1,30_base_hphc_250,250,first-250,231,rng,num-start-151,151,17520,5.315459728240967,True,,True,1,False,1000,True,1.0
./expes/v2_2020-11-09_3bh_250-prng-1,30_base_hphc_250,250,first-250,41,rng,num-start-681,681,17520,24.437118768692017,True,,True,1,False,1000,True,1.0
./expes/v2_2020-11-09_3bh_250-prng-1,30_base_hphc_250,250,first-250,161,rng,num-start-831,831,17520,31.3527991771698,True,,True,1,False,1000,True,1.0
./expes/v2_2020-11-09_3bh_250-prng-1,30_base_hphc_250,250,first-250,161,rng,num-start-51,51,17520,1001.7164137363434,False,,False,0,True,1000,True,0.0
./expes/v2_2020-11-09_3bh_250-prng-1,30_base_hphc_250,250,first-250,171,rng,num-start-361,361,17520,95.66070008277893,True,,True,1,False,1000,True,1.0
./expes/v2_2020-11-09_3bh_250-prng-1,30_base_hphc_250,250,first-250,211,rng,num-start-291,291,17520,120.4751443862915,True,,True,1,False,1000,True,1.0
./expes/v2_2020-11-09_3bh_250-prng-1,30_base_hphc_250,250,first-250,161,rng,num-start-611,611,17520,107.81534266471863,True,,True,1,False,1000,True,1.0
./expes/v2_2020-11-09_3bh_250-prng-1,30_base_hphc_250,250,first-250,51,rng,num-start-741,741,17520,148.3092818260193,True,,True,1,False,1000,True,1.0
./expes/v2_2020-11-09_3bh_250-prng-1,30_base_hphc_250,250,first-250,11,rng,num-start-771,771,17520,265.7063717842102,True,,True,1,False,1000,True,1.0
./expes/v2_2020-11-09_3bh_250-prng-1,30_base_hphc_250,250,first-250,211,rng,num-start-821,821,17520,245.30534100532532,True,,True,1,False,1000,True,1.0
./expes/v2_2020-11-09_3bh_250-prng-1,30_base_hphc_250,250,first-250,61,rng,num-start-381,381,17520,103.88315892219543,True,,True,1,False,1000,True,1.0
./expes/v2_2020-11-09_3bh_250-prng-1,30_base_hphc_250,250,first-250,231,rng,num-start-171,171,17520,85.31074953079224,True,,True,1,False,1000,True,1.0
./expes/v2_2020-11-09_3bh_250-prng-1,30_base_hphc_250,250,first-250,91,rng,num-start-41,41,17520,1152.015644311905,False,,False,0,True,1000,True,0.0
./expes/v2_2020-11-09_3bh_250-prng-1,30_base_hphc_250,250,first-250,231,rng,num-start-141,141,17520,4.838292837142944,True,,True,1,False,1000,True,1.0
./expes/v2_2020-11-09_3bh_250-prng-1,30_base_hphc_250,250,first-250,71,rng,num-start-941,941,17520,37.09064221382141,True,,True,1,False,1000,True,1.0
./expes/v2_2020-11-09_3bh_250-prng-1,30_base_hphc_250,250,first-250,141,rng,num-start-61,61,17520,1001.8891544342041,False,,False,0,True,1000,True,0.0
./expes/v2_2020-11-09_3bh_250-prng-1,30_base_hphc_250,250,first-250,241,rng,num-start-611,611,17520,20.56333589553833,True,,True,1,False,1000,True,1.0
./expes/v2_2020-11-09_3bh_250-prng-1,30_base_hphc_250,250,first-250,51,rng,num-start-151,151,17520,5.973793029785156,True,,True,1,False,1000,True,1.0
./expes/v2_2020-11-09_3bh_250-prng-1,30_base_hphc_250,250,first-250,151,rng,num-start-931,931,17520,35.09931230545044,True,,True,1,False,1000,True,1.0
./expes/v2_2020-11-09_3bh_250-prng-1,30_base_hphc_250,250,first-250,181,rng,num-start-351,351,17520,13.098305702209473,True,,True,1,False,1000,True,1.0
./expes/v2_2020-11-09_3bh_250-prng-1,30_base_hphc_250,250,first-250,241,rng,num-start-641,641,17520,21.540339469909668,True,,True,1,False,1000,True,1.0
./expes/v2_2020-11-09_3bh_250-prng-1,30_base_hphc_250,250,first-250,171,rng,num-start-721,721,17520,27.616913080215454,True,,True,1,False,1000,True,1.0
./expes/v2_2020-11-09_3bh_250-prng-1,30_base_hphc_250,250,first-250,1,rng,num-start-971,971,17520,31.028944492340088,True,,True,1,False,1000,True,1.0
./expes/v2_2020-11-09_3bh_250-prng-1,30_base_hphc_250,250,first-250,31,rng,num-start-691,691,17520,25.851649522781372,True,,True,1,False,1000,True,1.0
./expes/v2_2020-11-09_3bh_250-prng-1,30_base_hphc_250,250,first-250,211,rng,num-start-861,861,17520,30.38867497444153,True,,True,1,False,1000,True,1.0
./expes/v2_2020-11-09_3bh_250-prng-1,30_base_hphc_250,250,first-250,11,rng,num-start-331,331,17520,11.799505472183228,True,,True,1,False,1000,True,1.0
./expes/v2_2020-11-09_3bh_250-prng-1,30_base_hphc_250,250,first-250,41,rng,num-start-1,1,17520,0.06120133399963379,False,,False,2,False,1000,True,1.0
./expes/v2_2020-11-09_3bh_250-prng-1,30_base_hphc_250,250,first-250,1,rng,num-start-571,571,17520,18.276575803756714,True,,True,1,False,1000,True,1.0
./expes/v2_2020-11-09_3bh_250-prng-1,30_base_hphc_250,250,first-250,51,rng,num-start-241,241,17520,9.100851058959961,True,,True,1,False,1000,True,1.0
./expes/v2_2020-11-09_3bh_250-prng-1,30_base_hphc_250,250,first-250,131,rng,num-start-181,181,17520,7.31415867805481,True,,True,1,False,1000,True,1.0
./expes/v2_2020-11-09_3bh_250-prng-1,30_base_hphc_250,250,first-250,11,rng,num-start-701,701,17520,24.784241676330566,True,,True,1,False,1000,True,1.0
./expes/v2_2020-11-09_3bh_250-prng-1,30_base_hphc_250,250,first-250,71,rng,num-start-731,731,17520,31.29037880897522,True,,True,1,False,1000,True,1.0
./expes/v2_2020-11-09_3bh_250-prng-1,30_base_hphc_250,250,first-250,1,rng,num-start-921,921,17520,29.668599367141724,True,,True,1,False,1000,True,1.0
./expes/v2_2020-11-09_3bh_250-prng-1,30_base_hphc_250,250,first-250,161,rng,num-start-601,601,17520,24.033716678619385,True,,True,1,False,1000,True,1.0
./expes/v2_2020-11-09_3bh_250-prng-1,30_base_hphc_250,250,first-250,31,rng,num-start-301,301,17520,11.334953546524048,True,,True,1,False,1000,True,1.0
./expes/v2_2020-11-09_3bh_250-prng-1,30_base_hphc_250,250,first-250,131,rng,num-start-661,661,17520,25.41158127784729,True,,True,1,False,1000,True,1.0
./expes/v2_2020-11-09_3bh_250-prng-1,30_base_hphc_250,250,first-250,41,rng,num-start-291,291,17520,11.039022445678711,True,,True,1,False,1000,True,1.0
./expes/v2_2020-11-09_3bh_250-prng-1,30_base_hphc_250,250,first-250,31,rng,num-start-831,831,17520,32.88319802284241,True,,True,1,False,1000,True,1.0
./expes/v2_2020-11-09_3bh_250-prng-1,30_base_hphc_250,250,first-250,221,rng,num-start-971,971,17520,39.05166554450989,True,,True,1,False,1000,True,1.0
./expes/v2_2020-11-09_3bh_250-prng-1,30_base_hphc_250,250,first-250,41,rng,num-start-481,481,17520,17.769498586654663,True,,True,1,False,1000,True,1.0
./expes/v2_2020-11-09_3bh_250-prng-1,30_base_hphc_250,250,first-250,71,rng,num-start-961,961,17520,39.30884647369385,True,,True,1,False,1000,True,1.0
./expes/v2_2020-11-09_3bh_250-prng-1,30_base_hphc_250,250,first-250,191,rng,num-start-791,791,17520,30.49922204017639,True,,True,1,False,1000,True,1.0
./expes/v2_2020-11-09_3bh_250-prng-1,30_base_hphc_250,250,first-250,91,rng,num-start-801,801,17520,32.71635985374451,True,,True,1,False,1000,True,1.0
./expes/v2_2020-11-09_3bh_250-prng-1,30_base_hphc_250,250,first-250,81,rng,num-start-791,791,17520,30.83620548248291,True,,True,1,False,1000,True,1.0
./expes/v2_2020-11-09_3bh_250-prng-1,30_base_hphc_250,250,first-250,241,rng,num-start-291,291,17520,10.36537766456604,True,,True,1,False,1000,True,1.0
./expes/v2_2020-11-09_3bh_250-prng-1,30_base_hphc_250,250,first-250,121,rng,num-start-101,101,17520,41.32353210449219,True,,True,1,False,1000,True,1.0
./expes/v2_2020-11-09_3bh_250-prng-1,30_base_hphc_250,250,first-250,201,rng,num-start-901,901,17520,35.131816387176514,True,,True,1,False,1000,True,1.0
./expes/v2_2020-11-09_3bh_250-prng-1,30_base_hphc_250,250,first-250,81,rng,num-start-131,131,17520,5.166164875030518,True,,True,1,False,1000,True,1.0
./expes/v2_2020-11-09_3bh_250-prng-1,30_base_hphc_250,250,first-250,1,rng,num-start-651,651,17520,20.78990149497986,True,,True,1,False,1000,True,1.0
./expes/v2_2020-11-09_3bh_250-prng-1,30_base_hphc_250,250,first-250,131,rng,num-start-821,821,17520,32.71970558166504,True,,True,1,False,1000,True,1.0
./expes/v2_2020-11-09_3bh_250-prng-1,30_base_hphc_250,250,first-250,111,rng,num-start-961,961,17520,41.90367770195007,True,,True,1,False,1000,True,1.0
./expes/v2_2020-11-09_3bh_250-prng-1,30_base_hphc_250,250,first-250,231,rng,num-start-21,21,17520,1000.6990292072296,False,,False,0,True,1000,True,0.0
./expes/v2_2020-11-09_3bh_250-prng-1,30_base_hphc_250,250,first-250,101,rng,num-start-251,251,17520,9.587848901748657,True,,True,1,False,1000,True,1.0
./expes/v2_2020-11-09_3bh_250-prng-1,30_base_hphc_250,250,first-250,21,rng,num-start-181,181,17520,6.537991523742676,True,,True,1,False,1000,True,1.0
./expes/v2_2020-11-09_3bh_250-prng-1,30_base_hphc_250,250,first-250,181,rng,num-start-271,271,17520,10.439918279647827,True,,True,1,False,1000,True,1.0
./expes/v2_2020-11-09_3bh_250-prng-1,30_base_hphc_250,250,first-250,61,rng,num-start-1,1,17520,0.06556963920593262,False,,False,2,False,1000,True,1.0
./expes/v2_2020-11-09_3bh_250-prng-1,30_base_hphc_250,250,first-250,121,rng,num-start-491,491,17520,18.035764455795288,True,,True,1,False,1000,True,1.0
./expes/v2_2020-11-09_3bh_250-prng-1,30_base_hphc_250,250,first-250,1,rng,num-start-941,941,17520,29.752814292907715,True,,True,1,False,1000,True,1.0
./expes/v2_2020-11-09_3bh_250-prng-1,30_base_hphc_250,250,first-250,1,rng,num-start-571,571,17520,18.02440881729126,True,,True,1,False,1000,True,1.0
./expes/v2_2020-11-09_3bh_250-prng-1,30_base_hphc_250,250,first-250,191,rng,num-start-961,961,17520,35.001190423965454,True,,True,1,False,1000,True,1.0
./expes/v2_2020-11-09_3bh_250-prng-1,30_base_hphc_250,250,first-250,31,rng,num-start-981,981,17520,34.72303009033203,True,,True,1,False,1000,True,1.0
./expes/v2_2020-11-09_3bh_250-prng-1,30_base_hphc_250,250,first-250,71,rng,num-start-451,451,17520,16.384150505065918,True,,True,1,False,1000,True,1.0
./expes/v2_2020-11-09_3bh_250-prng-1,30_base_hphc_250,250,first-250,71,rng,num-start-941,941,17520,39.439539670944214,True,,True,1,False,1000,True,1.0
./expes/v2_2020-11-09_3bh_250-prng-1,30_base_hphc_250,250,first-250,111,rng,num-start-741,741,17520,29.88882851600647,True,,True,1,False,1000,True,1.0
./expes/v2_2020-11-09_3bh_250-prng-1,30_base_hphc_250,250,first-250,161,rng,num-start-801,801,17520,33.43132400512695,True,,True,1,False,1000,True,1.0
./expes/v2_2020-11-09_3bh_250-prng-1,30_base_hphc_250,250,first-250,201,rng,num-start-241,241,17520,9.548470497131348,True,,True,1,False,1000,True,1.0
./expes/v2_2020-11-09_3bh_250-prng-1,30_base_hphc_250,250,first-250,121,rng,num-start-81,81,17520,1002.4516007900238,False,,False,1,True,1000,True,0.0
./expes/v2_2020-11-09_3bh_250-prng-1,30_base_hphc_250,250,first-250,151,rng,num-start-861,861,17520,34.251938581466675,True,,True,1,False,1000,True,1.0
./expes/v2_2020-11-09_3bh_250-prng-1,30_base_hphc_250,250,first-250,121,rng,num-start-431,431,17520,16.071961402893066,True,,True,1,False,1000,True,1.0
./expes/v2_2020-11-09_3bh_250-prng-1,30_base_hphc_250,250,first-250,191,rng,num-start-671,671,17520,26.121073961257935,True,,True,1,False,1000,True,1.0
./expes/v2_2020-11-09_3bh_250-prng-1,30_base_hphc_250,250,first-250,171,rng,num-start-841,841,17520,31.904104232788086,True,,True,1,False,1000,True,1.0
./expes/v2_2020-11-09_3bh_250-prng-1,30_base_hphc_250,250,first-250,201,rng,num-start-611,611,17520,21.44421124458313,True,,True,1,False,1000,True,1.0
./expes/v2_2020-11-09_3bh_250-prng-1,30_base_hphc_250,250,first-250,71,rng,num-start-401,401,17520,14.796603441238403,True,,True,1,False,1000,True,1.0
./expes/v2_2020-11-09_3bh_250-prng-1,30_base_hphc_250,250,first-250,181,rng,num-start-611,611,17520,23.050047159194946,True,,True,1,False,1000,True,1.0
./expes/v2_2020-11-09_3bh_250-prng-1,30_base_hphc_250,250,first-250,221,rng,num-start-361,361,17520,12.212188482284546,True,,True,1,False,1000,True,1.0
./expes/v2_2020-11-09_3bh_250-prng-1,30_base_hphc_250,250,first-250,161,rng,num-start-201,201,17520,7.369232177734375,True,,True,1,False,1000,True,1.0
./expes/v2_2020-11-09_3bh_250-prng-1,30_base_hphc_250,250,first-250,141,rng,num-start-181,181,17520,7.566448926925659,True,,True,1,False,1000,True,1.0
./expes/v2_2020-11-09_3bh_250-prng-1,30_base_hphc_250,250,first-250,191,rng,num-start-31,31,17520,1000.9360110759735,False,,False,0,True,1000,True,0.0
./expes/v2_2020-11-09_3bh_250-prng-1,30_base_hphc_250,250,first-250,11,rng,num-start-11,11,17520,440.41419649124146,True,,True,1,False,1000,True,1.0
./expes/v2_2020-11-09_3bh_250-prng-1,30_base_hphc_250,250,first-250,111,rng,num-start-911,911,17520,34.93961048126221,True,,True,1,False,1000,True,1.0
./expes/v2_2020-11-09_3bh_250-prng-1,30_base_hphc_250,250,first-250,91,rng,num-start-941,941,17520,35.883567810058594,True,,True,1,False,1000,True,1.0
./expes/v2_2020-11-09_3bh_250-prng-1,30_base_hphc_250,250,first-250,141,rng,num-start-891,891,17520,34.076956272125244,True,,True,1,False,1000,True,1.0
./expes/v2_2020-11-09_3bh_250-prng-1,30_base_hphc_250,250,first-250,141,rng,num-start-541,541,17520,21.902204036712646,True,,True,1,False,1000,True,1.0
./expes/v2_2020-11-09_3bh_250-prng-1,30_base_hphc_250,250,first-250,191,rng,num-start-861,861,17520,33.02934980392456,True,,True,1,False,1000,True,1.0
./expes/v2_2020-11-09_3bh_250-prng-1,30_base_hphc_250,250,first-250,211,rng,num-start-21,21,17520,1000.6760268211365,False,,False,0,True,1000,True,0.0
./expes/v2_2020-11-09_3bh_250-prng-1,30_base_hphc_250,250,first-250,91,rng,num-start-141,141,17520,5.592637777328491,True,,True,1,False,1000,True,1.0
./expes/v2_2020-11-09_3bh_250-prng-1,30_base_hphc_250,250,first-250,81,rng,num-start-771,771,17520,28.46406650543213,True,,True,1,False,1000,True,1.0
./expes/v2_2020-11-09_3bh_250-prng-1,30_base_hphc_250,250,first-250,101,rng,num-start-701,701,17520,28.64112901687622,True,,True,1,False,1000,True,1.0
./expes/v2_2020-11-09_3bh_250-prng-1,30_base_hphc_250,250,first-250,181,rng,num-start-771,771,17520,27.51642632484436,True,,True,1,False,1000,True,1.0
./expes/v2_2020-11-09_3bh_250-prng-1,30_base_hphc_250,250,first-250,231,rng,num-start-451,451,17520,16.033708810806274,True,,True,1,False,1000,True,1.0
./expes/v2_2020-11-09_3bh_250-prng-1,30_base_hphc_250,250,first-250,181,rng,num-start-321,321,17520,12.511651992797852,True,,True,1,False,1000,True,1.0
./expes/v2_2020-11-09_3bh_250-prng-1,30_base_hphc_250,250,first-250,11,rng,num-start-331,331,17520,11.246387720108032,True,,True,1,False,1000,True,1.0
./expes/v2_2020-11-09_3bh_250-prng-1,30_base_hphc_250,250,first-250,61,rng,num-start-971,971,17520,37.19855833053589,True,,True,1,False,1000,True,1.0
./expes/v2_2020-11-09_3bh_250-prng-1,30_base_hphc_250,250,first-250,171,rng,num-start-351,351,17520,13.015978574752808,True,,True,1,False,1000,True,1.0
./expes/v2_2020-11-09_3bh_250-prng-1,30_base_hphc_250,250,first-250,201,rng,num-start-671,671,17520,24.681113719940186,True,,True,1,False,1000,True,1.0
./expes/v2_2020-11-09_3bh_250-prng-1,30_base_hphc_250,250,first-250,71,rng,num-start-221,221,17520,8.737350225448608,True,,True,1,False,1000,True,1.0
./expes/v2_2020-11-09_3bh_250-prng-1,30_base_hphc_250,250,first-250,191,rng,num-start-581,581,17520,22.711599588394165,True,,True,1,False,1000,True,1.0
./expes/v2_2020-11-09_3bh_250-prng-1,30_base_hphc_250,250,first-250,121,rng,num-start-661,661,17520,26.07987141609192,True,,True,1,False,1000,True,1.0
./expes/v2_2020-11-09_3bh_250-prng-1,30_base_hphc_250,250,first-250,171,rng,num-start-551,551,17520,21.683695793151855,True,,True,1,False,1000,True,1.0
./expes/v2_2020-11-09_3bh_250-prng-1,30_base_hphc_250,250,first-250,21,rng,num-start-111,111,17520,4.042782306671143,True,,True,1,False,1000,True,1.0
./expes/v2_2020-11-09_3bh_250-prng-1,30_base_hphc_250,250,first-250,41,rng,num-start-531,531,17520,20.3123881816864,True,,True,1,False,1000,True,1.0
./expes/v2_2020-11-09_3bh_250-prng-1,30_base_hphc_250,250,first-250,221,rng,num-start-1,1,17520,0.05641055107116699,False,,False,2,False,1000,True,1.0
./expes/v2_2020-11-09_3bh_250-prng-1,30_base_hphc_250,250,first-250,151,rng,num-start-301,301,17520,11.860417366027832,True,,True,1,False,1000,True,1.0
./expes/v2_2020-11-09_3bh_250-prng-1,30_base_hphc_250,250,first-250,211,rng,num-start-721,721,17520,26.084689378738403,True,,True,1,False,1000,True,1.0
./expes/v2_2020-11-09_3bh_250-prng-1,30_base_hphc_250,250,first-250,241,rng,num-start-551,551,17520,18.8334801197052,True,,True,1,False,1000,True,1.0
./expes/v2_2020-11-09_3bh_250-prng-1,30_base_hphc_250,250,first-250,211,rng,num-start-171,171,17520,6.547920227050781,True,,True,1,False,1000,True,1.0
./expes/v2_2020-11-09_3bh_250-prng-1,30_base_hphc_250,250,first-250,201,rng,num-start-311,311,17520,11.08873200416565,True,,True,1,False,1000,True,1.0
./expes/v2_2020-11-09_3bh_250-prng-1,30_base_hphc_250,250,first-250,201,rng,num-start-231,231,17520,8.19801640510559,True,,True,1,False,1000,True,1.0
./expes/v2_2020-11-09_3bh_250-prng-1,30_base_hphc_250,250,first-250,51,rng,num-start-691,691,17520,26.267436504364014,True,,True,1,False,1000,True,1.0
./expes/v2_2020-11-09_3bh_250-prng-1,30_base_hphc_250,250,first-250,71,rng,num-start-991,991,17520,36.876503467559814,True,,True,1,False,1000,True,1.0
./expes/v2_2020-11-09_3bh_250-prng-1,30_base_hphc_250,250,first-250,241,rng,num-start-681,681,17520,22.581223964691162,True,,True,1,False,1000,True,1.0
./expes/v2_2020-11-09_3bh_250-prng-1,30_base_hphc_250,250,first-250,151,rng,num-start-701,701,17520,26.895191192626953,True,,True,1,False,1000,True,1.0
./expes/v2_2020-11-09_3bh_250-prng-1,30_base_hphc_250,250,first-250,161,rng,num-start-361,361,17520,13.96071457862854,True,,True,1,False,1000,True,1.0
./expes/v2_2020-11-09_3bh_250-prng-1,30_base_hphc_250,250,first-250,201,rng,num-start-61,61,17520,38.364548683166504,True,,True,1,False,1000,True,1.0
./expes/v2_2020-11-09_3bh_250-prng-1,30_base_hphc_250,250,first-250,101,rng,num-start-591,591,17520,23.696292638778687,True,,True,1,False,1000,True,1.0
./expes/v2_2020-11-09_3bh_250-prng-1,30_base_hphc_250,250,first-250,1,rng,num-start-491,491,17520,15.381970405578613,True,,True,1,False,1000,True,1.0
./expes/v2_2020-11-09_3bh_250-prng-1,30_base_hphc_250,250,first-250,51,rng,num-start-291,291,17520,10.85460376739502,True,,True,1,False,1000,True,1.0
./expes/v2_2020-11-09_3bh_250-prng-1,30_base_hphc_250,250,first-250,221,rng,num-start-811,811,17520,30.154371738433838,True,,True,1,False,1000,True,1.0
./expes/v2_2020-11-09_3bh_250-prng-1,30_base_hphc_250,250,first-250,1,rng,num-start-91,91,17520,2.7291204929351807,True,,True,1,False,1000,True,1.0
./expes/v2_2020-11-09_3bh_250-prng-1,30_base_hphc_250,250,first-250,1,rng,num-start-941,941,17520,29.894139766693115,True,,True,1,False,1000,True,1.0
./expes/v2_2020-11-09_3bh_250-prng-1,30_base_hphc_250,250,first-250,171,rng,num-start-521,521,17520,19.029393196105957,True,,True,1,False,1000,True,1.0
./expes/v2_2020-11-09_3bh_250-prng-1,30_base_hphc_250,250,first-250,71,rng,num-start-761,761,17520,28.68582010269165,True,,True,1,False,1000,True,1.0
./expes/v2_2020-11-09_3bh_250-prng-1,30_base_hphc_250,250,first-250,81,rng,num-start-701,701,17520,27.219224214553833,True,,True,1,False,1000,True,1.0
./expes/v2_2020-11-09_3bh_250-prng-1,30_base_hphc_250,250,first-250,21,rng,num-start-81,81,17520,2.8696935176849365,True,,True,1,False,1000,True,1.0
./expes/v2_2020-11-09_3bh_250-prng-1,30_base_hphc_250,250,first-250,131,rng,num-start-711,711,17520,27.8248233795166,True,,True,1,False,1000,True,1.0
./expes/v2_2020-11-09_3bh_250-prng-1,30_base_hphc_250,250,first-250,31,rng,num-start-131,131,17520,4.644971609115601,True,,True,1,False,1000,True,1.0
./expes/v2_2020-11-09_3bh_250-prng-1,30_base_hphc_250,250,first-250,131,rng,num-start-961,961,17520,37.753414154052734,True,,True,1,False,1000,True,1.0
./expes/v2_2020-11-09_3bh_250-prng-1,30_base_hphc_250,250,first-250,191,rng,num-start-141,141,17520,5.1949779987335205,True,,True,1,False,1000,True,1.0
./expes/v2_2020-11-09_3bh_250-prng-1,30_base_hphc_250,250,first-250,171,rng,num-start-741,741,17520,28.245929718017578,True,,True,1,False,1000,True,1.0
./expes/v2_2020-11-09_3bh_250-prng-1,30_base_hphc_250,250,first-250,1,rng,num-start-871,871,17520,27.16578722000122,True,,True,1,False,1000,True,1.0
./expes/v2_2020-11-09_3bh_250-prng-1,30_base_hphc_250,250,first-250,221,rng,num-start-251,251,17520,9.340731620788574,True,,True,1,False,1000,True,1.0
./expes/v2_2020-11-09_3bh_250-prng-1,30_base_hphc_250,250,first-250,121,rng,num-start-131,131,17520,4.782371282577515,True,,True,1,False,1000,True,1.0
./expes/v2_2020-11-09_3bh_250-prng-1,30_base_hphc_250,250,first-250,21,rng,num-start-871,871,17520,29.832955360412598,True,,True,1,False,1000,True,1.0
./expes/v2_2020-11-09_3bh_250-prng-1,30_base_hphc_250,250,first-250,71,rng,num-start-571,571,17520,21.55766272544861,True,,True,1,False,1000,True,1.0
./expes/v2_2020-11-09_3bh_250-prng-1,30_base_hphc_250,250,first-250,81,rng,num-start-931,931,17520,34.076260805130005,True,,True,1,False,1000,True,1.0
./expes/v2_2020-11-09_3bh_250-prng-1,30_base_hphc_250,250,first-250,241,rng,num-start-731,731,17520,24.301502227783203,True,,True,1,False,1000,True,1.0
./expes/v2_2020-11-09_3bh_250-prng-1,30_base_hphc_250,250,first-250,71,rng,num-start-251,251,17520,9.474470853805542,True,,True,1,False,1000,True,1.0
./expes/v2_2020-11-09_3bh_250-prng-1,30_base_hphc_250,250,first-250,221,rng,num-start-391,391,17520,14.46857237815857,True,,True,1,False,1000,True,1.0
./expes/v2_2020-11-09_3bh_250-prng-1,30_base_hphc_250,250,first-250,61,rng,num-start-691,691,17520,26.933229446411133,True,,True,1,False,1000,True,1.0
./expes/v2_2020-11-09_3bh_250-prng-1,30_base_hphc_250,250,first-250,181,rng,num-start-881,881,17520,34.254316568374634,True,,True,1,False,1000,True,1.0
./expes/v2_2020-11-09_3bh_250-prng-1,30_base_hphc_250,250,first-250,241,rng,num-start-251,251,17520,8.710540056228638,True,,True,1,False,1000,True,1.0
./expes/v2_2020-11-09_3bh_250-prng-1,30_base_hphc_250,250,first-250,121,rng,num-start-101,101,17520,8.619961261749268,True,,True,1,False,1000,True,1.0
./expes/v2_2020-11-09_3bh_250-prng-1,30_base_hphc_250,250,first-250,121,rng,num-start-141,141,17520,6.034944534301758,True,,True,1,False,1000,True,1.0
./expes/v2_2020-11-09_3bh_250-prng-1,30_base_hphc_250,250,first-250,91,rng,num-start-71,71,17520,1002.3288140296936,False,,False,0,True,1000,True,0.0
./expes/v2_2020-11-09_3bh_250-prng-1,30_base_hphc_250,250,first-250,121,rng,num-start-161,161,17520,6.252171039581299,True,,True,1,False,1000,True,1.0
./expes/v2_2020-11-09_3bh_250-prng-1,30_base_hphc_250,250,first-250,201,rng,num-start-931,931,17520,33.609297037124634,True,,True,1,False,1000,True,1.0
./expes/v2_2020-11-09_3bh_250-prng-1,30_base_hphc_250,250,first-250,21,rng,num-start-651,651,17520,23.494629383087158,True,,True,1,False,1000,True,1.0
./expes/v2_2020-11-09_3bh_250-prng-1,30_base_hphc_250,250,first-250,1,rng,num-start-841,841,17520,26.127481937408447,True,,True,1,False,1000,True,1.0
./expes/v2_2020-11-09_3bh_250-prng-1,30_base_hphc_250,250,first-250,101,rng,num-start-41,41,17520,1001.4517078399658,False,,False,0,True,1000,True,0.0
