expe,clients,clients_size,clients_subset,agg_size,method,days,days_size,days_total,time,valid,valid_sum,success,nsols,wall_hit,wall_time,pooled,valid_sums
./expes/v2_2020-11-05_dbh_200-prng-1,daily_base_hphc_200,200,first-200,131,rng,num-start-21,21,365,1000.7753236293793,False,,False,0,True,1000,True,0.0
./expes/v2_2020-11-05_dbh_200-prng-1,daily_base_hphc_200,200,first-200,121,rng,num-start-151,151,365,3.6646552085876465,True,,True,1,False,1000,True,1.0
./expes/v2_2020-11-05_dbh_200-prng-1,daily_base_hphc_200,200,first-200,81,rng,num-start-181,181,365,4.237838506698608,True,,True,1,False,1000,True,1.0
./expes/v2_2020-11-05_dbh_200-prng-1,daily_base_hphc_200,200,first-200,171,rng,num-start-11,11,365,1000.2586901187897,False,,False,0,True,1000,True,0.0
./expes/v2_2020-11-05_dbh_200-prng-1,daily_base_hphc_200,200,first-200,121,rng,num-start-121,121,365,3.033571720123291,True,,True,1,False,1000,True,1.0
./expes/v2_2020-11-05_dbh_200-prng-1,daily_base_hphc_200,200,first-200,171,rng,num-start-181,181,365,4.279722452163696,True,,True,1,False,1000,True,1.0
./expes/v2_2020-11-05_dbh_200-prng-1,daily_base_hphc_200,200,first-200,111,rng,num-start-261,261,365,5.8831915855407715,True,,True,1,False,1000,True,1.0
./expes/v2_2020-11-05_dbh_200-prng-1,daily_base_hphc_200,200,first-200,41,rng,num-start-261,261,365,5.643209934234619,True,,True,1,False,1000,True,1.0
./expes/v2_2020-11-05_dbh_200-prng-1,daily_base_hphc_200,200,first-200,151,rng,num-start-211,211,365,4.847954750061035,True,,True,1,False,1000,True,1.0
./expes/v2_2020-11-05_dbh_200-prng-1,daily_base_hphc_200,200,first-200,151,rng,num-start-1,1,365,0.18098711967468262,False,,False,2,False,1000,True,1.0
./expes/v2_2020-11-05_dbh_200-prng-1,daily_base_hphc_200,200,first-200,81,rng,num-start-41,41,365,1000.8405332565308,False,,False,0,True,1000,True,0.0
./expes/v2_2020-11-05_dbh_200-prng-1,daily_base_hphc_200,200,first-200,91,rng,num-start-241,241,365,5.6327245235443115,True,,True,1,False,1000,True,1.0
./expes/v2_2020-11-05_dbh_200-prng-1,daily_base_hphc_200,200,first-200,111,rng,num-start-31,31,365,1000.6350922584534,False,,False,0,True,1000,True,0.0
./expes/v2_2020-11-05_dbh_200-prng-1,daily_base_hphc_200,200,first-200,91,rng,num-start-151,151,365,3.7014410495758057,True,,True,1,False,1000,True,1.0
./expes/v2_2020-11-05_dbh_200-prng-1,daily_base_hphc_200,200,first-200,111,rng,num-start-161,161,365,3.943727731704712,True,,True,1,False,1000,True,1.0
./expes/v2_2020-11-05_dbh_200-prng-1,daily_base_hphc_200,200,first-200,121,rng,num-start-281,281,365,6.341114044189453,True,,True,1,False,1000,True,1.0
./expes/v2_2020-11-05_dbh_200-prng-1,daily_base_hphc_200,200,first-200,121,rng,num-start-61,61,365,1001.4747703075409,False,,False,0,True,1000,True,0.0
./expes/v2_2020-11-05_dbh_200-prng-1,daily_base_hphc_200,200,first-200,61,rng,num-start-241,241,365,5.6226489543914795,True,,True,1,False,1000,True,1.0
./expes/v2_2020-11-05_dbh_200-prng-1,daily_base_hphc_200,200,first-200,41,rng,num-start-21,21,365,1000.4569272994995,False,,False,0,True,1000,True,0.0
./expes/v2_2020-11-05_dbh_200-prng-1,daily_base_hphc_200,200,first-200,181,rng,num-start-11,11,365,1000.477682352066,False,,False,0,True,1000,True,0.0
./expes/v2_2020-11-05_dbh_200-prng-1,daily_base_hphc_200,200,first-200,131,rng,num-start-111,111,365,2.687678813934326,True,,True,1,False,1000,True,1.0
./expes/v2_2020-11-05_dbh_200-prng-1,daily_base_hphc_200,200,first-200,181,rng,num-start-11,11,365,1001.6649119853973,False,,False,0,True,1000,True,0.0
./expes/v2_2020-11-05_dbh_200-prng-1,daily_base_hphc_200,200,first-200,111,rng,num-start-211,211,365,4.960405349731445,True,,True,1,False,1000,True,1.0
./expes/v2_2020-11-05_dbh_200-prng-1,daily_base_hphc_200,200,first-200,111,rng,num-start-31,31,365,1000.6584582328796,False,,False,0,True,1000,True,0.0
./expes/v2_2020-11-05_dbh_200-prng-1,daily_base_hphc_200,200,first-200,161,rng,num-start-191,191,365,4.34229040145874,True,,True,1,False,1000,True,1.0
./expes/v2_2020-11-05_dbh_200-prng-1,daily_base_hphc_200,200,first-200,61,rng,num-start-261,261,365,5.856691122055054,True,,True,1,False,1000,True,1.0
./expes/v2_2020-11-05_dbh_200-prng-1,daily_base_hphc_200,200,first-200,181,rng,num-start-201,201,365,4.45371675491333,True,,True,1,False,1000,True,1.0
./expes/v2_2020-11-05_dbh_200-prng-1,daily_base_hphc_200,200,first-200,191,rng,num-start-101,101,365,2.289720296859741,True,,True,1,False,1000,True,1.0
./expes/v2_2020-11-05_dbh_200-prng-1,daily_base_hphc_200,200,first-200,71,rng,num-start-61,61,365,937.8341584205627,True,,True,1,False,1000,True,1.0
./expes/v2_2020-11-05_dbh_200-prng-1,daily_base_hphc_200,200,first-200,71,rng,num-start-221,221,365,5.169415473937988,True,,True,1,False,1000,True,1.0
./expes/v2_2020-11-05_dbh_200-prng-1,daily_base_hphc_200,200,first-200,131,rng,num-start-11,11,365,1000.2360537052155,False,,False,0,True,1000,True,0.0
./expes/v2_2020-11-05_dbh_200-prng-1,daily_base_hphc_200,200,first-200,171,rng,num-start-131,131,365,3.201472282409668,True,,True,1,False,1000,True,1.0
./expes/v2_2020-11-05_dbh_200-prng-1,daily_base_hphc_200,200,first-200,151,rng,num-start-101,101,365,2.350449562072754,True,,True,1,False,1000,True,1.0
./expes/v2_2020-11-05_dbh_200-prng-1,daily_base_hphc_200,200,first-200,141,rng,num-start-261,261,365,5.634580135345459,True,,True,1,False,1000,True,1.0
./expes/v2_2020-11-05_dbh_200-prng-1,daily_base_hphc_200,200,first-200,101,rng,num-start-1,1,365,0.20315980911254883,False,,False,2,False,1000,True,1.0
./expes/v2_2020-11-05_dbh_200-prng-1,daily_base_hphc_200,200,first-200,141,rng,num-start-271,271,365,5.818715572357178,True,,True,1,False,1000,True,1.0
./expes/v2_2020-11-05_dbh_200-prng-1,daily_base_hphc_200,200,first-200,31,rng,num-start-151,151,365,3.5651564598083496,True,,True,1,False,1000,True,1.0
./expes/v2_2020-11-05_dbh_200-prng-1,daily_base_hphc_200,200,first-200,111,rng,num-start-241,241,365,6.075972557067871,True,,True,1,False,1000,True,1.0
./expes/v2_2020-11-05_dbh_200-prng-1,daily_base_hphc_200,200,first-200,101,rng,num-start-141,141,365,3.230592727661133,True,,True,1,False,1000,True,1.0
./expes/v2_2020-11-05_dbh_200-prng-1,daily_base_hphc_200,200,first-200,51,rng,num-start-121,121,365,2.942789077758789,True,,True,1,False,1000,True,1.0
./expes/v2_2020-11-05_dbh_200-prng-1,daily_base_hphc_200,200,first-200,21,rng,num-start-261,261,365,5.778676986694336,True,,True,1,False,1000,True,1.0
./expes/v2_2020-11-05_dbh_200-prng-1,daily_base_hphc_200,200,first-200,21,rng,num-start-101,101,365,2.3643832206726074,True,,True,1,False,1000,True,1.0
./expes/v2_2020-11-05_dbh_200-prng-1,daily_base_hphc_200,200,first-200,161,rng,num-start-81,81,365,2.194211483001709,True,,True,1,False,1000,True,1.0
./expes/v2_2020-11-05_dbh_200-prng-1,daily_base_hphc_200,200,first-200,111,rng,num-start-21,21,365,1000.4809014797211,False,,False,0,True,1000,True,0.0
./expes/v2_2020-11-05_dbh_200-prng-1,daily_base_hphc_200,200,first-200,151,rng,num-start-181,181,365,4.045875072479248,True,,True,1,False,1000,True,1.0
./expes/v2_2020-11-05_dbh_200-prng-1,daily_base_hphc_200,200,first-200,191,rng,num-start-111,111,365,2.5491230487823486,True,,True,1,False,1000,True,1.0
./expes/v2_2020-11-05_dbh_200-prng-1,daily_base_hphc_200,200,first-200,41,rng,num-start-91,91,365,2.2274527549743652,True,,True,1,False,1000,True,1.0
