expe,clients,clients_size,clients_subset,agg_size,method,days,days_size,days_total,time,valid,valid_sum,success,nsols,wall_hit,wall_time,pooled,valid_sums
./expes/v2_2020-11-05_dbh_200-prng-1,daily_base_hphc_200,200,first-200,91,rng,num-start-281,281,365,7.968768119812012,True,,True,1,False,1000,True,1.0
./expes/v2_2020-11-05_dbh_200-prng-1,daily_base_hphc_200,200,first-200,191,rng,num-start-71,71,365,1.8548338413238525,True,,True,1,False,1000,True,1.0
./expes/v2_2020-11-05_dbh_200-prng-1,daily_base_hphc_200,200,first-200,31,rng,num-start-81,81,365,2.2449800968170166,True,,True,1,False,1000,True,1.0
./expes/v2_2020-11-05_dbh_200-prng-1,daily_base_hphc_200,200,first-200,81,rng,num-start-221,221,365,6.30928635597229,True,,True,1,False,1000,True,1.0
./expes/v2_2020-11-05_dbh_200-prng-1,daily_base_hphc_200,200,first-200,11,rng,num-start-11,11,365,1000.2788543701172,False,,False,0,True,1000,True,0.0
./expes/v2_2020-11-05_dbh_200-prng-1,daily_base_hphc_200,200,first-200,41,rng,num-start-31,31,365,1000.808926820755,False,,False,0,True,1000,True,0.0
./expes/v2_2020-11-05_dbh_200-prng-1,daily_base_hphc_200,200,first-200,31,rng,num-start-201,201,365,5.4942991733551025,True,,True,1,False,1000,True,1.0
./expes/v2_2020-11-05_dbh_200-prng-1,daily_base_hphc_200,200,first-200,171,rng,num-start-261,261,365,6.875252723693848,True,,True,1,False,1000,True,1.0
./expes/v2_2020-11-05_dbh_200-prng-1,daily_base_hphc_200,200,first-200,61,rng,num-start-241,241,365,6.5955305099487305,True,,True,1,False,1000,True,1.0
./expes/v2_2020-11-05_dbh_200-prng-1,daily_base_hphc_200,200,first-200,91,rng,num-start-101,101,365,2.8982958793640137,True,,True,1,False,1000,True,1.0
./expes/v2_2020-11-05_dbh_200-prng-1,daily_base_hphc_200,200,first-200,41,rng,num-start-271,271,365,7.131155252456665,True,,True,1,False,1000,True,1.0
./expes/v2_2020-11-05_dbh_200-prng-1,daily_base_hphc_200,200,first-200,21,rng,num-start-291,291,365,7.302987575531006,True,,True,1,False,1000,True,1.0
./expes/v2_2020-11-05_dbh_200-prng-1,daily_base_hphc_200,200,first-200,141,rng,num-start-61,61,365,1001.42041015625,False,,False,0,True,1000,True,0.0
./expes/v2_2020-11-05_dbh_200-prng-1,daily_base_hphc_200,200,first-200,151,rng,num-start-191,191,365,5.091748237609863,True,,True,1,False,1000,True,1.0
./expes/v2_2020-11-05_dbh_200-prng-1,daily_base_hphc_200,200,first-200,171,rng,num-start-181,181,365,4.868422508239746,True,,True,1,False,1000,True,1.0
./expes/v2_2020-11-05_dbh_200-prng-1,daily_base_hphc_200,200,first-200,31,rng,num-start-221,221,365,5.925360679626465,True,,True,1,False,1000,True,1.0
./expes/v2_2020-11-05_dbh_200-prng-1,daily_base_hphc_200,200,first-200,181,rng,num-start-1,1,365,0.11915040016174316,False,,False,2,False,1000,True,1.0
./expes/v2_2020-11-05_dbh_200-prng-1,daily_base_hphc_200,200,first-200,61,rng,num-start-11,11,365,1000.2747859954834,False,,False,0,True,1000,True,0.0
./expes/v2_2020-11-05_dbh_200-prng-1,daily_base_hphc_200,200,first-200,111,rng,num-start-231,231,365,6.674175977706909,True,,True,1,False,1000,True,1.0
./expes/v2_2020-11-05_dbh_200-prng-1,daily_base_hphc_200,200,first-200,11,rng,num-start-201,201,365,5.288654565811157,True,,True,1,False,1000,True,1.0
./expes/v2_2020-11-05_dbh_200-prng-1,daily_base_hphc_200,200,first-200,151,rng,num-start-221,221,365,6.018972873687744,True,,True,1,False,1000,True,1.0
./expes/v2_2020-11-05_dbh_200-prng-1,daily_base_hphc_200,200,first-200,91,rng,num-start-51,51,365,1001.1348729133606,False,,False,0,True,1000,True,0.0
./expes/v2_2020-11-05_dbh_200-prng-1,daily_base_hphc_200,200,first-200,41,rng,num-start-171,171,365,4.811482906341553,True,,True,1,False,1000,True,1.0
./expes/v2_2020-11-05_dbh_200-prng-1,daily_base_hphc_200,200,first-200,131,rng,num-start-131,131,365,3.5445146560668945,True,,True,1,False,1000,True,1.0
./expes/v2_2020-11-05_dbh_200-prng-1,daily_base_hphc_200,200,first-200,171,rng,num-start-241,241,365,6.445061445236206,True,,True,1,False,1000,True,1.0
./expes/v2_2020-11-05_dbh_200-prng-1,daily_base_hphc_200,200,first-200,171,rng,num-start-111,111,365,2.959561347961426,True,,True,1,False,1000,True,1.0
./expes/v2_2020-11-05_dbh_200-prng-1,daily_base_hphc_200,200,first-200,111,rng,num-start-11,11,365,1000.2690026760101,False,,False,0,True,1000,True,0.0
./expes/v2_2020-11-05_dbh_200-prng-1,daily_base_hphc_200,200,first-200,101,rng,num-start-181,181,365,4.8443498611450195,True,,True,1,False,1000,True,1.0
./expes/v2_2020-11-05_dbh_200-prng-1,daily_base_hphc_200,200,first-200,151,rng,num-start-91,91,365,2.478018045425415,True,,True,1,False,1000,True,1.0
./expes/v2_2020-11-05_dbh_200-prng-1,daily_base_hphc_200,200,first-200,41,rng,num-start-51,51,365,494.62750601768494,True,,True,1,False,1000,True,1.0
./expes/v2_2020-11-05_dbh_200-prng-1,daily_base_hphc_200,200,first-200,131,rng,num-start-41,41,365,1000.9395859241486,False,,False,0,True,1000,True,0.0
./expes/v2_2020-11-05_dbh_200-prng-1,daily_base_hphc_200,200,first-200,1,rng,num-start-281,281,365,6.244067430496216,True,,True,1,False,1000,True,1.0
./expes/v2_2020-11-05_dbh_200-prng-1,daily_base_hphc_200,200,first-200,61,rng,num-start-91,91,365,2.584683656692505,True,,True,1,False,1000,True,1.0
./expes/v2_2020-11-05_dbh_200-prng-1,daily_base_hphc_200,200,first-200,191,rng,num-start-271,271,365,6.376459836959839,True,,True,1,False,1000,True,1.0
./expes/v2_2020-11-05_dbh_200-prng-1,daily_base_hphc_200,200,first-200,151,rng,num-start-161,161,365,4.236947774887085,True,,True,1,False,1000,True,1.0
./expes/v2_2020-11-05_dbh_200-prng-1,daily_base_hphc_200,200,first-200,11,rng,num-start-241,241,365,6.260577440261841,True,,True,1,False,1000,True,1.0
./expes/v2_2020-11-05_dbh_200-prng-1,daily_base_hphc_200,200,first-200,11,rng,num-start-261,261,365,6.422766208648682,True,,True,1,False,1000,True,1.0
./expes/v2_2020-11-05_dbh_200-prng-1,daily_base_hphc_200,200,first-200,131,rng,num-start-51,51,365,1001.1335880756378,False,,False,0,True,1000,True,0.0
./expes/v2_2020-11-05_dbh_200-prng-1,daily_base_hphc_200,200,first-200,141,rng,num-start-221,221,365,6.204107999801636,True,,True,1,False,1000,True,1.0
./expes/v2_2020-11-05_dbh_200-prng-1,daily_base_hphc_200,200,first-200,161,rng,num-start-141,141,365,3.906700611114502,True,,True,1,False,1000,True,1.0
./expes/v2_2020-11-05_dbh_200-prng-1,daily_base_hphc_200,200,first-200,171,rng,num-start-121,121,365,3.1013405323028564,True,,True,1,False,1000,True,1.0
./expes/v2_2020-11-05_dbh_200-prng-1,daily_base_hphc_200,200,first-200,91,rng,num-start-181,181,365,4.767054080963135,True,,True,1,False,1000,True,1.0
./expes/v2_2020-11-05_dbh_200-prng-1,daily_base_hphc_200,200,first-200,111,rng,num-start-111,111,365,3.2050931453704834,True,,True,1,False,1000,True,1.0
./expes/v2_2020-11-05_dbh_200-prng-1,daily_base_hphc_200,200,first-200,161,rng,num-start-121,121,365,3.1933000087738037,True,,True,1,False,1000,True,1.0
./expes/v2_2020-11-05_dbh_200-prng-1,daily_base_hphc_200,200,first-200,71,rng,num-start-211,211,365,5.849847078323364,True,,True,1,False,1000,True,1.0
./expes/v2_2020-11-05_dbh_200-prng-1,daily_base_hphc_200,200,first-200,71,rng,num-start-231,231,365,6.481689214706421,True,,True,1,False,1000,True,1.0
./expes/v2_2020-11-05_dbh_200-prng-1,daily_base_hphc_200,200,first-200,91,rng,num-start-281,281,365,7.212741374969482,True,,True,1,False,1000,True,1.0
./expes/v2_2020-11-05_dbh_200-prng-1,daily_base_hphc_200,200,first-200,71,rng,num-start-11,11,365,1000.2724001407623,False,,False,0,True,1000,True,0.0
./expes/v2_2020-11-05_dbh_200-prng-1,daily_base_hphc_200,200,first-200,181,rng,num-start-151,151,365,4.1500232219696045,True,,True,1,False,1000,True,1.0
./expes/v2_2020-11-05_dbh_200-prng-1,daily_base_hphc_200,200,first-200,111,rng,num-start-91,91,365,5.190730333328247,True,,True,1,False,1000,True,1.0
./expes/v2_2020-11-05_dbh_200-prng-1,daily_base_hphc_200,200,first-200,141,rng,num-start-171,171,365,4.682991981506348,True,,True,1,False,1000,True,1.0
./expes/v2_2020-11-05_dbh_200-prng-1,daily_base_hphc_200,200,first-200,131,rng,num-start-181,181,365,4.966019153594971,True,,True,1,False,1000,True,1.0
./expes/v2_2020-11-05_dbh_200-prng-1,daily_base_hphc_200,200,first-200,111,rng,num-start-31,31,365,1000.7633144855499,False,,False,0,True,1000,True,0.0
./expes/v2_2020-11-05_dbh_200-prng-1,daily_base_hphc_200,200,first-200,81,rng,num-start-151,151,365,4.15679407119751,True,,True,1,False,1000,True,1.0
./expes/v2_2020-11-05_dbh_200-prng-1,daily_base_hphc_200,200,first-200,11,rng,num-start-171,171,365,4.38844633102417,True,,True,1,False,1000,True,1.0
./expes/v2_2020-11-05_dbh_200-prng-1,daily_base_hphc_200,200,first-200,51,rng,num-start-211,211,365,5.5854692459106445,True,,True,1,False,1000,True,1.0
./expes/v2_2020-11-05_dbh_200-prng-1,daily_base_hphc_200,200,first-200,91,rng,num-start-231,231,365,6.796746253967285,True,,True,1,False,1000,True,1.0
./expes/v2_2020-11-05_dbh_200-prng-1,daily_base_hphc_200,200,first-200,111,rng,num-start-241,241,365,6.725497484207153,True,,True,1,False,1000,True,1.0
./expes/v2_2020-11-05_dbh_200-prng-1,daily_base_hphc_200,200,first-200,181,rng,num-start-91,91,365,2.350393772125244,True,,True,1,False,1000,True,1.0
./expes/v2_2020-11-05_dbh_200-prng-1,daily_base_hphc_200,200,first-200,71,rng,num-start-201,201,365,5.664555072784424,True,,True,1,False,1000,True,1.0
./expes/v2_2020-11-05_dbh_200-prng-1,daily_base_hphc_200,200,first-200,41,rng,num-start-251,251,365,6.427128553390503,True,,True,1,False,1000,True,1.0
./expes/v2_2020-11-05_dbh_200-prng-1,daily_base_hphc_200,200,first-200,51,rng,num-start-191,191,365,6.07125186920166,True,,True,1,False,1000,True,1.0
./expes/v2_2020-11-05_dbh_200-prng-1,daily_base_hphc_200,200,first-200,121,rng,num-start-71,71,365,1001.6562271118164,False,,False,1,True,1000,True,0.0
./expes/v2_2020-11-05_dbh_200-prng-1,daily_base_hphc_200,200,first-200,191,rng,num-start-41,41,365,1.10551118850708,True,,True,1,False,1000,True,1.0
./expes/v2_2020-11-05_dbh_200-prng-1,daily_base_hphc_200,200,first-200,171,rng,num-start-211,211,365,5.467102527618408,True,,True,1,False,1000,True,1.0
./expes/v2_2020-11-05_dbh_200-prng-1,daily_base_hphc_200,200,first-200,11,rng,num-start-121,121,365,3.230457305908203,True,,True,1,False,1000,True,1.0
./expes/v2_2020-11-05_dbh_200-prng-1,daily_base_hphc_200,200,first-200,41,rng,num-start-61,61,365,7.419180631637573,True,,True,1,False,1000,True,1.0
./expes/v2_2020-11-05_dbh_200-prng-1,daily_base_hphc_200,200,first-200,181,rng,num-start-261,261,365,6.537504434585571,True,,True,1,False,1000,True,1.0
./expes/v2_2020-11-05_dbh_200-prng-1,daily_base_hphc_200,200,first-200,191,rng,num-start-191,191,365,4.779329299926758,True,,True,1,False,1000,True,1.0
./expes/v2_2020-11-05_dbh_200-prng-1,daily_base_hphc_200,200,first-200,101,rng,num-start-111,111,365,3.190725326538086,True,,True,1,False,1000,True,1.0
./expes/v2_2020-11-05_dbh_200-prng-1,daily_base_hphc_200,200,first-200,41,rng,num-start-231,231,365,6.327130556106567,True,,True,1,False,1000,True,1.0
./expes/v2_2020-11-05_dbh_200-prng-1,daily_base_hphc_200,200,first-200,1,rng,num-start-21,21,365,0.4685213565826416,True,,True,1,False,1000,True,1.0
./expes/v2_2020-11-05_dbh_200-prng-1,daily_base_hphc_200,200,first-200,121,rng,num-start-201,201,365,5.640136957168579,True,,True,1,False,1000,True,1.0
./expes/v2_2020-11-05_dbh_200-prng-1,daily_base_hphc_200,200,first-200,161,rng,num-start-71,71,365,2.0967986583709717,True,,True,1,False,1000,True,1.0
./expes/v2_2020-11-05_dbh_200-prng-1,daily_base_hphc_200,200,first-200,81,rng,num-start-11,11,365,1000.3229105472565,False,,False,0,True,1000,True,0.0
./expes/v2_2020-11-05_dbh_200-prng-1,daily_base_hphc_200,200,first-200,31,rng,num-start-141,141,365,3.7665112018585205,True,,True,1,False,1000,True,1.0
./expes/v2_2020-11-05_dbh_200-prng-1,daily_base_hphc_200,200,first-200,171,rng,num-start-271,271,365,6.755835056304932,True,,True,1,False,1000,True,1.0
./expes/v2_2020-11-05_dbh_200-prng-1,daily_base_hphc_200,200,first-200,71,rng,num-start-21,21,365,1000.5435924530029,False,,False,0,True,1000,True,0.0
./expes/v2_2020-11-05_dbh_200-prng-1,daily_base_hphc_200,200,first-200,81,rng,num-start-61,61,365,1001.3815231323242,False,,False,0,True,1000,True,0.0
./expes/v2_2020-11-05_dbh_200-prng-1,daily_base_hphc_200,200,first-200,71,rng,num-start-181,181,365,5.2773277759552,True,,True,1,False,1000,True,1.0
./expes/v2_2020-11-05_dbh_200-prng-1,daily_base_hphc_200,200,first-200,51,rng,num-start-141,141,365,3.9894864559173584,True,,True,1,False,1000,True,1.0
./expes/v2_2020-11-05_dbh_200-prng-1,daily_base_hphc_200,200,first-200,61,rng,num-start-81,81,365,17.909980058670044,True,,True,1,False,1000,True,1.0
./expes/v2_2020-11-05_dbh_200-prng-1,daily_base_hphc_200,200,first-200,1,rng,num-start-151,151,365,3.406431198120117,True,,True,1,False,1000,True,1.0
./expes/v2_2020-11-05_dbh_200-prng-1,daily_base_hphc_200,200,first-200,11,rng,num-start-21,21,365,1.944868564605713,True,,True,1,False,1000,True,1.0
./expes/v2_2020-11-05_dbh_200-prng-1,daily_base_hphc_200,200,first-200,51,rng,num-start-261,261,365,7.174903392791748,True,,True,1,False,1000,True,1.0
./expes/v2_2020-11-05_dbh_200-prng-1,daily_base_hphc_200,200,first-200,101,rng,num-start-201,201,365,5.6345789432525635,True,,True,1,False,1000,True,1.0
./expes/v2_2020-11-05_dbh_200-prng-1,daily_base_hphc_200,200,first-200,51,rng,num-start-31,31,365,1000.7244219779968,False,,False,0,True,1000,True,0.0
./expes/v2_2020-11-05_dbh_200-prng-1,daily_base_hphc_200,200,first-200,61,rng,num-start-231,231,365,6.4147117137908936,True,,True,1,False,1000,True,1.0
./expes/v2_2020-11-05_dbh_200-prng-1,daily_base_hphc_200,200,first-200,81,rng,num-start-151,151,365,4.017669677734375,True,,True,1,False,1000,True,1.0
./expes/v2_2020-11-05_dbh_200-prng-1,daily_base_hphc_200,200,first-200,41,rng,num-start-51,51,365,574.6455307006836,True,,True,1,False,1000,True,1.0
./expes/v2_2020-11-05_dbh_200-prng-1,daily_base_hphc_200,200,first-200,11,rng,num-start-21,21,365,1.2319772243499756,True,,True,1,False,1000,True,1.0
./expes/v2_2020-11-05_dbh_200-prng-1,daily_base_hphc_200,200,first-200,61,rng,num-start-241,241,365,6.406610727310181,True,,True,1,False,1000,True,1.0
./expes/v2_2020-11-05_dbh_200-prng-1,daily_base_hphc_200,200,first-200,181,rng,num-start-171,171,365,4.368016242980957,True,,True,1,False,1000,True,1.0
./expes/v2_2020-11-05_dbh_200-prng-1,daily_base_hphc_200,200,first-200,31,rng,num-start-271,271,365,7.347941637039185,True,,True,1,False,1000,True,1.0
./expes/v2_2020-11-05_dbh_200-prng-1,daily_base_hphc_200,200,first-200,191,rng,num-start-161,161,365,4.143847227096558,True,,True,1,False,1000,True,1.0
./expes/v2_2020-11-05_dbh_200-prng-1,daily_base_hphc_200,200,first-200,141,rng,num-start-51,51,365,1001.2029619216919,False,,False,0,True,1000,True,0.0
./expes/v2_2020-11-05_dbh_200-prng-1,daily_base_hphc_200,200,first-200,141,rng,num-start-81,81,365,4.136376619338989,True,,True,1,False,1000,True,1.0
./expes/v2_2020-11-05_dbh_200-prng-1,daily_base_hphc_200,200,first-200,91,rng,num-start-41,41,365,1000.9456355571747,False,,False,0,True,1000,True,0.0
./expes/v2_2020-11-05_dbh_200-prng-1,daily_base_hphc_200,200,first-200,121,rng,num-start-181,181,365,5.1654064655303955,True,,True,1,False,1000,True,1.0
./expes/v2_2020-11-05_dbh_200-prng-1,daily_base_hphc_200,200,first-200,91,rng,num-start-71,71,365,13.813051223754883,True,,True,1,False,1000,True,1.0
./expes/v2_2020-11-05_dbh_200-prng-1,daily_base_hphc_200,200,first-200,111,rng,num-start-111,111,365,3.120887279510498,True,,True,1,False,1000,True,1.0
./expes/v2_2020-11-05_dbh_200-prng-1,daily_base_hphc_200,200,first-200,81,rng,num-start-31,31,365,1000.7755653858185,False,,False,0,True,1000,True,0.0
./expes/v2_2020-11-05_dbh_200-prng-1,daily_base_hphc_200,200,first-200,181,rng,num-start-211,211,365,5.426142454147339,True,,True,1,False,1000,True,1.0
./expes/v2_2020-11-05_dbh_200-prng-1,daily_base_hphc_200,200,first-200,161,rng,num-start-271,271,365,6.9416587352752686,True,,True,1,False,1000,True,1.0
./expes/v2_2020-11-05_dbh_200-prng-1,daily_base_hphc_200,200,first-200,121,rng,num-start-271,271,365,7.2968528270721436,True,,True,1,False,1000,True,1.0
./expes/v2_2020-11-05_dbh_200-prng-1,daily_base_hphc_200,200,first-200,121,rng,num-start-191,191,365,5.037765979766846,True,,True,1,False,1000,True,1.0
./expes/v2_2020-11-05_dbh_200-prng-1,daily_base_hphc_200,200,first-200,61,rng,num-start-231,231,365,6.222045660018921,True,,True,1,False,1000,True,1.0
./expes/v2_2020-11-05_dbh_200-prng-1,daily_base_hphc_200,200,first-200,71,rng,num-start-251,251,365,6.808372497558594,True,,True,1,False,1000,True,1.0
./expes/v2_2020-11-05_dbh_200-prng-1,daily_base_hphc_200,200,first-200,111,rng,num-start-91,91,365,4.555790424346924,True,,True,1,False,1000,True,1.0
./expes/v2_2020-11-05_dbh_200-prng-1,daily_base_hphc_200,200,first-200,61,rng,num-start-31,31,365,1000.6989545822144,False,,False,0,True,1000,True,0.0
./expes/v2_2020-11-05_dbh_200-prng-1,daily_base_hphc_200,200,first-200,21,rng,num-start-161,161,365,4.27959942817688,True,,True,1,False,1000,True,1.0
./expes/v2_2020-11-05_dbh_200-prng-1,daily_base_hphc_200,200,first-200,151,rng,num-start-201,201,365,5.246553897857666,True,,True,1,False,1000,True,1.0
./expes/v2_2020-11-05_dbh_200-prng-1,daily_base_hphc_200,200,first-200,111,rng,num-start-251,251,365,6.740245342254639,True,,True,1,False,1000,True,1.0
./expes/v2_2020-11-05_dbh_200-prng-1,daily_base_hphc_200,200,first-200,41,rng,num-start-261,261,365,6.809656620025635,True,,True,1,False,1000,True,1.0
./expes/v2_2020-11-05_dbh_200-prng-1,daily_base_hphc_200,200,first-200,91,rng,num-start-221,221,365,6.135255813598633,True,,True,1,False,1000,True,1.0
./expes/v2_2020-11-05_dbh_200-prng-1,daily_base_hphc_200,200,first-200,21,rng,num-start-161,161,365,4.124583005905151,True,,True,1,False,1000,True,1.0
./expes/v2_2020-11-05_dbh_200-prng-1,daily_base_hphc_200,200,first-200,61,rng,num-start-161,161,365,4.505633115768433,True,,True,1,False,1000,True,1.0
./expes/v2_2020-11-05_dbh_200-prng-1,daily_base_hphc_200,200,first-200,151,rng,num-start-241,241,365,6.230900049209595,True,,True,1,False,1000,True,1.0
./expes/v2_2020-11-05_dbh_200-prng-1,daily_base_hphc_200,200,first-200,161,rng,num-start-201,201,365,5.314573287963867,True,,True,1,False,1000,True,1.0
./expes/v2_2020-11-05_dbh_200-prng-1,daily_base_hphc_200,200,first-200,51,rng,num-start-151,151,365,4.023561000823975,True,,True,1,False,1000,True,1.0
./expes/v2_2020-11-05_dbh_200-prng-1,daily_base_hphc_200,200,first-200,131,rng,num-start-191,191,365,5.116020441055298,True,,True,1,False,1000,True,1.0
./expes/v2_2020-11-05_dbh_200-prng-1,daily_base_hphc_200,200,first-200,171,rng,num-start-1,1,365,0.16182613372802734,False,,False,2,False,1000,True,1.0
./expes/v2_2020-11-05_dbh_200-prng-1,daily_base_hphc_200,200,first-200,1,rng,num-start-241,241,365,5.3708508014678955,True,,True,1,False,1000,True,1.0
./expes/v2_2020-11-05_dbh_200-prng-1,daily_base_hphc_200,200,first-200,81,rng,num-start-231,231,365,6.539117097854614,True,,True,1,False,1000,True,1.0
./expes/v2_2020-11-05_dbh_200-prng-1,daily_base_hphc_200,200,first-200,191,rng,num-start-1,1,365,0.10759425163269043,False,,False,2,False,1000,True,1.0
./expes/v2_2020-11-05_dbh_200-prng-1,daily_base_hphc_200,200,first-200,171,rng,num-start-261,261,365,6.603468418121338,True,,True,1,False,1000,True,1.0
./expes/v2_2020-11-05_dbh_200-prng-1,daily_base_hphc_200,200,first-200,151,rng,num-start-51,51,365,1001.2152454853058,False,,False,0,True,1000,True,0.0
./expes/v2_2020-11-05_dbh_200-prng-1,daily_base_hphc_200,200,first-200,111,rng,num-start-31,31,365,1000.706328868866,False,,False,0,True,1000,True,0.0
./expes/v2_2020-11-05_dbh_200-prng-1,daily_base_hphc_200,200,first-200,151,rng,num-start-81,81,365,3.811866521835327,True,,True,1,False,1000,True,1.0
./expes/v2_2020-11-05_dbh_200-prng-1,daily_base_hphc_200,200,first-200,21,rng,num-start-21,21,365,1000.5219919681549,False,,False,1,True,1000,True,0.0
./expes/v2_2020-11-05_dbh_200-prng-1,daily_base_hphc_200,200,first-200,91,rng,num-start-141,141,365,3.9251317977905273,True,,True,1,False,1000,True,1.0
./expes/v2_2020-11-05_dbh_200-prng-1,daily_base_hphc_200,200,first-200,71,rng,num-start-101,101,365,2.801889657974243,True,,True,1,False,1000,True,1.0
./expes/v2_2020-11-05_dbh_200-prng-1,daily_base_hphc_200,200,first-200,51,rng,num-start-191,191,365,5.199231147766113,True,,True,1,False,1000,True,1.0
./expes/v2_2020-11-05_dbh_200-prng-1,daily_base_hphc_200,200,first-200,51,rng,num-start-261,261,365,7.303415060043335,True,,True,1,False,1000,True,1.0
./expes/v2_2020-11-05_dbh_200-prng-1,daily_base_hphc_200,200,first-200,101,rng,num-start-21,21,365,1000.5547902584076,False,,False,0,True,1000,True,0.0
./expes/v2_2020-11-05_dbh_200-prng-1,daily_base_hphc_200,200,first-200,191,rng,num-start-181,181,365,4.497168064117432,True,,True,1,False,1000,True,1.0
./expes/v2_2020-11-05_dbh_200-prng-1,daily_base_hphc_200,200,first-200,191,rng,num-start-1,1,365,0.2346794605255127,False,,False,2,False,1000,True,1.0
./expes/v2_2020-11-05_dbh_200-prng-1,daily_base_hphc_200,200,first-200,91,rng,num-start-201,201,365,5.470964431762695,True,,True,1,False,1000,True,1.0
./expes/v2_2020-11-05_dbh_200-prng-1,daily_base_hphc_200,200,first-200,71,rng,num-start-141,141,365,3.8574650287628174,True,,True,1,False,1000,True,1.0
./expes/v2_2020-11-05_dbh_200-prng-1,daily_base_hphc_200,200,first-200,11,rng,num-start-201,201,365,5.217899799346924,True,,True,1,False,1000,True,1.0
./expes/v2_2020-11-05_dbh_200-prng-1,daily_base_hphc_200,200,first-200,71,rng,num-start-211,211,365,5.627532720565796,True,,True,1,False,1000,True,1.0
./expes/v2_2020-11-05_dbh_200-prng-1,daily_base_hphc_200,200,first-200,151,rng,num-start-181,181,365,4.8266074657440186,True,,True,1,False,1000,True,1.0
./expes/v2_2020-11-05_dbh_200-prng-1,daily_base_hphc_200,200,first-200,141,rng,num-start-261,261,365,7.18004584312439,True,,True,1,False,1000,True,1.0
./expes/v2_2020-11-05_dbh_200-prng-1,daily_base_hphc_200,200,first-200,191,rng,num-start-11,11,365,880.9313666820526,True,,True,1,False,1000,True,1.0
./expes/v2_2020-11-05_dbh_200-prng-1,daily_base_hphc_200,200,first-200,61,rng,num-start-271,271,365,6.948314666748047,True,,True,1,False,1000,True,1.0
./expes/v2_2020-11-05_dbh_200-prng-1,daily_base_hphc_200,200,first-200,31,rng,num-start-181,181,365,4.71319055557251,True,,True,1,False,1000,True,1.0
./expes/v2_2020-11-05_dbh_200-prng-1,daily_base_hphc_200,200,first-200,51,rng,num-start-281,281,365,7.079782009124756,True,,True,1,False,1000,True,1.0
./expes/v2_2020-11-05_dbh_200-prng-1,daily_base_hphc_200,200,first-200,71,rng,num-start-241,241,365,6.654845476150513,True,,True,1,False,1000,True,1.0
./expes/v2_2020-11-05_dbh_200-prng-1,daily_base_hphc_200,200,first-200,31,rng,num-start-101,101,365,2.5757827758789062,True,,True,1,False,1000,True,1.0
./expes/v2_2020-11-05_dbh_200-prng-1,daily_base_hphc_200,200,first-200,41,rng,num-start-261,261,365,6.965713977813721,True,,True,1,False,1000,True,1.0
