expe,clients,clients_size,clients_subset,agg_size,agg_size_pc,method,days,days_size,days_total,noise_method,time,valid,valid_sum,success,score_avg,score_min,score_max,nsols,oracle,wall_hit,wall_time,pooled,pool_size,uuid,infeasible,optimal,valid_sums
./expes/v2_2021-03-23_issda-30_2000-prng-1-w4-p2,30_issda-2000,2000,first-2000,600,30,rng,num-start-1200,1200,25726,classic,2870.1652686595917,True,,True,1.0,1.0,1.0,1,"['1', '2', '10', '11', '14', '20', '23', '24', '26', '30', '31', '32', '33', '34', '35', '37', '40', '41', '44', '46', '51', '57', '59', '61', '62', '65', '69', '72', '74', '75', '77', '80', '84', '85', '86', '87', '91', '92', '96', '97', '98', '108', '122', '123', '124', '130', '132', '135', '137', '138', '141', '142', '144', '148', '149', '150', '151', '152', '153', '154', '155', '160', '161', '165', '170', '171', '172', '174', '175', '177', '179', '180', '185', '186', '189', '191', '193', '203', '206', '207', '213', '221', '222', '224', '232', '235', '237', '239', '242', '250', '253', '259', '261', '266', '267', '269', '270', '276', '278', '279', '280', '284', '288', '289', '290', '291', '294', '300', '305', '316', '323', '325', '327', '337', '342', '347', '348', '355', '360', '361', '364', '366', '367', '375', '379', '382', '384', '386', '389', '390', '391', '401', '403', '404', '406', '407', '409', '411', '412', '415', '418', '420', '427', '428', '430', '432', '435', '436', '437', '438', '439', '448', '450', '454', '459', '464', '468', '471', '472', '479', '487', '489', '495', '496', '497', '498', '505', '511', '514', '521', '523', '524', '525', '526', '527', '529', '537', '546', '552', '553', '558', '560', '564', '567', '570', '574', '576', '578', '592', '595', '596', '601', '603', '607', '617', '622', '623', '624', '633', '635', '636', '637', '638', '639', '646', '649', '654', '657', '669', '670', '674', '677', '678', '682', '687', '690', '696', '700', '701', '702', '703', '709', '714', '719', '721', '726', '733', '742', '754', '756', '762', '769', '772', '773', '777', '781', '784', '786', '788', '791', '792', '795', '796', '800', '803', '806', '808', '809', '812', '814', '821', '828', '829', '830', '834', '840', '841', '842', '843', '848', '853', '855', '859', '860', '862', '864', '879', '883', '889', '900', '902', '903', '905', '906', '913', '915', '917', '923', '926', '927', '928', '929', '932', '937', '938', '940', '948', '950', '951', '953', '954', '963', '964', '966', '968', '970', '973', '974', '975', '982', '985', '988', '989', '991', '996', '998', '999', '1006', '1009', '1010', '1012', '1017', '1019', '1020', '1021', '1024', '1025', '1030', '1031', '1034', '1041', '1043', '1049', '1050', '1051', '1054', '1057', '1058', '1062', '1063', '1064', '1065', '1066', '1069', '1071', '1074', '1079', '1083', '1088', '1092', '1096', '1097', '1098', '1100', '1103', '1104', '1106', '1109', '1115', '1116', '1119', '1127', '1128', '1129', '1135', '1145', '1146', '1147', '1151', '1153', '1154', '1156', '1160', '1165', '1169', '1172', '1174', '1177', '1182', '1186', '1190', '1194', '1195', '1197', '1203', '1209', '1211', '1214', '1220', '1222', '1226', '1229', '1232', '1233', '1237', '1240', '1245', '1247', '1249', '1250', '1251', '1253', '1258', '1259', '1261', '1262', '1275', '1277', '1280', '1282', '1285', '1289', '1290', '1291', '1299', '1300', '1303', '1304', '1309', '1310', '1311', '1312', '1313', '1315', '1319', '1330', '1332', '1334', '1337', '1339', '1340', '1342', '1346', '1352', '1357', '1364', '1375', '1377', '1383', '1389', '1390', '1397', '1402', '1403', '1404', '1407', '1412', '1416', '1421', '1422', '1429', '1431', '1434', '1436', '1442', '1443', '1448', '1450', '1452', '1457', '1463', '1467', '1470', '1472', '1476', '1479', '1480', '1482', '1486', '1492', '1493', '1497', '1499', '1501', '1506', '1510', '1514', '1515', '1516', '1534', '1537', '1544', '1546', '1547', '1549', '1553', '1570', '1574', '1576', '1583', '1594', '1595', '1596', '1598', '1600', '1614', '1620', '1622', '1625', '1632', '1633', '1635', '1639', '1640', '1641', '1646', '1647', '1651', '1654', '1658', '1659', '1675', '1676', '1679', '1684', '1687', '1688', '1698', '1700', '1701', '1702', '1703', '1704', '1705', '1715', '1717', '1719', '1721', '1725', '1726', '1728', '1732', '1734', '1736', '1739', '1743', '1746', '1750', '1752', '1753', '1755', '1756', '1769', '1771', '1774', '1775', '1777', '1782', '1785', '1788', '1801', '1802', '1803', '1807', '1813', '1818', '1824', '1825', '1827', '1829', '1835', '1836', '1844', '1845', '1846', '1854', '1855', '1856', '1858', '1861', '1864', '1865', '1873', '1874', '1876', '1879', '1884', '1886', '1890', '1892', '1893', '1896', '1899', '1904', '1906', '1907', '1909', '1910', '1914', '1918', '1926', '1934', '1937', '1940', '1944', '1946', '1956', '1960', '1961', '1963', '1965', '1972', '1974', '1975', '1976', '1984', '1986', '1989', '1993', '1997']",False,8000,True,2,bbd46fb6ce,0.0,1.0,1.0
./expes/v2_2021-03-23_issda-30_2000-prng-1-w4-p2,30_issda-2000,2000,first-2000,400,20,rng,num-start-2000,2000,25726,classic,1360.604059457779,True,,True,1.0,1.0,1.0,1,"['1', '12', '13', '19', '21', '23', '27', '29', '35', '42', '44', '45', '46', '47', '57', '58', '63', '67', '68', '78', '80', '88', '89', '90', '91', '96', '99', '108', '113', '114', '119', '120', '122', '133', '135', '146', '157', '161', '162', '163', '165', '172', '177', '184', '186', '189', '191', '199', '205', '207', '212', '214', '220', '222', '223', '233', '236', '238', '241', '249', '252', '254', '258', '269', '274', '280', '290', '291', '295', '301', '302', '309', '313', '314', '316', '317', '319', '324', '337', '352', '353', '354', '357', '365', '373', '379', '381', '389', '391', '395', '397', '406', '417', '421', '424', '428', '429', '430', '434', '436', '443', '448', '452', '454', '456', '457', '460', '461', '465', '467', '471', '476', '481', '483', '487', '488', '490', '491', '495', '498', '501', '520', '523', '524', '529', '531', '533', '549', '552', '580', '582', '584', '588', '601', '605', '607', '608', '619', '624', '625', '633', '635', '636', '642', '649', '655', '656', '660', '683', '686', '687', '700', '705', '706', '713', '715', '716', '725', '726', '741', '743', '747', '757', '765', '766', '767', '785', '786', '787', '792', '796', '802', '805', '808', '810', '811', '819', '820', '825', '826', '827', '830', '832', '834', '836', '839', '840', '843', '845', '852', '854', '856', '861', '867', '874', '876', '887', '889', '894', '904', '906', '912', '915', '929', '931', '934', '936', '944', '946', '947', '952', '956', '961', '966', '968', '973', '978', '985', '986', '988', '1000', '1004', '1005', '1007', '1013', '1016', '1017', '1022', '1023', '1027', '1030', '1032', '1046', '1047', '1052', '1053', '1058', '1059', '1072', '1077', '1089', '1095', '1097', '1105', '1110', '1133', '1134', '1153', '1162', '1173', '1176', '1186', '1189', '1193', '1208', '1216', '1219', '1227', '1234', '1235', '1237', '1242', '1243', '1252', '1255', '1256', '1260', '1277', '1281', '1282', '1284', '1287', '1293', '1296', '1301', '1308', '1312', '1313', '1317', '1320', '1332', '1335', '1339', '1341', '1343', '1347', '1349', '1351', '1353', '1358', '1365', '1366', '1367', '1369', '1370', '1392', '1395', '1397', '1407', '1411', '1415', '1417', '1421', '1432', '1433', '1441', '1449', '1450', '1457', '1463', '1472', '1477', '1483', '1485', '1487', '1491', '1496', '1500', '1510', '1512', '1521', '1522', '1523', '1533', '1540', '1542', '1547', '1553', '1559', '1564', '1568', '1583', '1584', '1598', '1603', '1604', '1605', '1612', '1614', '1616', '1617', '1619', '1630', '1635', '1647', '1652', '1655', '1664', '1667', '1669', '1674', '1692', '1693', '1694', '1700', '1706', '1721', '1722', '1726', '1727', '1732', '1735', '1736', '1741', '1750', '1763', '1771', '1772', '1795', '1809', '1810', '1814', '1830', '1837', '1843', '1849', '1857', '1875', '1882', '1883', '1884', '1895', '1905', '1908', '1915', '1927', '1933', '1942', '1943', '1949', '1950', '1952', '1953', '1959', '1971', '1981', '1983', '1988', '1995', '1996']",False,8000,True,2,227f88fc00,0.0,1.0,1.0
./expes/v2_2021-03-23_issda-30_2000-prng-1-w4-p2,30_issda-2000,2000,first-2000,800,40,rng,num-start-2000,2000,25726,classic,1708.8315086364746,True,,True,1.0,1.0,1.0,1,"['1', '3', '4', '5', '7', '15', '17', '19', '20', '21', '26', '28', '29', '30', '31', '32', '34', '39', '42', '45', '47', '51', '55', '57', '58', '61', '62', '63', '65', '67', '68', '69', '73', '74', '75', '78', '79', '80', '81', '82', '83', '84', '85', '87', '92', '93', '94', '96', '97', '99', '103', '114', '119', '124', '126', '128', '129', '131', '135', '136', '142', '144', '145', '146', '148', '152', '155', '157', '161', '162', '165', '166', '167', '168', '169', '171', '172', '173', '174', '179', '184', '186', '187', '188', '192', '195', '201', '203', '204', '206', '207', '208', '211', '215', '216', '223', '224', '228', '231', '233', '236', '237', '238', '240', '241', '244', '246', '249', '253', '254', '255', '256', '257', '261', '266', '267', '268', '272', '274', '277', '284', '286', '287', '289', '291', '292', '294', '299', '300', '301', '304', '305', '307', '310', '311', '315', '317', '319', '320', '321', '323', '325', '328', '330', '332', '336', '340', '342', '347', '350', '359', '365', '366', '368', '370', '373', '374', '377', '379', '383', '386', '387', '388', '390', '391', '392', '394', '399', '400', '406', '407', '409', '414', '417', '419', '420', '422', '423', '425', '426', '427', '432', '438', '441', '443', '445', '448', '449', '451', '452', '453', '455', '457', '461', '471', '473', '477', '479', '483', '485', '489', '490', '491', '492', '496', '498', '500', '514', '518', '522', '524', '526', '527', '529', '531', '532', '533', '534', '535', '537', '553', '556', '563', '564', '565', '571', '574', '576', '578', '588', '590', '593', '594', '595', '597', '600', '601', '602', '603', '607', '613', '616', '617', '618', '619', '620', '621', '622', '626', '631', '636', '638', '640', '645', '647', '648', '650', '652', '656', '660', '661', '664', '665', '667', '668', '670', '673', '677', '678', '682', '683', '685', '687', '688', '691', '692', '693', '697', '702', '704', '706', '708', '710', '711', '713', '718', '722', '723', '725', '731', '732', '734', '735', '736', '740', '741', '742', '750', '752', '753', '755', '756', '759', '761', '762', '763', '770', '772', '775', '776', '777', '783', '786', '787', '789', '792', '794', '795', '796', '802', '803', '807', '809', '813', '816', '817', '823', '824', '826', '830', '832', '836', '840', '843', '849', '850', '851', '852', '855', '856', '857', '859', '861', '862', '865', '867', '872', '873', '874', '883', '884', '890', '892', '894', '906', '907', '911', '912', '913', '915', '918', '919', '923', '925', '928', '930', '933', '938', '939', '940', '944', '955', '957', '964', '965', '966', '967', '970', '971', '975', '976', '977', '980', '982', '986', '987', '988', '996', '997', '998', '1000', '1001', '1003', '1005', '1008', '1009', '1011', '1013', '1015', '1018', '1019', '1020', '1021', '1022', '1029', '1032', '1034', '1035', '1039', '1041', '1042', '1048', '1058', '1061', '1063', '1066', '1067', '1068', '1069', '1072', '1073', '1075', '1076', '1077', '1081', '1083', '1085', '1086', '1091', '1093', '1095', '1097', '1102', '1107', '1108', '1112', '1113', '1115', '1120', '1121', '1122', '1124', '1125', '1129', '1132', '1133', '1140', '1144', '1147', '1149', '1150', '1155', '1157', '1160', '1163', '1164', '1166', '1167', '1168', '1172', '1176', '1179', '1180', '1188', '1190', '1194', '1195', '1198', '1199', '1201', '1203', '1204', '1208', '1209', '1215', '1218', '1222', '1223', '1226', '1230', '1233', '1234', '1235', '1236', '1237', '1239', '1241', '1242', '1245', '1246', '1249', '1250', '1252', '1253', '1254', '1255', '1259', '1265', '1267', '1271', '1272', '1274', '1277', '1281', '1284', '1285', '1286', '1291', '1295', '1297', '1298', '1299', '1301', '1303', '1306', '1308', '1309', '1312', '1313', '1314', '1320', '1321', '1325', '1330', '1333', '1339', '1343', '1344', '1345', '1346', '1347', '1350', '1353', '1357', '1364', '1366', '1369', '1373', '1378', '1380', '1384', '1385', '1387', '1390', '1391', '1392', '1393', '1394', '1395', '1396', '1398', '1400', '1401', '1406', '1408', '1411', '1413', '1415', '1417', '1429', '1431', '1433', '1434', '1435', '1436', '1437', '1438', '1442', '1445', '1446', '1447', '1448', '1449', '1453', '1455', '1459', '1462', '1464', '1466', '1469', '1470', '1471', '1472', '1474', '1480', '1486', '1490', '1493', '1494', '1495', '1496', '1497', '1499', '1500', '1504', '1505', '1514', '1518', '1519', '1528', '1530', '1532', '1533', '1535', '1536', '1541', '1546', '1548', '1550', '1552', '1553', '1555', '1561', '1572', '1582', '1583', '1585', '1590', '1591', '1592', '1593', '1594', '1597', '1602', '1604', '1605', '1606', '1608', '1609', '1615', '1616', '1618', '1621', '1623', '1625', '1627', '1628', '1634', '1635', '1638', '1639', '1640', '1645', '1646', '1648', '1649', '1651', '1653', '1655', '1657', '1659', '1660', '1663', '1664', '1669', '1671', '1674', '1676', '1678', '1679', '1683', '1684', '1685', '1690', '1691', '1692', '1694', '1696', '1698', '1699', '1700', '1701', '1708', '1712', '1716', '1717', '1721', '1723', '1726', '1729', '1730', '1731', '1732', '1734', '1740', '1742', '1744', '1747', '1749', '1752', '1756', '1760', '1762', '1763', '1765', '1766', '1769', '1770', '1772', '1773', '1777', '1780', '1783', '1785', '1786', '1787', '1790', '1791', '1792', '1793', '1794', '1796', '1798', '1799', '1805', '1811', '1812', '1813', '1814', '1819', '1821', '1823', '1824', '1827', '1830', '1832', '1834', '1839', '1840', '1841', '1842', '1844', '1846', '1848', '1849', '1850', '1853', '1856', '1860', '1861', '1864', '1868', '1870', '1872', '1875', '1876', '1878', '1879', '1880', '1881', '1882', '1883', '1884', '1885', '1888', '1889', '1890', '1891', '1892', '1908', '1911', '1913', '1914', '1916', '1917', '1918', '1919', '1920', '1922', '1929', '1932', '1935', '1937', '1939', '1940', '1942', '1945', '1946', '1953', '1955', '1959', '1962', '1963', '1965', '1968', '1969', '1971', '1972', '1973', '1974', '1978', '1980', '1982', '1983', '1984', '1986', '1988', '1992', '1996', '2000']",False,8000,True,2,3f4d143cbd,0.0,1.0,1.0
./expes/v2_2021-03-23_issda-30_2000-prng-1-w4-p2,30_issda-2000,2000,first-2000,900,45,rng,num-start-3200,3200,25726,classic,3425.66250538826,True,,True,1.0,1.0,1.0,1,"['1', '3', '4', '5', '7', '15', '16', '17', '18', '19', '20', '21', '26', '28', '29', '30', '31', '32', '34', '39', '42', '43', '45', '47', '51', '55', '57', '58', '61', '62', '63', '65', '67', '68', '69', '73', '74', '75', '78', '79', '80', '81', '82', '83', '84', '85', '87', '92', '93', '94', '95', '96', '97', '99', '103', '114', '119', '124', '126', '128', '129', '131', '135', '136', '140', '142', '144', '145', '146', '148', '150', '152', '155', '157', '160', '161', '162', '165', '166', '167', '168', '169', '171', '172', '173', '174', '175', '178', '179', '184', '186', '187', '188', '190', '192', '195', '201', '203', '204', '206', '207', '208', '209', '211', '215', '216', '223', '224', '228', '230', '231', '233', '235', '236', '237', '238', '240', '241', '243', '244', '246', '248', '249', '253', '254', '255', '256', '257', '261', '266', '267', '268', '271', '272', '274', '276', '277', '284', '286', '287', '289', '291', '292', '294', '299', '300', '301', '304', '305', '307', '310', '311', '315', '316', '317', '319', '320', '321', '323', '325', '328', '330', '332', '335', '336', '340', '342', '347', '350', '358', '359', '365', '366', '368', '370', '373', '374', '377', '379', '380', '383', '386', '387', '388', '390', '391', '392', '394', '399', '400', '402', '406', '407', '409', '414', '417', '418', '419', '420', '422', '423', '425', '426', '427', '431', '432', '438', '441', '443', '445', '448', '449', '451', '452', '453', '455', '457', '461', '471', '473', '476', '477', '479', '483', '485', '489', '490', '491', '492', '496', '498', '500', '508', '509', '511', '514', '518', '522', '524', '526', '527', '529', '531', '532', '533', '534', '535', '537', '538', '553', '554', '556', '563', '564', '565', '568', '571', '574', '576', '578', '580', '581', '588', '590', '593', '594', '595', '597', '600', '601', '602', '603', '604', '607', '611', '612', '613', '614', '616', '617', '618', '619', '620', '621', '622', '626', '631', '636', '638', '640', '645', '647', '648', '650', '652', '656', '657', '660', '661', '664', '665', '667', '668', '670', '673', '677', '678', '682', '683', '685', '687', '688', '691', '692', '693', '697', '698', '702', '704', '706', '708', '710', '711', '713', '718', '722', '723', '725', '727', '728', '731', '732', '734', '735', '736', '740', '741', '742', '750', '752', '753', '755', '756', '757', '759', '761', '762', '763', '770', '771', '772', '775', '776', '777', '783', '786', '787', '789', '792', '794', '795', '796', '802', '803', '807', '809', '812', '813', '816', '817', '823', '824', '826', '830', '831', '832', '836', '837', '840', '843', '849', '850', '851', '852', '854', '855', '856', '857', '859', '860', '861', '862', '864', '865', '867', '869', '872', '873', '874', '883', '884', '885', '890', '892', '894', '904', '906', '907', '911', '912', '913', '914', '915', '918', '919', '920', '923', '925', '928', '929', '930', '933', '938', '939', '940', '944', '947', '948', '955', '957', '964', '965', '966', '967', '970', '971', '975', '976', '977', '980', '982', '986', '987', '988', '990', '996', '997', '998', '1000', '1001', '1003', '1005', '1008', '1009', '1011', '1013', '1015', '1018', '1019', '1020', '1021', '1022', '1029', '1032', '1034', '1035', '1039', '1041', '1042', '1048', '1058', '1061', '1063', '1065', '1066', '1067', '1068', '1069', '1072', '1073', '1075', '1076', '1077', '1078', '1081', '1083', '1084', '1085', '1086', '1091', '1093', '1095', '1097', '1102', '1107', '1108', '1112', '1113', '1114', '1115', '1117', '1120', '1121', '1122', '1124', '1125', '1128', '1129', '1132', '1133', '1140', '1144', '1147', '1149', '1150', '1155', '1157', '1160', '1163', '1164', '1166', '1167', '1168', '1172', '1176', '1179', '1180', '1188', '1190', '1192', '1194', '1195', '1198', '1199', '1201', '1203', '1204', '1208', '1209', '1211', '1215', '1218', '1220', '1222', '1223', '1226', '1230', '1232', '1233', '1234', '1235', '1236', '1237', '1239', '1241', '1242', '1245', '1246', '1248', '1249', '1250', '1252', '1253', '1254', '1255', '1259', '1265', '1267', '1268', '1271', '1272', '1274', '1277', '1281', '1284', '1285', '1286', '1289', '1291', '1294', '1295', '1296', '1297', '1298', '1299', '1301', '1303', '1305', '1306', '1308', '1309', '1312', '1313', '1314', '1320', '1321', '1325', '1330', '1333', '1339', '1343', '1344', '1345', '1346', '1347', '1350', '1353', '1357', '1359', '1364', '1366', '1369', '1370', '1373', '1378', '1380', '1384', '1385', '1387', '1389', '1390', '1391', '1392', '1393', '1394', '1395', '1396', '1398', '1400', '1401', '1406', '1408', '1410', '1411', '1413', '1415', '1417', '1429', '1431', '1432', '1433', '1434', '1435', '1436', '1437', '1438', '1439', '1442', '1445', '1446', '1447', '1448', '1449', '1453', '1455', '1459', '1462', '1464', '1466', '1469', '1470', '1471', '1472', '1474', '1480', '1486', '1490', '1492', '1493', '1494', '1495', '1496', '1497', '1499', '1500', '1504', '1505', '1514', '1518', '1519', '1528', '1529', '1530', '1532', '1533', '1535', '1536', '1539', '1541', '1546', '1547', '1548', '1550', '1552', '1553', '1555', '1557', '1561', '1572', '1573', '1575', '1582', '1583', '1585', '1590', '1591', '1592', '1593', '1594', '1597', '1602', '1604', '1605', '1606', '1608', '1609', '1615', '1616', '1618', '1621', '1623', '1625', '1627', '1628', '1630', '1632', '1634', '1635', '1638', '1639', '1640', '1645', '1646', '1648', '1649', '1651', '1653', '1655', '1657', '1659', '1660', '1663', '1664', '1669', '1671', '1674', '1676', '1678', '1679', '1683', '1684', '1685', '1690', '1691', '1692', '1694', '1696', '1698', '1699', '1700', '1701', '1708', '1712', '1716', '1717', '1721', '1723', '1726', '1729', '1730', '1731', '1732', '1734', '1740', '1742', '1744', '1747', '1749', '1752', '1756', '1760', '1761', '1762', '1763', '1764', '1765', '1766', '1769', '1770', '1772', '1773', '1777', '1780', '1783', '1785', '1786', '1787', '1790', '1791', '1792', '1793', '1794', '1796', '1798', '1799', '1805', '1810', '1811', '1812', '1813', '1814', '1819', '1821', '1823', '1824', '1825', '1827', '1830', '1832', '1834', '1839', '1840', '1841', '1842', '1844', '1846', '1848', '1849', '1850', '1853', '1856', '1860', '1861', '1862', '1864', '1868', '1870', '1872', '1875', '1876', '1878', '1879', '1880', '1881', '1882', '1883', '1884', '1885', '1888', '1889', '1890', '1891', '1892', '1898', '1902', '1908', '1911', '1913', '1914', '1916', '1917', '1918', '1919', '1920', '1922', '1929', '1932', '1935', '1937', '1939', '1940', '1942', '1944', '1945', '1946', '1947', '1951', '1953', '1955', '1959', '1962', '1963', '1965', '1966', '1968', '1969', '1971', '1972', '1973', '1974', '1978', '1980', '1982', '1983', '1984', '1986', '1988', '1992', '1996', '2000']",False,8000,True,2,f1f0f6c91d,0.0,1.0,1.0
