expe,clients,clients_size,clients_subset,agg_size,agg_size_pc,method,days,days_size,days_total,noise_method,time,valid,valid_sum,success,score_avg,score_min,score_max,nsols,oracle,wall_hit,wall_time,pooled,pool_size,uuid,infeasible,optimal,valid_sums
./expes/v3_2021-02-19_hi_1000-prng-1-w1-fpa10-0.6-p100,30_issda-1000,1000,first-1000,250,25,rng,num-start-1000,1000,25726,fpa-09-10-0.6-20,143.1466462612152,False,,False,0.39178729119649774,0.38487531477075443,0.39969977481233576,100,"['2', '15', '17', '23', '24', '28', '34', '38', '40', '41', '42', '47', '60', '63', '64', '65', '71', '72', '74', '76', '83', '85', '92', '94', '96', '98', '102', '104', '112', '119', '120', '123', '127', '128', '134', '143', '144', '146', '150', '151', '154', '174', '175', '185', '189', '190', '192', '194', '195', '196', '200', '205', '209', '210', '216', '221', '224', '225', '226', '227', '228', '242', '245', '248', '249', '250', '257', '266', '267', '278', '282', '283', '289', '295', '298', '299', '309', '311', '318', '324', '325', '328', '333', '334', '339', '341', '342', '344', '359', '363', '366', '367', '368', '380', '381', '395', '401', '409', '415', '430', '431', '436', '437', '445', '447', '454', '456', '459', '462', '479', '482', '484', '488', '489', '491', '498', '499', '502', '505', '506', '516', '517', '521', '524', '534', '535', '538', '546', '548', '554', '557', '558', '561', '562', '565', '566', '574', '582', '584', '588', '590', '594', '598', '602', '604', '611', '617', '618', '621', '626', '627', '628', '634', '636', '641', '646', '650', '651', '656', '657', '663', '673', '677', '685', '689', '696', '697', '700', '701', '715', '717', '718', '721', '723', '724', '728', '736', '737', '745', '748', '750', '774', '776', '777', '786', '802', '803', '804', '808', '813', '814', '818', '819', '820', '823', '825', '830', '832', '835', '836', '837', '842', '845', '846', '848', '850', '851', '854', '856', '858', '859', '861', '863', '865', '866', '870', '871', '876', '887', '889', '892', '897', '898', '912', '914', '917', '920', '921', '924', '927', '930', '932', '935', '938', '939', '940', '941', '945', '946', '956', '959', '960', '973', '985', '987', '989', '990', '991', '992', '994']",False,1000,True,100,a5f2fea2e8,0.0,1.0,0.0
./expes/v3_2021-02-19_hi_1000-prng-1-w1-fpa10-0.6-p100,30_issda-1000,1000,first-1000,450,45,rng,num-start-3750,3750,25726,fpa-09-10-0.6-20,402.8034358024597,False,,False,0.2887340715594995,0.2841002077717073,0.301080484970917,100,"['2', '4', '5', '6', '8', '12', '14', '16', '19', '21', '22', '23', '25', '27', '28', '29', '30', '32', '33', '34', '35', '36', '37', '44', '45', '46', '47', '48', '51', '52', '53', '55', '57', '62', '63', '65', '66', '68', '69', '70', '71', '74', '79', '82', '88', '89', '91', '95', '100', '102', '105', '106', '107', '108', '111', '112', '117', '118', '122', '123', '124', '125', '126', '127', '128', '129', '130', '131', '132', '133', '134', '135', '137', '138', '140', '142', '147', '155', '156', '160', '161', '164', '168', '174', '176', '182', '183', '184', '188', '190', '192', '196', '197', '203', '204', '205', '217', '223', '224', '227', '228', '230', '231', '233', '238', '240', '242', '244', '245', '246', '251', '255', '258', '259', '265', '266', '269', '270', '271', '272', '274', '276', '277', '278', '281', '286', '287', '292', '294', '296', '298', '299', '301', '306', '308', '309', '311', '312', '318', '321', '322', '323', '324', '327', '328', '330', '331', '334', '335', '336', '337', '339', '341', '342', '345', '348', '349', '350', '353', '354', '355', '360', '361', '362', '369', '370', '373', '375', '379', '382', '383', '384', '385', '386', '387', '390', '396', '397', '399', '400', '405', '407', '410', '418', '420', '421', '424', '426', '427', '429', '430', '431', '432', '434', '436', '437', '438', '439', '441', '442', '445', '446', '447', '448', '449', '456', '462', '468', '472', '476', '478', '481', '482', '485', '486', '488', '489', '493', '494', '495', '496', '500', '502', '507', '509', '513', '515', '516', '518', '520', '523', '525', '528', '531', '532', '533', '534', '536', '538', '540', '543', '545', '547', '548', '549', '550', '554', '555', '557', '558', '562', '563', '565', '569', '573', '578', '581', '582', '583', '585', '586', '588', '589', '591', '594', '595', '599', '600', '601', '602', '603', '604', '605', '606', '607', '610', '615', '616', '619', '620', '621', '624', '626', '627', '630', '631', '633', '635', '636', '638', '641', '642', '643', '644', '648', '649', '650', '651', '652', '655', '658', '660', '663', '666', '670', '672', '676', '679', '684', '688', '689', '692', '693', '695', '696', '698', '699', '701', '707', '708', '711', '712', '713', '715', '716', '720', '724', '730', '731', '732', '733', '734', '735', '736', '737', '738', '741', '746', '750', '752', '753', '756', '760', '764', '766', '772', '775', '777', '779', '780', '788', '791', '793', '794', '796', '798', '799', '802', '806', '807', '808', '810', '811', '812', '813', '815', '820', '821', '823', '824', '826', '827', '830', '831', '832', '833', '837', '840', '844', '848', '852', '853', '854', '857', '858', '859', '862', '865', '871', '873', '875', '876', '877', '878', '879', '882', '883', '884', '885', '887', '888', '889', '891', '892', '894', '900', '901', '902', '903', '905', '907', '908', '909', '911', '912', '919', '920', '922', '926', '927', '931', '935', '938', '940', '943', '944', '945', '947', '949', '950', '952', '959', '962', '964', '966', '972', '973', '974', '978', '981', '982', '984', '987', '988', '989', '993', '995', '996', '997', '999']",False,1000,True,100,84f9b4896e,0.0,1.0,0.0
./expes/v3_2021-02-19_hi_1000-prng-1-w1-fpa10-0.6-p100,30_issda-1000,1000,first-1000,500,50,rng,num-start-3000,3000,25726,fpa-09-10-0.6-20,371.21604442596436,False,,False,0.2873127029046374,0.27162473234566065,0.2967969749108764,100,"['2', '3', '6', '9', '10', '11', '13', '15', '18', '19', '21', '22', '23', '25', '27', '28', '29', '30', '31', '32', '33', '34', '36', '37', '39', '41', '42', '43', '45', '47', '49', '58', '61', '65', '66', '67', '72', '73', '75', '77', '79', '84', '86', '87', '89', '92', '93', '94', '95', '97', '99', '102', '103', '104', '105', '106', '107', '110', '111', '112', '113', '115', '117', '118', '119', '121', '124', '129', '130', '133', '134', '137', '138', '139', '145', '146', '150', '151', '154', '158', '161', '163', '164', '165', '166', '168', '171', '172', '173', '174', '175', '176', '178', '182', '183', '184', '186', '188', '190', '191', '192', '193', '195', '199', '204', '205', '206', '211', '212', '213', '215', '218', '219', '221', '222', '223', '225', '226', '228', '229', '230', '231', '233', '235', '236', '237', '238', '239', '241', '246', '248', '249', '250', '251', '252', '253', '256', '257', '259', '260', '262', '265', '266', '273', '274', '275', '276', '280', '284', '288', '289', '291', '297', '298', '299', '301', '302', '303', '304', '306', '311', '313', '314', '315', '316', '318', '320', '321', '323', '324', '325', '326', '328', '329', '330', '334', '336', '340', '341', '343', '347', '348', '349', '350', '352', '353', '354', '355', '356', '362', '365', '366', '368', '370', '374', '376', '377', '380', '384', '388', '389', '390', '391', '393', '396', '400', '401', '403', '404', '405', '407', '409', '412', '414', '415', '417', '424', '425', '427', '432', '433', '437', '440', '443', '444', '446', '449', '450', '457', '459', '461', '462', '464', '466', '467', '469', '470', '471', '472', '481', '484', '486', '489', '492', '493', '497', '500', '501', '502', '505', '506', '508', '509', '512', '513', '514', '515', '517', '518', '519', '520', '521', '522', '523', '525', '527', '529', '532', '534', '537', '541', '546', '548', '552', '553', '554', '555', '556', '558', '559', '561', '562', '564', '565', '567', '568', '570', '575', '577', '578', '579', '580', '583', '584', '585', '588', '589', '590', '592', '593', '594', '599', '601', '602', '604', '605', '606', '608', '611', '615', '616', '617', '619', '621', '623', '624', '627', '628', '629', '630', '633', '638', '639', '640', '645', '646', '647', '651', '658', '659', '663', '664', '665', '666', '668', '673', '676', '678', '680', '681', '682', '687', '689', '690', '691', '692', '694', '695', '698', '703', '704', '705', '707', '712', '713', '720', '721', '722', '727', '729', '733', '737', '739', '740', '742', '743', '744', '747', '748', '751', '756', '759', '761', '762', '765', '769', '772', '773', '774', '778', '780', '781', '783', '786', '787', '789', '790', '795', '797', '798', '799', '801', '802', '803', '804', '805', '806', '808', '809', '812', '815', '816', '817', '818', '822', '823', '824', '826', '827', '828', '829', '831', '833', '837', '838', '840', '841', '842', '846', '848', '849', '850', '853', '855', '856', '858', '861', '862', '866', '867', '868', '869', '871', '872', '874', '878', '879', '880', '881', '882', '884', '887', '889', '891', '893', '897', '900', '903', '904', '907', '908', '909', '913', '915', '916', '918', '919', '922', '923', '924', '925', '929', '932', '933', '936', '937', '939', '940', '942', '943', '944', '945', '948', '949', '954', '955', '959', '961', '962', '964', '967', '968', '973', '975', '976', '978', '981', '983', '986', '988', '989', '990', '991', '992', '993', '994', '997', '998', '999', '1000']",False,1000,True,100,4f0355da02,0.0,1.0,0.0
./expes/v3_2021-02-19_hi_1000-prng-1-w1-fpa10-0.6-p100,30_issda-1000,1000,first-1000,400,40,rng,num-start-1500,1500,25726,fpa-09-10-0.6-20,210.83545351028442,False,,False,0.3213089804173035,0.30251416753708427,0.32586762838856753,100,"['2', '3', '6', '9', '10', '13', '15', '18', '19', '22', '23', '25', '27', '29', '30', '31', '32', '34', '36', '37', '39', '41', '42', '45', '47', '49', '58', '61', '65', '67', '72', '73', '75', '79', '84', '86', '87', '89', '94', '97', '99', '102', '103', '105', '107', '111', '112', '113', '117', '118', '121', '124', '129', '133', '134', '137', '138', '139', '150', '151', '161', '163', '164', '165', '168', '171', '172', '173', '174', '175', '176', '178', '182', '186', '190', '191', '193', '195', '199', '205', '206', '211', '215', '218', '219', '222', '223', '225', '226', '228', '229', '230', '231', '233', '235', '236', '237', '238', '239', '241', '249', '256', '259', '260', '262', '265', '273', '274', '275', '276', '280', '284', '288', '289', '291', '297', '298', '299', '302', '303', '304', '306', '311', '314', '316', '318', '320', '326', '329', '330', '334', '336', '340', '341', '347', '348', '349', '350', '352', '353', '354', '355', '356', '362', '366', '374', '376', '377', '380', '384', '388', '389', '390', '391', '393', '396', '400', '403', '404', '405', '407', '412', '414', '415', '417', '424', '425', '427', '432', '433', '437', '440', '443', '444', '449', '450', '457', '461', '462', '464', '466', '469', '470', '471', '472', '481', '484', '486', '492', '493', '497', '500', '501', '502', '505', '508', '509', '512', '513', '515', '517', '518', '519', '520', '521', '522', '523', '525', '527', '529', '532', '534', '537', '541', '546', '548', '552', '553', '554', '555', '558', '561', '562', '564', '565', '567', '568', '570', '575', '577', '578', '579', '580', '583', '584', '585', '588', '590', '592', '593', '594', '599', '602', '604', '605', '606', '608', '615', '619', '621', '623', '624', '627', '628', '629', '630', '638', '639', '640', '645', '646', '647', '651', '658', '663', '664', '665', '666', '668', '673', '676', '680', '681', '682', '687', '690', '691', '692', '694', '695', '703', '704', '712', '713', '720', '721', '722', '729', '733', '737', '739', '742', '743', '744', '747', '748', '751', '756', '759', '761', '762', '773', '774', '778', '780', '781', '783', '786', '787', '789', '790', '795', '797', '798', '799', '801', '802', '803', '806', '808', '816', '817', '818', '822', '823', '824', '829', '831', '833', '837', '840', '841', '848', '849', '850', '853', '856', '858', '861', '862', '867', '868', '869', '871', '872', '874', '878', '879', '880', '881', '882', '887', '889', '891', '893', '897', '900', '903', '904', '908', '909', '913', '915', '918', '919', '922', '923', '924', '932', '933', '937', '939', '940', '943', '945', '948', '949', '954', '955', '959', '961', '962', '964', '967', '968', '973', '975', '976', '978', '981', '983', '986', '989', '991', '992', '993', '997', '998', '999', '1000']",False,1000,True,100,d6044ef824,0.0,1.0,0.0
./expes/v3_2021-02-19_hi_1000-prng-1-w1-fpa10-0.6-p100,30_issda-1000,1000,first-1000,100,10,rng,num-start-500,500,25726,fpa-09-10-0.6-20,56.00925946235657,False,,False,0.574375370014239,0.5708331511123159,0.5923651558488086,100,"['3', '10', '23', '27', '30', '32', '65', '97', '103', '105', '121', '124', '138', '191', '195', '215', '222', '225', '228', '235', '237', '239', '262', '273', '291', '297', '304', '311', '326', '341', '354', '389', '391', '400', '403', '427', '433', '444', '449', '457', '461', '471', '484', '500', '508', '512', '513', '518', '520', '541', '555', '567', '570', '583', '602', '604', '606', '623', '645', '658', '666', '668', '687', '694', '703', '713', '729', '739', '742', '744', '761', '780', '781', '783', '786', '808', '822', '850', '856', '858', '867', '868', '881', '903', '904', '915', '918', '924', '933', '939', '945', '949', '959', '962', '964', '968', '976', '991', '993', '997']",False,1000,True,100,5e516fd4f2,0.0,1.0,0.0
./expes/v3_2021-02-19_hi_1000-prng-1-w1-fpa10-0.6-p100,30_issda-1000,1000,first-1000,450,45,rng,num-start-3750,3750,25726,fpa-09-10-0.6-20,541.197286605835,False,,False,0.2815072356970401,0.2785289191377658,0.2925394000366518,100,"['2', '5', '6', '9', '17', '19', '20', '21', '22', '25', '26', '29', '31', '32', '33', '35', '37', '38', '39', '42', '45', '47', '51', '53', '55', '58', '59', '61', '62', '69', '70', '73', '76', '78', '79', '83', '84', '85', '87', '89', '90', '94', '96', '97', '99', '103', '104', '105', '108', '109', '114', '115', '116', '118', '119', '122', '125', '126', '131', '132', '135', '140', '144', '145', '148', '149', '151', '155', '156', '158', '160', '161', '162', '163', '165', '166', '169', '171', '174', '175', '177', '178', '181', '182', '185', '186', '187', '189', '193', '196', '197', '204', '213', '214', '216', '218', '223', '225', '228', '231', '233', '234', '237', '238', '239', '241', '242', '247', '251', '253', '254', '255', '256', '257', '258', '260', '261', '262', '263', '264', '266', '269', '271', '273', '275', '276', '280', '281', '286', '292', '293', '294', '297', '298', '304', '311', '314', '316', '317', '318', '320', '324', '327', '333', '336', '337', '338', '339', '343', '346', '350', '353', '354', '360', '363', '365', '367', '368', '369', '370', '371', '372', '373', '375', '376', '381', '382', '383', '384', '390', '393', '394', '395', '400', '401', '402', '403', '405', '410', '412', '413', '414', '415', '417', '419', '421', '423', '425', '427', '429', '430', '434', '436', '438', '442', '445', '450', '452', '456', '457', '459', '460', '463', '465', '466', '468', '469', '473', '475', '476', '477', '478', '482', '484', '485', '490', '492', '495', '496', '498', '499', '501', '502', '503', '504', '510', '511', '513', '515', '517', '520', '521', '522', '523', '524', '525', '527', '528', '529', '531', '532', '534', '535', '536', '537', '538', '539', '544', '546', '549', '554', '558', '559', '561', '562', '565', '571', '572', '574', '576', '582', '586', '588', '589', '590', '596', '599', '600', '603', '604', '606', '608', '610', '611', '620', '621', '622', '626', '629', '631', '632', '634', '637', '639', '640', '643', '651', '653', '654', '657', '658', '664', '668', '669', '671', '675', '677', '678', '680', '683', '686', '687', '689', '691', '696', '697', '698', '699', '701', '702', '704', '707', '709', '710', '713', '716', '717', '721', '723', '724', '726', '727', '728', '731', '732', '733', '734', '735', '737', '741', '742', '744', '746', '747', '749', '753', '754', '755', '757', '758', '761', '763', '764', '766', '769', '772', '773', '774', '778', '779', '780', '782', '783', '785', '792', '794', '796', '800', '802', '804', '808', '809', '811', '814', '816', '818', '819', '820', '822', '823', '824', '826', '829', '830', '832', '833', '835', '836', '838', '840', '841', '845', '846', '852', '856', '857', '859', '861', '870', '871', '873', '875', '880', '881', '884', '887', '892', '896', '897', '898', '902', '903', '904', '905', '906', '907', '909', '911', '914', '916', '917', '920', '922', '923', '924', '925', '929', '930', '931', '934', '938', '939', '941', '943', '944', '948', '952', '955', '957', '958', '959', '960', '961', '964', '967', '971', '973', '978', '979', '981', '982', '983', '984', '985', '986', '987', '993', '994', '995', '998']",False,1000,True,100,e4b18b80aa,0.0,1.0,0.0
./expes/v3_2021-02-19_hi_1000-prng-1-w1-fpa10-0.6-p100,30_issda-1000,1000,first-1000,350,35,rng,num-start-4750,4750,25726,fpa-09-10-0.6-20,773.7445366382599,False,,False,0.3335621270424736,0.32586762838856753,0.3378531594589925,100,"['1', '2', '3', '4', '13', '14', '15', '16', '17', '23', '24', '28', '33', '34', '38', '40', '41', '42', '47', '48', '52', '60', '63', '64', '65', '66', '71', '72', '74', '76', '81', '83', '85', '86', '92', '94', '96', '98', '101', '102', '104', '112', '119', '120', '121', '122', '123', '127', '128', '134', '136', '139', '143', '144', '146', '150', '151', '154', '158', '162', '163', '164', '166', '170', '174', '175', '180', '185', '189', '190', '192', '193', '194', '195', '196', '197', '200', '204', '205', '209', '210', '216', '219', '221', '224', '225', '226', '227', '228', '229', '242', '245', '246', '248', '249', '250', '257', '266', '267', '278', '282', '283', '288', '289', '295', '298', '299', '309', '311', '318', '319', '320', '324', '325', '328', '333', '334', '339', '341', '342', '343', '344', '351', '359', '361', '363', '366', '367', '368', '380', '381', '388', '395', '398', '401', '409', '412', '415', '420', '425', '426', '428', '429', '430', '431', '436', '437', '445', '447', '453', '454', '456', '457', '458', '459', '462', '469', '479', '482', '483', '484', '488', '489', '491', '494', '498', '499', '502', '505', '506', '507', '516', '517', '521', '524', '534', '535', '538', '541', '542', '543', '546', '548', '554', '557', '558', '561', '562', '565', '566', '574', '575', '582', '583', '584', '588', '590', '594', '598', '602', '604', '605', '609', '611', '612', '617', '618', '619', '621', '623', '625', '626', '627', '628', '634', '636', '641', '646', '649', '650', '651', '653', '656', '657', '663', '665', '667', '673', '674', '677', '679', '682', '685', '689', '690', '692', '693', '695', '696', '697', '698', '700', '701', '708', '715', '716', '717', '718', '719', '721', '723', '724', '727', '728', '733', '735', '736', '737', '743', '745', '748', '750', '757', '760', '767', '773', '774', '776', '777', '781', '786', '791', '802', '803', '804', '808', '813', '814', '818', '819', '820', '823', '825', '829', '830', '832', '835', '836', '837', '842', '843', '845', '846', '848', '849', '850', '851', '854', '856', '858', '859', '861', '863', '865', '866', '870', '871', '875', '876', '887', '889', '892', '893', '896', '897', '898', '906', '907', '912', '914', '917', '920', '921', '922', '924', '927', '930', '932', '935', '938', '939', '940', '941', '944', '945', '946', '956', '959', '960', '970', '973', '977', '985', '987', '989', '990', '991', '992', '994', '998']",False,1000,True,100,ff6cef5155,0.0,1.0,0.0
./expes/v3_2021-02-19_hi_1000-prng-1-w1-fpa10-0.6-p100,30_issda-1000,1000,first-1000,450,45,rng,num-start-4500,4500,25726,fpa-09-10-0.6-20,771.0471658706665,False,,False,0.2835159841817393,0.2799177001769044,0.2925394000366518,100,"['2', '5', '6', '9', '17', '19', '20', '21', '22', '25', '26', '29', '31', '32', '33', '35', '37', '38', '39', '42', '45', '47', '51', '53', '55', '58', '59', '61', '62', '69', '70', '73', '76', '78', '79', '83', '84', '85', '87', '89', '90', '94', '96', '97', '99', '103', '104', '105', '108', '109', '114', '115', '116', '118', '119', '122', '125', '126', '131', '132', '135', '140', '144', '145', '148', '149', '151', '155', '156', '158', '160', '161', '162', '163', '165', '166', '169', '171', '174', '175', '177', '178', '181', '182', '185', '186', '187', '189', '193', '196', '197', '204', '213', '214', '216', '218', '223', '225', '228', '231', '233', '234', '237', '238', '239', '241', '242', '247', '251', '253', '254', '255', '256', '257', '258', '260', '261', '262', '263', '264', '266', '269', '271', '273', '275', '276', '280', '281', '286', '292', '293', '294', '297', '298', '304', '311', '314', '316', '317', '318', '320', '324', '327', '333', '336', '337', '338', '339', '343', '346', '350', '353', '354', '360', '363', '365', '367', '368', '369', '370', '371', '372', '373', '375', '376', '381', '382', '383', '384', '390', '393', '394', '395', '400', '401', '402', '403', '405', '410', '412', '413', '414', '415', '417', '419', '421', '423', '425', '427', '429', '430', '434', '436', '438', '442', '445', '450', '452', '456', '457', '459', '460', '463', '465', '466', '468', '469', '473', '475', '476', '477', '478', '482', '484', '485', '490', '492', '495', '496', '498', '499', '501', '502', '503', '504', '510', '511', '513', '515', '517', '520', '521', '522', '523', '524', '525', '527', '528', '529', '531', '532', '534', '535', '536', '537', '538', '539', '544', '546', '549', '554', '558', '559', '561', '562', '565', '571', '572', '574', '576', '582', '586', '588', '589', '590', '596', '599', '600', '603', '604', '606', '608', '610', '611', '620', '621', '622', '626', '629', '631', '632', '634', '637', '639', '640', '643', '651', '653', '654', '657', '658', '664', '668', '669', '671', '675', '677', '678', '680', '683', '686', '687', '689', '691', '696', '697', '698', '699', '701', '702', '704', '707', '709', '710', '713', '716', '717', '721', '723', '724', '726', '727', '728', '731', '732', '733', '734', '735', '737', '741', '742', '744', '746', '747', '749', '753', '754', '755', '757', '758', '761', '763', '764', '766', '769', '772', '773', '774', '778', '779', '780', '782', '783', '785', '792', '794', '796', '800', '802', '804', '808', '809', '811', '814', '816', '818', '819', '820', '822', '823', '824', '826', '829', '830', '832', '833', '835', '836', '838', '840', '841', '845', '846', '852', '856', '857', '859', '861', '870', '871', '873', '875', '880', '881', '884', '887', '892', '896', '897', '898', '902', '903', '904', '905', '906', '907', '909', '911', '914', '916', '917', '920', '922', '923', '924', '925', '929', '930', '931', '934', '938', '939', '941', '943', '944', '948', '952', '955', '957', '958', '959', '960', '961', '964', '967', '971', '973', '978', '979', '981', '982', '983', '984', '985', '986', '987', '993', '994', '995', '998']",False,1000,True,100,2d82b23316,0.0,1.0,0.0
./expes/v3_2021-02-19_hi_1000-prng-1-w1-fpa10-0.6-p100,30_issda-1000,1000,first-1000,500,50,rng,num-start-2250,2250,25726,fpa-09-10-0.6-20,353.9713146686554,False,,False,0.28448011697539155,0.2813091648584096,0.2967969749108764,100,"['2', '3', '6', '9', '10', '11', '13', '15', '18', '19', '21', '22', '23', '25', '27', '28', '29', '30', '31', '32', '33', '34', '36', '37', '39', '41', '42', '43', '45', '47', '49', '58', '61', '65', '66', '67', '72', '73', '75', '77', '79', '84', '86', '87', '89', '92', '93', '94', '95', '97', '99', '102', '103', '104', '105', '106', '107', '110', '111', '112', '113', '115', '117', '118', '119', '121', '124', '129', '130', '133', '134', '137', '138', '139', '145', '146', '150', '151', '154', '158', '161', '163', '164', '165', '166', '168', '171', '172', '173', '174', '175', '176', '178', '182', '183', '184', '186', '188', '190', '191', '192', '193', '195', '199', '204', '205', '206', '211', '212', '213', '215', '218', '219', '221', '222', '223', '225', '226', '228', '229', '230', '231', '233', '235', '236', '237', '238', '239', '241', '246', '248', '249', '250', '251', '252', '253', '256', '257', '259', '260', '262', '265', '266', '273', '274', '275', '276', '280', '284', '288', '289', '291', '297', '298', '299', '301', '302', '303', '304', '306', '311', '313', '314', '315', '316', '318', '320', '321', '323', '324', '325', '326', '328', '329', '330', '334', '336', '340', '341', '343', '347', '348', '349', '350', '352', '353', '354', '355', '356', '362', '365', '366', '368', '370', '374', '376', '377', '380', '384', '388', '389', '390', '391', '393', '396', '400', '401', '403', '404', '405', '407', '409', '412', '414', '415', '417', '424', '425', '427', '432', '433', '437', '440', '443', '444', '446', '449', '450', '457', '459', '461', '462', '464', '466', '467', '469', '470', '471', '472', '481', '484', '486', '489', '492', '493', '497', '500', '501', '502', '505', '506', '508', '509', '512', '513', '514', '515', '517', '518', '519', '520', '521', '522', '523', '525', '527', '529', '532', '534', '537', '541', '546', '548', '552', '553', '554', '555', '556', '558', '559', '561', '562', '564', '565', '567', '568', '570', '575', '577', '578', '579', '580', '583', '584', '585', '588', '589', '590', '592', '593', '594', '599', '601', '602', '604', '605', '606', '608', '611', '615', '616', '617', '619', '621', '623', '624', '627', '628', '629', '630', '633', '638', '639', '640', '645', '646', '647', '651', '658', '659', '663', '664', '665', '666', '668', '673', '676', '678', '680', '681', '682', '687', '689', '690', '691', '692', '694', '695', '698', '703', '704', '705', '707', '712', '713', '720', '721', '722', '727', '729', '733', '737', '739', '740', '742', '743', '744', '747', '748', '751', '756', '759', '761', '762', '765', '769', '772', '773', '774', '778', '780', '781', '783', '786', '787', '789', '790', '795', '797', '798', '799', '801', '802', '803', '804', '805', '806', '808', '809', '812', '815', '816', '817', '818', '822', '823', '824', '826', '827', '828', '829', '831', '833', '837', '838', '840', '841', '842', '846', '848', '849', '850', '853', '855', '856', '858', '861', '862', '866', '867', '868', '869', '871', '872', '874', '878', '879', '880', '881', '882', '884', '887', '889', '891', '893', '897', '900', '903', '904', '907', '908', '909', '913', '915', '916', '918', '919', '922', '923', '924', '925', '929', '932', '933', '936', '937', '939', '940', '942', '943', '944', '945', '948', '949', '954', '955', '959', '961', '962', '964', '967', '968', '973', '975', '976', '978', '981', '983', '986', '988', '989', '990', '991', '992', '993', '994', '997', '998', '999', '1000']",False,1000,True,100,4b4ee3302e,0.0,1.0,0.0
./expes/v3_2021-02-19_hi_1000-prng-1-w1-fpa10-0.6-p100,30_issda-1000,1000,first-1000,100,10,rng,num-start-1750,1750,25726,fpa-09-10-0.6-20,381.5041630268097,False,,False,0.5720875522634148,0.5638919971037104,0.5802665415097622,100,"['14', '16', '30', '32', '37', '44', '66', '68', '100', '134', '138', '140', '155', '156', '164', '197', '223', '238', '240', '244', '265', '266', '276', '309', '345', '360', '375', '379', '396', '397', '400', '405', '407', '418', '432', '438', '447', '456', '481', '482', '485', '486', '488', '507', '520', '536', '547', '554', '558', '563', '565', '588', '591', '595', '599', '600', '606', '607', '610', '619', '621', '641', '642', '651', '655', '688', '689', '699', '732', '735', '737', '746', '760', '777', '796', '798', '799', '808', '821', '844', '854', '857', '858', '876', '877', '882', '887', '889', '900', '926', '931', '938', '943', '944', '949', '952', '959', '981', '988', '989']",False,1000,True,100,1156f15d60,0.0,1.0,0.0
./expes/v3_2021-02-19_hi_1000-prng-1-w1-fpa10-0.6-p100,30_issda-1000,1000,first-1000,200,20,rng,num-start-5000,5000,25726,fpa-09-10-0.6-20,548.2142300605774,False,,False,0.41851035544419224,0.4131913903627995,0.43403152002932144,100,"['8', '12', '14', '16', '21', '30', '32', '33', '37', '44', '46', '47', '62', '65', '66', '68', '69', '79', '91', '100', '106', '107', '111', '122', '128', '134', '137', '138', '140', '142', '155', '156', '160', '164', '168', '197', '203', '217', '223', '238', '240', '242', '244', '265', '266', '270', '274', '276', '278', '286', '287', '292', '299', '301', '309', '311', '318', '322', '323', '335', '339', '345', '348', '353', '360', '369', '375', '379', '386', '387', '396', '397', '400', '405', '407', '418', '421', '426', '432', '438', '442', '447', '448', '456', '472', '481', '482', '485', '486', '488', '494', '496', '507', '518', '520', '533', '534', '536', '547', '549', '554', '555', '558', '562', '563', '565', '573', '583', '586', '588', '591', '594', '595', '599', '600', '601', '604', '606', '607', '610', '615', '619', '620', '621', '626', '630', '631', '636', '641', '642', '643', '648', '649', '650', '651', '655', '660', '672', '688', '689', '698', '699', '707', '713', '716', '731', '732', '733', '735', '736', '737', '738', '746', '760', '777', '780', '788', '796', '798', '799', '808', '820', '821', '831', '844', '852', '854', '857', '858', '875', '876', '877', '882', '883', '887', '888', '889', '891', '894', '900', '903', '919', '926', '927', '931', '938', '943', '944', '945', '949', '952', '959', '964', '972', '981', '982', '988', '989', '995', '997']",False,1000,True,100,db15e656fd,0.0,1.0,0.0
