expe,clients,clients_size,clients_subset,agg_size,agg_size_pc,method,days,days_size,days_total,noise_method,time,valid,valid_sum,success,score_avg,score_min,score_max,nsols,oracle,wall_hit,wall_time,pooled,pool_size,uuid,infeasible,optimal,valid_sums
./expes/v2_2021-04-10_issda-daily_500-prng-1-w1-p2,daily_issda-500,500,first-500,400,80,rng,num-start-400,400,536,classic,19.934244632720947,True,,True,1.0,1.0,1.0,1,"['1', '2', '5', '7', '8', '9', '10', '11', '12', '14', '15', '17', '18', '19', '20', '21', '22', '24', '25', '26', '29', '30', '31', '32', '33', '34', '36', '37', '38', '40', '41', '42', '43', '44', '45', '46', '47', '48', '49', '51', '52', '54', '56', '57', '59', '60', '61', '62', '64', '66', '67', '68', '69', '70', '71', '72', '73', '75', '76', '77', '78', '79', '80', '81', '82', '83', '84', '85', '86', '87', '88', '90', '92', '93', '94', '95', '96', '97', '98', '99', '100', '102', '103', '104', '105', '106', '107', '108', '110', '111', '112', '113', '114', '115', '116', '120', '121', '123', '124', '125', '129', '131', '132', '133', '134', '135', '139', '141', '142', '143', '144', '145', '147', '148', '149', '150', '151', '154', '155', '156', '158', '159', '160', '162', '163', '164', '165', '166', '167', '169', '170', '171', '172', '173', '174', '175', '176', '178', '180', '181', '182', '183', '184', '185', '186', '188', '189', '190', '191', '193', '194', '195', '196', '197', '198', '199', '201', '202', '203', '204', '205', '206', '207', '208', '209', '210', '211', '213', '214', '215', '216', '217', '218', '219', '221', '223', '224', '227', '228', '229', '230', '231', '232', '235', '236', '239', '240', '241', '242', '243', '244', '245', '246', '247', '249', '250', '251', '252', '253', '254', '255', '256', '258', '259', '260', '261', '262', '265', '266', '267', '268', '269', '270', '271', '272', '273', '274', '275', '276', '277', '278', '279', '280', '281', '282', '283', '285', '286', '287', '288', '289', '290', '291', '292', '294', '295', '297', '299', '300', '301', '302', '303', '305', '306', '307', '308', '309', '310', '311', '312', '313', '314', '315', '317', '318', '320', '321', '322', '323', '325', '326', '327', '328', '329', '330', '331', '332', '333', '334', '335', '336', '337', '339', '340', '341', '343', '344', '345', '346', '347', '348', '349', '350', '351', '352', '353', '354', '358', '359', '360', '361', '362', '364', '365', '366', '367', '368', '369', '372', '373', '374', '375', '377', '379', '380', '383', '384', '386', '387', '388', '389', '391', '393', '396', '398', '399', '400', '401', '402', '404', '405', '406', '407', '409', '410', '412', '413', '414', '415', '416', '418', '419', '421', '422', '423', '424', '425', '426', '427', '428', '429', '430', '431', '432', '433', '434', '435', '436', '437', '438', '439', '441', '442', '443', '444', '445', '446', '447', '448', '449', '450', '452', '453', '454', '455', '456', '457', '458', '459', '460', '461', '462', '463', '464', '465', '466', '468', '469', '470', '471', '472', '473', '477', '478', '479', '480', '481', '483', '485', '486', '487', '489', '493', '494', '495', '496', '497', '498', '499', '500']",False,1000,True,2,0b08af79cb,0.0,1.0,1.0
./expes/v2_2021-04-10_issda-daily_500-prng-1-w1-p2,daily_issda-500,500,first-500,150,30,rng,num-start-350,350,536,classic,19.09973955154419,True,,True,1.0,1.0,1.0,1,"['1', '8', '17', '20', '21', '32', '33', '36', '38', '42', '46', '47', '48', '49', '51', '52', '56', '64', '67', '72', '73', '76', '77', '95', '96', '97', '98', '105', '111', '112', '114', '121', '123', '124', '125', '129', '133', '134', '141', '142', '145', '148', '149', '150', '155', '156', '159', '162', '163', '164', '167', '170', '171', '182', '184', '198', '201', '205', '208', '215', '216', '223', '227', '228', '230', '242', '244', '245', '249', '251', '253', '259', '261', '262', '267', '268', '269', '273', '277', '279', '281', '283', '287', '291', '295', '297', '299', '301', '302', '306', '309', '313', '314', '317', '321', '328', '337', '343', '348', '350', '351', '359', '361', '362', '364', '369', '374', '387', '388', '389', '402', '409', '410', '412', '413', '415', '416', '418', '421', '423', '424', '425', '429', '431', '432', '433', '435', '436', '444', '445', '446', '449', '456', '457', '459', '460', '461', '462', '465', '466', '468', '469', '470', '471', '473', '478', '487', '494', '495', '496']",False,1000,True,2,284f937070,0.0,1.0,1.0
./expes/v2_2021-04-10_issda-daily_500-prng-1-w1-p2,daily_issda-500,500,first-500,400,80,rng,num-start-500,500,536,classic,23.14351749420166,True,,True,1.0,1.0,1.0,1,"['1', '2', '3', '4', '5', '6', '7', '8', '9', '10', '11', '12', '13', '14', '15', '16', '17', '18', '19', '20', '21', '22', '23', '24', '25', '29', '31', '32', '33', '34', '36', '37', '38', '39', '40', '42', '43', '44', '45', '46', '47', '48', '49', '50', '51', '52', '53', '54', '55', '56', '57', '58', '59', '60', '61', '62', '65', '67', '69', '70', '71', '73', '75', '76', '77', '79', '81', '82', '83', '84', '86', '87', '88', '89', '91', '92', '93', '94', '95', '96', '97', '98', '100', '102', '103', '105', '106', '107', '108', '109', '110', '111', '112', '113', '114', '115', '116', '117', '118', '119', '120', '121', '123', '124', '125', '126', '127', '128', '129', '130', '131', '133', '137', '138', '140', '141', '142', '144', '145', '146', '149', '150', '151', '152', '153', '154', '156', '157', '158', '159', '160', '161', '162', '163', '164', '165', '167', '168', '170', '171', '172', '173', '174', '175', '176', '177', '178', '181', '182', '183', '184', '185', '187', '188', '189', '190', '192', '194', '195', '196', '197', '198', '200', '201', '202', '203', '204', '205', '206', '207', '208', '209', '212', '213', '214', '216', '217', '219', '220', '221', '222', '223', '225', '229', '230', '231', '232', '233', '234', '235', '236', '241', '242', '243', '245', '246', '247', '249', '250', '251', '253', '254', '255', '256', '257', '258', '259', '260', '261', '262', '263', '264', '265', '266', '267', '269', '271', '273', '274', '276', '277', '278', '279', '280', '281', '282', '283', '284', '285', '287', '288', '289', '290', '292', '293', '294', '295', '296', '297', '300', '301', '302', '303', '304', '306', '308', '309', '310', '311', '312', '313', '314', '315', '317', '319', '320', '323', '324', '326', '328', '329', '330', '331', '332', '333', '334', '335', '337', '338', '339', '340', '341', '342', '344', '345', '346', '347', '348', '349', '350', '352', '353', '354', '355', '356', '357', '360', '361', '364', '365', '366', '367', '369', '370', '371', '372', '373', '374', '375', '376', '378', '380', '381', '383', '385', '386', '387', '389', '390', '391', '392', '393', '394', '395', '398', '399', '400', '401', '402', '403', '404', '405', '406', '407', '408', '409', '411', '412', '413', '414', '415', '416', '417', '419', '420', '421', '423', '424', '425', '427', '428', '429', '431', '433', '434', '435', '436', '437', '439', '440', '441', '442', '444', '445', '446', '447', '449', '450', '452', '453', '454', '455', '457', '458', '459', '460', '461', '462', '463', '465', '466', '467', '468', '469', '470', '471', '472', '473', '474', '475', '477', '478', '480', '481', '482', '484', '487', '488', '489', '490', '491', '492', '493', '494', '495', '496', '497', '498', '499', '500']",False,1000,True,2,b9ab231d3d,0.0,1.0,1.0
