expe,clients,clients_size,clients_subset,agg_size,agg_size_pc,method,days,days_size,days_total,noise_method,time,valid,valid_sum,success,score_avg,score_min,score_max,nsols,oracle,wall_hit,wall_time,pooled,pool_size,uuid,infeasible,optimal,valid_sums
./expes/v2_2021-04-10_issda-daily_500-prng-1-w1-p2,daily_issda-500,500,first-500,100,20,rng,num-start-500,500,536,classic,25.413489818572998,True,,True,1.0,1.0,1.0,1,"['2', '5', '12', '14', '15', '16', '18', '33', '49', '52', '53', '61', '62', '69', '96', '98', '108', '111', '113', '114', '118', '119', '120', '131', '137', '146', '149', '152', '156', '163', '171', '177', '195', '196', '200', '202', '214', '217', '222', '225', '229', '231', '236', '242', '250', '254', '256', '257', '259', '260', '271', '278', '284', '285', '292', '301', '302', '303', '312', '323', '329', '333', '334', '344', '347', '352', '357', '365', '370', '371', '372', '381', '390', '391', '392', '393', '404', '411', '425', '428', '429', '434', '437', '441', '452', '458', '459', '462', '467', '470', '473', '475', '480', '481', '482', '484', '488', '496', '497', '499']",False,1000,True,2,e47d27431c,0.0,1.0,1.0
./expes/v2_2021-04-10_issda-daily_500-prng-1-w1-p2,daily_issda-500,500,first-500,400,80,rng,num-start-450,450,536,classic,20.0823335647583,True,,True,1.0,1.0,1.0,1,"['1', '2', '3', '4', '6', '7', '8', '10', '11', '12', '13', '14', '15', '16', '17', '18', '19', '22', '23', '24', '26', '27', '28', '29', '31', '32', '33', '34', '35', '36', '37', '38', '40', '41', '43', '44', '45', '46', '47', '48', '50', '51', '52', '53', '54', '55', '56', '59', '61', '62', '63', '64', '65', '66', '67', '68', '69', '70', '71', '74', '76', '77', '78', '80', '81', '82', '83', '84', '87', '88', '89', '91', '92', '93', '94', '95', '96', '98', '99', '102', '103', '106', '108', '109', '112', '114', '115', '116', '117', '118', '119', '120', '121', '122', '123', '124', '126', '128', '129', '130', '131', '133', '135', '136', '137', '138', '139', '141', '143', '144', '146', '147', '148', '149', '150', '151', '152', '153', '154', '155', '156', '158', '159', '161', '162', '164', '165', '166', '167', '168', '169', '170', '171', '172', '173', '174', '175', '177', '178', '180', '181', '183', '185', '187', '188', '189', '190', '191', '192', '193', '194', '195', '196', '198', '199', '200', '202', '203', '204', '205', '206', '209', '210', '211', '212', '213', '214', '215', '216', '217', '218', '219', '220', '221', '223', '224', '225', '227', '228', '231', '232', '233', '234', '236', '238', '239', '240', '241', '243', '244', '245', '246', '247', '248', '249', '250', '251', '254', '255', '257', '258', '259', '260', '262', '263', '264', '265', '266', '267', '268', '269', '270', '271', '272', '273', '274', '275', '276', '277', '278', '279', '281', '282', '283', '284', '285', '286', '287', '289', '291', '292', '293', '294', '295', '296', '297', '298', '300', '301', '302', '303', '304', '305', '307', '308', '310', '311', '312', '313', '314', '315', '316', '317', '318', '319', '321', '322', '324', '325', '326', '328', '329', '330', '331', '332', '333', '335', '336', '338', '340', '342', '344', '345', '346', '347', '348', '349', '350', '351', '352', '354', '356', '357', '358', '359', '360', '361', '362', '365', '366', '367', '368', '369', '370', '371', '373', '374', '375', '376', '377', '378', '380', '381', '382', '383', '384', '386', '388', '389', '390', '393', '394', '396', '397', '398', '399', '400', '401', '403', '404', '405', '406', '407', '408', '409', '410', '411', '412', '413', '414', '415', '416', '417', '419', '420', '421', '422', '424', '426', '427', '428', '429', '430', '431', '432', '433', '436', '437', '438', '439', '440', '441', '442', '443', '444', '445', '446', '447', '450', '451', '452', '453', '454', '455', '456', '457', '460', '461', '462', '463', '464', '466', '467', '468', '469', '470', '472', '473', '474', '475', '476', '479', '480', '481', '482', '483', '486', '487', '488', '489', '490', '491', '492', '494', '495', '496', '497', '498', '499', '500']",False,1000,True,2,20e780d239,0.0,1.0,1.0
