expe,clients,clients_size,clients_subset,agg_size,method,days,days_size,days_total,time,valid,valid_sum,success,nsols,wall_hit,wall_time,pooled,valid_sums
./expes/v2_2020-12-03_dh_50-prng-1,30_issda_50,50,rng-50,41,rng,num-start-801,801,25726,4.875361204147339,True,,True,1,False,1000,True,1.0
./expes/v2_2020-12-03_dh_50-prng-1,30_issda_50,50,rng-50,11,rng,num-start-321,321,25726,1.8896210193634033,True,,True,1,False,1000,True,1.0
./expes/v2_2020-12-03_dh_50-prng-1,30_issda_50,50,rng-50,21,rng,num-start-601,601,25726,3.813737630844116,True,,True,1,False,1000,True,1.0
./expes/v2_2020-12-03_dh_50-prng-1,30_issda_50,50,rng-50,31,rng,num-start-861,861,25726,5.120978593826294,True,,True,1,False,1000,True,1.0
./expes/v2_2020-12-03_dh_50-prng-1,30_issda_50,50,rng-50,11,rng,num-start-981,981,25726,5.741746664047241,True,,True,1,False,1000,True,1.0
./expes/v2_2020-12-03_dh_50-prng-1,30_issda_50,50,rng-50,41,rng,num-start-631,631,25726,3.7356808185577393,True,,True,1,False,1000,True,1.0
./expes/v2_2020-12-03_dh_50-prng-1,30_issda_50,50,rng-50,31,rng,num-start-221,221,25726,1.3069603443145752,True,,True,1,False,1000,True,1.0
./expes/v2_2020-12-03_dh_50-prng-1,30_issda_50,50,rng-50,31,rng,num-start-321,321,25726,1.8870086669921875,True,,True,1,False,1000,True,1.0
./expes/v2_2020-12-03_dh_50-prng-1,30_issda_50,50,rng-50,1,rng,num-start-21,21,25726,0.13433575630187988,True,,True,1,False,1000,True,1.0
./expes/v2_2020-12-03_dh_50-prng-1,30_issda_50,50,rng-50,11,rng,num-start-241,241,25726,1.5001072883605957,True,,True,1,False,1000,True,1.0
./expes/v2_2020-12-03_dh_50-prng-1,30_issda_50,50,rng-50,31,rng,num-start-451,451,25726,2.6810708045959473,True,,True,1,False,1000,True,1.0
./expes/v2_2020-12-03_dh_50-prng-1,30_issda_50,50,rng-50,1,rng,num-start-241,241,25726,1.4208929538726807,True,,True,1,False,1000,True,1.0
./expes/v2_2020-12-03_dh_50-prng-1,30_issda_50,50,rng-50,1,rng,num-start-211,211,25726,1.272042989730835,True,,True,1,False,1000,True,1.0
./expes/v2_2020-12-03_dh_50-prng-1,30_issda_50,50,rng-50,41,rng,num-start-911,911,25726,5.373475074768066,True,,True,1,False,1000,True,1.0
./expes/v2_2020-12-03_dh_50-prng-1,30_issda_50,50,rng-50,11,rng,num-start-81,81,25726,0.49029541015625,True,,True,1,False,1000,True,1.0
./expes/v2_2020-12-03_dh_50-prng-1,30_issda_50,50,rng-50,11,rng,num-start-581,581,25726,3.482299566268921,True,,True,1,False,1000,True,1.0
./expes/v2_2020-12-03_dh_50-prng-1,30_issda_50,50,rng-50,41,rng,num-start-931,931,25726,5.661250352859497,True,,True,1,False,1000,True,1.0
./expes/v2_2020-12-03_dh_50-prng-1,30_issda_50,50,rng-50,21,rng,num-start-461,461,25726,3.20870041847229,True,,True,1,False,1000,True,1.0
./expes/v2_2020-12-03_dh_50-prng-1,30_issda_50,50,rng-50,41,rng,num-start-561,561,25726,3.2668540477752686,True,,True,1,False,1000,True,1.0
./expes/v2_2020-12-03_dh_50-prng-1,30_issda_50,50,rng-50,31,rng,num-start-651,651,25726,4.129948616027832,True,,True,1,False,1000,True,1.0
./expes/v2_2020-12-03_dh_50-prng-1,30_issda_50,50,rng-50,31,rng,num-start-801,801,25726,4.86966347694397,True,,True,1,False,1000,True,1.0
./expes/v2_2020-12-03_dh_50-prng-1,30_issda_50,50,rng-50,11,rng,num-start-891,891,25726,5.234755516052246,True,,True,1,False,1000,True,1.0
./expes/v2_2020-12-03_dh_50-prng-1,30_issda_50,50,rng-50,1,rng,num-start-1,1,25726,0.018149137496948242,True,,True,1,False,1000,True,1.0
./expes/v2_2020-12-03_dh_50-prng-1,30_issda_50,50,rng-50,21,rng,num-start-771,771,25726,4.647692918777466,True,,True,1,False,1000,True,1.0
./expes/v2_2020-12-03_dh_50-prng-1,30_issda_50,50,rng-50,21,rng,num-start-891,891,25726,5.292628526687622,True,,True,1,False,1000,True,1.0
./expes/v2_2020-12-03_dh_50-prng-1,30_issda_50,50,rng-50,21,rng,num-start-231,231,25726,1.3874342441558838,True,,True,1,False,1000,True,1.0
./expes/v2_2020-12-03_dh_50-prng-1,30_issda_50,50,rng-50,41,rng,num-start-611,611,25726,3.6908204555511475,True,,True,1,False,1000,True,1.0
./expes/v2_2020-12-03_dh_50-prng-1,30_issda_50,50,rng-50,11,rng,num-start-261,261,25726,1.557650089263916,True,,True,1,False,1000,True,1.0
./expes/v2_2020-12-03_dh_50-prng-1,30_issda_50,50,rng-50,1,rng,num-start-711,711,25726,4.189042568206787,True,,True,1,False,1000,True,1.0
./expes/v2_2020-12-03_dh_50-prng-1,30_issda_50,50,rng-50,41,rng,num-start-941,941,25726,5.65367579460144,True,,True,1,False,1000,True,1.0
./expes/v2_2020-12-03_dh_50-prng-1,30_issda_50,50,rng-50,41,rng,num-start-581,581,25726,3.462921380996704,True,,True,1,False,1000,True,1.0
./expes/v2_2020-12-03_dh_50-prng-1,30_issda_50,50,rng-50,1,rng,num-start-231,231,25726,1.3534753322601318,True,,True,1,False,1000,True,1.0
./expes/v2_2020-12-03_dh_50-prng-1,30_issda_50,50,rng-50,11,rng,num-start-641,641,25726,3.8155155181884766,True,,True,1,False,1000,True,1.0
./expes/v2_2020-12-03_dh_50-prng-1,30_issda_50,50,rng-50,21,rng,num-start-541,541,25726,3.273496389389038,True,,True,1,False,1000,True,1.0
./expes/v2_2020-12-03_dh_50-prng-1,30_issda_50,50,rng-50,11,rng,num-start-81,81,25726,0.4937765598297119,True,,True,1,False,1000,True,1.0
./expes/v2_2020-12-03_dh_50-prng-1,30_issda_50,50,rng-50,41,rng,num-start-381,381,25726,2.3350298404693604,True,,True,1,False,1000,True,1.0
./expes/v2_2020-12-03_dh_50-prng-1,30_issda_50,50,rng-50,1,rng,num-start-91,91,25726,0.537663459777832,True,,True,1,False,1000,True,1.0
./expes/v2_2020-12-03_dh_50-prng-1,30_issda_50,50,rng-50,1,rng,num-start-331,331,25726,1.9653246402740479,True,,True,1,False,1000,True,1.0
./expes/v2_2020-12-03_dh_50-prng-1,30_issda_50,50,rng-50,1,rng,num-start-701,701,25726,4.092835903167725,True,,True,1,False,1000,True,1.0
./expes/v2_2020-12-03_dh_50-prng-1,30_issda_50,50,rng-50,31,rng,num-start-291,291,25726,1.7286877632141113,True,,True,1,False,1000,True,1.0
./expes/v2_2020-12-03_dh_50-prng-1,30_issda_50,50,rng-50,11,rng,num-start-711,711,25726,4.173006296157837,True,,True,1,False,1000,True,1.0
./expes/v2_2020-12-03_dh_50-prng-1,30_issda_50,50,rng-50,31,rng,num-start-601,601,25726,3.8664400577545166,True,,True,1,False,1000,True,1.0
./expes/v2_2020-12-03_dh_50-prng-1,30_issda_50,50,rng-50,31,rng,num-start-521,521,25726,3.1441469192504883,True,,True,1,False,1000,True,1.0
./expes/v2_2020-12-03_dh_50-prng-1,30_issda_50,50,rng-50,41,rng,num-start-831,831,25726,4.924600601196289,True,,True,1,False,1000,True,1.0
./expes/v2_2020-12-03_dh_50-prng-1,30_issda_50,50,rng-50,11,rng,num-start-631,631,25726,3.797985792160034,True,,True,1,False,1000,True,1.0
./expes/v2_2020-12-03_dh_50-prng-1,30_issda_50,50,rng-50,1,rng,num-start-241,241,25726,1.4148874282836914,True,,True,1,False,1000,True,1.0
./expes/v2_2020-12-03_dh_50-prng-1,30_issda_50,50,rng-50,31,rng,num-start-481,481,25726,3.132683277130127,True,,True,1,False,1000,True,1.0
./expes/v2_2020-12-03_dh_50-prng-1,30_issda_50,50,rng-50,41,rng,num-start-871,871,25726,5.0934247970581055,True,,True,1,False,1000,True,1.0
./expes/v2_2020-12-03_dh_50-prng-1,30_issda_50,50,rng-50,11,rng,num-start-191,191,25726,1.183976173400879,True,,True,1,False,1000,True,1.0
./expes/v2_2020-12-03_dh_50-prng-1,30_issda_50,50,rng-50,41,rng,num-start-91,91,25726,0.5777361392974854,True,,True,1,False,1000,True,1.0
./expes/v2_2020-12-03_dh_50-prng-1,30_issda_50,50,rng-50,11,rng,num-start-561,561,25726,3.3005380630493164,True,,True,1,False,1000,True,1.0
./expes/v2_2020-12-03_dh_50-prng-1,30_issda_50,50,rng-50,11,rng,num-start-371,371,25726,2.198005199432373,True,,True,1,False,1000,True,1.0
./expes/v2_2020-12-03_dh_50-prng-1,30_issda_50,50,rng-50,11,rng,num-start-261,261,25726,1.5516364574432373,True,,True,1,False,1000,True,1.0
./expes/v2_2020-12-03_dh_50-prng-1,30_issda_50,50,rng-50,1,rng,num-start-391,391,25726,2.315004348754883,True,,True,1,False,1000,True,1.0
./expes/v2_2020-12-03_dh_50-prng-1,30_issda_50,50,rng-50,1,rng,num-start-111,111,25726,0.6777291297912598,True,,True,1,False,1000,True,1.0
./expes/v2_2020-12-03_dh_50-prng-1,30_issda_50,50,rng-50,21,rng,num-start-611,611,25726,3.6613197326660156,True,,True,1,False,1000,True,1.0
./expes/v2_2020-12-03_dh_50-prng-1,30_issda_50,50,rng-50,11,rng,num-start-881,881,25726,5.163197040557861,True,,True,1,False,1000,True,1.0
./expes/v2_2020-12-03_dh_50-prng-1,30_issda_50,50,rng-50,1,rng,num-start-391,391,25726,2.2875092029571533,True,,True,1,False,1000,True,1.0
./expes/v2_2020-12-03_dh_50-prng-1,30_issda_50,50,rng-50,11,rng,num-start-601,601,25726,3.505661964416504,True,,True,1,False,1000,True,1.0
./expes/v2_2020-12-03_dh_50-prng-1,30_issda_50,50,rng-50,11,rng,num-start-781,781,25726,4.624056100845337,True,,True,1,False,1000,True,1.0
./expes/v2_2020-12-03_dh_50-prng-1,30_issda_50,50,rng-50,21,rng,num-start-1,1,25726,0.031142473220825195,False,,False,2,False,1000,True,1.0
./expes/v2_2020-12-03_dh_50-prng-1,30_issda_50,50,rng-50,11,rng,num-start-451,451,25726,2.7012221813201904,True,,True,1,False,1000,True,1.0
./expes/v2_2020-12-03_dh_50-prng-1,30_issda_50,50,rng-50,41,rng,num-start-631,631,25726,3.764721632003784,True,,True,1,False,1000,True,1.0
./expes/v2_2020-12-03_dh_50-prng-1,30_issda_50,50,rng-50,31,rng,num-start-771,771,25726,4.572895288467407,True,,True,1,False,1000,True,1.0
./expes/v2_2020-12-03_dh_50-prng-1,30_issda_50,50,rng-50,1,rng,num-start-801,801,25726,4.719262361526489,True,,True,1,False,1000,True,1.0
./expes/v2_2020-12-03_dh_50-prng-1,30_issda_50,50,rng-50,21,rng,num-start-711,711,25726,4.178377628326416,True,,True,1,False,1000,True,1.0
./expes/v2_2020-12-03_dh_50-prng-1,30_issda_50,50,rng-50,31,rng,num-start-161,161,25726,0.9842803478240967,True,,True,1,False,1000,True,1.0
./expes/v2_2020-12-03_dh_50-prng-1,30_issda_50,50,rng-50,31,rng,num-start-901,901,25726,5.3482489585876465,True,,True,1,False,1000,True,1.0
./expes/v2_2020-12-03_dh_50-prng-1,30_issda_50,50,rng-50,31,rng,num-start-411,411,25726,2.425046920776367,True,,True,1,False,1000,True,1.0
./expes/v2_2020-12-03_dh_50-prng-1,30_issda_50,50,rng-50,31,rng,num-start-621,621,25726,3.7960240840911865,True,,True,1,False,1000,True,1.0
./expes/v2_2020-12-03_dh_50-prng-1,30_issda_50,50,rng-50,31,rng,num-start-441,441,25726,2.6160712242126465,True,,True,1,False,1000,True,1.0
./expes/v2_2020-12-03_dh_50-prng-1,30_issda_50,50,rng-50,41,rng,num-start-651,651,25726,3.912968158721924,True,,True,1,False,1000,True,1.0
./expes/v2_2020-12-03_dh_50-prng-1,30_issda_50,50,rng-50,31,rng,num-start-311,311,25726,1.9108660221099854,True,,True,1,False,1000,True,1.0
./expes/v2_2020-12-03_dh_50-prng-1,30_issda_50,50,rng-50,11,rng,num-start-481,481,25726,2.8192572593688965,True,,True,1,False,1000,True,1.0
./expes/v2_2020-12-03_dh_50-prng-1,30_issda_50,50,rng-50,41,rng,num-start-141,141,25726,0.8501055240631104,True,,True,1,False,1000,True,1.0
./expes/v2_2020-12-03_dh_50-prng-1,30_issda_50,50,rng-50,21,rng,num-start-51,51,25726,0.42094850540161133,True,,True,1,False,1000,True,1.0
./expes/v2_2020-12-03_dh_50-prng-1,30_issda_50,50,rng-50,31,rng,num-start-861,861,25726,7.05801796913147,True,,True,1,False,1000,True,1.0
./expes/v2_2020-12-03_dh_50-prng-1,30_issda_50,50,rng-50,31,rng,num-start-821,821,25726,5.371456146240234,True,,True,1,False,1000,True,1.0
./expes/v2_2020-12-03_dh_50-prng-1,30_issda_50,50,rng-50,21,rng,num-start-601,601,25726,3.7463467121124268,True,,True,1,False,1000,True,1.0
./expes/v2_2020-12-03_dh_50-prng-1,30_issda_50,50,rng-50,11,rng,num-start-931,931,25726,5.738168239593506,True,,True,1,False,1000,True,1.0
./expes/v2_2020-12-03_dh_50-prng-1,30_issda_50,50,rng-50,31,rng,num-start-821,821,25726,5.016900062561035,True,,True,1,False,1000,True,1.0
./expes/v2_2020-12-03_dh_50-prng-1,30_issda_50,50,rng-50,11,rng,num-start-201,201,25726,1.2190511226654053,True,,True,1,False,1000,True,1.0
./expes/v2_2020-12-03_dh_50-prng-1,30_issda_50,50,rng-50,21,rng,num-start-11,11,25726,0.5546271800994873,True,,True,1,False,1000,True,1.0
./expes/v2_2020-12-03_dh_50-prng-1,30_issda_50,50,rng-50,31,rng,num-start-461,461,25726,2.763606309890747,True,,True,1,False,1000,True,1.0
./expes/v2_2020-12-03_dh_50-prng-1,30_issda_50,50,rng-50,31,rng,num-start-221,221,25726,1.4778804779052734,True,,True,1,False,1000,True,1.0
./expes/v2_2020-12-03_dh_50-prng-1,30_issda_50,50,rng-50,11,rng,num-start-421,421,25726,2.6296024322509766,True,,True,1,False,1000,True,1.0
./expes/v2_2020-12-03_dh_50-prng-1,30_issda_50,50,rng-50,21,rng,num-start-851,851,25726,5.473470449447632,True,,True,1,False,1000,True,1.0
./expes/v2_2020-12-03_dh_50-prng-1,30_issda_50,50,rng-50,41,rng,num-start-21,21,25726,0.2664811611175537,True,,True,1,False,1000,True,1.0
./expes/v2_2020-12-03_dh_50-prng-1,30_issda_50,50,rng-50,11,rng,num-start-311,311,25726,1.8691284656524658,True,,True,1,False,1000,True,1.0
./expes/v2_2020-12-03_dh_50-prng-1,30_issda_50,50,rng-50,41,rng,num-start-261,261,25726,1.6465470790863037,True,,True,1,False,1000,True,1.0
./expes/v2_2020-12-03_dh_50-prng-1,30_issda_50,50,rng-50,1,rng,num-start-951,951,25726,5.722696542739868,True,,True,1,False,1000,True,1.0
./expes/v2_2020-12-03_dh_50-prng-1,30_issda_50,50,rng-50,21,rng,num-start-571,571,25726,3.543945550918579,True,,True,1,False,1000,True,1.0
./expes/v2_2020-12-03_dh_50-prng-1,30_issda_50,50,rng-50,21,rng,num-start-851,851,25726,5.1796715259552,True,,True,1,False,1000,True,1.0
./expes/v2_2020-12-03_dh_50-prng-1,30_issda_50,50,rng-50,21,rng,num-start-491,491,25726,3.159597396850586,True,,True,1,False,1000,True,1.0
./expes/v2_2020-12-03_dh_50-prng-1,30_issda_50,50,rng-50,31,rng,num-start-41,41,25726,0.4127213954925537,True,,True,1,False,1000,True,1.0
./expes/v2_2020-12-03_dh_50-prng-1,30_issda_50,50,rng-50,41,rng,num-start-181,181,25726,1.243844747543335,True,,True,1,False,1000,True,1.0
./expes/v2_2020-12-03_dh_50-prng-1,30_issda_50,50,rng-50,1,rng,num-start-571,571,25726,4.029914379119873,True,,True,1,False,1000,True,1.0
./expes/v2_2020-12-03_dh_50-prng-1,30_issda_50,50,rng-50,1,rng,num-start-691,691,25726,4.7343645095825195,True,,True,1,False,1000,True,1.0
./expes/v2_2020-12-03_dh_50-prng-1,30_issda_50,50,rng-50,31,rng,num-start-591,591,25726,4.1607654094696045,True,,True,1,False,1000,True,1.0
./expes/v2_2020-12-03_dh_50-prng-1,30_issda_50,50,rng-50,1,rng,num-start-361,361,25726,2.7130849361419678,True,,True,1,False,1000,True,1.0
./expes/v2_2020-12-03_dh_50-prng-1,30_issda_50,50,rng-50,41,rng,num-start-71,71,25726,0.6489007472991943,True,,True,1,False,1000,True,1.0
./expes/v2_2020-12-03_dh_50-prng-1,30_issda_50,50,rng-50,31,rng,num-start-671,671,25726,4.942213296890259,True,,True,1,False,1000,True,1.0
./expes/v2_2020-12-03_dh_50-prng-1,30_issda_50,50,rng-50,41,rng,num-start-711,711,25726,5.0748748779296875,True,,True,1,False,1000,True,1.0
./expes/v2_2020-12-03_dh_50-prng-1,30_issda_50,50,rng-50,1,rng,num-start-491,491,25726,3.397519826889038,True,,True,1,False,1000,True,1.0
./expes/v2_2020-12-03_dh_50-prng-1,30_issda_50,50,rng-50,1,rng,num-start-531,531,25726,3.867140769958496,True,,True,1,False,1000,True,1.0
./expes/v2_2020-12-03_dh_50-prng-1,30_issda_50,50,rng-50,21,rng,num-start-841,841,25726,6.36177134513855,True,,True,1,False,1000,True,1.0
./expes/v2_2020-12-03_dh_50-prng-1,30_issda_50,50,rng-50,11,rng,num-start-381,381,25726,2.656047821044922,True,,True,1,False,1000,True,1.0
./expes/v2_2020-12-03_dh_50-prng-1,30_issda_50,50,rng-50,11,rng,num-start-31,31,25726,0.3336336612701416,True,,True,1,False,1000,True,1.0
./expes/v2_2020-12-03_dh_50-prng-1,30_issda_50,50,rng-50,31,rng,num-start-601,601,25726,4.373485326766968,True,,True,1,False,1000,True,1.0
./expes/v2_2020-12-03_dh_50-prng-1,30_issda_50,50,rng-50,21,rng,num-start-261,261,25726,1.589578628540039,True,,True,1,False,1000,True,1.0
./expes/v2_2020-12-03_dh_50-prng-1,30_issda_50,50,rng-50,1,rng,num-start-21,21,25726,0.13834762573242188,True,,True,1,False,1000,True,1.0
./expes/v2_2020-12-03_dh_50-prng-1,30_issda_50,50,rng-50,1,rng,num-start-331,331,25726,1.976872444152832,True,,True,1,False,1000,True,1.0
./expes/v2_2020-12-03_dh_50-prng-1,30_issda_50,50,rng-50,41,rng,num-start-911,911,25726,5.504958152770996,True,,True,1,False,1000,True,1.0
./expes/v2_2020-12-03_dh_50-prng-1,30_issda_50,50,rng-50,31,rng,num-start-931,931,25726,5.538646221160889,True,,True,1,False,1000,True,1.0
./expes/v2_2020-12-03_dh_50-prng-1,30_issda_50,50,rng-50,21,rng,num-start-481,481,25726,3.0664727687835693,True,,True,1,False,1000,True,1.0
./expes/v2_2020-12-03_dh_50-prng-1,30_issda_50,50,rng-50,31,rng,num-start-501,501,25726,3.1362357139587402,True,,True,1,False,1000,True,1.0
./expes/v2_2020-12-03_dh_50-prng-1,30_issda_50,50,rng-50,21,rng,num-start-31,31,25726,0.30184435844421387,True,,True,1,False,1000,True,1.0
./expes/v2_2020-12-03_dh_50-prng-1,30_issda_50,50,rng-50,11,rng,num-start-581,581,25726,3.4119107723236084,True,,True,1,False,1000,True,1.0
./expes/v2_2020-12-03_dh_50-prng-1,30_issda_50,50,rng-50,21,rng,num-start-321,321,25726,1.9430413246154785,True,,True,1,False,1000,True,1.0
./expes/v2_2020-12-03_dh_50-prng-1,30_issda_50,50,rng-50,41,rng,num-start-581,581,25726,3.426903247833252,True,,True,1,False,1000,True,1.0
./expes/v2_2020-12-03_dh_50-prng-1,30_issda_50,50,rng-50,11,rng,num-start-501,501,25726,3.071932077407837,True,,True,1,False,1000,True,1.0
./expes/v2_2020-12-03_dh_50-prng-1,30_issda_50,50,rng-50,31,rng,num-start-591,591,25726,3.7314629554748535,True,,True,1,False,1000,True,1.0
./expes/v2_2020-12-03_dh_50-prng-1,30_issda_50,50,rng-50,41,rng,num-start-951,951,25726,5.658146858215332,True,,True,1,False,1000,True,1.0
./expes/v2_2020-12-03_dh_50-prng-1,30_issda_50,50,rng-50,41,rng,num-start-1,1,25726,0.20653748512268066,False,,False,2,False,1000,True,1.0
./expes/v2_2020-12-03_dh_50-prng-1,30_issda_50,50,rng-50,1,rng,num-start-641,641,25726,3.845223903656006,True,,True,1,False,1000,True,1.0
./expes/v2_2020-12-03_dh_50-prng-1,30_issda_50,50,rng-50,21,rng,num-start-781,781,25726,4.768983840942383,True,,True,1,False,1000,True,1.0
./expes/v2_2020-12-03_dh_50-prng-1,30_issda_50,50,rng-50,31,rng,num-start-371,371,25726,2.3962602615356445,True,,True,1,False,1000,True,1.0
./expes/v2_2020-12-03_dh_50-prng-1,30_issda_50,50,rng-50,41,rng,num-start-571,571,25726,3.3165340423583984,True,,True,1,False,1000,True,1.0
./expes/v2_2020-12-03_dh_50-prng-1,30_issda_50,50,rng-50,21,rng,num-start-731,731,25726,4.485663175582886,True,,True,1,False,1000,True,1.0
./expes/v2_2020-12-03_dh_50-prng-1,30_issda_50,50,rng-50,21,rng,num-start-971,971,25726,5.78361701965332,True,,True,1,False,1000,True,1.0
./expes/v2_2020-12-03_dh_50-prng-1,30_issda_50,50,rng-50,1,rng,num-start-191,191,25726,1.152480125427246,True,,True,1,False,1000,True,1.0
./expes/v2_2020-12-03_dh_50-prng-1,30_issda_50,50,rng-50,11,rng,num-start-581,581,25726,3.4203433990478516,True,,True,1,False,1000,True,1.0
./expes/v2_2020-12-03_dh_50-prng-1,30_issda_50,50,rng-50,21,rng,num-start-231,231,25726,1.4417994022369385,True,,True,1,False,1000,True,1.0
./expes/v2_2020-12-03_dh_50-prng-1,30_issda_50,50,rng-50,1,rng,num-start-821,821,25726,4.9178080558776855,True,,True,1,False,1000,True,1.0
./expes/v2_2020-12-03_dh_50-prng-1,30_issda_50,50,rng-50,41,rng,num-start-251,251,25726,1.5833015441894531,True,,True,1,False,1000,True,1.0
./expes/v2_2020-12-03_dh_50-prng-1,30_issda_50,50,rng-50,21,rng,num-start-181,181,25726,1.9415478706359863,True,,True,1,False,1000,True,1.0
./expes/v2_2020-12-03_dh_50-prng-1,30_issda_50,50,rng-50,41,rng,num-start-781,781,25726,4.599894762039185,True,,True,1,False,1000,True,1.0
./expes/v2_2020-12-03_dh_50-prng-1,30_issda_50,50,rng-50,41,rng,num-start-541,541,25726,3.2070963382720947,True,,True,1,False,1000,True,1.0
./expes/v2_2020-12-03_dh_50-prng-1,30_issda_50,50,rng-50,31,rng,num-start-471,471,25726,2.8268394470214844,True,,True,1,False,1000,True,1.0
./expes/v2_2020-12-03_dh_50-prng-1,30_issda_50,50,rng-50,1,rng,num-start-531,531,25726,3.2780613899230957,True,,True,1,False,1000,True,1.0
./expes/v2_2020-12-03_dh_50-prng-1,30_issda_50,50,rng-50,31,rng,num-start-321,321,25726,1.9008426666259766,True,,True,1,False,1000,True,1.0
./expes/v2_2020-12-03_dh_50-prng-1,30_issda_50,50,rng-50,11,rng,num-start-661,661,25726,3.9751381874084473,True,,True,1,False,1000,True,1.0
./expes/v2_2020-12-03_dh_50-prng-1,30_issda_50,50,rng-50,11,rng,num-start-231,231,25726,1.363239049911499,True,,True,1,False,1000,True,1.0
./expes/v2_2020-12-03_dh_50-prng-1,30_issda_50,50,rng-50,21,rng,num-start-631,631,25726,3.927565336227417,True,,True,1,False,1000,True,1.0
./expes/v2_2020-12-03_dh_50-prng-1,30_issda_50,50,rng-50,31,rng,num-start-991,991,25726,6.250057935714722,True,,True,1,False,1000,True,1.0
./expes/v2_2020-12-03_dh_50-prng-1,30_issda_50,50,rng-50,21,rng,num-start-351,351,25726,2.155562400817871,True,,True,1,False,1000,True,1.0
./expes/v2_2020-12-03_dh_50-prng-1,30_issda_50,50,rng-50,11,rng,num-start-451,451,25726,2.6488406658172607,True,,True,1,False,1000,True,1.0
./expes/v2_2020-12-03_dh_50-prng-1,30_issda_50,50,rng-50,1,rng,num-start-201,201,25726,1.2122783660888672,True,,True,1,False,1000,True,1.0
./expes/v2_2020-12-03_dh_50-prng-1,30_issda_50,50,rng-50,21,rng,num-start-811,811,25726,5.007335662841797,True,,True,1,False,1000,True,1.0
./expes/v2_2020-12-03_dh_50-prng-1,30_issda_50,50,rng-50,41,rng,num-start-841,841,25726,5.028554916381836,True,,True,1,False,1000,True,1.0
./expes/v2_2020-12-03_dh_50-prng-1,30_issda_50,50,rng-50,41,rng,num-start-731,731,25726,4.3158721923828125,True,,True,1,False,1000,True,1.0
./expes/v2_2020-12-03_dh_50-prng-1,30_issda_50,50,rng-50,1,rng,num-start-231,231,25726,1.3710486888885498,True,,True,1,False,1000,True,1.0
./expes/v2_2020-12-03_dh_50-prng-1,30_issda_50,50,rng-50,31,rng,num-start-621,621,25726,3.7463912963867188,True,,True,1,False,1000,True,1.0
./expes/v2_2020-12-03_dh_50-prng-1,30_issda_50,50,rng-50,11,rng,num-start-401,401,25726,2.3908944129943848,True,,True,1,False,1000,True,1.0
./expes/v2_2020-12-03_dh_50-prng-1,30_issda_50,50,rng-50,1,rng,num-start-301,301,25726,1.7944238185882568,True,,True,1,False,1000,True,1.0
./expes/v2_2020-12-03_dh_50-prng-1,30_issda_50,50,rng-50,41,rng,num-start-341,341,25726,2.025855779647827,True,,True,1,False,1000,True,1.0
./expes/v2_2020-12-03_dh_50-prng-1,30_issda_50,50,rng-50,41,rng,num-start-871,871,25726,5.25047492980957,True,,True,1,False,1000,True,1.0
./expes/v2_2020-12-03_dh_50-prng-1,30_issda_50,50,rng-50,11,rng,num-start-821,821,25726,4.970377445220947,True,,True,1,False,1000,True,1.0
./expes/v2_2020-12-03_dh_50-prng-1,30_issda_50,50,rng-50,31,rng,num-start-911,911,25726,5.573749303817749,True,,True,1,False,1000,True,1.0
./expes/v2_2020-12-03_dh_50-prng-1,30_issda_50,50,rng-50,21,rng,num-start-451,451,25726,2.9455807209014893,True,,True,1,False,1000,True,1.0
./expes/v2_2020-12-03_dh_50-prng-1,30_issda_50,50,rng-50,21,rng,num-start-501,501,25726,3.346633195877075,True,,True,1,False,1000,True,1.0
./expes/v2_2020-12-03_dh_50-prng-1,30_issda_50,50,rng-50,41,rng,num-start-771,771,25726,4.591127634048462,True,,True,1,False,1000,True,1.0
./expes/v2_2020-12-03_dh_50-prng-1,30_issda_50,50,rng-50,21,rng,num-start-321,321,25726,2.0886058807373047,True,,True,1,False,1000,True,1.0
./expes/v2_2020-12-03_dh_50-prng-1,30_issda_50,50,rng-50,21,rng,num-start-521,521,25726,3.3518002033233643,True,,True,1,False,1000,True,1.0
./expes/v2_2020-12-03_dh_50-prng-1,30_issda_50,50,rng-50,41,rng,num-start-481,481,25726,2.8728208541870117,True,,True,1,False,1000,True,1.0
./expes/v2_2020-12-03_dh_50-prng-1,30_issda_50,50,rng-50,21,rng,num-start-591,591,25726,3.8132784366607666,True,,True,1,False,1000,True,1.0
./expes/v2_2020-12-03_dh_50-prng-1,30_issda_50,50,rng-50,1,rng,num-start-701,701,25726,4.175896644592285,True,,True,1,False,1000,True,1.0
./expes/v2_2020-12-03_dh_50-prng-1,30_issda_50,50,rng-50,11,rng,num-start-671,671,25726,3.9508917331695557,True,,True,1,False,1000,True,1.0
./expes/v2_2020-12-03_dh_50-prng-1,30_issda_50,50,rng-50,31,rng,num-start-551,551,25726,3.2311394214630127,True,,True,1,False,1000,True,1.0
./expes/v2_2020-12-03_dh_50-prng-1,30_issda_50,50,rng-50,21,rng,num-start-921,921,25726,5.504748582839966,True,,True,1,False,1000,True,1.0
./expes/v2_2020-12-03_dh_50-prng-1,30_issda_50,50,rng-50,41,rng,num-start-241,241,25726,1.49652099609375,True,,True,1,False,1000,True,1.0
./expes/v2_2020-12-03_dh_50-prng-1,30_issda_50,50,rng-50,41,rng,num-start-421,421,25726,2.3693625926971436,True,,True,1,False,1000,True,1.0
