expe,clients,clients_size,clients_subset,agg_size,method,days,days_size,days_total,time,valid,valid_sum,success,nsols,wall_hit,wall_time,pooled,valid_sums
./expes/v2_2020-11-04_hbh_200-prng-1,30_base_hphc_200,200,first-200,1,rng,num-start-941,941,17520,21.741973638534546,True,,True,1,False,1000,True,1.0
./expes/v2_2020-11-04_hbh_200-prng-1,30_base_hphc_200,200,first-200,181,rng,num-start-461,461,17520,12.122910737991333,True,,True,1,False,1000,True,1.0
./expes/v2_2020-11-04_hbh_200-prng-1,30_base_hphc_200,200,first-200,161,rng,num-start-181,181,17520,5.6154396533966064,True,,True,1,False,1000,True,1.0
./expes/v2_2020-11-04_hbh_200-prng-1,30_base_hphc_200,200,first-200,101,rng,num-start-531,531,17520,13.895812034606934,True,,True,1,False,1000,True,1.0
./expes/v2_2020-11-04_hbh_200-prng-1,30_base_hphc_200,200,first-200,31,rng,num-start-401,401,17520,10.45754075050354,True,,True,1,False,1000,True,1.0
./expes/v2_2020-11-04_hbh_200-prng-1,30_base_hphc_200,200,first-200,111,rng,num-start-431,431,17520,11.365497350692749,True,,True,1,False,1000,True,1.0
./expes/v2_2020-11-04_hbh_200-prng-1,30_base_hphc_200,200,first-200,41,rng,num-start-211,211,17520,6.110788822174072,True,,True,1,False,1000,True,1.0
./expes/v2_2020-11-04_hbh_200-prng-1,30_base_hphc_200,200,first-200,141,rng,num-start-211,211,17520,6.1994500160217285,True,,True,1,False,1000,True,1.0
./expes/v2_2020-11-04_hbh_200-prng-1,30_base_hphc_200,200,first-200,61,rng,num-start-551,551,17520,15.292510509490967,True,,True,1,False,1000,True,1.0
./expes/v2_2020-11-04_hbh_200-prng-1,30_base_hphc_200,200,first-200,71,rng,num-start-651,651,17520,16.472473859786987,True,,True,1,False,1000,True,1.0
./expes/v2_2020-11-04_hbh_200-prng-1,30_base_hphc_200,200,first-200,121,rng,num-start-291,291,17520,8.137119054794312,True,,True,1,False,1000,True,1.0
./expes/v2_2020-11-04_hbh_200-prng-1,30_base_hphc_200,200,first-200,31,rng,num-start-711,711,17520,18.16821813583374,True,,True,1,False,1000,True,1.0
./expes/v2_2020-11-04_hbh_200-prng-1,30_base_hphc_200,200,first-200,101,rng,num-start-51,51,17520,1001.2628352642059,False,,False,0,True,1000,True,0.0
./expes/v2_2020-11-04_hbh_200-prng-1,30_base_hphc_200,200,first-200,181,rng,num-start-581,581,17520,15.248157739639282,True,,True,1,False,1000,True,1.0
./expes/v2_2020-11-04_hbh_200-prng-1,30_base_hphc_200,200,first-200,171,rng,num-start-911,911,17520,25.328153133392334,True,,True,1,False,1000,True,1.0
./expes/v2_2020-11-04_hbh_200-prng-1,30_base_hphc_200,200,first-200,121,rng,num-start-971,971,17520,27.216154098510742,True,,True,1,False,1000,True,1.0
./expes/v2_2020-11-04_hbh_200-prng-1,30_base_hphc_200,200,first-200,31,rng,num-start-921,921,17520,24.35348391532898,True,,True,1,False,1000,True,1.0
./expes/v2_2020-11-04_hbh_200-prng-1,30_base_hphc_200,200,first-200,1,rng,num-start-351,351,17520,8.10445523262024,True,,True,1,False,1000,True,1.0
./expes/v2_2020-11-04_hbh_200-prng-1,30_base_hphc_200,200,first-200,51,rng,num-start-81,81,17520,3.1388187408447266,True,,True,1,False,1000,True,1.0
./expes/v2_2020-11-04_hbh_200-prng-1,30_base_hphc_200,200,first-200,191,rng,num-start-801,801,17520,20.001275777816772,True,,True,1,False,1000,True,1.0
./expes/v2_2020-11-04_hbh_200-prng-1,30_base_hphc_200,200,first-200,41,rng,num-start-441,441,17520,11.425017356872559,True,,True,1,False,1000,True,1.0
./expes/v2_2020-11-04_hbh_200-prng-1,30_base_hphc_200,200,first-200,31,rng,num-start-161,161,17520,4.46733546257019,True,,True,1,False,1000,True,1.0
./expes/v2_2020-11-04_hbh_200-prng-1,30_base_hphc_200,200,first-200,181,rng,num-start-711,711,17520,17.698812246322632,True,,True,1,False,1000,True,1.0
./expes/v2_2020-11-04_hbh_200-prng-1,30_base_hphc_200,200,first-200,171,rng,num-start-551,551,17520,15.590880632400513,True,,True,1,False,1000,True,1.0
./expes/v2_2020-11-04_hbh_200-prng-1,30_base_hphc_200,200,first-200,141,rng,num-start-681,681,17520,18.289947509765625,True,,True,1,False,1000,True,1.0
