expe,clients,clients_size,clients_subset,agg_size,method,days,days_size,days_total,time,valid,valid_sum,success,nsols,wall_hit,wall_time,pooled,valid_sums
./expes/v2_2020-12-02_dh_50-prng-1,30_issda_50,50,rng-50,31,rng,num-start-11001,11001,25726,97.92940211296082,True,,True,1,False,1000,True,1.0
./expes/v2_2020-12-02_dh_50-prng-1,30_issda_50,50,rng-50,11,rng,num-start-4001,4001,25726,35.77939295768738,True,,True,1,False,1000,True,1.0
./expes/v2_2020-12-02_dh_50-prng-1,30_issda_50,50,rng-50,21,rng,num-start-9001,9001,25726,84.4571373462677,True,,True,1,False,1000,True,1.0
./expes/v2_2020-12-02_dh_50-prng-1,30_issda_50,50,rng-50,41,rng,num-start-5001,5001,25726,45.637524127960205,True,,True,1,False,1000,True,1.0
./expes/v2_2020-12-02_dh_50-prng-1,30_issda_50,50,rng-50,21,rng,num-start-7001,7001,25726,62.23010492324829,True,,True,1,False,1000,True,1.0
./expes/v2_2020-12-02_dh_50-prng-1,30_issda_50,50,rng-50,1,rng,num-start-4001,4001,25726,36.59403133392334,True,,True,1,False,1000,True,1.0
./expes/v2_2020-12-02_dh_50-prng-1,30_issda_50,50,rng-50,1,rng,num-start-9001,9001,25726,80.15848684310913,True,,True,1,False,1000,True,1.0
./expes/v2_2020-12-02_dh_50-prng-1,30_issda_50,50,rng-50,21,rng,num-start-1001,1001,25726,9.252535343170166,True,,True,1,False,1000,True,1.0
./expes/v2_2020-12-02_dh_50-prng-1,30_issda_50,50,rng-50,11,rng,num-start-2001,2001,25726,17.726274251937866,True,,True,1,False,1000,True,1.0
./expes/v2_2020-12-02_dh_50-prng-1,30_issda_50,50,rng-50,1,rng,num-start-6001,6001,25726,53.76165509223938,True,,True,1,False,1000,True,1.0
./expes/v2_2020-12-02_dh_50-prng-1,30_issda_50,50,rng-50,41,rng,num-start-12001,12001,25726,108.20292663574219,True,,True,1,False,1000,True,1.0
./expes/v2_2020-12-02_dh_50-prng-1,30_issda_50,50,rng-50,1,rng,num-start-16001,16001,25726,142.04944515228271,True,,True,1,False,1000,True,1.0
./expes/v2_2020-12-02_dh_50-prng-1,30_issda_50,50,rng-50,21,rng,num-start-6001,6001,25726,56.03755068778992,True,,True,1,False,1000,True,1.0
./expes/v2_2020-12-02_dh_50-prng-1,30_issda_50,50,rng-50,1,rng,num-start-10001,10001,25726,89.54642605781555,True,,True,1,False,1000,True,1.0
./expes/v2_2020-12-02_dh_50-prng-1,30_issda_50,50,rng-50,41,rng,num-start-1001,1001,25726,9.123585939407349,True,,True,1,False,1000,True,1.0
./expes/v2_2020-12-02_dh_50-prng-1,30_issda_50,50,rng-50,41,rng,num-start-8001,8001,25726,71.27838969230652,True,,True,1,False,1000,True,1.0
./expes/v2_2020-12-02_dh_50-prng-1,30_issda_50,50,rng-50,21,rng,num-start-15001,15001,25726,137.46761083602905,True,,True,1,False,1000,True,1.0
./expes/v2_2020-12-02_dh_50-prng-1,30_issda_50,50,rng-50,11,rng,num-start-2001,2001,25726,18.184215545654297,True,,True,1,False,1000,True,1.0
./expes/v2_2020-12-02_dh_50-prng-1,30_issda_50,50,rng-50,41,rng,num-start-2001,2001,25726,18.478172302246094,True,,True,1,False,1000,True,1.0
./expes/v2_2020-12-02_dh_50-prng-1,30_issda_50,50,rng-50,41,rng,num-start-1001,1001,25726,8.913061141967773,True,,True,1,False,1000,True,1.0
./expes/v2_2020-12-02_dh_50-prng-1,30_issda_50,50,rng-50,41,rng,num-start-3001,3001,25726,26.89311647415161,True,,True,1,False,1000,True,1.0
./expes/v2_2020-12-02_dh_50-prng-1,30_issda_50,50,rng-50,31,rng,num-start-9001,9001,25726,80.20712184906006,True,,True,1,False,1000,True,1.0
./expes/v2_2020-12-02_dh_50-prng-1,30_issda_50,50,rng-50,31,rng,num-start-13001,13001,25726,115.41513681411743,True,,True,1,False,1000,True,1.0
./expes/v2_2020-12-02_dh_50-prng-1,30_issda_50,50,rng-50,1,rng,num-start-14001,14001,25726,124.7611653804779,True,,True,1,False,1000,True,1.0
./expes/v2_2020-12-02_dh_50-prng-1,30_issda_50,50,rng-50,21,rng,num-start-6001,6001,25726,53.35870170593262,True,,True,1,False,1000,True,1.0
./expes/v2_2020-12-02_dh_50-prng-1,30_issda_50,50,rng-50,41,rng,num-start-9001,9001,25726,80.2002968788147,True,,True,1,False,1000,True,1.0
./expes/v2_2020-12-02_dh_50-prng-1,30_issda_50,50,rng-50,41,rng,num-start-13001,13001,25726,113.96940755844116,True,,True,1,False,1000,True,1.0
