expe,clients,clients_size,clients_subset,agg_size,method,days,days_size,days_total,time,valid,valid_sum,success,nsols,wall_hit,wall_time,pooled,valid_sums
./expes/v2_2020-12-02_dh_50-prng-1,30_issda_50,50,rng-50,11,rng,num-start-8001,8001,25726,65.44263529777527,True,,True,1,False,1000,True,1.0
./expes/v2_2020-12-02_dh_50-prng-1,30_issda_50,50,rng-50,11,rng,num-start-1,1,25726,0.024929285049438477,False,,False,2,False,1000,True,1.0
./expes/v2_2020-12-02_dh_50-prng-1,30_issda_50,50,rng-50,21,rng,num-start-9001,9001,25726,73.36641001701355,True,,True,1,False,1000,True,1.0
./expes/v2_2020-12-02_dh_50-prng-1,30_issda_50,50,rng-50,1,rng,num-start-12001,12001,25726,99.43391942977905,True,,True,1,False,1000,True,1.0
./expes/v2_2020-12-02_dh_50-prng-1,30_issda_50,50,rng-50,1,rng,num-start-11001,11001,25726,91.55195832252502,True,,True,1,False,1000,True,1.0
./expes/v2_2020-12-02_dh_50-prng-1,30_issda_50,50,rng-50,41,rng,num-start-6001,6001,25726,49.38819360733032,True,,True,1,False,1000,True,1.0
./expes/v2_2020-12-02_dh_50-prng-1,30_issda_50,50,rng-50,1,rng,num-start-13001,13001,25726,108.54030084609985,True,,True,1,False,1000,True,1.0
./expes/v2_2020-12-02_dh_50-prng-1,30_issda_50,50,rng-50,41,rng,num-start-4001,4001,25726,33.76614451408386,True,,True,1,False,1000,True,1.0
./expes/v2_2020-12-02_dh_50-prng-1,30_issda_50,50,rng-50,11,rng,num-start-11001,11001,25726,90.13201308250427,True,,True,1,False,1000,True,1.0
./expes/v2_2020-12-02_dh_50-prng-1,30_issda_50,50,rng-50,41,rng,num-start-15001,15001,25726,123.39680695533752,True,,True,1,False,1000,True,1.0
./expes/v2_2020-12-02_dh_50-prng-1,30_issda_50,50,rng-50,21,rng,num-start-14001,14001,25726,115.47506594657898,True,,True,1,False,1000,True,1.0
./expes/v2_2020-12-02_dh_50-prng-1,30_issda_50,50,rng-50,31,rng,num-start-7001,7001,25726,57.5532488822937,True,,True,1,False,1000,True,1.0
./expes/v2_2020-12-02_dh_50-prng-1,30_issda_50,50,rng-50,11,rng,num-start-13001,13001,25726,106.72060489654541,True,,True,1,False,1000,True,1.0
./expes/v2_2020-12-02_dh_50-prng-1,30_issda_50,50,rng-50,11,rng,num-start-11001,11001,25726,92.949373960495,True,,True,1,False,1000,True,1.0
./expes/v2_2020-12-02_dh_50-prng-1,30_issda_50,50,rng-50,31,rng,num-start-7001,7001,25726,57.03164029121399,True,,True,1,False,1000,True,1.0
./expes/v2_2020-12-02_dh_50-prng-1,30_issda_50,50,rng-50,1,rng,num-start-7001,7001,25726,56.65542936325073,True,,True,1,False,1000,True,1.0
./expes/v2_2020-12-02_dh_50-prng-1,30_issda_50,50,rng-50,11,rng,num-start-12001,12001,25726,97.16908931732178,True,,True,1,False,1000,True,1.0
./expes/v2_2020-12-02_dh_50-prng-1,30_issda_50,50,rng-50,31,rng,num-start-8001,8001,25726,65.93321681022644,True,,True,1,False,1000,True,1.0
./expes/v2_2020-12-02_dh_50-prng-1,30_issda_50,50,rng-50,11,rng,num-start-2001,2001,25726,16.05700922012329,True,,True,1,False,1000,True,1.0
./expes/v2_2020-12-02_dh_50-prng-1,30_issda_50,50,rng-50,21,rng,num-start-10001,10001,25726,80.72399592399597,True,,True,1,False,1000,True,1.0
./expes/v2_2020-12-02_dh_50-prng-1,30_issda_50,50,rng-50,1,rng,num-start-5001,5001,25726,40.545467376708984,True,,True,1,False,1000,True,1.0
./expes/v2_2020-12-02_dh_50-prng-1,30_issda_50,50,rng-50,1,rng,num-start-7001,7001,25726,57.32576537132263,True,,True,1,False,1000,True,1.0
./expes/v2_2020-12-02_dh_50-prng-1,30_issda_50,50,rng-50,41,rng,num-start-5001,5001,25726,40.088823080062866,True,,True,1,False,1000,True,1.0
./expes/v2_2020-12-02_dh_50-prng-1,30_issda_50,50,rng-50,11,rng,num-start-1,1,25726,0.14112162590026855,False,,False,2,False,1000,True,1.0
./expes/v2_2020-12-02_dh_50-prng-1,30_issda_50,50,rng-50,31,rng,num-start-3001,3001,25726,24.687988758087158,True,,True,1,False,1000,True,1.0
./expes/v2_2020-12-02_dh_50-prng-1,30_issda_50,50,rng-50,11,rng,num-start-2001,2001,25726,16.09787678718567,True,,True,1,False,1000,True,1.0
./expes/v2_2020-12-02_dh_50-prng-1,30_issda_50,50,rng-50,41,rng,num-start-13001,13001,25726,104.79784369468689,True,,True,1,False,1000,True,1.0
