expe,clients,clients_size,clients_subset,agg_size,method,days,days_size,days_total,time,valid,valid_sum,success,nsols,wall_hit,wall_time,pooled,valid_sums
./expes/v2_2020-11-09_3bh_50-prng-1,30_base_hphc_50,50,first-50,11,rng,num-start-981,981,17520,9.731016874313354,True,,True,1,False,1000,True,1.0
./expes/v2_2020-11-09_3bh_50-prng-1,30_base_hphc_50,50,first-50,31,rng,num-start-801,801,17520,7.806103944778442,True,,True,1,False,1000,True,1.0
./expes/v2_2020-11-09_3bh_50-prng-1,30_base_hphc_50,50,first-50,1,rng,num-start-151,151,17520,1.4166512489318848,True,,True,1,False,1000,True,1.0
./expes/v2_2020-11-09_3bh_50-prng-1,30_base_hphc_50,50,first-50,41,rng,num-start-41,41,17520,0.4953291416168213,True,,True,1,False,1000,True,1.0
./expes/v2_2020-11-09_3bh_50-prng-1,30_base_hphc_50,50,first-50,21,rng,num-start-791,791,17520,7.784404516220093,True,,True,1,False,1000,True,1.0
./expes/v2_2020-11-09_3bh_50-prng-1,30_base_hphc_50,50,first-50,1,rng,num-start-901,901,17520,8.436646699905396,True,,True,1,False,1000,True,1.0
./expes/v2_2020-11-09_3bh_50-prng-1,30_base_hphc_50,50,first-50,41,rng,num-start-641,641,17520,6.063892126083374,True,,True,1,False,1000,True,1.0
./expes/v2_2020-11-09_3bh_50-prng-1,30_base_hphc_50,50,first-50,1,rng,num-start-651,651,17520,6.118277549743652,True,,True,1,False,1000,True,1.0
./expes/v2_2020-11-09_3bh_50-prng-1,30_base_hphc_50,50,first-50,21,rng,num-start-151,151,17520,1.6405539512634277,True,,True,1,False,1000,True,1.0
./expes/v2_2020-11-09_3bh_50-prng-1,30_base_hphc_50,50,first-50,11,rng,num-start-961,961,17520,9.293509483337402,True,,True,1,False,1000,True,1.0
./expes/v2_2020-11-09_3bh_50-prng-1,30_base_hphc_50,50,first-50,31,rng,num-start-741,741,17520,7.344879150390625,True,,True,1,False,1000,True,1.0
./expes/v2_2020-11-09_3bh_50-prng-1,30_base_hphc_50,50,first-50,11,rng,num-start-741,741,17520,7.094824552536011,True,,True,1,False,1000,True,1.0
./expes/v2_2020-11-09_3bh_50-prng-1,30_base_hphc_50,50,first-50,1,rng,num-start-171,171,17520,1.6106476783752441,True,,True,1,False,1000,True,1.0
./expes/v2_2020-11-09_3bh_50-prng-1,30_base_hphc_50,50,first-50,31,rng,num-start-501,501,17520,5.015769720077515,True,,True,1,False,1000,True,1.0
./expes/v2_2020-11-09_3bh_50-prng-1,30_base_hphc_50,50,first-50,31,rng,num-start-351,351,17520,3.349050283432007,True,,True,1,False,1000,True,1.0
./expes/v2_2020-11-09_3bh_50-prng-1,30_base_hphc_50,50,first-50,11,rng,num-start-521,521,17520,5.0205488204956055,True,,True,1,False,1000,True,1.0
./expes/v2_2020-11-09_3bh_50-prng-1,30_base_hphc_50,50,first-50,31,rng,num-start-801,801,17520,7.886176824569702,True,,True,1,False,1000,True,1.0
./expes/v2_2020-11-09_3bh_50-prng-1,30_base_hphc_50,50,first-50,11,rng,num-start-251,251,17520,2.3861827850341797,True,,True,1,False,1000,True,1.0
./expes/v2_2020-11-09_3bh_50-prng-1,30_base_hphc_50,50,first-50,21,rng,num-start-831,831,17520,8.082199096679688,True,,True,1,False,1000,True,1.0
./expes/v2_2020-11-09_3bh_50-prng-1,30_base_hphc_50,50,first-50,11,rng,num-start-401,401,17520,3.8506522178649902,True,,True,1,False,1000,True,1.0
./expes/v2_2020-11-09_3bh_50-prng-1,30_base_hphc_50,50,first-50,21,rng,num-start-811,811,17520,8.047293186187744,True,,True,1,False,1000,True,1.0
./expes/v2_2020-11-09_3bh_50-prng-1,30_base_hphc_50,50,first-50,41,rng,num-start-181,181,17520,1.7743568420410156,True,,True,1,False,1000,True,1.0
./expes/v2_2020-11-09_3bh_50-prng-1,30_base_hphc_50,50,first-50,21,rng,num-start-691,691,17520,6.810198783874512,True,,True,1,False,1000,True,1.0
./expes/v2_2020-11-09_3bh_50-prng-1,30_base_hphc_50,50,first-50,21,rng,num-start-301,301,17520,2.895204782485962,True,,True,1,False,1000,True,1.0
./expes/v2_2020-11-09_3bh_50-prng-1,30_base_hphc_50,50,first-50,31,rng,num-start-971,971,17520,9.515060424804688,True,,True,1,False,1000,True,1.0
./expes/v2_2020-11-09_3bh_50-prng-1,30_base_hphc_50,50,first-50,1,rng,num-start-231,231,17520,2.1968910694122314,True,,True,1,False,1000,True,1.0
./expes/v2_2020-11-09_3bh_50-prng-1,30_base_hphc_50,50,first-50,41,rng,num-start-171,171,17520,1.6761059761047363,True,,True,1,False,1000,True,1.0
./expes/v2_2020-11-09_3bh_50-prng-1,30_base_hphc_50,50,first-50,1,rng,num-start-771,771,17520,7.275691032409668,True,,True,1,False,1000,True,1.0
./expes/v2_2020-11-09_3bh_50-prng-1,30_base_hphc_50,50,first-50,21,rng,num-start-321,321,17520,3.0967376232147217,True,,True,1,False,1000,True,1.0
./expes/v2_2020-11-09_3bh_50-prng-1,30_base_hphc_50,50,first-50,21,rng,num-start-321,321,17520,3.1329972743988037,True,,True,1,False,1000,True,1.0
./expes/v2_2020-11-09_3bh_50-prng-1,30_base_hphc_50,50,first-50,1,rng,num-start-881,881,17520,8.291763305664062,True,,True,1,False,1000,True,1.0
./expes/v2_2020-11-09_3bh_50-prng-1,30_base_hphc_50,50,first-50,31,rng,num-start-801,801,17520,7.927895545959473,True,,True,1,False,1000,True,1.0
./expes/v2_2020-11-09_3bh_50-prng-1,30_base_hphc_50,50,first-50,1,rng,num-start-671,671,17520,6.3822081089019775,True,,True,1,False,1000,True,1.0
./expes/v2_2020-11-09_3bh_50-prng-1,30_base_hphc_50,50,first-50,11,rng,num-start-41,41,17520,0.5028243064880371,True,,True,1,False,1000,True,1.0
./expes/v2_2020-11-09_3bh_50-prng-1,30_base_hphc_50,50,first-50,1,rng,num-start-151,151,17520,1.4287161827087402,True,,True,1,False,1000,True,1.0
./expes/v2_2020-11-09_3bh_50-prng-1,30_base_hphc_50,50,first-50,1,rng,num-start-161,161,17520,1.545100212097168,True,,True,1,False,1000,True,1.0
./expes/v2_2020-11-09_3bh_50-prng-1,30_base_hphc_50,50,first-50,41,rng,num-start-871,871,17520,8.323408842086792,True,,True,1,False,1000,True,1.0
./expes/v2_2020-11-09_3bh_50-prng-1,30_base_hphc_50,50,first-50,11,rng,num-start-441,441,17520,4.215295076370239,True,,True,1,False,1000,True,1.0
./expes/v2_2020-11-09_3bh_50-prng-1,30_base_hphc_50,50,first-50,11,rng,num-start-261,261,17520,2.507199287414551,True,,True,1,False,1000,True,1.0
./expes/v2_2020-11-09_3bh_50-prng-1,30_base_hphc_50,50,first-50,11,rng,num-start-561,561,17520,5.357037782669067,True,,True,1,False,1000,True,1.0
./expes/v2_2020-11-09_3bh_50-prng-1,30_base_hphc_50,50,first-50,1,rng,num-start-711,711,17520,6.667944669723511,True,,True,1,False,1000,True,1.0
./expes/v2_2020-11-09_3bh_50-prng-1,30_base_hphc_50,50,first-50,41,rng,num-start-751,751,17520,7.163796901702881,True,,True,1,False,1000,True,1.0
./expes/v2_2020-11-09_3bh_50-prng-1,30_base_hphc_50,50,first-50,21,rng,num-start-331,331,17520,3.1893434524536133,True,,True,1,False,1000,True,1.0
./expes/v2_2020-11-09_3bh_50-prng-1,30_base_hphc_50,50,first-50,11,rng,num-start-331,331,17520,3.148855209350586,True,,True,1,False,1000,True,1.0
./expes/v2_2020-11-09_3bh_50-prng-1,30_base_hphc_50,50,first-50,11,rng,num-start-211,211,17520,2.17362904548645,True,,True,1,False,1000,True,1.0
./expes/v2_2020-11-09_3bh_50-prng-1,30_base_hphc_50,50,first-50,21,rng,num-start-471,471,17520,4.813157558441162,True,,True,1,False,1000,True,1.0
./expes/v2_2020-11-09_3bh_50-prng-1,30_base_hphc_50,50,first-50,41,rng,num-start-451,451,17520,4.334829807281494,True,,True,1,False,1000,True,1.0
./expes/v2_2020-11-09_3bh_50-prng-1,30_base_hphc_50,50,first-50,41,rng,num-start-391,391,17520,3.711759090423584,True,,True,1,False,1000,True,1.0
./expes/v2_2020-11-09_3bh_50-prng-1,30_base_hphc_50,50,first-50,31,rng,num-start-541,541,17520,5.341372489929199,True,,True,1,False,1000,True,1.0
./expes/v2_2020-11-09_3bh_50-prng-1,30_base_hphc_50,50,first-50,31,rng,num-start-721,721,17520,7.011058807373047,True,,True,1,False,1000,True,1.0
./expes/v2_2020-11-09_3bh_50-prng-1,30_base_hphc_50,50,first-50,1,rng,num-start-241,241,17520,2.247788190841675,True,,True,1,False,1000,True,1.0
./expes/v2_2020-11-09_3bh_50-prng-1,30_base_hphc_50,50,first-50,41,rng,num-start-831,831,17520,7.8644397258758545,True,,True,1,False,1000,True,1.0
./expes/v2_2020-11-09_3bh_50-prng-1,30_base_hphc_50,50,first-50,31,rng,num-start-151,151,17520,1.598954200744629,True,,True,1,False,1000,True,1.0
./expes/v2_2020-11-09_3bh_50-prng-1,30_base_hphc_50,50,first-50,31,rng,num-start-471,471,17520,4.6657233238220215,True,,True,1,False,1000,True,1.0
./expes/v2_2020-11-09_3bh_50-prng-1,30_base_hphc_50,50,first-50,1,rng,num-start-481,481,17520,4.487617254257202,True,,True,1,False,1000,True,1.0
./expes/v2_2020-11-09_3bh_50-prng-1,30_base_hphc_50,50,first-50,1,rng,num-start-881,881,17520,8.23553204536438,True,,True,1,False,1000,True,1.0
./expes/v2_2020-11-09_3bh_50-prng-1,30_base_hphc_50,50,first-50,41,rng,num-start-781,781,17520,7.310003280639648,True,,True,1,False,1000,True,1.0
./expes/v2_2020-11-09_3bh_50-prng-1,30_base_hphc_50,50,first-50,11,rng,num-start-771,771,17520,7.326229572296143,True,,True,1,False,1000,True,1.0
./expes/v2_2020-11-09_3bh_50-prng-1,30_base_hphc_50,50,first-50,41,rng,num-start-761,761,17520,7.1140453815460205,True,,True,1,False,1000,True,1.0
./expes/v2_2020-11-09_3bh_50-prng-1,30_base_hphc_50,50,first-50,21,rng,num-start-71,71,17520,0.8143045902252197,True,,True,1,False,1000,True,1.0
./expes/v2_2020-11-09_3bh_50-prng-1,30_base_hphc_50,50,first-50,1,rng,num-start-401,401,17520,3.70764422416687,True,,True,1,False,1000,True,1.0
./expes/v2_2020-11-09_3bh_50-prng-1,30_base_hphc_50,50,first-50,41,rng,num-start-41,41,17520,0.4560883045196533,True,,True,1,False,1000,True,1.0
./expes/v2_2020-11-09_3bh_50-prng-1,30_base_hphc_50,50,first-50,31,rng,num-start-961,961,17520,9.289214849472046,True,,True,1,False,1000,True,1.0
./expes/v2_2020-11-09_3bh_50-prng-1,30_base_hphc_50,50,first-50,11,rng,num-start-651,651,17520,6.249378681182861,True,,True,1,False,1000,True,1.0
./expes/v2_2020-11-09_3bh_50-prng-1,30_base_hphc_50,50,first-50,41,rng,num-start-681,681,17520,6.3995349407196045,True,,True,1,False,1000,True,1.0
./expes/v2_2020-11-09_3bh_50-prng-1,30_base_hphc_50,50,first-50,1,rng,num-start-221,221,17520,2.045677423477173,True,,True,1,False,1000,True,1.0
./expes/v2_2020-11-09_3bh_50-prng-1,30_base_hphc_50,50,first-50,31,rng,num-start-451,451,17520,4.541203022003174,True,,True,1,False,1000,True,1.0
./expes/v2_2020-11-09_3bh_50-prng-1,30_base_hphc_50,50,first-50,31,rng,num-start-191,191,17520,2.02604079246521,True,,True,1,False,1000,True,1.0
./expes/v2_2020-11-09_3bh_50-prng-1,30_base_hphc_50,50,first-50,31,rng,num-start-941,941,17520,9.126177549362183,True,,True,1,False,1000,True,1.0
./expes/v2_2020-11-09_3bh_50-prng-1,30_base_hphc_50,50,first-50,41,rng,num-start-231,231,17520,2.237727403640747,True,,True,1,False,1000,True,1.0
./expes/v2_2020-11-09_3bh_50-prng-1,30_base_hphc_50,50,first-50,41,rng,num-start-791,791,17520,7.410667181015015,True,,True,1,False,1000,True,1.0
./expes/v2_2020-11-09_3bh_50-prng-1,30_base_hphc_50,50,first-50,31,rng,num-start-431,431,17520,4.348397254943848,True,,True,1,False,1000,True,1.0
./expes/v2_2020-11-09_3bh_50-prng-1,30_base_hphc_50,50,first-50,41,rng,num-start-161,161,17520,1.554647445678711,True,,True,1,False,1000,True,1.0
./expes/v2_2020-11-09_3bh_50-prng-1,30_base_hphc_50,50,first-50,11,rng,num-start-861,861,17520,8.1384859085083,True,,True,1,False,1000,True,1.0
./expes/v2_2020-11-09_3bh_50-prng-1,30_base_hphc_50,50,first-50,41,rng,num-start-681,681,17520,6.411013841629028,True,,True,1,False,1000,True,1.0
./expes/v2_2020-11-09_3bh_50-prng-1,30_base_hphc_50,50,first-50,31,rng,num-start-561,561,17520,5.484160900115967,True,,True,1,False,1000,True,1.0
./expes/v2_2020-11-09_3bh_50-prng-1,30_base_hphc_50,50,first-50,41,rng,num-start-451,451,17520,4.2099339962005615,True,,True,1,False,1000,True,1.0
./expes/v2_2020-11-09_3bh_50-prng-1,30_base_hphc_50,50,first-50,1,rng,num-start-31,31,17520,0.2935068607330322,True,,True,1,False,1000,True,1.0
./expes/v2_2020-11-09_3bh_50-prng-1,30_base_hphc_50,50,first-50,31,rng,num-start-421,421,17520,4.217787265777588,True,,True,1,False,1000,True,1.0
./expes/v2_2020-11-09_3bh_50-prng-1,30_base_hphc_50,50,first-50,21,rng,num-start-581,581,17520,5.764360189437866,True,,True,1,False,1000,True,1.0
./expes/v2_2020-11-09_3bh_50-prng-1,30_base_hphc_50,50,first-50,21,rng,num-start-491,491,17520,4.96036434173584,True,,True,1,False,1000,True,1.0
./expes/v2_2020-11-09_3bh_50-prng-1,30_base_hphc_50,50,first-50,41,rng,num-start-421,421,17520,3.9695935249328613,True,,True,1,False,1000,True,1.0
./expes/v2_2020-11-09_3bh_50-prng-1,30_base_hphc_50,50,first-50,11,rng,num-start-851,851,17520,8.00887393951416,True,,True,1,False,1000,True,1.0
./expes/v2_2020-11-09_3bh_50-prng-1,30_base_hphc_50,50,first-50,31,rng,num-start-121,121,17520,1.2916374206542969,True,,True,1,False,1000,True,1.0
./expes/v2_2020-11-09_3bh_50-prng-1,30_base_hphc_50,50,first-50,31,rng,num-start-171,171,17520,1.7681243419647217,True,,True,1,False,1000,True,1.0
./expes/v2_2020-11-09_3bh_50-prng-1,30_base_hphc_50,50,first-50,11,rng,num-start-961,961,17520,9.031404733657837,True,,True,1,False,1000,True,1.0
./expes/v2_2020-11-09_3bh_50-prng-1,30_base_hphc_50,50,first-50,41,rng,num-start-901,901,17520,8.488163948059082,True,,True,1,False,1000,True,1.0
./expes/v2_2020-11-09_3bh_50-prng-1,30_base_hphc_50,50,first-50,41,rng,num-start-391,391,17520,3.6478941440582275,True,,True,1,False,1000,True,1.0
./expes/v2_2020-11-09_3bh_50-prng-1,30_base_hphc_50,50,first-50,31,rng,num-start-161,161,17520,1.6269140243530273,True,,True,1,False,1000,True,1.0
./expes/v2_2020-11-09_3bh_50-prng-1,30_base_hphc_50,50,first-50,11,rng,num-start-581,581,17520,5.442522764205933,True,,True,1,False,1000,True,1.0
./expes/v2_2020-11-09_3bh_50-prng-1,30_base_hphc_50,50,first-50,1,rng,num-start-431,431,17520,3.982734441757202,True,,True,1,False,1000,True,1.0
./expes/v2_2020-11-09_3bh_50-prng-1,30_base_hphc_50,50,first-50,11,rng,num-start-791,791,17520,7.52929949760437,True,,True,1,False,1000,True,1.0
./expes/v2_2020-11-09_3bh_50-prng-1,30_base_hphc_50,50,first-50,31,rng,num-start-891,891,17520,8.607540607452393,True,,True,1,False,1000,True,1.0
./expes/v2_2020-11-09_3bh_50-prng-1,30_base_hphc_50,50,first-50,11,rng,num-start-151,151,17520,1.5868151187896729,True,,True,1,False,1000,True,1.0
./expes/v2_2020-11-09_3bh_50-prng-1,30_base_hphc_50,50,first-50,11,rng,num-start-141,141,17520,1.440014362335205,True,,True,1,False,1000,True,1.0
./expes/v2_2020-11-09_3bh_50-prng-1,30_base_hphc_50,50,first-50,21,rng,num-start-771,771,17520,7.489085674285889,True,,True,1,False,1000,True,1.0
./expes/v2_2020-11-09_3bh_50-prng-1,30_base_hphc_50,50,first-50,1,rng,num-start-351,351,17520,3.233520984649658,True,,True,1,False,1000,True,1.0
./expes/v2_2020-11-09_3bh_50-prng-1,30_base_hphc_50,50,first-50,41,rng,num-start-1,1,17520,0.0275881290435791,False,,False,2,False,1000,True,1.0
./expes/v2_2020-11-09_3bh_50-prng-1,30_base_hphc_50,50,first-50,31,rng,num-start-301,301,17520,2.891545057296753,True,,True,1,False,1000,True,1.0
./expes/v2_2020-11-09_3bh_50-prng-1,30_base_hphc_50,50,first-50,21,rng,num-start-581,581,17520,5.652875185012817,True,,True,1,False,1000,True,1.0
./expes/v2_2020-11-09_3bh_50-prng-1,30_base_hphc_50,50,first-50,31,rng,num-start-921,921,17520,8.883236169815063,True,,True,1,False,1000,True,1.0
./expes/v2_2020-11-09_3bh_50-prng-1,30_base_hphc_50,50,first-50,31,rng,num-start-371,371,17520,3.5371510982513428,True,,True,1,False,1000,True,1.0
./expes/v2_2020-11-09_3bh_50-prng-1,30_base_hphc_50,50,first-50,11,rng,num-start-951,951,17520,9.273524522781372,True,,True,1,False,1000,True,1.0
./expes/v2_2020-11-09_3bh_50-prng-1,30_base_hphc_50,50,first-50,11,rng,num-start-691,691,17520,6.575122833251953,True,,True,1,False,1000,True,1.0
./expes/v2_2020-11-09_3bh_50-prng-1,30_base_hphc_50,50,first-50,31,rng,num-start-191,191,17520,2.0561375617980957,True,,True,1,False,1000,True,1.0
./expes/v2_2020-11-09_3bh_50-prng-1,30_base_hphc_50,50,first-50,1,rng,num-start-61,61,17520,0.5870189666748047,True,,True,1,False,1000,True,1.0
./expes/v2_2020-11-09_3bh_50-prng-1,30_base_hphc_50,50,first-50,21,rng,num-start-81,81,17520,0.9128153324127197,True,,True,1,False,1000,True,1.0
./expes/v2_2020-11-09_3bh_50-prng-1,30_base_hphc_50,50,first-50,21,rng,num-start-741,741,17520,7.305174827575684,True,,True,1,False,1000,True,1.0
./expes/v2_2020-11-09_3bh_50-prng-1,30_base_hphc_50,50,first-50,21,rng,num-start-101,101,17520,1.1250178813934326,True,,True,1,False,1000,True,1.0
./expes/v2_2020-11-09_3bh_50-prng-1,30_base_hphc_50,50,first-50,41,rng,num-start-951,951,17520,8.950195789337158,True,,True,1,False,1000,True,1.0
./expes/v2_2020-11-09_3bh_50-prng-1,30_base_hphc_50,50,first-50,11,rng,num-start-691,691,17520,6.5777387619018555,True,,True,1,False,1000,True,1.0
./expes/v2_2020-11-09_3bh_50-prng-1,30_base_hphc_50,50,first-50,31,rng,num-start-241,241,17520,2.319213390350342,True,,True,1,False,1000,True,1.0
./expes/v2_2020-11-09_3bh_50-prng-1,30_base_hphc_50,50,first-50,11,rng,num-start-71,71,17520,0.7951796054840088,True,,True,1,False,1000,True,1.0
./expes/v2_2020-11-09_3bh_50-prng-1,30_base_hphc_50,50,first-50,1,rng,num-start-911,911,17520,8.435708284378052,True,,True,1,False,1000,True,1.0
./expes/v2_2020-11-09_3bh_50-prng-1,30_base_hphc_50,50,first-50,1,rng,num-start-31,31,17520,0.2925858497619629,True,,True,1,False,1000,True,1.0
./expes/v2_2020-11-09_3bh_50-prng-1,30_base_hphc_50,50,first-50,11,rng,num-start-861,861,17520,8.15661096572876,True,,True,1,False,1000,True,1.0
./expes/v2_2020-11-09_3bh_50-prng-1,30_base_hphc_50,50,first-50,21,rng,num-start-51,51,17520,0.5490477085113525,True,,True,1,False,1000,True,1.0
./expes/v2_2020-11-09_3bh_50-prng-1,30_base_hphc_50,50,first-50,21,rng,num-start-671,671,17520,6.56594181060791,True,,True,1,False,1000,True,1.0
./expes/v2_2020-11-09_3bh_50-prng-1,30_base_hphc_50,50,first-50,31,rng,num-start-741,741,17520,7.104305028915405,True,,True,1,False,1000,True,1.0
./expes/v2_2020-11-09_3bh_50-prng-1,30_base_hphc_50,50,first-50,21,rng,num-start-11,11,17520,0.541968822479248,True,,True,1,False,1000,True,1.0
./expes/v2_2020-11-09_3bh_50-prng-1,30_base_hphc_50,50,first-50,41,rng,num-start-71,71,17520,0.6917223930358887,True,,True,1,False,1000,True,1.0
./expes/v2_2020-11-09_3bh_50-prng-1,30_base_hphc_50,50,first-50,1,rng,num-start-451,451,17520,4.18648624420166,True,,True,1,False,1000,True,1.0
./expes/v2_2020-11-09_3bh_50-prng-1,30_base_hphc_50,50,first-50,31,rng,num-start-641,641,17520,6.355795621871948,True,,True,1,False,1000,True,1.0
./expes/v2_2020-11-09_3bh_50-prng-1,30_base_hphc_50,50,first-50,21,rng,num-start-671,671,17520,6.729155540466309,True,,True,1,False,1000,True,1.0
./expes/v2_2020-11-09_3bh_50-prng-1,30_base_hphc_50,50,first-50,11,rng,num-start-271,271,17520,2.589866876602173,True,,True,1,False,1000,True,1.0
./expes/v2_2020-11-09_3bh_50-prng-1,30_base_hphc_50,50,first-50,11,rng,num-start-951,951,17520,9.087536811828613,True,,True,1,False,1000,True,1.0
./expes/v2_2020-11-09_3bh_50-prng-1,30_base_hphc_50,50,first-50,41,rng,num-start-321,321,17520,3.00527286529541,True,,True,1,False,1000,True,1.0
./expes/v2_2020-11-09_3bh_50-prng-1,30_base_hphc_50,50,first-50,1,rng,num-start-871,871,17520,8.152458429336548,True,,True,1,False,1000,True,1.0
./expes/v2_2020-11-09_3bh_50-prng-1,30_base_hphc_50,50,first-50,1,rng,num-start-61,61,17520,0.5698409080505371,True,,True,1,False,1000,True,1.0
./expes/v2_2020-11-09_3bh_50-prng-1,30_base_hphc_50,50,first-50,11,rng,num-start-351,351,17520,3.2762885093688965,True,,True,1,False,1000,True,1.0
./expes/v2_2020-11-09_3bh_50-prng-1,30_base_hphc_50,50,first-50,41,rng,num-start-581,581,17520,5.528350114822388,True,,True,1,False,1000,True,1.0
./expes/v2_2020-11-09_3bh_50-prng-1,30_base_hphc_50,50,first-50,1,rng,num-start-11,11,17520,0.1079106330871582,True,,True,1,False,1000,True,1.0
./expes/v2_2020-11-09_3bh_50-prng-1,30_base_hphc_50,50,first-50,1,rng,num-start-301,301,17520,2.810896873474121,True,,True,1,False,1000,True,1.0
./expes/v2_2020-11-09_3bh_50-prng-1,30_base_hphc_50,50,first-50,31,rng,num-start-881,881,17520,8.661361932754517,True,,True,1,False,1000,True,1.0
./expes/v2_2020-11-09_3bh_50-prng-1,30_base_hphc_50,50,first-50,1,rng,num-start-331,331,17520,3.0719709396362305,True,,True,1,False,1000,True,1.0
./expes/v2_2020-11-09_3bh_50-prng-1,30_base_hphc_50,50,first-50,11,rng,num-start-951,951,17520,9.02147364616394,True,,True,1,False,1000,True,1.0
./expes/v2_2020-11-09_3bh_50-prng-1,30_base_hphc_50,50,first-50,1,rng,num-start-391,391,17520,3.658768892288208,True,,True,1,False,1000,True,1.0
./expes/v2_2020-11-09_3bh_50-prng-1,30_base_hphc_50,50,first-50,1,rng,num-start-641,641,17520,6.0128703117370605,True,,True,1,False,1000,True,1.0
./expes/v2_2020-11-09_3bh_50-prng-1,30_base_hphc_50,50,first-50,41,rng,num-start-831,831,17520,7.7629945278167725,True,,True,1,False,1000,True,1.0
./expes/v2_2020-11-09_3bh_50-prng-1,30_base_hphc_50,50,first-50,31,rng,num-start-481,481,17520,4.829250335693359,True,,True,1,False,1000,True,1.0
./expes/v2_2020-11-09_3bh_50-prng-1,30_base_hphc_50,50,first-50,1,rng,num-start-991,991,17520,9.211209535598755,True,,True,1,False,1000,True,1.0
./expes/v2_2020-11-09_3bh_50-prng-1,30_base_hphc_50,50,first-50,41,rng,num-start-1,1,17520,0.02924823760986328,False,,False,2,False,1000,True,1.0
./expes/v2_2020-11-09_3bh_50-prng-1,30_base_hphc_50,50,first-50,31,rng,num-start-11,11,17520,1.3132410049438477,True,,True,1,False,1000,True,1.0
./expes/v2_2020-11-09_3bh_50-prng-1,30_base_hphc_50,50,first-50,31,rng,num-start-851,851,17520,8.382363319396973,True,,True,1,False,1000,True,1.0
./expes/v2_2020-11-09_3bh_50-prng-1,30_base_hphc_50,50,first-50,41,rng,num-start-121,121,17520,1.1641573905944824,True,,True,1,False,1000,True,1.0
./expes/v2_2020-11-09_3bh_50-prng-1,30_base_hphc_50,50,first-50,11,rng,num-start-731,731,17520,7.184402227401733,True,,True,1,False,1000,True,1.0
./expes/v2_2020-11-09_3bh_50-prng-1,30_base_hphc_50,50,first-50,11,rng,num-start-201,201,17520,1.9981439113616943,True,,True,1,False,1000,True,1.0
./expes/v2_2020-11-09_3bh_50-prng-1,30_base_hphc_50,50,first-50,41,rng,num-start-271,271,17520,2.5495617389678955,True,,True,1,False,1000,True,1.0
./expes/v2_2020-11-09_3bh_50-prng-1,30_base_hphc_50,50,first-50,11,rng,num-start-391,391,17520,3.6818771362304688,True,,True,1,False,1000,True,1.0
./expes/v2_2020-11-09_3bh_50-prng-1,30_base_hphc_50,50,first-50,41,rng,num-start-201,201,17520,1.9496757984161377,True,,True,1,False,1000,True,1.0
./expes/v2_2020-11-09_3bh_50-prng-1,30_base_hphc_50,50,first-50,21,rng,num-start-871,871,17520,8.498132467269897,True,,True,1,False,1000,True,1.0
./expes/v2_2020-11-09_3bh_50-prng-1,30_base_hphc_50,50,first-50,1,rng,num-start-611,611,17520,5.693446159362793,True,,True,1,False,1000,True,1.0
./expes/v2_2020-11-09_3bh_50-prng-1,30_base_hphc_50,50,first-50,11,rng,num-start-921,921,17520,8.813039064407349,True,,True,1,False,1000,True,1.0
./expes/v2_2020-11-09_3bh_50-prng-1,30_base_hphc_50,50,first-50,11,rng,num-start-711,711,17520,6.79697847366333,True,,True,1,False,1000,True,1.0
./expes/v2_2020-11-09_3bh_50-prng-1,30_base_hphc_50,50,first-50,11,rng,num-start-541,541,17520,5.088638067245483,True,,True,1,False,1000,True,1.0
./expes/v2_2020-11-09_3bh_50-prng-1,30_base_hphc_50,50,first-50,31,rng,num-start-871,871,17520,8.49320936203003,True,,True,1,False,1000,True,1.0
./expes/v2_2020-11-09_3bh_50-prng-1,30_base_hphc_50,50,first-50,11,rng,num-start-741,741,17520,6.958392143249512,True,,True,1,False,1000,True,1.0
./expes/v2_2020-11-09_3bh_50-prng-1,30_base_hphc_50,50,first-50,41,rng,num-start-651,651,17520,6.095338821411133,True,,True,1,False,1000,True,1.0
./expes/v2_2020-11-09_3bh_50-prng-1,30_base_hphc_50,50,first-50,41,rng,num-start-841,841,17520,7.873540163040161,True,,True,1,False,1000,True,1.0
./expes/v2_2020-11-09_3bh_50-prng-1,30_base_hphc_50,50,first-50,31,rng,num-start-61,61,17520,0.7000679969787598,True,,True,1,False,1000,True,1.0
./expes/v2_2020-11-09_3bh_50-prng-1,30_base_hphc_50,50,first-50,21,rng,num-start-991,991,17520,9.624353408813477,True,,True,1,False,1000,True,1.0
./expes/v2_2020-11-09_3bh_50-prng-1,30_base_hphc_50,50,first-50,21,rng,num-start-451,451,17520,4.589538097381592,True,,True,1,False,1000,True,1.0
./expes/v2_2020-11-09_3bh_50-prng-1,30_base_hphc_50,50,first-50,11,rng,num-start-301,301,17520,2.866847276687622,True,,True,1,False,1000,True,1.0
./expes/v2_2020-11-09_3bh_50-prng-1,30_base_hphc_50,50,first-50,11,rng,num-start-71,71,17520,0.8007028102874756,True,,True,1,False,1000,True,1.0
./expes/v2_2020-11-09_3bh_50-prng-1,30_base_hphc_50,50,first-50,21,rng,num-start-191,191,17520,1.9674222469329834,True,,True,1,False,1000,True,1.0
./expes/v2_2020-11-09_3bh_50-prng-1,30_base_hphc_50,50,first-50,1,rng,num-start-361,361,17520,3.3775594234466553,True,,True,1,False,1000,True,1.0
./expes/v2_2020-11-09_3bh_50-prng-1,30_base_hphc_50,50,first-50,11,rng,num-start-391,391,17520,3.6491692066192627,True,,True,1,False,1000,True,1.0
./expes/v2_2020-11-09_3bh_50-prng-1,30_base_hphc_50,50,first-50,21,rng,num-start-951,951,17520,9.30793023109436,True,,True,1,False,1000,True,1.0
./expes/v2_2020-11-09_3bh_50-prng-1,30_base_hphc_50,50,first-50,31,rng,num-start-721,721,17520,7.0358641147613525,True,,True,1,False,1000,True,1.0
