expe,clients,clients_size,clients_subset,agg_size,method,days,days_size,days_total,time,valid,valid_sum,success,nsols,wall_hit,wall_time,pooled,valid_sums
./expes/v2_2020-11-09_3bh_50-prng-1,30_base_hphc_50,50,first-50,41,rng,num-start-21,21,17520,0.37000298500061035,True,,True,1,False,1000,True,1.0
./expes/v2_2020-11-09_3bh_50-prng-1,30_base_hphc_50,50,first-50,1,rng,num-start-121,121,17520,0.9320394992828369,True,,True,1,False,1000,True,1.0
./expes/v2_2020-11-09_3bh_50-prng-1,30_base_hphc_50,50,first-50,11,rng,num-start-331,331,17520,2.537355661392212,True,,True,1,False,1000,True,1.0
./expes/v2_2020-11-09_3bh_50-prng-1,30_base_hphc_50,50,first-50,41,rng,num-start-151,151,17520,1.1758956909179688,True,,True,1,False,1000,True,1.0
./expes/v2_2020-11-09_3bh_50-prng-1,30_base_hphc_50,50,first-50,41,rng,num-start-441,441,17520,3.3867952823638916,True,,True,1,False,1000,True,1.0
./expes/v2_2020-11-09_3bh_50-prng-1,30_base_hphc_50,50,first-50,21,rng,num-start-851,851,17520,6.799903392791748,True,,True,1,False,1000,True,1.0
./expes/v2_2020-11-09_3bh_50-prng-1,30_base_hphc_50,50,first-50,41,rng,num-start-31,31,17520,0.3475782871246338,True,,True,1,False,1000,True,1.0
./expes/v2_2020-11-09_3bh_50-prng-1,30_base_hphc_50,50,first-50,11,rng,num-start-351,351,17520,2.7023849487304688,True,,True,1,False,1000,True,1.0
./expes/v2_2020-11-09_3bh_50-prng-1,30_base_hphc_50,50,first-50,1,rng,num-start-791,791,17520,6.040333271026611,True,,True,1,False,1000,True,1.0
./expes/v2_2020-11-09_3bh_50-prng-1,30_base_hphc_50,50,first-50,11,rng,num-start-581,581,17520,4.4122889041900635,True,,True,1,False,1000,True,1.0
./expes/v2_2020-11-09_3bh_50-prng-1,30_base_hphc_50,50,first-50,31,rng,num-start-911,911,17520,7.381749391555786,True,,True,1,False,1000,True,1.0
./expes/v2_2020-11-09_3bh_50-prng-1,30_base_hphc_50,50,first-50,11,rng,num-start-361,361,17520,2.803597927093506,True,,True,1,False,1000,True,1.0
./expes/v2_2020-11-09_3bh_50-prng-1,30_base_hphc_50,50,first-50,11,rng,num-start-781,781,17520,6.04884147644043,True,,True,1,False,1000,True,1.0
./expes/v2_2020-11-09_3bh_50-prng-1,30_base_hphc_50,50,first-50,1,rng,num-start-441,441,17520,3.3371422290802,True,,True,1,False,1000,True,1.0
./expes/v2_2020-11-09_3bh_50-prng-1,30_base_hphc_50,50,first-50,11,rng,num-start-231,231,17520,1.7622954845428467,True,,True,1,False,1000,True,1.0
./expes/v2_2020-11-09_3bh_50-prng-1,30_base_hphc_50,50,first-50,41,rng,num-start-181,181,17520,1.4504671096801758,True,,True,1,False,1000,True,1.0
./expes/v2_2020-11-09_3bh_50-prng-1,30_base_hphc_50,50,first-50,31,rng,num-start-951,951,17520,7.437687635421753,True,,True,1,False,1000,True,1.0
./expes/v2_2020-11-09_3bh_50-prng-1,30_base_hphc_50,50,first-50,21,rng,num-start-781,781,17520,6.292387008666992,True,,True,1,False,1000,True,1.0
./expes/v2_2020-11-09_3bh_50-prng-1,30_base_hphc_50,50,first-50,21,rng,num-start-91,91,17520,0.8230044841766357,True,,True,1,False,1000,True,1.0
./expes/v2_2020-11-09_3bh_50-prng-1,30_base_hphc_50,50,first-50,41,rng,num-start-641,641,17520,4.908476829528809,True,,True,1,False,1000,True,1.0
./expes/v2_2020-11-09_3bh_50-prng-1,30_base_hphc_50,50,first-50,31,rng,num-start-151,151,17520,1.305084228515625,True,,True,1,False,1000,True,1.0
./expes/v2_2020-11-09_3bh_50-prng-1,30_base_hphc_50,50,first-50,11,rng,num-start-611,611,17520,4.740900754928589,True,,True,1,False,1000,True,1.0
./expes/v2_2020-11-09_3bh_50-prng-1,30_base_hphc_50,50,first-50,31,rng,num-start-461,461,17520,3.7217953205108643,True,,True,1,False,1000,True,1.0
./expes/v2_2020-11-09_3bh_50-prng-1,30_base_hphc_50,50,first-50,1,rng,num-start-991,991,17520,7.481201887130737,True,,True,1,False,1000,True,1.0
./expes/v2_2020-11-09_3bh_50-prng-1,30_base_hphc_50,50,first-50,41,rng,num-start-111,111,17520,0.870624303817749,True,,True,1,False,1000,True,1.0
./expes/v2_2020-11-09_3bh_50-prng-1,30_base_hphc_50,50,first-50,1,rng,num-start-641,641,17520,4.892370223999023,True,,True,1,False,1000,True,1.0
./expes/v2_2020-11-09_3bh_50-prng-1,30_base_hphc_50,50,first-50,11,rng,num-start-701,701,17520,5.639537572860718,True,,True,1,False,1000,True,1.0
./expes/v2_2020-11-09_3bh_50-prng-1,30_base_hphc_50,50,first-50,41,rng,num-start-731,731,17520,5.572373628616333,True,,True,1,False,1000,True,1.0
./expes/v2_2020-11-09_3bh_50-prng-1,30_base_hphc_50,50,first-50,31,rng,num-start-71,71,17520,0.6529529094696045,True,,True,1,False,1000,True,1.0
./expes/v2_2020-11-09_3bh_50-prng-1,30_base_hphc_50,50,first-50,41,rng,num-start-981,981,17520,7.505194664001465,True,,True,1,False,1000,True,1.0
./expes/v2_2020-11-09_3bh_50-prng-1,30_base_hphc_50,50,first-50,31,rng,num-start-341,341,17520,2.626161813735962,True,,True,1,False,1000,True,1.0
./expes/v2_2020-11-09_3bh_50-prng-1,30_base_hphc_50,50,first-50,31,rng,num-start-291,291,17520,2.2512550354003906,True,,True,1,False,1000,True,1.0
./expes/v2_2020-11-09_3bh_50-prng-1,30_base_hphc_50,50,first-50,21,rng,num-start-611,611,17520,4.914627313613892,True,,True,1,False,1000,True,1.0
./expes/v2_2020-11-09_3bh_50-prng-1,30_base_hphc_50,50,first-50,11,rng,num-start-141,141,17520,1.2184569835662842,True,,True,1,False,1000,True,1.0
./expes/v2_2020-11-09_3bh_50-prng-1,30_base_hphc_50,50,first-50,21,rng,num-start-681,681,17520,5.4642698764801025,True,,True,1,False,1000,True,1.0
./expes/v2_2020-11-09_3bh_50-prng-1,30_base_hphc_50,50,first-50,11,rng,num-start-921,921,17520,7.414707660675049,True,,True,1,False,1000,True,1.0
./expes/v2_2020-11-09_3bh_50-prng-1,30_base_hphc_50,50,first-50,21,rng,num-start-881,881,17520,6.981799364089966,True,,True,1,False,1000,True,1.0
./expes/v2_2020-11-09_3bh_50-prng-1,30_base_hphc_50,50,first-50,21,rng,num-start-431,431,17520,3.60188889503479,True,,True,1,False,1000,True,1.0
./expes/v2_2020-11-09_3bh_50-prng-1,30_base_hphc_50,50,first-50,31,rng,num-start-141,141,17520,1.2247982025146484,True,,True,1,False,1000,True,1.0
./expes/v2_2020-11-09_3bh_50-prng-1,30_base_hphc_50,50,first-50,41,rng,num-start-421,421,17520,3.23079776763916,True,,True,1,False,1000,True,1.0
./expes/v2_2020-11-09_3bh_50-prng-1,30_base_hphc_50,50,first-50,31,rng,num-start-911,911,17520,7.266038179397583,True,,True,1,False,1000,True,1.0
./expes/v2_2020-11-09_3bh_50-prng-1,30_base_hphc_50,50,first-50,1,rng,num-start-921,921,17520,6.974831819534302,True,,True,1,False,1000,True,1.0
./expes/v2_2020-11-09_3bh_50-prng-1,30_base_hphc_50,50,first-50,11,rng,num-start-321,321,17520,2.4530367851257324,True,,True,1,False,1000,True,1.0
./expes/v2_2020-11-09_3bh_50-prng-1,30_base_hphc_50,50,first-50,31,rng,num-start-401,401,17520,3.271402597427368,True,,True,1,False,1000,True,1.0
./expes/v2_2020-11-09_3bh_50-prng-1,30_base_hphc_50,50,first-50,31,rng,num-start-601,601,17520,4.816862106323242,True,,True,1,False,1000,True,1.0
./expes/v2_2020-11-09_3bh_50-prng-1,30_base_hphc_50,50,first-50,31,rng,num-start-91,91,17520,0.830125093460083,True,,True,1,False,1000,True,1.0
./expes/v2_2020-11-09_3bh_50-prng-1,30_base_hphc_50,50,first-50,31,rng,num-start-981,981,17520,7.830968141555786,True,,True,1,False,1000,True,1.0
./expes/v2_2020-11-09_3bh_50-prng-1,30_base_hphc_50,50,first-50,1,rng,num-start-691,691,17520,5.264513969421387,True,,True,1,False,1000,True,1.0
./expes/v2_2020-11-09_3bh_50-prng-1,30_base_hphc_50,50,first-50,1,rng,num-start-791,791,17520,6.000765323638916,True,,True,1,False,1000,True,1.0
./expes/v2_2020-11-09_3bh_50-prng-1,30_base_hphc_50,50,first-50,1,rng,num-start-841,841,17520,6.544972658157349,True,,True,1,False,1000,True,1.0
./expes/v2_2020-11-09_3bh_50-prng-1,30_base_hphc_50,50,first-50,41,rng,num-start-321,321,17520,2.4488868713378906,True,,True,1,False,1000,True,1.0
./expes/v2_2020-11-09_3bh_50-prng-1,30_base_hphc_50,50,first-50,1,rng,num-start-831,831,17520,6.247280836105347,True,,True,1,False,1000,True,1.0
./expes/v2_2020-11-09_3bh_50-prng-1,30_base_hphc_50,50,first-50,41,rng,num-start-311,311,17520,2.3883800506591797,True,,True,1,False,1000,True,1.0
./expes/v2_2020-11-09_3bh_50-prng-1,30_base_hphc_50,50,first-50,1,rng,num-start-501,501,17520,3.8313772678375244,True,,True,1,False,1000,True,1.0
./expes/v2_2020-11-09_3bh_50-prng-1,30_base_hphc_50,50,first-50,41,rng,num-start-261,261,17520,2.0124495029449463,True,,True,1,False,1000,True,1.0
./expes/v2_2020-11-09_3bh_50-prng-1,30_base_hphc_50,50,first-50,31,rng,num-start-401,401,17520,3.3087127208709717,True,,True,1,False,1000,True,1.0
./expes/v2_2020-11-09_3bh_50-prng-1,30_base_hphc_50,50,first-50,1,rng,num-start-381,381,17520,2.8952410221099854,True,,True,1,False,1000,True,1.0
./expes/v2_2020-11-09_3bh_50-prng-1,30_base_hphc_50,50,first-50,1,rng,num-start-801,801,17520,6.082922697067261,True,,True,1,False,1000,True,1.0
./expes/v2_2020-11-09_3bh_50-prng-1,30_base_hphc_50,50,first-50,1,rng,num-start-571,571,17520,4.333406686782837,True,,True,1,False,1000,True,1.0
./expes/v2_2020-11-09_3bh_50-prng-1,30_base_hphc_50,50,first-50,21,rng,num-start-931,931,17520,7.483793020248413,True,,True,1,False,1000,True,1.0
./expes/v2_2020-11-09_3bh_50-prng-1,30_base_hphc_50,50,first-50,21,rng,num-start-651,651,17520,5.175777912139893,True,,True,1,False,1000,True,1.0
./expes/v2_2020-11-09_3bh_50-prng-1,30_base_hphc_50,50,first-50,41,rng,num-start-121,121,17520,0.9439263343811035,True,,True,1,False,1000,True,1.0
./expes/v2_2020-11-09_3bh_50-prng-1,30_base_hphc_50,50,first-50,21,rng,num-start-431,431,17520,3.490079164505005,True,,True,1,False,1000,True,1.0
./expes/v2_2020-11-09_3bh_50-prng-1,30_base_hphc_50,50,first-50,31,rng,num-start-541,541,17520,4.284984827041626,True,,True,1,False,1000,True,1.0
./expes/v2_2020-11-09_3bh_50-prng-1,30_base_hphc_50,50,first-50,41,rng,num-start-991,991,17520,7.578566312789917,True,,True,1,False,1000,True,1.0
./expes/v2_2020-11-09_3bh_50-prng-1,30_base_hphc_50,50,first-50,1,rng,num-start-181,181,17520,1.3670144081115723,True,,True,1,False,1000,True,1.0
./expes/v2_2020-11-09_3bh_50-prng-1,30_base_hphc_50,50,first-50,1,rng,num-start-111,111,17520,0.8394062519073486,True,,True,1,False,1000,True,1.0
./expes/v2_2020-11-09_3bh_50-prng-1,30_base_hphc_50,50,first-50,1,rng,num-start-821,821,17520,6.18289852142334,True,,True,1,False,1000,True,1.0
./expes/v2_2020-11-09_3bh_50-prng-1,30_base_hphc_50,50,first-50,11,rng,num-start-301,301,17520,2.2991931438446045,True,,True,1,False,1000,True,1.0
./expes/v2_2020-11-09_3bh_50-prng-1,30_base_hphc_50,50,first-50,11,rng,num-start-191,191,17520,1.6173121929168701,True,,True,1,False,1000,True,1.0
./expes/v2_2020-11-09_3bh_50-prng-1,30_base_hphc_50,50,first-50,1,rng,num-start-801,801,17520,6.028487682342529,True,,True,1,False,1000,True,1.0
./expes/v2_2020-11-09_3bh_50-prng-1,30_base_hphc_50,50,first-50,31,rng,num-start-61,61,17520,0.5640530586242676,True,,True,1,False,1000,True,1.0
./expes/v2_2020-11-09_3bh_50-prng-1,30_base_hphc_50,50,first-50,11,rng,num-start-571,571,17520,4.3967695236206055,True,,True,1,False,1000,True,1.0
./expes/v2_2020-11-09_3bh_50-prng-1,30_base_hphc_50,50,first-50,31,rng,num-start-441,441,17520,3.6460700035095215,True,,True,1,False,1000,True,1.0
./expes/v2_2020-11-09_3bh_50-prng-1,30_base_hphc_50,50,first-50,31,rng,num-start-391,391,17520,3.0521583557128906,True,,True,1,False,1000,True,1.0
./expes/v2_2020-11-09_3bh_50-prng-1,30_base_hphc_50,50,first-50,41,rng,num-start-671,671,17520,5.106511831283569,True,,True,1,False,1000,True,1.0
./expes/v2_2020-11-09_3bh_50-prng-1,30_base_hphc_50,50,first-50,21,rng,num-start-171,171,17520,1.4721660614013672,True,,True,1,False,1000,True,1.0
./expes/v2_2020-11-09_3bh_50-prng-1,30_base_hphc_50,50,first-50,21,rng,num-start-141,141,17520,1.228696584701538,True,,True,1,False,1000,True,1.0
./expes/v2_2020-11-09_3bh_50-prng-1,30_base_hphc_50,50,first-50,1,rng,num-start-311,311,17520,2.3403193950653076,True,,True,1,False,1000,True,1.0
./expes/v2_2020-11-09_3bh_50-prng-1,30_base_hphc_50,50,first-50,31,rng,num-start-621,621,17520,4.953480958938599,True,,True,1,False,1000,True,1.0
./expes/v2_2020-11-09_3bh_50-prng-1,30_base_hphc_50,50,first-50,1,rng,num-start-381,381,17520,2.9019665718078613,True,,True,1,False,1000,True,1.0
./expes/v2_2020-11-09_3bh_50-prng-1,30_base_hphc_50,50,first-50,21,rng,num-start-981,981,17520,7.729959011077881,True,,True,1,False,1000,True,1.0
./expes/v2_2020-11-09_3bh_50-prng-1,30_base_hphc_50,50,first-50,21,rng,num-start-1,1,17520,0.022753238677978516,False,,False,2,False,1000,True,1.0
./expes/v2_2020-11-09_3bh_50-prng-1,30_base_hphc_50,50,first-50,31,rng,num-start-41,41,17520,0.42469286918640137,True,,True,1,False,1000,True,1.0
./expes/v2_2020-11-09_3bh_50-prng-1,30_base_hphc_50,50,first-50,41,rng,num-start-181,181,17520,1.4221956729888916,True,,True,1,False,1000,True,1.0
./expes/v2_2020-11-09_3bh_50-prng-1,30_base_hphc_50,50,first-50,31,rng,num-start-411,411,17520,3.2284233570098877,True,,True,1,False,1000,True,1.0
./expes/v2_2020-11-09_3bh_50-prng-1,30_base_hphc_50,50,first-50,11,rng,num-start-491,491,17520,3.7613890171051025,True,,True,1,False,1000,True,1.0
./expes/v2_2020-11-09_3bh_50-prng-1,30_base_hphc_50,50,first-50,21,rng,num-start-571,571,17520,4.488280296325684,True,,True,1,False,1000,True,1.0
./expes/v2_2020-11-09_3bh_50-prng-1,30_base_hphc_50,50,first-50,31,rng,num-start-711,711,17520,5.580198764801025,True,,True,1,False,1000,True,1.0
./expes/v2_2020-11-09_3bh_50-prng-1,30_base_hphc_50,50,first-50,1,rng,num-start-321,321,17520,2.443737745285034,True,,True,1,False,1000,True,1.0
./expes/v2_2020-11-09_3bh_50-prng-1,30_base_hphc_50,50,first-50,11,rng,num-start-521,521,17520,3.996443033218384,True,,True,1,False,1000,True,1.0
./expes/v2_2020-11-09_3bh_50-prng-1,30_base_hphc_50,50,first-50,1,rng,num-start-611,611,17520,4.605912208557129,True,,True,1,False,1000,True,1.0
./expes/v2_2020-11-09_3bh_50-prng-1,30_base_hphc_50,50,first-50,1,rng,num-start-391,391,17520,2.9536728858947754,True,,True,1,False,1000,True,1.0
./expes/v2_2020-11-09_3bh_50-prng-1,30_base_hphc_50,50,first-50,31,rng,num-start-811,811,17520,6.411566972732544,True,,True,1,False,1000,True,1.0
./expes/v2_2020-11-09_3bh_50-prng-1,30_base_hphc_50,50,first-50,11,rng,num-start-641,641,17520,5.120572805404663,True,,True,1,False,1000,True,1.0
./expes/v2_2020-11-09_3bh_50-prng-1,30_base_hphc_50,50,first-50,21,rng,num-start-711,711,17520,5.661919355392456,True,,True,1,False,1000,True,1.0
./expes/v2_2020-11-09_3bh_50-prng-1,30_base_hphc_50,50,first-50,31,rng,num-start-391,391,17520,3.210056781768799,True,,True,1,False,1000,True,1.0
./expes/v2_2020-11-09_3bh_50-prng-1,30_base_hphc_50,50,first-50,21,rng,num-start-201,201,17520,1.7398920059204102,True,,True,1,False,1000,True,1.0
./expes/v2_2020-11-09_3bh_50-prng-1,30_base_hphc_50,50,first-50,41,rng,num-start-281,281,17520,2.1221513748168945,True,,True,1,False,1000,True,1.0
./expes/v2_2020-11-09_3bh_50-prng-1,30_base_hphc_50,50,first-50,21,rng,num-start-11,11,17520,0.9944441318511963,True,,True,1,False,1000,True,1.0
./expes/v2_2020-11-09_3bh_50-prng-1,30_base_hphc_50,50,first-50,41,rng,num-start-321,321,17520,2.442774772644043,True,,True,1,False,1000,True,1.0
./expes/v2_2020-11-09_3bh_50-prng-1,30_base_hphc_50,50,first-50,31,rng,num-start-271,271,17520,2.085463047027588,True,,True,1,False,1000,True,1.0
