expe,clients,clients_size,clients_subset,agg_size,agg_size_pc,method,days,days_size,days_total,noise_method,time,valid,valid_sum,success,score_avg,score_min,score_max,nsols,oracle,wall_hit,wall_time,pooled,pool_size,uuid,infeasible,optimal,valid_sums
./expes/v2_2021-04-05_issda-30_1000-prng-1-w86-p2_3d,30_issda-1000,1000,first-1000,50,5,rng,num-start-900,900,25726,classic,113.56960773468018,True,,True,1.0,1.0,1.0,1,"['29', '37', '58', '87', '94', '163', '174', '218', '258', '275', '316', '327', '370', '373', '381', '390', '403', '434', '442', '456', '477', '515', '522', '539', '558', '596', '621', '622', '654', '686', '698', '741', '754', '823', '829', '856', '870', '875', '881', '884', '892', '906', '914', '923', '930', '955', '959', '971', '973', '979']",False,86400,True,2,8b745ce49f,0.0,1.0,1.0
./expes/v2_2021-04-05_issda-30_1000-prng-1-w86-p2_3d,30_issda-1000,1000,first-1000,400,40,rng,num-start-100,100,25726,classic,86406.57757997513,False,,False,0,,,0,"['1', '2', '3', '4', '10', '13', '14', '15', '16', '17', '20', '23', '24', '28', '33', '34', '38', '40', '41', '42', '44', '47', '48', '52', '60', '63', '64', '65', '66', '71', '72', '74', '76', '81', '83', '84', '85', '86', '92', '94', '96', '98', '101', '102', '103', '104', '112', '118', '119', '120', '121', '122', '123', '127', '128', '134', '136', '137', '139', '142', '143', '144', '146', '150', '151', '154', '155', '158', '159', '162', '163', '164', '166', '170', '174', '175', '180', '183', '185', '187', '189', '190', '192', '193', '194', '195', '196', '197', '200', '204', '205', '209', '210', '211', '213', '216', '219', '221', '224', '225', '226', '227', '228', '229', '242', '245', '246', '248', '249', '250', '257', '263', '266', '267', '278', '282', '283', '286', '287', '288', '289', '295', '298', '299', '309', '310', '311', '318', '319', '320', '323', '324', '325', '328', '333', '334', '339', '341', '342', '343', '344', '346', '347', '351', '356', '359', '361', '363', '366', '367', '368', '376', '377', '380', '381', '382', '385', '388', '395', '398', '401', '407', '409', '412', '415', '420', '425', '426', '428', '429', '430', '431', '436', '437', '445', '446', '447', '453', '454', '456', '457', '458', '459', '462', '464', '469', '470', '479', '482', '483', '484', '488', '489', '491', '494', '498', '499', '502', '505', '506', '507', '516', '517', '521', '524', '534', '535', '538', '541', '542', '543', '546', '548', '551', '554', '557', '558', '561', '562', '565', '566', '572', '574', '575', '582', '583', '584', '588', '590', '594', '598', '602', '604', '605', '609', '611', '612', '617', '618', '619', '621', '623', '625', '626', '627', '628', '634', '636', '641', '643', '646', '649', '650', '651', '653', '656', '657', '660', '661', '663', '665', '667', '670', '672', '673', '674', '677', '679', '682', '685', '689', '690', '692', '693', '695', '696', '697', '698', '700', '701', '706', '708', '715', '716', '717', '718', '719', '721', '723', '724', '727', '728', '730', '733', '735', '736', '737', '743', '745', '748', '750', '757', '760', '767', '768', '773', '774', '776', '777', '781', '786', '791', '799', '802', '803', '804', '808', '809', '812', '813', '814', '818', '819', '820', '823', '825', '829', '830', '832', '835', '836', '837', '842', '843', '845', '846', '848', '849', '850', '851', '854', '856', '858', '859', '861', '863', '865', '866', '867', '870', '871', '872', '875', '876', '883', '887', '889', '892', '893', '895', '896', '897', '898', '906', '907', '912', '914', '917', '920', '921', '922', '924', '925', '927', '930', '932', '935', '936', '938', '939', '940', '941', '944', '945', '946', '956', '959', '960', '961', '970', '973', '977', '985', '987', '989', '990', '991', '992', '994', '998']",True,86400,True,2,8b8e92aab4,0.0,0.0,0.0
