expe,clients,clients_size,clients_subset,agg_size,method,days,days_size,days_total,time,valid,valid_sum,success,nsols,wall_hit,wall_time,pooled,valid_sums
./expes/v2_2020-12-14_dh_1000-prng-1-holes,30_issda_1000,1000,rng-1000,301,rng,num-start-1401,1401,25726,438.17804741859436,True,,True,1,False,1000,True,1.0
./expes/v2_2020-12-14_dh_1000-prng-1-holes,30_issda_1000,1000,rng-1000,201,rng,num-start-1401,1401,25726,268.0659923553467,True,,True,1,False,1000,True,1.0
./expes/v2_2020-12-14_dh_1000-prng-1-holes,30_issda_1000,1000,rng-1000,301,rng,num-start-201,201,25726,1014.4948146343231,False,,False,0,True,1000,True,0.0
./expes/v2_2020-12-14_dh_1000-prng-1-holes,30_issda_1000,1000,rng-1000,101,rng,num-start-1201,1201,25726,185.5953574180603,True,,True,1,False,1000,True,1.0
./expes/v2_2020-12-14_dh_1000-prng-1-holes,30_issda_1000,1000,rng-1000,401,rng,num-start-1701,1701,25726,497.38634610176086,True,,True,1,False,1000,True,1.0
./expes/v2_2020-12-14_dh_1000-prng-1-holes,30_issda_1000,1000,rng-1000,601,rng,num-start-1101,1101,25726,313.5951166152954,True,,True,1,False,1000,True,1.0
./expes/v2_2020-12-14_dh_1000-prng-1-holes,30_issda_1000,1000,rng-1000,1,rng,num-start-1301,1301,25726,91.07499647140503,True,,True,1,False,1000,True,1.0
./expes/v2_2020-12-14_dh_1000-prng-1-holes,30_issda_1000,1000,rng-1000,401,rng,num-start-1601,1601,25726,620.8210911750793,True,,True,1,False,1000,True,1.0
./expes/v2_2020-12-14_dh_1000-prng-1-holes,30_issda_1000,1000,rng-1000,701,rng,num-start-401,401,25726,889.7106680870056,True,,True,1,False,1000,True,1.0
./expes/v2_2020-12-14_dh_1000-prng-1-holes,30_issda_1000,1000,rng-1000,501,rng,num-start-1,1,25726,0.16697120666503906,False,,False,2,False,1000,True,1.0
./expes/v2_2020-12-14_dh_1000-prng-1-holes,30_issda_1000,1000,rng-1000,301,rng,num-start-101,101,25726,1007.1353194713593,False,,False,0,True,1000,True,0.0
./expes/v2_2020-12-14_dh_1000-prng-1-holes,30_issda_1000,1000,rng-1000,301,rng,num-start-1,1,25726,0.13847589492797852,False,,False,2,False,1000,True,1.0
./expes/v2_2020-12-14_dh_1000-prng-1-holes,30_issda_1000,1000,rng-1000,301,rng,num-start-1301,1301,25726,339.42816042900085,True,,True,1,False,1000,True,1.0
./expes/v2_2020-12-14_dh_1000-prng-1-holes,30_issda_1000,1000,rng-1000,901,rng,num-start-1801,1801,25726,575.3521118164062,True,,True,1,False,1000,True,1.0
./expes/v2_2020-12-14_dh_1000-prng-1-holes,30_issda_1000,1000,rng-1000,601,rng,num-start-1701,1701,25726,450.6835684776306,True,,True,1,False,1000,True,1.0
./expes/v2_2020-12-14_dh_1000-prng-1-holes,30_issda_1000,1000,rng-1000,301,rng,num-start-801,801,25726,296.8464992046356,True,,True,1,False,1000,True,1.0
./expes/v2_2020-12-14_dh_1000-prng-1-holes,30_issda_1000,1000,rng-1000,901,rng,num-start-1601,1601,25726,412.32477855682373,True,,True,1,False,1000,True,1.0
./expes/v2_2020-12-14_dh_1000-prng-1-holes,30_issda_1000,1000,rng-1000,501,rng,num-start-1901,1901,25726,533.8707008361816,True,,True,1,False,1000,True,1.0
./expes/v2_2020-12-14_dh_1000-prng-1-holes,30_issda_1000,1000,rng-1000,801,rng,num-start-301,301,25726,1025.1524860858917,False,,False,0,True,1000,True,0.0
./expes/v2_2020-12-14_dh_1000-prng-1-holes,30_issda_1000,1000,rng-1000,501,rng,num-start-801,801,25726,297.9296112060547,True,,True,1,False,1000,True,1.0
./expes/v2_2020-12-14_dh_1000-prng-1-holes,30_issda_1000,1000,rng-1000,501,rng,num-start-1701,1701,25726,568.7534985542297,True,,True,1,False,1000,True,1.0
./expes/v2_2020-12-14_dh_1000-prng-1-holes,30_issda_1000,1000,rng-1000,201,rng,num-start-1501,1501,25726,314.74527859687805,True,,True,1,False,1000,True,1.0
./expes/v2_2020-12-14_dh_1000-prng-1-holes,30_issda_1000,1000,rng-1000,901,rng,num-start-901,901,25726,213.60036873817444,True,,True,1,False,1000,True,1.0
./expes/v2_2020-12-14_dh_1000-prng-1-holes,30_issda_1000,1000,rng-1000,801,rng,num-start-501,501,25726,514.3165144920349,True,,True,1,False,1000,True,1.0
./expes/v2_2020-12-14_dh_1000-prng-1-holes,30_issda_1000,1000,rng-1000,301,rng,num-start-1101,1101,25726,282.30609917640686,True,,True,1,False,1000,True,1.0
./expes/v2_2020-12-14_dh_1000-prng-1-holes,30_issda_1000,1000,rng-1000,501,rng,num-start-1601,1601,25726,628.8437094688416,True,,True,1,False,1000,True,1.0
./expes/v2_2020-12-14_dh_1000-prng-1-holes,30_issda_1000,1000,rng-1000,201,rng,num-start-401,401,25726,89.84167647361755,True,,True,1,False,1000,True,1.0
./expes/v2_2020-12-14_dh_1000-prng-1-holes,30_issda_1000,1000,rng-1000,701,rng,num-start-1001,1001,25726,236.56599807739258,True,,True,1,False,1000,True,1.0
./expes/v2_2020-12-14_dh_1000-prng-1-holes,30_issda_1000,1000,rng-1000,301,rng,num-start-1201,1201,25726,262.53378343582153,True,,True,1,False,1000,True,1.0
./expes/v2_2020-12-14_dh_1000-prng-1-holes,30_issda_1000,1000,rng-1000,901,rng,num-start-1,1,25726,0.11745524406433105,False,,False,2,False,1000,True,1.0
./expes/v2_2020-12-14_dh_1000-prng-1-holes,30_issda_1000,1000,rng-1000,801,rng,num-start-1501,1501,25726,377.589332818985,True,,True,1,False,1000,True,1.0
./expes/v2_2020-12-14_dh_1000-prng-1-holes,30_issda_1000,1000,rng-1000,201,rng,num-start-1,1,25726,0.1995837688446045,False,,False,2,False,1000,True,1.0
./expes/v2_2020-12-14_dh_1000-prng-1-holes,30_issda_1000,1000,rng-1000,401,rng,num-start-1701,1701,25726,467.86944246292114,True,,True,1,False,1000,True,1.0
./expes/v2_2020-12-14_dh_1000-prng-1-holes,30_issda_1000,1000,rng-1000,401,rng,num-start-501,501,25726,118.01328587532043,True,,True,1,False,1000,True,1.0
./expes/v2_2020-12-14_dh_1000-prng-1-holes,30_issda_1000,1000,rng-1000,201,rng,num-start-201,201,25726,1013.8413248062134,False,,False,0,True,1000,True,0.0
./expes/v2_2020-12-14_dh_1000-prng-1-holes,30_issda_1000,1000,rng-1000,501,rng,num-start-1901,1901,25726,491.6690003871918,True,,True,1,False,1000,True,1.0
./expes/v2_2020-12-14_dh_1000-prng-1-holes,30_issda_1000,1000,rng-1000,1,rng,num-start-201,201,25726,13.995752096176147,True,,True,1,False,1000,True,1.0
./expes/v2_2020-12-14_dh_1000-prng-1-holes,30_issda_1000,1000,rng-1000,201,rng,num-start-1601,1601,25726,349.64789867401123,True,,True,1,False,1000,True,1.0
./expes/v2_2020-12-14_dh_1000-prng-1-holes,30_issda_1000,1000,rng-1000,601,rng,num-start-1301,1301,25726,347.2134110927582,True,,True,1,False,1000,True,1.0
./expes/v2_2020-12-14_dh_1000-prng-1-holes,30_issda_1000,1000,rng-1000,801,rng,num-start-1001,1001,25726,225.1110348701477,True,,True,1,False,1000,True,1.0
./expes/v2_2020-12-14_dh_1000-prng-1-holes,30_issda_1000,1000,rng-1000,801,rng,num-start-1701,1701,25726,341.64298725128174,False,,False,2,False,1000,True,1.0
./expes/v2_2020-12-14_dh_1000-prng-1-holes,30_issda_1000,1000,rng-1000,101,rng,num-start-601,601,25726,76.63753032684326,True,,True,1,False,1000,True,1.0
./expes/v2_2020-12-14_dh_1000-prng-1-holes,30_issda_1000,1000,rng-1000,101,rng,num-start-601,601,25726,89.51103067398071,True,,False,2,False,1000,True,1.0
./expes/v2_2020-12-14_dh_1000-prng-1-holes,30_issda_1000,1000,rng-1000,501,rng,num-start-1901,1901,25726,725.1946711540222,True,,True,1,False,1000,True,1.0
./expes/v2_2020-12-14_dh_1000-prng-1-holes,30_issda_1000,1000,rng-1000,601,rng,num-start-401,401,25726,1028.5359523296356,False,,False,0,True,1000,True,0.0
./expes/v2_2020-12-14_dh_1000-prng-1-holes,30_issda_1000,1000,rng-1000,201,rng,num-start-901,901,25726,170.73166418075562,True,,True,1,False,1000,True,1.0
./expes/v2_2020-12-14_dh_1000-prng-1-holes,30_issda_1000,1000,rng-1000,901,rng,num-start-201,201,25726,1013.911630153656,False,,False,0,True,1000,True,0.0
./expes/v2_2020-12-14_dh_1000-prng-1-holes,30_issda_1000,1000,rng-1000,201,rng,num-start-1801,1801,25726,352.9002137184143,True,,True,1,False,1000,True,1.0
./expes/v2_2020-12-14_dh_1000-prng-1-holes,30_issda_1000,1000,rng-1000,401,rng,num-start-1901,1901,25726,711.4175102710724,True,,True,1,False,1000,True,1.0
