expe,clients,clients_size,clients_subset,agg_size,method,days,days_size,days_total,time,valid,valid_sum,success,nsols,wall_hit,wall_time,pooled,valid_sums
./expes/v2_2020-12-02_dh_200-prng-1,30_issda_200,200,rng-200,151,rng,num-start-5001,5001,25726,138.17501401901245,True,,True,1,False,1000,True,1.0
./expes/v2_2020-12-02_dh_200-prng-1,30_issda_200,200,rng-200,61,rng,num-start-12001,12001,25726,321.26390838623047,True,,True,1,False,1000,True,1.0
./expes/v2_2020-12-02_dh_200-prng-1,30_issda_200,200,rng-200,81,rng,num-start-7001,7001,25726,187.39706993103027,True,,True,1,False,1000,True,1.0
./expes/v2_2020-12-02_dh_200-prng-1,30_issda_200,200,rng-200,51,rng,num-start-1001,1001,25726,28.54255175590515,True,,True,1,False,1000,True,1.0
./expes/v2_2020-12-02_dh_200-prng-1,30_issda_200,200,rng-200,61,rng,num-start-13001,13001,25726,337.43225622177124,True,,True,1,False,1000,True,1.0
./expes/v2_2020-12-02_dh_200-prng-1,30_issda_200,200,rng-200,1,rng,num-start-4001,4001,25726,88.1987361907959,True,,True,1,False,1000,True,1.0
./expes/v2_2020-12-02_dh_200-prng-1,30_issda_200,200,rng-200,21,rng,num-start-13001,13001,25726,310.3344237804413,True,,True,1,False,1000,True,1.0
./expes/v2_2020-12-02_dh_200-prng-1,30_issda_200,200,rng-200,11,rng,num-start-12001,12001,25726,266.9285407066345,True,,True,1,False,1000,True,1.0
./expes/v2_2020-12-02_dh_200-prng-1,30_issda_200,200,rng-200,191,rng,num-start-13001,13001,25726,287.77178859710693,True,,True,1,False,1000,True,1.0
./expes/v2_2020-12-02_dh_200-prng-1,30_issda_200,200,rng-200,41,rng,num-start-16001,16001,25726,407.0250470638275,True,,True,1,False,1000,True,1.0
./expes/v2_2020-12-02_dh_200-prng-1,30_issda_200,200,rng-200,161,rng,num-start-14001,14001,25726,370.6024479866028,True,,True,1,False,1000,True,1.0
./expes/v2_2020-12-02_dh_200-prng-1,30_issda_200,200,rng-200,81,rng,num-start-12001,12001,25726,319.5202372074127,True,,True,1,False,1000,True,1.0
./expes/v2_2020-12-02_dh_200-prng-1,30_issda_200,200,rng-200,161,rng,num-start-10001,10001,25726,253.36757230758667,True,,True,1,False,1000,True,1.0
./expes/v2_2020-12-02_dh_200-prng-1,30_issda_200,200,rng-200,51,rng,num-start-11001,11001,25726,290.8199670314789,True,,True,1,False,1000,True,1.0
./expes/v2_2020-12-02_dh_200-prng-1,30_issda_200,200,rng-200,1,rng,num-start-4001,4001,25726,87.84525322914124,True,,True,1,False,1000,True,1.0
./expes/v2_2020-12-02_dh_200-prng-1,30_issda_200,200,rng-200,61,rng,num-start-13001,13001,25726,334.00913643836975,True,,True,1,False,1000,True,1.0
./expes/v2_2020-12-02_dh_200-prng-1,30_issda_200,200,rng-200,101,rng,num-start-14001,14001,25726,345.59548258781433,True,,True,1,False,1000,True,1.0
./expes/v2_2020-12-02_dh_200-prng-1,30_issda_200,200,rng-200,141,rng,num-start-6001,6001,25726,151.26440525054932,True,,True,1,False,1000,True,1.0
./expes/v2_2020-12-02_dh_200-prng-1,30_issda_200,200,rng-200,81,rng,num-start-7001,7001,25726,180.66500401496887,True,,True,1,False,1000,True,1.0
./expes/v2_2020-12-02_dh_200-prng-1,30_issda_200,200,rng-200,51,rng,num-start-12001,12001,25726,317.81888365745544,True,,True,1,False,1000,True,1.0
./expes/v2_2020-12-02_dh_200-prng-1,30_issda_200,200,rng-200,21,rng,num-start-1,1,25726,0.0734710693359375,False,,False,2,False,1000,True,1.0
./expes/v2_2020-12-02_dh_200-prng-1,30_issda_200,200,rng-200,81,rng,num-start-12001,12001,25726,296.6342384815216,True,,True,1,False,1000,True,1.0
./expes/v2_2020-12-02_dh_200-prng-1,30_issda_200,200,rng-200,41,rng,num-start-14001,14001,25726,359.64779901504517,True,,True,1,False,1000,True,1.0
./expes/v2_2020-12-02_dh_200-prng-1,30_issda_200,200,rng-200,101,rng,num-start-4001,4001,25726,134.60699367523193,True,,True,1,False,1000,True,1.0
./expes/v2_2020-12-02_dh_200-prng-1,30_issda_200,200,rng-200,1,rng,num-start-8001,8001,25726,177.39540553092957,True,,True,1,False,1000,True,1.0
./expes/v2_2020-12-02_dh_200-prng-1,30_issda_200,200,rng-200,1,rng,num-start-14001,14001,25726,312.5748691558838,True,,True,1,False,1000,True,1.0
./expes/v2_2020-12-02_dh_200-prng-1,30_issda_200,200,rng-200,51,rng,num-start-4001,4001,25726,98.65502166748047,True,,True,1,False,1000,True,1.0
./expes/v2_2020-12-02_dh_200-prng-1,30_issda_200,200,rng-200,151,rng,num-start-12001,12001,25726,308.29941415786743,True,,True,1,False,1000,True,1.0
./expes/v2_2020-12-02_dh_200-prng-1,30_issda_200,200,rng-200,41,rng,num-start-6001,6001,25726,145.44203639030457,True,,True,1,False,1000,True,1.0
./expes/v2_2020-12-02_dh_200-prng-1,30_issda_200,200,rng-200,1,rng,num-start-9001,9001,25726,200.190288066864,True,,True,1,False,1000,True,1.0
./expes/v2_2020-12-02_dh_200-prng-1,30_issda_200,200,rng-200,121,rng,num-start-13001,13001,25726,350.1359848976135,True,,True,1,False,1000,True,1.0
./expes/v2_2020-12-02_dh_200-prng-1,30_issda_200,200,rng-200,131,rng,num-start-11001,11001,25726,281.6188430786133,True,,True,1,False,1000,True,1.0
./expes/v2_2020-12-02_dh_200-prng-1,30_issda_200,200,rng-200,151,rng,num-start-10001,10001,25726,244.30101919174194,True,,True,1,False,1000,True,1.0
./expes/v2_2020-12-02_dh_200-prng-1,30_issda_200,200,rng-200,191,rng,num-start-12001,12001,25726,270.30875420570374,True,,True,1,False,1000,True,1.0
./expes/v2_2020-12-02_dh_200-prng-1,30_issda_200,200,rng-200,91,rng,num-start-5001,5001,25726,128.7114176750183,True,,True,1,False,1000,True,1.0
./expes/v2_2020-12-02_dh_200-prng-1,30_issda_200,200,rng-200,11,rng,num-start-4001,4001,25726,103.51527833938599,True,,True,1,False,1000,True,1.0
./expes/v2_2020-12-02_dh_200-prng-1,30_issda_200,200,rng-200,21,rng,num-start-8001,8001,25726,187.8273365497589,True,,True,1,False,1000,True,1.0
./expes/v2_2020-12-02_dh_200-prng-1,30_issda_200,200,rng-200,121,rng,num-start-15001,15001,25726,386.60253286361694,True,,True,1,False,1000,True,1.0
./expes/v2_2020-12-02_dh_200-prng-1,30_issda_200,200,rng-200,81,rng,num-start-1001,1001,25726,24.37250018119812,True,,True,1,False,1000,True,1.0
./expes/v2_2020-12-02_dh_200-prng-1,30_issda_200,200,rng-200,191,rng,num-start-4001,4001,25726,87.89692282676697,True,,True,1,False,1000,True,1.0
./expes/v2_2020-12-02_dh_200-prng-1,30_issda_200,200,rng-200,151,rng,num-start-15001,15001,25726,394.0238845348358,True,,True,1,False,1000,True,1.0
./expes/v2_2020-12-02_dh_200-prng-1,30_issda_200,200,rng-200,171,rng,num-start-4001,4001,25726,95.16873812675476,True,,True,1,False,1000,True,1.0
./expes/v2_2020-12-02_dh_200-prng-1,30_issda_200,200,rng-200,1,rng,num-start-14001,14001,25726,319.31488156318665,True,,True,1,False,1000,True,1.0
./expes/v2_2020-12-02_dh_200-prng-1,30_issda_200,200,rng-200,171,rng,num-start-12001,12001,25726,336.32343077659607,True,,True,1,False,1000,True,1.0
./expes/v2_2020-12-02_dh_200-prng-1,30_issda_200,200,rng-200,71,rng,num-start-5001,5001,25726,125.03527688980103,True,,True,1,False,1000,True,1.0
./expes/v2_2020-12-02_dh_200-prng-1,30_issda_200,200,rng-200,41,rng,num-start-1001,1001,25726,24.80506682395935,True,,True,1,False,1000,True,1.0
./expes/v2_2020-12-02_dh_200-prng-1,30_issda_200,200,rng-200,171,rng,num-start-7001,7001,25726,172.9704749584198,True,,True,1,False,1000,True,1.0
./expes/v2_2020-12-02_dh_200-prng-1,30_issda_200,200,rng-200,21,rng,num-start-10001,10001,25726,243.24100804328918,True,,True,1,False,1000,True,1.0
./expes/v2_2020-12-02_dh_200-prng-1,30_issda_200,200,rng-200,31,rng,num-start-1001,1001,25726,23.92632031440735,True,,True,1,False,1000,True,1.0
./expes/v2_2020-12-02_dh_200-prng-1,30_issda_200,200,rng-200,71,rng,num-start-7001,7001,25726,183.60962772369385,True,,True,1,False,1000,True,1.0
./expes/v2_2020-12-02_dh_200-prng-1,30_issda_200,200,rng-200,81,rng,num-start-11001,11001,25726,277.4189817905426,True,,True,1,False,1000,True,1.0
./expes/v2_2020-12-02_dh_200-prng-1,30_issda_200,200,rng-200,71,rng,num-start-11001,11001,25726,272.2287459373474,True,,True,1,False,1000,True,1.0
./expes/v2_2020-12-02_dh_200-prng-1,30_issda_200,200,rng-200,111,rng,num-start-13001,13001,25726,333.1742820739746,True,,True,1,False,1000,True,1.0
./expes/v2_2020-12-02_dh_200-prng-1,30_issda_200,200,rng-200,171,rng,num-start-3001,3001,25726,72.87944102287292,True,,True,1,False,1000,True,1.0
./expes/v2_2020-12-02_dh_200-prng-1,30_issda_200,200,rng-200,121,rng,num-start-14001,14001,25726,353.43780279159546,True,,True,1,False,1000,True,1.0
./expes/v2_2020-12-02_dh_200-prng-1,30_issda_200,200,rng-200,181,rng,num-start-3001,3001,25726,71.74011564254761,True,,True,1,False,1000,True,1.0
./expes/v2_2020-12-02_dh_200-prng-1,30_issda_200,200,rng-200,71,rng,num-start-10001,10001,25726,269.5156190395355,True,,True,1,False,1000,True,1.0
./expes/v2_2020-12-02_dh_200-prng-1,30_issda_200,200,rng-200,131,rng,num-start-5001,5001,25726,126.9306058883667,True,,True,1,False,1000,True,1.0
./expes/v2_2020-12-02_dh_200-prng-1,30_issda_200,200,rng-200,141,rng,num-start-3001,3001,25726,79.37228345870972,True,,True,1,False,1000,True,1.0
./expes/v2_2020-12-02_dh_200-prng-1,30_issda_200,200,rng-200,171,rng,num-start-1,1,25726,0.22869634628295898,False,,False,2,False,1000,True,1.0
./expes/v2_2020-12-02_dh_200-prng-1,30_issda_200,200,rng-200,171,rng,num-start-11001,11001,25726,279.11585783958435,True,,True,1,False,1000,True,1.0
./expes/v2_2020-12-02_dh_200-prng-1,30_issda_200,200,rng-200,61,rng,num-start-12001,12001,25726,297.5657696723938,True,,True,1,False,1000,True,1.0
./expes/v2_2020-12-02_dh_200-prng-1,30_issda_200,200,rng-200,41,rng,num-start-9001,9001,25726,243.68575048446655,True,,True,1,False,1000,True,1.0
./expes/v2_2020-12-02_dh_200-prng-1,30_issda_200,200,rng-200,91,rng,num-start-12001,12001,25726,295.6413767337799,True,,True,1,False,1000,True,1.0
./expes/v2_2020-12-02_dh_200-prng-1,30_issda_200,200,rng-200,1,rng,num-start-2001,2001,25726,43.938273906707764,True,,True,1,False,1000,True,1.0
./expes/v2_2020-12-02_dh_200-prng-1,30_issda_200,200,rng-200,71,rng,num-start-4001,4001,25726,100.56018662452698,True,,True,1,False,1000,True,1.0
./expes/v2_2020-12-02_dh_200-prng-1,30_issda_200,200,rng-200,121,rng,num-start-9001,9001,25726,242.23498225212097,True,,True,1,False,1000,True,1.0
./expes/v2_2020-12-02_dh_200-prng-1,30_issda_200,200,rng-200,21,rng,num-start-13001,13001,25726,320.154629945755,True,,True,1,False,1000,True,1.0
./expes/v2_2020-12-02_dh_200-prng-1,30_issda_200,200,rng-200,181,rng,num-start-10001,10001,25726,235.4701054096222,True,,True,1,False,1000,True,1.0
./expes/v2_2020-12-02_dh_200-prng-1,30_issda_200,200,rng-200,1,rng,num-start-14001,14001,25726,310.8397603034973,True,,True,1,False,1000,True,1.0
./expes/v2_2020-12-02_dh_200-prng-1,30_issda_200,200,rng-200,191,rng,num-start-5001,5001,25726,112.50105142593384,True,,True,1,False,1000,True,1.0
./expes/v2_2020-12-02_dh_200-prng-1,30_issda_200,200,rng-200,91,rng,num-start-1001,1001,25726,23.55644702911377,True,,True,1,False,1000,True,1.0
./expes/v2_2020-12-02_dh_200-prng-1,30_issda_200,200,rng-200,101,rng,num-start-6001,6001,25726,155.71178340911865,True,,True,1,False,1000,True,1.0
./expes/v2_2020-12-02_dh_200-prng-1,30_issda_200,200,rng-200,151,rng,num-start-1001,1001,25726,23.84544849395752,True,,True,1,False,1000,True,1.0
./expes/v2_2020-12-02_dh_200-prng-1,30_issda_200,200,rng-200,91,rng,num-start-16001,16001,25726,419.94321274757385,True,,True,1,False,1000,True,1.0
./expes/v2_2020-12-02_dh_200-prng-1,30_issda_200,200,rng-200,181,rng,num-start-1,1,25726,0.05863165855407715,False,,False,2,False,1000,True,1.0
./expes/v2_2020-12-02_dh_200-prng-1,30_issda_200,200,rng-200,81,rng,num-start-5001,5001,25726,123.85842323303223,True,,True,1,False,1000,True,1.0
./expes/v2_2020-12-02_dh_200-prng-1,30_issda_200,200,rng-200,111,rng,num-start-7001,7001,25726,177.43592190742493,True,,True,1,False,1000,True,1.0
./expes/v2_2020-12-02_dh_200-prng-1,30_issda_200,200,rng-200,181,rng,num-start-1,1,25726,0.3414795398712158,False,,False,2,False,1000,True,1.0
./expes/v2_2020-12-02_dh_200-prng-1,30_issda_200,200,rng-200,31,rng,num-start-3001,3001,25726,71.90119171142578,True,,True,1,False,1000,True,1.0
