expe,clients,clients_size,clients_subset,agg_size,agg_size_pc,method,days,days_size,days_total,noise_method,time,valid,valid_sum,success,score_avg,score_min,score_max,nsols,oracle,wall_hit,wall_time,pooled,pool_size,uuid,optimal,valid_sums
./expes/v3_2021-02-09_hi_2000-prng-1-w5-p10,30_issda-2000,2000,first-2000,450,22,rng,num-start-15800,15800,25726,classic,7068.416316986084,True,,False,1.0,1.0,1.0,1,"Index(['6', '9', '11', '16', '31', '33', '34', '52', '64', '66',
       ...
       '1958', '1971', '1974', '1976', '1984', '1986', '1987', '1988', '1995',
       '1997'],
      dtype='object', length=450)",True,5000,True,10,6de737c0be,0.0,1.0
./expes/v3_2021-02-09_hi_2000-prng-1-w5-p10,30_issda-2000,2000,first-2000,1000,50,rng,num-start-11800,11800,25726,classic,6507.3087368011475,True,,False,1.0,1.0,1.0,1,"Index(['4', '5', '8', '9', '13', '14', '15', '16', '17', '18',
       ...
       '1979', '1980', '1981', '1982', '1987', '1989', '1990', '1992', '1999',
       '2000'],
      dtype='object', length=1000)",True,5000,True,10,7e5f9bfa7c,0.0,1.0
./expes/v3_2021-02-09_hi_2000-prng-1-w5-p10,30_issda-2000,2000,first-2000,1000,50,rng,num-start-11300,11300,25726,classic,6532.609560012817,True,,False,1.0,1.0,1.0,1,"Index(['1', '3', '4', '9', '12', '13', '14', '16', '18', '19',
       ...
       '1981', '1982', '1983', '1985', '1986', '1987', '1993', '1994', '1998',
       '1999'],
      dtype='object', length=1000)",True,5000,True,10,d3d9a4b37c,0.0,1.0
./expes/v3_2021-02-09_hi_2000-prng-1-w5-p10,30_issda-2000,2000,first-2000,300,15,rng,num-start-231,231,25726,classic,5030.636777877808,False,,False,0,,,0,"Index(['11', '17', '20', '22', '25', '32', '37', '40', '43', '54',
       ...
       '1961', '1962', '1966', '1968', '1970', '1976', '1982', '1987', '1992',
       '1994'],
      dtype='object', length=300)",True,5000,True,10,a40d200248,0.0,0.0
./expes/v3_2021-02-09_hi_2000-prng-1-w5-p10,30_issda-2000,2000,first-2000,300,15,rng,num-start-8800,8800,25726,classic,4525.210228204727,True,,True,1.0,1.0,1.0,1,"Index(['6', '9', '11', '16', '31', '52', '66', '67', '68', '71',
       ...
       '1941', '1951', '1952', '1971', '1974', '1984', '1986', '1987', '1988',
       '1995'],
      dtype='object', length=300)",False,5000,True,10,47a26ace23,1.0,1.0
./expes/v3_2021-02-09_hi_2000-prng-1-w5-p10,30_issda-2000,2000,first-2000,50,2,rng,num-start-14800,14800,25726,classic,2882.036973953247,True,,True,1.0,1.0,1.0,1,"Index(['77', '96', '99', '102', '119', '122', '127', '144', '149', '177',
       '186', '193', '242', '254', '273', '296', '309', '440', '453', '458',
       '493', '594', '664', '749', '809', '813', '857', '859', '870', '889',
       '1040', '1098', '1108', '1129', '1141', '1159', '1170', '1182', '1194',
       '1200', '1285', '1292', '1334', '1682', '1694', '1759', '1864', '1941',
       '1942', '2000'],
      dtype='object')",False,5000,True,10,caa215d64a,1.0,1.0
