expe,clients,clients_size,clients_subset,agg_size,agg_size_pc,method,days,days_size,days_total,noise_method,time,valid,valid_sum,success,score_avg,score_min,score_max,nsols,oracle,wall_hit,wall_time,pooled,pool_size,uuid,optimal,valid_sums
./expes/v3_2021-02-09_hi_2000-prng-1-w5-p10,30_issda-2000,2000,first-2000,500,25,rng,num-start-1,1,25726,classic,1.5166106224060059,False,,False,0.37582823062820003,0.37294609617741026,0.38016768715399807,10,"Index(['11', '15', '16', '17', '20', '22', '25', '32', '37', '40',
       ...
       '1975', '1976', '1982', '1987', '1990', '1992', '1994', '1996', '1997',
       '1998'],
      dtype='object', length=500)",False,5000,True,10,41fbc5c00b,1.0,1.0
./expes/v3_2021-02-09_hi_2000-prng-1-w5-p10,30_issda-2000,2000,first-2000,850,42,rng,num-start-231,231,25726,classic,5042.164399623871,False,,False,0,,,0,"Index(['1', '2', '10', '11', '14', '20', '22', '23', '24', '25',
       ...
       '1974', '1975', '1976', '1981', '1984', '1986', '1987', '1989', '1993',
       '1997'],
      dtype='object', length=850)",True,5000,True,10,bb36921b14,0.0,0.0
