expe,clients,clients_size,clients_subset,agg_size,agg_size_pc,method,days,days_size,days_total,noise_method,time,valid,valid_sum,success,score_avg,score_min,score_max,nsols,oracle,wall_hit,wall_time,pooled,pool_size,uuid,optimal,valid_sums
./expes/v3_2021-02-09_hi_2000-prng-1-w5-p10,30_issda-2000,2000,first-2000,250,12,rng,num-start-1,1,25726,classic,1.8773481845855713,False,,False,0.5302030456673021,0.5276531403958644,0.5319086042476442,10,"Index(['1', '2', '10', '20', '23', '31', '32', '35', '41', '61',
       ...
       '1909', '1926', '1946', '1963', '1965', '1972', '1975', '1976', '1989',
       '1997'],
      dtype='object', length=250)",False,5000,True,10,c5a7c68192,1.0,1.0
./expes/v3_2021-02-09_hi_2000-prng-1-w5-p10,30_issda-2000,2000,first-2000,150,7,rng,num-start-201,201,25726,classic,5036.6519656181335,False,,False,0,,,0,"Index(['11', '20', '37', '40', '43', '56', '104', '106', '111', '120',
       ...
       '1878', '1880', '1885', '1925', '1936', '1949', '1957', '1961', '1966',
       '1968'],
      dtype='object', length=150)",True,5000,True,10,06d24d0a62,0.0,0.0
