expe,clients,clients_size,clients_subset,agg_size,agg_size_pc,method,days,days_size,days_total,noise_method,time,valid,valid_sum,success,score_avg,score_min,score_max,nsols,oracle,wall_hit,wall_time,pooled,pool_size,uuid,optimal,valid_sums
./expes/v3_2021-02-09_hi_2000-prng-1-w5-p10,30_issda-2000,2000,first-2000,100,5,rng,num-start-13800,13800,25726,classic,4372.877974748611,True,,True,1.0,1.0,1.0,1,"Index(['1', '45', '59', '76', '94', '166', '181', '184', '191', '193', '200',
       '240', '245', '299', '396', '397', '404', '406', '408', '412', '502',
       '513', '536', '544', '559', '597', '624', '655', '688', '732', '739',
       '741', '742', '765', '840', '848', '870', '881', '912', '964', '994',
       '997', '1002', '1025', '1032', '1055', '1076', '1103', '1105', '1134',
       '1154', '1176', '1180', '1202', '1206', '1207', '1233', '1250', '1298',
       '1301', '1321', '1343', '1358', '1390', '1397', '1405', '1430', '1433',
       '1436', '1493', '1495', '1505', '1548', '1556', '1562', '1578', '1625',
       '1632', '1639', '1643', '1646', '1649', '1650', '1684', '1696', '1706',
       '1730', '1787', '1803', '1828', '1849', '1863', '1865', '1870', '1877',
       '1911', '1949', '1978', '1987', '2000'],
      dtype='object')",False,5000,True,10,5747fe7cc9,1.0,1.0
./expes/v3_2021-02-09_hi_2000-prng-1-w5-p10,30_issda-2000,2000,first-2000,650,32,rng,num-start-8800,8800,25726,classic,6165.359294176102,True,,False,1.0,1.0,1.0,1,"Index(['12', '13', '14', '18', '19', '23', '27', '30', '36', '38',
       ...
       '1968', '1980', '1981', '1985', '1986', '1987', '1993', '1994', '1998',
       '1999'],
      dtype='object', length=650)",True,5000,True,10,3866cf80be,0.0,1.0
