expe,clients,clients_size,clients_subset,agg_size,agg_size_pc,method,days,days_size,days_total,noise_method,time,valid,valid_sum,success,score_avg,score_min,score_max,nsols,oracle,wall_hit,wall_time,pooled,pool_size,uuid,optimal,valid_sums
./expes/v3_2021-02-09_hi_2000-prng-1-w5-p10,30_issda-2000,2000,first-2000,150,7,rng,num-start-10300,10300,25726,classic,6277.8538637161255,True,,False,1.0,1.0,1.0,1,"Index(['1', '26', '35', '45', '59', '76', '94', '111', '166', '181',
       ...
       '1853', '1863', '1865', '1870', '1877', '1911', '1949', '1978', '1987',
       '2000'],
      dtype='object', length=150)",True,5000,True,10,d44c4c214c,0.0,1.0
