expe,clients,clients_size,clients_subset,agg_size,agg_size_pc,method,days,days_size,days_total,noise_method,time,valid,valid_sum,success,score_avg,score_min,score_max,nsols,oracle,wall_hit,wall_time,pooled,pool_size,uuid,optimal,valid_sums
./expes/v3_2021-02-09_hi_2000-prng-1-w5-p10,30_issda-2000,2000,first-2000,1000,50,rng,num-start-2300,2300,25726,classic,1808.1489050388336,True,,True,1.0,1.0,1.0,1,"Index(['6', '8', '10', '11', '13', '14', '16', '17', '19', '23',
       ...
       '1980', '1981', '1982', '1983', '1984', '1985', '1987', '1992', '1998',
       '2000'],
      dtype='object', length=1000)",False,5000,True,10,d4c705045d,1.0,1.0
./expes/v3_2021-02-09_hi_2000-prng-1-w5-p10,30_issda-2000,2000,first-2000,250,12,rng,num-start-10800,10800,25726,classic,6510.3412165641785,True,,False,1.0,1.0,1.0,1,"Index(['4', '7', '11', '19', '27', '38', '45', '47', '60', '66',
       ...
       '1955', '1957', '1967', '1970', '1977', '1980', '1984', '1992', '1998',
       '1999'],
      dtype='object', length=250)",True,5000,True,10,629da642ac,0.0,1.0
./expes/v3_2021-02-09_hi_2000-prng-1-w5-p10,30_issda-2000,2000,first-2000,650,32,rng,num-start-800,800,25726,classic,5124.48211479187,False,,False,0,,,0,"Index(['1', '3', '7', '8', '9', '12', '13', '16', '19', '21',
       ...
       '1983', '1984', '1985', '1986', '1988', '1989', '1991', '1993', '1995',
       '1996'],
      dtype='object', length=650)",True,5000,True,10,21cb979e29,0.0,0.0
./expes/v3_2021-02-09_hi_2000-prng-1-w5-p10,30_issda-2000,2000,first-2000,300,15,rng,num-start-231,231,25726,classic,5031.568149089813,False,,False,0,,,0,"Index(['4', '9', '18', '37', '44', '49', '50', '52', '57', '64',
       ...
       '1955', '1956', '1958', '1961', '1964', '1965', '1966', '1970', '1988',
       '1989'],
      dtype='object', length=300)",True,5000,True,10,d90139fa43,0.0,0.0
