expe,clients,clients_size,clients_subset,agg_size,agg_size_pc,method,days,days_size,days_total,noise_method,time,valid,valid_sum,success,score_avg,score_min,score_max,nsols,oracle,wall_hit,wall_time,pooled,pool_size,uuid,optimal,valid_sums
./expes/v3_2021-02-22_hi_4500-prng-1-w10-p100-1,30_issda-4500,4500,first-4500,150,3,rng,num-start-2750,2750,25726,classic,3013.2444882392883,True,,True,1.0,1.0,1.0,1,"['10', '116', '133', '178', '187', '219', '271', '299', '317', '323', '332', '371', '501', '510', '511', '516', '566', '574', '590', '605', '607', '658', '660', '675', '736', '748', '750', '751', '765', '777', '810', '825', '827', '832', '894', '945', '951', '960', '981', '1015', '1020', '1023', '1067', '1141', '1145', '1168', '1199', '1204', '1226', '1397', '1478', '1507', '1516', '1530', '1545', '1552', '1560', '1566', '1595', '1634', '1665', '1676', '1726', '1763', '1790', '1793', '1807', '1810', '1817', '1930', '1955', '1984', '1991', '1999', '2053', '2122', '2130', '2131', '2132', '2134', '2221', '2255', '2258', '2309', '2357', '2379', '2385', '2467', '2470', '2485', '2541', '2591', '2598', '2622', '2657', '2665', '2705', '2725', '2726', '2730', '2747', '2870', '2899', '2928', '2934', '3033', '3048', '3154', '3156', '3205', '3206', '3268', '3318', '3436', '3446', '3487', '3491', '3557', '3573', '3627', '3646', '3670', '3692', '3827', '3868', '3904', '3905', '3908', '3926', '3981', '3985', '4009', '4036', '4044', '4126', '4135', '4162', '4189', '4271', '4275', '4298', '4363', '4377', '4427', '4429', '4449', '4459', '4483', '4485', '4495']",False,10000,True,100,4ef73d87eb,1.0,1.0
./expes/v3_2021-02-22_hi_4500-prng-1-w10-p100-1,30_issda-4500,4500,first-4500,300,6,rng,num-start-3500,3500,25726,classic,5420.851042985916,True,,True,1.0,1.0,1.0,1,"['1', '10', '13', '20', '28', '73', '102', '109', '116', '118', '121', '133', '153', '178', '179', '187', '219', '259', '271', '293', '299', '317', '319', '323', '332', '334', '338', '345', '347', '371', '375', '384', '396', '409', '476', '501', '510', '511', '516', '524', '566', '574', '581', '590', '605', '607', '648', '658', '660', '662', '667', '675', '684', '736', '748', '750', '751', '765', '768', '777', '802', '810', '821', '825', '827', '832', '894', '942', '943', '945', '949', '951', '960', '961', '975', '981', '1015', '1020', '1023', '1063', '1067', '1070', '1085', '1093', '1105', '1135', '1141', '1145', '1168', '1199', '1204', '1225', '1226', '1238', '1257', '1266', '1292', '1297', '1312', '1327', '1343', '1358', '1388', '1397', '1433', '1461', '1472', '1478', '1493', '1507', '1516', '1530', '1541', '1545', '1552', '1560', '1561', '1566', '1576', '1595', '1627', '1634', '1665', '1667', '1676', '1686', '1703', '1726', '1750', '1763', '1790', '1793', '1807', '1810', '1817', '1828', '1930', '1955', '1962', '1964', '1968', '1984', '1991', '1999', '2053', '2054', '2056', '2102', '2122', '2124', '2128', '2130', '2131', '2132', '2134', '2209', '2221', '2224', '2251', '2255', '2258', '2281', '2294', '2301', '2309', '2357', '2359', '2372', '2379', '2385', '2404', '2452', '2467', '2470', '2478', '2480', '2485', '2523', '2541', '2542', '2552', '2557', '2579', '2591', '2598', '2622', '2657', '2665', '2671', '2692', '2705', '2725', '2726', '2730', '2732', '2740', '2747', '2752', '2765', '2771', '2805', '2844', '2870', '2886', '2899', '2926', '2928', '2934', '2938', '2943', '2957', '3006', '3009', '3033', '3048', '3052', '3077', '3102', '3154', '3156', '3179', '3184', '3205', '3206', '3235', '3250', '3268', '3292', '3296', '3303', '3318', '3358', '3395', '3398', '3401', '3421', '3427', '3436', '3446', '3487', '3491', '3557', '3568', '3573', '3624', '3627', '3646', '3649', '3657', '3670', '3672', '3692', '3711', '3752', '3758', '3825', '3827', '3853', '3864', '3868', '3897', '3904', '3905', '3908', '3917', '3926', '3948', '3981', '3985', '3992', '4009', '4036', '4044', '4051', '4052', '4126', '4135', '4162', '4167', '4189', '4267', '4271', '4275', '4285', '4298', '4322', '4329', '4338', '4363', '4377', '4407', '4427', '4429', '4449', '4459', '4460', '4483', '4485', '4494', '4495']",False,10000,True,100,4670134c2c,1.0,1.0
./expes/v3_2021-02-22_hi_4500-prng-1-w10-p100-1,30_issda-4500,4500,first-4500,200,4,rng,num-start-3750,3750,25726,classic,5091.69179558754,True,,True,1.0,1.0,1.0,1,"['10', '13', '102', '109', '116', '133', '178', '187', '219', '259', '271', '299', '317', '323', '332', '371', '375', '476', '501', '510', '511', '516', '566', '574', '590', '605', '607', '648', '658', '660', '662', '675', '736', '748', '750', '751', '765', '777', '810', '825', '827', '832', '894', '945', '951', '960', '961', '981', '1015', '1020', '1023', '1067', '1085', '1105', '1141', '1145', '1168', '1199', '1204', '1226', '1257', '1297', '1312', '1327', '1388', '1397', '1433', '1478', '1507', '1516', '1530', '1545', '1552', '1560', '1566', '1576', '1595', '1634', '1665', '1667', '1676', '1726', '1763', '1790', '1793', '1807', '1810', '1817', '1828', '1930', '1955', '1962', '1968', '1984', '1991', '1999', '2053', '2054', '2056', '2122', '2130', '2131', '2132', '2134', '2221', '2255', '2258', '2301', '2309', '2357', '2359', '2379', '2385', '2467', '2470', '2485', '2541', '2542', '2552', '2591', '2598', '2622', '2657', '2665', '2705', '2725', '2726', '2730', '2740', '2747', '2752', '2805', '2870', '2886', '2899', '2926', '2928', '2934', '2938', '2943', '3033', '3048', '3102', '3154', '3156', '3179', '3184', '3205', '3206', '3268', '3296', '3318', '3358', '3395', '3436', '3446', '3487', '3491', '3557', '3573', '3624', '3627', '3646', '3670', '3672', '3692', '3752', '3827', '3853', '3864', '3868', '3904', '3905', '3908', '3926', '3948', '3981', '3985', '4009', '4036', '4044', '4126', '4135', '4162', '4167', '4189', '4271', '4275', '4298', '4338', '4363', '4377', '4427', '4429', '4449', '4459', '4460', '4483', '4485', '4495']",False,10000,True,100,4d767668d9,1.0,1.0
