expe,clients,clients_size,clients_subset,agg_size,agg_size_pc,method,days,days_size,days_total,noise_method,time,valid,valid_sum,success,score_avg,score_min,score_max,nsols,oracle,wall_hit,wall_time,pooled,pool_size,uuid,optimal,valid_sums
./expes/v3_2021-02-22_hi_4500-prng-1-w10-p100-1,30_issda-4500,4500,first-4500,250,5,rng,num-start-4500,4500,25726,classic,6829.058871269226,True,,True,1.0,1.0,1.0,1,"['1', '10', '13', '20', '28', '102', '109', '116', '118', '121', '133', '178', '179', '187', '219', '259', '271', '299', '317', '319', '323', '332', '371', '375', '384', '409', '476', '501', '510', '511', '516', '524', '566', '574', '590', '605', '607', '648', '658', '660', '662', '667', '675', '684', '736', '748', '750', '751', '765', '777', '802', '810', '821', '825', '827', '832', '894', '943', '945', '949', '951', '960', '961', '975', '981', '1015', '1020', '1023', '1067', '1070', '1085', '1093', '1105', '1141', '1145', '1168', '1199', '1204', '1226', '1257', '1292', '1297', '1312', '1327', '1358', '1388', '1397', '1433', '1478', '1493', '1507', '1516', '1530', '1541', '1545', '1552', '1560', '1561', '1566', '1576', '1595', '1627', '1634', '1665', '1667', '1676', '1726', '1750', '1763', '1790', '1793', '1807', '1810', '1817', '1828', '1930', '1955', '1962', '1968', '1984', '1991', '1999', '2053', '2054', '2056', '2102', '2122', '2124', '2130', '2131', '2132', '2134', '2221', '2251', '2255', '2258', '2294', '2301', '2309', '2357', '2359', '2379', '2385', '2467', '2470', '2478', '2485', '2541', '2542', '2552', '2557', '2591', '2598', '2622', '2657', '2665', '2671', '2705', '2725', '2726', '2730', '2740', '2747', '2752', '2805', '2844', '2870', '2886', '2899', '2926', '2928', '2934', '2938', '2943', '3033', '3048', '3102', '3154', '3156', '3179', '3184', '3205', '3206', '3250', '3268', '3292', '3296', '3318', '3358', '3395', '3401', '3421', '3427', '3436', '3446', '3487', '3491', '3557', '3573', '3624', '3627', '3646', '3649', '3657', '3670', '3672', '3692', '3711', '3752', '3825', '3827', '3853', '3864', '3868', '3897', '3904', '3905', '3908', '3926', '3948', '3981', '3985', '3992', '4009', '4036', '4044', '4052', '4126', '4135', '4162', '4167', '4189', '4267', '4271', '4275', '4298', '4322', '4329', '4338', '4363', '4377', '4427', '4429', '4449', '4459', '4460', '4483', '4485', '4494', '4495']",False,10000,True,100,b863d14182,1.0,1.0
./expes/v3_2021-02-22_hi_4500-prng-1-w10-p100-1,30_issda-4500,4500,first-4500,50,1,rng,num-start-1250,1250,25726,classic,3731.1838014125824,True,,True,1.0,1.0,1.0,1,"['10', '116', '332', '511', '516', '605', '765', '777', '810', '825', '1141', '1145', '1168', '1204', '1566', '1676', '1790', '1817', '1955', '1999', '2053', '2122', '2134', '2309', '2485', '2541', '2591', '2665', '2705', '2730', '2899', '2934', '3156', '3268', '3318', '3446', '3557', '3627', '3670', '3868', '3905', '3908', '3981', '4044', '4135', '4189', '4271', '4363', '4449', '4495']",False,10000,True,100,2e07a6dc11,1.0,1.0
./expes/v3_2021-02-22_hi_4500-prng-1-w10-p100-1,30_issda-4500,4500,first-4500,100,2,rng,num-start-1500,1500,25726,classic,7272.49985742569,True,,True,1.0,1.0,1.0,1,"['10', '116', '271', '317', '332', '511', '516', '566', '605', '658', '660', '675', '736', '748', '751', '765', '777', '810', '825', '894', '945', '1023', '1067', '1141', '1145', '1168', '1204', '1226', '1507', '1530', '1552', '1566', '1665', '1676', '1763', '1790', '1817', '1930', '1955', '1984', '1999', '2053', '2122', '2131', '2134', '2255', '2258', '2309', '2357', '2379', '2385', '2470', '2485', '2541', '2591', '2598', '2622', '2657', '2665', '2705', '2726', '2730', '2747', '2899', '2928', '2934', '3154', '3156', '3206', '3268', '3318', '3436', '3446', '3557', '3627', '3646', '3670', '3692', '3868', '3904', '3905', '3908', '3981', '3985', '4009', '4036', '4044', '4135', '4162', '4189', '4271', '4275', '4298', '4363', '4427', '4429', '4449', '4483', '4485', '4495']",False,10000,True,100,0b44c855b4,1.0,1.0
