expe,clients,clients_size,clients_subset,agg_size,method,days,days_size,days_total,time,valid,valid_sum,success,nsols,wall_hit,wall_time,pooled,valid_sums
./expes/v2_2020-11-05_dbh_50-prng-1,daily_base_hphc_50,50,first-50,31,rng,num-start-41,41,365,0.35358715057373047,True,,True,1,False,1000,True,1.0
./expes/v2_2020-11-05_dbh_50-prng-1,daily_base_hphc_50,50,first-50,11,rng,num-start-191,191,365,0.6630034446716309,True,,True,1,False,1000,True,1.0
./expes/v2_2020-11-05_dbh_50-prng-1,daily_base_hphc_50,50,first-50,11,rng,num-start-231,231,365,0.7708156108856201,True,,True,1,False,1000,True,1.0
./expes/v2_2020-11-05_dbh_50-prng-1,daily_base_hphc_50,50,first-50,41,rng,num-start-211,211,365,0.6350197792053223,True,,True,1,False,1000,True,1.0
./expes/v2_2020-11-05_dbh_50-prng-1,daily_base_hphc_50,50,first-50,11,rng,num-start-251,251,365,0.5519638061523438,True,,True,1,False,1000,True,1.0
./expes/v2_2020-11-05_dbh_50-prng-1,daily_base_hphc_50,50,first-50,41,rng,num-start-221,221,365,0.730079174041748,True,,True,1,False,1000,True,1.0
./expes/v2_2020-11-05_dbh_50-prng-1,daily_base_hphc_50,50,first-50,41,rng,num-start-31,31,365,0.2016148567199707,True,,True,1,False,1000,True,1.0
./expes/v2_2020-11-05_dbh_50-prng-1,daily_base_hphc_50,50,first-50,1,rng,num-start-271,271,365,0.5713255405426025,True,,True,1,False,1000,True,1.0
./expes/v2_2020-11-05_dbh_50-prng-1,daily_base_hphc_50,50,first-50,11,rng,num-start-81,81,365,0.3293628692626953,True,,True,1,False,1000,True,1.0
./expes/v2_2020-11-05_dbh_50-prng-1,daily_base_hphc_50,50,first-50,1,rng,num-start-251,251,365,0.5477521419525146,True,,True,1,False,1000,True,1.0
./expes/v2_2020-11-05_dbh_50-prng-1,daily_base_hphc_50,50,first-50,11,rng,num-start-281,281,365,0.6173701286315918,True,,True,1,False,1000,True,1.0
./expes/v2_2020-11-05_dbh_50-prng-1,daily_base_hphc_50,50,first-50,11,rng,num-start-211,211,365,0.7095739841461182,True,,True,1,False,1000,True,1.0
./expes/v2_2020-11-05_dbh_50-prng-1,daily_base_hphc_50,50,first-50,31,rng,num-start-131,131,365,0.4338853359222412,True,,True,1,False,1000,True,1.0
./expes/v2_2020-11-05_dbh_50-prng-1,daily_base_hphc_50,50,first-50,31,rng,num-start-281,281,365,0.6195752620697021,True,,True,1,False,1000,True,1.0
./expes/v2_2020-11-05_dbh_50-prng-1,daily_base_hphc_50,50,first-50,31,rng,num-start-151,151,365,0.5204577445983887,True,,True,1,False,1000,True,1.0
./expes/v2_2020-11-05_dbh_50-prng-1,daily_base_hphc_50,50,first-50,41,rng,num-start-231,231,365,0.7469692230224609,True,,True,1,False,1000,True,1.0
./expes/v2_2020-11-05_dbh_50-prng-1,daily_base_hphc_50,50,first-50,1,rng,num-start-241,241,365,0.5181312561035156,True,,True,1,False,1000,True,1.0
./expes/v2_2020-11-05_dbh_50-prng-1,daily_base_hphc_50,50,first-50,41,rng,num-start-261,261,365,0.5971240997314453,True,,True,1,False,1000,True,1.0
./expes/v2_2020-11-05_dbh_50-prng-1,daily_base_hphc_50,50,first-50,1,rng,num-start-111,111,365,0.2360060214996338,True,,True,1,False,1000,True,1.0
./expes/v2_2020-11-05_dbh_50-prng-1,daily_base_hphc_50,50,first-50,21,rng,num-start-281,281,365,0.616408109664917,True,,True,1,False,1000,True,1.0
./expes/v2_2020-11-05_dbh_50-prng-1,daily_base_hphc_50,50,first-50,41,rng,num-start-81,81,365,0.3672819137573242,True,,True,1,False,1000,True,1.0
./expes/v2_2020-11-05_dbh_50-prng-1,daily_base_hphc_50,50,first-50,1,rng,num-start-1,1,365,0.004732847213745117,True,,True,1,False,1000,True,1.0
./expes/v2_2020-11-05_dbh_50-prng-1,daily_base_hphc_50,50,first-50,41,rng,num-start-221,221,365,0.7230625152587891,True,,True,1,False,1000,True,1.0
./expes/v2_2020-11-05_dbh_50-prng-1,daily_base_hphc_50,50,first-50,1,rng,num-start-61,61,365,0.13106632232666016,True,,True,1,False,1000,True,1.0
./expes/v2_2020-11-05_dbh_50-prng-1,daily_base_hphc_50,50,first-50,31,rng,num-start-291,291,365,0.6584479808807373,True,,True,1,False,1000,True,1.0
./expes/v2_2020-11-05_dbh_50-prng-1,daily_base_hphc_50,50,first-50,21,rng,num-start-171,171,365,0.6025359630584717,True,,True,1,False,1000,True,1.0
./expes/v2_2020-11-05_dbh_50-prng-1,daily_base_hphc_50,50,first-50,31,rng,num-start-91,91,365,0.38823604583740234,True,,True,1,False,1000,True,1.0
./expes/v2_2020-11-05_dbh_50-prng-1,daily_base_hphc_50,50,first-50,21,rng,num-start-201,201,365,0.751856803894043,True,,True,1,False,1000,True,1.0
./expes/v2_2020-11-05_dbh_50-prng-1,daily_base_hphc_50,50,first-50,21,rng,num-start-111,111,365,0.4451572895050049,True,,True,1,False,1000,True,1.0
