expe,clients,clients_size,clients_subset,agg_size,agg_size_pc,method,days,days_size,days_total,noise_method,time,valid,valid_sum,success,score_avg,score_min,score_max,nsols,oracle,wall_hit,wall_time,pooled,pool_size,uuid,infeasible,optimal,valid_sums
./expes/v3_2021-03-17_issda_1000-prng-1-w1-p100-ukn95_95,30_issda-1000,950,first-1000,100,10,rng,num-start-800,800,25726,ukn-95-95,80.26107001304626,False,,False,0.5867736121774199,0.5467015860883755,0.9274141618575573,100,"['8', '21', '27', '45', '48', '61', '69', '84', '89', '92', '93', '106', '109', '159', '166', '169', '177', '183', '199', '200', '220', '228', '239', '242', '254', '255', '266', '267', '269', '279', '284', '287', '288', '296', '297', '299', '308', '311', '313', '318', '320', '346', '369', '382', '398', '406', '412', '424', '434', '442', '463', '474', '483', '485', '491', '519', '521', '532', '533', '548', '550', '561', '563', '587', '614', '621', '642', '643', '657', '664', '688', '718', '722', '739', '750', '784', '799', '817', '820', '827', '833', '838', '847', '849', '861', '866', '869', '876', '887', '889', '902', '904', '931', '940', '950', '958', '965', '966', '968', '984']",False,1000,True,100,b62653f86a,0.0,1.0,0.0
./expes/v3_2021-03-17_issda_1000-prng-1-w1-p100-ukn95_95,30_issda-1000,950,first-1000,300,31,rng,num-start-100,100,25726,ukn-95-95,8.36076283454895,False,,False,0.37966894249667205,0.21486411611467948,0.8742776404273184,100,"['2', '3', '6', '10', '13', '15', '18', '19', '22', '23', '25', '27', '29', '30', '31', '32', '34', '36', '37', '45', '49', '58', '61', '65', '72', '73', '86', '89', '94', '97', '103', '105', '111', '112', '113', '117', '121', '124', '129', '133', '138', '150', '164', '165', '168', '172', '173', '175', '178', '182', '186', '190', '191', '193', '195', '205', '211', '215', '218', '222', '225', '226', '228', '229', '231', '233', '235', '236', '237', '238', '239', '249', '256', '260', '262', '265', '273', '276', '280', '288', '291', '297', '298', '302', '304', '306', '311', '314', '316', '320', '326', '329', '330', '340', '341', '352', '353', '354', '355', '362', '366', '374', '376', '380', '384', '389', '391', '393', '396', '400', '403', '404', '405', '407', '414', '415', '424', '425', '427', '432', '433', '437', '443', '444', '449', '450', '457', '461', '462', '464', '466', '470', '471', '481', '484', '486', '492', '493', '497', '500', '502', '508', '509', '512', '513', '515', '517', '518', '519', '520', '521', '523', '525', '527', '529', '532', '534', '537', '541', '552', '553', '554', '555', '558', '562', '564', '565', '567', '568', '570', '575', '583', '584', '590', '592', '593', '599', '602', '604', '606', '608', '615', '621', '623', '624', '628', '630', '639', '640', '645', '646', '647', '651', '658', '663', '664', '665', '666', '668', '673', '676', '680', '681', '687', '690', '691', '692', '694', '695', '703', '712', '713', '720', '721', '722', '729', '737', '739', '742', '744', '747', '748', '751', '756', '759', '761', '762', '773', '774', '780', '781', '783', '786', '790', '795', '797', '798', '803', '806', '808', '816', '817', '818', '822', '823', '824', '829', '833', '837', '841', '850', '853', '856', '858', '861', '862', '867', '868', '869', '872', '874', '878', '881', '882', '889', '891', '897', '903', '904', '908', '915', '918', '922', '924', '932', '933', '939', '943', '945', '949', '954', '959', '961', '962', '964', '967', '968', '973', '975', '976', '978', '981', '983', '989', '991', '992', '993', '997', '999', '1000']",False,1000,True,100,c27b96f2ba,0.0,1.0,0.0
./expes/v3_2021-03-17_issda_1000-prng-1-w1-p100-ukn95_95,30_issda-1000,950,first-1000,150,15,rng,num-start-300,300,25726,ukn-95-95,22.18954372406006,False,,False,0.5030327941955163,0.4443507864919848,0.9141152780852307,100,"['2', '15', '34', '40', '42', '64', '65', '71', '76', '83', '92', '94', '96', '98', '102', '104', '112', '128', '134', '143', '144', '146', '151', '154', '189', '192', '194', '196', '209', '210', '224', '228', '245', '248', '250', '257', '266', '267', '289', '295', '298', '299', '309', '311', '318', '324', '325', '328', '334', '339', '341', '342', '363', '367', '395', '401', '409', '415', '431', '445', '454', '456', '459', '484', '488', '489', '498', '502', '506', '517', '521', '524', '534', '546', '554', '557', '561', '562', '565', '566', '574', '582', '590', '598', '602', '611', '617', '618', '626', '627', '628', '634', '641', '656', '673', '685', '696', '700', '701', '717', '721', '723', '724', '728', '737', '748', '774', '776', '777', '803', '804', '818', '819', '823', '825', '830', '835', '842', '845', '848', '850', '858', '861', '863', '865', '871', '887', '889', '892', '897', '898', '912', '914', '920', '921', '924', '930', '932', '935', '938', '940', '941', '945', '946', '956', '987', '989', '990', '991', '992']",False,1000,True,100,a4dbf97316,0.0,1.0,0.0
./expes/v3_2021-03-17_issda_1000-prng-1-w1-p100-ukn95_95,30_issda-1000,950,first-1000,100,10,rng,num-start-200,200,25726,ukn-95-95,15.493045806884766,False,,False,0.5837227645617492,0.5467015860883755,0.9274141618575573,100,"['14', '16', '30', '32', '37', '44', '66', '68', '100', '134', '138', '140', '155', '156', '164', '197', '223', '238', '240', '244', '265', '266', '276', '309', '345', '360', '375', '379', '396', '397', '400', '405', '407', '418', '432', '438', '447', '456', '481', '482', '485', '486', '488', '507', '520', '536', '547', '554', '558', '563', '565', '588', '591', '595', '599', '600', '606', '607', '610', '619', '621', '641', '642', '651', '655', '688', '689', '699', '732', '735', '737', '746', '760', '777', '796', '798', '799', '808', '821', '844', '854', '857', '858', '876', '877', '882', '887', '889', '900', '926', '931', '938', '943', '944', '949', '952', '959', '981', '988', '989']",False,1000,True,100,44f81a6977,0.0,1.0,0.0
./expes/v3_2021-03-17_issda_1000-prng-1-w1-p100-ukn95_95,30_issda-1000,950,first-1000,50,5,rng,num-start-400,400,25726,ukn-95-95,43.33160877227783,False,,False,0.6985261645068139,0.6852753055475171,0.9540926851195112,100,"['7', '42', '53', '65', '83', '105', '114', '136', '142', '161', '173', '174', '191', '210', '244', '274', '299', '343', '347', '383', '389', '393', '433', '463', '475', '515', '519', '568', '605', '620', '628', '632', '693', '705', '717', '721', '743', '746', '765', '793', '809', '888', '893', '909', '920', '942', '947', '959', '969', '975']",False,1000,True,100,6ee66048a0,0.0,1.0,0.0
