expe,clients,clients_size,clients_subset,agg_size,agg_size_pc,method,days,days_size,days_total,noise_method,time,valid,valid_sum,success,score_avg,score_min,score_max,nsols,oracle,wall_hit,wall_time,pooled,pool_size,uuid,infeasible,optimal,valid_sums
./expes/v3_2021-03-17_issda_1000-prng-1-w1-p100-ukn95_95,30_issda-1000,950,first-1000,500,52,rng,num-start-300,300,25726,ukn-95-95,30.22334575653076,False,,False,0.03734189601488708,0.01379376410102362,0.8376931317097012,100,"['4', '5', '7', '13', '14', '15', '18', '21', '23', '24', '27', '29', '32', '33', '34', '35', '36', '38', '39', '40', '41', '45', '47', '51', '53', '59', '60', '63', '65', '66', '67', '68', '71', '72', '74', '77', '82', '83', '84', '85', '86', '87', '88', '89', '90', '92', '93', '95', '96', '98', '100', '103', '105', '109', '110', '111', '112', '114', '115', '117', '120', '124', '125', '128', '130', '131', '136', '139', '141', '143', '144', '145', '146', '147', '152', '153', '154', '158', '159', '161', '163', '164', '165', '168', '171', '174', '175', '177', '178', '179', '180', '181', '182', '183', '190', '192', '195', '196', '197', '198', '199', '201', '203', '204', '206', '207', '211', '213', '215', '216', '217', '223', '224', '226', '228', '230', '231', '233', '235', '237', '238', '239', '240', '241', '242', '249', '250', '251', '252', '254', '256', '261', '262', '265', '271', '273', '274', '276', '278', '281', '284', '290', '292', '293', '295', '296', '297', '298', '299', '301', '303', '304', '306', '307', '308', '309', '310', '317', '320', '321', '322', '327', '328', '329', '332', '334', '335', '346', '347', '349', '351', '352', '353', '355', '356', '357', '360', '365', '366', '367', '369', '370', '371', '373', '374', '375', '376', '377', '378', '379', '380', '381', '382', '384', '385', '386', '387', '388', '389', '390', '391', '393', '394', '396', '398', '399', '400', '401', '404', '406', '407', '411', '413', '417', '418', '420', '422', '425', '427', '428', '430', '434', '436', '437', '438', '440', '442', '443', '445', '447', '448', '451', '453', '456', '457', '460', '464', '465', '467', '468', '469', '471', '474', '483', '485', '486', '488', '489', '491', '496', '497', '500', '501', '502', '507', '509', '510', '511', '512', '513', '514', '515', '516', '517', '518', '519', '520', '523', '525', '527', '529', '530', '533', '534', '537', '538', '539', '540', '541', '542', '545', '547', '548', '553', '559', '561', '570', '571', '573', '575', '577', '578', '580', '581', '583', '587', '588', '591', '593', '594', '595', '596', '599', '600', '603', '611', '615', '616', '619', '620', '622', '625', '627', '628', '629', '633', '636', '637', '639', '640', '641', '644', '646', '648', '651', '655', '658', '660', '662', '663', '664', '666', '667', '668', '669', '670', '671', '672', '673', '674', '675', '677', '679', '680', '684', '686', '687', '690', '693', '697', '701', '702', '704', '705', '707', '708', '709', '712', '716', '718', '719', '722', '723', '726', '727', '728', '733', '735', '736', '737', '739', '743', '744', '746', '747', '751', '753', '754', '755', '759', '761', '762', '763', '766', '767', '768', '772', '774', '778', '781', '783', '785', '786', '787', '799', '800', '801', '803', '806', '808', '810', '813', '816', '824', '827', '828', '831', '833', '834', '835', '837', '839', '841', '843', '845', '846', '848', '849', '850', '851', '852', '854', '855', '856', '857', '858', '859', '860', '862', '863', '864', '865', '867', '868', '871', '873', '876', '878', '880', '881', '886', '888', '890', '897', '899', '900', '903', '904', '905', '909', '910', '912', '913', '915', '917', '919', '922', '924', '925', '926', '927', '928', '929', '930', '931', '932', '934', '935', '939', '941', '942', '943', '945', '948', '950', '951', '952', '954', '955', '956', '959', '960', '965', '968', '969', '970', '971', '973', '981', '982', '983', '986', '988', '989', '991', '992', '994', '995', '997', '999']",False,1000,True,100,ac897d4139,0.0,1.0,0.0
./expes/v3_2021-03-17_issda_1000-prng-1-w1-p100-ukn95_95,30_issda-1000,950,first-1000,250,26,rng,num-start-200,200,25726,ukn-95-95,18.457573413848877,False,,False,0.38050562519567,0.2829048176658342,0.8875505030815249,100,"['1', '7', '13', '16', '18', '19', '23', '30', '31', '38', '39', '47', '56', '59', '64', '78', '79', '83', '88', '91', '92', '96', '97', '99', '100', '103', '115', '120', '123', '127', '130', '142', '146', '148', '149', '150', '159', '162', '167', '174', '177', '187', '190', '193', '194', '197', '198', '199', '201', '202', '203', '204', '206', '215', '229', '238', '250', '251', '252', '257', '258', '261', '263', '268', '272', '273', '275', '276', '280', '297', '298', '299', '311', '312', '314', '320', '326', '328', '332', '338', '341', '344', '366', '370', '371', '376', '380', '383', '384', '386', '387', '389', '390', '399', '408', '419', '420', '421', '424', '432', '433', '434', '435', '437', '441', '452', '456', '457', '458', '461', '463', '479', '481', '482', '483', '487', '491', '496', '497', '498', '499', '500', '501', '504', '509', '510', '513', '515', '516', '528', '530', '535', '538', '541', '551', '552', '553', '567', '572', '574', '577', '584', '588', '590', '601', '603', '604', '609', '612', '617', '618', '622', '623', '625', '627', '629', '634', '635', '636', '639', '641', '644', '649', '650', '651', '661', '662', '664', '672', '673', '676', '679', '685', '687', '688', '695', '696', '697', '698', '699', '703', '712', '715', '717', '718', '723', '732', '736', '737', '739', '740', '747', '748', '753', '765', '774', '778', '781', '789', '793', '797', '802', '803', '813', '816', '820', '822', '823', '825', '826', '834', '837', '842', '848', '852', '853', '855', '865', '874', '887', '892', '894', '898', '901', '902', '911', '914', '925', '927', '932', '933', '935', '936', '939', '942', '946', '950', '956', '960', '961', '964', '971', '975', '986', '988', '989', '994', '995', '999', '1000']",False,1000,True,100,4954a5aa0f,0.0,1.0,0.0
./expes/v3_2021-03-17_issda_1000-prng-1-w1-p100-ukn95_95,30_issda-1000,950,first-1000,200,21,rng,num-start-600,600,25726,ukn-95-95,54.2018609046936,False,,False,0.44812486858890915,0.35893923524396765,0.8973481232627393,100,"['2', '3', '6', '10', '13', '23', '27', '30', '31', '32', '36', '45', '58', '65', '89', '97', '103', '105', '111', '121', '124', '133', '138', '168', '173', '175', '178', '191', '195', '205', '211', '215', '222', '225', '228', '233', '235', '237', '238', '239', '249', '262', '273', '276', '291', '297', '304', '311', '316', '326', '340', '341', '353', '354', '355', '362', '366', '374', '376', '380', '384', '389', '391', '393', '400', '403', '404', '414', '415', '424', '425', '427', '433', '437', '444', '449', '450', '457', '461', '470', '471', '481', '484', '492', '493', '497', '500', '502', '508', '512', '513', '515', '517', '518', '520', '521', '525', '527', '532', '534', '541', '552', '553', '554', '555', '562', '567', '568', '570', '575', '583', '584', '592', '593', '602', '604', '606', '608', '615', '623', '624', '628', '630', '639', '645', '658', '663', '666', '668', '676', '680', '681', '687', '691', '694', '703', '713', '720', '721', '729', '739', '742', '744', '747', '751', '756', '759', '761', '762', '780', '781', '783', '786', '790', '795', '797', '798', '803', '806', '808', '817', '822', '829', '833', '841', '850', '856', '858', '861', '867', '868', '869', '874', '878', '881', '891', '903', '904', '908', '915', '918', '924', '932', '933', '939', '943', '945', '949', '959', '961', '962', '964', '968', '973', '976', '978', '981', '991', '993', '997']",False,1000,True,100,9238b73ce2,0.0,1.0,0.0
./expes/v3_2021-03-17_issda_1000-prng-1-w1-p100-ukn95_95,30_issda-1000,950,first-1000,50,5,rng,num-start-600,600,25726,ukn-95-95,55.89466714859009,False,,False,0.6944919100860458,0.6786487958365779,0.9540926851195112,100,"['2', '14', '30', '54', '74', '105', '116', '130', '136', '143', '161', '164', '187', '222', '253', '256', '262', '287', '368', '381', '390', '399', '418', '456', '477', '481', '543', '557', '588', '633', '638', '665', '668', '708', '749', '758', '760', '781', '785', '795', '815', '817', '861', '862', '889', '890', '923', '939', '945', '966']",False,1000,True,100,db473cda52,0.0,1.0,0.0
./expes/v3_2021-03-17_issda_1000-prng-1-w1-p100-ukn95_95,30_issda-1000,950,first-1000,400,42,rng,num-start-800,800,25726,ukn-95-95,73.48996686935425,False,,False,0.30390577756108583,0.09340317217675087,0.8548283237151146,100,"['1', '2', '3', '4', '10', '13', '14', '15', '16', '17', '20', '23', '24', '28', '33', '34', '38', '40', '41', '42', '44', '47', '48', '52', '60', '63', '64', '65', '66', '71', '72', '74', '76', '81', '83', '84', '85', '86', '92', '94', '96', '98', '101', '102', '103', '104', '112', '118', '119', '120', '121', '122', '123', '127', '128', '134', '136', '137', '139', '142', '143', '144', '146', '150', '151', '154', '155', '158', '159', '162', '163', '164', '166', '170', '174', '175', '180', '183', '185', '187', '189', '190', '192', '193', '194', '195', '196', '197', '200', '204', '205', '209', '210', '211', '213', '216', '219', '221', '224', '225', '226', '227', '228', '229', '242', '245', '246', '248', '249', '250', '257', '263', '266', '267', '278', '282', '283', '286', '287', '288', '289', '295', '298', '299', '309', '310', '311', '318', '319', '320', '323', '324', '325', '328', '333', '334', '339', '341', '342', '343', '344', '346', '347', '351', '356', '359', '361', '363', '366', '367', '368', '376', '377', '380', '381', '382', '385', '388', '395', '398', '401', '407', '409', '412', '415', '420', '425', '426', '428', '429', '430', '431', '436', '437', '445', '446', '447', '453', '454', '456', '457', '458', '459', '462', '464', '469', '470', '479', '482', '483', '484', '488', '489', '491', '494', '498', '499', '502', '505', '506', '507', '516', '517', '521', '524', '534', '535', '538', '541', '542', '543', '546', '548', '551', '554', '557', '558', '561', '562', '565', '566', '572', '574', '575', '582', '583', '584', '588', '590', '594', '598', '602', '604', '605', '609', '611', '612', '617', '618', '619', '621', '623', '625', '626', '627', '628', '634', '636', '641', '643', '646', '649', '650', '651', '653', '656', '657', '660', '661', '663', '665', '667', '670', '672', '673', '674', '677', '679', '682', '685', '689', '690', '692', '693', '695', '696', '697', '698', '700', '701', '706', '708', '715', '716', '717', '718', '719', '721', '723', '724', '727', '728', '730', '733', '735', '736', '737', '743', '745', '748', '750', '757', '760', '767', '768', '773', '774', '776', '777', '781', '786', '791', '799', '802', '803', '804', '808', '809', '812', '813', '814', '818', '819', '820', '823', '825', '829', '830', '832', '835', '836', '837', '842', '843', '845', '846', '848', '849', '850', '851', '854', '856', '858', '859', '861', '863', '865', '866', '867', '870', '871', '872', '875', '876', '883', '887', '889', '892', '893', '895', '896', '897', '898', '906', '907', '912', '914', '917', '920', '921', '922', '924', '925', '927', '930', '932', '935', '936', '938', '939', '940', '941', '944', '945', '946', '956', '959', '960', '961', '970', '973', '977', '985', '987', '989', '990', '991', '992', '994', '998']",False,1000,True,100,313ffb351b,0.0,1.0,0.0
