expe,clients,clients_size,clients_subset,agg_size,agg_size_pc,method,days,days_size,days_total,noise_method,time,valid,valid_sum,success,score_avg,score_min,score_max,nsols,oracle,wall_hit,wall_time,pooled,pool_size,uuid,infeasible,optimal,valid_sums
./expes/v3_2021-03-17_issda_1000-prng-1-w1-p100-ukn95_95,30_issda-1000,950,first-1000,400,42,rng,num-start-600,600,25726,ukn-95-95,55.970725774765015,False,,False,0.11371609971135253,0.09340317217675087,0.8548283237151146,100,"['2', '3', '6', '9', '10', '13', '15', '18', '19', '22', '23', '25', '27', '29', '30', '31', '32', '34', '36', '37', '39', '41', '42', '45', '47', '49', '58', '61', '65', '67', '72', '73', '75', '79', '84', '86', '87', '89', '94', '97', '99', '102', '103', '105', '107', '111', '112', '113', '117', '118', '121', '124', '129', '133', '134', '137', '138', '139', '150', '151', '161', '163', '164', '165', '168', '171', '172', '173', '174', '175', '176', '178', '182', '186', '190', '191', '193', '195', '199', '205', '206', '211', '215', '218', '219', '222', '223', '225', '226', '228', '229', '230', '231', '233', '235', '236', '237', '238', '239', '241', '249', '256', '259', '260', '262', '265', '273', '274', '275', '276', '280', '284', '288', '289', '291', '297', '298', '299', '302', '303', '304', '306', '311', '314', '316', '318', '320', '326', '329', '330', '334', '336', '340', '341', '347', '348', '349', '350', '352', '353', '354', '355', '356', '362', '366', '374', '376', '377', '380', '384', '388', '389', '390', '391', '393', '396', '400', '403', '404', '405', '407', '412', '414', '415', '417', '424', '425', '427', '432', '433', '437', '440', '443', '444', '449', '450', '457', '461', '462', '464', '466', '469', '470', '471', '472', '481', '484', '486', '492', '493', '497', '500', '501', '502', '505', '508', '509', '512', '513', '515', '517', '518', '519', '520', '521', '522', '523', '525', '527', '529', '532', '534', '537', '541', '546', '548', '552', '553', '554', '555', '558', '561', '562', '564', '565', '567', '568', '570', '575', '577', '578', '579', '580', '583', '584', '585', '588', '590', '592', '593', '594', '599', '602', '604', '605', '606', '608', '615', '619', '621', '623', '624', '627', '628', '629', '630', '638', '639', '640', '645', '646', '647', '651', '658', '663', '664', '665', '666', '668', '673', '676', '680', '681', '682', '687', '690', '691', '692', '694', '695', '703', '704', '712', '713', '720', '721', '722', '729', '733', '737', '739', '742', '743', '744', '747', '748', '751', '756', '759', '761', '762', '773', '774', '778', '780', '781', '783', '786', '787', '789', '790', '795', '797', '798', '799', '801', '802', '803', '806', '808', '816', '817', '818', '822', '823', '824', '829', '831', '833', '837', '840', '841', '848', '849', '850', '853', '856', '858', '861', '862', '867', '868', '869', '871', '872', '874', '878', '879', '880', '881', '882', '887', '889', '891', '893', '897', '900', '903', '904', '908', '909', '913', '915', '918', '919', '922', '923', '924', '932', '933', '937', '939', '940', '943', '945', '948', '949', '954', '955', '959', '961', '962', '964', '967', '968', '973', '975', '976', '978', '981', '983', '986', '989', '991', '992', '993', '997', '998', '999', '1000']",False,1000,True,100,4bb13d5e52,0.0,1.0,0.0
./expes/v3_2021-03-17_issda_1000-prng-1-w1-p100-ukn95_95,30_issda-1000,950,first-1000,350,36,rng,num-start-900,900,25726,ukn-95-95,74.11438059806824,False,,False,0.17069239736148734,0.15164573874962772,0.8661583276551768,100,"['2', '3', '6', '9', '10', '13', '15', '18', '19', '22', '23', '25', '27', '29', '30', '31', '32', '34', '36', '37', '39', '45', '49', '58', '61', '65', '72', '73', '79', '86', '89', '94', '97', '99', '102', '103', '105', '107', '111', '112', '113', '117', '121', '124', '129', '133', '134', '138', '139', '150', '161', '163', '164', '165', '168', '172', '173', '175', '176', '178', '182', '186', '190', '191', '193', '195', '199', '205', '206', '211', '215', '218', '219', '222', '223', '225', '226', '228', '229', '231', '233', '235', '236', '237', '238', '239', '249', '256', '259', '260', '262', '265', '273', '276', '280', '288', '289', '291', '297', '298', '302', '304', '306', '311', '314', '316', '318', '320', '326', '329', '330', '334', '336', '340', '341', '348', '352', '353', '354', '355', '356', '362', '366', '374', '376', '380', '384', '388', '389', '391', '393', '396', '400', '403', '404', '405', '407', '412', '414', '415', '424', '425', '427', '432', '433', '437', '440', '443', '444', '449', '450', '457', '461', '462', '464', '466', '470', '471', '472', '481', '484', '486', '492', '493', '497', '500', '502', '505', '508', '509', '512', '513', '515', '517', '518', '519', '520', '521', '522', '523', '525', '527', '529', '532', '534', '537', '541', '552', '553', '554', '555', '558', '562', '564', '565', '567', '568', '570', '575', '577', '579', '583', '584', '588', '590', '592', '593', '599', '602', '604', '605', '606', '608', '615', '621', '623', '624', '627', '628', '630', '638', '639', '640', '645', '646', '647', '651', '658', '663', '664', '665', '666', '668', '673', '676', '680', '681', '682', '687', '690', '691', '692', '694', '695', '703', '712', '713', '720', '721', '722', '729', '737', '739', '742', '744', '747', '748', '751', '756', '759', '761', '762', '773', '774', '780', '781', '783', '786', '790', '795', '797', '798', '799', '802', '803', '806', '808', '816', '817', '818', '822', '823', '824', '829', '831', '833', '837', '840', '841', '848', '850', '853', '856', '858', '861', '862', '867', '868', '869', '871', '872', '874', '878', '879', '880', '881', '882', '889', '891', '893', '897', '900', '903', '904', '908', '915', '918', '919', '922', '923', '924', '932', '933', '939', '940', '943', '945', '949', '954', '959', '961', '962', '964', '967', '968', '973', '975', '976', '978', '981', '983', '986', '989', '991', '992', '993', '997', '998', '999', '1000']",False,1000,True,100,5fe495aae1,0.0,1.0,0.0
./expes/v3_2021-03-17_issda_1000-prng-1-w1-p100-ukn95_95,30_issda-1000,950,first-1000,250,26,rng,num-start-400,400,25726,ukn-95-95,31.692033529281616,False,,False,0.3768162352402915,0.2829048176658342,0.8875505030815249,100,"['4', '5', '13', '14', '18', '21', '24', '27', '32', '34', '35', '39', '45', '51', '53', '60', '63', '65', '66', '72', '74', '83', '86', '88', '89', '92', '93', '96', '98', '100', '110', '111', '112', '115', '117', '120', '124', '125', '130', '139', '141', '143', '144', '146', '152', '153', '154', '158', '159', '163', '165', '171', '175', '177', '180', '183', '195', '197', '198', '199', '203', '206', '207', '213', '215', '216', '217', '226', '230', '231', '233', '238', '240', '241', '250', '254', '261', '265', '274', '292', '293', '296', '303', '306', '307', '308', '317', '322', '334', '346', '347', '349', '351', '352', '353', '360', '365', '366', '369', '370', '373', '375', '380', '385', '386', '387', '389', '390', '391', '396', '400', '404', '406', '411', '413', '417', '418', '420', '427', '428', '434', '437', '442', '443', '447', '451', '453', '456', '457', '464', '465', '467', '468', '471', '483', '485', '486', '497', '500', '501', '507', '510', '511', '516', '518', '519', '520', '523', '527', '530', '533', '534', '540', '541', '542', '545', '553', '559', '571', '578', '583', '587', '588', '593', '594', '595', '596', '599', '603', '616', '619', '620', '622', '627', '633', '636', '639', '658', '660', '662', '664', '666', '671', '673', '674', '675', '677', '679', '680', '707', '708', '718', '719', '722', '723', '726', '733', '735', '737', '739', '743', '744', '747', '762', '767', '778', '783', '785', '810', '816', '828', '831', '834', '837', '850', '851', '855', '856', '857', '864', '873', '876', '878', '881', '890', '897', '900', '903', '905', '913', '919', '924', '925', '926', '927', '929', '930', '934', '935', '951', '955', '959', '969', '973', '986', '989', '992', '994', '997', '999']",False,1000,True,100,407a414116,0.0,1.0,0.0
./expes/v3_2021-03-17_issda_1000-prng-1-w1-p100-ukn95_95,30_issda-1000,950,first-1000,150,15,rng,num-start-500,500,25726,ukn-95-95,40.16252589225769,False,,False,0.5092480362978645,0.4443507864919848,0.9141152780852307,100,"['8', '19', '21', '27', '44', '45', '48', '61', '64', '69', '84', '85', '89', '92', '93', '104', '106', '109', '126', '149', '159', '166', '169', '177', '182', '183', '189', '199', '200', '201', '204', '208', '220', '228', '235', '239', '242', '244', '254', '255', '266', '267', '269', '279', '283', '284', '285', '287', '288', '293', '296', '297', '298', '299', '308', '311', '313', '318', '320', '329', '332', '335', '340', '346', '352', '365', '366', '369', '382', '398', '406', '412', '423', '424', '434', '442', '447', '452', '463', '471', '474', '483', '485', '491', '519', '521', '532', '533', '548', '550', '561', '563', '572', '587', '597', '603', '614', '621', '631', '642', '643', '648', '650', '651', '657', '664', '688', '690', '692', '715', '718', '722', '726', '739', '750', '753', '765', '784', '799', '817', '820', '827', '833', '838', '847', '849', '860', '861', '866', '869', '876', '883', '887', '889', '902', '904', '918', '927', '931', '936', '940', '950', '958', '965', '966', '968', '978', '983', '984', '988']",False,1000,True,100,0cae20ce0c,0.0,1.0,0.0
./expes/v3_2021-03-17_issda_1000-prng-1-w1-p100-ukn95_95,30_issda-1000,950,first-1000,300,31,rng,num-start-400,400,25726,ukn-95-95,31.409366607666016,False,,False,0.2340646879003798,0.21486411611467948,0.8742776404273184,100,"['2', '3', '6', '10', '13', '15', '18', '19', '22', '23', '25', '27', '29', '30', '31', '32', '34', '36', '37', '45', '49', '58', '61', '65', '72', '73', '86', '89', '94', '97', '103', '105', '111', '112', '113', '117', '121', '124', '129', '133', '138', '150', '164', '165', '168', '172', '173', '175', '178', '182', '186', '190', '191', '193', '195', '205', '211', '215', '218', '222', '225', '226', '228', '229', '231', '233', '235', '236', '237', '238', '239', '249', '256', '260', '262', '265', '273', '276', '280', '288', '291', '297', '298', '302', '304', '306', '311', '314', '316', '320', '326', '329', '330', '340', '341', '352', '353', '354', '355', '362', '366', '374', '376', '380', '384', '389', '391', '393', '396', '400', '403', '404', '405', '407', '414', '415', '424', '425', '427', '432', '433', '437', '443', '444', '449', '450', '457', '461', '462', '464', '466', '470', '471', '481', '484', '486', '492', '493', '497', '500', '502', '508', '509', '512', '513', '515', '517', '518', '519', '520', '521', '523', '525', '527', '529', '532', '534', '537', '541', '552', '553', '554', '555', '558', '562', '564', '565', '567', '568', '570', '575', '583', '584', '590', '592', '593', '599', '602', '604', '606', '608', '615', '621', '623', '624', '628', '630', '639', '640', '645', '646', '647', '651', '658', '663', '664', '665', '666', '668', '673', '676', '680', '681', '687', '690', '691', '692', '694', '695', '703', '712', '713', '720', '721', '722', '729', '737', '739', '742', '744', '747', '748', '751', '756', '759', '761', '762', '773', '774', '780', '781', '783', '786', '790', '795', '797', '798', '803', '806', '808', '816', '817', '818', '822', '823', '824', '829', '833', '837', '841', '850', '853', '856', '858', '861', '862', '867', '868', '869', '872', '874', '878', '881', '882', '889', '891', '897', '903', '904', '908', '915', '918', '922', '924', '932', '933', '939', '943', '945', '949', '954', '959', '961', '962', '964', '967', '968', '973', '975', '976', '978', '981', '983', '989', '991', '992', '993', '997', '999', '1000']",False,1000,True,100,40db9e18d7,0.0,1.0,0.0
