{
  "clients": [
    {
      "name": "daily_issda_150",
      "path": "./csv/daily_issda.csv",
      "subset": "rng-150",
      "subset_size": 150,
      "param": null
    }
  ],
  "agg_size": [
    1,
    11,
    21,
    31,
    41,
    51,
    61,
    71,
    81,
    91,
    101,
    111,
    121,
    131,
    141
  ],
  "methods": [
    {
      "name": "rng",
      "param": 0
    },
    {
      "name": "rng",
      "param": 1
    },
    {
      "name": "rng",
      "param": 2
    },
    {
      "name": "rng",
      "param": 3
    },
    {
      "name": "rng",
      "param": 4
    },
    {
      "name": "rng",
      "param": 5
    },
    {
      "name": "rng",
      "param": 6
    },
    {
      "name": "rng",
      "param": 7
    },
    {
      "name": "rng",
      "param": 8
    },
    {
      "name": "rng",
      "param": 9
    },
    {
      "name": "rng",
      "param": 10
    },
    {
      "name": "rng",
      "param": 11
    },
    {
      "name": "rng",
      "param": 12
    },
    {
      "name": "rng",
      "param": 13
    },
    {
      "name": "rng",
      "param": 14
    },
    {
      "name": "rng",
      "param": 15
    },
    {
      "name": "rng",
      "param": 16
    },
    {
      "name": "rng",
      "param": 17
    },
    {
      "name": "rng",
      "param": 18
    },
    {
      "name": "rng",
      "param": 19
    }
  ],
  "days": [
    {
      "name": "num-start-1",
      "param": 1
    },
    {
      "name": "num-start-11",
      "param": 11
    },
    {
      "name": "num-start-21",
      "param": 21
    },
    {
      "name": "num-start-31",
      "param": 31
    },
    {
      "name": "num-start-41",
      "param": 41
    },
    {
      "name": "num-start-51",
      "param": 51
    },
    {
      "name": "num-start-61",
      "param": 61
    },
    {
      "name": "num-start-71",
      "param": 71
    },
    {
      "name": "num-start-81",
      "param": 81
    },
    {
      "name": "num-start-91",
      "param": 91
    },
    {
      "name": "num-start-101",
      "param": 101
    },
    {
      "name": "num-start-111",
      "param": 111
    },
    {
      "name": "num-start-121",
      "param": 121
    },
    {
      "name": "num-start-131",
      "param": 131
    },
    {
      "name": "num-start-141",
      "param": 141
    },
    {
      "name": "num-start-151",
      "param": 151
    },
    {
      "name": "num-start-161",
      "param": 161
    },
    {
      "name": "num-start-171",
      "param": 171
    },
    {
      "name": "num-start-181",
      "param": 181
    },
    {
      "name": "num-start-191",
      "param": 191
    },
    {
      "name": "num-start-201",
      "param": 201
    },
    {
      "name": "num-start-211",
      "param": 211
    },
    {
      "name": "num-start-221",
      "param": 221
    },
    {
      "name": "num-start-231",
      "param": 231
    },
    {
      "name": "num-start-241",
      "param": 241
    },
    {
      "name": "num-start-251",
      "param": 251
    },
    {
      "name": "num-start-261",
      "param": 261
    },
    {
      "name": "num-start-271",
      "param": 271
    },
    {
      "name": "num-start-281",
      "param": 281
    },
    {
      "name": "num-start-291",
      "param": 291
    }
  ],
  "threads": null,
  "wall_time": 1000,
  "pooled": true
}