expe,clients,clients_size,clients_subset,agg_size,agg_size_pc,method,days,days_size,days_total,noise_method,time,valid,valid_sum,success,score_avg,score_min,score_max,nsols,oracle,wall_hit,wall_time,pooled,pool_size,uuid,infeasible,optimal,valid_sums
./expes/v3_2021-02-19_hi_1000-prng-1-w1-fpa10-0.6-p100,30_issda-1000,1000,first-1000,150,15,rng,num-start-4000,4000,25726,fpa-09-10-0.6-20,440.4737949371338,False,,False,0.481557997117369,0.48012475508996366,0.4977527976660773,100,"['8', '19', '21', '27', '44', '45', '48', '61', '64', '69', '84', '85', '89', '92', '93', '104', '106', '109', '126', '149', '159', '166', '169', '177', '182', '183', '189', '199', '200', '201', '204', '208', '220', '228', '235', '239', '242', '244', '254', '255', '266', '267', '269', '279', '283', '284', '285', '287', '288', '293', '296', '297', '298', '299', '308', '311', '313', '318', '320', '329', '332', '335', '340', '346', '352', '365', '366', '369', '382', '398', '406', '412', '423', '424', '434', '442', '447', '452', '463', '471', '474', '483', '485', '491', '519', '521', '532', '533', '548', '550', '561', '563', '572', '587', '597', '603', '614', '621', '631', '642', '643', '648', '650', '651', '657', '664', '688', '690', '692', '715', '718', '722', '726', '739', '750', '753', '765', '784', '799', '817', '820', '827', '833', '838', '847', '849', '860', '861', '866', '869', '876', '883', '887', '889', '902', '904', '918', '927', '931', '936', '940', '950', '958', '965', '966', '968', '978', '983', '984', '988']",False,1000,True,100,fd05aa7d5d,0.0,1.0,0.0
./expes/v3_2021-02-19_hi_1000-prng-1-w1-fpa10-0.6-p100,30_issda-1000,1000,first-1000,250,25,rng,num-start-250,250,25726,fpa-09-10-0.6-20,36.62814736366272,False,,False,0.37815405496314136,0.37358768180024393,0.404723295975431,100,"['2', '5', '9', '19', '22', '25', '26', '29', '32', '33', '37', '38', '42', '45', '47', '51', '58', '59', '61', '62', '70', '78', '85', '87', '94', '96', '105', '109', '116', '118', '131', '140', '144', '148', '156', '158', '161', '163', '166', '169', '171', '174', '177', '178', '181', '182', '187', '189', '196', '213', '216', '218', '228', '231', '233', '237', '242', '251', '254', '256', '258', '262', '266', '269', '271', '273', '275', '280', '286', '293', '311', '316', '317', '320', '324', '327', '333', '336', '346', '350', '353', '360', '363', '369', '370', '371', '372', '373', '376', '381', '383', '390', '395', '403', '410', '412', '417', '425', '430', '434', '442', '456', '457', '459', '460', '466', '468', '473', '477', '485', '492', '499', '501', '502', '511', '513', '515', '517', '520', '522', '523', '525', '527', '528', '531', '535', '536', '538', '539', '544', '558', '565', '571', '572', '574', '576', '582', '589', '596', '599', '603', '604', '606', '608', '620', '621', '622', '631', '632', '637', '639', '643', '654', '668', '669', '671', '675', '677', '678', '686', '689', '691', '698', '699', '701', '704', '709', '717', '723', '724', '733', '735', '741', '742', '744', '747', '749', '753', '754', '757', '758', '761', '763', '766', '773', '774', '778', '782', '785', '792', '800', '804', '808', '809', '814', '816', '819', '823', '829', '833', '835', '841', '845', '852', '856', '859', '870', '875', '880', '881', '884', '892', '896', '897', '898', '902', '904', '905', '906', '914', '916', '920', '922', '923', '924', '925', '929', '930', '931', '934', '938', '941', '943', '948', '955', '957', '959', '961', '964', '967', '971', '973', '978', '979', '981', '982', '983', '985', '994', '995']",False,1000,True,100,cfe03da678,0.0,1.0,0.0
./expes/v3_2021-02-19_hi_1000-prng-1-w1-fpa10-0.6-p100,30_issda-1000,1000,first-1000,300,30,rng,num-start-3750,3750,25726,fpa-09-10-0.6-20,489.82206749916077,False,,False,0.3498060902200815,0.3408835956870482,0.37358768180024393,100,"['8', '10', '19', '21', '27', '33', '37', '38', '42', '44', '45', '46', '48', '53', '57', '61', '62', '64', '69', '77', '80', '84', '85', '89', '92', '93', '96', '100', '104', '106', '109', '117', '120', '126', '131', '140', '146', '149', '154', '157', '159', '163', '166', '169', '170', '172', '173', '174', '177', '182', '183', '189', '193', '196', '197', '199', '200', '201', '204', '206', '207', '208', '213', '214', '216', '220', '221', '224', '225', '228', '235', '238', '239', '242', '244', '248', '249', '254', '255', '256', '257', '260', '261', '266', '267', '268', '269', '275', '276', '279', '283', '284', '285', '287', '288', '293', '296', '297', '298', '299', '300', '301', '304', '308', '311', '313', '318', '320', '323', '329', '330', '331', '332', '333', '335', '340', '345', '346', '347', '352', '365', '366', '369', '372', '373', '374', '382', '391', '397', '398', '400', '402', '405', '406', '412', '413', '414', '420', '421', '423', '424', '428', '431', '432', '434', '435', '439', '441', '442', '447', '450', '452', '455', '463', '466', '471', '474', '476', '483', '484', '485', '490', '491', '503', '504', '507', '509', '511', '519', '521', '532', '533', '539', '541', '542', '548', '550', '560', '561', '563', '572', '579', '583', '584', '586', '587', '597', '603', '610', '614', '621', '622', '631', '633', '635', '636', '642', '643', '648', '650', '651', '657', '658', '663', '664', '668', '669', '670', '671', '673', '684', '685', '688', '690', '692', '694', '697', '703', '705', '715', '718', '722', '726', '735', '739', '750', '753', '755', '763', '765', '784', '786', '791', '793', '794', '799', '803', '810', '817', '818', '819', '820', '821', '824', '827', '833', '835', '838', '847', '849', '851', '855', '860', '861', '866', '869', '876', '877', '880', '883', '887', '889', '891', '892', '895', '902', '904', '911', '913', '916', '918', '921', '922', '923', '927', '931', '936', '939', '940', '945', '947', '950', '951', '953', '958', '965', '966', '967', '968', '978', '980', '983', '984', '985', '986', '988', '990', '992', '994', '995']",False,1000,True,100,57b11a61fc,0.0,1.0,0.0
./expes/v3_2021-02-19_hi_1000-prng-1-w1-fpa10-0.6-p100,30_issda-1000,1000,first-1000,250,25,rng,num-start-4250,4250,25726,fpa-09-10-0.6-20,575.1086015701294,False,,False,0.38520511882468095,0.3784001396506058,0.39969977481233576,100,"['8', '10', '19', '21', '27', '33', '37', '38', '42', '44', '45', '46', '48', '53', '57', '61', '64', '69', '80', '84', '85', '89', '92', '93', '100', '104', '106', '109', '117', '120', '126', '140', '146', '149', '154', '157', '159', '163', '166', '169', '173', '174', '177', '182', '183', '189', '193', '197', '199', '200', '201', '204', '206', '207', '208', '213', '214', '220', '221', '225', '228', '235', '238', '239', '242', '244', '248', '249', '254', '255', '256', '257', '260', '261', '266', '267', '268', '269', '279', '283', '284', '285', '287', '288', '293', '296', '297', '298', '299', '300', '301', '308', '311', '313', '318', '320', '323', '329', '330', '331', '332', '333', '335', '340', '346', '352', '365', '366', '369', '372', '373', '374', '382', '391', '397', '398', '406', '412', '413', '420', '421', '423', '424', '428', '432', '434', '435', '439', '442', '447', '450', '452', '455', '463', '466', '471', '474', '483', '485', '490', '491', '503', '504', '507', '511', '519', '521', '532', '533', '539', '542', '548', '550', '560', '561', '563', '572', '579', '584', '586', '587', '597', '603', '610', '614', '621', '622', '631', '633', '636', '642', '643', '648', '650', '651', '657', '663', '664', '668', '669', '670', '688', '690', '692', '694', '697', '715', '718', '722', '726', '735', '739', '750', '753', '755', '763', '765', '784', '791', '793', '794', '799', '803', '810', '817', '820', '824', '827', '833', '838', '847', '849', '851', '855', '860', '861', '866', '869', '876', '883', '887', '889', '891', '892', '902', '904', '911', '913', '916', '918', '923', '927', '931', '936', '939', '940', '950', '951', '958', '965', '966', '968', '978', '983', '984', '985', '986', '988', '990', '994']",False,1000,True,100,69df7358c1,0.0,1.0,0.0
./expes/v3_2021-02-19_hi_1000-prng-1-w1-fpa10-0.6-p100,30_issda-1000,1000,first-1000,500,50,rng,num-start-2750,2750,25726,fpa-09-10-0.6-20,555.7543296813965,False,,False,0.29091538408956713,0.2883072948901987,0.2953749248738756,100,"['1', '2', '3', '4', '9', '10', '13', '14', '15', '16', '17', '20', '23', '24', '28', '29', '33', '34', '37', '38', '39', '40', '41', '42', '43', '44', '47', '48', '50', '52', '60', '63', '64', '65', '66', '68', '71', '72', '73', '74', '76', '81', '83', '84', '85', '86', '87', '90', '92', '94', '96', '98', '101', '102', '103', '104', '108', '112', '118', '119', '120', '121', '122', '123', '127', '128', '133', '134', '136', '137', '139', '142', '143', '144', '146', '150', '151', '152', '154', '155', '158', '159', '160', '162', '163', '164', '166', '168', '170', '171', '174', '175', '180', '183', '184', '185', '187', '189', '190', '192', '193', '194', '195', '196', '197', '200', '203', '204', '205', '207', '209', '210', '211', '213', '216', '219', '221', '222', '223', '224', '225', '226', '227', '228', '229', '242', '245', '246', '248', '249', '250', '257', '263', '264', '266', '267', '268', '277', '278', '282', '283', '286', '287', '288', '289', '295', '297', '298', '299', '301', '307', '309', '310', '311', '316', '318', '319', '320', '323', '324', '325', '326', '328', '330', '331', '333', '334', '337', '339', '341', '342', '343', '344', '346', '347', '349', '351', '352', '356', '359', '361', '363', '366', '367', '368', '370', '371', '376', '377', '378', '380', '381', '382', '385', '388', '389', '395', '398', '401', '404', '405', '407', '408', '409', '412', '413', '415', '416', '420', '425', '426', '428', '429', '430', '431', '434', '436', '437', '442', '445', '446', '447', '453', '454', '456', '457', '458', '459', '460', '462', '463', '464', '469', '470', '479', '482', '483', '484', '486', '488', '489', '490', '491', '493', '494', '498', '499', '500', '501', '502', '505', '506', '507', '508', '510', '511', '516', '517', '521', '524', '532', '534', '535', '536', '538', '539', '541', '542', '543', '546', '548', '551', '554', '556', '557', '558', '560', '561', '562', '565', '566', '570', '572', '574', '575', '578', '579', '582', '583', '584', '588', '590', '594', '597', '598', '599', '600', '602', '604', '605', '609', '611', '612', '617', '618', '619', '621', '623', '625', '626', '627', '628', '634', '636', '639', '641', '642', '643', '646', '649', '650', '651', '653', '654', '655', '656', '657', '660', '661', '663', '665', '667', '670', '672', '673', '674', '677', '679', '682', '685', '687', '689', '690', '692', '693', '694', '695', '696', '697', '698', '700', '701', '704', '706', '708', '715', '716', '717', '718', '719', '721', '723', '724', '727', '728', '730', '732', '733', '735', '736', '737', '743', '745', '747', '748', '749', '750', '753', '757', '760', '765', '767', '768', '771', '773', '774', '776', '777', '781', '786', '791', '796', '799', '802', '803', '804', '808', '809', '812', '813', '814', '817', '818', '819', '820', '823', '825', '826', '828', '829', '830', '832', '835', '836', '837', '838', '842', '843', '845', '846', '847', '848', '849', '850', '851', '854', '856', '858', '859', '861', '862', '863', '865', '866', '867', '870', '871', '872', '874', '875', '876', '878', '883', '885', '887', '889', '892', '893', '895', '896', '897', '898', '899', '906', '907', '910', '912', '914', '916', '917', '920', '921', '922', '924', '925', '927', '930', '931', '932', '935', '936', '938', '939', '940', '941', '942', '943', '944', '945', '946', '954', '956', '957', '959', '960', '961', '970', '971', '973', '977', '985', '986', '987', '989', '990', '991', '992', '994', '998', '1000']",False,1000,True,100,7729c6e953,0.0,1.0,0.0
./expes/v3_2021-02-19_hi_1000-prng-1-w1-fpa10-0.6-p100,30_issda-1000,1000,first-1000,500,50,rng,num-start-2250,2250,25726,fpa-09-10-0.6-20,330.28100395202637,False,,False,0.2910165730955585,0.2827033288000601,0.29964973728105837,100,"['2', '4', '5', '6', '8', '12', '14', '16', '19', '21', '22', '23', '25', '27', '28', '29', '30', '32', '33', '34', '35', '36', '37', '38', '44', '45', '46', '47', '48', '51', '52', '53', '55', '57', '62', '63', '65', '66', '68', '69', '70', '71', '74', '79', '80', '82', '86', '88', '89', '91', '95', '99', '100', '102', '103', '105', '106', '107', '108', '110', '111', '112', '117', '118', '122', '123', '124', '125', '126', '127', '128', '129', '130', '131', '132', '133', '134', '135', '137', '138', '140', '142', '147', '153', '155', '156', '160', '161', '164', '165', '167', '168', '174', '176', '182', '183', '184', '185', '188', '190', '191', '192', '196', '197', '203', '204', '205', '217', '223', '224', '227', '228', '230', '231', '233', '238', '240', '241', '242', '244', '245', '246', '248', '251', '255', '256', '258', '259', '265', '266', '269', '270', '271', '272', '274', '276', '277', '278', '281', '286', '287', '292', '294', '296', '298', '299', '301', '306', '307', '308', '309', '311', '312', '318', '321', '322', '323', '324', '327', '328', '330', '331', '333', '334', '335', '336', '337', '339', '341', '342', '345', '348', '349', '350', '353', '354', '355', '359', '360', '361', '362', '369', '370', '373', '375', '377', '379', '382', '383', '384', '385', '386', '387', '390', '396', '397', '399', '400', '404', '405', '407', '410', '411', '418', '420', '421', '423', '424', '426', '427', '429', '430', '431', '432', '434', '436', '437', '438', '439', '441', '442', '445', '446', '447', '448', '449', '454', '456', '462', '466', '468', '472', '476', '478', '481', '482', '485', '486', '488', '489', '493', '494', '495', '496', '500', '502', '507', '509', '510', '513', '515', '516', '518', '520', '523', '524', '525', '528', '530', '531', '532', '533', '534', '536', '538', '540', '542', '543', '545', '547', '548', '549', '550', '554', '555', '557', '558', '562', '563', '564', '565', '567', '568', '569', '570', '573', '578', '581', '582', '583', '585', '586', '588', '589', '591', '593', '594', '595', '599', '600', '601', '602', '603', '604', '605', '606', '607', '610', '614', '615', '616', '619', '620', '621', '624', '626', '627', '630', '631', '633', '635', '636', '638', '641', '642', '643', '644', '648', '649', '650', '651', '652', '655', '658', '659', '660', '662', '663', '666', '670', '672', '676', '679', '684', '688', '689', '690', '691', '692', '693', '695', '696', '698', '699', '701', '703', '707', '708', '711', '712', '713', '714', '715', '716', '717', '720', '724', '730', '731', '732', '733', '734', '735', '736', '737', '738', '741', '746', '750', '752', '753', '756', '760', '764', '766', '767', '771', '772', '775', '777', '779', '780', '786', '788', '791', '793', '794', '796', '798', '799', '802', '806', '807', '808', '810', '811', '812', '813', '815', '818', '820', '821', '823', '824', '826', '827', '830', '831', '832', '833', '837', '840', '844', '848', '852', '853', '854', '857', '858', '859', '862', '864', '865', '871', '873', '875', '876', '877', '878', '879', '882', '883', '884', '885', '887', '888', '889', '891', '892', '894', '900', '901', '902', '903', '905', '907', '908', '909', '911', '912', '919', '920', '922', '926', '927', '931', '935', '938', '939', '940', '943', '944', '945', '947', '949', '950', '952', '957', '959', '962', '964', '966', '972', '973', '974', '976', '978', '981', '982', '984', '987', '988', '989', '990', '991', '993', '995', '996', '997', '999']",False,1000,True,100,7f4aa8fb7d,0.0,1.0,0.0
./expes/v3_2021-02-19_hi_1000-prng-1-w1-fpa10-0.6-p100,30_issda-1000,1000,first-1000,250,25,rng,num-start-1000,1000,25726,fpa-09-10-0.6-20,164.34418416023254,False,,False,0.385825291247576,0.3784001396506058,0.404723295975431,100,"['2', '5', '9', '19', '22', '25', '26', '29', '32', '33', '37', '38', '42', '45', '47', '51', '58', '59', '61', '62', '70', '78', '85', '87', '94', '96', '105', '109', '116', '118', '131', '140', '144', '148', '156', '158', '161', '163', '166', '169', '171', '174', '177', '178', '181', '182', '187', '189', '196', '213', '216', '218', '228', '231', '233', '237', '242', '251', '254', '256', '258', '262', '266', '269', '271', '273', '275', '280', '286', '293', '311', '316', '317', '320', '324', '327', '333', '336', '346', '350', '353', '360', '363', '369', '370', '371', '372', '373', '376', '381', '383', '390', '395', '403', '410', '412', '417', '425', '430', '434', '442', '456', '457', '459', '460', '466', '468', '473', '477', '485', '492', '499', '501', '502', '511', '513', '515', '517', '520', '522', '523', '525', '527', '528', '531', '535', '536', '538', '539', '544', '558', '565', '571', '572', '574', '576', '582', '589', '596', '599', '603', '604', '606', '608', '620', '621', '622', '631', '632', '637', '639', '643', '654', '668', '669', '671', '675', '677', '678', '686', '689', '691', '698', '699', '701', '704', '709', '717', '723', '724', '733', '735', '741', '742', '744', '747', '749', '753', '754', '757', '758', '761', '763', '766', '773', '774', '778', '782', '785', '792', '800', '804', '808', '809', '814', '816', '819', '823', '829', '833', '835', '841', '845', '852', '856', '859', '870', '875', '880', '881', '884', '892', '896', '897', '898', '902', '904', '905', '906', '914', '916', '920', '922', '923', '924', '925', '929', '930', '931', '934', '938', '941', '943', '948', '955', '957', '959', '961', '964', '967', '971', '973', '978', '979', '981', '982', '983', '985', '994', '995']",False,1000,True,100,7101951f9c,0.0,1.0,0.0
./expes/v3_2021-02-19_hi_1000-prng-1-w1-fpa10-0.6-p100,30_issda-1000,1000,first-1000,150,15,rng,num-start-4000,4000,25726,fpa-09-10-0.6-20,657.057953119278,False,,False,0.4992789832771722,0.4937824022653339,0.5037679512100752,100,"['8', '14', '16', '21', '30', '32', '37', '44', '46', '47', '65', '66', '68', '69', '91', '100', '107', '122', '128', '134', '138', '140', '155', '156', '164', '168', '197', '217', '223', '238', '240', '242', '244', '265', '266', '274', '276', '286', '287', '292', '301', '309', '318', '335', '339', '345', '353', '360', '375', '379', '387', '396', '397', '400', '405', '407', '418', '421', '426', '432', '438', '447', '456', '481', '482', '485', '486', '488', '494', '496', '507', '518', '520', '536', '547', '554', '555', '558', '563', '565', '583', '586', '588', '591', '595', '599', '600', '601', '606', '607', '610', '619', '620', '621', '630', '641', '642', '649', '651', '655', '672', '688', '689', '699', '713', '716', '731', '732', '735', '736', '737', '746', '760', '777', '780', '788', '796', '798', '799', '808', '820', '821', '844', '852', '854', '857', '858', '875', '876', '877', '882', '887', '889', '894', '900', '903', '919', '926', '927', '931', '938', '943', '944', '945', '949', '952', '959', '981', '988', '989']",False,1000,True,100,1da475a27e,0.0,1.0,0.0
./expes/v3_2021-02-19_hi_1000-prng-1-w1-fpa10-0.6-p100,30_issda-1000,1000,first-1000,500,50,rng,num-start-1000,1000,25726,fpa-09-10-0.6-20,124.24238157272339,False,,False,0.28359132312922575,0.2785289191377658,0.29964973728105837,100,"['2', '4', '5', '6', '9', '12', '17', '18', '19', '20', '21', '22', '25', '26', '29', '31', '32', '33', '35', '37', '38', '39', '42', '45', '47', '51', '53', '55', '58', '59', '61', '62', '68', '69', '70', '73', '75', '76', '78', '79', '82', '83', '84', '85', '87', '89', '90', '94', '96', '97', '99', '103', '104', '105', '108', '109', '114', '115', '116', '118', '119', '122', '125', '126', '131', '132', '135', '139', '140', '142', '144', '145', '148', '149', '151', '155', '156', '158', '160', '161', '162', '163', '165', '166', '169', '171', '174', '175', '177', '178', '181', '182', '185', '186', '187', '189', '193', '196', '197', '204', '205', '210', '213', '214', '216', '218', '221', '222', '223', '225', '228', '231', '233', '234', '237', '238', '239', '241', '242', '247', '251', '253', '254', '255', '256', '257', '258', '260', '261', '262', '263', '264', '266', '269', '271', '273', '274', '275', '276', '280', '281', '286', '292', '293', '294', '297', '298', '304', '311', '314', '316', '317', '318', '320', '321', '324', '327', '333', '336', '337', '338', '339', '343', '346', '350', '353', '354', '356', '359', '360', '363', '365', '367', '368', '369', '370', '371', '372', '373', '375', '376', '381', '382', '383', '384', '390', '392', '393', '394', '395', '396', '400', '401', '402', '403', '405', '410', '412', '413', '414', '415', '417', '419', '421', '423', '425', '427', '429', '430', '434', '436', '438', '442', '445', '450', '452', '456', '457', '459', '460', '463', '465', '466', '468', '469', '471', '472', '473', '475', '476', '477', '478', '479', '482', '484', '485', '490', '492', '494', '495', '496', '497', '498', '499', '501', '502', '503', '504', '510', '511', '513', '515', '517', '520', '521', '522', '523', '524', '525', '526', '527', '528', '529', '531', '532', '534', '535', '536', '537', '538', '539', '544', '546', '549', '554', '558', '559', '561', '562', '565', '571', '572', '574', '576', '580', '582', '583', '586', '588', '589', '590', '595', '596', '599', '600', '601', '603', '604', '606', '608', '610', '611', '620', '621', '622', '626', '627', '628', '629', '631', '632', '634', '637', '639', '640', '641', '643', '651', '653', '654', '657', '658', '664', '666', '668', '669', '671', '675', '677', '678', '680', '683', '686', '687', '689', '691', '692', '695', '696', '697', '698', '699', '701', '702', '704', '707', '709', '710', '713', '716', '717', '721', '723', '724', '726', '727', '728', '729', '730', '731', '732', '733', '734', '735', '737', '741', '742', '744', '746', '747', '749', '753', '754', '755', '757', '758', '761', '763', '764', '766', '769', '772', '773', '774', '778', '779', '780', '782', '783', '785', '786', '792', '794', '796', '800', '802', '804', '807', '808', '809', '811', '814', '816', '818', '819', '820', '821', '822', '823', '824', '826', '829', '830', '832', '833', '835', '836', '838', '840', '841', '845', '846', '852', '854', '856', '857', '858', '859', '861', '870', '871', '873', '875', '880', '881', '884', '885', '887', '892', '896', '897', '898', '899', '902', '903', '904', '905', '906', '907', '909', '911', '914', '916', '917', '920', '922', '923', '924', '925', '928', '929', '930', '931', '934', '937', '938', '939', '941', '943', '944', '945', '948', '952', '955', '957', '958', '959', '960', '961', '962', '964', '966', '967', '971', '973', '978', '979', '981', '982', '983', '984', '985', '986', '987', '990', '993', '994', '995', '996', '998']",False,1000,True,100,2661964bc7,0.0,1.0,0.0
./expes/v3_2021-02-19_hi_1000-prng-1-w1-fpa10-0.6-p100,30_issda-1000,1000,first-1000,350,35,rng,num-start-1750,1750,25726,fpa-09-10-0.6-20,186.8610544204712,False,,False,0.3448562216332515,0.3155524355595466,0.34852135535811724,100,"['2', '3', '6', '9', '10', '13', '15', '18', '19', '22', '23', '25', '27', '29', '30', '31', '32', '34', '36', '37', '39', '45', '49', '58', '61', '65', '72', '73', '79', '86', '89', '94', '97', '99', '102', '103', '105', '107', '111', '112', '113', '117', '121', '124', '129', '133', '134', '138', '139', '150', '161', '163', '164', '165', '168', '172', '173', '175', '176', '178', '182', '186', '190', '191', '193', '195', '199', '205', '206', '211', '215', '218', '219', '222', '223', '225', '226', '228', '229', '231', '233', '235', '236', '237', '238', '239', '249', '256', '259', '260', '262', '265', '273', '276', '280', '288', '289', '291', '297', '298', '302', '304', '306', '311', '314', '316', '318', '320', '326', '329', '330', '334', '336', '340', '341', '348', '352', '353', '354', '355', '356', '362', '366', '374', '376', '380', '384', '388', '389', '391', '393', '396', '400', '403', '404', '405', '407', '412', '414', '415', '424', '425', '427', '432', '433', '437', '440', '443', '444', '449', '450', '457', '461', '462', '464', '466', '470', '471', '472', '481', '484', '486', '492', '493', '497', '500', '502', '505', '508', '509', '512', '513', '515', '517', '518', '519', '520', '521', '522', '523', '525', '527', '529', '532', '534', '537', '541', '552', '553', '554', '555', '558', '562', '564', '565', '567', '568', '570', '575', '577', '579', '583', '584', '588', '590', '592', '593', '599', '602', '604', '605', '606', '608', '615', '621', '623', '624', '627', '628', '630', '638', '639', '640', '645', '646', '647', '651', '658', '663', '664', '665', '666', '668', '673', '676', '680', '681', '682', '687', '690', '691', '692', '694', '695', '703', '712', '713', '720', '721', '722', '729', '737', '739', '742', '744', '747', '748', '751', '756', '759', '761', '762', '773', '774', '780', '781', '783', '786', '790', '795', '797', '798', '799', '802', '803', '806', '808', '816', '817', '818', '822', '823', '824', '829', '831', '833', '837', '840', '841', '848', '850', '853', '856', '858', '861', '862', '867', '868', '869', '871', '872', '874', '878', '879', '880', '881', '882', '889', '891', '893', '897', '900', '903', '904', '908', '915', '918', '919', '922', '923', '924', '932', '933', '939', '940', '943', '945', '949', '954', '959', '961', '962', '964', '967', '968', '973', '975', '976', '978', '981', '983', '986', '989', '991', '992', '993', '997', '998', '999', '1000']",False,1000,True,100,d968d3f097,0.0,1.0,0.0
./expes/v3_2021-02-19_hi_1000-prng-1-w1-fpa10-0.6-p100,30_issda-1000,1000,first-1000,350,35,rng,num-start-3500,3500,25726,fpa-09-10-0.6-20,450.49478673934937,False,,False,0.32168044793802086,0.3184837019817762,0.32586762838856753,100,"['5', '8', '12', '14', '16', '21', '22', '23', '28', '30', '32', '33', '34', '35', '36', '37', '44', '46', '47', '51', '55', '62', '63', '65', '66', '68', '69', '70', '79', '82', '88', '91', '100', '105', '106', '107', '108', '111', '117', '122', '123', '124', '126', '128', '129', '133', '134', '135', '137', '138', '140', '142', '155', '156', '160', '164', '168', '174', '176', '182', '188', '190', '192', '196', '197', '203', '204', '205', '217', '223', '224', '227', '228', '230', '231', '233', '238', '240', '242', '244', '245', '246', '251', '258', '259', '265', '266', '270', '271', '274', '276', '278', '286', '287', '292', '294', '296', '298', '299', '301', '306', '308', '309', '311', '318', '321', '322', '323', '328', '330', '335', '336', '339', '341', '342', '345', '348', '349', '350', '353', '354', '355', '360', '361', '362', '369', '373', '375', '379', '386', '387', '396', '397', '400', '405', '407', '418', '420', '421', '424', '426', '427', '430', '432', '438', '441', '442', '445', '446', '447', '448', '449', '456', '462', '468', '472', '476', '478', '481', '482', '485', '486', '488', '489', '493', '494', '496', '502', '507', '513', '516', '518', '520', '523', '525', '531', '532', '533', '534', '536', '538', '543', '547', '548', '549', '550', '554', '555', '557', '558', '562', '563', '565', '573', '582', '583', '586', '588', '589', '591', '594', '595', '599', '600', '601', '603', '604', '606', '607', '610', '615', '616', '619', '620', '621', '624', '626', '627', '630', '631', '635', '636', '638', '641', '642', '643', '644', '648', '649', '650', '651', '655', '658', '660', '666', '670', '672', '679', '688', '689', '692', '693', '695', '696', '698', '699', '701', '707', '711', '713', '715', '716', '724', '731', '732', '733', '735', '736', '737', '738', '746', '753', '756', '760', '764', '766', '772', '777', '780', '788', '791', '796', '798', '799', '802', '806', '807', '808', '813', '820', '821', '823', '824', '826', '827', '830', '831', '832', '833', '837', '844', '848', '852', '853', '854', '857', '858', '859', '865', '871', '875', '876', '877', '879', '882', '883', '885', '887', '888', '889', '891', '894', '900', '902', '903', '905', '907', '909', '912', '919', '922', '926', '927', '931', '935', '938', '940', '943', '944', '945', '947', '949', '950', '952', '959', '962', '964', '966', '972', '973', '978', '981', '982', '984', '987', '988', '989', '995', '996', '997']",False,1000,True,100,8a297bf43b,0.0,1.0,0.0
./expes/v3_2021-02-19_hi_1000-prng-1-w1-fpa10-0.6-p100,30_issda-1000,1000,first-1000,300,30,rng,num-start-3000,3000,25726,fpa-09-10-0.6-20,502.04786705970764,False,,False,0.3504674076829793,0.3378531594589925,0.3546966477567187,100,"['5', '8', '12', '14', '16', '21', '22', '23', '28', '30', '32', '33', '35', '37', '44', '46', '47', '62', '63', '65', '66', '68', '69', '79', '82', '88', '91', '100', '105', '106', '107', '108', '111', '122', '124', '128', '133', '134', '135', '137', '138', '140', '142', '155', '156', '160', '164', '168', '174', '182', '188', '190', '192', '196', '197', '203', '205', '217', '223', '224', '228', '230', '231', '238', '240', '242', '244', '245', '258', '265', '266', '270', '271', '274', '276', '278', '286', '287', '292', '298', '299', '301', '306', '308', '309', '311', '318', '321', '322', '323', '328', '330', '335', '336', '339', '341', '342', '345', '348', '349', '353', '354', '355', '360', '362', '369', '373', '375', '379', '386', '387', '396', '397', '400', '405', '407', '418', '420', '421', '424', '426', '427', '430', '432', '438', '442', '445', '446', '447', '448', '449', '456', '462', '468', '472', '476', '478', '481', '482', '485', '486', '488', '489', '494', '496', '502', '507', '513', '518', '520', '523', '531', '533', '534', '536', '543', '547', '549', '554', '555', '558', '562', '563', '565', '573', '582', '583', '586', '588', '589', '591', '594', '595', '599', '600', '601', '604', '606', '607', '610', '615', '616', '619', '620', '621', '624', '626', '630', '631', '635', '636', '638', '641', '642', '643', '644', '648', '649', '650', '651', '655', '658', '660', '666', '670', '672', '688', '689', '692', '693', '695', '696', '698', '699', '701', '707', '713', '715', '716', '724', '731', '732', '733', '735', '736', '737', '738', '746', '753', '756', '760', '777', '780', '788', '791', '796', '798', '799', '806', '807', '808', '813', '820', '821', '824', '826', '827', '830', '831', '833', '844', '848', '852', '853', '854', '857', '858', '859', '865', '871', '875', '876', '877', '882', '883', '885', '887', '888', '889', '891', '894', '900', '902', '903', '907', '919', '926', '927', '931', '938', '940', '943', '944', '945', '949', '952', '959', '964', '966', '972', '973', '978', '981', '982', '984', '987', '988', '989', '995', '997']",False,1000,True,100,3db3177663,0.0,1.0,0.0
