expe,clients,clients_size,clients_subset,agg_size,agg_size_pc,method,days,days_size,days_total,noise_method,time,valid,valid_sum,success,score_avg,score_min,score_max,nsols,oracle,wall_hit,wall_time,pooled,pool_size,uuid,infeasible,optimal,valid_sums
./expes/v2_2021-03-23_issda-30_2000-prng-1-w2-p2,30_issda-2000,2000,first-2000,300,15,rng,num-start-2800,2800,25726,classic,2222.778331041336,True,,True,1.0,1.0,1.0,1,"['1', '12', '13', '19', '21', '23', '27', '29', '42', '45', '46', '47', '57', '58', '63', '68', '80', '89', '91', '96', '99', '108', '114', '119', '120', '122', '133', '135', '146', '157', '161', '163', '165', '172', '177', '191', '205', '207', '212', '214', '220', '222', '233', '238', '249', '252', '254', '258', '269', '274', '290', '291', '295', '302', '314', '316', '317', '337', '352', '353', '357', '365', '379', '391', '406', '417', '424', '428', '429', '430', '443', '452', '454', '456', '457', '460', '461', '465', '467', '476', '481', '487', '488', '490', '491', '495', '498', '501', '520', '523', '524', '529', '531', '533', '549', '552', '580', '582', '584', '601', '605', '607', '608', '619', '624', '625', '633', '635', '636', '642', '649', '655', '656', '683', '686', '687', '713', '741', '743', '747', '757', '765', '787', '792', '796', '802', '805', '808', '810', '811', '819', '820', '825', '827', '830', '832', '834', '836', '839', '852', '854', '861', '867', '874', '876', '887', '889', '906', '912', '915', '929', '931', '934', '936', '944', '947', '952', '956', '961', '968', '973', '978', '985', '988', '1000', '1004', '1005', '1007', '1013', '1016', '1017', '1022', '1023', '1027', '1030', '1032', '1047', '1052', '1053', '1059', '1072', '1077', '1089', '1095', '1097', '1105', '1110', '1134', '1153', '1173', '1186', '1193', '1208', '1227', '1234', '1235', '1237', '1242', '1243', '1256', '1260', '1277', '1281', '1282', '1284', '1287', '1293', '1296', '1301', '1308', '1312', '1313', '1317', '1320', '1332', '1341', '1343', '1347', '1349', '1351', '1353', '1358', '1365', '1366', '1367', '1370', '1395', '1407', '1417', '1421', '1432', '1433', '1441', '1449', '1450', '1457', '1472', '1483', '1485', '1491', '1496', '1510', '1512', '1521', '1523', '1540', '1547', '1564', '1568', '1603', '1604', '1612', '1614', '1616', '1617', '1619', '1630', '1652', '1655', '1664', '1667', '1669', '1674', '1692', '1694', '1700', '1706', '1721', '1722', '1726', '1727', '1732', '1735', '1736', '1741', '1750', '1763', '1771', '1795', '1809', '1810', '1830', '1837', '1843', '1849', '1875', '1882', '1883', '1884', '1895', '1927', '1933', '1943', '1950', '1952', '1959', '1981', '1983', '1995', '1996']",False,2000,True,2,4aec104a59,0.0,1.0,1.0
./expes/v2_2021-03-23_issda-30_2000-prng-1-w2-p2,30_issda-2000,2000,first-2000,1000,50,rng,num-start-600,600,25726,classic,2105.2498700618744,False,,False,0,,,0,"['1', '3', '4', '9', '12', '13', '14', '16', '18', '19', '21', '23', '24', '25', '26', '27', '30', '34', '35', '36', '38', '42', '43', '45', '47', '48', '50', '52', '55', '59', '60', '64', '72', '73', '74', '76', '77', '79', '82', '83', '84', '86', '87', '92', '93', '94', '95', '96', '97', '98', '101', '102', '106', '109', '111', '113', '115', '117', '120', '125', '129', '130', '132', '133', '136', '137', '138', '140', '141', '142', '144', '145', '147', '156', '157', '158', '159', '160', '161', '162', '164', '168', '170', '171', '172', '178', '179', '180', '181', '182', '184', '185', '187', '189', '190', '192', '193', '207', '208', '213', '218', '220', '221', '223', '227', '228', '229', '231', '235', '236', '239', '240', '242', '243', '244', '248', '249', '250', '252', '254', '256', '258', '259', '262', '263', '265', '267', '268', '270', '272', '273', '277', '280', '281', '284', '285', '286', '287', '290', '294', '297', '298', '300', '301', '303', '306', '308', '309', '310', '312', '314', '317', '320', '321', '329', '331', '333', '334', '335', '337', '342', '343', '344', '347', '350', '353', '355', '357', '358', '360', '361', '362', '365', '366', '368', '372', '374', '375', '377', '378', '379', '382', '383', '385', '386', '387', '389', '390', '392', '394', '395', '396', '402', '406', '409', '411', '413', '414', '415', '416', '418', '419', '420', '422', '423', '424', '428', '429', '430', '432', '433', '434', '435', '436', '438', '440', '442', '443', '446', '447', '449', '450', '452', '456', '459', '461', '462', '470', '472', '473', '478', '479', '481', '483', '484', '486', '487', '489', '491', '492', '495', '496', '497', '504', '505', '507', '508', '510', '511', '512', '516', '520', '523', '524', '525', '528', '529', '530', '531', '532', '533', '535', '538', '540', '542', '543', '546', '547', '550', '553', '554', '555', '556', '558', '560', '561', '562', '564', '565', '567', '568', '571', '575', '577', '579', '581', '582', '583', '588', '591', '592', '593', '596', '598', '599', '600', '603', '604', '606', '608', '609', '611', '612', '613', '615', '616', '618', '619', '620', '621', '623', '627', '629', '630', '632', '633', '635', '641', '642', '644', '646', '647', '651', '655', '659', '660', '661', '664', '665', '666', '671', '672', '673', '675', '677', '679', '680', '681', '683', '685', '686', '688', '689', '690', '693', '694', '696', '697', '698', '699', '700', '702', '706', '707', '708', '709', '712', '715', '716', '717', '718', '721', '722', '726', '730', '731', '733', '736', '737', '738', '739', '740', '741', '744', '745', '748', '749', '750', '753', '754', '755', '761', '764', '765', '766', '767', '770', '775', '776', '778', '779', '780', '785', '786', '789', '790', '793', '795', '797', '798', '799', '800', '802', '804', '806', '808', '813', '814', '816', '817', '820', '823', '824', '826', '828', '829', '831', '832', '833', '834', '836', '837', '838', '839', '844', '847', '848', '849', '850', '851', '853', '855', '856', '860', '864', '865', '866', '867', '868', '869', '870', '871', '874', '875', '876', '877', '878', '879', '880', '882', '883', '888', '889', '890', '893', '894', '895', '897', '908', '911', '913', '915', '920', '930', '931', '932', '933', '936', '939', '940', '942', '943', '946', '949', '950', '951', '952', '953', '954', '955', '957', '958', '959', '960', '961', '962', '963', '964', '967', '969', '970', '973', '974', '978', '979', '980', '983', '984', '985', '986', '988', '990', '994', '997', '999', '1003', '1004', '1005', '1006', '1007', '1008', '1009', '1010', '1012', '1014', '1016', '1018', '1023', '1026', '1029', '1031', '1035', '1036', '1038', '1039', '1040', '1041', '1043', '1044', '1046', '1047', '1049', '1051', '1052', '1054', '1058', '1062', '1063', '1064', '1066', '1067', '1068', '1069', '1070', '1071', '1073', '1075', '1078', '1079', '1080', '1083', '1085', '1086', '1087', '1091', '1093', '1095', '1101', '1102', '1103', '1104', '1107', '1109', '1110', '1111', '1114', '1116', '1117', '1118', '1119', '1123', '1124', '1125', '1127', '1129', '1130', '1131', '1132', '1133', '1137', '1140', '1143', '1144', '1145', '1149', '1150', '1152', '1158', '1159', '1164', '1165', '1166', '1167', '1170', '1171', '1173', '1174', '1176', '1179', '1183', '1186', '1190', '1192', '1194', '1195', '1196', '1197', '1198', '1203', '1205', '1206', '1207', '1208', '1210', '1212', '1216', '1218', '1219', '1224', '1225', '1229', '1230', '1235', '1238', '1242', '1244', '1245', '1247', '1248', '1250', '1251', '1252', '1254', '1255', '1258', '1260', '1261', '1264', '1266', '1267', '1271', '1275', '1276', '1277', '1278', '1281', '1283', '1285', '1287', '1289', '1290', '1291', '1292', '1293', '1294', '1295', '1299', '1300', '1304', '1306', '1308', '1309', '1316', '1322', '1325', '1326', '1327', '1328', '1329', '1330', '1335', '1336', '1339', '1342', '1344', '1345', '1346', '1347', '1353', '1354', '1355', '1359', '1361', '1363', '1367', '1370', '1372', '1375', '1376', '1378', '1379', '1381', '1383', '1384', '1385', '1386', '1388', '1389', '1390', '1391', '1393', '1395', '1396', '1397', '1400', '1401', '1402', '1406', '1407', '1408', '1412', '1414', '1415', '1417', '1418', '1419', '1421', '1422', '1427', '1430', '1431', '1432', '1433', '1436', '1437', '1438', '1440', '1444', '1446', '1447', '1449', '1451', '1452', '1453', '1454', '1458', '1461', '1462', '1464', '1467', '1469', '1471', '1472', '1473', '1474', '1477', '1478', '1479', '1480', '1482', '1489', '1490', '1496', '1500', '1501', '1504', '1505', '1506', '1507', '1508', '1513', '1514', '1519', '1522', '1525', '1526', '1527', '1529', '1532', '1533', '1538', '1544', '1545', '1548', '1549', '1550', '1551', '1552', '1553', '1554', '1556', '1557', '1562', '1564', '1567', '1570', '1572', '1573', '1574', '1575', '1578', '1579', '1581', '1584', '1585', '1586', '1587', '1589', '1592', '1593', '1594', '1595', '1598', '1599', '1600', '1603', '1605', '1606', '1607', '1609', '1612', '1613', '1614', '1615', '1618', '1620', '1621', '1622', '1623', '1625', '1626', '1627', '1628', '1629', '1632', '1639', '1642', '1644', '1646', '1650', '1651', '1652', '1654', '1656', '1657', '1658', '1660', '1662', '1663', '1664', '1666', '1667', '1668', '1669', '1674', '1676', '1681', '1683', '1684', '1688', '1691', '1692', '1693', '1695', '1697', '1698', '1700', '1703', '1705', '1706', '1708', '1711', '1712', '1713', '1715', '1718', '1719', '1720', '1722', '1724', '1726', '1728', '1729', '1733', '1734', '1735', '1736', '1738', '1741', '1743', '1746', '1749', '1750', '1751', '1754', '1756', '1758', '1760', '1762', '1766', '1769', '1774', '1775', '1777', '1778', '1780', '1783', '1788', '1789', '1790', '1791', '1792', '1795', '1799', '1801', '1804', '1805', '1806', '1807', '1811', '1813', '1814', '1817', '1818', '1822', '1823', '1825', '1826', '1827', '1829', '1834', '1837', '1841', '1842', '1843', '1844', '1847', '1854', '1857', '1858', '1859', '1865', '1867', '1869', '1870', '1871', '1874', '1875', '1876', '1879', '1880', '1883', '1884', '1887', '1888', '1889', '1891', '1895', '1896', '1898', '1899', '1900', '1903', '1904', '1905', '1909', '1910', '1912', '1914', '1916', '1919', '1921', '1922', '1923', '1925', '1929', '1931', '1934', '1935', '1936', '1938', '1939', '1941', '1946', '1947', '1948', '1950', '1951', '1955', '1956', '1959', '1960', '1961', '1962', '1964', '1966', '1968', '1973', '1979', '1980', '1981', '1982', '1983', '1985', '1986', '1987', '1993', '1994', '1998', '1999']",True,2000,True,2,eca0a26b6b,0.0,0.0,0.0
./expes/v2_2021-03-23_issda-30_2000-prng-1-w2-p2,30_issda-2000,2000,first-2000,200,10,rng,num-start-600,600,25726,classic,1155.7028810977936,True,,True,1.0,1.0,1.0,1,"['2', '8', '11', '14', '17', '36', '38', '49', '53', '71', '84', '85', '89', '106', '111', '113', '130', '141', '166', '172', '174', '178', '180', '182', '192', '209', '212', '226', '228', '229', '230', '249', '272', '273', '284', '285', '298', '306', '322', '332', '345', '347', '354', '382', '394', '405', '406', '408', '409', '416', '420', '430', '431', '438', '455', '460', '485', '488', '509', '547', '548', '550', '553', '576', '584', '597', '630', '666', '674', '677', '685', '693', '700', '709', '712', '749', '750', '765', '776', '777', '782', '786', '813', '816', '824', '825', '843', '861', '864', '866', '870', '878', '888', '910', '925', '926', '949', '950', '1008', '1018', '1019', '1026', '1030', '1035', '1037', '1060', '1070', '1101', '1106', '1136', '1137', '1148', '1158', '1160', '1174', '1177', '1179', '1186', '1188', '1197', '1209', '1210', '1223', '1239', '1242', '1245', '1248', '1252', '1256', '1263', '1290', '1309', '1381', '1386', '1400', '1409', '1410', '1434', '1436', '1441', '1445', '1452', '1453', '1474', '1485', '1487', '1492', '1508', '1510', '1527', '1528', '1529', '1566', '1567', '1583', '1586', '1587', '1593', '1599', '1606', '1618', '1625', '1638', '1654', '1658', '1669', '1732', '1733', '1743', '1745', '1746', '1770', '1775', '1777', '1780', '1786', '1801', '1806', '1816', '1818', '1822', '1828', '1834', '1835', '1840', '1856', '1857', '1867', '1880', '1883', '1887', '1893', '1918', '1925', '1938', '1940', '1948', '1949', '1963', '1975']",False,2000,True,2,010112ab9e,0.0,1.0,1.0
./expes/v2_2021-03-23_issda-30_2000-prng-1-w2-p2,30_issda-2000,2000,first-2000,400,20,rng,num-start-400,400,25726,classic,2069.9646809101105,False,,False,0,,,0,"['2', '8', '11', '14', '17', '18', '25', '27', '31', '36', '38', '49', '53', '54', '59', '60', '61', '62', '70', '71', '74', '84', '85', '89', '97', '100', '104', '106', '108', '109', '111', '113', '124', '125', '130', '132', '133', '135', '136', '137', '141', '142', '153', '155', '166', '167', '170', '171', '172', '173', '174', '178', '180', '182', '192', '197', '204', '205', '209', '212', '213', '218', '223', '226', '227', '228', '229', '230', '242', '246', '247', '249', '263', '266', '272', '273', '282', '283', '284', '285', '289', '292', '298', '304', '305', '306', '322', '332', '333', '337', '345', '347', '351', '354', '355', '361', '372', '382', '388', '394', '405', '406', '408', '409', '411', '416', '420', '428', '430', '431', '438', '453', '455', '456', '460', '473', '474', '484', '485', '488', '498', '499', '509', '531', '538', '539', '547', '548', '550', '553', '562', '567', '569', '576', '584', '595', '597', '603', '607', '616', '630', '633', '659', '666', '674', '677', '684', '685', '693', '700', '709', '712', '715', '727', '749', '750', '757', '761', '763', '764', '765', '776', '777', '782', '785', '786', '791', '796', '797', '813', '816', '822', '824', '825', '833', '840', '843', '861', '864', '866', '870', '871', '878', '888', '893', '910', '920', '923', '925', '926', '929', '936', '940', '949', '950', '958', '964', '971', '973', '980', '985', '988', '1004', '1007', '1008', '1013', '1016', '1018', '1019', '1026', '1030', '1035', '1037', '1045', '1060', '1070', '1073', '1080', '1084', '1097', '1101', '1106', '1111', '1115', '1118', '1121', '1124', '1136', '1137', '1139', '1146', '1148', '1151', '1158', '1160', '1174', '1176', '1177', '1179', '1186', '1188', '1190', '1197', '1199', '1205', '1206', '1209', '1210', '1212', '1215', '1223', '1224', '1235', '1239', '1242', '1243', '1245', '1246', '1247', '1248', '1252', '1253', '1256', '1263', '1275', '1280', '1284', '1290', '1300', '1305', '1309', '1315', '1317', '1322', '1327', '1334', '1359', '1368', '1375', '1381', '1386', '1389', '1391', '1400', '1409', '1410', '1419', '1426', '1433', '1434', '1436', '1441', '1442', '1445', '1452', '1453', '1466', '1474', '1476', '1485', '1487', '1490', '1492', '1495', '1508', '1510', '1511', '1518', '1527', '1528', '1529', '1531', '1542', '1558', '1566', '1567', '1581', '1583', '1586', '1587', '1589', '1593', '1598', '1599', '1604', '1606', '1611', '1618', '1625', '1628', '1631', '1636', '1638', '1645', '1654', '1658', '1659', '1669', '1681', '1686', '1706', '1728', '1732', '1733', '1743', '1745', '1746', '1760', '1762', '1770', '1775', '1777', '1780', '1786', '1791', '1794', '1797', '1800', '1801', '1803', '1806', '1816', '1817', '1818', '1821', '1822', '1828', '1829', '1834', '1835', '1840', '1856', '1857', '1863', '1867', '1880', '1883', '1887', '1891', '1893', '1918', '1922', '1925', '1928', '1938', '1939', '1940', '1948', '1949', '1954', '1957', '1958', '1963', '1970', '1972', '1975', '1980', '1984', '1998', '2000']",True,2000,True,2,eda803d90c,0.0,0.0,0.0
./expes/v2_2021-03-23_issda-30_2000-prng-1-w2-p2,30_issda-2000,2000,first-2000,400,20,rng,num-start-1800,1800,25726,classic,1045.6054918766022,True,,True,1.0,1.0,1.0,1,"['7', '10', '14', '25', '28', '35', '41', '46', '47', '53', '63', '68', '69', '70', '77', '90', '93', '101', '105', '119', '125', '129', '130', '132', '141', '144', '147', '164', '165', '168', '171', '173', '175', '177', '179', '184', '186', '190', '192', '195', '196', '199', '200', '217', '219', '221', '222', '223', '224', '229', '233', '239', '240', '248', '250', '259', '277', '281', '285', '288', '292', '304', '305', '308', '315', '317', '325', '330', '335', '341', '349', '350', '353', '359', '365', '389', '392', '394', '396', '398', '401', '402', '405', '411', '414', '421', '426', '429', '431', '433', '451', '459', '462', '465', '470', '475', '480', '481', '500', '501', '504', '507', '508', '512', '522', '530', '542', '547', '551', '555', '562', '568', '579', '583', '586', '592', '594', '595', '598', '606', '608', '612', '614', '615', '619', '633', '639', '643', '658', '664', '667', '692', '694', '698', '701', '703', '705', '720', '729', '731', '732', '733', '738', '739', '741', '742', '746', '750', '754', '757', '758', '759', '769', '772', '773', '776', '777', '780', '781', '786', '787', '792', '795', '800', '807', '812', '814', '821', '825', '826', '834', '835', '840', '844', '854', '856', '860', '868', '873', '876', '883', '886', '893', '901', '905', '912', '914', '928', '929', '933', '935', '938', '941', '942', '948', '966', '970', '972', '994', '999', '1000', '1001', '1004', '1014', '1018', '1019', '1020', '1021', '1022', '1028', '1030', '1032', '1033', '1034', '1035', '1038', '1039', '1040', '1045', '1054', '1058', '1059', '1065', '1066', '1067', '1073', '1076', '1077', '1080', '1082', '1083', '1084', '1090', '1106', '1117', '1121', '1142', '1155', '1156', '1160', '1161', '1166', '1174', '1175', '1186', '1188', '1190', '1191', '1197', '1199', '1206', '1222', '1230', '1231', '1232', '1238', '1239', '1240', '1243', '1244', '1250', '1253', '1256', '1265', '1271', '1278', '1280', '1281', '1295', '1296', '1315', '1319', '1323', '1326', '1327', '1331', '1335', '1341', '1342', '1346', '1347', '1349', '1354', '1358', '1359', '1371', '1379', '1385', '1402', '1403', '1414', '1415', '1416', '1436', '1437', '1438', '1444', '1445', '1451', '1466', '1469', '1474', '1477', '1486', '1487', '1492', '1493', '1502', '1518', '1523', '1524', '1525', '1531', '1534', '1548', '1555', '1556', '1566', '1570', '1598', '1600', '1605', '1611', '1619', '1625', '1632', '1648', '1653', '1655', '1656', '1661', '1662', '1666', '1668', '1673', '1678', '1682', '1685', '1690', '1691', '1699', '1700', '1701', '1703', '1709', '1712', '1713', '1717', '1726', '1728', '1733', '1735', '1742', '1746', '1752', '1755', '1762', '1775', '1780', '1793', '1799', '1805', '1809', '1820', '1826', '1834', '1838', '1847', '1848', '1850', '1851', '1854', '1855', '1857', '1858', '1860', '1862', '1864', '1867', '1870', '1882', '1883', '1886', '1896', '1900', '1902', '1910', '1918', '1929', '1938', '1946', '1961', '1964', '1971', '1977', '1978', '1983', '1987', '1993', '1997']",False,2000,True,2,ac0373d6e8,0.0,1.0,1.0
./expes/v2_2021-03-23_issda-30_2000-prng-1-w2-p2,30_issda-2000,2000,first-2000,700,35,rng,num-start-2200,2200,25726,classic,1668.4143114089966,True,,True,1.0,1.0,1.0,1,"['12', '13', '14', '18', '19', '23', '27', '30', '34', '36', '38', '42', '43', '45', '47', '55', '59', '60', '64', '73', '74', '76', '84', '87', '93', '94', '98', '102', '106', '113', '115', '117', '120', '125', '129', '130', '133', '136', '137', '141', '142', '144', '147', '156', '157', '159', '161', '162', '164', '168', '171', '172', '178', '179', '181', '182', '184', '185', '190', '192', '208', '218', '220', '221', '223', '227', '229', '235', '236', '239', '242', '244', '250', '252', '256', '258', '259', '263', '265', '267', '270', '272', '273', '277', '280', '281', '285', '287', '294', '297', '298', '300', '301', '303', '308', '309', '310', '312', '314', '321', '329', '331', '333', '334', '335', '337', '342', '344', '347', '350', '353', '358', '361', '362', '366', '372', '374', '375', '377', '378', '385', '386', '387', '389', '390', '392', '396', '402', '406', '409', '411', '413', '414', '415', '418', '419', '423', '424', '428', '429', '430', '433', '436', '438', '440', '442', '443', '449', '450', '452', '456', '459', '461', '462', '472', '473', '478', '479', '481', '484', '487', '491', '495', '497', '505', '507', '511', '512', '516', '520', '525', '528', '529', '530', '531', '532', '533', '535', '538', '540', '542', '543', '547', '550', '553', '554', '555', '556', '558', '560', '561', '562', '564', '565', '575', '577', '579', '582', '583', '588', '592', '593', '599', '603', '606', '609', '612', '613', '615', '618', '619', '621', '623', '629', '632', '633', '641', '644', '646', '647', '651', '655', '659', '660', '661', '664', '665', '671', '672', '673', '675', '681', '683', '685', '686', '688', '690', '693', '694', '696', '698', '702', '706', '707', '709', '712', '716', '718', '722', '726', '730', '731', '733', '736', '738', '739', '740', '745', '748', '749', '750', '754', '755', '764', '766', '767', '775', '778', '780', '786', '790', '793', '798', '799', '802', '806', '808', '813', '814', '820', '824', '826', '828', '829', '831', '832', '833', '834', '836', '837', '838', '839', '844', '848', '849', '850', '851', '853', '855', '856', '860', '865', '866', '867', '868', '870', '874', '876', '878', '882', '883', '888', '889', '890', '895', '897', '911', '913', '915', '920', '930', '931', '932', '933', '936', '939', '940', '942', '950', '953', '955', '958', '959', '962', '963', '967', '973', '978', '979', '980', '983', '984', '985', '994', '997', '1003', '1005', '1006', '1007', '1008', '1010', '1012', '1014', '1016', '1023', '1026', '1038', '1039', '1040', '1043', '1046', '1047', '1049', '1051', '1052', '1054', '1062', '1064', '1066', '1067', '1069', '1070', '1073', '1075', '1078', '1079', '1083', '1085', '1086', '1087', '1091', '1095', '1102', '1104', '1107', '1109', '1111', '1114', '1116', '1117', '1119', '1124', '1127', '1130', '1131', '1133', '1137', '1140', '1143', '1144', '1145', '1149', '1152', '1158', '1159', '1164', '1166', '1170', '1171', '1173', '1174', '1176', '1179', '1183', '1186', '1192', '1194', '1195', '1198', '1203', '1206', '1207', '1216', '1218', '1224', '1225', '1229', '1235', '1242', '1244', '1251', '1252', '1254', '1255', '1258', '1260', '1261', '1264', '1266', '1267', '1275', '1281', '1287', '1289', '1290', '1291', '1292', '1293', '1300', '1304', '1306', '1308', '1309', '1322', '1325', '1326', '1327', '1328', '1336', '1339', '1344', '1345', '1346', '1347', '1353', '1354', '1355', '1359', '1370', '1372', '1375', '1378', '1381', '1383', '1384', '1385', '1386', '1388', '1389', '1391', '1393', '1395', '1396', '1400', '1401', '1402', '1406', '1407', '1408', '1412', '1414', '1415', '1417', '1419', '1422', '1427', '1431', '1432', '1433', '1438', '1440', '1444', '1446', '1447', '1449', '1451', '1452', '1453', '1454', '1458', '1461', '1462', '1464', '1467', '1469', '1471', '1472', '1474', '1480', '1482', '1489', '1490', '1496', '1505', '1506', '1507', '1508', '1513', '1519', '1522', '1525', '1526', '1527', '1529', '1533', '1538', '1544', '1545', '1548', '1549', '1550', '1551', '1552', '1553', '1554', '1556', '1557', '1562', '1573', '1574', '1575', '1578', '1579', '1581', '1584', '1587', '1589', '1593', '1594', '1595', '1598', '1599', '1600', '1605', '1607', '1609', '1613', '1615', '1620', '1622', '1623', '1625', '1626', '1627', '1632', '1639', '1642', '1644', '1652', '1654', '1657', '1660', '1662', '1663', '1664', '1666', '1668', '1669', '1674', '1676', '1688', '1691', '1692', '1693', '1695', '1697', '1700', '1703', '1705', '1706', '1708', '1711', '1712', '1713', '1715', '1719', '1720', '1722', '1724', '1726', '1728', '1729', '1733', '1736', '1738', '1746', '1749', '1750', '1756', '1758', '1760', '1762', '1766', '1769', '1774', '1777', '1780', '1783', '1789', '1790', '1791', '1792', '1795', '1804', '1805', '1807', '1811', '1814', '1817', '1818', '1823', '1825', '1826', '1827', '1829', '1834', '1837', '1841', '1842', '1844', '1847', '1854', '1857', '1858', '1859', '1865', '1867', '1869', '1871', '1880', '1888', '1889', '1891', '1895', '1896', '1899', '1900', '1904', '1905', '1909', '1910', '1912', '1916', '1919', '1931', '1934', '1935', '1936', '1938', '1939', '1941', '1946', '1950', '1951', '1955', '1960', '1961', '1962', '1964', '1968', '1979', '1980', '1981', '1985', '1986', '1987', '1993', '1994', '1998', '1999']",False,2000,True,2,5ea5291598,0.0,1.0,1.0
