expe,clients,clients_size,clients_subset,agg_size,agg_size_pc,method,days,days_size,days_total,noise_method,time,valid,valid_sum,success,score_avg,score_min,score_max,nsols,oracle,wall_hit,wall_time,pooled,pool_size,uuid,infeasible,optimal,valid_sums
./expes/v2_2021-03-23_issda-30_2000-prng-1-w2-p2,30_issda-2000,2000,first-2000,200,10,rng,num-start-3400,3400,25726,classic,1919.5775129795074,True,,True,1.0,1.0,1.0,1,"['19', '24', '32', '35', '36', '39', '64', '75', '85', '89', '98', '113', '115', '116', '122', '127', '132', '135', '151', '152', '161', '162', '168', '174', '190', '205', '237', '239', '240', '288', '292', '302', '311', '324', '325', '337', '353', '368', '401', '423', '428', '458', '469', '474', '475', '476', '482', '490', '491', '523', '524', '533', '540', '558', '575', '587', '589', '606', '620', '626', '636', '638', '639', '642', '646', '652', '683', '689', '693', '706', '712', '725', '728', '729', '738', '753', '771', '778', '789', '793', '799', '804', '810', '823', '830', '860', '862', '883', '889', '900', '905', '913', '920', '923', '933', '945', '947', '956', '960', '972', '976', '986', '1003', '1005', '1009', '1014', '1021', '1024', '1025', '1029', '1048', '1068', '1086', '1094', '1114', '1124', '1137', '1157', '1158', '1167', '1183', '1216', '1220', '1251', '1258', '1267', '1283', '1323', '1329', '1386', '1390', '1396', '1415', '1419', '1422', '1423', '1445', '1451', '1473', '1477', '1486', '1489', '1508', '1518', '1544', '1547', '1551', '1592', '1593', '1602', '1608', '1631', '1634', '1637', '1640', '1649', '1659', '1683', '1686', '1690', '1711', '1716', '1718', '1721', '1722', '1728', '1729', '1753', '1756', '1757', '1769', '1781', '1783', '1787', '1792', '1802', '1817', '1827', '1829', '1830', '1831', '1854', '1859', '1870', '1888', '1890', '1895', '1901', '1906', '1915', '1916', '1922', '1935', '1936', '1942', '1965', '1967', '1977', '1982', '2000']",False,2000,True,2,a7da475c45,0.0,1.0,1.0
./expes/v2_2021-03-23_issda-30_2000-prng-1-w2-p2,30_issda-2000,2000,first-2000,900,45,rng,num-start-1400,1400,25726,classic,2187.5937271118164,True,,False,1.0,1.0,1.0,1,"['1', '3', '4', '6', '7', '10', '11', '13', '20', '21', '22', '24', '25', '26', '27', '29', '31', '35', '38', '40', '42', '45', '49', '54', '56', '58', '59', '61', '62', '63', '64', '66', '67', '68', '70', '71', '73', '76', '78', '82', '85', '93', '94', '103', '104', '105', '106', '107', '111', '112', '116', '117', '118', '120', '121', '122', '123', '125', '126', '128', '130', '131', '133', '137', '140', '142', '143', '145', '147', '152', '153', '154', '156', '157', '159', '160', '161', '166', '170', '172', '176', '178', '180', '181', '183', '184', '185', '186', '190', '191', '192', '193', '194', '197', '200', '203', '206', '208', '209', '213', '214', '215', '216', '220', '223', '225', '227', '229', '230', '232', '233', '234', '235', '236', '240', '244', '245', '246', '248', '252', '253', '256', '258', '260', '261', '262', '263', '270', '272', '273', '276', '277', '278', '280', '281', '283', '286', '291', '292', '296', '297', '299', '302', '303', '306', '308', '309', '310', '312', '315', '316', '317', '318', '323', '324', '325', '329', '330', '333', '334', '335', '337', '346', '347', '349', '352', '353', '355', '359', '360', '361', '362', '364', '365', '368', '369', '373', '374', '376', '377', '379', '380', '381', '385', '386', '387', '391', '394', '395', '396', '397', '398', '402', '403', '404', '406', '407', '408', '412', '414', '418', '429', '430', '436', '439', '442', '443', '446', '449', '450', '453', '454', '457', '458', '461', '462', '463', '464', '472', '475', '476', '477', '479', '489', '493', '498', '499', '500', '501', '502', '503', '512', '513', '515', '516', '517', '519', '522', '523', '524', '525', '527', '536', '539', '540', '541', '542', '544', '545', '549', '552', '554', '557', '559', '560', '562', '563', '565', '567', '569', '570', '574', '577', '580', '586', '588', '593', '594', '596', '597', '598', '602', '603', '604', '613', '616', '620', '622', '623', '624', '625', '627', '634', '636', '640', '646', '649', '652', '655', '656', '657', '662', '663', '667', '671', '672', '674', '675', '678', '681', '682', '688', '689', '692', '693', '698', '704', '705', '709', '711', '717', '718', '719', '720', '721', '732', '736', '738', '739', '740', '741', '742', '743', '744', '745', '746', '747', '751', '752', '753', '759', '760', '761', '763', '765', '767', '768', '771', '772', '773', '774', '778', '779', '780', '781', '787', '788', '792', '796', '798', '799', '802', '806', '813', '815', '816', '817', '818', '819', '827', '829', '832', '834', '835', '838', '840', '841', '843', '844', '848', '849', '856', '859', '860', '864', '865', '867', '870', '872', '873', '874', '878', '879', '881', '882', '883', '887', '889', '893', '894', '897', '899', '900', '901', '903', '904', '909', '910', '912', '913', '914', '916', '919', '921', '925', '926', '928', '930', '933', '934', '938', '939', '944', '948', '950', '951', '954', '957', '960', '961', '964', '965', '968', '969', '971', '973', '974', '975', '978', '979', '980', '981', '982', '983', '984', '986', '989', '991', '994', '995', '996', '997', '999', '1000', '1001', '1002', '1007', '1008', '1013', '1015', '1018', '1019', '1022', '1024', '1025', '1026', '1029', '1030', '1032', '1033', '1035', '1038', '1039', '1040', '1052', '1055', '1056', '1059', '1060', '1065', '1066', '1068', '1069', '1070', '1075', '1076', '1077', '1078', '1080', '1081', '1088', '1089', '1090', '1093', '1097', '1099', '1100', '1102', '1103', '1105', '1107', '1109', '1110', '1112', '1113', '1114', '1116', '1117', '1118', '1121', '1129', '1130', '1134', '1139', '1141', '1143', '1144', '1145', '1147', '1149', '1154', '1155', '1156', '1158', '1165', '1166', '1167', '1169', '1172', '1173', '1174', '1175', '1176', '1180', '1182', '1187', '1196', '1198', '1202', '1204', '1205', '1206', '1207', '1208', '1210', '1212', '1213', '1214', '1215', '1217', '1218', '1219', '1220', '1221', '1224', '1228', '1233', '1234', '1236', '1239', '1243', '1244', '1246', '1247', '1248', '1250', '1253', '1254', '1255', '1257', '1258', '1259', '1262', '1263', '1266', '1267', '1268', '1269', '1271', '1274', '1275', '1278', '1281', '1282', '1283', '1284', '1287', '1288', '1289', '1292', '1293', '1298', '1300', '1301', '1306', '1307', '1308', '1310', '1311', '1312', '1313', '1315', '1317', '1319', '1320', '1321', '1322', '1323', '1324', '1327', '1328', '1331', '1333', '1334', '1335', '1340', '1341', '1343', '1344', '1345', '1351', '1355', '1356', '1357', '1358', '1359', '1360', '1361', '1362', '1366', '1367', '1369', '1371', '1373', '1375', '1380', '1385', '1387', '1390', '1391', '1394', '1395', '1397', '1401', '1405', '1406', '1409', '1411', '1414', '1415', '1416', '1418', '1421', '1422', '1423', '1425', '1430', '1433', '1436', '1437', '1438', '1439', '1442', '1444', '1446', '1449', '1451', '1457', '1459', '1460', '1462', '1463', '1465', '1468', '1470', '1472', '1473', '1474', '1478', '1480', '1483', '1484', '1488', '1489', '1490', '1491', '1492', '1493', '1494', '1495', '1499', '1500', '1503', '1504', '1505', '1506', '1510', '1511', '1514', '1516', '1518', '1522', '1524', '1526', '1527', '1529', '1530', '1534', '1537', '1539', '1542', '1543', '1547', '1548', '1551', '1553', '1555', '1556', '1557', '1561', '1562', '1563', '1564', '1565', '1567', '1568', '1571', '1572', '1574', '1576', '1577', '1578', '1585', '1588', '1591', '1592', '1594', '1595', '1596', '1598', '1603', '1606', '1611', '1613', '1620', '1621', '1625', '1626', '1628', '1629', '1631', '1632', '1634', '1639', '1640', '1642', '1643', '1646', '1647', '1649', '1650', '1651', '1652', '1656', '1658', '1662', '1663', '1667', '1670', '1671', '1672', '1673', '1675', '1676', '1677', '1680', '1684', '1692', '1696', '1697', '1699', '1701', '1703', '1705', '1706', '1709', '1712', '1715', '1717', '1718', '1722', '1724', '1725', '1729', '1730', '1731', '1741', '1747', '1748', '1751', '1752', '1758', '1760', '1761', '1765', '1770', '1773', '1777', '1781', '1782', '1783', '1785', '1787', '1793', '1795', '1800', '1801', '1803', '1807', '1808', '1809', '1810', '1811', '1813', '1819', '1821', '1822', '1823', '1824', '1825', '1828', '1829', '1830', '1831', '1836', '1841', '1842', '1843', '1846', '1849', '1850', '1853', '1854', '1860', '1862', '1863', '1865', '1867', '1868', '1870', '1871', '1877', '1878', '1881', '1883', '1884', '1887', '1889', '1891', '1893', '1894', '1898', '1899', '1900', '1902', '1903', '1911', '1913', '1914', '1919', '1921', '1922', '1925', '1927', '1931', '1933', '1936', '1937', '1941', '1942', '1943', '1946', '1948', '1949', '1950', '1954', '1963', '1969', '1971', '1972', '1975', '1976', '1977', '1978', '1979', '1981', '1982', '1984', '1985', '1986', '1987', '1988', '1989', '1990', '1992', '1994', '1995', '1997', '1998', '2000']",True,2000,True,2,93f7e2c0cb,0.0,0.0,1.0
./expes/v2_2021-03-23_issda-30_2000-prng-1-w2-p2,30_issda-2000,2000,first-2000,100,5,rng,num-start-3800,3800,25726,classic,1436.4317800998688,True,,True,1.0,1.0,1.0,1,"['1', '45', '59', '76', '94', '166', '181', '184', '191', '193', '200', '240', '245', '299', '396', '397', '404', '406', '408', '412', '502', '513', '536', '544', '559', '597', '624', '655', '688', '732', '739', '741', '742', '765', '840', '848', '870', '881', '912', '964', '994', '997', '1002', '1025', '1032', '1055', '1076', '1103', '1105', '1134', '1154', '1176', '1180', '1202', '1206', '1207', '1233', '1250', '1298', '1301', '1321', '1343', '1358', '1390', '1397', '1405', '1430', '1433', '1436', '1493', '1495', '1505', '1548', '1556', '1562', '1578', '1625', '1632', '1639', '1643', '1646', '1649', '1650', '1684', '1696', '1706', '1730', '1787', '1803', '1828', '1849', '1863', '1865', '1870', '1877', '1911', '1949', '1978', '1987', '2000']",False,2000,True,2,acf208d38d,0.0,1.0,1.0
./expes/v2_2021-03-23_issda-30_2000-prng-1-w2-p2,30_issda-2000,2000,first-2000,500,25,rng,num-start-1400,1400,25726,classic,1414.2959923744202,True,,True,1.0,1.0,1.0,1,"['12', '13', '14', '18', '23', '27', '30', '36', '38', '43', '47', '60', '73', '76', '94', '113', '115', '120', '125', '130', '133', '136', '137', '141', '147', '156', '157', '162', '171', '172', '179', '181', '182', '184', '185', '190', '192', '208', '218', '220', '236', '239', '242', '252', '258', '259', '265', '267', '270', '273', '280', '281', '287', '294', '297', '298', '300', '303', '308', '309', '310', '312', '314', '329', '331', '333', '334', '335', '342', '344', '347', '350', '353', '358', '361', '362', '366', '372', '374', '375', '386', '387', '389', '390', '402', '406', '409', '411', '413', '414', '415', '418', '424', '428', '430', '433', '436', '438', '440', '442', '443', '449', '452', '461', '472', '473', '479', '481', '484', '487', '491', '495', '497', '505', '511', '512', '520', '525', '528', '530', '531', '532', '533', '538', '540', '542', '543', '547', '550', '553', '555', '558', '560', '561', '562', '564', '565', '575', '577', '582', '583', '588', '592', '599', '606', '609', '612', '613', '615', '618', '621', '623', '632', '644', '646', '659', '660', '661', '664', '665', '671', '673', '675', '681', '685', '686', '688', '694', '696', '698', '702', '707', '709', '712', '716', '718', '722', '730', '733', '738', '739', '745', '748', '749', '754', '755', '764', '766', '767', '775', '780', '790', '802', '806', '813', '814', '820', '824', '826', '828', '829', '831', '832', '834', '836', '839', '844', '850', '851', '853', '855', '856', '865', '868', '870', '874', '883', '888', '889', '890', '895', '897', '911', '915', '920', '930', '931', '933', '939', '940', '942', '953', '955', '958', '962', '967', '973', '978', '979', '980', '983', '984', '997', '1003', '1006', '1007', '1010', '1012', '1016', '1023', '1026', '1038', '1039', '1040', '1043', '1049', '1051', '1052', '1054', '1064', '1066', '1069', '1070', '1073', '1078', '1079', '1085', '1086', '1091', '1095', '1102', '1104', '1107', '1109', '1114', '1116', '1117', '1124', '1130', '1131', '1133', '1140', '1143', '1144', '1145', '1149', '1158', '1164', '1166', '1171', '1173', '1174', '1176', '1179', '1183', '1186', '1194', '1198', '1203', '1206', '1207', '1216', '1229', '1235', '1242', '1244', '1251', '1252', '1254', '1255', '1258', '1260', '1261', '1267', '1281', '1287', '1289', '1290', '1293', '1304', '1308', '1309', '1322', '1325', '1326', '1327', '1328', '1336', '1344', '1346', '1347', '1354', '1355', '1372', '1378', '1381', '1383', '1385', '1386', '1388', '1393', '1396', '1401', '1402', '1406', '1408', '1412', '1414', '1417', '1419', '1422', '1431', '1432', '1438', '1444', '1446', '1449', '1451', '1452', '1453', '1454', '1461', '1462', '1467', '1469', '1474', '1480', '1489', '1490', '1496', '1505', '1506', '1507', '1508', '1513', '1519', '1522', '1526', '1529', '1533', '1538', '1549', '1550', '1552', '1553', '1554', '1556', '1557', '1562', '1574', '1575', '1578', '1579', '1581', '1584', '1587', '1589', '1593', '1594', '1595', '1598', '1605', '1607', '1613', '1620', '1622', '1623', '1625', '1626', '1627', '1632', '1639', '1644', '1652', '1654', '1657', '1660', '1662', '1663', '1666', '1668', '1674', '1676', '1688', '1691', '1692', '1695', '1697', '1700', '1705', '1706', '1708', '1711', '1712', '1713', '1719', '1720', '1726', '1728', '1729', '1733', '1736', '1746', '1749', '1758', '1760', '1762', '1766', '1769', '1774', '1777', '1780', '1783', '1789', '1791', '1792', '1795', '1811', '1814', '1817', '1818', '1825', '1826', '1827', '1834', '1841', '1842', '1854', '1858', '1865', '1869', '1871', '1880', '1891', '1895', '1896', '1899', '1900', '1904', '1905', '1910', '1916', '1919', '1931', '1934', '1935', '1936', '1938', '1946', '1950', '1951', '1961', '1962', '1980', '1981', '1985', '1987', '1993', '1994', '1999']",False,2000,True,2,4ffaaa60c5,0.0,1.0,1.0
./expes/v2_2021-03-23_issda-30_2000-prng-1-w2-p2,30_issda-2000,2000,first-2000,1000,50,rng,num-start-4000,4000,25726,classic,2528.7023665905,True,,False,1.0,1.0,1.0,1,"['2', '3', '4', '5', '7', '8', '9', '11', '12', '14', '17', '20', '22', '24', '27', '28', '30', '32', '33', '35', '36', '37', '40', '42', '43', '45', '46', '48', '54', '56', '57', '58', '60', '62', '63', '66', '69', '71', '73', '74', '76', '78', '79', '80', '84', '86', '88', '89', '90', '92', '94', '95', '96', '97', '101', '103', '105', '107', '108', '110', '111', '112', '114', '115', '116', '117', '123', '125', '126', '133', '135', '136', '137', '138', '139', '140', '141', '142', '145', '146', '151', '153', '155', '159', '160', '162', '163', '164', '165', '166', '167', '169', '174', '177', '178', '181', '183', '184', '187', '188', '190', '191', '193', '194', '198', '199', '205', '206', '208', '211', '212', '214', '216', '219', '220', '221', '225', '229', '230', '232', '233', '237', '239', '240', '241', '243', '245', '249', '251', '253', '254', '256', '257', '258', '259', '260', '262', '263', '264', '265', '267', '268', '269', '271', '273', '274', '277', '281', '284', '286', '287', '288', '291', '293', '294', '298', '299', '300', '301', '302', '303', '304', '305', '306', '307', '309', '310', '315', '316', '317', '318', '319', '321', '322', '326', '328', '329', '330', '337', '340', '341', '342', '343', '346', '347', '348', '357', '360', '361', '362', '363', '364', '365', '366', '367', '368', '374', '380', '381', '384', '386', '389', '390', '391', '392', '394', '396', '397', '398', '399', '400', '405', '414', '415', '416', '417', '418', '420', '421', '422', '423', '425', '426', '427', '429', '431', '434', '435', '438', '439', '441', '442', '446', '448', '450', '451', '452', '455', '457', '461', '462', '463', '464', '465', '466', '473', '474', '478', '480', '482', '483', '487', '488', '489', '491', '493', '494', '495', '497', '500', '501', '502', '503', '504', '505', '507', '508', '509', '510', '513', '515', '519', '520', '522', '524', '526', '527', '528', '530', '531', '535', '536', '537', '538', '539', '541', '549', '551', '556', '559', '565', '566', '568', '574', '575', '577', '580', '581', '585', '588', '589', '593', '595', '596', '598', '599', '601', '604', '605', '606', '607', '608', '610', '611', '613', '614', '615', '617', '618', '619', '622', '625', '626', '627', '628', '630', '631', '632', '633', '637', '642', '643', '644', '645', '648', '650', '654', '655', '661', '662', '665', '671', '673', '674', '677', '680', '681', '682', '684', '686', '693', '696', '697', '699', '700', '703', '707', '709', '710', '712', '713', '715', '717', '719', '722', '724', '729', '730', '731', '736', '740', '742', '745', '746', '747', '748', '751', '755', '756', '758', '760', '761', '762', '764', '768', '769', '770', '771', '772', '778', '781', '782', '786', '787', '792', '793', '794', '795', '796', '798', '799', '801', '806', '807', '811', '813', '815', '816', '817', '818', '819', '820', '822', '824', '826', '831', '833', '836', '839', '841', '844', '847', '848', '849', '850', '853', '854', '855', '856', '861', '864', '865', '866', '867', '868', '869', '870', '871', '872', '874', '875', '876', '877', '878', '879', '880', '881', '882', '884', '886', '890', '891', '894', '895', '896', '901', '902', '903', '905', '906', '907', '909', '911', '912', '915', '917', '918', '919', '921', '922', '924', '925', '927', '929', '937', '940', '941', '944', '945', '947', '949', '950', '951', '954', '956', '957', '958', '963', '965', '966', '968', '970', '972', '975', '976', '979', '980', '981', '983', '984', '985', '987', '988', '992', '996', '997', '998', '1002', '1003', '1004', '1006', '1008', '1009', '1010', '1012', '1016', '1017', '1018', '1020', '1022', '1023', '1026', '1027', '1032', '1033', '1034', '1041', '1042', '1045', '1048', '1050', '1052', '1055', '1058', '1059', '1063', '1064', '1065', '1066', '1067', '1068', '1070', '1071', '1072', '1074', '1075', '1078', '1079', '1080', '1082', '1087', '1088', '1089', '1090', '1091', '1092', '1093', '1094', '1096', '1098', '1099', '1100', '1102', '1113', '1117', '1118', '1119', '1120', '1121', '1126', '1127', '1130', '1133', '1135', '1136', '1137', '1138', '1140', '1143', '1144', '1147', '1148', '1150', '1154', '1156', '1158', '1159', '1163', '1167', '1168', '1170', '1171', '1172', '1174', '1175', '1176', '1179', '1183', '1184', '1185', '1186', '1187', '1188', '1189', '1190', '1195', '1199', '1202', '1205', '1207', '1210', '1211', '1213', '1214', '1217', '1218', '1219', '1220', '1222', '1224', '1227', '1228', '1229', '1230', '1233', '1234', '1236', '1237', '1241', '1246', '1247', '1250', '1252', '1254', '1257', '1262', '1264', '1265', '1267', '1268', '1269', '1271', '1272', '1275', '1280', '1281', '1285', '1287', '1288', '1289', '1291', '1292', '1293', '1294', '1295', '1298', '1304', '1308', '1309', '1310', '1313', '1314', '1315', '1318', '1322', '1329', '1330', '1331', '1332', '1334', '1336', '1338', '1339', '1340', '1342', '1343', '1344', '1346', '1351', '1357', '1361', '1365', '1366', '1367', '1370', '1372', '1374', '1375', '1377', '1379', '1381', '1384', '1387', '1388', '1389', '1395', '1396', '1400', '1401', '1402', '1404', '1408', '1409', '1413', '1415', '1416', '1418', '1419', '1424', '1425', '1427', '1428', '1429', '1430', '1432', '1435', '1436', '1437', '1438', '1439', '1442', '1443', '1445', '1447', '1452', '1454', '1456', '1457', '1460', '1461', '1463', '1464', '1465', '1466', '1467', '1468', '1469', '1472', '1473', '1474', '1475', '1476', '1477', '1479', '1480', '1481', '1482', '1483', '1485', '1488', '1489', '1491', '1493', '1497', '1498', '1499', '1500', '1502', '1504', '1506', '1508', '1510', '1512', '1513', '1515', '1516', '1517', '1520', '1521', '1523', '1525', '1526', '1527', '1528', '1529', '1530', '1533', '1536', '1537', '1538', '1539', '1540', '1542', '1545', '1547', '1548', '1553', '1557', '1561', '1564', '1565', '1566', '1567', '1569', '1570', '1572', '1576', '1577', '1578', '1579', '1580', '1583', '1585', '1587', '1588', '1589', '1592', '1594', '1595', '1596', '1599', '1601', '1602', '1604', '1605', '1607', '1608', '1611', '1613', '1618', '1622', '1626', '1627', '1633', '1634', '1635', '1636', '1638', '1641', '1642', '1643', '1645', '1646', '1648', '1649', '1651', '1653', '1654', '1656', '1657', '1659', '1664', '1665', '1668', '1669', '1670', '1671', '1674', '1675', '1677', '1679', '1680', '1682', '1683', '1687', '1688', '1689', '1691', '1693', '1696', '1698', '1700', '1702', '1703', '1707', '1709', '1710', '1713', '1716', '1717', '1719', '1720', '1721', '1723', '1724', '1732', '1733', '1738', '1739', '1740', '1741', '1745', '1746', '1748', '1749', '1753', '1757', '1760', '1765', '1766', '1769', '1771', '1773', '1775', '1776', '1777', '1778', '1779', '1781', '1783', '1785', '1790', '1792', '1795', '1797', '1800', '1801', '1808', '1809', '1810', '1813', '1815', '1816', '1817', '1818', '1820', '1822', '1823', '1825', '1827', '1828', '1829', '1830', '1831', '1832', '1833', '1834', '1839', '1840', '1842', '1845', '1847', '1848', '1850', '1851', '1855', '1857', '1858', '1861', '1863', '1865', '1866', '1867', '1868', '1869', '1870', '1873', '1874', '1876', '1877', '1881', '1885', '1886', '1887', '1897', '1899', '1901', '1909', '1911', '1912', '1916', '1917', '1920', '1921', '1922', '1931', '1932', '1935', '1938', '1941', '1945', '1946', '1947', '1949', '1951', '1954', '1956', '1958', '1960', '1962', '1963', '1964', '1965', '1968', '1969', '1970', '1972', '1974', '1975', '1977', '1982', '1983', '1985', '1987', '1988', '1989', '1990', '1991', '1993', '1996']",True,2000,True,2,de31cc49bf,0.0,0.0,1.0
