expe,clients,clients_size,clients_subset,agg_size,agg_size_pc,method,days,days_size,days_total,noise_method,time,valid,valid_sum,success,score_avg,score_min,score_max,nsols,oracle,wall_hit,wall_time,pooled,pool_size,uuid,infeasible,optimal,valid_sums
./expes/v2_2021-03-23_issda-30_2000-prng-1-w2-p2,30_issda-2000,2000,first-2000,100,5,rng,num-start-4000,4000,25726,classic,1282.4065477848053,True,,True,1.0,1.0,1.0,1,"['9', '31', '66', '67', '71', '76', '91', '92', '134', '148', '156', '166', '273', '275', '285', '307', '321', '329', '358', '400', '423', '460', '483', '489', '491', '492', '512', '538', '569', '581', '617', '621', '644', '665', '672', '728', '740', '743', '750', '767', '769', '782', '788', '846', '861', '863', '879', '893', '901', '923', '936', '948', '963', '989', '1004', '1007', '1018', '1028', '1067', '1093', '1099', '1125', '1162', '1171', '1184', '1194', '1198', '1232', '1236', '1243', '1257', '1338', '1339', '1348', '1356', '1366', '1383', '1405', '1527', '1573', '1582', '1661', '1666', '1676', '1687', '1694', '1725', '1729', '1752', '1762', '1840', '1863', '1870', '1893', '1928', '1937', '1951', '1952', '1986', '1987']",False,2000,True,2,eede2c1c32,0.0,1.0,1.0
./expes/v2_2021-03-23_issda-30_2000-prng-1-w2-p2,30_issda-2000,2000,first-2000,700,35,rng,num-start-2800,2800,25726,classic,2087.159546136856,True,,True,1.0,1.0,1.0,1,"['7', '11', '15', '16', '17', '20', '22', '24', '25', '32', '35', '37', '38', '40', '43', '54', '56', '57', '59', '62', '63', '64', '69', '70', '73', '74', '80', '84', '90', '97', '101', '102', '103', '104', '106', '107', '110', '111', '114', '116', '118', '120', '123', '124', '128', '132', '135', '142', '145', '146', '147', '150', '151', '154', '158', '159', '162', '163', '166', '168', '171', '175', '178', '180', '182', '191', '192', '193', '197', '201', '202', '203', '204', '213', '214', '217', '218', '221', '222', '225', '226', '227', '232', '233', '236', '240', '241', '251', '252', '253', '255', '256', '257', '261', '263', '264', '265', '266', '269', '281', '282', '284', '287', '288', '291', '293', '294', '295', '301', '305', '307', '309', '310', '311', '316', '322', '331', '333', '335', '337', '346', '347', '349', '350', '353', '356', '358', '367', '376', '377', '386', '387', '388', '392', '394', '395', '401', '402', '403', '404', '405', '407', '408', '411', '417', '418', '427', '431', '433', '435', '437', '438', '439', '444', '448', '450', '452', '455', '456', '461', '467', '470', '472', '474', '475', '483', '484', '486', '489', '490', '496', '497', '499', '500', '510', '512', '513', '514', '515', '517', '523', '526', '528', '529', '532', '533', '538', '540', '542', '544', '545', '548', '550', '552', '554', '559', '563', '565', '570', '577', '581', '584', '591', '592', '594', '597', '602', '603', '604', '605', '607', '608', '609', '616', '618', '620', '621', '622', '625', '630', '631', '632', '633', '634', '635', '636', '638', '639', '642', '645', '647', '648', '650', '651', '652', '654', '659', '660', '663', '667', '669', '670', '674', '675', '678', '679', '681', '685', '686', '687', '689', '691', '695', '696', '712', '713', '714', '720', '721', '727', '728', '729', '731', '737', '743', '746', '749', '752', '754', '757', '762', '763', '768', '769', '775', '776', '778', '781', '783', '786', '787', '791', '796', '802', '803', '805', '807', '820', '823', '826', '827', '828', '829', '830', '831', '833', '834', '836', '837', '840', '848', '849', '850', '854', '859', '860', '862', '866', '867', '875', '877', '882', '887', '889', '893', '894', '896', '897', '904', '905', '907', '908', '912', '913', '915', '920', '921', '928', '933', '941', '945', '948', '950', '957', '958', '959', '965', '967', '970', '971', '973', '975', '978', '981', '984', '987', '989', '990', '992', '994', '996', '997', '998', '1003', '1008', '1010', '1011', '1013', '1016', '1018', '1026', '1027', '1028', '1029', '1033', '1034', '1037', '1039', '1053', '1054', '1056', '1057', '1060', '1061', '1063', '1064', '1070', '1072', '1076', '1077', '1080', '1082', '1089', '1091', '1092', '1095', '1096', '1099', '1100', '1103', '1104', '1105', '1106', '1107', '1111', '1113', '1114', '1116', '1121', '1122', '1126', '1129', '1132', '1134', '1135', '1138', '1139', '1141', '1143', '1145', '1146', '1153', '1154', '1156', '1164', '1166', '1171', '1172', '1178', '1180', '1182', '1184', '1185', '1188', '1191', '1193', '1197', '1201', '1202', '1209', '1212', '1215', '1226', '1229', '1231', '1234', '1237', '1238', '1241', '1245', '1250', '1252', '1253', '1254', '1255', '1256', '1262', '1264', '1271', '1272', '1282', '1283', '1284', '1295', '1297', '1298', '1300', '1302', '1304', '1309', '1312', '1320', '1324', '1325', '1326', '1327', '1330', '1332', '1333', '1340', '1347', '1348', '1349', '1350', '1355', '1359', '1365', '1367', '1383', '1386', '1388', '1390', '1393', '1395', '1398', '1402', '1403', '1404', '1405', '1412', '1416', '1419', '1433', '1442', '1443', '1445', '1446', '1449', '1453', '1455', '1458', '1462', '1465', '1466', '1478', '1484', '1485', '1489', '1493', '1497', '1499', '1505', '1507', '1508', '1510', '1511', '1513', '1514', '1522', '1523', '1525', '1526', '1529', '1531', '1533', '1535', '1537', '1540', '1541', '1543', '1546', '1547', '1552', '1553', '1554', '1556', '1557', '1561', '1563', '1564', '1566', '1567', '1568', '1569', '1572', '1573', '1579', '1581', '1582', '1584', '1585', '1586', '1591', '1594', '1598', '1600', '1602', '1603', '1607', '1611', '1613', '1614', '1618', '1619', '1622', '1626', '1627', '1628', '1630', '1635', '1637', '1640', '1642', '1643', '1644', '1645', '1649', '1653', '1655', '1657', '1658', '1661', '1664', '1665', '1666', '1668', '1669', '1670', '1673', '1676', '1679', '1680', '1682', '1684', '1689', '1693', '1698', '1702', '1703', '1705', '1715', '1719', '1724', '1725', '1734', '1738', '1742', '1744', '1745', '1747', '1749', '1753', '1756', '1757', '1759', '1761', '1769', '1772', '1774', '1776', '1777', '1778', '1780', '1783', '1786', '1789', '1791', '1793', '1794', '1795', '1800', '1805', '1808', '1814', '1819', '1823', '1829', '1830', '1837', '1838', '1840', '1841', '1842', '1844', '1845', '1847', '1848', '1856', '1858', '1859', '1861', '1862', '1864', '1870', '1878', '1880', '1881', '1885', '1888', '1892', '1893', '1897', '1898', '1900', '1903', '1905', '1907', '1911', '1917', '1920', '1923', '1925', '1926', '1927', '1930', '1931', '1936', '1944', '1948', '1949', '1952', '1957', '1958', '1960', '1961', '1962', '1964', '1966', '1968', '1970', '1975', '1976', '1982', '1987', '1990', '1992', '1994', '1996', '1997', '1998']",False,2000,True,2,191b2f1101,0.0,1.0,1.0
./expes/v2_2021-03-23_issda-30_2000-prng-1-w2-p2,30_issda-2000,2000,first-2000,900,45,rng,num-start-3600,3600,25726,classic,2438.61576294899,True,,False,1.0,1.0,1.0,1,"['1', '3', '4', '6', '7', '10', '11', '13', '20', '21', '22', '24', '25', '26', '27', '29', '31', '35', '38', '40', '42', '45', '49', '54', '56', '58', '59', '61', '62', '63', '64', '66', '67', '68', '70', '71', '73', '76', '78', '82', '85', '93', '94', '103', '104', '105', '106', '107', '111', '112', '116', '117', '118', '120', '121', '122', '123', '125', '126', '128', '130', '131', '133', '137', '140', '142', '143', '145', '147', '152', '153', '154', '156', '157', '159', '160', '161', '166', '170', '172', '176', '178', '180', '181', '183', '184', '185', '186', '190', '191', '192', '193', '194', '197', '200', '203', '206', '208', '209', '213', '214', '215', '216', '220', '223', '225', '227', '229', '230', '232', '233', '234', '235', '236', '240', '244', '245', '246', '248', '252', '253', '256', '258', '260', '261', '262', '263', '270', '272', '273', '276', '277', '278', '280', '281', '283', '286', '291', '292', '296', '297', '299', '302', '303', '306', '308', '309', '310', '312', '315', '316', '317', '318', '323', '324', '325', '329', '330', '333', '334', '335', '337', '346', '347', '349', '352', '353', '355', '359', '360', '361', '362', '364', '365', '368', '369', '373', '374', '376', '377', '379', '380', '381', '385', '386', '387', '391', '394', '395', '396', '397', '398', '402', '403', '404', '406', '407', '408', '412', '414', '418', '429', '430', '436', '439', '442', '443', '446', '449', '450', '453', '454', '457', '458', '461', '462', '463', '464', '472', '475', '476', '477', '479', '489', '493', '498', '499', '500', '501', '502', '503', '512', '513', '515', '516', '517', '519', '522', '523', '524', '525', '527', '536', '539', '540', '541', '542', '544', '545', '549', '552', '554', '557', '559', '560', '562', '563', '565', '567', '569', '570', '574', '577', '580', '586', '588', '593', '594', '596', '597', '598', '602', '603', '604', '613', '616', '620', '622', '623', '624', '625', '627', '634', '636', '640', '646', '649', '652', '655', '656', '657', '662', '663', '667', '671', '672', '674', '675', '678', '681', '682', '688', '689', '692', '693', '698', '704', '705', '709', '711', '717', '718', '719', '720', '721', '732', '736', '738', '739', '740', '741', '742', '743', '744', '745', '746', '747', '751', '752', '753', '759', '760', '761', '763', '765', '767', '768', '771', '772', '773', '774', '778', '779', '780', '781', '787', '788', '792', '796', '798', '799', '802', '806', '813', '815', '816', '817', '818', '819', '827', '829', '832', '834', '835', '838', '840', '841', '843', '844', '848', '849', '856', '859', '860', '864', '865', '867', '870', '872', '873', '874', '878', '879', '881', '882', '883', '887', '889', '893', '894', '897', '899', '900', '901', '903', '904', '909', '910', '912', '913', '914', '916', '919', '921', '925', '926', '928', '930', '933', '934', '938', '939', '944', '948', '950', '951', '954', '957', '960', '961', '964', '965', '968', '969', '971', '973', '974', '975', '978', '979', '980', '981', '982', '983', '984', '986', '989', '991', '994', '995', '996', '997', '999', '1000', '1001', '1002', '1007', '1008', '1013', '1015', '1018', '1019', '1022', '1024', '1025', '1026', '1029', '1030', '1032', '1033', '1035', '1038', '1039', '1040', '1052', '1055', '1056', '1059', '1060', '1065', '1066', '1068', '1069', '1070', '1075', '1076', '1077', '1078', '1080', '1081', '1088', '1089', '1090', '1093', '1097', '1099', '1100', '1102', '1103', '1105', '1107', '1109', '1110', '1112', '1113', '1114', '1116', '1117', '1118', '1121', '1129', '1130', '1134', '1139', '1141', '1143', '1144', '1145', '1147', '1149', '1154', '1155', '1156', '1158', '1165', '1166', '1167', '1169', '1172', '1173', '1174', '1175', '1176', '1180', '1182', '1187', '1196', '1198', '1202', '1204', '1205', '1206', '1207', '1208', '1210', '1212', '1213', '1214', '1215', '1217', '1218', '1219', '1220', '1221', '1224', '1228', '1233', '1234', '1236', '1239', '1243', '1244', '1246', '1247', '1248', '1250', '1253', '1254', '1255', '1257', '1258', '1259', '1262', '1263', '1266', '1267', '1268', '1269', '1271', '1274', '1275', '1278', '1281', '1282', '1283', '1284', '1287', '1288', '1289', '1292', '1293', '1298', '1300', '1301', '1306', '1307', '1308', '1310', '1311', '1312', '1313', '1315', '1317', '1319', '1320', '1321', '1322', '1323', '1324', '1327', '1328', '1331', '1333', '1334', '1335', '1340', '1341', '1343', '1344', '1345', '1351', '1355', '1356', '1357', '1358', '1359', '1360', '1361', '1362', '1366', '1367', '1369', '1371', '1373', '1375', '1380', '1385', '1387', '1390', '1391', '1394', '1395', '1397', '1401', '1405', '1406', '1409', '1411', '1414', '1415', '1416', '1418', '1421', '1422', '1423', '1425', '1430', '1433', '1436', '1437', '1438', '1439', '1442', '1444', '1446', '1449', '1451', '1457', '1459', '1460', '1462', '1463', '1465', '1468', '1470', '1472', '1473', '1474', '1478', '1480', '1483', '1484', '1488', '1489', '1490', '1491', '1492', '1493', '1494', '1495', '1499', '1500', '1503', '1504', '1505', '1506', '1510', '1511', '1514', '1516', '1518', '1522', '1524', '1526', '1527', '1529', '1530', '1534', '1537', '1539', '1542', '1543', '1547', '1548', '1551', '1553', '1555', '1556', '1557', '1561', '1562', '1563', '1564', '1565', '1567', '1568', '1571', '1572', '1574', '1576', '1577', '1578', '1585', '1588', '1591', '1592', '1594', '1595', '1596', '1598', '1603', '1606', '1611', '1613', '1620', '1621', '1625', '1626', '1628', '1629', '1631', '1632', '1634', '1639', '1640', '1642', '1643', '1646', '1647', '1649', '1650', '1651', '1652', '1656', '1658', '1662', '1663', '1667', '1670', '1671', '1672', '1673', '1675', '1676', '1677', '1680', '1684', '1692', '1696', '1697', '1699', '1701', '1703', '1705', '1706', '1709', '1712', '1715', '1717', '1718', '1722', '1724', '1725', '1729', '1730', '1731', '1741', '1747', '1748', '1751', '1752', '1758', '1760', '1761', '1765', '1770', '1773', '1777', '1781', '1782', '1783', '1785', '1787', '1793', '1795', '1800', '1801', '1803', '1807', '1808', '1809', '1810', '1811', '1813', '1819', '1821', '1822', '1823', '1824', '1825', '1828', '1829', '1830', '1831', '1836', '1841', '1842', '1843', '1846', '1849', '1850', '1853', '1854', '1860', '1862', '1863', '1865', '1867', '1868', '1870', '1871', '1877', '1878', '1881', '1883', '1884', '1887', '1889', '1891', '1893', '1894', '1898', '1899', '1900', '1902', '1903', '1911', '1913', '1914', '1919', '1921', '1922', '1925', '1927', '1931', '1933', '1936', '1937', '1941', '1942', '1943', '1946', '1948', '1949', '1950', '1954', '1963', '1969', '1971', '1972', '1975', '1976', '1977', '1978', '1979', '1981', '1982', '1984', '1985', '1986', '1987', '1988', '1989', '1990', '1992', '1994', '1995', '1997', '1998', '2000']",True,2000,True,2,aa1e99d7e3,0.0,0.0,1.0
./expes/v2_2021-03-23_issda-30_2000-prng-1-w2-p2,30_issda-2000,2000,first-2000,700,35,rng,num-start-400,400,25726,classic,2050.8857855796814,False,,False,0,,,0,"['5', '6', '14', '15', '18', '26', '27', '34', '35', '37', '39', '41', '45', '47', '48', '50', '51', '52', '54', '55', '57', '66', '69', '71', '73', '75', '81', '84', '86', '87', '89', '90', '93', '96', '98', '100', '102', '114', '123', '127', '128', '130', '131', '132', '135', '137', '140', '141', '142', '145', '147', '148', '149', '151', '153', '155', '159', '162', '167', '171', '172', '175', '177', '181', '187', '188', '192', '193', '194', '195', '196', '202', '204', '207', '208', '210', '211', '212', '215', '219', '221', '223', '230', '233', '234', '236', '238', '239', '245', '246', '248', '249', '253', '258', '259', '262', '263', '264', '271', '272', '273', '274', '276', '279', '280', '282', '284', '286', '287', '297', '300', '304', '305', '309', '310', '312', '314', '317', '320', '325', '326', '336', '337', '340', '341', '342', '349', '351', '352', '354', '359', '361', '362', '363', '369', '370', '371', '372', '376', '380', '382', '383', '384', '385', '388', '389', '390', '392', '393', '397', '402', '404', '409', '413', '414', '415', '416', '425', '428', '429', '431', '432', '436', '441', '453', '459', '461', '462', '464', '465', '466', '472', '477', '486', '494', '496', '500', '502', '503', '509', '511', '512', '515', '517', '519', '521', '523', '530', '533', '534', '535', '537', '539', '540', '542', '549', '551', '556', '557', '560', '562', '563', '564', '567', '568', '571', '572', '576', '579', '582', '585', '586', '591', '592', '593', '594', '597', '599', '601', '602', '606', '612', '613', '616', '617', '623', '624', '627', '630', '632', '633', '634', '636', '637', '638', '646', '648', '650', '651', '660', '663', '665', '667', '671', '672', '674', '676', '680', '682', '684', '689', '690', '700', '710', '711', '712', '716', '718', '720', '721', '724', '725', '726', '731', '737', '742', '744', '745', '746', '747', '750', '751', '752', '756', '757', '758', '760', '763', '771', '772', '777', '781', '785', '788', '792', '793', '795', '796', '800', '803', '804', '806', '812', '813', '819', '821', '823', '827', '829', '830', '831', '833', '844', '847', '849', '852', '855', '857', '862', '867', '872', '875', '878', '879', '880', '881', '888', '893', '895', '896', '898', '899', '901', '902', '906', '910', '912', '915', '917', '921', '922', '923', '925', '926', '928', '930', '931', '934', '938', '939', '941', '943', '945', '947', '949', '952', '955', '956', '957', '959', '960', '962', '963', '969', '975', '978', '980', '982', '983', '984', '987', '989', '995', '996', '998', '999', '1001', '1002', '1004', '1006', '1008', '1011', '1012', '1018', '1025', '1028', '1029', '1030', '1034', '1036', '1043', '1048', '1050', '1051', '1054', '1056', '1058', '1065', '1066', '1067', '1069', '1073', '1075', '1077', '1080', '1083', '1084', '1085', '1090', '1094', '1095', '1098', '1099', '1100', '1102', '1106', '1110', '1111', '1115', '1117', '1118', '1120', '1121', '1124', '1126', '1129', '1134', '1135', '1136', '1137', '1141', '1145', '1151', '1152', '1153', '1165', '1166', '1167', '1169', '1175', '1178', '1179', '1181', '1184', '1186', '1188', '1190', '1193', '1194', '1195', '1198', '1199', '1204', '1206', '1208', '1211', '1213', '1215', '1216', '1217', '1219', '1221', '1222', '1223', '1226', '1227', '1246', '1248', '1249', '1251', '1256', '1259', '1261', '1265', '1269', '1270', '1271', '1272', '1283', '1286', '1290', '1293', '1299', '1301', '1302', '1303', '1305', '1308', '1310', '1311', '1313', '1323', '1325', '1329', '1330', '1331', '1333', '1337', '1339', '1345', '1347', '1349', '1351', '1352', '1355', '1360', '1367', '1368', '1370', '1371', '1372', '1376', '1380', '1381', '1385', '1387', '1388', '1389', '1396', '1398', '1401', '1406', '1408', '1410', '1411', '1420', '1423', '1426', '1427', '1429', '1432', '1438', '1445', '1452', '1454', '1465', '1467', '1468', '1470', '1474', '1475', '1485', '1486', '1491', '1497', '1498', '1503', '1507', '1509', '1512', '1513', '1514', '1519', '1524', '1525', '1528', '1532', '1534', '1540', '1541', '1543', '1545', '1546', '1548', '1550', '1553', '1556', '1565', '1568', '1572', '1584', '1586', '1587', '1588', '1594', '1601', '1602', '1605', '1607', '1608', '1609', '1612', '1614', '1617', '1618', '1622', '1625', '1626', '1629', '1630', '1632', '1642', '1645', '1646', '1647', '1648', '1655', '1661', '1663', '1667', '1670', '1673', '1675', '1679', '1684', '1688', '1689', '1692', '1696', '1702', '1704', '1708', '1710', '1712', '1724', '1729', '1730', '1731', '1735', '1740', '1741', '1742', '1747', '1748', '1752', '1753', '1755', '1762', '1766', '1770', '1774', '1779', '1786', '1790', '1799', '1800', '1801', '1804', '1809', '1811', '1812', '1814', '1815', '1816', '1820', '1822', '1824', '1831', '1832', '1834', '1836', '1837', '1838', '1851', '1853', '1854', '1856', '1859', '1860', '1863', '1874', '1885', '1887', '1892', '1896', '1898', '1901', '1903', '1905', '1907', '1908', '1911', '1915', '1916', '1917', '1918', '1919', '1921', '1924', '1929', '1933', '1936', '1937', '1938', '1941', '1942', '1945', '1946', '1947', '1954', '1956', '1957', '1959', '1960', '1963', '1964', '1970', '1973', '1974', '1977', '1978', '1979', '1980', '1981', '1983', '1984', '1987', '1989', '1991', '1993']",True,2000,True,2,91225b0c0f,0.0,0.0,0.0
./expes/v2_2021-03-23_issda-30_2000-prng-1-w2-p2,30_issda-2000,2000,first-2000,700,35,rng,num-start-3200,3200,25726,classic,2208.831818819046,True,,True,1.0,1.0,1.0,1,"['4', '8', '10', '11', '15', '16', '24', '27', '32', '37', '41', '42', '44', '46', '48', '49', '53', '56', '57', '58', '59', '61', '64', '65', '67', '68', '70', '72', '73', '74', '75', '76', '87', '88', '89', '91', '93', '94', '95', '102', '103', '105', '109', '110', '113', '124', '125', '126', '130', '132', '135', '137', '140', '141', '142', '147', '149', '157', '158', '159', '160', '164', '171', '176', '177', '182', '187', '189', '190', '197', '199', '200', '204', '205', '209', '211', '212', '214', '215', '219', '222', '223', '231', '233', '236', '242', '244', '245', '246', '248', '249', '251', '253', '254', '255', '256', '257', '260', '262', '264', '266', '267', '268', '270', '273', '275', '279', '280', '282', '284', '294', '295', '301', '306', '309', '311', '320', '322', '327', '329', '333', '335', '347', '348', '351', '352', '353', '364', '366', '367', '369', '370', '376', '380', '382', '384', '389', '391', '392', '393', '405', '407', '408', '409', '411', '422', '431', '433', '445', '446', '447', '448', '453', '455', '456', '460', '461', '466', '471', '475', '476', '480', '481', '482', '484', '487', '488', '489', '490', '491', '496', '501', '502', '509', '512', '514', '515', '518', '521', '523', '529', '530', '532', '537', '540', '541', '542', '543', '547', '548', '550', '551', '552', '554', '555', '556', '561', '563', '571', '572', '573', '583', '584', '588', '592', '595', '598', '602', '606', '612', '614', '615', '616', '617', '621', '623', '630', '635', '641', '642', '643', '645', '646', '647', '653', '656', '660', '662', '665', '667', '669', '672', '674', '678', '679', '681', '684', '686', '690', '695', '696', '697', '699', '700', '705', '708', '710', '718', '719', '720', '721', '723', '731', '738', '739', '746', '749', '753', '755', '757', '758', '763', '765', '767', '769', '770', '771', '772', '773', '774', '778', '779', '784', '791', '794', '797', '798', '799', '801', '807', '809', '813', '814', '820', '822', '835', '836', '839', '841', '846', '847', '848', '851', '854', '857', '860', '862', '863', '867', '871', '873', '875', '878', '881', '884', '886', '890', '892', '894', '896', '898', '908', '911', '924', '927', '931', '935', '936', '943', '944', '951', '952', '955', '958', '959', '961', '964', '969', '970', '971', '976', '978', '982', '983', '986', '987', '988', '989', '991', '996', '999', '1003', '1004', '1014', '1017', '1020', '1025', '1029', '1031', '1036', '1039', '1045', '1048', '1050', '1056', '1060', '1062', '1063', '1065', '1066', '1068', '1072', '1076', '1080', '1081', '1084', '1085', '1086', '1090', '1094', '1095', '1097', '1098', '1100', '1102', '1108', '1109', '1110', '1114', '1115', '1124', '1126', '1127', '1129', '1134', '1136', '1138', '1140', '1141', '1145', '1146', '1155', '1156', '1161', '1164', '1165', '1166', '1168', '1170', '1172', '1175', '1176', '1178', '1182', '1186', '1188', '1189', '1190', '1197', '1198', '1199', '1200', '1201', '1202', '1204', '1206', '1207', '1208', '1209', '1211', '1214', '1219', '1220', '1227', '1228', '1229', '1231', '1232', '1237', '1238', '1240', '1241', '1247', '1251', '1254', '1259', '1262', '1266', '1269', '1271', '1274', '1276', '1282', '1284', '1285', '1286', '1287', '1288', '1295', '1297', '1298', '1299', '1300', '1301', '1304', '1309', '1315', '1317', '1319', '1320', '1323', '1325', '1328', '1331', '1332', '1337', '1339', '1343', '1351', '1357', '1358', '1363', '1368', '1375', '1376', '1377', '1380', '1381', '1383', '1384', '1385', '1389', '1390', '1392', '1395', '1397', '1401', '1405', '1413', '1415', '1416', '1421', '1422', '1424', '1425', '1427', '1429', '1430', '1431', '1434', '1436', '1437', '1440', '1444', '1445', '1448', '1460', '1462', '1463', '1465', '1466', '1467', '1468', '1469', '1470', '1472', '1473', '1476', '1477', '1481', '1492', '1493', '1499', '1503', '1504', '1506', '1512', '1519', '1520', '1521', '1527', '1531', '1532', '1533', '1534', '1541', '1543', '1544', '1549', '1550', '1551', '1553', '1557', '1560', '1572', '1575', '1582', '1586', '1588', '1589', '1591', '1592', '1596', '1597', '1598', '1603', '1604', '1612', '1613', '1615', '1620', '1622', '1623', '1626', '1629', '1636', '1637', '1640', '1641', '1645', '1647', '1651', '1652', '1653', '1654', '1659', '1660', '1662', '1663', '1666', '1673', '1679', '1683', '1687', '1696', '1704', '1706', '1707', '1708', '1710', '1713', '1714', '1716', '1718', '1724', '1728', '1729', '1741', '1744', '1746', '1749', '1750', '1752', '1753', '1754', '1755', '1756', '1758', '1759', '1763', '1764', '1765', '1767', '1769', '1770', '1772', '1773', '1776', '1778', '1781', '1782', '1783', '1788', '1800', '1802', '1803', '1804', '1805', '1807', '1810', '1813', '1816', '1817', '1818', '1822', '1823', '1824', '1825', '1837', '1838', '1839', '1843', '1847', '1851', '1852', '1853', '1862', '1866', '1870', '1872', '1876', '1878', '1879', '1885', '1886', '1887', '1888', '1889', '1893', '1897', '1900', '1903', '1904', '1913', '1914', '1915', '1917', '1918', '1923', '1924', '1927', '1928', '1931', '1932', '1941', '1944', '1946', '1947', '1948', '1951', '1953', '1956', '1957', '1961', '1962', '1964', '1967', '1968', '1973', '1975', '1976', '1978', '1980', '1981', '1985', '1989', '1990', '1991', '1993', '1997']",False,2000,True,2,cb493f6e47,0.0,1.0,1.0
