expe,clients,clients_size,clients_subset,agg_size,agg_size_pc,method,days,days_size,days_total,noise_method,time,valid,valid_sum,success,score_avg,score_min,score_max,nsols,oracle,wall_hit,wall_time,pooled,pool_size,uuid,infeasible,optimal,valid_sums
./expes/v2_2021-03-23_issda-30_2000-prng-1-w2-p2,30_issda-2000,2000,first-2000,400,20,rng,num-start-200,200,25726,classic,2039.1026148796082,False,,False,0,,,0,"['5', '6', '15', '18', '34', '35', '39', '45', '47', '51', '54', '55', '66', '69', '75', '81', '84', '89', '93', '96', '100', '102', '123', '127', '128', '131', '132', '137', '140', '145', '148', '149', '151', '155', '159', '172', '175', '177', '181', '187', '188', '192', '194', '195', '202', '204', '207', '208', '211', '212', '215', '219', '221', '230', '233', '234', '238', '246', '248', '249', '253', '258', '259', '263', '276', '279', '280', '282', '284', '286', '287', '304', '314', '317', '320', '325', '336', '340', '349', '351', '354', '359', '370', '376', '382', '384', '390', '392', '393', '404', '409', '413', '415', '416', '425', '429', '432', '453', '459', '461', '462', '464', '472', '477', '494', '496', '500', '502', '503', '509', '511', '512', '519', '530', '534', '535', '537', '539', '542', '549', '551', '556', '562', '563', '568', '572', '576', '582', '585', '586', '593', '594', '601', '602', '606', '613', '617', '623', '624', '627', '632', '633', '634', '637', '638', '650', '651', '663', '665', '667', '671', '676', '680', '682', '710', '712', '718', '725', '731', '742', '752', '756', '757', '772', '777', '788', '792', '796', '800', '803', '806', '812', '813', '819', '823', '827', '831', '833', '844', '847', '849', '855', '862', '867', '872', '875', '878', '879', '880', '881', '893', '895', '898', '899', '902', '910', '912', '917', '921', '922', '925', '926', '928', '931', '934', '938', '939', '943', '945', '949', '952', '955', '957', '960', '962', '963', '975', '978', '980', '983', '984', '996', '1002', '1004', '1011', '1012', '1025', '1029', '1030', '1034', '1036', '1043', '1048', '1051', '1054', '1066', '1067', '1073', '1077', '1083', '1084', '1094', '1110', '1111', '1115', '1117', '1118', '1121', '1136', '1137', '1141', '1145', '1152', '1166', '1167', '1169', '1181', '1184', '1186', '1195', '1198', '1204', '1206', '1208', '1211', '1216', '1217', '1219', '1222', '1226', '1246', '1249', '1256', '1259', '1265', '1271', '1272', '1283', '1299', '1303', '1305', '1313', '1323', '1329', '1330', '1337', '1339', '1345', '1349', '1351', '1355', '1360', '1367', '1368', '1381', '1385', '1387', '1388', '1396', '1398', '1401', '1406', '1408', '1410', '1423', '1426', '1445', '1454', '1465', '1467', '1468', '1470', '1475', '1485', '1491', '1497', '1498', '1503', '1507', '1512', '1513', '1514', '1519', '1528', '1540', '1541', '1548', '1550', '1568', '1584', '1586', '1587', '1588', '1607', '1608', '1609', '1614', '1622', '1629', '1642', '1645', '1646', '1647', '1648', '1655', '1661', '1689', '1692', '1704', '1708', '1710', '1712', '1724', '1729', '1740', '1741', '1747', '1748', '1753', '1762', '1774', '1779', '1786', '1790', '1799', '1800', '1801', '1809', '1812', '1824', '1834', '1836', '1838', '1856', '1874', '1885', '1896', '1903', '1905', '1907', '1911', '1916', '1917', '1924', '1937', '1938', '1946', '1954', '1957', '1959', '1960', '1963', '1970', '1973', '1977', '1981', '1983', '1987', '1989', '1993']",True,2000,True,2,9652df7559,0.0,0.0,0.0
./expes/v2_2021-03-23_issda-30_2000-prng-1-w2-p2,30_issda-2000,2000,first-2000,900,45,rng,num-start-400,400,25726,classic,2077.0519156455994,False,,False,0,,,0,"['1', '3', '4', '5', '7', '15', '16', '17', '18', '19', '20', '21', '26', '28', '29', '30', '31', '32', '34', '39', '42', '43', '45', '47', '51', '55', '57', '58', '61', '62', '63', '65', '67', '68', '69', '73', '74', '75', '78', '79', '80', '81', '82', '83', '84', '85', '87', '92', '93', '94', '95', '96', '97', '99', '103', '114', '119', '124', '126', '128', '129', '131', '135', '136', '140', '142', '144', '145', '146', '148', '150', '152', '155', '157', '160', '161', '162', '165', '166', '167', '168', '169', '171', '172', '173', '174', '175', '178', '179', '184', '186', '187', '188', '190', '192', '195', '201', '203', '204', '206', '207', '208', '209', '211', '215', '216', '223', '224', '228', '230', '231', '233', '235', '236', '237', '238', '240', '241', '243', '244', '246', '248', '249', '253', '254', '255', '256', '257', '261', '266', '267', '268', '271', '272', '274', '276', '277', '284', '286', '287', '289', '291', '292', '294', '299', '300', '301', '304', '305', '307', '310', '311', '315', '316', '317', '319', '320', '321', '323', '325', '328', '330', '332', '335', '336', '340', '342', '347', '350', '358', '359', '365', '366', '368', '370', '373', '374', '377', '379', '380', '383', '386', '387', '388', '390', '391', '392', '394', '399', '400', '402', '406', '407', '409', '414', '417', '418', '419', '420', '422', '423', '425', '426', '427', '431', '432', '438', '441', '443', '445', '448', '449', '451', '452', '453', '455', '457', '461', '471', '473', '476', '477', '479', '483', '485', '489', '490', '491', '492', '496', '498', '500', '508', '509', '511', '514', '518', '522', '524', '526', '527', '529', '531', '532', '533', '534', '535', '537', '538', '553', '554', '556', '563', '564', '565', '568', '571', '574', '576', '578', '580', '581', '588', '590', '593', '594', '595', '597', '600', '601', '602', '603', '604', '607', '611', '612', '613', '614', '616', '617', '618', '619', '620', '621', '622', '626', '631', '636', '638', '640', '645', '647', '648', '650', '652', '656', '657', '660', '661', '664', '665', '667', '668', '670', '673', '677', '678', '682', '683', '685', '687', '688', '691', '692', '693', '697', '698', '702', '704', '706', '708', '710', '711', '713', '718', '722', '723', '725', '727', '728', '731', '732', '734', '735', '736', '740', '741', '742', '750', '752', '753', '755', '756', '757', '759', '761', '762', '763', '770', '771', '772', '775', '776', '777', '783', '786', '787', '789', '792', '794', '795', '796', '802', '803', '807', '809', '812', '813', '816', '817', '823', '824', '826', '830', '831', '832', '836', '837', '840', '843', '849', '850', '851', '852', '854', '855', '856', '857', '859', '860', '861', '862', '864', '865', '867', '869', '872', '873', '874', '883', '884', '885', '890', '892', '894', '904', '906', '907', '911', '912', '913', '914', '915', '918', '919', '920', '923', '925', '928', '929', '930', '933', '938', '939', '940', '944', '947', '948', '955', '957', '964', '965', '966', '967', '970', '971', '975', '976', '977', '980', '982', '986', '987', '988', '990', '996', '997', '998', '1000', '1001', '1003', '1005', '1008', '1009', '1011', '1013', '1015', '1018', '1019', '1020', '1021', '1022', '1029', '1032', '1034', '1035', '1039', '1041', '1042', '1048', '1058', '1061', '1063', '1065', '1066', '1067', '1068', '1069', '1072', '1073', '1075', '1076', '1077', '1078', '1081', '1083', '1084', '1085', '1086', '1091', '1093', '1095', '1097', '1102', '1107', '1108', '1112', '1113', '1114', '1115', '1117', '1120', '1121', '1122', '1124', '1125', '1128', '1129', '1132', '1133', '1140', '1144', '1147', '1149', '1150', '1155', '1157', '1160', '1163', '1164', '1166', '1167', '1168', '1172', '1176', '1179', '1180', '1188', '1190', '1192', '1194', '1195', '1198', '1199', '1201', '1203', '1204', '1208', '1209', '1211', '1215', '1218', '1220', '1222', '1223', '1226', '1230', '1232', '1233', '1234', '1235', '1236', '1237', '1239', '1241', '1242', '1245', '1246', '1248', '1249', '1250', '1252', '1253', '1254', '1255', '1259', '1265', '1267', '1268', '1271', '1272', '1274', '1277', '1281', '1284', '1285', '1286', '1289', '1291', '1294', '1295', '1296', '1297', '1298', '1299', '1301', '1303', '1305', '1306', '1308', '1309', '1312', '1313', '1314', '1320', '1321', '1325', '1330', '1333', '1339', '1343', '1344', '1345', '1346', '1347', '1350', '1353', '1357', '1359', '1364', '1366', '1369', '1370', '1373', '1378', '1380', '1384', '1385', '1387', '1389', '1390', '1391', '1392', '1393', '1394', '1395', '1396', '1398', '1400', '1401', '1406', '1408', '1410', '1411', '1413', '1415', '1417', '1429', '1431', '1432', '1433', '1434', '1435', '1436', '1437', '1438', '1439', '1442', '1445', '1446', '1447', '1448', '1449', '1453', '1455', '1459', '1462', '1464', '1466', '1469', '1470', '1471', '1472', '1474', '1480', '1486', '1490', '1492', '1493', '1494', '1495', '1496', '1497', '1499', '1500', '1504', '1505', '1514', '1518', '1519', '1528', '1529', '1530', '1532', '1533', '1535', '1536', '1539', '1541', '1546', '1547', '1548', '1550', '1552', '1553', '1555', '1557', '1561', '1572', '1573', '1575', '1582', '1583', '1585', '1590', '1591', '1592', '1593', '1594', '1597', '1602', '1604', '1605', '1606', '1608', '1609', '1615', '1616', '1618', '1621', '1623', '1625', '1627', '1628', '1630', '1632', '1634', '1635', '1638', '1639', '1640', '1645', '1646', '1648', '1649', '1651', '1653', '1655', '1657', '1659', '1660', '1663', '1664', '1669', '1671', '1674', '1676', '1678', '1679', '1683', '1684', '1685', '1690', '1691', '1692', '1694', '1696', '1698', '1699', '1700', '1701', '1708', '1712', '1716', '1717', '1721', '1723', '1726', '1729', '1730', '1731', '1732', '1734', '1740', '1742', '1744', '1747', '1749', '1752', '1756', '1760', '1761', '1762', '1763', '1764', '1765', '1766', '1769', '1770', '1772', '1773', '1777', '1780', '1783', '1785', '1786', '1787', '1790', '1791', '1792', '1793', '1794', '1796', '1798', '1799', '1805', '1810', '1811', '1812', '1813', '1814', '1819', '1821', '1823', '1824', '1825', '1827', '1830', '1832', '1834', '1839', '1840', '1841', '1842', '1844', '1846', '1848', '1849', '1850', '1853', '1856', '1860', '1861', '1862', '1864', '1868', '1870', '1872', '1875', '1876', '1878', '1879', '1880', '1881', '1882', '1883', '1884', '1885', '1888', '1889', '1890', '1891', '1892', '1898', '1902', '1908', '1911', '1913', '1914', '1916', '1917', '1918', '1919', '1920', '1922', '1929', '1932', '1935', '1937', '1939', '1940', '1942', '1944', '1945', '1946', '1947', '1951', '1953', '1955', '1959', '1962', '1963', '1965', '1966', '1968', '1969', '1971', '1972', '1973', '1974', '1978', '1980', '1982', '1983', '1984', '1986', '1988', '1992', '1996', '2000']",True,2000,True,2,1903513d59,0.0,0.0,0.0
./expes/v2_2021-03-23_issda-30_2000-prng-1-w2-p2,30_issda-2000,2000,first-2000,200,10,rng,num-start-1800,1800,25726,classic,1312.7045650482178,True,,True,1.0,1.0,1.0,1,"['11', '20', '37', '40', '43', '56', '101', '102', '103', '104', '106', '111', '120', '128', '132', '142', '154', '168', '175', '191', '193', '226', '227', '240', '253', '266', '282', '284', '287', '291', '309', '310', '331', '335', '350', '358', '376', '395', '401', '403', '407', '431', '435', '438', '461', '490', '496', '510', '513', '514', '515', '517', '529', '544', '548', '559', '565', '570', '594', '605', '622', '625', '630', '634', '635', '639', '647', '648', '651', '654', '678', '681', '687', '689', '713', '727', '737', '749', '763', '768', '787', '802', '823', '826', '827', '831', '837', '840', '849', '859', '860', '887', '957', '971', '978', '984', '994', '997', '1028', '1037', '1039', '1070', '1076', '1080', '1091', '1092', '1100', '1106', '1107', '1111', '1113', '1129', '1134', '1138', '1141', '1145', '1156', '1171', '1178', '1180', '1185', '1188', '1209', '1229', '1237', '1272', '1297', '1304', '1309', '1312', '1347', '1349', '1355', '1386', '1398', '1402', '1405', '1416', '1443', '1445', '1446', '1465', '1466', '1484', '1485', '1493', '1499', '1514', '1526', '1529', '1531', '1533', '1541', '1543', '1569', '1579', '1586', '1603', '1611', '1622', '1642', '1643', '1644', '1649', '1653', '1661', '1664', '1665', '1666', '1670', '1673', '1698', '1719', '1725', '1734', '1759', '1761', '1778', '1793', '1808', '1819', '1823', '1837', '1847', '1859', '1862', '1864', '1878', '1880', '1885', '1897', '1925', '1936', '1949', '1957', '1961', '1962', '1966', '1968', '1994']",False,2000,True,2,c8fd9b1d52,0.0,1.0,1.0
./expes/v2_2021-03-23_issda-30_2000-prng-1-w2-p2,30_issda-2000,2000,first-2000,600,30,rng,num-start-1000,1000,25726,classic,2194.9624042510986,True,,False,1.0,1.0,1.0,1,"['2', '4', '6', '7', '11', '19', '21', '24', '27', '28', '30', '34', '38', '41', '45', '47', '49', '53', '55', '57', '60', '66', '68', '71', '74', '75', '76', '82', '86', '90', '96', '100', '101', '107', '111', '115', '117', '118', '121', '129', '130', '134', '136', '138', '141', '148', '161', '162', '166', '175', '183', '187', '188', '189', '195', '209', '219', '221', '222', '227', '228', '231', '232', '236', '243', '244', '250', '251', '253', '259', '260', '265', '268', '271', '272', '273', '274', '276', '280', '285', '289', '290', '291', '292', '293', '294', '299', '301', '304', '305', '306', '307', '315', '317', '322', '326', '327', '328', '331', '339', '340', '341', '346', '347', '352', '354', '361', '364', '366', '368', '369', '370', '371', '372', '373', '375', '379', '380', '392', '397', '401', '403', '404', '407', '408', '419', '420', '425', '427', '429', '437', '442', '444', '449', '464', '472', '487', '488', '499', '503', '504', '505', '511', '513', '514', '515', '517', '524', '525', '533', '541', '543', '548', '549', '555', '558', '561', '562', '565', '571', '573', '574', '576', '579', '580', '586', '587', '592', '593', '597', '600', '601', '602', '604', '605', '606', '608', '612', '616', '617', '618', '620', '622', '627', '628', '630', '634', '635', '637', '640', '643', '645', '647', '649', '650', '651', '654', '667', '668', '678', '680', '683', '685', '689', '693', '694', '696', '697', '698', '705', '706', '708', '713', '717', '718', '720', '721', '727', '728', '729', '731', '733', '735', '740', '742', '743', '745', '747', '750', '753', '757', '762', '764', '766', '770', '771', '773', '777', '778', '779', '780', '783', '784', '785', '787', '790', '798', '803', '804', '817', '827', '828', '830', '831', '832', '836', '837', '839', '840', '848', '850', '851', '854', '858', '859', '862', '864', '872', '876', '880', '885', '887', '890', '897', '904', '909', '912', '922', '928', '929', '934', '947', '948', '949', '951', '953', '954', '958', '961', '963', '966', '968', '972', '973', '975', '977', '978', '980', '982', '983', '984', '985', '986', '987', '989', '991', '995', '997', '1000', '1003', '1004', '1008', '1009', '1011', '1017', '1020', '1023', '1025', '1030', '1050', '1051', '1056', '1058', '1062', '1070', '1075', '1085', '1086', '1090', '1091', '1093', '1102', '1103', '1105', '1109', '1114', '1117', '1118', '1121', '1123', '1125', '1127', '1133', '1134', '1138', '1146', '1148', '1155', '1156', '1159', '1170', '1176', '1179', '1185', '1190', '1193', '1200', '1201', '1202', '1204', '1208', '1209', '1210', '1217', '1219', '1221', '1230', '1231', '1236', '1237', '1246', '1247', '1251', '1253', '1257', '1259', '1260', '1264', '1265', '1266', '1271', '1274', '1275', '1276', '1278', '1279', '1282', '1284', '1285', '1290', '1292', '1293', '1295', '1305', '1308', '1316', '1320', '1321', '1323', '1326', '1328', '1329', '1330', '1331', '1332', '1334', '1336', '1352', '1353', '1356', '1357', '1360', '1364', '1369', '1374', '1376', '1380', '1389', '1397', '1398', '1404', '1405', '1408', '1410', '1411', '1412', '1415', '1417', '1423', '1424', '1427', '1437', '1439', '1443', '1444', '1446', '1450', '1451', '1460', '1467', '1471', '1472', '1474', '1475', '1476', '1477', '1478', '1480', '1495', '1496', '1498', '1499', '1501', '1512', '1516', '1517', '1518', '1520', '1521', '1523', '1526', '1527', '1533', '1536', '1548', '1553', '1555', '1556', '1558', '1561', '1569', '1577', '1585', '1587', '1589', '1590', '1595', '1596', '1599', '1600', '1601', '1602', '1610', '1614', '1622', '1629', '1633', '1634', '1636', '1642', '1643', '1654', '1663', '1665', '1666', '1673', '1675', '1677', '1679', '1682', '1684', '1689', '1693', '1694', '1697', '1700', '1703', '1711', '1713', '1714', '1718', '1722', '1723', '1724', '1725', '1727', '1729', '1731', '1745', '1746', '1749', '1751', '1753', '1759', '1761', '1769', '1775', '1776', '1777', '1778', '1779', '1782', '1785', '1787', '1795', '1796', '1800', '1804', '1819', '1821', '1826', '1827', '1829', '1830', '1831', '1833', '1837', '1841', '1846', '1848', '1850', '1866', '1868', '1872', '1877', '1878', '1881', '1889', '1892', '1893', '1904', '1916', '1917', '1918', '1920', '1921', '1924', '1928', '1930', '1931', '1932', '1936', '1937', '1945', '1946', '1948', '1950', '1951', '1953', '1955', '1957', '1959', '1960', '1961', '1963', '1966', '1967', '1968', '1969', '1970', '1976', '1977', '1980', '1983', '1984', '1992', '1993', '1998', '1999', '2000']",True,2000,True,2,15f87a15eb,0.0,0.0,1.0
./expes/v2_2021-03-23_issda-30_2000-prng-1-w2-p2,30_issda-2000,2000,first-2000,600,30,rng,num-start-2400,2400,25726,classic,1918.050883769989,True,,True,1.0,1.0,1.0,1,"['1', '2', '4', '10', '16', '21', '22', '31', '32', '36', '40', '41', '43', '49', '52', '53', '57', '58', '60', '63', '65', '72', '82', '83', '88', '92', '95', '98', '103', '105', '106', '112', '114', '122', '123', '127', '128', '133', '137', '140', '141', '143', '144', '149', '153', '154', '158', '166', '167', '171', '184', '185', '186', '191', '194', '195', '196', '199', '201', '203', '210', '212', '214', '218', '219', '220', '227', '229', '230', '231', '232', '234', '235', '236', '243', '244', '245', '247', '249', '250', '252', '253', '258', '264', '267', '270', '273', '274', '277', '281', '289', '294', '300', '301', '307', '314', '316', '325', '330', '332', '338', '339', '345', '349', '350', '352', '353', '358', '360', '364', '366', '372', '374', '377', '387', '388', '389', '395', '397', '400', '403', '405', '407', '408', '409', '411', '415', '416', '419', '420', '421', '426', '429', '434', '438', '443', '444', '447', '455', '456', '458', '461', '463', '464', '468', '469', '472', '473', '480', '483', '484', '496', '498', '500', '501', '502', '505', '506', '507', '509', '510', '513', '516', '517', '519', '522', '523', '524', '525', '526', '530', '534', '539', '540', '542', '545', '547', '555', '556', '558', '560', '562', '564', '571', '575', '576', '577', '578', '579', '580', '597', '601', '606', '607', '608', '616', '617', '620', '621', '625', '626', '629', '634', '637', '640', '644', '647', '650', '652', '661', '680', '683', '684', '687', '691', '694', '696', '697', '703', '709', '712', '714', '718', '720', '722', '724', '726', '729', '734', '739', '740', '745', '746', '748', '749', '751', '754', '755', '756', '764', '771', '772', '777', '780', '783', '784', '787', '788', '791', '792', '795', '805', '807', '808', '813', '815', '825', '827', '831', '833', '844', '856', '858', '864', '866', '867', '869', '871', '873', '874', '880', '886', '893', '896', '898', '899', '904', '905', '907', '912', '913', '917', '921', '922', '925', '927', '929', '932', '933', '942', '944', '956', '960', '961', '962', '963', '965', '969', '972', '974', '975', '977', '984', '987', '992', '993', '994', '996', '997', '998', '1000', '1002', '1005', '1015', '1020', '1025', '1026', '1035', '1038', '1039', '1041', '1048', '1049', '1053', '1058', '1065', '1068', '1069', '1073', '1077', '1080', '1082', '1086', '1092', '1094', '1095', '1096', '1098', '1103', '1107', '1109', '1110', '1111', '1113', '1116', '1117', '1119', '1124', '1130', '1134', '1138', '1140', '1142', '1143', '1144', '1147', '1150', '1161', '1166', '1167', '1171', '1182', '1184', '1186', '1192', '1195', '1197', '1201', '1205', '1206', '1207', '1211', '1216', '1218', '1219', '1220', '1221', '1232', '1234', '1237', '1240', '1245', '1249', '1255', '1261', '1262', '1279', '1281', '1283', '1285', '1287', '1294', '1296', '1298', '1301', '1304', '1306', '1313', '1315', '1318', '1321', '1322', '1323', '1324', '1325', '1327', '1331', '1335', '1336', '1339', '1345', '1346', '1349', '1351', '1356', '1360', '1363', '1365', '1369', '1374', '1377', '1379', '1383', '1386', '1393', '1394', '1395', '1396', '1398', '1402', '1404', '1406', '1407', '1416', '1418', '1427', '1437', '1439', '1440', '1441', '1442', '1444', '1446', '1454', '1464', '1466', '1471', '1472', '1478', '1484', '1485', '1486', '1504', '1506', '1514', '1515', '1516', '1517', '1519', '1525', '1527', '1530', '1539', '1540', '1541', '1546', '1547', '1551', '1557', '1560', '1564', '1565', '1567', '1575', '1577', '1578', '1584', '1585', '1587', '1588', '1593', '1597', '1602', '1603', '1607', '1608', '1613', '1621', '1623', '1626', '1627', '1632', '1634', '1635', '1648', '1651', '1652', '1654', '1655', '1656', '1660', '1664', '1668', '1676', '1680', '1682', '1685', '1686', '1687', '1688', '1691', '1694', '1696', '1697', '1698', '1701', '1711', '1720', '1724', '1737', '1739', '1740', '1741', '1748', '1750', '1752', '1756', '1761', '1762', '1765', '1768', '1770', '1771', '1772', '1773', '1776', '1784', '1786', '1788', '1791', '1792', '1795', '1800', '1802', '1807', '1810', '1815', '1816', '1819', '1821', '1835', '1836', '1837', '1840', '1841', '1842', '1845', '1846', '1847', '1848', '1852', '1853', '1861', '1862', '1864', '1875', '1877', '1879', '1886', '1888', '1896', '1902', '1908', '1910', '1911', '1912', '1913', '1914', '1917', '1918', '1924', '1926', '1930', '1932', '1934', '1938', '1946', '1950', '1951', '1959', '1965', '1967', '1968', '1974', '1983', '1990', '1991', '1993', '1995', '2000']",False,2000,True,2,cf72b77e1f,0.0,1.0,1.0
./expes/v2_2021-03-23_issda-30_2000-prng-1-w2-p2,30_issda-2000,2000,first-2000,300,15,rng,num-start-3000,3000,25726,classic,2043.360033273697,True,,True,1.0,1.0,1.0,1,"['6', '15', '18', '34', '35', '47', '51', '54', '66', '69', '75', '81', '84', '89', '93', '96', '127', '128', '132', '137', '140', '145', '148', '151', '155', '159', '175', '181', '187', '188', '192', '194', '202', '204', '207', '208', '215', '219', '221', '230', '233', '234', '238', '246', '248', '249', '259', '263', '276', '279', '284', '287', '304', '314', '317', '325', '340', '349', '351', '359', '376', '384', '392', '393', '404', '409', '413', '415', '416', '425', '429', '432', '459', '461', '464', '477', '502', '503', '512', '519', '534', '535', '537', '539', '542', '549', '562', '563', '568', '576', '582', '585', '586', '593', '594', '601', '602', '606', '613', '617', '627', '632', '637', '638', '650', '651', '663', '665', '667', '671', '676', '680', '712', '731', '742', '752', '756', '757', '772', '777', '788', '796', '800', '803', '806', '812', '827', '831', '833', '844', '847', '849', '862', '867', '878', '879', '880', '881', '893', '895', '899', '902', '910', '912', '921', '922', '925', '926', '931', '934', '938', '939', '945', '949', '955', '957', '960', '962', '963', '975', '980', '983', '984', '1011', '1012', '1025', '1029', '1030', '1034', '1036', '1043', '1048', '1051', '1054', '1066', '1073', '1083', '1084', '1110', '1111', '1117', '1118', '1121', '1136', '1152', '1166', '1167', '1169', '1181', '1186', '1198', '1204', '1206', '1208', '1211', '1216', '1217', '1219', '1222', '1256', '1265', '1271', '1272', '1283', '1299', '1303', '1305', '1313', '1323', '1329', '1330', '1337', '1339', '1345', '1349', '1351', '1360', '1368', '1385', '1387', '1388', '1396', '1398', '1401', '1406', '1408', '1423', '1426', '1445', '1454', '1465', '1467', '1468', '1470', '1475', '1485', '1491', '1497', '1498', '1503', '1507', '1512', '1528', '1540', '1541', '1548', '1568', '1584', '1587', '1608', '1622', '1642', '1645', '1646', '1647', '1661', '1689', '1692', '1704', '1708', '1710', '1712', '1724', '1729', '1741', '1747', '1748', '1753', '1762', '1774', '1779', '1786', '1790', '1799', '1800', '1801', '1809', '1812', '1824', '1834', '1836', '1838', '1856', '1874', '1885', '1903', '1905', '1916', '1917', '1938', '1946', '1954', '1957', '1959', '1960', '1963', '1977', '1983', '1989', '1993']",False,2000,True,2,05672ce62d,0.0,1.0,1.0
./expes/v2_2021-03-23_issda-30_2000-prng-1-w2-p2,30_issda-2000,2000,first-2000,100,5,rng,num-start-3400,3400,25726,classic,1664.324651002884,True,,True,1.0,1.0,1.0,1,"['22', '57', '58', '144', '149', '171', '184', '194', '210', '219', '229', '243', '249', '252', '307', '330', '332', '338', '372', '397', '419', '447', '458', '506', '522', '524', '534', '540', '555', '556', '562', '564', '571', '575', '577', '597', '621', '647', '691', '734', '739', '746', '783', '807', '813', '827', '844', '899', '922', '927', '956', '993', '997', '1025', '1053', '1058', '1080', '1130', '1186', '1195', '1207', '1219', '1245', '1262', '1279', '1294', '1296', '1298', '1306', '1313', '1335', '1336', '1349', '1360', '1363', '1377', '1402', '1407', '1439', '1504', '1506', '1517', '1530', '1547', '1593', '1635', '1648', '1655', '1676', '1750', '1772', '1784', '1788', '1792', '1815', '1836', '1847', '1862', '1914', '1926']",False,2000,True,2,fac470e023,0.0,1.0,1.0
./expes/v2_2021-03-23_issda-30_2000-prng-1-w2-p2,30_issda-2000,2000,first-2000,1000,50,rng,num-start-3600,3600,25726,classic,2741.8998312950134,True,,False,1.0,1.0,1.0,1,"['1', '2', '4', '6', '8', '10', '13', '16', '21', '22', '25', '26', '29', '30', '31', '32', '34', '36', '37', '38', '40', '41', '43', '44', '45', '47', '49', '52', '53', '57', '58', '59', '60', '62', '63', '65', '67', '71', '72', '78', '79', '80', '81', '82', '83', '85', '86', '88', '92', '95', '98', '102', '103', '105', '106', '107', '108', '112', '113', '114', '116', '121', '122', '123', '124', '127', '128', '131', '132', '133', '137', '138', '140', '141', '143', '144', '149', '153', '154', '155', '158', '159', '160', '166', '167', '171', '175', '176', '180', '182', '184', '185', '186', '191', '192', '193', '194', '195', '196', '198', '199', '201', '203', '204', '210', '211', '212', '214', '218', '219', '220', '223', '226', '227', '229', '230', '231', '232', '234', '235', '236', '238', '239', '243', '244', '245', '247', '249', '250', '251', '252', '253', '255', '258', '259', '260', '262', '264', '267', '268', '270', '271', '273', '274', '277', '281', '284', '289', '290', '291', '294', '300', '301', '305', '307', '310', '314', '316', '319', '325', '329', '330', '331', '332', '333', '334', '338', '339', '343', '344', '345', '348', '349', '350', '352', '353', '358', '360', '363', '364', '366', '369', '370', '371', '372', '374', '377', '379', '380', '381', '383', '387', '388', '389', '391', '393', '394', '395', '397', '400', '403', '405', '407', '408', '409', '410', '411', '415', '416', '419', '420', '421', '422', '425', '426', '427', '429', '431', '432', '434', '438', '442', '443', '444', '447', '449', '451', '455', '456', '457', '458', '461', '462', '463', '464', '468', '469', '471', '472', '473', '477', '478', '480', '483', '484', '485', '487', '490', '494', '495', '496', '498', '500', '501', '502', '505', '506', '507', '509', '510', '512', '513', '515', '516', '517', '519', '520', '522', '523', '524', '525', '526', '530', '533', '534', '539', '540', '541', '542', '544', '545', '547', '550', '552', '555', '556', '557', '558', '559', '560', '561', '562', '564', '565', '566', '570', '571', '573', '575', '576', '577', '578', '579', '580', '581', '582', '587', '588', '589', '594', '596', '597', '598', '599', '601', '602', '603', '604', '606', '607', '608', '614', '615', '616', '617', '620', '621', '625', '626', '628', '629', '634', '636', '637', '640', '641', '643', '644', '647', '648', '650', '652', '653', '654', '657', '659', '660', '661', '662', '663', '666', '667', '668', '672', '675', '677', '680', '683', '684', '685', '686', '687', '688', '691', '694', '696', '697', '699', '701', '703', '704', '709', '712', '714', '718', '720', '722', '724', '726', '729', '731', '734', '738', '739', '740', '745', '746', '748', '749', '751', '754', '755', '756', '759', '763', '764', '771', '772', '774', '776', '777', '778', '780', '781', '782', '783', '784', '787', '788', '789', '791', '792', '793', '794', '795', '798', '799', '800', '805', '807', '808', '809', '813', '814', '815', '818', '819', '820', '822', '824', '825', '827', '831', '832', '833', '837', '844', '845', '847', '849', '850', '855', '856', '858', '859', '862', '863', '864', '866', '867', '869', '871', '873', '874', '879', '880', '881', '884', '885', '886', '890', '893', '896', '898', '899', '901', '904', '905', '907', '910', '912', '913', '914', '917', '918', '920', '921', '922', '925', '927', '929', '930', '931', '932', '933', '937', '942', '944', '955', '956', '958', '959', '960', '961', '962', '963', '965', '966', '969', '970', '972', '973', '974', '975', '977', '979', '981', '984', '986', '987', '990', '992', '993', '994', '995', '996', '997', '998', '1000', '1002', '1003', '1005', '1006', '1012', '1013', '1014', '1015', '1020', '1022', '1025', '1026', '1029', '1031', '1033', '1034', '1035', '1036', '1038', '1039', '1041', '1044', '1046', '1048', '1049', '1053', '1058', '1061', '1062', '1065', '1066', '1068', '1069', '1073', '1077', '1078', '1080', '1082', '1086', '1087', '1088', '1089', '1090', '1092', '1094', '1095', '1096', '1098', '1101', '1103', '1107', '1109', '1110', '1111', '1113', '1115', '1116', '1117', '1119', '1120', '1121', '1122', '1124', '1125', '1126', '1128', '1130', '1132', '1134', '1136', '1138', '1140', '1142', '1143', '1144', '1145', '1146', '1147', '1150', '1158', '1161', '1162', '1163', '1164', '1166', '1167', '1168', '1169', '1171', '1174', '1177', '1178', '1182', '1183', '1184', '1186', '1192', '1195', '1197', '1201', '1205', '1206', '1207', '1211', '1214', '1216', '1218', '1219', '1220', '1221', '1222', '1226', '1229', '1232', '1234', '1235', '1237', '1240', '1244', '1245', '1248', '1249', '1253', '1255', '1261', '1262', '1265', '1267', '1270', '1272', '1279', '1281', '1283', '1285', '1286', '1287', '1294', '1296', '1297', '1298', '1301', '1304', '1306', '1310', '1311', '1313', '1315', '1318', '1321', '1322', '1323', '1324', '1325', '1326', '1327', '1329', '1330', '1331', '1335', '1336', '1339', '1343', '1344', '1345', '1346', '1348', '1349', '1351', '1352', '1356', '1359', '1360', '1363', '1365', '1369', '1373', '1374', '1375', '1377', '1379', '1380', '1383', '1386', '1388', '1393', '1394', '1395', '1396', '1398', '1402', '1403', '1404', '1406', '1407', '1409', '1413', '1416', '1417', '1418', '1427', '1431', '1432', '1437', '1439', '1440', '1441', '1442', '1443', '1444', '1446', '1453', '1454', '1456', '1457', '1460', '1463', '1464', '1465', '1466', '1470', '1471', '1472', '1474', '1476', '1478', '1480', '1484', '1485', '1486', '1487', '1488', '1489', '1491', '1496', '1497', '1500', '1504', '1506', '1509', '1514', '1515', '1516', '1517', '1519', '1522', '1525', '1527', '1529', '1530', '1532', '1533', '1539', '1540', '1541', '1542', '1546', '1547', '1548', '1551', '1552', '1555', '1557', '1558', '1559', '1560', '1562', '1563', '1564', '1565', '1567', '1571', '1575', '1576', '1577', '1578', '1580', '1584', '1585', '1587', '1588', '1590', '1593', '1597', '1602', '1603', '1606', '1607', '1608', '1610', '1613', '1615', '1621', '1623', '1624', '1626', '1627', '1632', '1633', '1634', '1635', '1637', '1639', '1641', '1646', '1648', '1650', '1651', '1652', '1654', '1655', '1656', '1658', '1659', '1660', '1661', '1664', '1668', '1670', '1673', '1676', '1678', '1680', '1681', '1682', '1683', '1685', '1686', '1687', '1688', '1691', '1694', '1695', '1696', '1697', '1698', '1701', '1702', '1703', '1704', '1705', '1710', '1711', '1713', '1714', '1720', '1724', '1731', '1732', '1735', '1737', '1739', '1740', '1741', '1742', '1745', '1747', '1748', '1750', '1752', '1754', '1756', '1761', '1762', '1764', '1765', '1768', '1769', '1770', '1771', '1772', '1773', '1776', '1777', '1779', '1781', '1784', '1785', '1786', '1787', '1788', '1790', '1791', '1792', '1795', '1800', '1802', '1803', '1807', '1810', '1814', '1815', '1816', '1819', '1820', '1821', '1835', '1836', '1837', '1839', '1840', '1841', '1842', '1845', '1846', '1847', '1848', '1849', '1852', '1853', '1861', '1862', '1864', '1865', '1875', '1877', '1879', '1884', '1886', '1887', '1888', '1889', '1891', '1893', '1894', '1895', '1896', '1898', '1900', '1901', '1902', '1903', '1906', '1907', '1908', '1910', '1911', '1912', '1913', '1914', '1917', '1918', '1920', '1921', '1924', '1926', '1930', '1932', '1934', '1935', '1936', '1937', '1938', '1940', '1946', '1948', '1949', '1950', '1951', '1955', '1959', '1962', '1964', '1965', '1967', '1968', '1969', '1971', '1972', '1974', '1977', '1980', '1983', '1984', '1986', '1988', '1990', '1991', '1992', '1993', '1995', '2000']",True,2000,True,2,ea7c7715be,0.0,0.0,1.0
./expes/v2_2021-03-23_issda-30_2000-prng-1-w2-p2,30_issda-2000,2000,first-2000,100,5,rng,num-start-2800,2800,25726,classic,1752.1774728298187,True,,True,1.0,1.0,1.0,1,"['15', '41', '53', '89', '95', '121', '137', '167', '178', '183', '185', '212', '218', '318', '331', '338', '354', '365', '397', '400', '440', '455', '478', '484', '507', '510', '532', '534', '537', '557', '567', '574', '575', '591', '593', '594', '598', '615', '622', '625', '635', '639', '692', '738', '763', '795', '812', '823', '848', '868', '883', '925', '948', '970', '981', '1037', '1042', '1063', '1066', '1095', '1100', '1122', '1126', '1173', '1227', '1241', '1283', '1285', '1313', '1328', '1376', '1444', '1478', '1499', '1568', '1597', '1634', '1640', '1653', '1665', '1676', '1694', '1698', '1722', '1731', '1737', '1738', '1751', '1773', '1777', '1803', '1807', '1862', '1880', '1900', '1915', '1930', '1932', '1935', '1968']",False,2000,True,2,839ab3bff5,0.0,1.0,1.0
./expes/v2_2021-03-23_issda-30_2000-prng-1-w2-p2,30_issda-2000,2000,first-2000,200,10,rng,num-start-2800,2800,25726,classic,1888.5175182819366,True,,True,1.0,1.0,1.0,1,"['11', '20', '37', '40', '43', '56', '101', '102', '103', '104', '106', '111', '120', '128', '132', '142', '154', '168', '175', '191', '193', '226', '227', '240', '253', '266', '282', '284', '287', '291', '309', '310', '331', '335', '350', '358', '376', '395', '401', '403', '407', '431', '435', '438', '461', '490', '496', '510', '513', '514', '515', '517', '529', '544', '548', '559', '565', '570', '594', '605', '622', '625', '630', '634', '635', '639', '647', '648', '651', '654', '678', '681', '687', '689', '713', '727', '737', '749', '763', '768', '787', '802', '823', '826', '827', '831', '837', '840', '849', '859', '860', '887', '957', '971', '978', '984', '994', '997', '1028', '1037', '1039', '1070', '1076', '1080', '1091', '1092', '1100', '1106', '1107', '1111', '1113', '1129', '1134', '1138', '1141', '1145', '1156', '1171', '1178', '1180', '1185', '1188', '1209', '1229', '1237', '1272', '1297', '1304', '1309', '1312', '1347', '1349', '1355', '1386', '1398', '1402', '1405', '1416', '1443', '1445', '1446', '1465', '1466', '1484', '1485', '1493', '1499', '1514', '1526', '1529', '1531', '1533', '1541', '1543', '1569', '1579', '1586', '1603', '1611', '1622', '1642', '1643', '1644', '1649', '1653', '1661', '1664', '1665', '1666', '1670', '1673', '1698', '1719', '1725', '1734', '1759', '1761', '1778', '1793', '1808', '1819', '1823', '1837', '1847', '1859', '1862', '1864', '1878', '1880', '1885', '1897', '1925', '1936', '1949', '1957', '1961', '1962', '1966', '1968', '1994']",False,2000,True,2,d25364e7e7,0.0,1.0,1.0
./expes/v2_2021-03-23_issda-30_2000-prng-1-w2-p2,30_issda-2000,2000,first-2000,800,40,rng,num-start-2200,2200,25726,classic,2148.233187198639,True,,True,1.0,1.0,1.0,1,"['4', '8', '13', '14', '16', '17', '18', '22', '23', '26', '27', '35', '36', '39', '40', '43', '45', '49', '50', '51', '53', '56', '58', '59', '61', '63', '64', '67', '71', '76', '78', '81', '82', '88', '90', '93', '95', '101', '104', '106', '107', '108', '109', '116', '117', '119', '121', '125', '128', '132', '138', '146', '147', '148', '149', '150', '151', '153', '160', '166', '169', '170', '172', '173', '175', '179', '186', '187', '191', '199', '201', '202', '208', '210', '211', '212', '218', '222', '223', '225', '231', '232', '234', '236', '238', '240', '242', '245', '250', '251', '253', '256', '258', '260', '265', '270', '272', '275', '276', '277', '279', '280', '282', '284', '289', '290', '291', '292', '293', '297', '298', '300', '301', '304', '308', '311', '318', '319', '320', '325', '330', '333', '335', '336', '344', '347', '348', '349', '351', '352', '354', '355', '361', '363', '365', '368', '369', '373', '375', '377', '380', '385', '387', '388', '390', '393', '395', '399', '401', '402', '403', '404', '405', '408', '409', '410', '411', '413', '419', '420', '421', '423', '424', '425', '428', '429', '431', '432', '433', '435', '439', '451', '452', '455', '458', '460', '463', '466', '467', '468', '469', '471', '473', '475', '478', '482', '489', '490', '492', '495', '496', '504', '507', '512', '513', '516', '517', '522', '523', '526', '529', '531', '532', '534', '536', '538', '540', '545', '546', '549', '550', '551', '555', '560', '561', '562', '566', '567', '568', '569', '570', '571', '572', '573', '574', '578', '579', '580', '584', '585', '587', '588', '594', '597', '599', '600', '601', '607', '608', '611', '614', '617', '626', '628', '630', '632', '635', '636', '637', '638', '639', '640', '641', '644', '648', '651', '658', '660', '661', '663', '669', '671', '673', '676', '677', '681', '687', '688', '689', '690', '691', '696', '697', '699', '700', '702', '704', '705', '710', '712', '714', '717', '718', '724', '725', '727', '728', '729', '730', '734', '735', '736', '737', '738', '740', '741', '742', '743', '744', '745', '746', '747', '748', '749', '751', '752', '753', '755', '761', '763', '767', '768', '775', '776', '778', '779', '781', '782', '787', '788', '789', '790', '796', '797', '800', '801', '803', '805', '807', '808', '810', '814', '818', '819', '820', '821', '825', '829', '831', '832', '834', '835', '837', '845', '848', '850', '851', '856', '858', '861', '862', '866', '867', '868', '869', '875', '879', '881', '884', '886', '888', '889', '892', '893', '898', '901', '902', '904', '909', '912', '919', '920', '928', '932', '934', '936', '939', '941', '942', '943', '944', '952', '954', '958', '962', '967', '972', '974', '976', '977', '978', '981', '985', '986', '989', '991', '994', '995', '997', '1000', '1003', '1004', '1005', '1007', '1008', '1009', '1012', '1013', '1021', '1024', '1025', '1026', '1027', '1028', '1029', '1030', '1032', '1033', '1035', '1039', '1043', '1048', '1049', '1052', '1053', '1056', '1057', '1058', '1059', '1063', '1065', '1066', '1067', '1068', '1070', '1071', '1074', '1077', '1078', '1080', '1081', '1083', '1084', '1088', '1092', '1094', '1095', '1096', '1098', '1099', '1101', '1102', '1105', '1108', '1109', '1110', '1113', '1115', '1119', '1120', '1123', '1124', '1125', '1126', '1127', '1130', '1135', '1137', '1138', '1141', '1143', '1144', '1147', '1151', '1154', '1156', '1157', '1164', '1166', '1168', '1169', '1174', '1181', '1183', '1189', '1190', '1202', '1203', '1206', '1208', '1209', '1215', '1217', '1221', '1226', '1227', '1230', '1232', '1234', '1235', '1243', '1244', '1245', '1247', '1248', '1252', '1255', '1262', '1264', '1265', '1266', '1268', '1269', '1271', '1272', '1273', '1275', '1276', '1279', '1280', '1285', '1286', '1289', '1295', '1296', '1299', '1302', '1305', '1307', '1310', '1312', '1313', '1316', '1318', '1320', '1327', '1331', '1332', '1335', '1338', '1340', '1344', '1347', '1349', '1351', '1354', '1355', '1356', '1357', '1359', '1360', '1365', '1367', '1369', '1370', '1371', '1372', '1376', '1377', '1380', '1384', '1388', '1389', '1390', '1391', '1392', '1395', '1396', '1398', '1400', '1402', '1403', '1404', '1405', '1407', '1409', '1410', '1411', '1412', '1414', '1415', '1419', '1422', '1425', '1426', '1428', '1430', '1432', '1435', '1436', '1444', '1446', '1455', '1463', '1465', '1466', '1467', '1473', '1477', '1487', '1488', '1498', '1500', '1504', '1505', '1507', '1510', '1514', '1520', '1523', '1526', '1530', '1533', '1534', '1538', '1540', '1543', '1544', '1548', '1550', '1551', '1552', '1556', '1558', '1560', '1561', '1565', '1567', '1568', '1570', '1575', '1579', '1581', '1582', '1585', '1588', '1592', '1596', '1606', '1607', '1609', '1611', '1613', '1616', '1617', '1618', '1621', '1622', '1623', '1625', '1629', '1631', '1632', '1634', '1635', '1638', '1639', '1640', '1641', '1642', '1646', '1651', '1654', '1655', '1657', '1659', '1660', '1662', '1665', '1669', '1671', '1677', '1678', '1679', '1681', '1682', '1685', '1688', '1690', '1692', '1693', '1701', '1702', '1704', '1705', '1707', '1710', '1711', '1712', '1714', '1716', '1718', '1719', '1722', '1723', '1724', '1726', '1727', '1728', '1729', '1731', '1732', '1734', '1735', '1739', '1740', '1747', '1751', '1753', '1758', '1760', '1761', '1762', '1763', '1766', '1767', '1771', '1773', '1774', '1779', '1781', '1788', '1789', '1802', '1806', '1807', '1812', '1814', '1816', '1818', '1822', '1824', '1829', '1832', '1835', '1836', '1838', '1839', '1845', '1846', '1849', '1850', '1851', '1856', '1857', '1858', '1863', '1865', '1866', '1868', '1874', '1875', '1877', '1878', '1882', '1885', '1892', '1893', '1895', '1897', '1899', '1900', '1908', '1909', '1911', '1912', '1913', '1915', '1918', '1920', '1921', '1925', '1926', '1928', '1933', '1934', '1939', '1941', '1945', '1951', '1952', '1955', '1958', '1959', '1960', '1964', '1965', '1968', '1971', '1972', '1975', '1978', '1979', '1981', '1982', '1989', '1990', '1992', '1999', '2000']",False,2000,True,2,67da8e3a58,0.0,1.0,1.0
./expes/v2_2021-03-23_issda-30_2000-prng-1-w2-p2,30_issda-2000,2000,first-2000,500,25,rng,num-start-2800,2800,25726,classic,1993.9696743488312,True,,True,1.0,1.0,1.0,1,"['2', '8', '11', '12', '14', '15', '17', '18', '25', '27', '31', '32', '36', '38', '40', '46', '49', '53', '54', '56', '59', '60', '61', '62', '70', '71', '74', '80', '84', '85', '89', '97', '100', '104', '106', '108', '109', '111', '113', '119', '121', '124', '125', '130', '132', '133', '135', '136', '137', '141', '142', '153', '155', '156', '161', '166', '167', '170', '171', '172', '173', '174', '176', '178', '180', '182', '189', '192', '194', '197', '203', '204', '205', '209', '212', '213', '218', '223', '226', '227', '228', '229', '230', '242', '246', '247', '249', '263', '266', '271', '272', '273', '282', '283', '284', '285', '289', '292', '298', '304', '305', '306', '322', '332', '333', '337', '345', '347', '350', '351', '354', '355', '361', '372', '382', '383', '387', '388', '394', '405', '406', '408', '409', '411', '416', '420', '428', '430', '431', '433', '438', '452', '453', '455', '456', '460', '466', '473', '474', '484', '485', '488', '498', '499', '507', '509', '515', '519', '526', '531', '538', '539', '547', '548', '550', '553', '562', '564', '567', '569', '576', '584', '595', '597', '603', '607', '615', '616', '617', '620', '630', '633', '646', '651', '659', '663', '666', '674', '675', '677', '684', '685', '687', '692', '693', '700', '709', '711', '712', '715', '724', '727', '747', '749', '750', '757', '761', '763', '764', '765', '776', '777', '782', '785', '786', '789', '791', '796', '797', '813', '816', '818', '822', '824', '825', '826', '833', '840', '843', '854', '855', '861', '864', '866', '870', '871', '878', '881', '888', '893', '900', '901', '910', '916', '920', '923', '925', '926', '929', '934', '936', '940', '946', '949', '950', '956', '958', '964', '971', '973', '974', '980', '985', '988', '1004', '1007', '1008', '1013', '1016', '1018', '1019', '1026', '1029', '1030', '1035', '1037', '1045', '1053', '1060', '1061', '1064', '1070', '1073', '1080', '1084', '1097', '1101', '1106', '1110', '1111', '1114', '1115', '1118', '1121', '1124', '1132', '1136', '1137', '1139', '1146', '1148', '1151', '1154', '1158', '1160', '1165', '1174', '1176', '1177', '1179', '1186', '1188', '1190', '1197', '1199', '1205', '1206', '1209', '1210', '1212', '1215', '1223', '1224', '1228', '1235', '1238', '1239', '1240', '1242', '1243', '1245', '1246', '1247', '1248', '1251', '1252', '1253', '1256', '1263', '1275', '1280', '1281', '1284', '1290', '1300', '1305', '1309', '1315', '1317', '1322', '1327', '1334', '1350', '1359', '1368', '1372', '1373', '1375', '1381', '1386', '1389', '1391', '1396', '1399', '1400', '1409', '1410', '1419', '1426', '1428', '1433', '1434', '1436', '1441', '1442', '1445', '1452', '1453', '1458', '1466', '1474', '1476', '1485', '1487', '1490', '1492', '1495', '1503', '1508', '1510', '1511', '1518', '1527', '1528', '1529', '1531', '1542', '1558', '1560', '1564', '1565', '1566', '1567', '1580', '1581', '1583', '1586', '1587', '1589', '1593', '1598', '1599', '1604', '1606', '1611', '1618', '1625', '1628', '1631', '1636', '1637', '1638', '1639', '1645', '1654', '1658', '1659', '1669', '1681', '1686', '1706', '1708', '1715', '1728', '1732', '1733', '1743', '1745', '1746', '1760', '1762', '1770', '1775', '1776', '1777', '1780', '1786', '1791', '1792', '1794', '1796', '1797', '1800', '1801', '1803', '1804', '1806', '1810', '1816', '1817', '1818', '1821', '1822', '1828', '1829', '1834', '1835', '1837', '1840', '1841', '1847', '1856', '1857', '1863', '1867', '1880', '1883', '1885', '1887', '1891', '1893', '1894', '1907', '1918', '1922', '1925', '1927', '1928', '1933', '1934', '1938', '1939', '1940', '1948', '1949', '1954', '1957', '1958', '1963', '1968', '1970', '1971', '1972', '1975', '1980', '1982', '1984', '1997', '1998', '2000']",False,2000,True,2,8a839ab5dd,0.0,1.0,1.0
./expes/v2_2021-03-23_issda-30_2000-prng-1-w2-p2,30_issda-2000,2000,first-2000,900,45,rng,num-start-1800,1800,25726,classic,1615.5254955291748,True,,True,1.0,1.0,1.0,1,"['1', '3', '4', '6', '7', '10', '11', '13', '20', '21', '22', '24', '25', '26', '27', '29', '31', '35', '38', '40', '42', '45', '49', '54', '56', '58', '59', '61', '62', '63', '64', '66', '67', '68', '70', '71', '73', '76', '78', '82', '85', '93', '94', '103', '104', '105', '106', '107', '111', '112', '116', '117', '118', '120', '121', '122', '123', '125', '126', '128', '130', '131', '133', '137', '140', '142', '143', '145', '147', '152', '153', '154', '156', '157', '159', '160', '161', '166', '170', '172', '176', '178', '180', '181', '183', '184', '185', '186', '190', '191', '192', '193', '194', '197', '200', '203', '206', '208', '209', '213', '214', '215', '216', '220', '223', '225', '227', '229', '230', '232', '233', '234', '235', '236', '240', '244', '245', '246', '248', '252', '253', '256', '258', '260', '261', '262', '263', '270', '272', '273', '276', '277', '278', '280', '281', '283', '286', '291', '292', '296', '297', '299', '302', '303', '306', '308', '309', '310', '312', '315', '316', '317', '318', '323', '324', '325', '329', '330', '333', '334', '335', '337', '346', '347', '349', '352', '353', '355', '359', '360', '361', '362', '364', '365', '368', '369', '373', '374', '376', '377', '379', '380', '381', '385', '386', '387', '391', '394', '395', '396', '397', '398', '402', '403', '404', '406', '407', '408', '412', '414', '418', '429', '430', '436', '439', '442', '443', '446', '449', '450', '453', '454', '457', '458', '461', '462', '463', '464', '472', '475', '476', '477', '479', '489', '493', '498', '499', '500', '501', '502', '503', '512', '513', '515', '516', '517', '519', '522', '523', '524', '525', '527', '536', '539', '540', '541', '542', '544', '545', '549', '552', '554', '557', '559', '560', '562', '563', '565', '567', '569', '570', '574', '577', '580', '586', '588', '593', '594', '596', '597', '598', '602', '603', '604', '613', '616', '620', '622', '623', '624', '625', '627', '634', '636', '640', '646', '649', '652', '655', '656', '657', '662', '663', '667', '671', '672', '674', '675', '678', '681', '682', '688', '689', '692', '693', '698', '704', '705', '709', '711', '717', '718', '719', '720', '721', '732', '736', '738', '739', '740', '741', '742', '743', '744', '745', '746', '747', '751', '752', '753', '759', '760', '761', '763', '765', '767', '768', '771', '772', '773', '774', '778', '779', '780', '781', '787', '788', '792', '796', '798', '799', '802', '806', '813', '815', '816', '817', '818', '819', '827', '829', '832', '834', '835', '838', '840', '841', '843', '844', '848', '849', '856', '859', '860', '864', '865', '867', '870', '872', '873', '874', '878', '879', '881', '882', '883', '887', '889', '893', '894', '897', '899', '900', '901', '903', '904', '909', '910', '912', '913', '914', '916', '919', '921', '925', '926', '928', '930', '933', '934', '938', '939', '944', '948', '950', '951', '954', '957', '960', '961', '964', '965', '968', '969', '971', '973', '974', '975', '978', '979', '980', '981', '982', '983', '984', '986', '989', '991', '994', '995', '996', '997', '999', '1000', '1001', '1002', '1007', '1008', '1013', '1015', '1018', '1019', '1022', '1024', '1025', '1026', '1029', '1030', '1032', '1033', '1035', '1038', '1039', '1040', '1052', '1055', '1056', '1059', '1060', '1065', '1066', '1068', '1069', '1070', '1075', '1076', '1077', '1078', '1080', '1081', '1088', '1089', '1090', '1093', '1097', '1099', '1100', '1102', '1103', '1105', '1107', '1109', '1110', '1112', '1113', '1114', '1116', '1117', '1118', '1121', '1129', '1130', '1134', '1139', '1141', '1143', '1144', '1145', '1147', '1149', '1154', '1155', '1156', '1158', '1165', '1166', '1167', '1169', '1172', '1173', '1174', '1175', '1176', '1180', '1182', '1187', '1196', '1198', '1202', '1204', '1205', '1206', '1207', '1208', '1210', '1212', '1213', '1214', '1215', '1217', '1218', '1219', '1220', '1221', '1224', '1228', '1233', '1234', '1236', '1239', '1243', '1244', '1246', '1247', '1248', '1250', '1253', '1254', '1255', '1257', '1258', '1259', '1262', '1263', '1266', '1267', '1268', '1269', '1271', '1274', '1275', '1278', '1281', '1282', '1283', '1284', '1287', '1288', '1289', '1292', '1293', '1298', '1300', '1301', '1306', '1307', '1308', '1310', '1311', '1312', '1313', '1315', '1317', '1319', '1320', '1321', '1322', '1323', '1324', '1327', '1328', '1331', '1333', '1334', '1335', '1340', '1341', '1343', '1344', '1345', '1351', '1355', '1356', '1357', '1358', '1359', '1360', '1361', '1362', '1366', '1367', '1369', '1371', '1373', '1375', '1380', '1385', '1387', '1390', '1391', '1394', '1395', '1397', '1401', '1405', '1406', '1409', '1411', '1414', '1415', '1416', '1418', '1421', '1422', '1423', '1425', '1430', '1433', '1436', '1437', '1438', '1439', '1442', '1444', '1446', '1449', '1451', '1457', '1459', '1460', '1462', '1463', '1465', '1468', '1470', '1472', '1473', '1474', '1478', '1480', '1483', '1484', '1488', '1489', '1490', '1491', '1492', '1493', '1494', '1495', '1499', '1500', '1503', '1504', '1505', '1506', '1510', '1511', '1514', '1516', '1518', '1522', '1524', '1526', '1527', '1529', '1530', '1534', '1537', '1539', '1542', '1543', '1547', '1548', '1551', '1553', '1555', '1556', '1557', '1561', '1562', '1563', '1564', '1565', '1567', '1568', '1571', '1572', '1574', '1576', '1577', '1578', '1585', '1588', '1591', '1592', '1594', '1595', '1596', '1598', '1603', '1606', '1611', '1613', '1620', '1621', '1625', '1626', '1628', '1629', '1631', '1632', '1634', '1639', '1640', '1642', '1643', '1646', '1647', '1649', '1650', '1651', '1652', '1656', '1658', '1662', '1663', '1667', '1670', '1671', '1672', '1673', '1675', '1676', '1677', '1680', '1684', '1692', '1696', '1697', '1699', '1701', '1703', '1705', '1706', '1709', '1712', '1715', '1717', '1718', '1722', '1724', '1725', '1729', '1730', '1731', '1741', '1747', '1748', '1751', '1752', '1758', '1760', '1761', '1765', '1770', '1773', '1777', '1781', '1782', '1783', '1785', '1787', '1793', '1795', '1800', '1801', '1803', '1807', '1808', '1809', '1810', '1811', '1813', '1819', '1821', '1822', '1823', '1824', '1825', '1828', '1829', '1830', '1831', '1836', '1841', '1842', '1843', '1846', '1849', '1850', '1853', '1854', '1860', '1862', '1863', '1865', '1867', '1868', '1870', '1871', '1877', '1878', '1881', '1883', '1884', '1887', '1889', '1891', '1893', '1894', '1898', '1899', '1900', '1902', '1903', '1911', '1913', '1914', '1919', '1921', '1922', '1925', '1927', '1931', '1933', '1936', '1937', '1941', '1942', '1943', '1946', '1948', '1949', '1950', '1954', '1963', '1969', '1971', '1972', '1975', '1976', '1977', '1978', '1979', '1981', '1982', '1984', '1985', '1986', '1987', '1988', '1989', '1990', '1992', '1994', '1995', '1997', '1998', '2000']",False,2000,True,2,c03ea846f6,0.0,1.0,1.0
./expes/v2_2021-03-23_issda-30_2000-prng-1-w2-p2,30_issda-2000,2000,first-2000,900,45,rng,num-start-3600,3600,25726,classic,2707.415895462036,True,,False,1.0,1.0,1.0,1,"['1', '2', '4', '6', '7', '11', '13', '19', '21', '24', '26', '27', '28', '30', '34', '35', '36', '38', '39', '41', '45', '47', '49', '52', '53', '55', '57', '58', '60', '61', '66', '68', '69', '70', '71', '74', '75', '76', '78', '81', '82', '86', '90', '93', '96', '97', '99', '100', '101', '104', '106', '107', '110', '111', '115', '117', '118', '121', '124', '125', '126', '129', '130', '131', '134', '136', '137', '138', '141', '146', '148', '155', '161', '162', '166', '168', '172', '173', '175', '178', '180', '183', '187', '188', '189', '193', '195', '196', '199', '202', '205', '209', '213', '219', '221', '222', '226', '227', '228', '231', '232', '236', '237', '238', '242', '243', '244', '250', '251', '253', '256', '257', '259', '260', '265', '266', '267', '268', '269', '270', '271', '272', '273', '274', '276', '280', '282', '284', '285', '287', '289', '290', '291', '292', '293', '294', '295', '299', '301', '304', '305', '306', '307', '309', '310', '312', '315', '317', '320', '322', '326', '327', '328', '329', '331', '332', '335', '339', '340', '341', '346', '347', '348', '351', '352', '354', '360', '361', '364', '366', '368', '369', '370', '371', '372', '373', '375', '378', '379', '380', '382', '386', '392', '393', '397', '399', '401', '403', '404', '407', '408', '410', '412', '413', '415', '419', '420', '425', '427', '428', '429', '434', '437', '440', '441', '442', '444', '449', '452', '457', '459', '464', '468', '472', '473', '474', '479', '481', '482', '483', '486', '487', '488', '489', '492', '493', '499', '502', '503', '504', '505', '510', '511', '513', '514', '515', '517', '521', '524', '525', '529', '533', '538', '540', '541', '543', '548', '549', '550', '555', '558', '561', '562', '565', '569', '571', '573', '574', '576', '579', '580', '581', '585', '586', '587', '588', '592', '593', '594', '595', '597', '600', '601', '602', '604', '605', '606', '607', '608', '612', '616', '617', '618', '620', '622', '627', '628', '630', '634', '635', '637', '639', '640', '641', '643', '645', '647', '648', '649', '650', '651', '654', '658', '662', '663', '665', '667', '668', '677', '678', '680', '683', '685', '689', '693', '694', '696', '697', '698', '700', '705', '706', '708', '713', '714', '715', '717', '718', '720', '721', '724', '726', '727', '728', '729', '731', '732', '733', '734', '735', '740', '741', '742', '743', '745', '746', '747', '750', '753', '756', '757', '761', '762', '764', '766', '767', '768', '770', '771', '772', '773', '775', '777', '778', '779', '780', '783', '784', '785', '787', '788', '790', '791', '797', '798', '799', '803', '804', '811', '814', '817', '822', '825', '827', '828', '830', '831', '832', '835', '836', '837', '839', '840', '841', '848', '850', '851', '854', '858', '859', '862', '864', '867', '872', '875', '876', '878', '879', '880', '882', '885', '887', '888', '890', '893', '897', '904', '905', '906', '909', '912', '914', '920', '922', '928', '929', '930', '934', '936', '945', '946', '947', '948', '949', '951', '953', '954', '958', '959', '961', '962', '963', '966', '967', '968', '970', '972', '973', '975', '977', '978', '980', '982', '983', '984', '985', '986', '987', '988', '989', '990', '991', '995', '997', '1000', '1003', '1004', '1006', '1007', '1008', '1009', '1011', '1017', '1019', '1020', '1023', '1025', '1030', '1036', '1038', '1042', '1050', '1051', '1056', '1058', '1059', '1060', '1062', '1063', '1070', '1075', '1081', '1085', '1086', '1087', '1089', '1090', '1091', '1093', '1100', '1102', '1103', '1105', '1106', '1109', '1110', '1111', '1114', '1117', '1118', '1121', '1123', '1124', '1125', '1127', '1130', '1131', '1133', '1134', '1136', '1137', '1138', '1139', '1142', '1146', '1148', '1151', '1155', '1156', '1158', '1159', '1165', '1170', '1171', '1174', '1175', '1176', '1178', '1179', '1182', '1185', '1190', '1193', '1197', '1200', '1201', '1202', '1204', '1208', '1209', '1210', '1214', '1217', '1219', '1221', '1222', '1226', '1230', '1231', '1236', '1237', '1241', '1246', '1247', '1251', '1253', '1254', '1257', '1259', '1260', '1264', '1265', '1266', '1269', '1271', '1272', '1274', '1275', '1276', '1278', '1279', '1280', '1281', '1282', '1284', '1285', '1290', '1292', '1293', '1295', '1305', '1308', '1312', '1316', '1320', '1321', '1323', '1326', '1327', '1328', '1329', '1330', '1331', '1332', '1334', '1336', '1339', '1340', '1342', '1343', '1344', '1345', '1352', '1353', '1355', '1356', '1357', '1360', '1363', '1364', '1365', '1368', '1369', '1370', '1374', '1376', '1377', '1380', '1382', '1385', '1389', '1394', '1395', '1396', '1397', '1398', '1399', '1404', '1405', '1408', '1409', '1410', '1411', '1412', '1415', '1417', '1423', '1424', '1425', '1427', '1428', '1429', '1435', '1437', '1439', '1441', '1443', '1444', '1445', '1446', '1448', '1450', '1451', '1453', '1460', '1461', '1464', '1467', '1468', '1471', '1472', '1474', '1475', '1476', '1477', '1478', '1480', '1481', '1485', '1487', '1488', '1489', '1491', '1494', '1495', '1496', '1498', '1499', '1500', '1501', '1509', '1512', '1514', '1516', '1517', '1518', '1520', '1521', '1523', '1526', '1527', '1533', '1536', '1537', '1538', '1541', '1548', '1549', '1553', '1555', '1556', '1558', '1561', '1565', '1567', '1569', '1572', '1574', '1576', '1577', '1582', '1585', '1587', '1589', '1590', '1595', '1596', '1598', '1599', '1600', '1601', '1602', '1609', '1610', '1614', '1620', '1622', '1627', '1628', '1629', '1631', '1632', '1633', '1634', '1636', '1642', '1643', '1645', '1648', '1650', '1654', '1655', '1663', '1664', '1665', '1666', '1668', '1673', '1675', '1677', '1679', '1681', '1682', '1684', '1689', '1693', '1694', '1697', '1700', '1703', '1706', '1707', '1711', '1712', '1713', '1714', '1715', '1718', '1722', '1723', '1724', '1725', '1727', '1729', '1731', '1738', '1739', '1745', '1746', '1749', '1751', '1753', '1755', '1759', '1761', '1769', '1775', '1776', '1777', '1778', '1779', '1780', '1782', '1785', '1787', '1793', '1795', '1796', '1800', '1803', '1804', '1808', '1814', '1819', '1821', '1822', '1823', '1826', '1827', '1829', '1830', '1831', '1833', '1836', '1837', '1841', '1846', '1848', '1850', '1865', '1866', '1867', '1868', '1870', '1872', '1874', '1877', '1878', '1881', '1887', '1888', '1889', '1892', '1893', '1894', '1899', '1904', '1906', '1915', '1916', '1917', '1918', '1920', '1921', '1923', '1924', '1925', '1926', '1927', '1928', '1930', '1931', '1932', '1935', '1936', '1937', '1945', '1946', '1948', '1949', '1950', '1951', '1953', '1955', '1956', '1957', '1959', '1960', '1961', '1963', '1966', '1967', '1968', '1969', '1970', '1973', '1976', '1977', '1980', '1982', '1983', '1984', '1986', '1990', '1992', '1993', '1994', '1998', '1999', '2000']",True,2000,True,2,3af353fd6c,0.0,0.0,1.0
./expes/v2_2021-03-23_issda-30_2000-prng-1-w2-p2,30_issda-2000,2000,first-2000,1000,50,rng,num-start-1000,1000,25726,classic,2204.4799609184265,True,,False,1.0,1.0,1.0,1,"['1', '3', '4', '7', '8', '9', '11', '14', '22', '24', '25', '26', '30', '32', '33', '35', '36', '38', '39', '40', '42', '44', '45', '47', '48', '49', '51', '53', '56', '57', '58', '60', '64', '67', '70', '71', '76', '77', '81', '82', '86', '87', '89', '90', '93', '96', '99', '101', '102', '104', '106', '107', '108', '111', '112', '114', '116', '117', '118', '119', '121', '122', '123', '124', '125', '127', '128', '129', '130', '132', '134', '136', '137', '138', '139', '141', '144', '145', '149', '150', '153', '154', '157', '158', '159', '165', '166', '167', '168', '170', '172', '173', '174', '175', '176', '177', '178', '182', '184', '185', '186', '187', '189', '190', '192', '193', '200', '201', '204', '208', '209', '210', '211', '212', '213', '215', '218', '224', '225', '226', '230', '231', '232', '237', '240', '242', '243', '246', '247', '248', '250', '251', '252', '254', '258', '261', '263', '265', '266', '268', '269', '272', '273', '274', '281', '282', '284', '286', '287', '289', '290', '291', '293', '295', '296', '297', '299', '300', '301', '302', '305', '306', '307', '309', '310', '311', '312', '317', '318', '320', '323', '326', '331', '332', '333', '334', '335', '338', '341', '343', '345', '349', '350', '353', '358', '361', '365', '366', '369', '371', '372', '374', '375', '376', '378', '380', '384', '385', '389', '391', '392', '393', '395', '397', '398', '399', '400', '401', '403', '406', '407', '409', '410', '411', '412', '414', '415', '417', '419', '421', '422', '426', '428', '430', '431', '432', '433', '436', '437', '440', '441', '443', '446', '447', '450', '451', '452', '453', '454', '456', '457', '458', '459', '465', '467', '469', '471', '473', '474', '476', '477', '478', '481', '489', '490', '491', '493', '497', '500', '501', '504', '506', '508', '509', '511', '513', '516', '517', '519', '521', '524', '527', '530', '531', '532', '533', '534', '535', '537', '539', '540', '541', '542', '543', '544', '545', '549', '551', '553', '554', '555', '556', '557', '564', '568', '569', '570', '571', '572', '573', '575', '578', '582', '583', '585', '587', '589', '590', '594', '596', '599', '600', '601', '605', '606', '610', '611', '614', '615', '616', '617', '618', '619', '621', '623', '624', '625', '630', '631', '632', '634', '635', '639', '640', '643', '644', '647', '648', '653', '654', '663', '664', '665', '667', '668', '670', '674', '676', '679', '680', '681', '682', '687', '692', '693', '695', '697', '701', '702', '704', '705', '706', '711', '712', '716', '718', '725', '728', '729', '731', '735', '737', '738', '739', '741', '743', '745', '746', '747', '748', '749', '750', '752', '755', '757', '759', '763', '765', '771', '772', '780', '781', '782', '784', '785', '788', '791', '793', '795', '796', '798', '800', '801', '802', '804', '805', '806', '807', '808', '809', '811', '812', '813', '815', '816', '818', '819', '820', '821', '823', '828', '829', '831', '832', '842', '844', '846', '848', '850', '851', '853', '854', '855', '856', '857', '859', '861', '862', '863', '864', '865', '870', '871', '872', '876', '877', '878', '880', '882', '883', '884', '885', '886', '889', '894', '896', '902', '903', '906', '908', '913', '914', '916', '917', '920', '921', '922', '924', '925', '927', '928', '929', '930', '935', '936', '937', '939', '940', '941', '943', '944', '946', '949', '952', '953', '954', '955', '956', '958', '959', '963', '968', '969', '970', '971', '972', '973', '974', '980', '981', '982', '984', '987', '988', '989', '990', '991', '994', '995', '996', '998', '1000', '1002', '1003', '1004', '1007', '1010', '1012', '1013', '1014', '1016', '1017', '1018', '1019', '1020', '1021', '1025', '1026', '1027', '1028', '1030', '1031', '1033', '1034', '1036', '1037', '1038', '1040', '1041', '1042', '1046', '1047', '1049', '1050', '1051', '1054', '1055', '1056', '1058', '1059', '1060', '1061', '1062', '1070', '1072', '1073', '1074', '1075', '1076', '1078', '1079', '1080', '1082', '1084', '1087', '1088', '1089', '1090', '1091', '1093', '1095', '1097', '1098', '1099', '1101', '1108', '1110', '1113', '1115', '1119', '1121', '1122', '1123', '1124', '1125', '1126', '1127', '1128', '1129', '1130', '1133', '1135', '1138', '1139', '1140', '1141', '1142', '1143', '1144', '1146', '1148', '1151', '1156', '1159', '1160', '1161', '1163', '1165', '1167', '1169', '1170', '1174', '1177', '1182', '1184', '1188', '1191', '1192', '1194', '1195', '1197', '1200', '1202', '1203', '1207', '1210', '1218', '1219', '1221', '1222', '1227', '1229', '1231', '1234', '1236', '1240', '1242', '1246', '1247', '1248', '1249', '1250', '1252', '1253', '1255', '1256', '1257', '1258', '1260', '1264', '1265', '1268', '1273', '1274', '1278', '1279', '1281', '1283', '1284', '1285', '1286', '1288', '1290', '1292', '1293', '1294', '1296', '1300', '1301', '1303', '1304', '1305', '1309', '1317', '1318', '1320', '1321', '1322', '1323', '1326', '1331', '1332', '1334', '1335', '1337', '1338', '1342', '1344', '1345', '1347', '1349', '1351', '1353', '1356', '1357', '1361', '1363', '1367', '1368', '1369', '1370', '1372', '1374', '1375', '1377', '1382', '1384', '1385', '1394', '1395', '1396', '1397', '1398', '1399', '1401', '1406', '1407', '1409', '1410', '1414', '1415', '1418', '1419', '1420', '1424', '1426', '1428', '1431', '1432', '1435', '1436', '1437', '1441', '1444', '1447', '1448', '1452', '1454', '1457', '1458', '1459', '1461', '1465', '1467', '1468', '1472', '1474', '1476', '1479', '1481', '1484', '1485', '1486', '1488', '1490', '1493', '1494', '1498', '1500', '1501', '1502', '1503', '1509', '1513', '1514', '1516', '1517', '1518', '1523', '1528', '1530', '1531', '1533', '1535', '1536', '1537', '1538', '1541', '1542', '1548', '1550', '1551', '1553', '1554', '1555', '1556', '1557', '1558', '1560', '1565', '1566', '1567', '1569', '1571', '1572', '1574', '1581', '1582', '1584', '1590', '1591', '1592', '1596', '1598', '1603', '1604', '1606', '1607', '1608', '1615', '1617', '1619', '1627', '1633', '1634', '1635', '1637', '1638', '1641', '1642', '1646', '1648', '1651', '1652', '1654', '1656', '1658', '1662', '1663', '1664', '1665', '1668', '1670', '1672', '1674', '1676', '1678', '1679', '1680', '1682', '1684', '1690', '1691', '1692', '1693', '1694', '1698', '1703', '1705', '1709', '1710', '1711', '1712', '1715', '1719', '1720', '1721', '1722', '1723', '1731', '1732', '1733', '1734', '1738', '1739', '1740', '1747', '1748', '1750', '1752', '1754', '1759', '1760', '1767', '1768', '1769', '1770', '1781', '1782', '1783', '1784', '1785', '1786', '1788', '1790', '1791', '1792', '1793', '1794', '1795', '1796', '1799', '1801', '1802', '1807', '1808', '1809', '1810', '1811', '1813', '1817', '1818', '1821', '1822', '1827', '1829', '1831', '1833', '1834', '1835', '1836', '1837', '1838', '1839', '1840', '1843', '1844', '1847', '1852', '1854', '1856', '1857', '1861', '1863', '1864', '1865', '1867', '1868', '1869', '1871', '1873', '1875', '1878', '1880', '1882', '1883', '1884', '1889', '1890', '1892', '1895', '1896', '1898', '1899', '1901', '1906', '1910', '1912', '1913', '1915', '1917', '1918', '1920', '1922', '1925', '1927', '1929', '1930', '1932', '1933', '1935', '1937', '1938', '1940', '1941', '1942', '1944', '1946', '1947', '1948', '1950', '1951', '1952', '1954', '1956', '1957', '1959', '1962', '1964', '1966', '1968', '1970', '1971', '1972', '1978', '1982', '1983', '1984', '1985', '1987', '1988', '1989', '1990', '1991', '1992', '1994', '1995', '1996', '1999', '2000']",True,2000,True,2,36a8dd9653,0.0,0.0,1.0
./expes/v2_2021-03-23_issda-30_2000-prng-1-w2-p2,30_issda-2000,2000,first-2000,200,10,rng,num-start-800,800,25726,classic,1529.127423286438,True,,True,1.0,1.0,1.0,1,"['15', '27', '32', '42', '59', '64', '65', '74', '87', '88', '91', '93', '130', '132', '135', '137', '158', '182', '200', '211', '214', '222', '244', '255', '268', '275', '279', '284', '309', '311', '320', '327', '335', '393', '405', '433', '445', '475', '476', '480', '484', '487', '488', '529', '532', '540', '547', '552', '556', '572', '573', '584', '598', '602', '617', '635', '643', '669', '678', '690', '696', '705', '719', '738', '749', '758', '772', '774', '791', '794', '799', '809', '814', '835', '836', '841', '851', '863', '875', '884', '894', '896', '911', '943', '961', '964', '969', '971', '976', '988', '991', '1014', '1036', '1039', '1066', '1068', '1072', '1094', '1097', '1108', '1110', '1115', '1126', '1129', '1146', '1166', '1172', '1175', '1176', '1182', '1190', '1197', '1199', '1201', '1211', '1214', '1219', '1220', '1229', '1237', '1240', '1241', '1251', '1259', '1271', '1282', '1284', '1297', '1300', '1301', '1309', '1319', '1343', '1375', '1376', '1377', '1395', '1397', '1413', '1425', '1431', '1462', '1463', '1466', '1469', '1472', '1473', '1476', '1492', '1519', '1553', '1560', '1575', '1592', '1596', '1598', '1615', '1640', '1641', '1662', '1687', '1704', '1707', '1714', '1716', '1749', '1752', '1754', '1763', '1764', '1765', '1773', '1776', '1778', '1782', '1788', '1800', '1805', '1837', '1838', '1852', '1853', '1862', '1876', '1885', '1887', '1889', '1897', '1903', '1917', '1918', '1927', '1944', '1961', '1964', '1975', '1976', '1978', '1990', '1993']",False,2000,True,2,c52e2ec6ef,0.0,1.0,1.0
./expes/v2_2021-03-23_issda-30_2000-prng-1-w2-p2,30_issda-2000,2000,first-2000,600,30,rng,num-start-3600,3600,25726,classic,2753.926063299179,True,,False,1.0,1.0,1.0,1,"['4', '8', '13', '14', '16', '18', '23', '26', '27', '35', '36', '39', '43', '45', '49', '51', '53', '56', '58', '59', '61', '63', '64', '67', '76', '78', '81', '82', '88', '90', '95', '101', '106', '107', '108', '109', '116', '117', '121', '125', '128', '132', '147', '148', '150', '153', '160', '169', '170', '172', '173', '179', '186', '187', '191', '199', '201', '202', '210', '211', '212', '218', '222', '225', '231', '232', '234', '238', '242', '245', '251', '253', '256', '258', '260', '265', '270', '276', '277', '279', '280', '282', '284', '291', '292', '293', '298', '301', '304', '318', '319', '330', '333', '335', '344', '348', '349', '351', '354', '361', '365', '368', '369', '373', '375', '377', '387', '388', '390', '393', '399', '401', '404', '405', '408', '409', '410', '411', '413', '419', '421', '424', '428', '429', '431', '433', '435', '439', '451', '452', '455', '458', '460', '463', '466', '467', '469', '471', '473', '475', '482', '489', '492', '495', '496', '504', '507', '512', '516', '517', '522', '523', '529', '532', '536', '538', '540', '545', '546', '549', '550', '551', '555', '561', '562', '567', '569', '570', '571', '572', '573', '578', '580', '584', '585', '597', '601', '607', '608', '611', '626', '630', '632', '635', '637', '638', '639', '640', '641', '648', '651', '658', '660', '661', '663', '671', '676', '681', '687', '690', '691', '696', '697', '699', '700', '702', '704', '705', '712', '714', '717', '718', '724', '725', '729', '730', '735', '738', '740', '741', '742', '743', '744', '745', '746', '747', '748', '749', '751', '753', '755', '761', '768', '776', '778', '781', '782', '788', '789', '790', '796', '797', '801', '805', '808', '810', '819', '821', '829', '831', '832', '834', '835', '837', '845', '850', '851', '856', '858', '861', '867', '868', '869', '875', '879', '881', '884', '886', '888', '892', '893', '901', '902', '909', '912', '919', '920', '934', '936', '941', '942', '943', '944', '952', '958', '962', '967', '972', '974', '976', '977', '978', '986', '989', '994', '995', '997', '1000', '1004', '1007', '1008', '1009', '1013', '1021', '1024', '1025', '1026', '1027', '1029', '1032', '1035', '1039', '1043', '1048', '1052', '1053', '1056', '1058', '1059', '1063', '1067', '1068', '1071', '1080', '1081', '1084', '1095', '1096', '1098', '1099', '1102', '1105', '1108', '1109', '1110', '1113', '1115', '1119', '1120', '1123', '1124', '1125', '1127', '1135', '1137', '1138', '1141', '1143', '1144', '1147', '1154', '1156', '1157', '1168', '1169', '1174', '1181', '1189', '1190', '1202', '1203', '1206', '1215', '1217', '1221', '1227', '1230', '1232', '1234', '1243', '1244', '1245', '1247', '1248', '1252', '1255', '1262', '1264', '1266', '1268', '1269', '1273', '1275', '1276', '1279', '1280', '1285', '1286', '1289', '1295', '1296', '1299', '1302', '1305', '1307', '1310', '1312', '1313', '1318', '1331', '1332', '1335', '1338', '1344', '1347', '1349', '1351', '1354', '1355', '1356', '1359', '1360', '1365', '1367', '1369', '1370', '1371', '1380', '1384', '1390', '1391', '1395', '1396', '1398', '1400', '1402', '1403', '1404', '1405', '1407', '1410', '1411', '1412', '1414', '1415', '1422', '1425', '1426', '1428', '1430', '1432', '1435', '1444', '1446', '1455', '1465', '1466', '1467', '1473', '1477', '1487', '1488', '1498', '1500', '1504', '1505', '1507', '1510', '1514', '1520', '1526', '1530', '1533', '1534', '1543', '1544', '1550', '1551', '1556', '1558', '1560', '1561', '1567', '1568', '1570', '1575', '1579', '1581', '1582', '1585', '1588', '1606', '1607', '1609', '1613', '1616', '1617', '1622', '1623', '1625', '1629', '1631', '1632', '1634', '1635', '1639', '1640', '1641', '1642', '1646', '1651', '1654', '1657', '1660', '1662', '1665', '1669', '1671', '1677', '1678', '1679', '1682', '1685', '1692', '1701', '1704', '1707', '1711', '1712', '1714', '1718', '1719', '1722', '1726', '1727', '1728', '1731', '1732', '1739', '1747', '1751', '1753', '1760', '1761', '1766', '1767', '1771', '1773', '1774', '1779', '1788', '1789', '1802', '1806', '1807', '1812', '1814', '1816', '1818', '1822', '1829', '1832', '1835', '1838', '1839', '1846', '1849', '1851', '1856', '1865', '1866', '1868', '1874', '1875', '1878', '1882', '1885', '1892', '1893', '1895', '1897', '1899', '1900', '1911', '1912', '1913', '1915', '1918', '1925', '1928', '1933', '1934', '1939', '1941', '1945', '1951', '1952', '1958', '1959', '1964', '1968', '1971', '1972', '1975', '1978', '1982', '1989', '1990', '1992', '2000']",True,2000,True,2,8da5869e71,0.0,0.0,1.0
