expe,clients,clients_size,clients_subset,agg_size,agg_size_pc,method,days,days_size,days_total,noise_method,time,valid,valid_sum,success,score_avg,score_min,score_max,nsols,oracle,wall_hit,wall_time,pooled,pool_size,uuid,infeasible,optimal,valid_sums
./expes/v2_2021-03-23_issda-30_2000-prng-1-w2-p2,30_issda-2000,2000,first-2000,100,5,rng,num-start-600,600,25726,classic,333.50156235694885,True,,True,1.0,1.0,1.0,1,"['6', '15', '35', '47', '89', '145', '151', '202', '204', '215', '221', '234', '246', '248', '276', '284', '304', '325', '376', '393', '409', '413', '415', '425', '477', '534', '535', '549', '593', '613', '638', '667', '671', '712', '756', '796', '800', '806', '812', '833', '844', '849', '867', '878', '902', '931', '934', '939', '983', '984', '1011', '1012', '1025', '1029', '1048', '1066', '1084', '1110', '1111', '1117', '1121', '1166', '1169', '1181', '1186', '1198', '1217', '1219', '1265', '1283', '1305', '1349', '1387', '1445', '1491', '1498', '1503', '1548', '1584', '1587', '1608', '1622', '1642', '1645', '1689', '1708', '1710', '1747', '1774', '1801', '1824', '1834', '1836', '1838', '1856', '1874', '1885', '1954', '1960', '1983']",False,2000,True,2,fbac0e9cd8,0.0,1.0,1.0
./expes/v2_2021-03-23_issda-30_2000-prng-1-w2-p2,30_issda-2000,2000,first-2000,800,40,rng,num-start-2400,2400,25726,classic,1936.6050670146942,True,,True,1.0,1.0,1.0,1,"['2', '4', '6', '7', '10', '12', '15', '17', '18', '20', '22', '27', '32', '37', '38', '39', '41', '42', '48', '53', '55', '58', '62', '65', '66', '70', '71', '73', '76', '77', '79', '80', '83', '84', '85', '88', '89', '92', '95', '97', '106', '109', '110', '114', '121', '122', '124', '126', '127', '128', '131', '136', '137', '138', '139', '142', '147', '153', '154', '156', '158', '159', '160', '162', '164', '167', '168', '170', '171', '175', '176', '178', '182', '183', '185', '188', '189', '191', '192', '195', '199', '202', '207', '212', '213', '218', '220', '227', '232', '233', '234', '235', '238', '240', '243', '248', '250', '251', '262', '267', '272', '273', '280', '283', '285', '289', '291', '295', '297', '298', '305', '306', '307', '313', '314', '316', '318', '320', '321', '322', '323', '325', '326', '331', '332', '334', '335', '338', '339', '340', '341', '343', '345', '346', '348', '349', '353', '354', '355', '358', '359', '362', '363', '364', '365', '368', '370', '374', '377', '380', '385', '392', '393', '397', '400', '401', '402', '405', '407', '411', '412', '414', '416', '418', '421', '425', '426', '427', '431', '432', '433', '434', '435', '437', '440', '441', '442', '443', '448', '449', '453', '455', '456', '464', '469', '470', '472', '474', '475', '476', '478', '479', '484', '487', '489', '496', '497', '501', '503', '507', '510', '511', '512', '513', '515', '516', '519', '520', '521', '524', '525', '527', '528', '529', '530', '532', '534', '536', '537', '538', '540', '550', '552', '555', '557', '562', '566', '567', '569', '571', '573', '574', '575', '580', '582', '585', '586', '589', '591', '592', '593', '594', '595', '596', '598', '599', '600', '601', '607', '609', '611', '612', '613', '615', '616', '620', '621', '622', '623', '625', '626', '630', '632', '635', '638', '639', '640', '641', '642', '645', '646', '648', '649', '657', '658', '659', '660', '661', '662', '663', '666', '669', '670', '673', '676', '678', '679', '689', '690', '692', '694', '695', '697', '698', '703', '707', '711', '712', '718', '724', '729', '731', '732', '736', '737', '738', '742', '743', '745', '747', '748', '750', '753', '762', '763', '770', '778', '781', '782', '793', '794', '795', '796', '800', '802', '803', '804', '809', '811', '812', '815', '820', '821', '823', '825', '826', '827', '828', '832', '834', '839', '841', '843', '844', '845', '846', '847', '848', '850', '852', '855', '861', '863', '866', '867', '868', '869', '877', '881', '883', '888', '889', '893', '896', '898', '899', '900', '901', '903', '904', '906', '909', '910', '925', '926', '927', '930', '932', '934', '939', '940', '941', '948', '952', '957', '966', '968', '970', '973', '976', '977', '978', '979', '980', '981', '982', '991', '992', '997', '1002', '1004', '1005', '1008', '1012', '1013', '1015', '1017', '1021', '1022', '1023', '1030', '1037', '1038', '1040', '1042', '1043', '1044', '1046', '1047', '1048', '1050', '1055', '1063', '1064', '1066', '1067', '1072', '1074', '1077', '1078', '1079', '1080', '1082', '1084', '1085', '1087', '1091', '1095', '1100', '1101', '1103', '1107', '1110', '1113', '1115', '1117', '1118', '1119', '1121', '1122', '1126', '1128', '1132', '1134', '1144', '1147', '1149', '1150', '1152', '1158', '1164', '1166', '1167', '1168', '1171', '1173', '1174', '1176', '1180', '1186', '1192', '1193', '1194', '1197', '1203', '1205', '1206', '1211', '1218', '1220', '1223', '1225', '1227', '1230', '1231', '1233', '1237', '1239', '1241', '1243', '1246', '1248', '1249', '1250', '1256', '1260', '1261', '1265', '1266', '1269', '1270', '1271', '1272', '1275', '1277', '1281', '1283', '1284', '1285', '1286', '1288', '1292', '1294', '1295', '1296', '1300', '1301', '1305', '1311', '1313', '1314', '1316', '1318', '1322', '1323', '1325', '1326', '1328', '1335', '1336', '1338', '1340', '1341', '1342', '1346', '1349', '1353', '1354', '1356', '1367', '1369', '1370', '1376', '1380', '1383', '1384', '1385', '1386', '1387', '1393', '1395', '1398', '1400', '1405', '1409', '1415', '1420', '1421', '1425', '1427', '1429', '1431', '1436', '1438', '1441', '1443', '1444', '1447', '1448', '1451', '1453', '1456', '1457', '1461', '1462', '1466', '1470', '1472', '1474', '1478', '1483', '1498', '1499', '1502', '1506', '1510', '1512', '1513', '1526', '1527', '1528', '1529', '1530', '1533', '1537', '1539', '1545', '1546', '1548', '1553', '1554', '1557', '1566', '1568', '1571', '1573', '1577', '1580', '1582', '1585', '1586', '1588', '1591', '1594', '1597', '1601', '1603', '1604', '1606', '1607', '1611', '1612', '1613', '1616', '1617', '1619', '1620', '1626', '1631', '1634', '1635', '1636', '1638', '1640', '1641', '1642', '1644', '1645', '1648', '1653', '1654', '1657', '1659', '1665', '1669', '1671', '1675', '1676', '1677', '1681', '1687', '1690', '1691', '1692', '1694', '1695', '1698', '1700', '1702', '1703', '1704', '1708', '1709', '1710', '1714', '1716', '1719', '1720', '1722', '1725', '1729', '1730', '1731', '1736', '1737', '1738', '1747', '1751', '1753', '1754', '1757', '1758', '1759', '1761', '1765', '1766', '1767', '1770', '1771', '1773', '1777', '1781', '1782', '1784', '1790', '1791', '1792', '1795', '1796', '1798', '1800', '1801', '1803', '1804', '1805', '1807', '1809', '1814', '1816', '1817', '1821', '1822', '1823', '1824', '1825', '1827', '1828', '1830', '1832', '1835', '1837', '1838', '1842', '1843', '1845', '1846', '1848', '1850', '1852', '1853', '1854', '1859', '1861', '1862', '1865', '1866', '1867', '1868', '1870', '1871', '1873', '1875', '1876', '1878', '1880', '1885', '1887', '1889', '1890', '1893', '1894', '1896', '1900', '1901', '1902', '1905', '1906', '1909', '1911', '1914', '1915', '1916', '1918', '1919', '1920', '1921', '1925', '1927', '1930', '1932', '1934', '1935', '1942', '1945', '1946', '1948', '1951', '1953', '1955', '1956', '1957', '1959', '1965', '1966', '1967', '1968', '1970', '1972', '1976', '1977', '1979', '1984', '1986', '1988', '1989', '1991', '1994', '1995', '1997', '1998']",False,2000,True,2,baad5c9838,0.0,1.0,1.0
./expes/v2_2021-03-23_issda-30_2000-prng-1-w2-p2,30_issda-2000,2000,first-2000,700,35,rng,num-start-4000,4000,25726,classic,2325.8123676776886,True,,False,1.0,1.0,1.0,1,"['1', '2', '10', '11', '14', '20', '23', '24', '25', '26', '30', '31', '32', '33', '34', '35', '37', '40', '41', '44', '46', '47', '48', '50', '51', '57', '59', '61', '62', '65', '69', '72', '73', '74', '75', '77', '80', '84', '85', '86', '87', '91', '92', '96', '97', '98', '108', '122', '123', '124', '130', '132', '135', '137', '138', '141', '142', '144', '145', '148', '149', '150', '151', '152', '153', '154', '155', '160', '161', '165', '170', '171', '172', '174', '175', '177', '179', '180', '181', '185', '186', '189', '191', '193', '197', '199', '203', '206', '207', '213', '215', '218', '221', '222', '223', '224', '232', '235', '237', '239', '242', '250', '252', '253', '259', '261', '266', '267', '269', '270', '272', '275', '276', '278', '279', '280', '284', '288', '289', '290', '291', '294', '300', '301', '305', '316', '319', '323', '325', '327', '328', '337', '342', '347', '348', '355', '360', '361', '364', '366', '367', '371', '375', '378', '379', '382', '384', '386', '388', '389', '390', '391', '393', '398', '399', '401', '403', '404', '405', '406', '407', '409', '411', '412', '415', '418', '419', '420', '427', '428', '430', '432', '435', '436', '437', '438', '439', '443', '447', '448', '450', '454', '459', '464', '466', '468', '471', '472', '477', '479', '487', '489', '491', '495', '496', '497', '498', '501', '505', '511', '514', '521', '523', '524', '525', '526', '527', '529', '532', '533', '537', '546', '552', '553', '558', '560', '564', '567', '570', '574', '576', '578', '582', '592', '595', '596', '601', '603', '607', '617', '622', '623', '624', '633', '635', '636', '637', '638', '639', '646', '647', '649', '650', '654', '657', '660', '669', '670', '674', '677', '678', '682', '687', '690', '696', '700', '701', '702', '703', '704', '709', '712', '714', '719', '721', '726', '728', '733', '740', '742', '754', '756', '762', '769', '770', '772', '773', '777', '781', '784', '786', '788', '791', '792', '795', '796', '800', '803', '806', '808', '809', '812', '814', '821', '825', '828', '829', '830', '834', '840', '841', '842', '843', '847', '848', '853', '855', '859', '860', '862', '864', '879', '883', '889', '891', '895', '900', '902', '903', '905', '906', '913', '915', '917', '923', '926', '927', '928', '929', '932', '937', '938', '940', '948', '950', '951', '953', '954', '963', '964', '966', '968', '970', '973', '974', '975', '976', '982', '985', '986', '988', '989', '991', '996', '998', '999', '1006', '1009', '1010', '1012', '1017', '1019', '1020', '1021', '1022', '1024', '1025', '1030', '1031', '1034', '1036', '1041', '1043', '1046', '1049', '1050', '1051', '1054', '1055', '1057', '1058', '1062', '1063', '1064', '1065', '1066', '1069', '1071', '1074', '1076', '1079', '1083', '1085', '1087', '1088', '1092', '1094', '1096', '1097', '1098', '1100', '1103', '1104', '1106', '1109', '1112', '1113', '1115', '1116', '1119', '1127', '1128', '1129', '1130', '1135', '1145', '1146', '1147', '1151', '1153', '1154', '1156', '1160', '1165', '1168', '1169', '1172', '1174', '1177', '1182', '1186', '1190', '1193', '1194', '1195', '1197', '1202', '1203', '1209', '1211', '1214', '1220', '1222', '1226', '1229', '1232', '1233', '1236', '1237', '1240', '1245', '1247', '1249', '1250', '1251', '1253', '1257', '1258', '1259', '1261', '1262', '1266', '1270', '1275', '1277', '1280', '1282', '1285', '1286', '1287', '1289', '1290', '1291', '1293', '1297', '1299', '1300', '1303', '1304', '1308', '1309', '1310', '1311', '1312', '1313', '1315', '1319', '1330', '1332', '1334', '1337', '1339', '1340', '1342', '1346', '1352', '1357', '1364', '1375', '1377', '1383', '1389', '1390', '1397', '1398', '1402', '1403', '1404', '1405', '1407', '1408', '1412', '1416', '1421', '1422', '1429', '1431', '1434', '1436', '1437', '1438', '1442', '1443', '1444', '1448', '1450', '1452', '1457', '1463', '1467', '1470', '1472', '1476', '1479', '1480', '1482', '1486', '1489', '1492', '1493', '1497', '1499', '1501', '1506', '1510', '1514', '1515', '1516', '1518', '1534', '1537', '1544', '1546', '1547', '1549', '1553', '1561', '1570', '1574', '1576', '1583', '1594', '1595', '1596', '1598', '1600', '1614', '1618', '1620', '1622', '1625', '1632', '1633', '1635', '1637', '1639', '1640', '1641', '1645', '1646', '1647', '1651', '1654', '1658', '1659', '1660', '1671', '1675', '1676', '1679', '1682', '1684', '1687', '1688', '1690', '1698', '1700', '1701', '1702', '1703', '1704', '1705', '1706', '1715', '1717', '1719', '1721', '1725', '1726', '1728', '1732', '1734', '1736', '1739', '1743', '1744', '1745', '1746', '1750', '1752', '1753', '1755', '1756', '1769', '1770', '1771', '1774', '1775', '1777', '1782', '1785', '1788', '1800', '1801', '1802', '1803', '1807', '1813', '1818', '1821', '1824', '1825', '1827', '1829', '1835', '1836', '1844', '1845', '1846', '1849', '1854', '1855', '1856', '1858', '1861', '1864', '1865', '1867', '1873', '1874', '1876', '1879', '1884', '1885', '1886', '1890', '1892', '1893', '1895', '1896', '1899', '1904', '1906', '1907', '1909', '1910', '1914', '1917', '1918', '1926', '1928', '1934', '1937', '1940', '1944', '1946', '1956', '1960', '1961', '1963', '1965', '1972', '1974', '1975', '1976', '1984', '1986', '1989', '1993', '1997']",True,2000,True,2,04630935cf,0.0,0.0,1.0
./expes/v2_2021-03-23_issda-30_2000-prng-1-w2-p2,30_issda-2000,2000,first-2000,400,20,rng,num-start-2400,2400,25726,classic,1345.3883781433105,True,,True,1.0,1.0,1.0,1,"['6', '9', '11', '16', '31', '33', '34', '52', '66', '67', '68', '71', '73', '76', '90', '91', '92', '95', '104', '110', '114', '129', '133', '134', '135', '144', '148', '152', '156', '164', '166', '172', '183', '190', '196', '197', '198', '203', '217', '223', '232', '238', '239', '245', '273', '275', '279', '285', '286', '290', '294', '307', '312', '315', '321', '325', '329', '334', '338', '340', '341', '346', '357', '358', '361', '366', '374', '382', '391', '392', '393', '394', '397', '399', '400', '401', '410', '413', '423', '426', '428', '430', '451', '459', '460', '483', '487', '489', '491', '492', '494', '495', '497', '503', '505', '512', '522', '531', '537', '538', '540', '545', '547', '557', '563', '568', '569', '579', '581', '585', '593', '603', '607', '617', '620', '621', '628', '631', '632', '644', '655', '660', '662', '665', '672', '673', '680', '695', '700', '703', '712', '713', '715', '716', '717', '728', '738', '740', '743', '747', '750', '752', '766', '767', '769', '782', '783', '788', '795', '800', '804', '813', '821', '822', '829', '830', '837', '846', '849', '851', '852', '861', '862', '863', '864', '867', '868', '869', '874', '879', '888', '891', '892', '893', '894', '899', '900', '901', '904', '905', '913', '915', '916', '917', '918', '923', '930', '934', '936', '939', '940', '946', '948', '950', '956', '963', '977', '978', '981', '983', '984', '989', '994', '1003', '1004', '1007', '1016', '1018', '1023', '1024', '1027', '1028', '1038', '1040', '1065', '1066', '1067', '1069', '1070', '1071', '1072', '1076', '1093', '1097', '1099', '1104', '1106', '1109', '1116', '1125', '1128', '1138', '1139', '1145', '1156', '1162', '1167', '1168', '1171', '1172', '1177', '1179', '1184', '1194', '1198', '1203', '1206', '1212', '1216', '1219', '1220', '1224', '1232', '1234', '1235', '1236', '1241', '1243', '1246', '1249', '1250', '1257', '1265', '1268', '1285', '1288', '1310', '1317', '1329', '1331', '1335', '1336', '1338', '1339', '1348', '1353', '1356', '1361', '1366', '1373', '1380', '1381', '1383', '1395', '1402', '1405', '1408', '1413', '1424', '1430', '1438', '1460', '1471', '1475', '1476', '1479', '1480', '1488', '1503', '1508', '1515', '1517', '1523', '1524', '1526', '1527', '1535', '1539', '1556', '1565', '1571', '1573', '1579', '1582', '1583', '1584', '1587', '1589', '1593', '1604', '1612', '1616', '1620', '1626', '1633', '1638', '1641', '1648', '1654', '1659', '1661', '1664', '1666', '1673', '1674', '1676', '1682', '1687', '1688', '1694', '1695', '1698', '1699', '1707', '1714', '1725', '1729', '1736', '1737', '1744', '1748', '1752', '1759', '1762', '1766', '1768', '1772', '1781', '1785', '1786', '1792', '1818', '1819', '1821', '1830', '1837', '1839', '1840', '1853', '1856', '1860', '1863', '1865', '1866', '1870', '1871', '1874', '1884', '1886', '1890', '1893', '1911', '1917', '1928', '1932', '1937', '1941', '1948', '1951', '1952', '1956', '1971', '1974', '1976', '1984', '1986', '1987', '1988', '1995', '1997']",False,2000,True,2,8f7100e144,0.0,1.0,1.0
./expes/v2_2021-03-23_issda-30_2000-prng-1-w2-p2,30_issda-2000,2000,first-2000,200,10,rng,num-start-3800,3800,25726,classic,2018.6754002571106,True,,True,1.0,1.0,1.0,1,"['12', '13', '14', '18', '38', '162', '179', '182', '190', '208', '236', '242', '252', '259', '265', '270', '273', '294', '298', '300', '303', '312', '329', '334', '347', '358', '372', '375', '389', '402', '406', '411', '413', '414', '418', '424', '443', '452', '481', '487', '491', '512', '520', '528', '532', '542', '543', '553', '555', '558', '577', '606', '613', '618', '621', '665', '686', '688', '694', '696', '702', '709', '722', '739', '749', '790', '806', '813', '820', '828', '829', '831', '832', '834', '851', '853', '865', '868', '874', '889', '895', '920', '939', '940', '962', '967', '978', '979', '980', '983', '984', '1003', '1007', '1012', '1016', '1026', '1040', '1052', '1054', '1070', '1079', '1091', '1095', '1102', '1109', '1114', '1116', '1124', '1131', '1140', '1144', '1145', '1164', '1171', '1174', '1176', '1179', '1186', '1206', '1216', '1229', '1244', '1251', '1252', '1261', '1287', '1290', '1293', '1326', '1328', '1336', '1347', '1355', '1383', '1388', '1393', '1396', '1401', '1406', '1412', '1417', '1432', '1438', '1444', '1449', '1452', '1467', '1490', '1496', '1505', '1513', '1522', '1549', '1553', '1562', '1574', '1575', '1578', '1581', '1584', '1605', '1613', '1620', '1623', '1625', '1627', '1652', '1654', '1660', '1662', '1663', '1674', '1676', '1688', '1691', '1695', '1706', '1712', '1713', '1729', '1733', '1736', '1769', '1774', '1780', '1789', '1811', '1817', '1825', '1827', '1841', '1842', '1865', '1869', '1891', '1910', '1934', '1950', '1981', '1999']",False,2000,True,2,f8e9f181e2,0.0,1.0,1.0
./expes/v2_2021-03-23_issda-30_2000-prng-1-w2-p2,30_issda-2000,2000,first-2000,400,20,rng,num-start-3400,3400,25726,classic,2278.3273360729218,True,,False,1.0,1.0,1.0,1,"['2', '8', '11', '14', '17', '18', '25', '27', '31', '36', '38', '49', '53', '54', '59', '60', '61', '62', '70', '71', '74', '84', '85', '89', '97', '100', '104', '106', '108', '109', '111', '113', '124', '125', '130', '132', '133', '135', '136', '137', '141', '142', '153', '155', '166', '167', '170', '171', '172', '173', '174', '178', '180', '182', '192', '197', '204', '205', '209', '212', '213', '218', '223', '226', '227', '228', '229', '230', '242', '246', '247', '249', '263', '266', '272', '273', '282', '283', '284', '285', '289', '292', '298', '304', '305', '306', '322', '332', '333', '337', '345', '347', '351', '354', '355', '361', '372', '382', '388', '394', '405', '406', '408', '409', '411', '416', '420', '428', '430', '431', '438', '453', '455', '456', '460', '473', '474', '484', '485', '488', '498', '499', '509', '531', '538', '539', '547', '548', '550', '553', '562', '567', '569', '576', '584', '595', '597', '603', '607', '616', '630', '633', '659', '666', '674', '677', '684', '685', '693', '700', '709', '712', '715', '727', '749', '750', '757', '761', '763', '764', '765', '776', '777', '782', '785', '786', '791', '796', '797', '813', '816', '822', '824', '825', '833', '840', '843', '861', '864', '866', '870', '871', '878', '888', '893', '910', '920', '923', '925', '926', '929', '936', '940', '949', '950', '958', '964', '971', '973', '980', '985', '988', '1004', '1007', '1008', '1013', '1016', '1018', '1019', '1026', '1030', '1035', '1037', '1045', '1060', '1070', '1073', '1080', '1084', '1097', '1101', '1106', '1111', '1115', '1118', '1121', '1124', '1136', '1137', '1139', '1146', '1148', '1151', '1158', '1160', '1174', '1176', '1177', '1179', '1186', '1188', '1190', '1197', '1199', '1205', '1206', '1209', '1210', '1212', '1215', '1223', '1224', '1235', '1239', '1242', '1243', '1245', '1246', '1247', '1248', '1252', '1253', '1256', '1263', '1275', '1280', '1284', '1290', '1300', '1305', '1309', '1315', '1317', '1322', '1327', '1334', '1359', '1368', '1375', '1381', '1386', '1389', '1391', '1400', '1409', '1410', '1419', '1426', '1433', '1434', '1436', '1441', '1442', '1445', '1452', '1453', '1466', '1474', '1476', '1485', '1487', '1490', '1492', '1495', '1508', '1510', '1511', '1518', '1527', '1528', '1529', '1531', '1542', '1558', '1566', '1567', '1581', '1583', '1586', '1587', '1589', '1593', '1598', '1599', '1604', '1606', '1611', '1618', '1625', '1628', '1631', '1636', '1638', '1645', '1654', '1658', '1659', '1669', '1681', '1686', '1706', '1728', '1732', '1733', '1743', '1745', '1746', '1760', '1762', '1770', '1775', '1777', '1780', '1786', '1791', '1794', '1797', '1800', '1801', '1803', '1806', '1816', '1817', '1818', '1821', '1822', '1828', '1829', '1834', '1835', '1840', '1856', '1857', '1863', '1867', '1880', '1883', '1887', '1891', '1893', '1918', '1922', '1925', '1928', '1938', '1939', '1940', '1948', '1949', '1954', '1957', '1958', '1963', '1970', '1972', '1975', '1980', '1984', '1998', '2000']",True,2000,True,2,3c55e180a8,0.0,0.0,1.0
./expes/v2_2021-03-23_issda-30_2000-prng-1-w2-p2,30_issda-2000,2000,first-2000,800,40,rng,num-start-1600,1600,25726,classic,1692.3271086215973,True,,True,1.0,1.0,1.0,1,"['1', '2', '10', '11', '14', '20', '22', '23', '24', '25', '26', '28', '30', '31', '32', '33', '34', '35', '37', '40', '41', '44', '46', '47', '48', '50', '51', '57', '59', '61', '62', '65', '69', '72', '73', '74', '75', '77', '80', '84', '85', '86', '87', '91', '92', '96', '97', '98', '102', '104', '108', '122', '123', '124', '127', '130', '132', '135', '137', '138', '141', '142', '144', '145', '148', '149', '150', '151', '152', '153', '154', '155', '158', '159', '160', '161', '165', '170', '171', '172', '174', '175', '177', '179', '180', '181', '185', '186', '189', '191', '193', '195', '196', '197', '199', '202', '203', '206', '207', '213', '215', '218', '221', '222', '223', '224', '232', '235', '236', '237', '239', '242', '245', '250', '252', '253', '259', '261', '266', '267', '269', '270', '272', '273', '275', '276', '278', '279', '280', '284', '288', '289', '290', '291', '294', '300', '301', '305', '316', '319', '323', '324', '325', '327', '328', '337', '339', '342', '347', '348', '354', '355', '360', '361', '364', '366', '367', '371', '372', '373', '375', '378', '379', '382', '384', '386', '388', '389', '390', '391', '392', '393', '398', '399', '400', '401', '403', '404', '405', '406', '407', '409', '411', '412', '415', '418', '419', '420', '424', '427', '428', '430', '431', '432', '435', '436', '437', '438', '439', '443', '447', '448', '450', '454', '459', '464', '466', '468', '471', '472', '476', '477', '479', '486', '487', '489', '491', '495', '496', '497', '498', '501', '505', '511', '514', '521', '523', '524', '525', '526', '527', '529', '530', '532', '533', '537', '546', '552', '553', '558', '560', '564', '565', '567', '570', '573', '574', '576', '578', '580', '582', '592', '595', '596', '601', '603', '607', '613', '617', '618', '622', '623', '624', '633', '635', '636', '637', '638', '639', '646', '647', '649', '650', '654', '657', '660', '663', '669', '670', '674', '676', '677', '678', '682', '687', '690', '692', '696', '699', '700', '701', '702', '703', '704', '709', '712', '714', '719', '721', '726', '727', '728', '729', '733', '737', '740', '742', '754', '756', '758', '759', '762', '765', '769', '770', '772', '773', '777', '781', '784', '786', '788', '791', '792', '795', '796', '798', '800', '801', '803', '806', '808', '809', '810', '812', '814', '821', '823', '825', '828', '829', '830', '831', '832', '834', '836', '840', '841', '842', '843', '847', '848', '852', '853', '855', '859', '860', '862', '864', '874', '879', '881', '883', '885', '889', '891', '895', '900', '902', '903', '905', '906', '909', '913', '915', '917', '923', '926', '927', '928', '929', '930', '932', '937', '938', '940', '947', '948', '950', '951', '953', '954', '957', '961', '963', '964', '966', '968', '970', '973', '974', '975', '976', '982', '985', '986', '988', '989', '991', '996', '998', '999', '1006', '1009', '1010', '1012', '1017', '1019', '1020', '1021', '1022', '1024', '1025', '1030', '1031', '1033', '1034', '1036', '1041', '1043', '1046', '1049', '1050', '1051', '1054', '1055', '1056', '1057', '1058', '1062', '1063', '1064', '1065', '1066', '1067', '1069', '1071', '1074', '1076', '1079', '1083', '1085', '1087', '1088', '1092', '1094', '1096', '1097', '1098', '1100', '1103', '1104', '1106', '1107', '1109', '1112', '1113', '1115', '1116', '1119', '1127', '1128', '1129', '1130', '1135', '1145', '1146', '1147', '1151', '1153', '1154', '1156', '1160', '1164', '1165', '1167', '1168', '1169', '1172', '1174', '1177', '1178', '1182', '1186', '1188', '1190', '1193', '1194', '1195', '1197', '1198', '1202', '1203', '1209', '1211', '1214', '1220', '1222', '1226', '1228', '1229', '1231', '1232', '1233', '1236', '1237', '1239', '1240', '1245', '1247', '1249', '1250', '1251', '1253', '1257', '1258', '1259', '1261', '1262', '1266', '1270', '1275', '1277', '1278', '1280', '1282', '1285', '1286', '1287', '1289', '1290', '1291', '1293', '1297', '1299', '1300', '1303', '1304', '1308', '1309', '1310', '1311', '1312', '1313', '1315', '1316', '1319', '1328', '1330', '1332', '1334', '1337', '1339', '1340', '1342', '1346', '1352', '1357', '1364', '1365', '1375', '1377', '1379', '1383', '1389', '1390', '1395', '1397', '1398', '1402', '1403', '1404', '1405', '1407', '1408', '1412', '1416', '1421', '1422', '1423', '1429', '1431', '1434', '1436', '1437', '1438', '1442', '1443', '1444', '1448', '1450', '1452', '1457', '1463', '1467', '1470', '1472', '1476', '1479', '1480', '1482', '1486', '1489', '1492', '1493', '1497', '1499', '1501', '1506', '1510', '1514', '1515', '1516', '1518', '1522', '1525', '1534', '1537', '1544', '1546', '1547', '1549', '1553', '1560', '1561', '1562', '1567', '1568', '1570', '1572', '1574', '1576', '1583', '1594', '1595', '1596', '1598', '1600', '1614', '1618', '1620', '1622', '1623', '1625', '1632', '1633', '1635', '1637', '1639', '1640', '1641', '1642', '1645', '1646', '1647', '1649', '1651', '1654', '1658', '1659', '1660', '1669', '1671', '1675', '1676', '1679', '1682', '1684', '1687', '1688', '1690', '1698', '1700', '1701', '1702', '1703', '1704', '1705', '1706', '1715', '1717', '1719', '1721', '1725', '1726', '1728', '1730', '1732', '1734', '1736', '1739', '1743', '1744', '1745', '1746', '1750', '1752', '1753', '1755', '1756', '1763', '1769', '1770', '1771', '1774', '1775', '1777', '1782', '1785', '1788', '1794', '1800', '1801', '1802', '1803', '1807', '1813', '1818', '1819', '1821', '1824', '1825', '1827', '1829', '1830', '1835', '1836', '1837', '1844', '1845', '1846', '1849', '1854', '1855', '1856', '1858', '1861', '1862', '1864', '1865', '1867', '1873', '1874', '1876', '1879', '1884', '1885', '1886', '1888', '1890', '1892', '1893', '1895', '1896', '1899', '1904', '1906', '1907', '1909', '1910', '1913', '1914', '1917', '1918', '1925', '1926', '1928', '1934', '1935', '1937', '1940', '1944', '1946', '1949', '1956', '1960', '1961', '1963', '1965', '1969', '1972', '1974', '1975', '1976', '1981', '1984', '1986', '1989', '1993', '1997']",False,2000,True,2,32a17d3390,0.0,1.0,1.0
./expes/v2_2021-03-23_issda-30_2000-prng-1-w2-p2,30_issda-2000,2000,first-2000,200,10,rng,num-start-2400,2400,25726,classic,1060.615428686142,True,,True,1.0,1.0,1.0,1,"['1', '2', '10', '20', '23', '31', '32', '35', '41', '61', '62', '74', '86', '87', '108', '122', '123', '130', '137', '144', '150', '151', '153', '171', '175', '179', '185', '186', '193', '206', '207', '221', '222', '239', '242', '261', '269', '276', '278', '291', '300', '316', '323', '364', '375', '379', '382', '384', '386', '389', '390', '391', '401', '407', '428', '430', '432', '436', '437', '438', '471', '479', '496', '498', '505', '521', '529', '553', '570', '592', '596', '603', '607', '622', '623', '638', '646', '669', '674', '682', '690', '756', '762', '769', '786', '791', '792', '808', '809', '812', '814', '821', '834', '840', '859', '860', '862', '903', '905', '915', '917', '926', '927', '928', '929', '937', '951', '953', '954', '963', '975', '991', '998', '1024', '1041', '1043', '1049', '1051', '1064', '1083', '1104', '1129', '1146', '1147', '1154', '1160', '1177', '1182', '1194', '1203', '1211', '1214', '1220', '1229', '1232', '1233', '1250', '1258', '1261', '1275', '1277', '1285', '1290', '1300', '1304', '1312', '1315', '1319', '1332', '1340', '1342', '1357', '1383', '1397', '1403', '1421', '1448', '1450', '1452', '1499', '1514', '1553', '1570', '1576', '1583', '1594', '1595', '1600', '1625', '1633', '1646', '1647', '1659', '1701', '1704', '1705', '1721', '1726', '1734', '1736', '1750', '1752', '1755', '1771', '1774', '1775', '1802', '1813', '1824', '1865', '1890', '1893', '1899', '1909', '1963', '1965', '1975', '1976', '1989', '1997']",False,2000,True,2,62607df16a,0.0,1.0,1.0
./expes/v2_2021-03-23_issda-30_2000-prng-1-w2-p2,30_issda-2000,2000,first-2000,200,10,rng,num-start-600,600,25726,classic,2020.1738121509552,True,,True,1.0,1.0,1.0,1,"['1', '2', '10', '20', '23', '31', '32', '35', '41', '61', '62', '74', '86', '87', '108', '122', '123', '130', '137', '144', '150', '151', '153', '171', '175', '179', '185', '186', '193', '206', '207', '221', '222', '239', '242', '261', '269', '276', '278', '291', '300', '316', '323', '364', '375', '379', '382', '384', '386', '389', '390', '391', '401', '407', '428', '430', '432', '436', '437', '438', '471', '479', '496', '498', '505', '521', '529', '553', '570', '592', '596', '603', '607', '622', '623', '638', '646', '669', '674', '682', '690', '756', '762', '769', '786', '791', '792', '808', '809', '812', '814', '821', '834', '840', '859', '860', '862', '903', '905', '915', '917', '926', '927', '928', '929', '937', '951', '953', '954', '963', '975', '991', '998', '1024', '1041', '1043', '1049', '1051', '1064', '1083', '1104', '1129', '1146', '1147', '1154', '1160', '1177', '1182', '1194', '1203', '1211', '1214', '1220', '1229', '1232', '1233', '1250', '1258', '1261', '1275', '1277', '1285', '1290', '1300', '1304', '1312', '1315', '1319', '1332', '1340', '1342', '1357', '1383', '1397', '1403', '1421', '1448', '1450', '1452', '1499', '1514', '1553', '1570', '1576', '1583', '1594', '1595', '1600', '1625', '1633', '1646', '1647', '1659', '1701', '1704', '1705', '1721', '1726', '1734', '1736', '1750', '1752', '1755', '1771', '1774', '1775', '1802', '1813', '1824', '1865', '1890', '1893', '1899', '1909', '1963', '1965', '1975', '1976', '1989', '1997']",False,2000,True,2,3e4f18b42f,0.0,1.0,1.0
./expes/v2_2021-03-23_issda-30_2000-prng-1-w2-p2,30_issda-2000,2000,first-2000,600,30,rng,num-start-3600,3600,25726,classic,2277.9147984981537,True,,False,1.0,1.0,1.0,1,"['1', '4', '9', '24', '25', '30', '35', '38', '39', '40', '44', '47', '48', '53', '56', '57', '58', '60', '77', '81', '82', '87', '96', '99', '102', '108', '111', '117', '118', '119', '121', '122', '123', '125', '127', '128', '129', '130', '132', '134', '137', '138', '141', '144', '145', '149', '150', '159', '165', '166', '168', '170', '172', '173', '174', '176', '177', '178', '182', '184', '186', '187', '189', '192', '193', '200', '201', '208', '210', '211', '212', '213', '215', '218', '226', '232', '237', '240', '242', '246', '247', '250', '251', '252', '254', '258', '261', '265', '266', '268', '269', '273', '281', '282', '286', '290', '293', '296', '299', '300', '301', '305', '306', '307', '309', '310', '311', '312', '317', '320', '326', '331', '333', '334', '338', '341', '343', '345', '349', '353', '361', '366', '369', '371', '372', '374', '376', '385', '391', '392', '397', '399', '400', '401', '403', '409', '410', '415', '419', '421', '422', '426', '428', '433', '436', '440', '447', '450', '452', '453', '456', '457', '458', '459', '465', '469', '473', '476', '478', '491', '493', '500', '508', '509', '516', '517', '519', '530', '531', '532', '534', '535', '539', '542', '543', '544', '549', '551', '553', '554', '557', '568', '570', '571', '572', '573', '578', '583', '589', '590', '594', '600', '606', '611', '614', '615', '621', '632', '635', '639', '643', '644', '648', '653', '664', '667', '668', '670', '676', '679', '681', '692', '693', '695', '697', '701', '702', '704', '705', '706', '711', '712', '716', '718', '725', '728', '729', '731', '735', '741', '745', '746', '747', '749', '750', '752', '757', '763', '771', '780', '788', '791', '796', '801', '804', '808', '809', '811', '813', '815', '816', '818', '821', '823', '828', '832', '851', '854', '856', '857', '859', '862', '863', '864', '865', '870', '872', '876', '878', '882', '884', '889', '902', '903', '906', '908', '913', '916', '917', '920', '927', '929', '930', '935', '936', '939', '940', '946', '949', '954', '955', '958', '963', '968', '970', '971', '972', '980', '981', '982', '984', '987', '989', '991', '994', '998', '1000', '1002', '1010', '1012', '1013', '1014', '1017', '1018', '1027', '1028', '1030', '1036', '1040', '1041', '1046', '1049', '1050', '1055', '1056', '1058', '1059', '1060', '1061', '1062', '1072', '1073', '1076', '1079', '1082', '1087', '1089', '1090', '1091', '1093', '1095', '1098', '1099', '1108', '1110', '1113', '1115', '1122', '1123', '1124', '1126', '1127', '1129', '1133', '1135', '1138', '1140', '1141', '1143', '1146', '1148', '1151', '1156', '1159', '1160', '1161', '1169', '1170', '1174', '1177', '1182', '1184', '1188', '1192', '1194', '1195', '1200', '1202', '1207', '1210', '1218', '1221', '1231', '1234', '1240', '1242', '1246', '1247', '1248', '1249', '1250', '1252', '1253', '1255', '1256', '1257', '1258', '1265', '1268', '1274', '1278', '1279', '1285', '1292', '1300', '1303', '1304', '1309', '1317', '1318', '1326', '1331', '1334', '1338', '1342', '1344', '1347', '1349', '1353', '1357', '1361', '1368', '1369', '1370', '1372', '1375', '1385', '1394', '1396', '1397', '1398', '1399', '1410', '1414', '1415', '1418', '1419', '1424', '1426', '1428', '1432', '1435', '1437', '1441', '1447', '1458', '1459', '1467', '1468', '1479', '1481', '1485', '1486', '1488', '1494', '1498', '1513', '1516', '1517', '1523', '1530', '1535', '1536', '1537', '1548', '1551', '1553', '1554', '1557', '1565', '1566', '1574', '1581', '1582', '1590', '1591', '1592', '1596', '1598', '1603', '1606', '1607', '1615', '1617', '1619', '1627', '1633', '1635', '1637', '1638', '1641', '1642', '1646', '1651', '1652', '1654', '1656', '1662', '1670', '1672', '1676', '1678', '1679', '1682', '1684', '1692', '1693', '1694', '1698', '1703', '1705', '1709', '1710', '1721', '1722', '1732', '1739', '1740', '1747', '1754', '1759', '1760', '1767', '1769', '1770', '1784', '1785', '1786', '1788', '1790', '1791', '1792', '1793', '1795', '1796', '1799', '1809', '1810', '1811', '1813', '1817', '1821', '1829', '1831', '1834', '1838', '1839', '1843', '1844', '1852', '1854', '1856', '1861', '1863', '1864', '1867', '1869', '1873', '1875', '1878', '1880', '1882', '1883', '1890', '1892', '1898', '1901', '1912', '1913', '1920', '1922', '1925', '1927', '1929', '1930', '1932', '1935', '1938', '1940', '1941', '1942', '1944', '1947', '1948', '1950', '1951', '1952', '1956', '1957', '1959', '1962', '1968', '1971', '1982', '1989', '1990', '1991', '1994', '1996', '2000']",True,2000,True,2,d6c00baf84,0.0,0.0,1.0
./expes/v2_2021-03-23_issda-30_2000-prng-1-w2-p2,30_issda-2000,2000,first-2000,100,5,rng,num-start-2000,2000,25726,classic,704.7448282241821,True,,True,1.0,1.0,1.0,1,"['49', '57', '74', '116', '174', '188', '280', '325', '331', '337', '347', '356', '362', '364', '373', '435', '473', '484', '512', '516', '550', '572', '632', '653', '666', '725', '737', '740', '742', '746', '762', '779', '806', '819', '850', '868', '883', '912', '913', '945', '953', '1004', '1021', '1026', '1029', '1043', '1045', '1053', '1056', '1076', '1077', '1087', '1115', '1147', '1148', '1191', '1216', '1241', '1243', '1308', '1342', '1356', '1372', '1382', '1396', '1465', '1481', '1505', '1508', '1513', '1545', '1563', '1618', '1631', '1632', '1646', '1657', '1703', '1712', '1739', '1749', '1760', '1762', '1768', '1784', '1811', '1827', '1831', '1846', '1857', '1860', '1861', '1895', '1909', '1917', '1942', '1945', '1956', '1958', '1970']",False,2000,True,2,e1f5ea56d5,0.0,1.0,1.0
./expes/v2_2021-03-23_issda-30_2000-prng-1-w2-p2,30_issda-2000,2000,first-2000,200,10,rng,num-start-2400,2400,25726,classic,1218.6623589992523,True,,True,1.0,1.0,1.0,1,"['2', '8', '11', '14', '17', '36', '38', '49', '53', '71', '84', '85', '89', '106', '111', '113', '130', '141', '166', '172', '174', '178', '180', '182', '192', '209', '212', '226', '228', '229', '230', '249', '272', '273', '284', '285', '298', '306', '322', '332', '345', '347', '354', '382', '394', '405', '406', '408', '409', '416', '420', '430', '431', '438', '455', '460', '485', '488', '509', '547', '548', '550', '553', '576', '584', '597', '630', '666', '674', '677', '685', '693', '700', '709', '712', '749', '750', '765', '776', '777', '782', '786', '813', '816', '824', '825', '843', '861', '864', '866', '870', '878', '888', '910', '925', '926', '949', '950', '1008', '1018', '1019', '1026', '1030', '1035', '1037', '1060', '1070', '1101', '1106', '1136', '1137', '1148', '1158', '1160', '1174', '1177', '1179', '1186', '1188', '1197', '1209', '1210', '1223', '1239', '1242', '1245', '1248', '1252', '1256', '1263', '1290', '1309', '1381', '1386', '1400', '1409', '1410', '1434', '1436', '1441', '1445', '1452', '1453', '1474', '1485', '1487', '1492', '1508', '1510', '1527', '1528', '1529', '1566', '1567', '1583', '1586', '1587', '1593', '1599', '1606', '1618', '1625', '1638', '1654', '1658', '1669', '1732', '1733', '1743', '1745', '1746', '1770', '1775', '1777', '1780', '1786', '1801', '1806', '1816', '1818', '1822', '1828', '1834', '1835', '1840', '1856', '1857', '1867', '1880', '1883', '1887', '1893', '1918', '1925', '1938', '1940', '1948', '1949', '1963', '1975']",False,2000,True,2,a920ea1df4,0.0,1.0,1.0
./expes/v2_2021-03-23_issda-30_2000-prng-1-w2-p2,30_issda-2000,2000,first-2000,200,10,rng,num-start-2600,2600,25726,classic,988.1859378814697,True,,True,1.0,1.0,1.0,1,"['12', '13', '14', '18', '38', '162', '179', '182', '190', '208', '236', '242', '252', '259', '265', '270', '273', '294', '298', '300', '303', '312', '329', '334', '347', '358', '372', '375', '389', '402', '406', '411', '413', '414', '418', '424', '443', '452', '481', '487', '491', '512', '520', '528', '532', '542', '543', '553', '555', '558', '577', '606', '613', '618', '621', '665', '686', '688', '694', '696', '702', '709', '722', '739', '749', '790', '806', '813', '820', '828', '829', '831', '832', '834', '851', '853', '865', '868', '874', '889', '895', '920', '939', '940', '962', '967', '978', '979', '980', '983', '984', '1003', '1007', '1012', '1016', '1026', '1040', '1052', '1054', '1070', '1079', '1091', '1095', '1102', '1109', '1114', '1116', '1124', '1131', '1140', '1144', '1145', '1164', '1171', '1174', '1176', '1179', '1186', '1206', '1216', '1229', '1244', '1251', '1252', '1261', '1287', '1290', '1293', '1326', '1328', '1336', '1347', '1355', '1383', '1388', '1393', '1396', '1401', '1406', '1412', '1417', '1432', '1438', '1444', '1449', '1452', '1467', '1490', '1496', '1505', '1513', '1522', '1549', '1553', '1562', '1574', '1575', '1578', '1581', '1584', '1605', '1613', '1620', '1623', '1625', '1627', '1652', '1654', '1660', '1662', '1663', '1674', '1676', '1688', '1691', '1695', '1706', '1712', '1713', '1729', '1733', '1736', '1769', '1774', '1780', '1789', '1811', '1817', '1825', '1827', '1841', '1842', '1865', '1869', '1891', '1910', '1934', '1950', '1981', '1999']",False,2000,True,2,9b82bd9275,0.0,1.0,1.0
./expes/v2_2021-03-23_issda-30_2000-prng-1-w2-p2,30_issda-2000,2000,first-2000,300,15,rng,num-start-4000,4000,25726,classic,1898.1245999336243,True,,True,1.0,1.0,1.0,1,"['4', '9', '18', '37', '44', '49', '50', '52', '57', '64', '65', '66', '69', '74', '75', '84', '89', '94', '101', '116', '117', '121', '124', '139', '151', '155', '165', '170', '174', '188', '192', '197', '209', '218', '232', '236', '262', '270', '280', '288', '295', '311', '315', '322', '325', '331', '337', '341', '347', '350', '353', '356', '362', '364', '373', '377', '392', '426', '432', '435', '455', '462', '465', '468', '473', '475', '477', '484', '502', '506', '508', '511', '512', '514', '516', '519', '524', '526', '531', '537', '541', '545', '550', '560', '572', '586', '622', '632', '634', '639', '648', '653', '665', '666', '672', '691', '699', '700', '705', '719', '725', '737', '738', '740', '742', '743', '746', '751', '762', '765', '779', '790', '805', '806', '819', '823', '833', '850', '860', '867', '868', '883', '911', '912', '913', '918', '919', '929', '932', '936', '945', '953', '969', '983', '997', '998', '1001', '1002', '1004', '1021', '1026', '1029', '1033', '1040', '1041', '1043', '1045', '1049', '1053', '1055', '1056', '1061', '1062', '1070', '1072', '1076', '1077', '1087', '1115', '1130', '1142', '1143', '1147', '1148', '1152', '1163', '1177', '1191', '1198', '1205', '1208', '1211', '1212', '1216', '1240', '1241', '1242', '1243', '1261', '1262', '1263', '1274', '1277', '1278', '1279', '1286', '1301', '1308', '1335', '1338', '1342', '1350', '1354', '1356', '1372', '1374', '1378', '1382', '1396', '1398', '1402', '1408', '1417', '1433', '1445', '1447', '1451', '1454', '1463', '1465', '1469', '1481', '1483', '1487', '1494', '1497', '1505', '1508', '1513', '1516', '1521', '1526', '1532', '1545', '1548', '1556', '1563', '1569', '1584', '1600', '1607', '1615', '1618', '1622', '1627', '1631', '1632', '1637', '1639', '1646', '1657', '1666', '1669', '1670', '1681', '1690', '1703', '1711', '1712', '1718', '1739', '1749', '1760', '1762', '1767', '1768', '1784', '1791', '1792', '1794', '1796', '1804', '1807', '1809', '1811', '1827', '1831', '1840', '1843', '1846', '1848', '1850', '1857', '1859', '1860', '1861', '1867', '1876', '1877', '1882', '1885', '1895', '1909', '1914', '1917', '1922', '1927', '1933', '1942', '1945', '1955', '1956', '1958', '1961', '1964', '1965', '1966', '1970', '1988', '1989']",False,2000,True,2,af7f9a3c02,0.0,1.0,1.0
./expes/v2_2021-03-23_issda-30_2000-prng-1-w2-p2,30_issda-2000,2000,first-2000,700,35,rng,num-start-2400,2400,25726,classic,2195.102546930313,True,,False,1.0,1.0,1.0,1,"['1', '2', '4', '6', '7', '11', '19', '21', '24', '27', '28', '30', '34', '38', '39', '41', '45', '47', '49', '53', '55', '57', '60', '61', '66', '68', '71', '74', '75', '76', '81', '82', '86', '90', '96', '100', '101', '107', '110', '111', '115', '117', '118', '121', '129', '130', '134', '136', '138', '141', '148', '161', '162', '166', '172', '175', '183', '187', '188', '189', '195', '199', '205', '209', '219', '221', '222', '227', '228', '231', '232', '236', '238', '243', '244', '250', '251', '253', '256', '259', '260', '265', '268', '269', '271', '272', '273', '274', '276', '280', '284', '285', '287', '289', '290', '291', '292', '293', '294', '299', '301', '304', '305', '306', '307', '309', '310', '315', '317', '322', '326', '327', '328', '331', '339', '340', '341', '346', '347', '352', '354', '361', '364', '366', '368', '369', '370', '371', '372', '373', '375', '379', '380', '382', '392', '397', '401', '403', '404', '407', '408', '415', '419', '420', '425', '427', '429', '434', '437', '441', '442', '444', '449', '452', '457', '464', '472', '481', '482', '483', '487', '488', '489', '499', '503', '504', '505', '511', '513', '514', '515', '517', '521', '524', '525', '533', '540', '541', '543', '548', '549', '555', '558', '561', '562', '565', '571', '573', '574', '576', '579', '580', '581', '586', '587', '592', '593', '594', '595', '597', '600', '601', '602', '604', '605', '606', '607', '608', '612', '616', '617', '618', '620', '622', '627', '628', '630', '634', '635', '637', '640', '643', '645', '647', '649', '650', '651', '654', '663', '667', '668', '678', '680', '683', '685', '689', '693', '694', '696', '697', '698', '700', '705', '706', '708', '713', '714', '715', '717', '718', '720', '721', '724', '726', '727', '728', '729', '731', '733', '734', '735', '740', '742', '743', '745', '747', '750', '753', '757', '761', '762', '764', '766', '767', '770', '771', '773', '775', '777', '778', '779', '780', '783', '784', '785', '787', '788', '790', '791', '797', '798', '799', '803', '804', '811', '817', '827', '828', '830', '831', '832', '836', '837', '839', '840', '848', '850', '851', '854', '858', '859', '862', '864', '872', '875', '876', '878', '880', '885', '887', '888', '890', '897', '904', '909', '912', '922', '928', '929', '934', '946', '947', '948', '949', '951', '953', '954', '958', '961', '963', '966', '968', '972', '973', '975', '977', '978', '980', '982', '983', '984', '985', '986', '987', '989', '991', '995', '997', '1000', '1003', '1004', '1007', '1008', '1009', '1011', '1017', '1020', '1023', '1025', '1030', '1036', '1038', '1050', '1051', '1056', '1058', '1059', '1060', '1062', '1070', '1075', '1085', '1086', '1087', '1090', '1091', '1093', '1102', '1103', '1105', '1109', '1111', '1114', '1117', '1118', '1121', '1123', '1125', '1127', '1130', '1133', '1134', '1137', '1138', '1146', '1148', '1155', '1156', '1159', '1165', '1170', '1174', '1175', '1176', '1179', '1185', '1190', '1193', '1200', '1201', '1202', '1204', '1208', '1209', '1210', '1214', '1217', '1219', '1221', '1230', '1231', '1236', '1237', '1246', '1247', '1251', '1253', '1257', '1259', '1260', '1264', '1265', '1266', '1269', '1271', '1272', '1274', '1275', '1276', '1278', '1279', '1280', '1282', '1284', '1285', '1290', '1292', '1293', '1295', '1305', '1308', '1316', '1320', '1321', '1323', '1326', '1327', '1328', '1329', '1330', '1331', '1332', '1334', '1336', '1342', '1344', '1352', '1353', '1355', '1356', '1357', '1360', '1363', '1364', '1368', '1369', '1374', '1376', '1380', '1389', '1395', '1397', '1398', '1404', '1405', '1408', '1410', '1411', '1412', '1415', '1417', '1423', '1424', '1427', '1429', '1437', '1439', '1443', '1444', '1445', '1446', '1450', '1451', '1460', '1461', '1467', '1471', '1472', '1474', '1475', '1476', '1477', '1478', '1480', '1481', '1485', '1495', '1496', '1498', '1499', '1501', '1509', '1512', '1516', '1517', '1518', '1520', '1521', '1523', '1526', '1527', '1533', '1536', '1538', '1548', '1553', '1555', '1556', '1558', '1561', '1569', '1577', '1585', '1587', '1589', '1590', '1595', '1596', '1599', '1600', '1601', '1602', '1610', '1614', '1622', '1627', '1629', '1631', '1632', '1633', '1634', '1636', '1642', '1643', '1648', '1654', '1655', '1663', '1665', '1666', '1673', '1675', '1677', '1679', '1681', '1682', '1684', '1689', '1693', '1694', '1697', '1700', '1703', '1706', '1711', '1712', '1713', '1714', '1718', '1722', '1723', '1724', '1725', '1727', '1729', '1731', '1738', '1745', '1746', '1749', '1751', '1753', '1759', '1761', '1769', '1775', '1776', '1777', '1778', '1779', '1782', '1785', '1787', '1795', '1796', '1800', '1804', '1819', '1821', '1822', '1823', '1826', '1827', '1829', '1830', '1831', '1833', '1837', '1841', '1846', '1848', '1850', '1865', '1866', '1867', '1868', '1872', '1874', '1877', '1878', '1881', '1888', '1889', '1892', '1893', '1904', '1906', '1915', '1916', '1917', '1918', '1920', '1921', '1923', '1924', '1928', '1930', '1931', '1932', '1935', '1936', '1937', '1945', '1946', '1948', '1950', '1951', '1953', '1955', '1957', '1959', '1960', '1961', '1963', '1966', '1967', '1968', '1969', '1970', '1973', '1976', '1977', '1980', '1983', '1984', '1992', '1993', '1998', '1999', '2000']",True,2000,True,2,413d06aae8,0.0,0.0,1.0
