expe,clients,clients_size,clients_subset,agg_size,method,days,days_size,days_total,time,valid,valid_sum,success,nsols,wall_hit,wall_time,pooled,valid_sums
./expes/v2_2020-12-03_dh_100-prng-1,30_issda_100,100,rng-100,31,rng,num-start-581,581,25726,6.148781776428223,True,,True,1,False,1000,True,1.0
./expes/v2_2020-12-03_dh_100-prng-1,30_issda_100,100,rng-100,21,rng,num-start-591,591,25726,5.764902591705322,True,,True,1,False,1000,True,1.0
./expes/v2_2020-12-03_dh_100-prng-1,30_issda_100,100,rng-100,61,rng,num-start-741,741,25726,7.605720281600952,True,,True,1,False,1000,True,1.0
./expes/v2_2020-12-03_dh_100-prng-1,30_issda_100,100,rng-100,11,rng,num-start-961,961,25726,8.834583044052124,True,,True,1,False,1000,True,1.0
./expes/v2_2020-12-03_dh_100-prng-1,30_issda_100,100,rng-100,21,rng,num-start-451,451,25726,4.528702259063721,True,,True,1,False,1000,True,1.0
./expes/v2_2020-12-03_dh_100-prng-1,30_issda_100,100,rng-100,71,rng,num-start-731,731,25726,7.019362211227417,True,,True,1,False,1000,True,1.0
./expes/v2_2020-12-03_dh_100-prng-1,30_issda_100,100,rng-100,11,rng,num-start-291,291,25726,2.5988004207611084,True,,True,1,False,1000,True,1.0
./expes/v2_2020-12-03_dh_100-prng-1,30_issda_100,100,rng-100,11,rng,num-start-261,261,25726,2.3799209594726562,True,,True,1,False,1000,True,1.0
./expes/v2_2020-12-03_dh_100-prng-1,30_issda_100,100,rng-100,1,rng,num-start-131,131,25726,1.1476216316223145,True,,True,1,False,1000,True,1.0
./expes/v2_2020-12-03_dh_100-prng-1,30_issda_100,100,rng-100,41,rng,num-start-861,861,25726,9.342052936553955,True,,True,1,False,1000,True,1.0
./expes/v2_2020-12-03_dh_100-prng-1,30_issda_100,100,rng-100,11,rng,num-start-291,291,25726,2.5726568698883057,True,,True,1,False,1000,True,1.0
./expes/v2_2020-12-03_dh_100-prng-1,30_issda_100,100,rng-100,1,rng,num-start-801,801,25726,7.02682638168335,True,,True,1,False,1000,True,1.0
./expes/v2_2020-12-03_dh_100-prng-1,30_issda_100,100,rng-100,91,rng,num-start-681,681,25726,6.082563161849976,True,,True,1,False,1000,True,1.0
./expes/v2_2020-12-03_dh_100-prng-1,30_issda_100,100,rng-100,11,rng,num-start-731,731,25726,6.728156089782715,True,,True,1,False,1000,True,1.0
./expes/v2_2020-12-03_dh_100-prng-1,30_issda_100,100,rng-100,71,rng,num-start-901,901,25726,8.59514045715332,True,,True,1,False,1000,True,1.0
./expes/v2_2020-12-03_dh_100-prng-1,30_issda_100,100,rng-100,91,rng,num-start-301,301,25726,2.700448513031006,True,,True,1,False,1000,True,1.0
./expes/v2_2020-12-03_dh_100-prng-1,30_issda_100,100,rng-100,1,rng,num-start-1,1,25726,0.05621695518493652,True,,True,1,False,1000,True,1.0
./expes/v2_2020-12-03_dh_100-prng-1,30_issda_100,100,rng-100,21,rng,num-start-1,1,25726,0.1224207878112793,False,,False,2,False,1000,True,1.0
./expes/v2_2020-12-03_dh_100-prng-1,30_issda_100,100,rng-100,61,rng,num-start-161,161,25726,1.8152854442596436,True,,True,1,False,1000,True,1.0
./expes/v2_2020-12-03_dh_100-prng-1,30_issda_100,100,rng-100,81,rng,num-start-141,141,25726,1.5310065746307373,True,,True,1,False,1000,True,1.0
./expes/v2_2020-12-03_dh_100-prng-1,30_issda_100,100,rng-100,31,rng,num-start-11,11,25726,1003.0092587471008,False,,False,0,True,1000,True,0.0
./expes/v2_2020-12-03_dh_100-prng-1,30_issda_100,100,rng-100,91,rng,num-start-591,591,25726,5.599736452102661,True,,True,1,False,1000,True,1.0
./expes/v2_2020-12-03_dh_100-prng-1,30_issda_100,100,rng-100,11,rng,num-start-471,471,25726,4.684437274932861,True,,True,1,False,1000,True,1.0
./expes/v2_2020-12-03_dh_100-prng-1,30_issda_100,100,rng-100,31,rng,num-start-91,91,25726,0.9582514762878418,True,,True,1,False,1000,True,1.0
./expes/v2_2020-12-03_dh_100-prng-1,30_issda_100,100,rng-100,1,rng,num-start-331,331,25726,2.956289529800415,True,,True,1,False,1000,True,1.0
./expes/v2_2020-12-03_dh_100-prng-1,30_issda_100,100,rng-100,71,rng,num-start-931,931,25726,9.270182371139526,True,,True,1,False,1000,True,1.0
./expes/v2_2020-12-03_dh_100-prng-1,30_issda_100,100,rng-100,51,rng,num-start-801,801,25726,7.713869094848633,True,,True,1,False,1000,True,1.0
./expes/v2_2020-12-03_dh_100-prng-1,30_issda_100,100,rng-100,71,rng,num-start-421,421,25726,4.416552305221558,True,,True,1,False,1000,True,1.0
./expes/v2_2020-12-03_dh_100-prng-1,30_issda_100,100,rng-100,71,rng,num-start-431,431,25726,4.15010142326355,True,,True,1,False,1000,True,1.0
./expes/v2_2020-12-03_dh_100-prng-1,30_issda_100,100,rng-100,41,rng,num-start-531,531,25726,5.2392051219940186,True,,True,1,False,1000,True,1.0
./expes/v2_2020-12-03_dh_100-prng-1,30_issda_100,100,rng-100,1,rng,num-start-491,491,25726,4.358621597290039,True,,True,1,False,1000,True,1.0
./expes/v2_2020-12-03_dh_100-prng-1,30_issda_100,100,rng-100,31,rng,num-start-761,761,25726,7.674370527267456,True,,True,1,False,1000,True,1.0
./expes/v2_2020-12-03_dh_100-prng-1,30_issda_100,100,rng-100,1,rng,num-start-981,981,25726,8.719266176223755,True,,True,1,False,1000,True,1.0
./expes/v2_2020-12-03_dh_100-prng-1,30_issda_100,100,rng-100,71,rng,num-start-161,161,25726,1.8075485229492188,True,,True,1,False,1000,True,1.0
./expes/v2_2020-12-03_dh_100-prng-1,30_issda_100,100,rng-100,21,rng,num-start-551,551,25726,5.9290971755981445,True,,True,1,False,1000,True,1.0
./expes/v2_2020-12-03_dh_100-prng-1,30_issda_100,100,rng-100,71,rng,num-start-501,501,25726,5.272108793258667,True,,True,1,False,1000,True,1.0
./expes/v2_2020-12-03_dh_100-prng-1,30_issda_100,100,rng-100,61,rng,num-start-211,211,25726,2.263462781906128,True,,True,1,False,1000,True,1.0
./expes/v2_2020-12-03_dh_100-prng-1,30_issda_100,100,rng-100,31,rng,num-start-181,181,25726,1.867253065109253,True,,True,1,False,1000,True,1.0
./expes/v2_2020-12-03_dh_100-prng-1,30_issda_100,100,rng-100,1,rng,num-start-541,541,25726,4.818120002746582,True,,True,1,False,1000,True,1.0
./expes/v2_2020-12-03_dh_100-prng-1,30_issda_100,100,rng-100,81,rng,num-start-501,501,25726,4.900730609893799,True,,True,1,False,1000,True,1.0
./expes/v2_2020-12-03_dh_100-prng-1,30_issda_100,100,rng-100,61,rng,num-start-591,591,25726,6.000308513641357,True,,True,1,False,1000,True,1.0
./expes/v2_2020-12-03_dh_100-prng-1,30_issda_100,100,rng-100,81,rng,num-start-551,551,25726,5.297312021255493,True,,True,1,False,1000,True,1.0
./expes/v2_2020-12-03_dh_100-prng-1,30_issda_100,100,rng-100,31,rng,num-start-751,751,25726,7.767986536026001,True,,True,1,False,1000,True,1.0
./expes/v2_2020-12-03_dh_100-prng-1,30_issda_100,100,rng-100,31,rng,num-start-721,721,25726,7.215238809585571,True,,True,1,False,1000,True,1.0
./expes/v2_2020-12-03_dh_100-prng-1,30_issda_100,100,rng-100,81,rng,num-start-951,951,25726,9.463528156280518,True,,True,1,False,1000,True,1.0
./expes/v2_2020-12-03_dh_100-prng-1,30_issda_100,100,rng-100,61,rng,num-start-151,151,25726,1.7292604446411133,True,,True,1,False,1000,True,1.0
./expes/v2_2020-12-03_dh_100-prng-1,30_issda_100,100,rng-100,11,rng,num-start-681,681,25726,6.275256633758545,True,,True,1,False,1000,True,1.0
./expes/v2_2020-12-03_dh_100-prng-1,30_issda_100,100,rng-100,91,rng,num-start-461,461,25726,4.213272333145142,True,,True,1,False,1000,True,1.0
./expes/v2_2020-12-03_dh_100-prng-1,30_issda_100,100,rng-100,41,rng,num-start-661,661,25726,6.724476099014282,True,,True,1,False,1000,True,1.0
./expes/v2_2020-12-03_dh_100-prng-1,30_issda_100,100,rng-100,21,rng,num-start-801,801,25726,9.674882888793945,True,,True,1,False,1000,True,1.0
./expes/v2_2020-12-03_dh_100-prng-1,30_issda_100,100,rng-100,21,rng,num-start-851,851,25726,9.854512929916382,True,,True,1,False,1000,True,1.0
./expes/v2_2020-12-03_dh_100-prng-1,30_issda_100,100,rng-100,51,rng,num-start-671,671,25726,7.981058359146118,True,,True,1,False,1000,True,1.0
./expes/v2_2020-12-03_dh_100-prng-1,30_issda_100,100,rng-100,81,rng,num-start-511,511,25726,6.447277784347534,True,,True,1,False,1000,True,1.0
./expes/v2_2020-12-03_dh_100-prng-1,30_issda_100,100,rng-100,31,rng,num-start-901,901,25726,12.971853971481323,True,,True,1,False,1000,True,1.0
./expes/v2_2020-12-03_dh_100-prng-1,30_issda_100,100,rng-100,31,rng,num-start-531,531,25726,6.2307140827178955,True,,True,1,False,1000,True,1.0
./expes/v2_2020-12-03_dh_100-prng-1,30_issda_100,100,rng-100,21,rng,num-start-111,111,25726,1.5449833869934082,True,,True,1,False,1000,True,1.0
./expes/v2_2020-12-03_dh_100-prng-1,30_issda_100,100,rng-100,11,rng,num-start-461,461,25726,6.1177802085876465,True,,True,1,False,1000,True,1.0
./expes/v2_2020-12-03_dh_100-prng-1,30_issda_100,100,rng-100,61,rng,num-start-531,531,25726,6.633591175079346,True,,True,1,False,1000,True,1.0
./expes/v2_2020-12-03_dh_100-prng-1,30_issda_100,100,rng-100,81,rng,num-start-611,611,25726,7.6312315464019775,True,,True,1,False,1000,True,1.0
./expes/v2_2020-12-03_dh_100-prng-1,30_issda_100,100,rng-100,11,rng,num-start-491,491,25726,5.556399822235107,True,,True,1,False,1000,True,1.0
./expes/v2_2020-12-03_dh_100-prng-1,30_issda_100,100,rng-100,51,rng,num-start-161,161,25726,1.7102632522583008,True,,True,1,False,1000,True,1.0
./expes/v2_2020-12-03_dh_100-prng-1,30_issda_100,100,rng-100,41,rng,num-start-121,121,25726,1.3705806732177734,True,,True,1,False,1000,True,1.0
./expes/v2_2020-12-03_dh_100-prng-1,30_issda_100,100,rng-100,51,rng,num-start-71,71,25726,0.8400654792785645,True,,True,1,False,1000,True,1.0
./expes/v2_2020-12-03_dh_100-prng-1,30_issda_100,100,rng-100,11,rng,num-start-331,331,25726,2.981234550476074,True,,True,1,False,1000,True,1.0
./expes/v2_2020-12-03_dh_100-prng-1,30_issda_100,100,rng-100,91,rng,num-start-931,931,25726,8.295666933059692,True,,True,1,False,1000,True,1.0
./expes/v2_2020-12-03_dh_100-prng-1,30_issda_100,100,rng-100,51,rng,num-start-51,51,25726,0.7720367908477783,True,,True,1,False,1000,True,1.0
./expes/v2_2020-12-03_dh_100-prng-1,30_issda_100,100,rng-100,91,rng,num-start-281,281,25726,2.6171071529388428,True,,True,1,False,1000,True,1.0
./expes/v2_2020-12-03_dh_100-prng-1,30_issda_100,100,rng-100,11,rng,num-start-511,511,25726,4.589388847351074,True,,True,1,False,1000,True,1.0
./expes/v2_2020-12-03_dh_100-prng-1,30_issda_100,100,rng-100,71,rng,num-start-581,581,25726,5.528555154800415,True,,True,1,False,1000,True,1.0
./expes/v2_2020-12-03_dh_100-prng-1,30_issda_100,100,rng-100,91,rng,num-start-751,751,25726,10.855394840240479,True,,True,1,False,1000,True,1.0
./expes/v2_2020-12-03_dh_100-prng-1,30_issda_100,100,rng-100,81,rng,num-start-521,521,25726,5.385732412338257,True,,True,1,False,1000,True,1.0
./expes/v2_2020-12-03_dh_100-prng-1,30_issda_100,100,rng-100,51,rng,num-start-511,511,25726,5.244449615478516,True,,True,1,False,1000,True,1.0
./expes/v2_2020-12-03_dh_100-prng-1,30_issda_100,100,rng-100,91,rng,num-start-391,391,25726,3.6240670680999756,True,,True,1,False,1000,True,1.0
./expes/v2_2020-12-03_dh_100-prng-1,30_issda_100,100,rng-100,91,rng,num-start-841,841,25726,8.413292169570923,True,,True,1,False,1000,True,1.0
./expes/v2_2020-12-03_dh_100-prng-1,30_issda_100,100,rng-100,81,rng,num-start-811,811,25726,8.004100322723389,True,,True,1,False,1000,True,1.0
./expes/v2_2020-12-03_dh_100-prng-1,30_issda_100,100,rng-100,1,rng,num-start-381,381,25726,3.392521858215332,True,,True,1,False,1000,True,1.0
./expes/v2_2020-12-03_dh_100-prng-1,30_issda_100,100,rng-100,81,rng,num-start-241,241,25726,2.334390878677368,True,,True,1,False,1000,True,1.0
./expes/v2_2020-12-03_dh_100-prng-1,30_issda_100,100,rng-100,11,rng,num-start-101,101,25726,1.1264641284942627,True,,True,1,False,1000,True,1.0
./expes/v2_2020-12-03_dh_100-prng-1,30_issda_100,100,rng-100,21,rng,num-start-871,871,25726,8.223678588867188,True,,True,1,False,1000,True,1.0
./expes/v2_2020-12-03_dh_100-prng-1,30_issda_100,100,rng-100,31,rng,num-start-671,671,25726,7.052708387374878,True,,True,1,False,1000,True,1.0
./expes/v2_2020-12-03_dh_100-prng-1,30_issda_100,100,rng-100,71,rng,num-start-251,251,25726,2.541348934173584,True,,True,1,False,1000,True,1.0
./expes/v2_2020-12-03_dh_100-prng-1,30_issda_100,100,rng-100,81,rng,num-start-301,301,25726,3.1819794178009033,True,,True,1,False,1000,True,1.0
./expes/v2_2020-12-03_dh_100-prng-1,30_issda_100,100,rng-100,71,rng,num-start-551,551,25726,5.127903699874878,True,,True,1,False,1000,True,1.0
./expes/v2_2020-12-03_dh_100-prng-1,30_issda_100,100,rng-100,51,rng,num-start-561,561,25726,5.587325811386108,True,,True,1,False,1000,True,1.0
./expes/v2_2020-12-03_dh_100-prng-1,30_issda_100,100,rng-100,51,rng,num-start-521,521,25726,5.042146682739258,True,,True,1,False,1000,True,1.0
./expes/v2_2020-12-03_dh_100-prng-1,30_issda_100,100,rng-100,91,rng,num-start-491,491,25726,4.302985668182373,True,,True,1,False,1000,True,1.0
./expes/v2_2020-12-03_dh_100-prng-1,30_issda_100,100,rng-100,31,rng,num-start-811,811,25726,7.733842134475708,True,,True,1,False,1000,True,1.0
./expes/v2_2020-12-03_dh_100-prng-1,30_issda_100,100,rng-100,31,rng,num-start-781,781,25726,7.4490272998809814,True,,True,1,False,1000,True,1.0
./expes/v2_2020-12-03_dh_100-prng-1,30_issda_100,100,rng-100,91,rng,num-start-231,231,25726,2.1032707691192627,True,,True,1,False,1000,True,1.0
./expes/v2_2020-12-03_dh_100-prng-1,30_issda_100,100,rng-100,71,rng,num-start-941,941,25726,9.50743818283081,True,,True,1,False,1000,True,1.0
./expes/v2_2020-12-03_dh_100-prng-1,30_issda_100,100,rng-100,71,rng,num-start-851,851,25726,8.096253395080566,True,,True,1,False,1000,True,1.0
./expes/v2_2020-12-03_dh_100-prng-1,30_issda_100,100,rng-100,81,rng,num-start-741,741,25726,6.524912595748901,True,,True,1,False,1000,True,1.0
./expes/v2_2020-12-03_dh_100-prng-1,30_issda_100,100,rng-100,81,rng,num-start-151,151,25726,1.6794259548187256,True,,True,1,False,1000,True,1.0
./expes/v2_2020-12-03_dh_100-prng-1,30_issda_100,100,rng-100,31,rng,num-start-831,831,25726,7.985240697860718,True,,True,1,False,1000,True,1.0
./expes/v2_2020-12-03_dh_100-prng-1,30_issda_100,100,rng-100,81,rng,num-start-541,541,25726,5.352055788040161,True,,True,1,False,1000,True,1.0
./expes/v2_2020-12-03_dh_100-prng-1,30_issda_100,100,rng-100,81,rng,num-start-931,931,25726,8.812992334365845,True,,True,1,False,1000,True,1.0
./expes/v2_2020-12-03_dh_100-prng-1,30_issda_100,100,rng-100,1,rng,num-start-471,471,25726,4.260176181793213,True,,True,1,False,1000,True,1.0
./expes/v2_2020-12-03_dh_100-prng-1,30_issda_100,100,rng-100,61,rng,num-start-861,861,25726,8.8460111618042,True,,True,1,False,1000,True,1.0
./expes/v2_2020-12-03_dh_100-prng-1,30_issda_100,100,rng-100,1,rng,num-start-781,781,25726,6.905816316604614,True,,True,1,False,1000,True,1.0
./expes/v2_2020-12-03_dh_100-prng-1,30_issda_100,100,rng-100,11,rng,num-start-491,491,25726,4.863234758377075,True,,True,1,False,1000,True,1.0
./expes/v2_2020-12-03_dh_100-prng-1,30_issda_100,100,rng-100,51,rng,num-start-941,941,25726,9.871633768081665,True,,True,1,False,1000,True,1.0
./expes/v2_2020-12-03_dh_100-prng-1,30_issda_100,100,rng-100,31,rng,num-start-361,361,25726,3.7254443168640137,True,,True,1,False,1000,True,1.0
./expes/v2_2020-12-03_dh_100-prng-1,30_issda_100,100,rng-100,11,rng,num-start-671,671,25726,6.590340852737427,True,,True,1,False,1000,True,1.0
./expes/v2_2020-12-03_dh_100-prng-1,30_issda_100,100,rng-100,31,rng,num-start-671,671,25726,6.974565505981445,True,,True,1,False,1000,True,1.0
./expes/v2_2020-12-03_dh_100-prng-1,30_issda_100,100,rng-100,61,rng,num-start-91,91,25726,1.1072537899017334,True,,True,1,False,1000,True,1.0
./expes/v2_2020-12-03_dh_100-prng-1,30_issda_100,100,rng-100,51,rng,num-start-81,81,25726,0.9232308864593506,True,,True,1,False,1000,True,1.0
./expes/v2_2020-12-03_dh_100-prng-1,30_issda_100,100,rng-100,11,rng,num-start-101,101,25726,1.140207290649414,True,,True,1,False,1000,True,1.0
./expes/v2_2020-12-03_dh_100-prng-1,30_issda_100,100,rng-100,21,rng,num-start-351,351,25726,3.4942729473114014,True,,True,1,False,1000,True,1.0
./expes/v2_2020-12-03_dh_100-prng-1,30_issda_100,100,rng-100,21,rng,num-start-751,751,25726,7.632577180862427,True,,True,1,False,1000,True,1.0
./expes/v2_2020-12-03_dh_100-prng-1,30_issda_100,100,rng-100,31,rng,num-start-721,721,25726,6.999600172042847,True,,True,1,False,1000,True,1.0
./expes/v2_2020-12-03_dh_100-prng-1,30_issda_100,100,rng-100,41,rng,num-start-381,381,25726,3.868668556213379,True,,True,1,False,1000,True,1.0
./expes/v2_2020-12-03_dh_100-prng-1,30_issda_100,100,rng-100,21,rng,num-start-881,881,25726,8.552900791168213,True,,True,1,False,1000,True,1.0
./expes/v2_2020-12-03_dh_100-prng-1,30_issda_100,100,rng-100,71,rng,num-start-61,61,25726,0.8306844234466553,True,,True,1,False,1000,True,1.0
./expes/v2_2020-12-03_dh_100-prng-1,30_issda_100,100,rng-100,71,rng,num-start-221,221,25726,2.1938774585723877,True,,True,1,False,1000,True,1.0
./expes/v2_2020-12-03_dh_100-prng-1,30_issda_100,100,rng-100,31,rng,num-start-221,221,25726,2.532636880874634,True,,True,1,False,1000,True,1.0
./expes/v2_2020-12-03_dh_100-prng-1,30_issda_100,100,rng-100,51,rng,num-start-961,961,25726,9.959960460662842,True,,True,1,False,1000,True,1.0
./expes/v2_2020-12-03_dh_100-prng-1,30_issda_100,100,rng-100,41,rng,num-start-501,501,25726,4.75106143951416,True,,True,1,False,1000,True,1.0
./expes/v2_2020-12-03_dh_100-prng-1,30_issda_100,100,rng-100,31,rng,num-start-11,11,25726,1000.1955633163452,False,,False,0,True,1000,True,0.0
./expes/v2_2020-12-03_dh_100-prng-1,30_issda_100,100,rng-100,41,rng,num-start-451,451,25726,4.460803270339966,True,,True,1,False,1000,True,1.0
./expes/v2_2020-12-03_dh_100-prng-1,30_issda_100,100,rng-100,81,rng,num-start-791,791,25726,7.733123540878296,True,,True,1,False,1000,True,1.0
./expes/v2_2020-12-03_dh_100-prng-1,30_issda_100,100,rng-100,81,rng,num-start-761,761,25726,7.5785064697265625,True,,True,1,False,1000,True,1.0
./expes/v2_2020-12-03_dh_100-prng-1,30_issda_100,100,rng-100,1,rng,num-start-241,241,25726,2.260894298553467,True,,True,1,False,1000,True,1.0
./expes/v2_2020-12-03_dh_100-prng-1,30_issda_100,100,rng-100,71,rng,num-start-211,211,25726,2.2826719284057617,True,,True,1,False,1000,True,1.0
./expes/v2_2020-12-03_dh_100-prng-1,30_issda_100,100,rng-100,81,rng,num-start-371,371,25726,3.6731038093566895,True,,True,1,False,1000,True,1.0
./expes/v2_2020-12-03_dh_100-prng-1,30_issda_100,100,rng-100,11,rng,num-start-731,731,25726,6.684713840484619,True,,True,1,False,1000,True,1.0
./expes/v2_2020-12-03_dh_100-prng-1,30_issda_100,100,rng-100,91,rng,num-start-661,661,25726,5.8119049072265625,True,,True,1,False,1000,True,1.0
./expes/v2_2020-12-03_dh_100-prng-1,30_issda_100,100,rng-100,91,rng,num-start-821,821,25726,7.365318775177002,True,,True,1,False,1000,True,1.0
./expes/v2_2020-12-03_dh_100-prng-1,30_issda_100,100,rng-100,21,rng,num-start-751,751,25726,7.564661979675293,True,,True,1,False,1000,True,1.0
./expes/v2_2020-12-03_dh_100-prng-1,30_issda_100,100,rng-100,21,rng,num-start-511,511,25726,4.969351530075073,True,,True,1,False,1000,True,1.0
./expes/v2_2020-12-03_dh_100-prng-1,30_issda_100,100,rng-100,41,rng,num-start-191,191,25726,2.099405288696289,True,,True,1,False,1000,True,1.0
./expes/v2_2020-12-03_dh_100-prng-1,30_issda_100,100,rng-100,61,rng,num-start-511,511,25726,5.133038282394409,True,,True,1,False,1000,True,1.0
./expes/v2_2020-12-03_dh_100-prng-1,30_issda_100,100,rng-100,41,rng,num-start-141,141,25726,1.5097088813781738,True,,True,1,False,1000,True,1.0
./expes/v2_2020-12-03_dh_100-prng-1,30_issda_100,100,rng-100,51,rng,num-start-401,401,25726,3.9834980964660645,True,,True,1,False,1000,True,1.0
./expes/v2_2020-12-03_dh_100-prng-1,30_issda_100,100,rng-100,51,rng,num-start-411,411,25726,4.521428346633911,True,,True,1,False,1000,True,1.0
./expes/v2_2020-12-03_dh_100-prng-1,30_issda_100,100,rng-100,41,rng,num-start-701,701,25726,7.558813095092773,True,,True,1,False,1000,True,1.0
./expes/v2_2020-12-03_dh_100-prng-1,30_issda_100,100,rng-100,1,rng,num-start-341,341,25726,2.93157696723938,True,,True,1,False,1000,True,1.0
./expes/v2_2020-12-03_dh_100-prng-1,30_issda_100,100,rng-100,11,rng,num-start-471,471,25726,4.700526475906372,True,,True,1,False,1000,True,1.0
./expes/v2_2020-12-03_dh_100-prng-1,30_issda_100,100,rng-100,81,rng,num-start-371,371,25726,3.745575428009033,True,,True,1,False,1000,True,1.0
./expes/v2_2020-12-03_dh_100-prng-1,30_issda_100,100,rng-100,61,rng,num-start-631,631,25726,6.162390232086182,True,,True,1,False,1000,True,1.0
./expes/v2_2020-12-03_dh_100-prng-1,30_issda_100,100,rng-100,81,rng,num-start-661,661,25726,6.592376947402954,True,,True,1,False,1000,True,1.0
./expes/v2_2020-12-03_dh_100-prng-1,30_issda_100,100,rng-100,91,rng,num-start-241,241,25726,2.5625948905944824,True,,True,1,False,1000,True,1.0
./expes/v2_2020-12-03_dh_100-prng-1,30_issda_100,100,rng-100,61,rng,num-start-521,521,25726,5.105780839920044,True,,True,1,False,1000,True,1.0
./expes/v2_2020-12-03_dh_100-prng-1,30_issda_100,100,rng-100,61,rng,num-start-751,751,25726,7.376160383224487,True,,True,1,False,1000,True,1.0
./expes/v2_2020-12-03_dh_100-prng-1,30_issda_100,100,rng-100,91,rng,num-start-891,891,25726,8.600611209869385,True,,True,1,False,1000,True,1.0
./expes/v2_2020-12-03_dh_100-prng-1,30_issda_100,100,rng-100,11,rng,num-start-661,661,25726,6.230759620666504,True,,True,1,False,1000,True,1.0
./expes/v2_2020-12-03_dh_100-prng-1,30_issda_100,100,rng-100,21,rng,num-start-171,171,25726,1.9435420036315918,True,,True,1,False,1000,True,1.0
./expes/v2_2020-12-03_dh_100-prng-1,30_issda_100,100,rng-100,31,rng,num-start-671,671,25726,6.613928556442261,True,,True,1,False,1000,True,1.0
./expes/v2_2020-12-03_dh_100-prng-1,30_issda_100,100,rng-100,51,rng,num-start-721,721,25726,7.225440979003906,True,,True,1,False,1000,True,1.0
./expes/v2_2020-12-03_dh_100-prng-1,30_issda_100,100,rng-100,1,rng,num-start-511,511,25726,4.5120062828063965,True,,True,1,False,1000,True,1.0
./expes/v2_2020-12-03_dh_100-prng-1,30_issda_100,100,rng-100,1,rng,num-start-891,891,25726,7.889882564544678,True,,True,1,False,1000,True,1.0
./expes/v2_2020-12-03_dh_100-prng-1,30_issda_100,100,rng-100,91,rng,num-start-91,91,25726,1.0796988010406494,True,,True,1,False,1000,True,1.0
./expes/v2_2020-12-03_dh_100-prng-1,30_issda_100,100,rng-100,61,rng,num-start-821,821,25726,7.988881587982178,True,,True,1,False,1000,True,1.0
./expes/v2_2020-12-03_dh_100-prng-1,30_issda_100,100,rng-100,21,rng,num-start-531,531,25726,5.417137622833252,True,,True,1,False,1000,True,1.0
./expes/v2_2020-12-03_dh_100-prng-1,30_issda_100,100,rng-100,71,rng,num-start-241,241,25726,2.4044692516326904,True,,True,1,False,1000,True,1.0
./expes/v2_2020-12-03_dh_100-prng-1,30_issda_100,100,rng-100,31,rng,num-start-651,651,25726,6.80038857460022,True,,True,1,False,1000,True,1.0
./expes/v2_2020-12-03_dh_100-prng-1,30_issda_100,100,rng-100,61,rng,num-start-191,191,25726,2.20607328414917,True,,True,1,False,1000,True,1.0
./expes/v2_2020-12-03_dh_100-prng-1,30_issda_100,100,rng-100,71,rng,num-start-891,891,25726,8.697783708572388,True,,True,1,False,1000,True,1.0
./expes/v2_2020-12-03_dh_100-prng-1,30_issda_100,100,rng-100,11,rng,num-start-711,711,25726,6.390430450439453,True,,True,1,False,1000,True,1.0
./expes/v2_2020-12-03_dh_100-prng-1,30_issda_100,100,rng-100,91,rng,num-start-241,241,25726,2.292382001876831,True,,True,1,False,1000,True,1.0
./expes/v2_2020-12-03_dh_100-prng-1,30_issda_100,100,rng-100,21,rng,num-start-111,111,25726,1.2364215850830078,True,,True,1,False,1000,True,1.0
./expes/v2_2020-12-03_dh_100-prng-1,30_issda_100,100,rng-100,41,rng,num-start-1,1,25726,0.04007220268249512,False,,False,2,False,1000,True,1.0
./expes/v2_2020-12-03_dh_100-prng-1,30_issda_100,100,rng-100,1,rng,num-start-321,321,25726,2.8340799808502197,True,,True,1,False,1000,True,1.0
./expes/v2_2020-12-03_dh_100-prng-1,30_issda_100,100,rng-100,71,rng,num-start-271,271,25726,3.038620948791504,True,,True,1,False,1000,True,1.0
./expes/v2_2020-12-03_dh_100-prng-1,30_issda_100,100,rng-100,11,rng,num-start-351,351,25726,3.7613017559051514,True,,True,1,False,1000,True,1.0
./expes/v2_2020-12-03_dh_100-prng-1,30_issda_100,100,rng-100,31,rng,num-start-511,511,25726,5.223873853683472,True,,True,1,False,1000,True,1.0
./expes/v2_2020-12-03_dh_100-prng-1,30_issda_100,100,rng-100,81,rng,num-start-301,301,25726,3.005967378616333,True,,True,1,False,1000,True,1.0
./expes/v2_2020-12-03_dh_100-prng-1,30_issda_100,100,rng-100,21,rng,num-start-621,621,25726,6.066436052322388,True,,True,1,False,1000,True,1.0
./expes/v2_2020-12-03_dh_100-prng-1,30_issda_100,100,rng-100,81,rng,num-start-211,211,25726,2.24467134475708,True,,True,1,False,1000,True,1.0
./expes/v2_2020-12-03_dh_100-prng-1,30_issda_100,100,rng-100,71,rng,num-start-351,351,25726,3.973834276199341,True,,True,1,False,1000,True,1.0
./expes/v2_2020-12-03_dh_100-prng-1,30_issda_100,100,rng-100,21,rng,num-start-161,161,25726,1.822094440460205,True,,True,1,False,1000,True,1.0
./expes/v2_2020-12-03_dh_100-prng-1,30_issda_100,100,rng-100,71,rng,num-start-871,871,25726,8.743571281433105,True,,True,1,False,1000,True,1.0
./expes/v2_2020-12-03_dh_100-prng-1,30_issda_100,100,rng-100,81,rng,num-start-531,531,25726,5.332199573516846,True,,True,1,False,1000,True,1.0
./expes/v2_2020-12-03_dh_100-prng-1,30_issda_100,100,rng-100,21,rng,num-start-561,561,25726,5.623229026794434,True,,True,1,False,1000,True,1.0
./expes/v2_2020-12-03_dh_100-prng-1,30_issda_100,100,rng-100,91,rng,num-start-401,401,25726,3.5088999271392822,True,,True,1,False,1000,True,1.0
./expes/v2_2020-12-03_dh_100-prng-1,30_issda_100,100,rng-100,51,rng,num-start-81,81,25726,0.9144434928894043,True,,True,1,False,1000,True,1.0
./expes/v2_2020-12-03_dh_100-prng-1,30_issda_100,100,rng-100,1,rng,num-start-491,491,25726,4.328345537185669,True,,True,1,False,1000,True,1.0
./expes/v2_2020-12-03_dh_100-prng-1,30_issda_100,100,rng-100,71,rng,num-start-31,31,25726,0.9159336090087891,True,,True,1,False,1000,True,1.0
./expes/v2_2020-12-03_dh_100-prng-1,30_issda_100,100,rng-100,41,rng,num-start-141,141,25726,1.716632604598999,True,,True,1,False,1000,True,1.0
./expes/v2_2020-12-03_dh_100-prng-1,30_issda_100,100,rng-100,71,rng,num-start-671,671,25726,6.552520751953125,True,,True,1,False,1000,True,1.0
./expes/v2_2020-12-03_dh_100-prng-1,30_issda_100,100,rng-100,11,rng,num-start-641,641,25726,5.662591934204102,True,,True,1,False,1000,True,1.0
./expes/v2_2020-12-03_dh_100-prng-1,30_issda_100,100,rng-100,31,rng,num-start-701,701,25726,7.024832487106323,True,,True,1,False,1000,True,1.0
./expes/v2_2020-12-03_dh_100-prng-1,30_issda_100,100,rng-100,81,rng,num-start-631,631,25726,6.445802211761475,True,,True,1,False,1000,True,1.0
./expes/v2_2020-12-03_dh_100-prng-1,30_issda_100,100,rng-100,21,rng,num-start-581,581,25726,5.902281045913696,True,,True,1,False,1000,True,1.0
./expes/v2_2020-12-03_dh_100-prng-1,30_issda_100,100,rng-100,61,rng,num-start-241,241,25726,2.60688853263855,True,,True,1,False,1000,True,1.0
./expes/v2_2020-12-03_dh_100-prng-1,30_issda_100,100,rng-100,51,rng,num-start-781,781,25726,7.573505163192749,True,,True,1,False,1000,True,1.0
./expes/v2_2020-12-03_dh_100-prng-1,30_issda_100,100,rng-100,1,rng,num-start-381,381,25726,3.350330114364624,True,,True,1,False,1000,True,1.0
./expes/v2_2020-12-03_dh_100-prng-1,30_issda_100,100,rng-100,61,rng,num-start-881,881,25726,8.629969835281372,True,,True,1,False,1000,True,1.0
./expes/v2_2020-12-03_dh_100-prng-1,30_issda_100,100,rng-100,51,rng,num-start-481,481,25726,4.73864221572876,True,,True,1,False,1000,True,1.0
./expes/v2_2020-12-03_dh_100-prng-1,30_issda_100,100,rng-100,81,rng,num-start-211,211,25726,2.077854633331299,True,,True,1,False,1000,True,1.0
./expes/v2_2020-12-03_dh_100-prng-1,30_issda_100,100,rng-100,61,rng,num-start-661,661,25726,6.536211729049683,True,,True,1,False,1000,True,1.0
./expes/v2_2020-12-03_dh_100-prng-1,30_issda_100,100,rng-100,1,rng,num-start-841,841,25726,7.4185991287231445,True,,True,1,False,1000,True,1.0
./expes/v2_2020-12-03_dh_100-prng-1,30_issda_100,100,rng-100,61,rng,num-start-481,481,25726,5.207125425338745,True,,True,1,False,1000,True,1.0
./expes/v2_2020-12-03_dh_100-prng-1,30_issda_100,100,rng-100,61,rng,num-start-911,911,25726,8.97265338897705,True,,True,1,False,1000,True,1.0
./expes/v2_2020-12-03_dh_100-prng-1,30_issda_100,100,rng-100,91,rng,num-start-941,941,25726,8.290503740310669,True,,True,1,False,1000,True,1.0
./expes/v2_2020-12-03_dh_100-prng-1,30_issda_100,100,rng-100,41,rng,num-start-281,281,25726,2.8132498264312744,True,,True,1,False,1000,True,1.0
./expes/v2_2020-12-03_dh_100-prng-1,30_issda_100,100,rng-100,21,rng,num-start-201,201,25726,2.1541244983673096,True,,True,1,False,1000,True,1.0
./expes/v2_2020-12-03_dh_100-prng-1,30_issda_100,100,rng-100,91,rng,num-start-901,901,25726,8.293082475662231,True,,True,1,False,1000,True,1.0
./expes/v2_2020-12-03_dh_100-prng-1,30_issda_100,100,rng-100,31,rng,num-start-371,371,25726,3.6121158599853516,True,,True,1,False,1000,True,1.0
./expes/v2_2020-12-03_dh_100-prng-1,30_issda_100,100,rng-100,81,rng,num-start-191,191,25726,2.094554901123047,True,,True,1,False,1000,True,1.0
./expes/v2_2020-12-03_dh_100-prng-1,30_issda_100,100,rng-100,41,rng,num-start-651,651,25726,7.067298889160156,True,,True,1,False,1000,True,1.0
./expes/v2_2020-12-03_dh_100-prng-1,30_issda_100,100,rng-100,61,rng,num-start-951,951,25726,9.718051195144653,True,,True,1,False,1000,True,1.0
./expes/v2_2020-12-03_dh_100-prng-1,30_issda_100,100,rng-100,31,rng,num-start-41,41,25726,0.9968879222869873,True,,True,1,False,1000,True,1.0
./expes/v2_2020-12-03_dh_100-prng-1,30_issda_100,100,rng-100,81,rng,num-start-591,591,25726,6.294629096984863,True,,True,1,False,1000,True,1.0
./expes/v2_2020-12-03_dh_100-prng-1,30_issda_100,100,rng-100,61,rng,num-start-821,821,25726,8.382635354995728,True,,True,1,False,1000,True,1.0
./expes/v2_2020-12-03_dh_100-prng-1,30_issda_100,100,rng-100,41,rng,num-start-931,931,25726,9.51397442817688,True,,True,1,False,1000,True,1.0
./expes/v2_2020-12-03_dh_100-prng-1,30_issda_100,100,rng-100,91,rng,num-start-781,781,25726,6.994434356689453,True,,True,1,False,1000,True,1.0
./expes/v2_2020-12-03_dh_100-prng-1,30_issda_100,100,rng-100,71,rng,num-start-401,401,25726,4.164607048034668,True,,True,1,False,1000,True,1.0
./expes/v2_2020-12-03_dh_100-prng-1,30_issda_100,100,rng-100,1,rng,num-start-841,841,25726,7.402877569198608,True,,True,1,False,1000,True,1.0
./expes/v2_2020-12-03_dh_100-prng-1,30_issda_100,100,rng-100,1,rng,num-start-311,311,25726,2.7673656940460205,True,,True,1,False,1000,True,1.0
./expes/v2_2020-12-03_dh_100-prng-1,30_issda_100,100,rng-100,51,rng,num-start-551,551,25726,5.582939386367798,True,,True,1,False,1000,True,1.0
./expes/v2_2020-12-03_dh_100-prng-1,30_issda_100,100,rng-100,21,rng,num-start-721,721,25726,7.163776636123657,True,,True,1,False,1000,True,1.0
./expes/v2_2020-12-03_dh_100-prng-1,30_issda_100,100,rng-100,81,rng,num-start-841,841,25726,8.2971773147583,True,,True,1,False,1000,True,1.0
./expes/v2_2020-12-03_dh_100-prng-1,30_issda_100,100,rng-100,71,rng,num-start-881,881,25726,8.470546960830688,True,,True,1,False,1000,True,1.0
./expes/v2_2020-12-03_dh_100-prng-1,30_issda_100,100,rng-100,21,rng,num-start-731,731,25726,7.087220668792725,True,,True,1,False,1000,True,1.0
./expes/v2_2020-12-03_dh_100-prng-1,30_issda_100,100,rng-100,31,rng,num-start-241,241,25726,2.650587320327759,True,,True,1,False,1000,True,1.0
./expes/v2_2020-12-03_dh_100-prng-1,30_issda_100,100,rng-100,71,rng,num-start-11,11,25726,1000.1781148910522,False,,False,0,True,1000,True,0.0
./expes/v2_2020-12-03_dh_100-prng-1,30_issda_100,100,rng-100,81,rng,num-start-591,591,25726,5.497216701507568,True,,True,1,False,1000,True,1.0
./expes/v2_2020-12-03_dh_100-prng-1,30_issda_100,100,rng-100,61,rng,num-start-141,141,25726,1.5175449848175049,True,,True,1,False,1000,True,1.0
./expes/v2_2020-12-03_dh_100-prng-1,30_issda_100,100,rng-100,51,rng,num-start-721,721,25726,7.2055981159210205,True,,True,1,False,1000,True,1.0
./expes/v2_2020-12-03_dh_100-prng-1,30_issda_100,100,rng-100,71,rng,num-start-791,791,25726,7.777881622314453,True,,True,1,False,1000,True,1.0
./expes/v2_2020-12-03_dh_100-prng-1,30_issda_100,100,rng-100,71,rng,num-start-661,661,25726,6.8713085651397705,True,,True,1,False,1000,True,1.0
./expes/v2_2020-12-03_dh_100-prng-1,30_issda_100,100,rng-100,61,rng,num-start-661,661,25726,6.487046241760254,True,,True,1,False,1000,True,1.0
./expes/v2_2020-12-03_dh_100-prng-1,30_issda_100,100,rng-100,71,rng,num-start-541,541,25726,5.5197062492370605,True,,True,1,False,1000,True,1.0
./expes/v2_2020-12-03_dh_100-prng-1,30_issda_100,100,rng-100,41,rng,num-start-351,351,25726,4.218840837478638,True,,True,1,False,1000,True,1.0
./expes/v2_2020-12-03_dh_100-prng-1,30_issda_100,100,rng-100,81,rng,num-start-331,331,25726,3.3737058639526367,True,,True,1,False,1000,True,1.0
./expes/v2_2020-12-03_dh_100-prng-1,30_issda_100,100,rng-100,31,rng,num-start-51,51,25726,0.6420013904571533,True,,True,1,False,1000,True,1.0
./expes/v2_2020-12-03_dh_100-prng-1,30_issda_100,100,rng-100,71,rng,num-start-261,261,25726,2.6428143978118896,True,,True,1,False,1000,True,1.0
./expes/v2_2020-12-03_dh_100-prng-1,30_issda_100,100,rng-100,51,rng,num-start-541,541,25726,5.166512727737427,True,,True,1,False,1000,True,1.0
./expes/v2_2020-12-03_dh_100-prng-1,30_issda_100,100,rng-100,41,rng,num-start-161,161,25726,1.7713115215301514,True,,True,1,False,1000,True,1.0
./expes/v2_2020-12-03_dh_100-prng-1,30_issda_100,100,rng-100,41,rng,num-start-511,511,25726,5.211429119110107,True,,True,1,False,1000,True,1.0
./expes/v2_2020-12-03_dh_100-prng-1,30_issda_100,100,rng-100,31,rng,num-start-421,421,25726,4.138991355895996,True,,True,1,False,1000,True,1.0
./expes/v2_2020-12-03_dh_100-prng-1,30_issda_100,100,rng-100,51,rng,num-start-441,441,25726,4.505739450454712,True,,True,1,False,1000,True,1.0
./expes/v2_2020-12-03_dh_100-prng-1,30_issda_100,100,rng-100,41,rng,num-start-661,661,25726,6.901699542999268,True,,True,1,False,1000,True,1.0
./expes/v2_2020-12-03_dh_100-prng-1,30_issda_100,100,rng-100,71,rng,num-start-241,241,25726,2.5052876472473145,True,,True,1,False,1000,True,1.0
./expes/v2_2020-12-03_dh_100-prng-1,30_issda_100,100,rng-100,31,rng,num-start-341,341,25726,3.841398239135742,True,,True,1,False,1000,True,1.0
./expes/v2_2020-12-03_dh_100-prng-1,30_issda_100,100,rng-100,51,rng,num-start-211,211,25726,2.353041172027588,True,,True,1,False,1000,True,1.0
./expes/v2_2020-12-03_dh_100-prng-1,30_issda_100,100,rng-100,21,rng,num-start-441,441,25726,4.318296909332275,True,,True,1,False,1000,True,1.0
./expes/v2_2020-12-03_dh_100-prng-1,30_issda_100,100,rng-100,41,rng,num-start-111,111,25726,1.3013925552368164,True,,True,1,False,1000,True,1.0
./expes/v2_2020-12-03_dh_100-prng-1,30_issda_100,100,rng-100,91,rng,num-start-711,711,25726,5.844393968582153,True,,True,1,False,1000,True,1.0
./expes/v2_2020-12-03_dh_100-prng-1,30_issda_100,100,rng-100,51,rng,num-start-741,741,25726,7.4630210399627686,True,,True,1,False,1000,True,1.0
./expes/v2_2020-12-03_dh_100-prng-1,30_issda_100,100,rng-100,81,rng,num-start-931,931,25726,8.88707947731018,True,,True,1,False,1000,True,1.0
./expes/v2_2020-12-03_dh_100-prng-1,30_issda_100,100,rng-100,81,rng,num-start-51,51,25726,0.7312881946563721,True,,True,1,False,1000,True,1.0
./expes/v2_2020-12-03_dh_100-prng-1,30_issda_100,100,rng-100,81,rng,num-start-891,891,25726,8.658762693405151,True,,True,1,False,1000,True,1.0
./expes/v2_2020-12-03_dh_100-prng-1,30_issda_100,100,rng-100,1,rng,num-start-881,881,25726,8.040332794189453,True,,True,1,False,1000,True,1.0
./expes/v2_2020-12-03_dh_100-prng-1,30_issda_100,100,rng-100,91,rng,num-start-201,201,25726,1.8735401630401611,True,,True,1,False,1000,True,1.0
./expes/v2_2020-12-03_dh_100-prng-1,30_issda_100,100,rng-100,1,rng,num-start-551,551,25726,5.1189587116241455,True,,True,1,False,1000,True,1.0
./expes/v2_2020-12-03_dh_100-prng-1,30_issda_100,100,rng-100,71,rng,num-start-71,71,25726,1.1173748970031738,True,,True,1,False,1000,True,1.0
./expes/v2_2020-12-03_dh_100-prng-1,30_issda_100,100,rng-100,1,rng,num-start-111,111,25726,0.9876809120178223,True,,True,1,False,1000,True,1.0
./expes/v2_2020-12-03_dh_100-prng-1,30_issda_100,100,rng-100,61,rng,num-start-361,361,25726,3.3890907764434814,True,,True,1,False,1000,True,1.0
./expes/v2_2020-12-03_dh_100-prng-1,30_issda_100,100,rng-100,51,rng,num-start-801,801,25726,8.177626132965088,True,,True,1,False,1000,True,1.0
./expes/v2_2020-12-03_dh_100-prng-1,30_issda_100,100,rng-100,81,rng,num-start-121,121,25726,1.5181970596313477,True,,True,1,False,1000,True,1.0
./expes/v2_2020-12-03_dh_100-prng-1,30_issda_100,100,rng-100,51,rng,num-start-371,371,25726,3.5613338947296143,True,,True,1,False,1000,True,1.0
./expes/v2_2020-12-03_dh_100-prng-1,30_issda_100,100,rng-100,51,rng,num-start-871,871,25726,8.600024223327637,True,,True,1,False,1000,True,1.0
./expes/v2_2020-12-03_dh_100-prng-1,30_issda_100,100,rng-100,81,rng,num-start-51,51,25726,0.639864444732666,True,,True,1,False,1000,True,1.0
./expes/v2_2020-12-03_dh_100-prng-1,30_issda_100,100,rng-100,41,rng,num-start-381,381,25726,3.7831296920776367,True,,True,1,False,1000,True,1.0
./expes/v2_2020-12-03_dh_100-prng-1,30_issda_100,100,rng-100,51,rng,num-start-941,941,25726,10.29142713546753,True,,True,1,False,1000,True,1.0
./expes/v2_2020-12-03_dh_100-prng-1,30_issda_100,100,rng-100,1,rng,num-start-161,161,25726,1.5119140148162842,True,,True,1,False,1000,True,1.0
./expes/v2_2020-12-03_dh_100-prng-1,30_issda_100,100,rng-100,71,rng,num-start-81,81,25726,0.9647877216339111,True,,True,1,False,1000,True,1.0
./expes/v2_2020-12-03_dh_100-prng-1,30_issda_100,100,rng-100,41,rng,num-start-641,641,25726,6.471397876739502,True,,True,1,False,1000,True,1.0
./expes/v2_2020-12-03_dh_100-prng-1,30_issda_100,100,rng-100,61,rng,num-start-461,461,25726,4.766698122024536,True,,True,1,False,1000,True,1.0
./expes/v2_2020-12-03_dh_100-prng-1,30_issda_100,100,rng-100,81,rng,num-start-431,431,25726,4.460549831390381,True,,True,1,False,1000,True,1.0
./expes/v2_2020-12-03_dh_100-prng-1,30_issda_100,100,rng-100,61,rng,num-start-751,751,25726,7.22628116607666,True,,True,1,False,1000,True,1.0
./expes/v2_2020-12-03_dh_100-prng-1,30_issda_100,100,rng-100,51,rng,num-start-661,661,25726,6.620118141174316,True,,True,1,False,1000,True,1.0
./expes/v2_2020-12-03_dh_100-prng-1,30_issda_100,100,rng-100,31,rng,num-start-11,11,25726,1003.6441903114319,False,,False,0,True,1000,True,0.0
