expe,clients,clients_size,clients_subset,agg_size,method,days,days_size,days_total,time,valid,valid_sum,success,nsols,wall_hit,wall_time,pooled,valid_sums
./expes/v2_2020-11-05_dbh_150-prng-1,daily_base_hphc_150,150,first-150,31,rng,num-start-201,201,365,2.1820249557495117,True,,True,1,False,1000,True,1.0
./expes/v2_2020-11-05_dbh_150-prng-1,daily_base_hphc_150,150,first-150,121,rng,num-start-201,201,365,1.847632646560669,True,,True,1,False,1000,True,1.0
./expes/v2_2020-11-05_dbh_150-prng-1,daily_base_hphc_150,150,first-150,101,rng,num-start-111,111,365,1.0391218662261963,True,,True,1,False,1000,True,1.0
./expes/v2_2020-11-05_dbh_150-prng-1,daily_base_hphc_150,150,first-150,41,rng,num-start-291,291,365,2.3179757595062256,True,,True,1,False,1000,True,1.0
./expes/v2_2020-11-05_dbh_150-prng-1,daily_base_hphc_150,150,first-150,11,rng,num-start-151,151,365,1.4913172721862793,True,,True,1,False,1000,True,1.0
./expes/v2_2020-11-05_dbh_150-prng-1,daily_base_hphc_150,150,first-150,31,rng,num-start-121,121,365,1.1074192523956299,True,,True,1,False,1000,True,1.0
./expes/v2_2020-11-05_dbh_150-prng-1,daily_base_hphc_150,150,first-150,91,rng,num-start-11,11,365,1000.2262880802155,False,,False,0,True,1000,True,0.0
./expes/v2_2020-11-05_dbh_150-prng-1,daily_base_hphc_150,150,first-150,111,rng,num-start-131,131,365,1.2767705917358398,True,,True,1,False,1000,True,1.0
./expes/v2_2020-11-05_dbh_150-prng-1,daily_base_hphc_150,150,first-150,121,rng,num-start-171,171,365,1.6705114841461182,True,,True,1,False,1000,True,1.0
./expes/v2_2020-11-05_dbh_150-prng-1,daily_base_hphc_150,150,first-150,81,rng,num-start-1,1,365,0.06395173072814941,False,,False,2,False,1000,True,1.0
./expes/v2_2020-11-05_dbh_150-prng-1,daily_base_hphc_150,150,first-150,71,rng,num-start-271,271,365,2.3038511276245117,True,,True,1,False,1000,True,1.0
./expes/v2_2020-11-05_dbh_150-prng-1,daily_base_hphc_150,150,first-150,21,rng,num-start-251,251,365,2.23081636428833,True,,True,1,False,1000,True,1.0
./expes/v2_2020-11-05_dbh_150-prng-1,daily_base_hphc_150,150,first-150,81,rng,num-start-31,31,365,1000.464702129364,False,,False,0,True,1000,True,0.0
./expes/v2_2020-11-05_dbh_150-prng-1,daily_base_hphc_150,150,first-150,1,rng,num-start-231,231,365,1.623765230178833,True,,True,1,False,1000,True,1.0
./expes/v2_2020-11-05_dbh_150-prng-1,daily_base_hphc_150,150,first-150,111,rng,num-start-81,81,365,0.8292198181152344,True,,True,1,False,1000,True,1.0
./expes/v2_2020-11-05_dbh_150-prng-1,daily_base_hphc_150,150,first-150,101,rng,num-start-251,251,365,2.372236490249634,True,,True,1,False,1000,True,1.0
./expes/v2_2020-11-05_dbh_150-prng-1,daily_base_hphc_150,150,first-150,81,rng,num-start-101,101,365,1.0761053562164307,True,,True,1,False,1000,True,1.0
./expes/v2_2020-11-05_dbh_150-prng-1,daily_base_hphc_150,150,first-150,111,rng,num-start-61,61,365,0.8525130748748779,True,,True,1,False,1000,True,1.0
./expes/v2_2020-11-05_dbh_150-prng-1,daily_base_hphc_150,150,first-150,101,rng,num-start-41,41,365,1000.6615717411041,False,,False,1,True,1000,True,0.0
./expes/v2_2020-11-05_dbh_150-prng-1,daily_base_hphc_150,150,first-150,51,rng,num-start-151,151,365,1.8067970275878906,True,,True,1,False,1000,True,1.0
./expes/v2_2020-11-05_dbh_150-prng-1,daily_base_hphc_150,150,first-150,101,rng,num-start-291,291,365,2.777418375015259,True,,True,1,False,1000,True,1.0
./expes/v2_2020-11-05_dbh_150-prng-1,daily_base_hphc_150,150,first-150,51,rng,num-start-1,1,365,0.02466559410095215,False,,False,2,False,1000,True,1.0
./expes/v2_2020-11-05_dbh_150-prng-1,daily_base_hphc_150,150,first-150,101,rng,num-start-281,281,365,2.599895477294922,True,,True,1,False,1000,True,1.0
./expes/v2_2020-11-05_dbh_150-prng-1,daily_base_hphc_150,150,first-150,71,rng,num-start-11,11,365,1000.1401512622833,False,,False,0,True,1000,True,0.0
./expes/v2_2020-11-05_dbh_150-prng-1,daily_base_hphc_150,150,first-150,51,rng,num-start-281,281,365,2.5511038303375244,True,,True,1,False,1000,True,1.0
./expes/v2_2020-11-05_dbh_150-prng-1,daily_base_hphc_150,150,first-150,71,rng,num-start-11,11,365,1000.1999478340149,False,,False,0,True,1000,True,0.0
./expes/v2_2020-11-05_dbh_150-prng-1,daily_base_hphc_150,150,first-150,141,rng,num-start-281,281,365,2.407907724380493,True,,True,1,False,1000,True,1.0
./expes/v2_2020-11-05_dbh_150-prng-1,daily_base_hphc_150,150,first-150,81,rng,num-start-141,141,365,1.5107641220092773,True,,True,1,False,1000,True,1.0
./expes/v2_2020-11-05_dbh_150-prng-1,daily_base_hphc_150,150,first-150,61,rng,num-start-231,231,365,2.1968376636505127,True,,True,1,False,1000,True,1.0
./expes/v2_2020-11-05_dbh_150-prng-1,daily_base_hphc_150,150,first-150,121,rng,num-start-161,161,365,1.641901969909668,True,,True,1,False,1000,True,1.0
./expes/v2_2020-11-05_dbh_150-prng-1,daily_base_hphc_150,150,first-150,111,rng,num-start-41,41,365,6.848363399505615,True,,True,1,False,1000,True,1.0
./expes/v2_2020-11-05_dbh_150-prng-1,daily_base_hphc_150,150,first-150,111,rng,num-start-31,31,365,1012.4905924797058,False,,False,0,True,1000,True,0.0
