expe,clients,clients_size,clients_subset,agg_size,method,days,days_size,days_total,time,valid,valid_sum,success,nsols,wall_hit,wall_time,pooled,valid_sums
./expes/v2_2020-11-05_dbh_150-prng-1,daily_base_hphc_150,150,first-150,91,rng,num-start-151,151,365,2.0421690940856934,True,,True,1,False,1000,True,1.0
./expes/v2_2020-11-05_dbh_150-prng-1,daily_base_hphc_150,150,first-150,41,rng,num-start-21,21,365,1001.1137146949768,False,,False,0,True,1000,True,0.0
./expes/v2_2020-11-05_dbh_150-prng-1,daily_base_hphc_150,150,first-150,61,rng,num-start-91,91,365,1.1093535423278809,True,,True,1,False,1000,True,1.0
./expes/v2_2020-11-05_dbh_150-prng-1,daily_base_hphc_150,150,first-150,31,rng,num-start-201,201,365,2.3205058574676514,True,,True,1,False,1000,True,1.0
./expes/v2_2020-11-05_dbh_150-prng-1,daily_base_hphc_150,150,first-150,61,rng,num-start-131,131,365,1.540006160736084,True,,True,1,False,1000,True,1.0
./expes/v2_2020-11-05_dbh_150-prng-1,daily_base_hphc_150,150,first-150,51,rng,num-start-231,231,365,2.86568546295166,True,,True,1,False,1000,True,1.0
./expes/v2_2020-11-05_dbh_150-prng-1,daily_base_hphc_150,150,first-150,121,rng,num-start-81,81,365,0.9262208938598633,True,,True,1,False,1000,True,1.0
./expes/v2_2020-11-05_dbh_150-prng-1,daily_base_hphc_150,150,first-150,81,rng,num-start-181,181,365,2.126775026321411,True,,True,1,False,1000,True,1.0
./expes/v2_2020-11-05_dbh_150-prng-1,daily_base_hphc_150,150,first-150,41,rng,num-start-31,31,365,1001.3754272460938,False,,False,0,True,1000,True,0.0
./expes/v2_2020-11-05_dbh_150-prng-1,daily_base_hphc_150,150,first-150,41,rng,num-start-121,121,365,1.5147392749786377,True,,True,1,False,1000,True,1.0
./expes/v2_2020-11-05_dbh_150-prng-1,daily_base_hphc_150,150,first-150,1,rng,num-start-111,111,365,0.9923303127288818,True,,True,1,False,1000,True,1.0
./expes/v2_2020-11-05_dbh_150-prng-1,daily_base_hphc_150,150,first-150,141,rng,num-start-51,51,365,0.635033369064331,True,,True,1,False,1000,True,1.0
./expes/v2_2020-11-05_dbh_150-prng-1,daily_base_hphc_150,150,first-150,121,rng,num-start-291,291,365,3.140194892883301,True,,True,1,False,1000,True,1.0
./expes/v2_2020-11-05_dbh_150-prng-1,daily_base_hphc_150,150,first-150,111,rng,num-start-101,101,365,1.3250360488891602,True,,True,1,False,1000,True,1.0
./expes/v2_2020-11-05_dbh_150-prng-1,daily_base_hphc_150,150,first-150,91,rng,num-start-161,161,365,2.020359754562378,True,,True,1,False,1000,True,1.0
./expes/v2_2020-11-05_dbh_150-prng-1,daily_base_hphc_150,150,first-150,81,rng,num-start-191,191,365,2.561842441558838,True,,True,1,False,1000,True,1.0
./expes/v2_2020-11-05_dbh_150-prng-1,daily_base_hphc_150,150,first-150,141,rng,num-start-11,11,365,120.64332270622253,True,,True,1,False,1000,True,1.0
./expes/v2_2020-11-05_dbh_150-prng-1,daily_base_hphc_150,150,first-150,1,rng,num-start-31,31,365,0.2733020782470703,True,,True,1,False,1000,True,1.0
./expes/v2_2020-11-05_dbh_150-prng-1,daily_base_hphc_150,150,first-150,121,rng,num-start-101,101,365,1.2408180236816406,True,,True,1,False,1000,True,1.0
./expes/v2_2020-11-05_dbh_150-prng-1,daily_base_hphc_150,150,first-150,141,rng,num-start-71,71,365,0.8631889820098877,True,,True,1,False,1000,True,1.0
./expes/v2_2020-11-05_dbh_150-prng-1,daily_base_hphc_150,150,first-150,31,rng,num-start-51,51,365,1.8077218532562256,True,,True,1,False,1000,True,1.0
./expes/v2_2020-11-05_dbh_150-prng-1,daily_base_hphc_150,150,first-150,41,rng,num-start-11,11,365,1000.1676309108734,False,,False,0,True,1000,True,0.0
./expes/v2_2020-11-05_dbh_150-prng-1,daily_base_hphc_150,150,first-150,71,rng,num-start-111,111,365,1.5402789115905762,True,,True,1,False,1000,True,1.0
./expes/v2_2020-11-05_dbh_150-prng-1,daily_base_hphc_150,150,first-150,21,rng,num-start-41,41,365,0.5923254489898682,True,,True,1,False,1000,True,1.0
./expes/v2_2020-11-05_dbh_150-prng-1,daily_base_hphc_150,150,first-150,111,rng,num-start-231,231,365,2.836909770965576,True,,True,1,False,1000,True,1.0
./expes/v2_2020-11-05_dbh_150-prng-1,daily_base_hphc_150,150,first-150,121,rng,num-start-171,171,365,2.0801777839660645,True,,True,1,False,1000,True,1.0
./expes/v2_2020-11-05_dbh_150-prng-1,daily_base_hphc_150,150,first-150,111,rng,num-start-111,111,365,1.337808609008789,True,,True,1,False,1000,True,1.0
./expes/v2_2020-11-05_dbh_150-prng-1,daily_base_hphc_150,150,first-150,11,rng,num-start-131,131,365,1.5355310440063477,True,,True,1,False,1000,True,1.0
./expes/v2_2020-11-05_dbh_150-prng-1,daily_base_hphc_150,150,first-150,101,rng,num-start-131,131,365,1.5464303493499756,True,,True,1,False,1000,True,1.0
./expes/v2_2020-11-05_dbh_150-prng-1,daily_base_hphc_150,150,first-150,141,rng,num-start-161,161,365,2.0081725120544434,True,,True,1,False,1000,True,1.0
./expes/v2_2020-11-05_dbh_150-prng-1,daily_base_hphc_150,150,first-150,51,rng,num-start-291,291,365,3.50415301322937,True,,True,1,False,1000,True,1.0
./expes/v2_2020-11-05_dbh_150-prng-1,daily_base_hphc_150,150,first-150,131,rng,num-start-231,231,365,2.651183843612671,True,,True,1,False,1000,True,1.0
./expes/v2_2020-11-05_dbh_150-prng-1,daily_base_hphc_150,150,first-150,141,rng,num-start-241,241,365,2.684070348739624,True,,True,1,False,1000,True,1.0
./expes/v2_2020-11-05_dbh_150-prng-1,daily_base_hphc_150,150,first-150,101,rng,num-start-241,241,365,2.9798965454101562,True,,True,1,False,1000,True,1.0
./expes/v2_2020-11-05_dbh_150-prng-1,daily_base_hphc_150,150,first-150,81,rng,num-start-291,291,365,3.492398738861084,True,,True,1,False,1000,True,1.0
./expes/v2_2020-11-05_dbh_150-prng-1,daily_base_hphc_150,150,first-150,81,rng,num-start-181,181,365,2.137709140777588,True,,True,1,False,1000,True,1.0
./expes/v2_2020-11-05_dbh_150-prng-1,daily_base_hphc_150,150,first-150,21,rng,num-start-221,221,365,2.8200414180755615,True,,True,1,False,1000,True,1.0
./expes/v2_2020-11-05_dbh_150-prng-1,daily_base_hphc_150,150,first-150,21,rng,num-start-201,201,365,2.3237016201019287,True,,True,1,False,1000,True,1.0
./expes/v2_2020-11-05_dbh_150-prng-1,daily_base_hphc_150,150,first-150,111,rng,num-start-251,251,365,2.5347788333892822,True,,True,1,False,1000,True,1.0
./expes/v2_2020-11-05_dbh_150-prng-1,daily_base_hphc_150,150,first-150,51,rng,num-start-151,151,365,1.8500776290893555,True,,True,1,False,1000,True,1.0
./expes/v2_2020-11-05_dbh_150-prng-1,daily_base_hphc_150,150,first-150,91,rng,num-start-241,241,365,2.8652234077453613,True,,True,1,False,1000,True,1.0
./expes/v2_2020-11-05_dbh_150-prng-1,daily_base_hphc_150,150,first-150,1,rng,num-start-151,151,365,1.3647100925445557,True,,True,1,False,1000,True,1.0
./expes/v2_2020-11-05_dbh_150-prng-1,daily_base_hphc_150,150,first-150,51,rng,num-start-241,241,365,3.1175172328948975,True,,True,1,False,1000,True,1.0
./expes/v2_2020-11-05_dbh_150-prng-1,daily_base_hphc_150,150,first-150,11,rng,num-start-11,11,365,1000.1293692588806,False,,False,1,True,1000,True,0.0
./expes/v2_2020-11-05_dbh_150-prng-1,daily_base_hphc_150,150,first-150,41,rng,num-start-271,271,365,3.1829545497894287,True,,True,1,False,1000,True,1.0
./expes/v2_2020-11-05_dbh_150-prng-1,daily_base_hphc_150,150,first-150,21,rng,num-start-191,191,365,2.2483091354370117,True,,True,1,False,1000,True,1.0
./expes/v2_2020-11-05_dbh_150-prng-1,daily_base_hphc_150,150,first-150,11,rng,num-start-191,191,365,2.3053693771362305,True,,True,1,False,1000,True,1.0
./expes/v2_2020-11-05_dbh_150-prng-1,daily_base_hphc_150,150,first-150,101,rng,num-start-81,81,365,1.0331645011901855,True,,True,1,False,1000,True,1.0
./expes/v2_2020-11-05_dbh_150-prng-1,daily_base_hphc_150,150,first-150,111,rng,num-start-141,141,365,1.797236680984497,True,,True,1,False,1000,True,1.0
./expes/v2_2020-11-05_dbh_150-prng-1,daily_base_hphc_150,150,first-150,1,rng,num-start-141,141,365,1.247490406036377,True,,True,1,False,1000,True,1.0
./expes/v2_2020-11-05_dbh_150-prng-1,daily_base_hphc_150,150,first-150,141,rng,num-start-281,281,365,2.805677890777588,True,,True,1,False,1000,True,1.0
./expes/v2_2020-11-05_dbh_150-prng-1,daily_base_hphc_150,150,first-150,111,rng,num-start-101,101,365,1.2624413967132568,True,,True,1,False,1000,True,1.0
./expes/v2_2020-11-05_dbh_150-prng-1,daily_base_hphc_150,150,first-150,111,rng,num-start-71,71,365,0.7775628566741943,True,,True,1,False,1000,True,1.0
./expes/v2_2020-11-05_dbh_150-prng-1,daily_base_hphc_150,150,first-150,21,rng,num-start-121,121,365,1.7122571468353271,True,,True,1,False,1000,True,1.0
./expes/v2_2020-11-05_dbh_150-prng-1,daily_base_hphc_150,150,first-150,41,rng,num-start-11,11,365,1000.1686780452728,False,,False,0,True,1000,True,0.0
./expes/v2_2020-11-05_dbh_150-prng-1,daily_base_hphc_150,150,first-150,91,rng,num-start-151,151,365,1.7879693508148193,True,,True,1,False,1000,True,1.0
./expes/v2_2020-11-05_dbh_150-prng-1,daily_base_hphc_150,150,first-150,21,rng,num-start-201,201,365,2.4415769577026367,True,,True,1,False,1000,True,1.0
./expes/v2_2020-11-05_dbh_150-prng-1,daily_base_hphc_150,150,first-150,71,rng,num-start-141,141,365,1.865082025527954,True,,True,1,False,1000,True,1.0
./expes/v2_2020-11-05_dbh_150-prng-1,daily_base_hphc_150,150,first-150,81,rng,num-start-1,1,365,0.04641294479370117,False,,False,2,False,1000,True,1.0
./expes/v2_2020-11-05_dbh_150-prng-1,daily_base_hphc_150,150,first-150,111,rng,num-start-231,231,365,2.6365396976470947,True,,True,1,False,1000,True,1.0
./expes/v2_2020-11-05_dbh_150-prng-1,daily_base_hphc_150,150,first-150,41,rng,num-start-241,241,365,2.8503384590148926,True,,True,1,False,1000,True,1.0
./expes/v2_2020-11-05_dbh_150-prng-1,daily_base_hphc_150,150,first-150,41,rng,num-start-41,41,365,1000.5268845558167,False,,False,1,True,1000,True,0.0
