expe,clients,clients_size,clients_subset,agg_size,method,days,days_size,days_total,time,valid,valid_sum,success,nsols,wall_hit,wall_time,pooled,valid_sums
./expes/v2_2020-11-05_dbh_150-prng-1,daily_base_hphc_150,150,first-150,11,rng,num-start-171,171,365,3.4837796688079834,True,,True,1,False,1000,True,1.0
./expes/v2_2020-11-05_dbh_150-prng-1,daily_base_hphc_150,150,first-150,71,rng,num-start-221,221,365,4.453783750534058,True,,True,1,False,1000,True,1.0
./expes/v2_2020-11-05_dbh_150-prng-1,daily_base_hphc_150,150,first-150,91,rng,num-start-271,271,365,5.040207624435425,True,,True,1,False,1000,True,1.0
./expes/v2_2020-11-05_dbh_150-prng-1,daily_base_hphc_150,150,first-150,11,rng,num-start-291,291,365,5.339410305023193,True,,True,1,False,1000,True,1.0
./expes/v2_2020-11-05_dbh_150-prng-1,daily_base_hphc_150,150,first-150,91,rng,num-start-241,241,365,4.967394828796387,True,,True,1,False,1000,True,1.0
./expes/v2_2020-11-05_dbh_150-prng-1,daily_base_hphc_150,150,first-150,21,rng,num-start-171,171,365,3.3089921474456787,True,,True,1,False,1000,True,1.0
./expes/v2_2020-11-05_dbh_150-prng-1,daily_base_hphc_150,150,first-150,41,rng,num-start-71,71,365,1.5064575672149658,True,,True,1,False,1000,True,1.0
./expes/v2_2020-11-05_dbh_150-prng-1,daily_base_hphc_150,150,first-150,111,rng,num-start-61,61,365,1.2788114547729492,True,,True,1,False,1000,True,1.0
./expes/v2_2020-11-05_dbh_150-prng-1,daily_base_hphc_150,150,first-150,21,rng,num-start-1,1,365,0.0883638858795166,False,,False,2,False,1000,True,1.0
./expes/v2_2020-11-05_dbh_150-prng-1,daily_base_hphc_150,150,first-150,121,rng,num-start-261,261,365,5.012740850448608,True,,True,1,False,1000,True,1.0
./expes/v2_2020-11-05_dbh_150-prng-1,daily_base_hphc_150,150,first-150,31,rng,num-start-171,171,365,3.303663969039917,True,,True,1,False,1000,True,1.0
./expes/v2_2020-11-05_dbh_150-prng-1,daily_base_hphc_150,150,first-150,121,rng,num-start-81,81,365,1.6188325881958008,True,,True,1,False,1000,True,1.0
./expes/v2_2020-11-05_dbh_150-prng-1,daily_base_hphc_150,150,first-150,131,rng,num-start-151,151,365,3.0029847621917725,True,,True,1,False,1000,True,1.0
./expes/v2_2020-11-05_dbh_150-prng-1,daily_base_hphc_150,150,first-150,41,rng,num-start-131,131,365,2.64760422706604,True,,True,1,False,1000,True,1.0
./expes/v2_2020-11-05_dbh_150-prng-1,daily_base_hphc_150,150,first-150,101,rng,num-start-241,241,365,4.673405885696411,True,,True,1,False,1000,True,1.0
./expes/v2_2020-11-05_dbh_150-prng-1,daily_base_hphc_150,150,first-150,131,rng,num-start-101,101,365,2.015327215194702,True,,True,1,False,1000,True,1.0
./expes/v2_2020-11-05_dbh_150-prng-1,daily_base_hphc_150,150,first-150,61,rng,num-start-191,191,365,3.8723084926605225,True,,True,1,False,1000,True,1.0
./expes/v2_2020-11-05_dbh_150-prng-1,daily_base_hphc_150,150,first-150,31,rng,num-start-1,1,365,0.1157371997833252,False,,False,2,False,1000,True,1.0
./expes/v2_2020-11-05_dbh_150-prng-1,daily_base_hphc_150,150,first-150,71,rng,num-start-191,191,365,4.057420253753662,True,,True,1,False,1000,True,1.0
./expes/v2_2020-11-05_dbh_150-prng-1,daily_base_hphc_150,150,first-150,1,rng,num-start-71,71,365,1.1788110733032227,True,,True,1,False,1000,True,1.0
./expes/v2_2020-11-05_dbh_150-prng-1,daily_base_hphc_150,150,first-150,131,rng,num-start-201,201,365,3.803607225418091,True,,True,1,False,1000,True,1.0
./expes/v2_2020-11-05_dbh_150-prng-1,daily_base_hphc_150,150,first-150,71,rng,num-start-271,271,365,5.105112314224243,True,,True,1,False,1000,True,1.0
./expes/v2_2020-11-05_dbh_150-prng-1,daily_base_hphc_150,150,first-150,81,rng,num-start-261,261,365,4.8833653926849365,True,,True,1,False,1000,True,1.0
./expes/v2_2020-11-05_dbh_150-prng-1,daily_base_hphc_150,150,first-150,31,rng,num-start-51,51,365,1.4112560749053955,True,,True,1,False,1000,True,1.0
./expes/v2_2020-11-05_dbh_150-prng-1,daily_base_hphc_150,150,first-150,31,rng,num-start-121,121,365,2.482652187347412,True,,True,1,False,1000,True,1.0
./expes/v2_2020-11-05_dbh_150-prng-1,daily_base_hphc_150,150,first-150,31,rng,num-start-51,51,365,2.500877857208252,True,,True,1,False,1000,True,1.0
./expes/v2_2020-11-05_dbh_150-prng-1,daily_base_hphc_150,150,first-150,81,rng,num-start-201,201,365,4.002813100814819,True,,True,1,False,1000,True,1.0
./expes/v2_2020-11-05_dbh_150-prng-1,daily_base_hphc_150,150,first-150,71,rng,num-start-61,61,365,648.2186448574066,True,,True,1,False,1000,True,1.0
./expes/v2_2020-11-05_dbh_150-prng-1,daily_base_hphc_150,150,first-150,91,rng,num-start-201,201,365,4.066416501998901,True,,True,1,False,1000,True,1.0
./expes/v2_2020-11-05_dbh_150-prng-1,daily_base_hphc_150,150,first-150,1,rng,num-start-161,161,365,2.6872239112854004,True,,True,1,False,1000,True,1.0
./expes/v2_2020-11-05_dbh_150-prng-1,daily_base_hphc_150,150,first-150,51,rng,num-start-11,11,365,1000.2194147109985,False,,False,0,True,1000,True,0.0
./expes/v2_2020-11-05_dbh_150-prng-1,daily_base_hphc_150,150,first-150,11,rng,num-start-271,271,365,4.964665412902832,True,,True,1,False,1000,True,1.0
./expes/v2_2020-11-05_dbh_150-prng-1,daily_base_hphc_150,150,first-150,31,rng,num-start-271,271,365,5.248628377914429,True,,True,1,False,1000,True,1.0
./expes/v2_2020-11-05_dbh_150-prng-1,daily_base_hphc_150,150,first-150,101,rng,num-start-201,201,365,4.002162456512451,True,,True,1,False,1000,True,1.0
./expes/v2_2020-11-05_dbh_150-prng-1,daily_base_hphc_150,150,first-150,141,rng,num-start-271,271,365,4.855674982070923,True,,True,1,False,1000,True,1.0
./expes/v2_2020-11-05_dbh_150-prng-1,daily_base_hphc_150,150,first-150,21,rng,num-start-241,241,365,4.688681364059448,True,,True,1,False,1000,True,1.0
./expes/v2_2020-11-05_dbh_150-prng-1,daily_base_hphc_150,150,first-150,31,rng,num-start-21,21,365,1001.1143612861633,False,,False,0,True,1000,True,0.0
./expes/v2_2020-11-05_dbh_150-prng-1,daily_base_hphc_150,150,first-150,101,rng,num-start-251,251,365,4.626219034194946,True,,True,1,False,1000,True,1.0
./expes/v2_2020-11-05_dbh_150-prng-1,daily_base_hphc_150,150,first-150,131,rng,num-start-261,261,365,4.64715576171875,True,,True,1,False,1000,True,1.0
./expes/v2_2020-11-05_dbh_150-prng-1,daily_base_hphc_150,150,first-150,81,rng,num-start-171,171,365,3.420884609222412,True,,True,1,False,1000,True,1.0
./expes/v2_2020-11-05_dbh_150-prng-1,daily_base_hphc_150,150,first-150,121,rng,num-start-291,291,365,5.327791452407837,True,,True,1,False,1000,True,1.0
./expes/v2_2020-11-05_dbh_150-prng-1,daily_base_hphc_150,150,first-150,111,rng,num-start-91,91,365,1.810436487197876,True,,True,1,False,1000,True,1.0
./expes/v2_2020-11-05_dbh_150-prng-1,daily_base_hphc_150,150,first-150,101,rng,num-start-191,191,365,3.972944736480713,True,,True,1,False,1000,True,1.0
./expes/v2_2020-11-05_dbh_150-prng-1,daily_base_hphc_150,150,first-150,91,rng,num-start-171,171,365,3.39164137840271,True,,True,1,False,1000,True,1.0
./expes/v2_2020-11-05_dbh_150-prng-1,daily_base_hphc_150,150,first-150,41,rng,num-start-121,121,365,2.4039127826690674,True,,True,1,False,1000,True,1.0
./expes/v2_2020-11-05_dbh_150-prng-1,daily_base_hphc_150,150,first-150,71,rng,num-start-91,91,365,1.9287657737731934,True,,True,1,False,1000,True,1.0
./expes/v2_2020-11-05_dbh_150-prng-1,daily_base_hphc_150,150,first-150,51,rng,num-start-31,31,365,1000.6568984985352,False,,False,0,True,1000,True,0.0
./expes/v2_2020-11-05_dbh_150-prng-1,daily_base_hphc_150,150,first-150,91,rng,num-start-111,111,365,2.21740460395813,True,,True,1,False,1000,True,1.0
./expes/v2_2020-11-05_dbh_150-prng-1,daily_base_hphc_150,150,first-150,81,rng,num-start-41,41,365,1000.7576444149017,False,,False,0,True,1000,True,0.0
./expes/v2_2020-11-05_dbh_150-prng-1,daily_base_hphc_150,150,first-150,21,rng,num-start-111,111,365,2.2204301357269287,True,,True,1,False,1000,True,1.0
./expes/v2_2020-11-05_dbh_150-prng-1,daily_base_hphc_150,150,first-150,91,rng,num-start-211,211,365,4.2336297035217285,True,,True,1,False,1000,True,1.0
./expes/v2_2020-11-05_dbh_150-prng-1,daily_base_hphc_150,150,first-150,71,rng,num-start-271,271,365,4.970646858215332,True,,True,1,False,1000,True,1.0
./expes/v2_2020-11-05_dbh_150-prng-1,daily_base_hphc_150,150,first-150,51,rng,num-start-121,121,365,2.468327283859253,True,,True,1,False,1000,True,1.0
./expes/v2_2020-11-05_dbh_150-prng-1,daily_base_hphc_150,150,first-150,21,rng,num-start-241,241,365,4.708966493606567,True,,True,1,False,1000,True,1.0
./expes/v2_2020-11-05_dbh_150-prng-1,daily_base_hphc_150,150,first-150,51,rng,num-start-211,211,365,4.456416130065918,True,,True,1,False,1000,True,1.0
./expes/v2_2020-11-05_dbh_150-prng-1,daily_base_hphc_150,150,first-150,141,rng,num-start-121,121,365,2.3045902252197266,True,,True,1,False,1000,True,1.0
./expes/v2_2020-11-05_dbh_150-prng-1,daily_base_hphc_150,150,first-150,131,rng,num-start-41,41,365,1.602626085281372,True,,True,1,False,1000,True,1.0
./expes/v2_2020-11-05_dbh_150-prng-1,daily_base_hphc_150,150,first-150,1,rng,num-start-11,11,365,0.18880319595336914,True,,True,1,False,1000,True,1.0
./expes/v2_2020-11-05_dbh_150-prng-1,daily_base_hphc_150,150,first-150,11,rng,num-start-181,181,365,3.5729548931121826,True,,True,1,False,1000,True,1.0
./expes/v2_2020-11-05_dbh_150-prng-1,daily_base_hphc_150,150,first-150,111,rng,num-start-171,171,365,3.3759608268737793,True,,True,1,False,1000,True,1.0
./expes/v2_2020-11-05_dbh_150-prng-1,daily_base_hphc_150,150,first-150,121,rng,num-start-171,171,365,3.243032693862915,True,,True,1,False,1000,True,1.0
./expes/v2_2020-11-05_dbh_150-prng-1,daily_base_hphc_150,150,first-150,101,rng,num-start-11,11,365,1000.221363067627,False,,False,0,True,1000,True,0.0
./expes/v2_2020-11-05_dbh_150-prng-1,daily_base_hphc_150,150,first-150,71,rng,num-start-91,91,365,2.090625524520874,True,,True,1,False,1000,True,1.0
./expes/v2_2020-11-05_dbh_150-prng-1,daily_base_hphc_150,150,first-150,1,rng,num-start-31,31,365,0.5205113887786865,True,,True,1,False,1000,True,1.0
./expes/v2_2020-11-05_dbh_150-prng-1,daily_base_hphc_150,150,first-150,11,rng,num-start-281,281,365,5.108917951583862,True,,True,1,False,1000,True,1.0
./expes/v2_2020-11-05_dbh_150-prng-1,daily_base_hphc_150,150,first-150,1,rng,num-start-151,151,365,2.538890838623047,True,,True,1,False,1000,True,1.0
./expes/v2_2020-11-05_dbh_150-prng-1,daily_base_hphc_150,150,first-150,141,rng,num-start-201,201,365,3.8069050312042236,True,,True,1,False,1000,True,1.0
./expes/v2_2020-11-05_dbh_150-prng-1,daily_base_hphc_150,150,first-150,31,rng,num-start-1,1,365,0.09498906135559082,False,,False,2,False,1000,True,1.0
./expes/v2_2020-11-05_dbh_150-prng-1,daily_base_hphc_150,150,first-150,41,rng,num-start-281,281,365,5.446292877197266,True,,True,1,False,1000,True,1.0
./expes/v2_2020-11-05_dbh_150-prng-1,daily_base_hphc_150,150,first-150,31,rng,num-start-31,31,365,1003.773243188858,False,,False,0,True,1000,True,0.0
