expe,clients,clients_size,clients_subset,agg_size,method,days,days_size,days_total,time,valid,valid_sum,success,nsols,wall_hit,wall_time,pooled,valid_sums
./expes/v2_2020-11-05_dbh_150-prng-1,daily_base_hphc_150,150,first-150,131,rng,num-start-211,211,365,3.9106569290161133,True,,True,1,False,1000,True,1.0
./expes/v2_2020-11-05_dbh_150-prng-1,daily_base_hphc_150,150,first-150,61,rng,num-start-211,211,365,3.8689608573913574,True,,True,1,False,1000,True,1.0
./expes/v2_2020-11-05_dbh_150-prng-1,daily_base_hphc_150,150,first-150,91,rng,num-start-101,101,365,1.9898252487182617,True,,True,1,False,1000,True,1.0
./expes/v2_2020-11-05_dbh_150-prng-1,daily_base_hphc_150,150,first-150,91,rng,num-start-141,141,365,2.7744531631469727,True,,True,1,False,1000,True,1.0
./expes/v2_2020-11-05_dbh_150-prng-1,daily_base_hphc_150,150,first-150,121,rng,num-start-51,51,365,1.7482130527496338,True,,True,1,False,1000,True,1.0
./expes/v2_2020-11-05_dbh_150-prng-1,daily_base_hphc_150,150,first-150,101,rng,num-start-51,51,365,2.390087366104126,True,,True,1,False,1000,True,1.0
./expes/v2_2020-11-05_dbh_150-prng-1,daily_base_hphc_150,150,first-150,91,rng,num-start-31,31,365,1000.6283178329468,False,,False,0,True,1000,True,0.0
./expes/v2_2020-11-05_dbh_150-prng-1,daily_base_hphc_150,150,first-150,111,rng,num-start-111,111,365,1.962723970413208,True,,True,1,False,1000,True,1.0
./expes/v2_2020-11-05_dbh_150-prng-1,daily_base_hphc_150,150,first-150,131,rng,num-start-211,211,365,3.681519031524658,True,,True,1,False,1000,True,1.0
./expes/v2_2020-11-05_dbh_150-prng-1,daily_base_hphc_150,150,first-150,111,rng,num-start-71,71,365,1.3568978309631348,True,,True,1,False,1000,True,1.0
./expes/v2_2020-11-05_dbh_150-prng-1,daily_base_hphc_150,150,first-150,1,rng,num-start-151,151,365,2.1761176586151123,True,,True,1,False,1000,True,1.0
./expes/v2_2020-11-05_dbh_150-prng-1,daily_base_hphc_150,150,first-150,121,rng,num-start-121,121,365,2.0747568607330322,True,,True,1,False,1000,True,1.0
./expes/v2_2020-11-05_dbh_150-prng-1,daily_base_hphc_150,150,first-150,61,rng,num-start-161,161,365,2.9417202472686768,True,,True,1,False,1000,True,1.0
./expes/v2_2020-11-05_dbh_150-prng-1,daily_base_hphc_150,150,first-150,121,rng,num-start-101,101,365,1.9103002548217773,True,,True,1,False,1000,True,1.0
./expes/v2_2020-11-05_dbh_150-prng-1,daily_base_hphc_150,150,first-150,131,rng,num-start-231,231,365,4.033852815628052,True,,True,1,False,1000,True,1.0
./expes/v2_2020-11-05_dbh_150-prng-1,daily_base_hphc_150,150,first-150,141,rng,num-start-71,71,365,1.1823201179504395,True,,True,1,False,1000,True,1.0
./expes/v2_2020-11-05_dbh_150-prng-1,daily_base_hphc_150,150,first-150,91,rng,num-start-291,291,365,5.03854513168335,True,,True,1,False,1000,True,1.0
./expes/v2_2020-11-05_dbh_150-prng-1,daily_base_hphc_150,150,first-150,61,rng,num-start-271,271,365,4.661924839019775,True,,True,1,False,1000,True,1.0
./expes/v2_2020-11-05_dbh_150-prng-1,daily_base_hphc_150,150,first-150,31,rng,num-start-121,121,365,2.1479580402374268,True,,True,1,False,1000,True,1.0
./expes/v2_2020-11-05_dbh_150-prng-1,daily_base_hphc_150,150,first-150,51,rng,num-start-121,121,365,2.1572256088256836,True,,True,1,False,1000,True,1.0
./expes/v2_2020-11-05_dbh_150-prng-1,daily_base_hphc_150,150,first-150,101,rng,num-start-41,41,365,1001.4351079463959,False,,False,0,True,1000,True,0.0
./expes/v2_2020-11-05_dbh_150-prng-1,daily_base_hphc_150,150,first-150,131,rng,num-start-11,11,365,1000.1780381202698,False,,False,0,True,1000,True,0.0
./expes/v2_2020-11-05_dbh_150-prng-1,daily_base_hphc_150,150,first-150,21,rng,num-start-161,161,365,2.8851053714752197,True,,True,1,False,1000,True,1.0
./expes/v2_2020-11-05_dbh_150-prng-1,daily_base_hphc_150,150,first-150,51,rng,num-start-181,181,365,3.177419662475586,True,,True,1,False,1000,True,1.0
./expes/v2_2020-11-05_dbh_150-prng-1,daily_base_hphc_150,150,first-150,31,rng,num-start-121,121,365,2.147730588912964,True,,True,1,False,1000,True,1.0
./expes/v2_2020-11-05_dbh_150-prng-1,daily_base_hphc_150,150,first-150,71,rng,num-start-111,111,365,2.0021955966949463,True,,True,1,False,1000,True,1.0
./expes/v2_2020-11-05_dbh_150-prng-1,daily_base_hphc_150,150,first-150,101,rng,num-start-151,151,365,2.713157892227173,True,,True,1,False,1000,True,1.0
./expes/v2_2020-11-05_dbh_150-prng-1,daily_base_hphc_150,150,first-150,21,rng,num-start-231,231,365,3.896522283554077,True,,True,1,False,1000,True,1.0
./expes/v2_2020-11-05_dbh_150-prng-1,daily_base_hphc_150,150,first-150,91,rng,num-start-231,231,365,4.144675970077515,True,,True,1,False,1000,True,1.0
./expes/v2_2020-11-05_dbh_150-prng-1,daily_base_hphc_150,150,first-150,1,rng,num-start-51,51,365,0.7580716609954834,True,,True,1,False,1000,True,1.0
./expes/v2_2020-11-05_dbh_150-prng-1,daily_base_hphc_150,150,first-150,51,rng,num-start-11,11,365,1000.1833527088165,False,,False,0,True,1000,True,0.0
./expes/v2_2020-11-05_dbh_150-prng-1,daily_base_hphc_150,150,first-150,71,rng,num-start-141,141,365,2.6108548641204834,True,,True,1,False,1000,True,1.0
./expes/v2_2020-11-05_dbh_150-prng-1,daily_base_hphc_150,150,first-150,131,rng,num-start-131,131,365,2.367856025695801,True,,True,1,False,1000,True,1.0
./expes/v2_2020-11-05_dbh_150-prng-1,daily_base_hphc_150,150,first-150,51,rng,num-start-31,31,365,1000.5209722518921,False,,False,0,True,1000,True,0.0
./expes/v2_2020-11-05_dbh_150-prng-1,daily_base_hphc_150,150,first-150,71,rng,num-start-181,181,365,3.1496808528900146,True,,True,1,False,1000,True,1.0
./expes/v2_2020-11-05_dbh_150-prng-1,daily_base_hphc_150,150,first-150,121,rng,num-start-291,291,365,4.678919076919556,True,,True,1,False,1000,True,1.0
./expes/v2_2020-11-05_dbh_150-prng-1,daily_base_hphc_150,150,first-150,61,rng,num-start-181,181,365,3.1262667179107666,True,,True,1,False,1000,True,1.0
./expes/v2_2020-11-05_dbh_150-prng-1,daily_base_hphc_150,150,first-150,111,rng,num-start-121,121,365,2.173769474029541,True,,True,1,False,1000,True,1.0
./expes/v2_2020-11-05_dbh_150-prng-1,daily_base_hphc_150,150,first-150,91,rng,num-start-61,61,365,14.14224100112915,True,,True,1,False,1000,True,1.0
./expes/v2_2020-11-05_dbh_150-prng-1,daily_base_hphc_150,150,first-150,121,rng,num-start-21,21,365,1000.32803606987,False,,False,0,True,1000,True,0.0
