expe,clients,clients_size,clients_subset,agg_size,agg_size_pc,method,days,days_size,days_total,noise_method,time,valid,valid_sum,success,score_avg,score_min,score_max,nsols,oracle,wall_hit,wall_time,pooled,pool_size,uuid,infeasible,optimal,valid_sums
./expes/v2_2021-04-05_issda-30_3000-prng-1-w86-p2_3d,30_issda-3000,3000,first-3000,300,10,rng,num-start-900,900,25726,classic,5190.764699459076,True,,True,1.0,1.0,1.0,1,"['8', '18', '20', '22', '35', '65', '74', '79', '80', '82', '87', '88', '97', '98', '99', '100', '101', '104', '113', '127', '129', '131', '138', '146', '147', '148', '149', '168', '177', '188', '201', '210', '232', '233', '241', '246', '248', '277', '302', '303', '309', '314', '330', '340', '348', '360', '376', '383', '385', '393', '409', '415', '418', '431', '435', '436', '456', '464', '472', '486', '523', '524', '540', '560', '576', '590', '619', '621', '629', '644', '649', '657', '661', '674', '681', '693', '700', '705', '712', '724', '727', '743', '745', '753', '784', '788', '813', '852', '853', '861', '863', '870', '871', '891', '898', '909', '924', '929', '935', '945', '949', '953', '968', '987', '1003', '1011', '1016', '1022', '1024', '1028', '1031', '1037', '1048', '1052', '1062', '1073', '1082', '1089', '1099', '1119', '1142', '1144', '1165', '1172', '1187', '1243', '1253', '1254', '1263', '1264', '1268', '1269', '1278', '1296', '1305', '1330', '1332', '1344', '1382', '1397', '1399', '1410', '1437', '1450', '1474', '1476', '1479', '1483', '1485', '1492', '1500', '1502', '1524', '1525', '1528', '1529', '1557', '1576', '1580', '1610', '1612', '1638', '1646', '1666', '1675', '1683', '1689', '1699', '1713', '1720', '1733', '1736', '1744', '1765', '1777', '1822', '1823', '1826', '1835', '1838', '1850', '1858', '1860', '1863', '1871', '1889', '1890', '1898', '1903', '1905', '1937', '1966', '1991', '1994', '1995', '2002', '2003', '2008', '2009', '2041', '2052', '2057', '2066', '2079', '2082', '2086', '2090', '2096', '2097', '2098', '2105', '2109', '2112', '2121', '2123', '2127', '2133', '2140', '2143', '2151', '2152', '2154', '2156', '2173', '2194', '2229', '2259', '2284', '2286', '2294', '2296', '2303', '2326', '2353', '2381', '2382', '2396', '2409', '2412', '2415', '2422', '2423', '2424', '2431', '2479', '2482', '2483', '2486', '2501', '2514', '2521', '2523', '2525', '2547', '2553', '2556', '2557', '2572', '2602', '2611', '2616', '2629', '2669', '2675', '2676', '2683', '2699', '2707', '2711', '2717', '2743', '2744', '2747', '2755', '2756', '2763', '2791', '2796', '2803', '2804', '2805', '2808', '2816', '2828', '2833', '2866', '2890', '2893', '2901', '2907', '2925', '2930', '2937', '2962', '2964', '2965', '2974', '2986', '2988', '2994']",False,86400,True,2,56666e54fe,0.0,1.0,1.0
./expes/v2_2021-04-05_issda-30_3000-prng-1-w86-p2_3d,30_issda-3000,3000,first-3000,450,15,rng,num-start-600,600,25726,classic,86602.01932263374,False,,False,0,,,0,"['7', '14', '20', '23', '30', '39', '44', '54', '75', '82', '83', '95', '106', '109', '115', '130', '141', '146', '151', '152', '166', '168', '170', '176', '178', '183', '184', '190', '211', '217', '219', '227', '242', '244', '248', '253', '255', '273', '275', '278', '305', '307', '311', '315', '316', '317', '319', '324', '327', '333', '339', '349', '356', '364', '366', '370', '375', '381', '383', '390', '398', '404', '414', '423', '435', '454', '463', '466', '469', '475', '479', '485', '496', '501', '523', '546', '559', '569', '577', '581', '590', '595', '612', '613', '627', '635', '640', '643', '650', '651', '661', '664', '667', '676', '678', '686', '691', '692', '695', '705', '708', '716', '723', '728', '729', '736', '739', '748', '753', '754', '769', '784', '785', '793', '800', '802', '803', '809', '814', '821', '827', '831', '842', '849', '852', '853', '864', '866', '879', '882', '884', '896', '898', '906', '910', '911', '938', '939', '944', '949', '956', '958', '967', '973', '991', '993', '1006', '1014', '1019', '1020', '1021', '1025', '1030', '1031', '1038', '1042', '1053', '1055', '1057', '1060', '1064', '1067', '1072', '1073', '1099', '1104', '1114', '1132', '1134', '1137', '1147', '1148', '1149', '1163', '1169', '1171', '1181', '1184', '1186', '1187', '1190', '1192', '1196', '1197', '1200', '1202', '1214', '1217', '1230', '1232', '1239', '1241', '1243', '1250', '1252', '1269', '1270', '1275', '1277', '1278', '1279', '1283', '1284', '1289', '1291', '1314', '1317', '1318', '1323', '1326', '1332', '1338', '1339', '1340', '1351', '1355', '1357', '1358', '1379', '1383', '1387', '1393', '1405', '1421', '1423', '1436', '1458', '1462', '1463', '1471', '1476', '1484', '1486', '1489', '1493', '1496', '1499', '1506', '1523', '1524', '1526', '1561', '1562', '1564', '1588', '1589', '1592', '1600', '1605', '1607', '1618', '1622', '1623', '1639', '1640', '1642', '1645', '1649', '1651', '1654', '1656', '1664', '1677', '1682', '1685', '1686', '1691', '1696', '1704', '1709', '1721', '1726', '1731', '1736', '1737', '1753', '1762', '1766', '1776', '1778', '1786', '1796', '1798', '1800', '1801', '1806', '1807', '1811', '1817', '1820', '1849', '1851', '1859', '1863', '1877', '1879', '1881', '1896', '1903', '1913', '1931', '1932', '1935', '1940', '1954', '1957', '1961', '1962', '1963', '1981', '1984', '1993', '1994', '2003', '2007', '2010', '2015', '2025', '2029', '2034', '2043', '2073', '2074', '2076', '2083', '2095', '2100', '2126', '2132', '2133', '2143', '2147', '2154', '2156', '2157', '2163', '2168', '2170', '2190', '2199', '2201', '2213', '2220', '2226', '2229', '2233', '2238', '2244', '2251', '2256', '2287', '2288', '2298', '2299', '2304', '2316', '2328', '2332', '2334', '2341', '2345', '2348', '2351', '2360', '2385', '2387', '2393', '2409', '2412', '2436', '2440', '2446', '2453', '2454', '2462', '2473', '2474', '2481', '2482', '2485', '2491', '2492', '2497', '2499', '2511', '2519', '2521', '2530', '2531', '2538', '2542', '2543', '2544', '2549', '2553', '2566', '2567', '2568', '2569', '2572', '2575', '2583', '2592', '2599', '2602', '2609', '2622', '2625', '2632', '2645', '2652', '2655', '2669', '2670', '2671', '2675', '2679', '2680', '2682', '2691', '2705', '2708', '2712', '2733', '2738', '2751', '2752', '2760', '2765', '2766', '2767', '2772', '2773', '2786', '2810', '2818', '2840', '2849', '2857', '2871', '2882', '2888', '2895', '2901', '2911', '2914', '2932', '2939', '2955', '2998']",True,86400,True,2,7f04101528,0.0,0.0,0.0
./expes/v2_2021-04-05_issda-30_3000-prng-1-w86-p2_3d,30_issda-3000,3000,first-3000,300,10,rng,num-start-2100,2100,25726,classic,16345.02679514885,True,,True,1.0,1.0,1.0,1,"['8', '18', '20', '22', '35', '65', '74', '79', '80', '82', '87', '88', '97', '98', '99', '100', '101', '104', '113', '127', '129', '131', '138', '146', '147', '148', '149', '168', '177', '188', '201', '210', '232', '233', '241', '246', '248', '277', '302', '303', '309', '314', '330', '340', '348', '360', '376', '383', '385', '393', '409', '415', '418', '431', '435', '436', '456', '464', '472', '486', '523', '524', '540', '560', '576', '590', '619', '621', '629', '644', '649', '657', '661', '674', '681', '693', '700', '705', '712', '724', '727', '743', '745', '753', '784', '788', '813', '852', '853', '861', '863', '870', '871', '891', '898', '909', '924', '929', '935', '945', '949', '953', '968', '987', '1003', '1011', '1016', '1022', '1024', '1028', '1031', '1037', '1048', '1052', '1062', '1073', '1082', '1089', '1099', '1119', '1142', '1144', '1165', '1172', '1187', '1243', '1253', '1254', '1263', '1264', '1268', '1269', '1278', '1296', '1305', '1330', '1332', '1344', '1382', '1397', '1399', '1410', '1437', '1450', '1474', '1476', '1479', '1483', '1485', '1492', '1500', '1502', '1524', '1525', '1528', '1529', '1557', '1576', '1580', '1610', '1612', '1638', '1646', '1666', '1675', '1683', '1689', '1699', '1713', '1720', '1733', '1736', '1744', '1765', '1777', '1822', '1823', '1826', '1835', '1838', '1850', '1858', '1860', '1863', '1871', '1889', '1890', '1898', '1903', '1905', '1937', '1966', '1991', '1994', '1995', '2002', '2003', '2008', '2009', '2041', '2052', '2057', '2066', '2079', '2082', '2086', '2090', '2096', '2097', '2098', '2105', '2109', '2112', '2121', '2123', '2127', '2133', '2140', '2143', '2151', '2152', '2154', '2156', '2173', '2194', '2229', '2259', '2284', '2286', '2294', '2296', '2303', '2326', '2353', '2381', '2382', '2396', '2409', '2412', '2415', '2422', '2423', '2424', '2431', '2479', '2482', '2483', '2486', '2501', '2514', '2521', '2523', '2525', '2547', '2553', '2556', '2557', '2572', '2602', '2611', '2616', '2629', '2669', '2675', '2676', '2683', '2699', '2707', '2711', '2717', '2743', '2744', '2747', '2755', '2756', '2763', '2791', '2796', '2803', '2804', '2805', '2808', '2816', '2828', '2833', '2866', '2890', '2893', '2901', '2907', '2925', '2930', '2937', '2962', '2964', '2965', '2974', '2986', '2988', '2994']",False,86400,True,2,2552318083,0.0,1.0,1.0
