expe,clients,clients_size,clients_subset,agg_size,agg_size_pc,method,days,days_size,days_total,noise_method,time,valid,valid_sum,success,score_avg,score_min,score_max,nsols,oracle,wall_hit,wall_time,pooled,pool_size,uuid,infeasible,optimal,valid_sums
./expes/v2_2021-04-05_issda-30_3000-prng-1-w86-p2_3d,30_issda-3000,3000,first-3000,450,15,rng,num-start-1500,1500,25726,classic,11695.41567492485,False,,False,0.9870879033171636,0.9741758066343271,1.0,2,"['1', '5', '7', '10', '14', '33', '37', '51', '55', '58', '59', '61', '67', '77', '89', '90', '94', '110', '114', '130', '136', '147', '150', '155', '159', '160', '162', '166', '167', '169', '173', '174', '186', '188', '192', '198', '205', '238', '251', '255', '256', '258', '262', '270', '283', '287', '291', '295', '303', '304', '324', '329', '330', '331', '334', '338', '342', '343', '347', '357', '368', '374', '375', '376', '383', '384', '389', '401', '402', '405', '408', '411', '413', '414', '416', '446', '447', '471', '472', '473', '475', '476', '480', '481', '488', '491', '508', '510', '512', '532', '534', '535', '543', '547', '553', '568', '571', '573', '584', '600', '602', '613', '619', '629', '633', '638', '646', '649', '656', '664', '672', '679', '683', '694', '699', '717', '731', '736', '739', '747', '754', '758', '765', '771', '773', '776', '780', '781', '783', '787', '788', '798', '812', '814', '817', '827', '833', '834', '838', '843', '849', '852', '863', '875', '882', '890', '895', '897', '902', '904', '905', '906', '909', '914', '965', '978', '981', '982', '984', '992', '996', '1000', '1027', '1028', '1051', '1061', '1062', '1064', '1065', '1066', '1067', '1069', '1105', '1111', '1112', '1126', '1128', '1129', '1141', '1147', '1151', '1155', '1179', '1180', '1186', '1188', '1190', '1193', '1202', '1226', '1234', '1235', '1237', '1239', '1240', '1243', '1262', '1271', '1276', '1279', '1290', '1296', '1299', '1311', '1329', '1333', '1336', '1346', '1353', '1363', '1365', '1366', '1370', '1373', '1374', '1376', '1381', '1383', '1386', '1403', '1408', '1422', '1435', '1443', '1450', '1463', '1464', '1467', '1469', '1472', '1479', '1503', '1505', '1509', '1517', '1524', '1526', '1539', '1551', '1577', '1578', '1590', '1592', '1603', '1614', '1618', '1625', '1631', '1634', '1646', '1648', '1652', '1659', '1679', '1698', '1699', '1701', '1711', '1714', '1718', '1723', '1733', '1744', '1746', '1748', '1767', '1779', '1784', '1787', '1812', '1814', '1823', '1825', '1829', '1835', '1836', '1838', '1846', '1850', '1856', '1876', '1879', '1913', '1914', '1927', '1932', '1934', '1942', '1949', '1952', '1953', '1954', '1959', '1963', '1971', '1974', '1991', '1993', '1996', '2002', '2005', '2018', '2022', '2026', '2037', '2039', '2063', '2068', '2081', '2084', '2095', '2126', '2134', '2136', '2138', '2143', '2149', '2154', '2161', '2165', '2169', '2182', '2189', '2204', '2214', '2215', '2225', '2230', '2242', '2243', '2247', '2248', '2258', '2264', '2280', '2288', '2293', '2297', '2298', '2300', '2313', '2325', '2328', '2332', '2334', '2351', '2358', '2360', '2375', '2390', '2396', '2398', '2405', '2407', '2416', '2418', '2436', '2443', '2444', '2445', '2466', '2467', '2471', '2474', '2481', '2484', '2489', '2492', '2500', '2503', '2507', '2508', '2510', '2533', '2542', '2544', '2562', '2568', '2571', '2582', '2594', '2596', '2598', '2601', '2611', '2617', '2623', '2624', '2627', '2639', '2642', '2650', '2659', '2660', '2666', '2678', '2685', '2690', '2694', '2705', '2713', '2727', '2737', '2756', '2759', '2760', '2768', '2770', '2773', '2780', '2781', '2783', '2784', '2788', '2790', '2791', '2800', '2802', '2815', '2821', '2830', '2858', '2862', '2865', '2866', '2869', '2873', '2874', '2875', '2876', '2883', '2889', '2890', '2895', '2905', '2910', '2918', '2927', '2932', '2939', '2942', '2943', '2948', '2972', '2979', '2985', '2990', '2992', '2993', '2997']",False,86400,True,2,e19cbc4952,0.0,1.0,1.0
./expes/v2_2021-04-05_issda-30_3000-prng-1-w86-p2_3d,30_issda-3000,3000,first-3000,1200,40,rng,num-start-900,900,25726,classic,86699.59764957428,False,,False,0,,,0,"['1', '2', '5', '7', '8', '10', '13', '14', '16', '25', '27', '30', '32', '33', '35', '37', '38', '39', '40', '41', '42', '51', '52', '55', '56', '58', '59', '61', '63', '64', '67', '68', '70', '77', '83', '84', '85', '89', '90', '91', '94', '101', '104', '105', '107', '110', '112', '114', '115', '119', '121', '124', '126', '130', '133', '136', '137', '138', '141', '144', '145', '146', '147', '148', '149', '150', '155', '157', '159', '160', '162', '164', '165', '166', '167', '169', '172', '173', '174', '179', '180', '182', '183', '185', '186', '188', '190', '192', '193', '195', '198', '204', '205', '210', '215', '216', '221', '228', '234', '237', '238', '239', '243', '247', '251', '252', '255', '256', '258', '260', '261', '262', '266', '269', '270', '272', '273', '279', '283', '287', '288', '289', '291', '295', '297', '300', '303', '304', '309', '313', '314', '316', '320', '322', '323', '324', '327', '329', '330', '331', '334', '335', '338', '342', '343', '345', '347', '350', '351', '355', '357', '368', '372', '373', '374', '375', '376', '380', '383', '384', '389', '401', '402', '405', '406', '407', '408', '411', '413', '414', '416', '418', '420', '421', '425', '429', '430', '432', '440', '443', '445', '446', '447', '451', '455', '460', '461', '465', '469', '471', '472', '473', '475', '476', '480', '481', '484', '485', '487', '488', '491', '492', '494', '495', '498', '499', '503', '505', '506', '508', '510', '512', '513', '516', '521', '522', '525', '530', '532', '534', '535', '541', '542', '543', '544', '547', '551', '553', '556', '557', '563', '565', '567', '568', '571', '572', '573', '576', '577', '578', '581', '582', '583', '584', '585', '587', '597', '600', '602', '605', '607', '608', '610', '613', '615', '618', '619', '620', '621', '627', '629', '630', '631', '633', '636', '637', '638', '639', '640', '641', '644', '645', '646', '649', '656', '659', '664', '665', '666', '668', '670', '671', '672', '679', '683', '690', '692', '694', '696', '697', '699', '702', '707', '711', '713', '716', '717', '723', '725', '729', '731', '736', '739', '746', '747', '754', '758', '760', '765', '766', '769', '770', '771', '773', '775', '776', '779', '780', '781', '783', '784', '787', '788', '790', '798', '799', '803', '804', '811', '812', '814', '817', '825', '826', '827', '828', '833', '834', '835', '836', '837', '838', '839', '843', '845', '846', '849', '852', '853', '855', '856', '859', '862', '863', '875', '882', '883', '884', '885', '887', '890', '893', '894', '895', '896', '897', '902', '904', '905', '906', '908', '909', '910', '913', '914', '922', '925', '926', '929', '941', '945', '950', '952', '954', '955', '957', '958', '959', '964', '965', '968', '970', '973', '978', '979', '981', '982', '983', '984', '988', '990', '992', '994', '995', '996', '1000', '1011', '1016', '1017', '1019', '1021', '1023', '1027', '1028', '1030', '1035', '1041', '1043', '1044', '1047', '1051', '1053', '1056', '1058', '1061', '1062', '1064', '1065', '1066', '1067', '1069', '1070', '1074', '1075', '1076', '1081', '1089', '1090', '1105', '1106', '1107', '1108', '1111', '1112', '1117', '1119', '1126', '1128', '1129', '1135', '1141', '1142', '1143', '1147', '1148', '1149', '1151', '1155', '1156', '1159', '1161', '1166', '1168', '1170', '1175', '1176', '1179', '1180', '1181', '1186', '1187', '1188', '1190', '1193', '1195', '1198', '1199', '1200', '1202', '1204', '1206', '1208', '1214', '1216', '1219', '1221', '1223', '1225', '1226', '1227', '1230', '1231', '1234', '1235', '1237', '1239', '1240', '1241', '1243', '1249', '1251', '1252', '1253', '1260', '1261', '1262', '1265', '1271', '1273', '1276', '1278', '1279', '1286', '1290', '1291', '1294', '1295', '1296', '1297', '1299', '1303', '1304', '1307', '1310', '1311', '1314', '1319', '1321', '1323', '1324', '1327', '1329', '1330', '1332', '1333', '1336', '1339', '1340', '1341', '1344', '1346', '1347', '1350', '1352', '1353', '1355', '1363', '1365', '1366', '1369', '1370', '1373', '1374', '1376', '1381', '1382', '1383', '1384', '1386', '1391', '1393', '1394', '1395', '1399', '1402', '1403', '1406', '1408', '1409', '1410', '1411', '1412', '1413', '1415', '1417', '1420', '1422', '1425', '1431', '1433', '1435', '1443', '1444', '1445', '1447', '1448', '1450', '1451', '1453', '1456', '1458', '1460', '1461', '1463', '1464', '1467', '1468', '1469', '1471', '1472', '1479', '1480', '1482', '1484', '1488', '1490', '1499', '1503', '1504', '1505', '1509', '1511', '1512', '1513', '1517', '1521', '1522', '1523', '1524', '1526', '1529', '1539', '1542', '1543', '1549', '1551', '1553', '1563', '1566', '1568', '1571', '1572', '1574', '1576', '1577', '1578', '1582', '1584', '1588', '1590', '1591', '1592', '1593', '1596', '1599', '1602', '1603', '1606', '1609', '1614', '1616', '1618', '1619', '1621', '1623', '1625', '1631', '1632', '1634', '1644', '1646', '1648', '1652', '1653', '1654', '1658', '1659', '1661', '1663', '1672', '1674', '1675', '1677', '1679', '1683', '1685', '1686', '1687', '1689', '1696', '1698', '1699', '1700', '1701', '1703', '1708', '1709', '1711', '1712', '1714', '1718', '1720', '1721', '1722', '1723', '1728', '1729', '1730', '1732', '1733', '1734', '1737', '1738', '1744', '1745', '1746', '1747', '1748', '1749', '1750', '1751', '1753', '1755', '1756', '1764', '1766', '1767', '1769', '1778', '1779', '1781', '1782', '1783', '1784', '1787', '1795', '1800', '1803', '1805', '1808', '1810', '1812', '1814', '1819', '1820', '1821', '1822', '1823', '1825', '1828', '1829', '1830', '1833', '1835', '1836', '1838', '1839', '1840', '1846', '1850', '1856', '1858', '1859', '1860', '1863', '1866', '1867', '1868', '1874', '1876', '1877', '1878', '1879', '1880', '1887', '1888', '1893', '1895', '1896', '1902', '1910', '1913', '1914', '1917', '1921', '1927', '1929', '1931', '1932', '1934', '1937', '1939', '1942', '1949', '1952', '1953', '1954', '1959', '1963', '1968', '1970', '1971', '1972', '1974', '1975', '1976', '1980', '1991', '1992', '1993', '1996', '1999', '2002', '2003', '2004', '2005', '2008', '2009', '2012', '2015', '2016', '2017', '2018', '2019', '2022', '2026', '2027', '2029', '2030', '2032', '2034', '2035', '2037', '2039', '2042', '2043', '2051', '2055', '2058', '2063', '2065', '2068', '2069', '2077', '2078', '2079', '2081', '2083', '2084', '2091', '2095', '2098', '2106', '2111', '2115', '2116', '2118', '2122', '2123', '2126', '2130', '2131', '2134', '2135', '2136', '2138', '2139', '2143', '2144', '2146', '2147', '2149', '2151', '2154', '2155', '2157', '2158', '2160', '2161', '2165', '2168', '2169', '2171', '2172', '2173', '2177', '2179', '2182', '2183', '2185', '2186', '2187', '2189', '2194', '2196', '2197', '2204', '2210', '2214', '2215', '2217', '2224', '2225', '2226', '2227', '2228', '2230', '2234', '2237', '2239', '2240', '2242', '2243', '2247', '2248', '2249', '2250', '2255', '2256', '2258', '2261', '2262', '2264', '2266', '2272', '2276', '2280', '2282', '2285', '2287', '2288', '2290', '2293', '2297', '2298', '2300', '2301', '2308', '2310', '2313', '2314', '2319', '2325', '2328', '2329', '2332', '2333', '2334', '2336', '2337', '2343', '2347', '2350', '2351', '2352', '2358', '2360', '2375', '2380', '2383', '2384', '2385', '2388', '2390', '2396', '2398', '2401', '2402', '2403', '2405', '2407', '2416', '2418', '2421', '2422', '2430', '2436', '2439', '2442', '2443', '2444', '2445', '2449', '2451', '2452', '2459', '2461', '2463', '2466', '2467', '2469', '2471', '2474', '2476', '2477', '2478', '2479', '2481', '2484', '2489', '2492', '2493', '2496', '2498', '2499', '2500', '2502', '2503', '2506', '2507', '2508', '2509', '2510', '2516', '2517', '2519', '2524', '2529', '2533', '2535', '2542', '2544', '2545', '2548', '2554', '2562', '2563', '2564', '2568', '2569', '2570', '2571', '2572', '2575', '2576', '2577', '2581', '2582', '2583', '2587', '2589', '2590', '2592', '2594', '2596', '2598', '2599', '2600', '2601', '2602', '2605', '2608', '2610', '2611', '2614', '2615', '2617', '2619', '2623', '2624', '2626', '2627', '2639', '2642', '2643', '2650', '2655', '2657', '2659', '2660', '2665', '2666', '2671', '2674', '2678', '2679', '2682', '2685', '2688', '2690', '2692', '2694', '2695', '2699', '2700', '2702', '2703', '2705', '2706', '2707', '2708', '2712', '2713', '2715', '2717', '2720', '2721', '2727', '2731', '2737', '2738', '2739', '2741', '2745', '2751', '2752', '2755', '2756', '2759', '2760', '2761', '2764', '2765', '2768', '2770', '2773', '2776', '2778', '2780', '2781', '2783', '2784', '2785', '2787', '2788', '2789', '2790', '2791', '2796', '2800', '2801', '2802', '2811', '2812', '2813', '2814', '2815', '2816', '2819', '2821', '2825', '2830', '2834', '2846', '2850', '2855', '2856', '2858', '2862', '2864', '2865', '2866', '2868', '2869', '2871', '2873', '2874', '2875', '2876', '2877', '2878', '2879', '2882', '2883', '2885', '2888', '2889', '2890', '2891', '2893', '2894', '2895', '2898', '2904', '2905', '2909', '2910', '2913', '2916', '2918', '2919', '2923', '2927', '2932', '2935', '2938', '2939', '2941', '2942', '2943', '2948', '2950', '2955', '2956', '2960', '2968', '2972', '2973', '2976', '2979', '2983', '2985', '2987', '2988', '2990', '2992', '2993', '2997', '2999', '3000']",True,86400,True,2,d016fa49dc,0.0,0.0,0.0
