expe,clients,clients_size,clients_subset,agg_size,method,days,days_size,days_total,time,valid,valid_sum,success,nsols,wall_hit,wall_time,pooled,valid_sums
./expes/v2_2020-11-27_di_500-prng-2,daily_issda_500,500,rng-500,41,rng,num-start-201,201,536,11.821212530136108,True,,True,1,False,1000,True,1.0
./expes/v2_2020-11-27_di_500-prng-2,daily_issda_500,500,rng-500,21,rng,num-start-131,131,536,6.64125657081604,True,,True,1,False,1000,True,1.0
./expes/v2_2020-11-27_di_500-prng-2,daily_issda_500,500,rng-500,221,rng,num-start-1,1,536,5.998487710952759,False,,False,2,False,1000,True,1.0
./expes/v2_2020-11-27_di_500-prng-2,daily_issda_500,500,rng-500,31,rng,num-start-71,71,536,7.060044765472412,True,,True,1,False,1000,True,1.0
./expes/v2_2020-11-27_di_500-prng-2,daily_issda_500,500,rng-500,101,rng,num-start-271,271,536,17.779425382614136,True,,True,1,False,1000,True,1.0
./expes/v2_2020-11-27_di_500-prng-2,daily_issda_500,500,rng-500,451,rng,num-start-251,251,536,16.941880702972412,True,,True,1,False,1000,True,1.0
./expes/v2_2020-11-27_di_500-prng-2,daily_issda_500,500,rng-500,491,rng,num-start-61,61,536,2.66550350189209,True,,True,1,False,1000,True,1.0
./expes/v2_2020-11-27_di_500-prng-2,daily_issda_500,500,rng-500,211,rng,num-start-211,211,536,80.08034873008728,True,,True,1,False,1000,True,1.0
./expes/v2_2020-11-27_di_500-prng-2,daily_issda_500,500,rng-500,201,rng,num-start-191,191,536,1006.8323714733124,False,,False,0,True,1000,True,0.0
./expes/v2_2020-11-27_di_500-prng-2,daily_issda_500,500,rng-500,1,rng,num-start-11,11,536,0.4369168281555176,True,,True,1,False,1000,True,1.0
./expes/v2_2020-11-27_di_500-prng-2,daily_issda_500,500,rng-500,441,rng,num-start-101,101,536,1003.5037620067596,False,,False,0,True,1000,True,0.0
./expes/v2_2020-11-27_di_500-prng-2,daily_issda_500,500,rng-500,171,rng,num-start-21,21,536,1000.846319437027,False,,False,0,True,1000,True,0.0
./expes/v2_2020-11-27_di_500-prng-2,daily_issda_500,500,rng-500,181,rng,num-start-51,51,536,1001.785481929779,False,,False,0,True,1000,True,0.0
./expes/v2_2020-11-27_di_500-prng-2,daily_issda_500,500,rng-500,371,rng,num-start-161,161,536,1005.4844636917114,False,,False,0,True,1000,True,0.0
./expes/v2_2020-11-27_di_500-prng-2,daily_issda_500,500,rng-500,61,rng,num-start-61,61,536,1002.2524287700653,False,,False,0,True,1000,True,0.0
./expes/v2_2020-11-27_di_500-prng-2,daily_issda_500,500,rng-500,71,rng,num-start-31,31,536,1001.1762747764587,False,,False,0,True,1000,True,0.0
./expes/v2_2020-11-27_di_500-prng-2,daily_issda_500,500,rng-500,241,rng,num-start-211,211,536,36.551668882369995,True,,True,1,False,1000,True,1.0
./expes/v2_2020-11-27_di_500-prng-2,daily_issda_500,500,rng-500,361,rng,num-start-51,51,536,1001.899246931076,False,,False,0,True,1000,True,0.0
./expes/v2_2020-11-27_di_500-prng-2,daily_issda_500,500,rng-500,161,rng,num-start-81,81,536,1002.7999548912048,False,,False,0,True,1000,True,0.0
./expes/v2_2020-11-27_di_500-prng-2,daily_issda_500,500,rng-500,61,rng,num-start-81,81,536,1002.8394696712494,False,,False,0,True,1000,True,0.0
./expes/v2_2020-11-27_di_500-prng-2,daily_issda_500,500,rng-500,111,rng,num-start-91,91,536,1002.9565584659576,False,,False,0,True,1000,True,0.0
./expes/v2_2020-11-27_di_500-prng-2,daily_issda_500,500,rng-500,121,rng,num-start-171,171,536,25.095040321350098,True,,True,1,False,1000,True,1.0
./expes/v2_2020-11-27_di_500-prng-2,daily_issda_500,500,rng-500,11,rng,num-start-41,41,536,4.680402517318726,True,,True,1,False,1000,True,1.0
./expes/v2_2020-11-27_di_500-prng-2,daily_issda_500,500,rng-500,471,rng,num-start-181,181,536,9.430838584899902,True,,True,1,False,1000,True,1.0
./expes/v2_2020-11-27_di_500-prng-2,daily_issda_500,500,rng-500,31,rng,num-start-11,11,536,1001.0533528327942,False,,False,0,True,1000,True,0.0
./expes/v2_2020-11-27_di_500-prng-2,daily_issda_500,500,rng-500,231,rng,num-start-21,21,536,1000.8177337646484,False,,False,0,True,1000,True,0.0
./expes/v2_2020-11-27_di_500-prng-2,daily_issda_500,500,rng-500,81,rng,num-start-71,71,536,1002.4288272857666,False,,False,0,True,1000,True,0.0
./expes/v2_2020-11-27_di_500-prng-2,daily_issda_500,500,rng-500,391,rng,num-start-171,171,536,22.839734315872192,True,,True,1,False,1000,True,1.0
./expes/v2_2020-11-27_di_500-prng-2,daily_issda_500,500,rng-500,201,rng,num-start-291,291,536,25.440868854522705,True,,True,1,False,1000,True,1.0
./expes/v2_2020-11-27_di_500-prng-2,daily_issda_500,500,rng-500,231,rng,num-start-161,161,536,1005.5622944831848,False,,False,0,True,1000,True,0.0
./expes/v2_2020-11-27_di_500-prng-2,daily_issda_500,500,rng-500,311,rng,num-start-241,241,536,20.838205575942993,True,,True,1,False,1000,True,1.0
./expes/v2_2020-11-27_di_500-prng-2,daily_issda_500,500,rng-500,191,rng,num-start-31,31,536,1001.0988161563873,False,,False,0,True,1000,True,0.0
./expes/v2_2020-11-27_di_500-prng-2,daily_issda_500,500,rng-500,301,rng,num-start-241,241,536,16.144447326660156,True,,True,1,False,1000,True,1.0
./expes/v2_2020-11-27_di_500-prng-2,daily_issda_500,500,rng-500,141,rng,num-start-61,61,536,1002.1783828735352,False,,False,0,True,1000,True,0.0
./expes/v2_2020-11-27_di_500-prng-2,daily_issda_500,500,rng-500,21,rng,num-start-91,91,536,5.324589729309082,True,,True,1,False,1000,True,1.0
./expes/v2_2020-11-27_di_500-prng-2,daily_issda_500,500,rng-500,21,rng,num-start-111,111,536,5.184956073760986,True,,True,1,False,1000,True,1.0
./expes/v2_2020-11-27_di_500-prng-2,daily_issda_500,500,rng-500,31,rng,num-start-281,281,536,15.0117826461792,True,,True,1,False,1000,True,1.0
./expes/v2_2020-11-27_di_500-prng-2,daily_issda_500,500,rng-500,31,rng,num-start-191,191,536,10.784132480621338,True,,True,1,False,1000,True,1.0
./expes/v2_2020-11-27_di_500-prng-2,daily_issda_500,500,rng-500,211,rng,num-start-1,1,536,2.216989040374756,False,,False,2,False,1000,True,1.0
./expes/v2_2020-11-27_di_500-prng-2,daily_issda_500,500,rng-500,471,rng,num-start-31,31,536,1001.2815086841583,False,,False,0,True,1000,True,0.0
./expes/v2_2020-11-27_di_500-prng-2,daily_issda_500,500,rng-500,261,rng,num-start-41,41,536,1001.5850412845612,False,,False,0,True,1000,True,0.0
./expes/v2_2020-11-27_di_500-prng-2,daily_issda_500,500,rng-500,461,rng,num-start-31,31,536,1001.3277683258057,False,,False,0,True,1000,True,0.0
./expes/v2_2020-11-27_di_500-prng-2,daily_issda_500,500,rng-500,301,rng,num-start-31,31,536,1001.2514934539795,False,,False,0,True,1000,True,0.0
./expes/v2_2020-11-27_di_500-prng-2,daily_issda_500,500,rng-500,271,rng,num-start-151,151,536,1005.2848618030548,False,,False,0,True,1000,True,0.0
./expes/v2_2020-11-27_di_500-prng-2,daily_issda_500,500,rng-500,391,rng,num-start-41,41,536,1001.6638143062592,False,,False,0,True,1000,True,0.0
./expes/v2_2020-11-27_di_500-prng-2,daily_issda_500,500,rng-500,361,rng,num-start-191,191,536,24.772752046585083,True,,True,1,False,1000,True,1.0
./expes/v2_2020-11-27_di_500-prng-2,daily_issda_500,500,rng-500,71,rng,num-start-121,121,536,41.439464807510376,True,,True,1,False,1000,True,1.0
./expes/v2_2020-11-27_di_500-prng-2,daily_issda_500,500,rng-500,351,rng,num-start-221,221,536,17.03611397743225,True,,True,1,False,1000,True,1.0
./expes/v2_2020-11-27_di_500-prng-2,daily_issda_500,500,rng-500,241,rng,num-start-1,1,536,0.4318366050720215,False,,False,2,False,1000,True,1.0
./expes/v2_2020-11-27_di_500-prng-2,daily_issda_500,500,rng-500,261,rng,num-start-71,71,536,1002.591285943985,False,,False,0,True,1000,True,0.0
./expes/v2_2020-11-27_di_500-prng-2,daily_issda_500,500,rng-500,1,rng,num-start-291,291,536,10.729392051696777,True,,True,1,False,1000,True,1.0
./expes/v2_2020-11-27_di_500-prng-2,daily_issda_500,500,rng-500,211,rng,num-start-121,121,536,1004.3371601104736,False,,False,0,True,1000,True,0.0
./expes/v2_2020-11-27_di_500-prng-2,daily_issda_500,500,rng-500,391,rng,num-start-101,101,536,1003.6709675788879,False,,False,0,True,1000,True,0.0
./expes/v2_2020-11-27_di_500-prng-2,daily_issda_500,500,rng-500,81,rng,num-start-171,171,536,22.838159799575806,True,,True,1,False,1000,True,1.0
./expes/v2_2020-11-27_di_500-prng-2,daily_issda_500,500,rng-500,81,rng,num-start-131,131,536,20.79406452178955,True,,True,1,False,1000,True,1.0
./expes/v2_2020-11-27_di_500-prng-2,daily_issda_500,500,rng-500,261,rng,num-start-31,31,536,1001.2013418674469,False,,False,0,True,1000,True,0.0
./expes/v2_2020-11-27_di_500-prng-2,daily_issda_500,500,rng-500,131,rng,num-start-211,211,536,14.329763650894165,True,,True,1,False,1000,True,1.0
./expes/v2_2020-11-27_di_500-prng-2,daily_issda_500,500,rng-500,91,rng,num-start-141,141,536,198.1442792415619,True,,True,1,False,1000,True,1.0
./expes/v2_2020-11-27_di_500-prng-2,daily_issda_500,500,rng-500,391,rng,num-start-111,111,536,1004.340343952179,False,,False,0,True,1000,True,0.0
./expes/v2_2020-11-27_di_500-prng-2,daily_issda_500,500,rng-500,81,rng,num-start-211,211,536,16.34179711341858,True,,True,1,False,1000,True,1.0
./expes/v2_2020-11-27_di_500-prng-2,daily_issda_500,500,rng-500,271,rng,num-start-131,131,536,1004.9115688800812,False,,False,0,True,1000,True,0.0
./expes/v2_2020-11-27_di_500-prng-2,daily_issda_500,500,rng-500,21,rng,num-start-281,281,536,14.807228088378906,True,,True,1,False,1000,True,1.0
./expes/v2_2020-11-27_di_500-prng-2,daily_issda_500,500,rng-500,371,rng,num-start-231,231,536,17.260242462158203,True,,True,1,False,1000,True,1.0
./expes/v2_2020-11-27_di_500-prng-2,daily_issda_500,500,rng-500,351,rng,num-start-181,181,536,1006.6343033313751,False,,False,1,True,1000,True,0.0
./expes/v2_2020-11-27_di_500-prng-2,daily_issda_500,500,rng-500,171,rng,num-start-251,251,536,17.93012762069702,True,,True,1,False,1000,True,1.0
./expes/v2_2020-11-27_di_500-prng-2,daily_issda_500,500,rng-500,261,rng,num-start-261,261,536,22.600823640823364,True,,True,1,False,1000,True,1.0
./expes/v2_2020-11-27_di_500-prng-2,daily_issda_500,500,rng-500,71,rng,num-start-41,41,536,1001.4967398643494,False,,False,0,True,1000,True,0.0
./expes/v2_2020-11-27_di_500-prng-2,daily_issda_500,500,rng-500,11,rng,num-start-201,201,536,8.906312942504883,True,,True,1,False,1000,True,1.0
./expes/v2_2020-11-27_di_500-prng-2,daily_issda_500,500,rng-500,421,rng,num-start-101,101,536,1003.8177840709686,False,,False,0,True,1000,True,0.0
./expes/v2_2020-11-27_di_500-prng-2,daily_issda_500,500,rng-500,121,rng,num-start-61,61,536,1002.2831408977509,False,,False,0,True,1000,True,0.0
./expes/v2_2020-11-27_di_500-prng-2,daily_issda_500,500,rng-500,421,rng,num-start-11,11,536,1000.5689179897308,False,,False,0,True,1000,True,0.0
./expes/v2_2020-11-27_di_500-prng-2,daily_issda_500,500,rng-500,81,rng,num-start-291,291,536,22.88307499885559,True,,True,1,False,1000,True,1.0
./expes/v2_2020-11-27_di_500-prng-2,daily_issda_500,500,rng-500,291,rng,num-start-11,11,536,1000.5420954227448,False,,False,0,True,1000,True,0.0
./expes/v2_2020-11-27_di_500-prng-2,daily_issda_500,500,rng-500,41,rng,num-start-281,281,536,15.917528629302979,True,,True,1,False,1000,True,1.0
./expes/v2_2020-11-27_di_500-prng-2,daily_issda_500,500,rng-500,1,rng,num-start-121,121,536,4.136740207672119,True,,True,1,False,1000,True,1.0
./expes/v2_2020-11-27_di_500-prng-2,daily_issda_500,500,rng-500,91,rng,num-start-211,211,536,13.530665874481201,True,,True,1,False,1000,True,1.0
./expes/v2_2020-11-27_di_500-prng-2,daily_issda_500,500,rng-500,301,rng,num-start-161,161,536,1005.7057328224182,False,,False,0,True,1000,True,0.0
./expes/v2_2020-11-27_di_500-prng-2,daily_issda_500,500,rng-500,471,rng,num-start-41,41,536,1001.4454123973846,False,,False,0,True,1000,True,0.0
./expes/v2_2020-11-27_di_500-prng-2,daily_issda_500,500,rng-500,391,rng,num-start-71,71,536,1002.5700557231903,False,,False,0,True,1000,True,0.0
./expes/v2_2020-11-27_di_500-prng-2,daily_issda_500,500,rng-500,201,rng,num-start-121,121,536,1004.751971244812,False,,False,0,True,1000,True,0.0
./expes/v2_2020-11-27_di_500-prng-2,daily_issda_500,500,rng-500,381,rng,num-start-221,221,536,15.887651920318604,True,,True,1,False,1000,True,1.0
./expes/v2_2020-11-27_di_500-prng-2,daily_issda_500,500,rng-500,361,rng,num-start-51,51,536,1001.9237246513367,False,,False,0,True,1000,True,0.0
./expes/v2_2020-11-27_di_500-prng-2,daily_issda_500,500,rng-500,331,rng,num-start-41,41,536,1001.630574464798,False,,False,0,True,1000,True,0.0
./expes/v2_2020-11-27_di_500-prng-2,daily_issda_500,500,rng-500,11,rng,num-start-171,171,536,10.212363719940186,True,,True,1,False,1000,True,1.0
./expes/v2_2020-11-27_di_500-prng-2,daily_issda_500,500,rng-500,181,rng,num-start-1,1,536,4.763760805130005,False,,False,2,False,1000,True,0.0
./expes/v2_2020-11-27_di_500-prng-2,daily_issda_500,500,rng-500,451,rng,num-start-101,101,536,11.907034873962402,True,,True,1,False,1000,True,1.0
./expes/v2_2020-11-27_di_500-prng-2,daily_issda_500,500,rng-500,201,rng,num-start-271,271,536,13.959912776947021,True,,True,1,False,1000,True,1.0
./expes/v2_2020-11-27_di_500-prng-2,daily_issda_500,500,rng-500,1,rng,num-start-231,231,536,7.9250617027282715,True,,True,1,False,1000,True,1.0
./expes/v2_2020-11-27_di_500-prng-2,daily_issda_500,500,rng-500,231,rng,num-start-1,1,536,1.671626091003418,False,,False,2,False,1000,True,1.0
./expes/v2_2020-11-27_di_500-prng-2,daily_issda_500,500,rng-500,341,rng,num-start-201,201,536,33.82919907569885,True,,True,1,False,1000,True,1.0
./expes/v2_2020-11-27_di_500-prng-2,daily_issda_500,500,rng-500,181,rng,num-start-61,61,536,1002.1233723163605,False,,False,0,True,1000,True,0.0
./expes/v2_2020-11-27_di_500-prng-2,daily_issda_500,500,rng-500,481,rng,num-start-191,191,536,8.169178247451782,True,,True,1,False,1000,True,1.0
./expes/v2_2020-11-27_di_500-prng-2,daily_issda_500,500,rng-500,331,rng,num-start-181,181,536,1006.7021632194519,False,,False,0,True,1000,True,0.0
./expes/v2_2020-11-27_di_500-prng-2,daily_issda_500,500,rng-500,491,rng,num-start-211,211,536,10.195322513580322,True,,True,1,False,1000,True,1.0
./expes/v2_2020-11-27_di_500-prng-2,daily_issda_500,500,rng-500,231,rng,num-start-131,131,536,1004.5043375492096,False,,False,0,True,1000,True,0.0
./expes/v2_2020-11-27_di_500-prng-2,daily_issda_500,500,rng-500,481,rng,num-start-201,201,536,10.016839981079102,True,,True,1,False,1000,True,1.0
./expes/v2_2020-11-27_di_500-prng-2,daily_issda_500,500,rng-500,191,rng,num-start-181,181,536,1006.4825661182404,False,,False,0,True,1000,True,0.0
./expes/v2_2020-11-27_di_500-prng-2,daily_issda_500,500,rng-500,321,rng,num-start-211,211,536,63.290985107421875,True,,True,1,False,1000,True,1.0
./expes/v2_2020-11-27_di_500-prng-2,daily_issda_500,500,rng-500,251,rng,num-start-151,151,536,1005.5412085056305,False,,False,0,True,1000,True,0.0
./expes/v2_2020-11-27_di_500-prng-2,daily_issda_500,500,rng-500,471,rng,num-start-11,11,536,1000.6234526634216,False,,False,0,True,1000,True,0.0
./expes/v2_2020-11-27_di_500-prng-2,daily_issda_500,500,rng-500,421,rng,num-start-81,81,536,1002.9339587688446,False,,False,0,True,1000,True,0.0
./expes/v2_2020-11-27_di_500-prng-2,daily_issda_500,500,rng-500,101,rng,num-start-61,61,536,1002.2220206260681,False,,False,0,True,1000,True,0.0
./expes/v2_2020-11-27_di_500-prng-2,daily_issda_500,500,rng-500,51,rng,num-start-151,151,536,8.164366960525513,True,,True,1,False,1000,True,1.0
./expes/v2_2020-11-27_di_500-prng-2,daily_issda_500,500,rng-500,171,rng,num-start-171,171,536,1006.1267459392548,False,,False,0,True,1000,True,0.0
./expes/v2_2020-11-27_di_500-prng-2,daily_issda_500,500,rng-500,391,rng,num-start-261,261,536,17.380262851715088,True,,True,1,False,1000,True,1.0
./expes/v2_2020-11-27_di_500-prng-2,daily_issda_500,500,rng-500,361,rng,num-start-281,281,536,29.6640043258667,True,,True,1,False,1000,True,1.0
./expes/v2_2020-11-27_di_500-prng-2,daily_issda_500,500,rng-500,471,rng,num-start-191,191,536,8.71763300895691,True,,True,1,False,1000,True,1.0
./expes/v2_2020-11-27_di_500-prng-2,daily_issda_500,500,rng-500,121,rng,num-start-141,141,536,1005.1780614852905,False,,False,0,True,1000,True,0.0
./expes/v2_2020-11-27_di_500-prng-2,daily_issda_500,500,rng-500,101,rng,num-start-251,251,536,15.941049814224243,True,,True,1,False,1000,True,1.0
./expes/v2_2020-11-27_di_500-prng-2,daily_issda_500,500,rng-500,231,rng,num-start-41,41,536,1001.5314512252808,False,,False,0,True,1000,True,0.0
./expes/v2_2020-11-27_di_500-prng-2,daily_issda_500,500,rng-500,471,rng,num-start-241,241,536,10.838659524917603,True,,True,1,False,1000,True,1.0
./expes/v2_2020-11-27_di_500-prng-2,daily_issda_500,500,rng-500,271,rng,num-start-281,281,536,25.57594871520996,True,,True,1,False,1000,True,1.0
./expes/v2_2020-11-27_di_500-prng-2,daily_issda_500,500,rng-500,61,rng,num-start-191,191,536,12.70556354522705,True,,True,1,False,1000,True,1.0
./expes/v2_2020-11-27_di_500-prng-2,daily_issda_500,500,rng-500,311,rng,num-start-21,21,536,1000.8283450603485,False,,False,0,True,1000,True,0.0
./expes/v2_2020-11-27_di_500-prng-2,daily_issda_500,500,rng-500,251,rng,num-start-281,281,536,24.904093027114868,True,,True,1,False,1000,True,1.0
./expes/v2_2020-11-27_di_500-prng-2,daily_issda_500,500,rng-500,191,rng,num-start-161,161,536,1006.1464107036591,False,,False,0,True,1000,True,0.0
./expes/v2_2020-11-27_di_500-prng-2,daily_issda_500,500,rng-500,261,rng,num-start-221,221,536,36.54472637176514,True,,True,1,False,1000,True,1.0
./expes/v2_2020-11-27_di_500-prng-2,daily_issda_500,500,rng-500,211,rng,num-start-231,231,536,14.567851066589355,True,,True,1,False,1000,True,1.0
./expes/v2_2020-11-27_di_500-prng-2,daily_issda_500,500,rng-500,201,rng,num-start-131,131,536,1004.595546245575,False,,False,0,True,1000,True,0.0
./expes/v2_2020-11-27_di_500-prng-2,daily_issda_500,500,rng-500,291,rng,num-start-171,171,536,1006.0464117527008,False,,False,0,True,1000,True,0.0
./expes/v2_2020-11-27_di_500-prng-2,daily_issda_500,500,rng-500,41,rng,num-start-171,171,536,10.847853899002075,True,,True,1,False,1000,True,1.0
./expes/v2_2020-11-27_di_500-prng-2,daily_issda_500,500,rng-500,131,rng,num-start-211,211,536,22.00337314605713,True,,True,1,False,1000,True,1.0
./expes/v2_2020-11-27_di_500-prng-2,daily_issda_500,500,rng-500,211,rng,num-start-221,221,536,30.347640991210938,True,,True,1,False,1000,True,1.0
./expes/v2_2020-11-27_di_500-prng-2,daily_issda_500,500,rng-500,471,rng,num-start-61,61,536,14.78296709060669,True,,True,1,False,1000,True,1.0
./expes/v2_2020-11-27_di_500-prng-2,daily_issda_500,500,rng-500,431,rng,num-start-251,251,536,14.759121894836426,True,,True,1,False,1000,True,1.0
./expes/v2_2020-11-27_di_500-prng-2,daily_issda_500,500,rng-500,421,rng,num-start-291,291,536,15.630451440811157,True,,True,1,False,1000,True,1.0
./expes/v2_2020-11-27_di_500-prng-2,daily_issda_500,500,rng-500,21,rng,num-start-51,51,536,30.480420351028442,True,,True,1,False,1000,True,1.0
./expes/v2_2020-11-27_di_500-prng-2,daily_issda_500,500,rng-500,421,rng,num-start-151,151,536,16.026150226593018,True,,True,1,False,1000,True,1.0
./expes/v2_2020-11-27_di_500-prng-2,daily_issda_500,500,rng-500,131,rng,num-start-31,31,536,1001.1276993751526,False,,False,0,True,1000,True,0.0
./expes/v2_2020-11-27_di_500-prng-2,daily_issda_500,500,rng-500,471,rng,num-start-221,221,536,10.694539785385132,True,,True,1,False,1000,True,1.0
./expes/v2_2020-11-27_di_500-prng-2,daily_issda_500,500,rng-500,211,rng,num-start-151,151,536,1005.1922183036804,False,,False,0,True,1000,True,0.0
./expes/v2_2020-11-27_di_500-prng-2,daily_issda_500,500,rng-500,51,rng,num-start-21,21,536,1000.8229131698608,False,,False,0,True,1000,True,0.0
./expes/v2_2020-11-27_di_500-prng-2,daily_issda_500,500,rng-500,291,rng,num-start-181,181,536,128.89246916770935,True,,True,1,False,1000,True,1.0
./expes/v2_2020-11-27_di_500-prng-2,daily_issda_500,500,rng-500,131,rng,num-start-181,181,536,33.29313850402832,True,,True,1,False,1000,True,1.0
./expes/v2_2020-11-27_di_500-prng-2,daily_issda_500,500,rng-500,431,rng,num-start-91,91,536,1003.6133406162262,False,,False,0,True,1000,True,0.0
./expes/v2_2020-11-27_di_500-prng-2,daily_issda_500,500,rng-500,11,rng,num-start-181,181,536,10.793982982635498,True,,True,1,False,1000,True,1.0
./expes/v2_2020-11-27_di_500-prng-2,daily_issda_500,500,rng-500,251,rng,num-start-291,291,536,27.33309578895569,True,,True,1,False,1000,True,1.0
./expes/v2_2020-11-27_di_500-prng-2,daily_issda_500,500,rng-500,481,rng,num-start-11,11,536,1001.0852475166321,False,,False,0,True,1000,True,0.0
./expes/v2_2020-11-27_di_500-prng-2,daily_issda_500,500,rng-500,111,rng,num-start-181,181,536,11.374542951583862,True,,True,1,False,1000,True,1.0
./expes/v2_2020-11-27_di_500-prng-2,daily_issda_500,500,rng-500,461,rng,num-start-61,61,536,1002.22039270401,False,,False,0,True,1000,True,0.0
./expes/v2_2020-11-27_di_500-prng-2,daily_issda_500,500,rng-500,81,rng,num-start-111,111,536,1004.0505094528198,False,,False,0,True,1000,True,0.0
./expes/v2_2020-11-27_di_500-prng-2,daily_issda_500,500,rng-500,481,rng,num-start-31,31,536,1001.3339691162109,False,,False,0,True,1000,True,0.0
./expes/v2_2020-11-27_di_500-prng-2,daily_issda_500,500,rng-500,81,rng,num-start-61,61,536,1002.2689166069031,False,,False,0,True,1000,True,0.0
./expes/v2_2020-11-27_di_500-prng-2,daily_issda_500,500,rng-500,471,rng,num-start-191,191,536,8.789648294448853,True,,True,1,False,1000,True,1.0
./expes/v2_2020-11-27_di_500-prng-2,daily_issda_500,500,rng-500,241,rng,num-start-201,201,536,1007.4017996788025,False,,False,0,True,1000,True,0.0
./expes/v2_2020-11-27_di_500-prng-2,daily_issda_500,500,rng-500,241,rng,num-start-241,241,536,19.15414261817932,True,,True,1,False,1000,True,1.0
./expes/v2_2020-11-27_di_500-prng-2,daily_issda_500,500,rng-500,411,rng,num-start-171,171,536,13.436631441116333,True,,True,1,False,1000,True,1.0
./expes/v2_2020-11-27_di_500-prng-2,daily_issda_500,500,rng-500,341,rng,num-start-91,91,536,1003.4241230487823,False,,False,0,True,1000,True,0.0
./expes/v2_2020-11-27_di_500-prng-2,daily_issda_500,500,rng-500,121,rng,num-start-51,51,536,1001.7386527061462,False,,False,0,True,1000,True,0.0
./expes/v2_2020-11-27_di_500-prng-2,daily_issda_500,500,rng-500,71,rng,num-start-161,161,536,42.305314779281616,True,,True,1,False,1000,True,1.0
./expes/v2_2020-11-27_di_500-prng-2,daily_issda_500,500,rng-500,281,rng,num-start-171,171,536,1005.9201378822327,False,,False,0,True,1000,True,0.0
./expes/v2_2020-11-27_di_500-prng-2,daily_issda_500,500,rng-500,121,rng,num-start-61,61,536,1002.3108630180359,False,,False,0,True,1000,True,0.0
./expes/v2_2020-11-27_di_500-prng-2,daily_issda_500,500,rng-500,241,rng,num-start-31,31,536,1001.1866929531097,False,,False,0,True,1000,True,0.0
./expes/v2_2020-11-27_di_500-prng-2,daily_issda_500,500,rng-500,211,rng,num-start-131,131,536,1004.9569499492645,False,,False,0,True,1000,True,0.0
./expes/v2_2020-11-27_di_500-prng-2,daily_issda_500,500,rng-500,361,rng,num-start-191,191,536,39.757339000701904,True,,True,1,False,1000,True,1.0
./expes/v2_2020-11-27_di_500-prng-2,daily_issda_500,500,rng-500,251,rng,num-start-191,191,536,835.770759344101,True,,True,1,False,1000,True,1.0
./expes/v2_2020-11-27_di_500-prng-2,daily_issda_500,500,rng-500,211,rng,num-start-251,251,536,21.778533220291138,True,,True,1,False,1000,True,1.0
./expes/v2_2020-11-27_di_500-prng-2,daily_issda_500,500,rng-500,271,rng,num-start-191,191,536,85.2650818824768,True,,True,1,False,1000,True,1.0
./expes/v2_2020-11-27_di_500-prng-2,daily_issda_500,500,rng-500,461,rng,num-start-91,91,536,6.879838943481445,True,,True,1,False,1000,True,1.0
./expes/v2_2020-11-27_di_500-prng-2,daily_issda_500,500,rng-500,201,rng,num-start-71,71,536,1002.4501116275787,False,,False,0,True,1000,True,0.0
./expes/v2_2020-11-27_di_500-prng-2,daily_issda_500,500,rng-500,41,rng,num-start-31,31,536,1001.1864430904388,False,,False,0,True,1000,True,0.0
./expes/v2_2020-11-27_di_500-prng-2,daily_issda_500,500,rng-500,291,rng,num-start-151,151,536,1004.9291532039642,False,,False,0,True,1000,True,0.0
./expes/v2_2020-11-27_di_500-prng-2,daily_issda_500,500,rng-500,81,rng,num-start-111,111,536,1004.2216892242432,False,,False,0,True,1000,True,0.0
./expes/v2_2020-11-27_di_500-prng-2,daily_issda_500,500,rng-500,451,rng,num-start-71,71,536,1002.6377623081207,False,,False,0,True,1000,True,0.0
./expes/v2_2020-11-27_di_500-prng-2,daily_issda_500,500,rng-500,181,rng,num-start-231,231,536,42.832353353500366,True,,True,1,False,1000,True,1.0
./expes/v2_2020-11-27_di_500-prng-2,daily_issda_500,500,rng-500,341,rng,num-start-51,51,536,1001.9614329338074,False,,False,0,True,1000,True,0.0
./expes/v2_2020-11-27_di_500-prng-2,daily_issda_500,500,rng-500,471,rng,num-start-61,61,536,12.858429908752441,True,,True,1,False,1000,True,1.0
./expes/v2_2020-11-27_di_500-prng-2,daily_issda_500,500,rng-500,421,rng,num-start-81,81,536,1002.866429567337,False,,False,0,True,1000,True,0.0
./expes/v2_2020-11-27_di_500-prng-2,daily_issda_500,500,rng-500,391,rng,num-start-21,21,536,1000.8974497318268,False,,False,0,True,1000,True,0.0
./expes/v2_2020-11-27_di_500-prng-2,daily_issda_500,500,rng-500,191,rng,num-start-71,71,536,1002.7347905635834,False,,False,0,True,1000,True,0.0
./expes/v2_2020-11-27_di_500-prng-2,daily_issda_500,500,rng-500,141,rng,num-start-181,181,536,33.932984590530396,True,,True,1,False,1000,True,1.0
./expes/v2_2020-11-27_di_500-prng-2,daily_issda_500,500,rng-500,291,rng,num-start-11,11,536,1000.6779646873474,False,,False,0,True,1000,True,0.0
./expes/v2_2020-11-27_di_500-prng-2,daily_issda_500,500,rng-500,201,rng,num-start-21,21,536,1000.871435880661,False,,False,0,True,1000,True,0.0
./expes/v2_2020-11-27_di_500-prng-2,daily_issda_500,500,rng-500,351,rng,num-start-191,191,536,44.09088349342346,True,,True,1,False,1000,True,1.0
./expes/v2_2020-11-27_di_500-prng-2,daily_issda_500,500,rng-500,91,rng,num-start-181,181,536,30.118911027908325,True,,True,1,False,1000,True,1.0
