expe,clients,clients_size,clients_subset,agg_size,method,days,days_size,days_total,time,valid,valid_sum,success,nsols,wall_hit,wall_time,pooled,valid_sums
./expes/v2_2020-11-27_di_500-prng-2,daily_issda_500,500,rng-500,31,rng,num-start-261,261,536,12.667478561401367,True,,True,1,False,1000,True,1.0
./expes/v2_2020-11-27_di_500-prng-2,daily_issda_500,500,rng-500,201,rng,num-start-81,81,536,1002.6408095359802,False,,False,0,True,1000,True,0.0
./expes/v2_2020-11-27_di_500-prng-2,daily_issda_500,500,rng-500,391,rng,num-start-181,181,536,18.534454107284546,True,,True,1,False,1000,True,1.0
./expes/v2_2020-11-27_di_500-prng-2,daily_issda_500,500,rng-500,371,rng,num-start-131,131,536,1004.0135405063629,False,,False,0,True,1000,True,0.0
./expes/v2_2020-11-27_di_500-prng-2,daily_issda_500,500,rng-500,171,rng,num-start-91,91,536,1002.8253314495087,False,,False,0,True,1000,True,0.0
./expes/v2_2020-11-27_di_500-prng-2,daily_issda_500,500,rng-500,81,rng,num-start-11,11,536,1000.4547729492188,False,,False,0,True,1000,True,0.0
./expes/v2_2020-11-27_di_500-prng-2,daily_issda_500,500,rng-500,341,rng,num-start-141,141,536,1004.6221036911011,False,,False,0,True,1000,True,0.0
./expes/v2_2020-11-27_di_500-prng-2,daily_issda_500,500,rng-500,441,rng,num-start-31,31,536,1001.030923128128,False,,False,0,True,1000,True,0.0
./expes/v2_2020-11-27_di_500-prng-2,daily_issda_500,500,rng-500,351,rng,num-start-241,241,536,13.886311769485474,True,,True,1,False,1000,True,1.0
./expes/v2_2020-11-27_di_500-prng-2,daily_issda_500,500,rng-500,181,rng,num-start-21,21,536,1000.7566924095154,False,,False,0,True,1000,True,0.0
./expes/v2_2020-11-27_di_500-prng-2,daily_issda_500,500,rng-500,331,rng,num-start-71,71,536,1002.2700099945068,False,,False,0,True,1000,True,0.0
./expes/v2_2020-11-27_di_500-prng-2,daily_issda_500,500,rng-500,341,rng,num-start-281,281,536,17.853636026382446,True,,True,1,False,1000,True,1.0
./expes/v2_2020-11-27_di_500-prng-2,daily_issda_500,500,rng-500,481,rng,num-start-51,51,536,5.978687763214111,True,,True,1,False,1000,True,1.0
./expes/v2_2020-11-27_di_500-prng-2,daily_issda_500,500,rng-500,441,rng,num-start-181,181,536,9.116759777069092,True,,True,1,False,1000,True,1.0
./expes/v2_2020-11-27_di_500-prng-2,daily_issda_500,500,rng-500,321,rng,num-start-81,81,536,1002.6008985042572,False,,False,0,True,1000,True,0.0
./expes/v2_2020-11-27_di_500-prng-2,daily_issda_500,500,rng-500,51,rng,num-start-21,21,536,1000.8363308906555,False,,False,0,True,1000,True,0.0
./expes/v2_2020-11-27_di_500-prng-2,daily_issda_500,500,rng-500,261,rng,num-start-251,251,536,24.219329357147217,True,,True,1,False,1000,True,1.0
./expes/v2_2020-11-27_di_500-prng-2,daily_issda_500,500,rng-500,151,rng,num-start-211,211,536,12.6708984375,True,,True,1,False,1000,True,1.0
./expes/v2_2020-11-27_di_500-prng-2,daily_issda_500,500,rng-500,1,rng,num-start-131,131,536,3.8330905437469482,True,,True,1,False,1000,True,1.0
./expes/v2_2020-11-27_di_500-prng-2,daily_issda_500,500,rng-500,241,rng,num-start-291,291,536,21.22773838043213,True,,True,1,False,1000,True,1.0
./expes/v2_2020-11-27_di_500-prng-2,daily_issda_500,500,rng-500,81,rng,num-start-211,211,536,21.87535572052002,True,,True,1,False,1000,True,1.0
./expes/v2_2020-11-27_di_500-prng-2,daily_issda_500,500,rng-500,471,rng,num-start-91,91,536,7.916331768035889,True,,True,1,False,1000,True,1.0
./expes/v2_2020-11-27_di_500-prng-2,daily_issda_500,500,rng-500,251,rng,num-start-61,61,536,1002.0360240936279,False,,False,0,True,1000,True,0.0
./expes/v2_2020-11-27_di_500-prng-2,daily_issda_500,500,rng-500,451,rng,num-start-281,281,536,12.53409743309021,True,,True,1,False,1000,True,1.0
./expes/v2_2020-11-27_di_500-prng-2,daily_issda_500,500,rng-500,31,rng,num-start-271,271,536,13.52484130859375,True,,True,1,False,1000,True,1.0
./expes/v2_2020-11-27_di_500-prng-2,daily_issda_500,500,rng-500,101,rng,num-start-211,211,536,11.618883609771729,True,,True,1,False,1000,True,1.0
./expes/v2_2020-11-27_di_500-prng-2,daily_issda_500,500,rng-500,381,rng,num-start-11,11,536,1000.5059683322906,False,,False,0,True,1000,True,0.0
./expes/v2_2020-11-27_di_500-prng-2,daily_issda_500,500,rng-500,341,rng,num-start-171,171,536,1005.619815826416,False,,False,0,True,1000,True,0.0
./expes/v2_2020-11-27_di_500-prng-2,daily_issda_500,500,rng-500,441,rng,num-start-31,31,536,1001.0339987277985,False,,False,0,True,1000,True,0.0
./expes/v2_2020-11-27_di_500-prng-2,daily_issda_500,500,rng-500,321,rng,num-start-231,231,536,11.163295269012451,True,,True,1,False,1000,True,1.0
./expes/v2_2020-11-27_di_500-prng-2,daily_issda_500,500,rng-500,111,rng,num-start-181,181,536,22.91856074333191,True,,True,1,False,1000,True,1.0
./expes/v2_2020-11-27_di_500-prng-2,daily_issda_500,500,rng-500,101,rng,num-start-141,141,536,98.62377285957336,True,,True,1,False,1000,True,1.0
./expes/v2_2020-11-27_di_500-prng-2,daily_issda_500,500,rng-500,151,rng,num-start-261,261,536,14.801879405975342,True,,True,1,False,1000,True,1.0
./expes/v2_2020-11-27_di_500-prng-2,daily_issda_500,500,rng-500,481,rng,num-start-71,71,536,3.9222700595855713,True,,True,1,False,1000,True,1.0
./expes/v2_2020-11-27_di_500-prng-2,daily_issda_500,500,rng-500,51,rng,num-start-81,81,536,1002.5024750232697,False,,False,0,True,1000,True,0.0
./expes/v2_2020-11-27_di_500-prng-2,daily_issda_500,500,rng-500,191,rng,num-start-21,21,536,1000.7745549678802,False,,False,0,True,1000,True,0.0
./expes/v2_2020-11-27_di_500-prng-2,daily_issda_500,500,rng-500,331,rng,num-start-211,211,536,31.483800888061523,True,,True,1,False,1000,True,1.0
./expes/v2_2020-11-27_di_500-prng-2,daily_issda_500,500,rng-500,1,rng,num-start-171,171,536,5.301945447921753,True,,True,1,False,1000,True,1.0
./expes/v2_2020-11-27_di_500-prng-2,daily_issda_500,500,rng-500,291,rng,num-start-161,161,536,1005.0464599132538,False,,False,0,True,1000,True,0.0
./expes/v2_2020-11-27_di_500-prng-2,daily_issda_500,500,rng-500,291,rng,num-start-71,71,536,1002.263482093811,False,,False,0,True,1000,True,0.0
./expes/v2_2020-11-27_di_500-prng-2,daily_issda_500,500,rng-500,31,rng,num-start-31,31,536,1001.108074426651,False,,False,0,True,1000,True,0.0
./expes/v2_2020-11-27_di_500-prng-2,daily_issda_500,500,rng-500,231,rng,num-start-1,1,536,1.2540833950042725,False,,False,2,False,1000,True,0.0
./expes/v2_2020-11-27_di_500-prng-2,daily_issda_500,500,rng-500,131,rng,num-start-21,21,536,1000.8130173683167,False,,False,0,True,1000,True,0.0
./expes/v2_2020-11-27_di_500-prng-2,daily_issda_500,500,rng-500,51,rng,num-start-51,51,536,1001.618821144104,False,,False,0,True,1000,True,0.0
./expes/v2_2020-11-27_di_500-prng-2,daily_issda_500,500,rng-500,241,rng,num-start-31,31,536,1001.131903886795,False,,False,0,True,1000,True,0.0
./expes/v2_2020-11-27_di_500-prng-2,daily_issda_500,500,rng-500,51,rng,num-start-131,131,536,12.765336751937866,True,,True,1,False,1000,True,1.0
./expes/v2_2020-11-27_di_500-prng-2,daily_issda_500,500,rng-500,151,rng,num-start-211,211,536,42.17554759979248,True,,True,1,False,1000,True,1.0
./expes/v2_2020-11-27_di_500-prng-2,daily_issda_500,500,rng-500,481,rng,num-start-91,91,536,3.17822003364563,True,,True,1,False,1000,True,1.0
./expes/v2_2020-11-27_di_500-prng-2,daily_issda_500,500,rng-500,491,rng,num-start-171,171,536,5.850926637649536,True,,True,1,False,1000,True,1.0
./expes/v2_2020-11-27_di_500-prng-2,daily_issda_500,500,rng-500,331,rng,num-start-41,41,536,1001.4164338111877,False,,False,0,True,1000,True,0.0
./expes/v2_2020-11-27_di_500-prng-2,daily_issda_500,500,rng-500,191,rng,num-start-31,31,536,1001.020435333252,False,,False,0,True,1000,True,0.0
./expes/v2_2020-11-27_di_500-prng-2,daily_issda_500,500,rng-500,491,rng,num-start-61,61,536,2.2943179607391357,True,,True,1,False,1000,True,1.0
./expes/v2_2020-11-27_di_500-prng-2,daily_issda_500,500,rng-500,301,rng,num-start-31,31,536,1001.0378873348236,False,,False,0,True,1000,True,0.0
./expes/v2_2020-11-27_di_500-prng-2,daily_issda_500,500,rng-500,221,rng,num-start-131,131,536,1003.9324724674225,False,,False,0,True,1000,True,0.0
./expes/v2_2020-11-27_di_500-prng-2,daily_issda_500,500,rng-500,191,rng,num-start-291,291,536,17.518778324127197,True,,True,1,False,1000,True,1.0
./expes/v2_2020-11-27_di_500-prng-2,daily_issda_500,500,rng-500,171,rng,num-start-211,211,536,26.144526481628418,True,,True,1,False,1000,True,1.0
./expes/v2_2020-11-27_di_500-prng-2,daily_issda_500,500,rng-500,221,rng,num-start-271,271,536,18.39441752433777,True,,True,1,False,1000,True,1.0
./expes/v2_2020-11-27_di_500-prng-2,daily_issda_500,500,rng-500,221,rng,num-start-271,271,536,17.107125282287598,True,,True,1,False,1000,True,1.0
./expes/v2_2020-11-27_di_500-prng-2,daily_issda_500,500,rng-500,331,rng,num-start-231,231,536,18.28121042251587,True,,True,1,False,1000,True,1.0
./expes/v2_2020-11-27_di_500-prng-2,daily_issda_500,500,rng-500,221,rng,num-start-221,221,536,30.947410821914673,True,,True,1,False,1000,True,1.0
./expes/v2_2020-11-27_di_500-prng-2,daily_issda_500,500,rng-500,131,rng,num-start-51,51,536,1001.5468771457672,False,,False,0,True,1000,True,0.0
./expes/v2_2020-11-27_di_500-prng-2,daily_issda_500,500,rng-500,311,rng,num-start-121,121,536,1004.0435445308685,False,,False,0,True,1000,True,0.0
./expes/v2_2020-11-27_di_500-prng-2,daily_issda_500,500,rng-500,101,rng,num-start-121,121,536,1004.1095192432404,False,,False,0,True,1000,True,0.0
./expes/v2_2020-11-27_di_500-prng-2,daily_issda_500,500,rng-500,61,rng,num-start-241,241,536,11.643486738204956,True,,True,1,False,1000,True,1.0
./expes/v2_2020-11-27_di_500-prng-2,daily_issda_500,500,rng-500,151,rng,num-start-211,211,536,29.020961046218872,True,,True,1,False,1000,True,1.0
./expes/v2_2020-11-27_di_500-prng-2,daily_issda_500,500,rng-500,151,rng,num-start-131,131,536,1004.1149499416351,False,,False,0,True,1000,True,0.0
./expes/v2_2020-11-27_di_500-prng-2,daily_issda_500,500,rng-500,21,rng,num-start-101,101,536,4.551200866699219,True,,True,1,False,1000,True,1.0
./expes/v2_2020-11-27_di_500-prng-2,daily_issda_500,500,rng-500,431,rng,num-start-121,121,536,29.55547046661377,True,,True,1,False,1000,True,1.0
./expes/v2_2020-11-27_di_500-prng-2,daily_issda_500,500,rng-500,381,rng,num-start-51,51,536,1001.6971390247345,False,,False,0,True,1000,True,0.0
./expes/v2_2020-11-27_di_500-prng-2,daily_issda_500,500,rng-500,491,rng,num-start-151,151,536,5.232673406600952,True,,True,1,False,1000,True,1.0
./expes/v2_2020-11-27_di_500-prng-2,daily_issda_500,500,rng-500,341,rng,num-start-71,71,536,1002.0690054893494,False,,False,0,True,1000,True,0.0
./expes/v2_2020-11-27_di_500-prng-2,daily_issda_500,500,rng-500,351,rng,num-start-261,261,536,15.621027708053589,True,,True,1,False,1000,True,1.0
./expes/v2_2020-11-27_di_500-prng-2,daily_issda_500,500,rng-500,151,rng,num-start-171,171,536,39.45548987388611,True,,True,1,False,1000,True,1.0
./expes/v2_2020-11-27_di_500-prng-2,daily_issda_500,500,rng-500,221,rng,num-start-261,261,536,17.956851959228516,True,,True,1,False,1000,True,1.0
./expes/v2_2020-11-27_di_500-prng-2,daily_issda_500,500,rng-500,441,rng,num-start-291,291,536,15.477086544036865,True,,True,1,False,1000,True,1.0
./expes/v2_2020-11-27_di_500-prng-2,daily_issda_500,500,rng-500,461,rng,num-start-281,281,536,12.583677530288696,True,,True,1,False,1000,True,1.0
./expes/v2_2020-11-27_di_500-prng-2,daily_issda_500,500,rng-500,231,rng,num-start-71,71,536,1002.1345338821411,False,,False,0,True,1000,True,0.0
./expes/v2_2020-11-27_di_500-prng-2,daily_issda_500,500,rng-500,141,rng,num-start-11,11,536,1000.5895593166351,False,,False,0,True,1000,True,0.0
./expes/v2_2020-11-27_di_500-prng-2,daily_issda_500,500,rng-500,21,rng,num-start-21,21,536,1002.506420135498,False,,False,0,True,1000,True,0.0
./expes/v2_2020-11-27_di_500-prng-2,daily_issda_500,500,rng-500,31,rng,num-start-1,1,536,0.7967395782470703,False,,False,2,False,1000,True,1.0
./expes/v2_2020-11-27_di_500-prng-2,daily_issda_500,500,rng-500,151,rng,num-start-291,291,536,18.23036527633667,True,,True,1,False,1000,True,1.0
./expes/v2_2020-11-27_di_500-prng-2,daily_issda_500,500,rng-500,101,rng,num-start-281,281,536,15.459677696228027,True,,True,1,False,1000,True,1.0
./expes/v2_2020-11-27_di_500-prng-2,daily_issda_500,500,rng-500,191,rng,num-start-171,171,536,1005.3952124118805,False,,False,0,True,1000,True,0.0
./expes/v2_2020-11-27_di_500-prng-2,daily_issda_500,500,rng-500,31,rng,num-start-11,11,536,1000.5198361873627,False,,False,0,True,1000,True,0.0
./expes/v2_2020-11-27_di_500-prng-2,daily_issda_500,500,rng-500,481,rng,num-start-151,151,536,6.449849843978882,True,,True,1,False,1000,True,1.0
./expes/v2_2020-11-27_di_500-prng-2,daily_issda_500,500,rng-500,471,rng,num-start-161,161,536,7.206582307815552,True,,True,1,False,1000,True,1.0
./expes/v2_2020-11-27_di_500-prng-2,daily_issda_500,500,rng-500,461,rng,num-start-271,271,536,12.005980491638184,True,,True,1,False,1000,True,1.0
./expes/v2_2020-11-27_di_500-prng-2,daily_issda_500,500,rng-500,141,rng,num-start-251,251,536,17.233901739120483,True,,True,1,False,1000,True,1.0
./expes/v2_2020-11-27_di_500-prng-2,daily_issda_500,500,rng-500,211,rng,num-start-231,231,536,27.220353603363037,True,,True,1,False,1000,True,1.0
./expes/v2_2020-11-27_di_500-prng-2,daily_issda_500,500,rng-500,41,rng,num-start-271,271,536,12.87826681137085,True,,True,1,False,1000,True,1.0
./expes/v2_2020-11-27_di_500-prng-2,daily_issda_500,500,rng-500,211,rng,num-start-151,151,536,1004.7379426956177,False,,False,0,True,1000,True,0.0
./expes/v2_2020-11-27_di_500-prng-2,daily_issda_500,500,rng-500,101,rng,num-start-131,131,536,1003.9760222434998,False,,False,0,True,1000,True,0.0
./expes/v2_2020-11-27_di_500-prng-2,daily_issda_500,500,rng-500,281,rng,num-start-261,261,536,33.00494408607483,True,,True,1,False,1000,True,1.0
./expes/v2_2020-11-27_di_500-prng-2,daily_issda_500,500,rng-500,451,rng,num-start-241,241,536,11.234858751296997,True,,True,1,False,1000,True,1.0
./expes/v2_2020-11-27_di_500-prng-2,daily_issda_500,500,rng-500,141,rng,num-start-171,171,536,25.680169820785522,True,,True,1,False,1000,True,1.0
./expes/v2_2020-11-27_di_500-prng-2,daily_issda_500,500,rng-500,461,rng,num-start-251,251,536,12.065623760223389,True,,True,1,False,1000,True,1.0
./expes/v2_2020-11-27_di_500-prng-2,daily_issda_500,500,rng-500,1,rng,num-start-121,121,536,3.5586259365081787,True,,True,1,False,1000,True,1.0
./expes/v2_2020-11-27_di_500-prng-2,daily_issda_500,500,rng-500,171,rng,num-start-71,71,536,1002.0843460559845,False,,False,0,True,1000,True,0.0
./expes/v2_2020-11-27_di_500-prng-2,daily_issda_500,500,rng-500,11,rng,num-start-191,191,536,7.614139795303345,True,,True,1,False,1000,True,1.0
./expes/v2_2020-11-27_di_500-prng-2,daily_issda_500,500,rng-500,461,rng,num-start-51,51,536,1001.9044132232666,False,,False,0,True,1000,True,0.0
./expes/v2_2020-11-27_di_500-prng-2,daily_issda_500,500,rng-500,301,rng,num-start-91,91,536,1002.8383409976959,False,,False,0,True,1000,True,0.0
./expes/v2_2020-11-27_di_500-prng-2,daily_issda_500,500,rng-500,11,rng,num-start-271,271,536,11.824189901351929,True,,True,1,False,1000,True,1.0
./expes/v2_2020-11-27_di_500-prng-2,daily_issda_500,500,rng-500,381,rng,num-start-41,41,536,1001.261397600174,False,,False,0,True,1000,True,0.0
./expes/v2_2020-11-27_di_500-prng-2,daily_issda_500,500,rng-500,421,rng,num-start-201,201,536,9.79645848274231,True,,True,1,False,1000,True,1.0
./expes/v2_2020-11-27_di_500-prng-2,daily_issda_500,500,rng-500,351,rng,num-start-261,261,536,15.536855697631836,True,,True,1,False,1000,True,1.0
./expes/v2_2020-11-27_di_500-prng-2,daily_issda_500,500,rng-500,391,rng,num-start-151,151,536,89.18526339530945,True,,True,1,False,1000,True,1.0
./expes/v2_2020-11-27_di_500-prng-2,daily_issda_500,500,rng-500,421,rng,num-start-231,231,536,9.996686935424805,True,,True,1,False,1000,True,1.0
./expes/v2_2020-11-27_di_500-prng-2,daily_issda_500,500,rng-500,21,rng,num-start-1,1,536,1.828789472579956,False,,False,2,False,1000,True,1.0
./expes/v2_2020-11-27_di_500-prng-2,daily_issda_500,500,rng-500,271,rng,num-start-61,61,536,1001.9628248214722,False,,False,0,True,1000,True,0.0
./expes/v2_2020-11-27_di_500-prng-2,daily_issda_500,500,rng-500,101,rng,num-start-121,121,536,1003.7142446041107,False,,False,0,True,1000,True,0.0
./expes/v2_2020-11-27_di_500-prng-2,daily_issda_500,500,rng-500,71,rng,num-start-171,171,536,9.36836051940918,True,,True,1,False,1000,True,1.0
./expes/v2_2020-11-27_di_500-prng-2,daily_issda_500,500,rng-500,31,rng,num-start-141,141,536,5.874431371688843,True,,True,1,False,1000,True,1.0
./expes/v2_2020-11-27_di_500-prng-2,daily_issda_500,500,rng-500,291,rng,num-start-151,151,536,1004.8066127300262,False,,False,0,True,1000,True,0.0
./expes/v2_2020-11-27_di_500-prng-2,daily_issda_500,500,rng-500,491,rng,num-start-251,251,536,9.42155647277832,True,,True,1,False,1000,True,1.0
./expes/v2_2020-11-27_di_500-prng-2,daily_issda_500,500,rng-500,91,rng,num-start-111,111,536,1003.4923577308655,False,,False,0,True,1000,True,0.0
./expes/v2_2020-11-27_di_500-prng-2,daily_issda_500,500,rng-500,171,rng,num-start-11,11,536,1000.4069004058838,False,,False,0,True,1000,True,0.0
./expes/v2_2020-11-27_di_500-prng-2,daily_issda_500,500,rng-500,241,rng,num-start-111,111,536,1003.7625374794006,False,,False,0,True,1000,True,0.0
./expes/v2_2020-11-27_di_500-prng-2,daily_issda_500,500,rng-500,311,rng,num-start-191,191,536,43.83077335357666,True,,True,1,False,1000,True,1.0
./expes/v2_2020-11-27_di_500-prng-2,daily_issda_500,500,rng-500,461,rng,num-start-241,241,536,12.12177038192749,True,,True,1,False,1000,True,1.0
./expes/v2_2020-11-27_di_500-prng-2,daily_issda_500,500,rng-500,141,rng,num-start-91,91,536,1003.1838464736938,False,,False,0,True,1000,True,0.0
./expes/v2_2020-11-27_di_500-prng-2,daily_issda_500,500,rng-500,481,rng,num-start-271,271,536,9.563814640045166,True,,True,1,False,1000,True,1.0
./expes/v2_2020-11-27_di_500-prng-2,daily_issda_500,500,rng-500,351,rng,num-start-131,131,536,1003.8060750961304,False,,False,0,True,1000,True,0.0
./expes/v2_2020-11-27_di_500-prng-2,daily_issda_500,500,rng-500,51,rng,num-start-61,61,536,1001.9601328372955,False,,False,0,True,1000,True,0.0
./expes/v2_2020-11-27_di_500-prng-2,daily_issda_500,500,rng-500,241,rng,num-start-111,111,536,1003.2597932815552,False,,False,0,True,1000,True,0.0
./expes/v2_2020-11-27_di_500-prng-2,daily_issda_500,500,rng-500,21,rng,num-start-231,231,536,9.633072853088379,True,,True,1,False,1000,True,1.0
./expes/v2_2020-11-27_di_500-prng-2,daily_issda_500,500,rng-500,291,rng,num-start-291,291,536,19.1896870136261,True,,True,1,False,1000,True,1.0
./expes/v2_2020-11-27_di_500-prng-2,daily_issda_500,500,rng-500,21,rng,num-start-271,271,536,10.47859239578247,True,,True,1,False,1000,True,1.0
./expes/v2_2020-11-27_di_500-prng-2,daily_issda_500,500,rng-500,251,rng,num-start-81,81,536,1002.4415647983551,False,,False,0,True,1000,True,0.0
./expes/v2_2020-11-27_di_500-prng-2,daily_issda_500,500,rng-500,201,rng,num-start-71,71,536,1002.381819486618,False,,False,0,True,1000,True,0.0
./expes/v2_2020-11-27_di_500-prng-2,daily_issda_500,500,rng-500,431,rng,num-start-121,121,536,20.353137969970703,True,,True,1,False,1000,True,1.0
./expes/v2_2020-11-27_di_500-prng-2,daily_issda_500,500,rng-500,61,rng,num-start-51,51,536,1001.6948487758636,False,,False,0,True,1000,True,0.0
./expes/v2_2020-11-27_di_500-prng-2,daily_issda_500,500,rng-500,141,rng,num-start-261,261,536,17.05347967147827,True,,True,1,False,1000,True,1.0
./expes/v2_2020-11-27_di_500-prng-2,daily_issda_500,500,rng-500,371,rng,num-start-101,101,536,1003.1889636516571,False,,False,0,True,1000,True,0.0
./expes/v2_2020-11-27_di_500-prng-2,daily_issda_500,500,rng-500,11,rng,num-start-71,71,536,2.8578689098358154,True,,True,1,False,1000,True,1.0
./expes/v2_2020-11-27_di_500-prng-2,daily_issda_500,500,rng-500,151,rng,num-start-1,1,536,2.1494596004486084,False,,False,2,False,1000,True,1.0
./expes/v2_2020-11-27_di_500-prng-2,daily_issda_500,500,rng-500,41,rng,num-start-181,181,536,9.37556529045105,True,,True,1,False,1000,True,1.0
./expes/v2_2020-11-27_di_500-prng-2,daily_issda_500,500,rng-500,61,rng,num-start-261,261,536,11.104877471923828,True,,True,1,False,1000,True,1.0
./expes/v2_2020-11-27_di_500-prng-2,daily_issda_500,500,rng-500,301,rng,num-start-201,201,536,73.27353191375732,True,,True,1,False,1000,True,1.0
./expes/v2_2020-11-27_di_500-prng-2,daily_issda_500,500,rng-500,281,rng,num-start-221,221,536,29.090081930160522,True,,True,1,False,1000,True,1.0
./expes/v2_2020-11-27_di_500-prng-2,daily_issda_500,500,rng-500,91,rng,num-start-291,291,536,20.637516736984253,True,,True,1,False,1000,True,1.0
./expes/v2_2020-11-27_di_500-prng-2,daily_issda_500,500,rng-500,51,rng,num-start-241,241,536,13.525272130966187,True,,True,1,False,1000,True,1.0
./expes/v2_2020-11-27_di_500-prng-2,daily_issda_500,500,rng-500,441,rng,num-start-71,71,536,1002.2555346488953,False,,False,0,True,1000,True,0.0
./expes/v2_2020-11-27_di_500-prng-2,daily_issda_500,500,rng-500,151,rng,num-start-171,171,536,85.52951145172119,True,,True,1,False,1000,True,1.0
./expes/v2_2020-11-27_di_500-prng-2,daily_issda_500,500,rng-500,351,rng,num-start-1,1,536,3.2946629524230957,False,,False,2,False,1000,True,1.0
./expes/v2_2020-11-27_di_500-prng-2,daily_issda_500,500,rng-500,371,rng,num-start-191,191,536,26.44097661972046,True,,True,1,False,1000,True,1.0
./expes/v2_2020-11-27_di_500-prng-2,daily_issda_500,500,rng-500,191,rng,num-start-231,231,536,24.18488049507141,True,,True,1,False,1000,True,1.0
./expes/v2_2020-11-27_di_500-prng-2,daily_issda_500,500,rng-500,361,rng,num-start-251,251,536,17.97607970237732,True,,True,1,False,1000,True,1.0
./expes/v2_2020-11-27_di_500-prng-2,daily_issda_500,500,rng-500,131,rng,num-start-141,141,536,1004.2848811149597,False,,False,0,True,1000,True,0.0
./expes/v2_2020-11-27_di_500-prng-2,daily_issda_500,500,rng-500,291,rng,num-start-171,171,536,1005.3352041244507,False,,False,0,True,1000,True,0.0
./expes/v2_2020-11-27_di_500-prng-2,daily_issda_500,500,rng-500,491,rng,num-start-81,81,536,3.221881151199341,True,,True,1,False,1000,True,1.0
./expes/v2_2020-11-27_di_500-prng-2,daily_issda_500,500,rng-500,221,rng,num-start-271,271,536,17.629849195480347,True,,True,1,False,1000,True,1.0
./expes/v2_2020-11-27_di_500-prng-2,daily_issda_500,500,rng-500,321,rng,num-start-71,71,536,1002.1728036403656,False,,False,0,True,1000,True,0.0
./expes/v2_2020-11-27_di_500-prng-2,daily_issda_500,500,rng-500,361,rng,num-start-41,41,536,1001.3089735507965,False,,False,0,True,1000,True,0.0
./expes/v2_2020-11-27_di_500-prng-2,daily_issda_500,500,rng-500,201,rng,num-start-271,271,536,25.001554489135742,True,,True,1,False,1000,True,1.0
./expes/v2_2020-11-27_di_500-prng-2,daily_issda_500,500,rng-500,111,rng,num-start-151,151,536,1004.8104290962219,False,,False,0,True,1000,True,0.0
./expes/v2_2020-11-27_di_500-prng-2,daily_issda_500,500,rng-500,321,rng,num-start-261,261,536,18.878271341323853,True,,True,1,False,1000,True,1.0
./expes/v2_2020-11-27_di_500-prng-2,daily_issda_500,500,rng-500,241,rng,num-start-71,71,536,1002.1986832618713,False,,False,0,True,1000,True,0.0
./expes/v2_2020-11-27_di_500-prng-2,daily_issda_500,500,rng-500,11,rng,num-start-151,151,536,6.851258754730225,True,,True,1,False,1000,True,1.0
./expes/v2_2020-11-27_di_500-prng-2,daily_issda_500,500,rng-500,31,rng,num-start-51,51,536,1001.7749037742615,False,,False,0,True,1000,True,0.0
./expes/v2_2020-11-27_di_500-prng-2,daily_issda_500,500,rng-500,191,rng,num-start-31,31,536,1001.0471620559692,False,,False,0,True,1000,True,0.0
./expes/v2_2020-11-27_di_500-prng-2,daily_issda_500,500,rng-500,21,rng,num-start-131,131,536,6.074889898300171,True,,True,1,False,1000,True,1.0
./expes/v2_2020-11-27_di_500-prng-2,daily_issda_500,500,rng-500,411,rng,num-start-211,211,536,12.197211027145386,True,,True,1,False,1000,True,1.0
./expes/v2_2020-11-27_di_500-prng-2,daily_issda_500,500,rng-500,441,rng,num-start-161,161,536,8.083142280578613,True,,True,1,False,1000,True,1.0
./expes/v2_2020-11-27_di_500-prng-2,daily_issda_500,500,rng-500,391,rng,num-start-261,261,536,13.213387489318848,True,,True,1,False,1000,True,1.0
./expes/v2_2020-11-27_di_500-prng-2,daily_issda_500,500,rng-500,341,rng,num-start-201,201,536,24.445847034454346,True,,True,1,False,1000,True,1.0
./expes/v2_2020-11-27_di_500-prng-2,daily_issda_500,500,rng-500,121,rng,num-start-41,41,536,1001.409729719162,False,,False,0,True,1000,True,0.0
./expes/v2_2020-11-27_di_500-prng-2,daily_issda_500,500,rng-500,281,rng,num-start-71,71,536,1002.228752374649,False,,False,0,True,1000,True,0.0
./expes/v2_2020-11-27_di_500-prng-2,daily_issda_500,500,rng-500,471,rng,num-start-151,151,536,7.329970359802246,True,,True,1,False,1000,True,1.0
./expes/v2_2020-11-27_di_500-prng-2,daily_issda_500,500,rng-500,151,rng,num-start-201,201,536,33.9225594997406,True,,True,1,False,1000,True,1.0
./expes/v2_2020-11-27_di_500-prng-2,daily_issda_500,500,rng-500,351,rng,num-start-11,11,536,1000.552839756012,False,,False,0,True,1000,True,0.0
./expes/v2_2020-11-27_di_500-prng-2,daily_issda_500,500,rng-500,421,rng,num-start-121,121,536,125.81922388076782,True,,True,1,False,1000,True,1.0
./expes/v2_2020-11-27_di_500-prng-2,daily_issda_500,500,rng-500,151,rng,num-start-61,61,536,1001.963457107544,False,,False,0,True,1000,True,0.0
./expes/v2_2020-11-27_di_500-prng-2,daily_issda_500,500,rng-500,171,rng,num-start-261,261,536,18.019978046417236,True,,True,1,False,1000,True,1.0
./expes/v2_2020-11-27_di_500-prng-2,daily_issda_500,500,rng-500,461,rng,num-start-191,191,536,7.817761421203613,True,,True,1,False,1000,True,1.0
./expes/v2_2020-11-27_di_500-prng-2,daily_issda_500,500,rng-500,301,rng,num-start-71,71,536,1002.0985543727875,False,,False,0,True,1000,True,0.0
./expes/v2_2020-11-27_di_500-prng-2,daily_issda_500,500,rng-500,451,rng,num-start-61,61,536,1001.9561197757721,False,,False,0,True,1000,True,0.0
./expes/v2_2020-11-27_di_500-prng-2,daily_issda_500,500,rng-500,231,rng,num-start-31,31,536,1001.1083281040192,False,,False,0,True,1000,True,0.0
./expes/v2_2020-11-27_di_500-prng-2,daily_issda_500,500,rng-500,221,rng,num-start-11,11,536,1000.4295516014099,False,,False,0,True,1000,True,0.0
./expes/v2_2020-11-27_di_500-prng-2,daily_issda_500,500,rng-500,481,rng,num-start-61,61,536,3.3233230113983154,True,,True,1,False,1000,True,1.0
./expes/v2_2020-11-27_di_500-prng-2,daily_issda_500,500,rng-500,21,rng,num-start-281,281,536,11.969547033309937,True,,True,1,False,1000,True,1.0
./expes/v2_2020-11-27_di_500-prng-2,daily_issda_500,500,rng-500,21,rng,num-start-201,201,536,8.39716386795044,True,,True,1,False,1000,True,1.0
./expes/v2_2020-11-27_di_500-prng-2,daily_issda_500,500,rng-500,221,rng,num-start-181,181,536,1005.2913253307343,False,,False,0,True,1000,True,0.0
./expes/v2_2020-11-27_di_500-prng-2,daily_issda_500,500,rng-500,221,rng,num-start-71,71,536,1002.3191919326782,False,,False,0,True,1000,True,0.0
./expes/v2_2020-11-27_di_500-prng-2,daily_issda_500,500,rng-500,271,rng,num-start-221,221,536,39.96431231498718,True,,True,1,False,1000,True,1.0
./expes/v2_2020-11-27_di_500-prng-2,daily_issda_500,500,rng-500,41,rng,num-start-281,281,536,12.163044691085815,True,,True,1,False,1000,True,1.0
./expes/v2_2020-11-27_di_500-prng-2,daily_issda_500,500,rng-500,211,rng,num-start-61,61,536,1001.8406782150269,False,,False,0,True,1000,True,0.0
./expes/v2_2020-11-27_di_500-prng-2,daily_issda_500,500,rng-500,371,rng,num-start-141,141,536,1004.1638026237488,False,,False,0,True,1000,True,0.0
./expes/v2_2020-11-27_di_500-prng-2,daily_issda_500,500,rng-500,91,rng,num-start-21,21,536,1000.6810667514801,False,,False,0,True,1000,True,0.0
./expes/v2_2020-11-27_di_500-prng-2,daily_issda_500,500,rng-500,11,rng,num-start-161,161,536,6.7694478034973145,True,,True,1,False,1000,True,1.0
./expes/v2_2020-11-27_di_500-prng-2,daily_issda_500,500,rng-500,421,rng,num-start-191,191,536,8.343981981277466,True,,True,1,False,1000,True,1.0
./expes/v2_2020-11-27_di_500-prng-2,daily_issda_500,500,rng-500,431,rng,num-start-171,171,536,18.68452000617981,True,,True,1,False,1000,True,1.0
./expes/v2_2020-11-27_di_500-prng-2,daily_issda_500,500,rng-500,411,rng,num-start-121,121,536,1003.6714828014374,False,,False,0,True,1000,True,0.0
./expes/v2_2020-11-27_di_500-prng-2,daily_issda_500,500,rng-500,181,rng,num-start-1,1,536,3.7093827724456787,False,,False,2,False,1000,True,1.0
./expes/v2_2020-11-27_di_500-prng-2,daily_issda_500,500,rng-500,411,rng,num-start-161,161,536,14.1102294921875,True,,True,1,False,1000,True,1.0
./expes/v2_2020-11-27_di_500-prng-2,daily_issda_500,500,rng-500,31,rng,num-start-1,1,536,2.6459686756134033,False,,False,2,False,1000,True,1.0
./expes/v2_2020-11-27_di_500-prng-2,daily_issda_500,500,rng-500,111,rng,num-start-91,91,536,1002.827629327774,False,,False,0,True,1000,True,0.0
./expes/v2_2020-11-27_di_500-prng-2,daily_issda_500,500,rng-500,441,rng,num-start-191,191,536,8.80882477760315,True,,True,1,False,1000,True,1.0
./expes/v2_2020-11-27_di_500-prng-2,daily_issda_500,500,rng-500,271,rng,num-start-241,241,536,12.057241678237915,True,,True,1,False,1000,True,1.0
./expes/v2_2020-11-27_di_500-prng-2,daily_issda_500,500,rng-500,361,rng,num-start-261,261,536,13.9079749584198,True,,True,1,False,1000,True,1.0
./expes/v2_2020-11-27_di_500-prng-2,daily_issda_500,500,rng-500,421,rng,num-start-61,61,536,1001.8515918254852,False,,False,0,True,1000,True,0.0
./expes/v2_2020-11-27_di_500-prng-2,daily_issda_500,500,rng-500,441,rng,num-start-61,61,536,1001.8205802440643,False,,False,0,True,1000,True,0.0
./expes/v2_2020-11-27_di_500-prng-2,daily_issda_500,500,rng-500,21,rng,num-start-171,171,536,8.046708583831787,True,,True,1,False,1000,True,1.0
