expe,clients,clients_size,clients_subset,agg_size,method,days,days_size,days_total,time,valid,valid_sum,success,nsols,wall_hit,wall_time,pooled,valid_sums
./expes/v2_2020-11-09_3bh_200-prng-1,30_base_hphc_200,200,first-200,91,rng,num-start-201,201,17520,4.625686168670654,True,,True,1,False,1000,True,1.0
./expes/v2_2020-11-09_3bh_200-prng-1,30_base_hphc_200,200,first-200,91,rng,num-start-761,761,17520,13.788108587265015,True,,True,1,False,1000,True,1.0
./expes/v2_2020-11-09_3bh_200-prng-1,30_base_hphc_200,200,first-200,181,rng,num-start-351,351,17520,6.13032603263855,True,,True,1,False,1000,True,1.0
./expes/v2_2020-11-09_3bh_200-prng-1,30_base_hphc_200,200,first-200,101,rng,num-start-41,41,17520,1000.736575126648,False,,False,0,True,1000,True,0.0
./expes/v2_2020-11-09_3bh_200-prng-1,30_base_hphc_200,200,first-200,191,rng,num-start-241,241,17520,4.4562413692474365,True,,True,1,False,1000,True,1.0
./expes/v2_2020-11-09_3bh_200-prng-1,30_base_hphc_200,200,first-200,191,rng,num-start-111,111,17520,2.088843822479248,True,,True,1,False,1000,True,1.0
./expes/v2_2020-11-09_3bh_200-prng-1,30_base_hphc_200,200,first-200,61,rng,num-start-91,91,17520,1.9587297439575195,True,,True,1,False,1000,True,1.0
./expes/v2_2020-11-09_3bh_200-prng-1,30_base_hphc_200,200,first-200,161,rng,num-start-631,631,17520,11.747549057006836,True,,True,1,False,1000,True,1.0
./expes/v2_2020-11-09_3bh_200-prng-1,30_base_hphc_200,200,first-200,71,rng,num-start-141,141,17520,2.9978365898132324,True,,True,1,False,1000,True,1.0
./expes/v2_2020-11-09_3bh_200-prng-1,30_base_hphc_200,200,first-200,121,rng,num-start-711,711,17520,12.88629698753357,True,,True,1,False,1000,True,1.0
./expes/v2_2020-11-09_3bh_200-prng-1,30_base_hphc_200,200,first-200,151,rng,num-start-391,391,17520,7.0895750522613525,True,,True,1,False,1000,True,1.0
./expes/v2_2020-11-09_3bh_200-prng-1,30_base_hphc_200,200,first-200,21,rng,num-start-741,741,17520,14.035196781158447,True,,True,1,False,1000,True,1.0
./expes/v2_2020-11-09_3bh_200-prng-1,30_base_hphc_200,200,first-200,31,rng,num-start-211,211,17520,4.373614311218262,True,,True,1,False,1000,True,1.0
./expes/v2_2020-11-09_3bh_200-prng-1,30_base_hphc_200,200,first-200,61,rng,num-start-391,391,17520,8.02885103225708,True,,True,1,False,1000,True,1.0
./expes/v2_2020-11-09_3bh_200-prng-1,30_base_hphc_200,200,first-200,71,rng,num-start-41,41,17520,1000.7037489414215,False,,False,0,True,1000,True,0.0
./expes/v2_2020-11-09_3bh_200-prng-1,30_base_hphc_200,200,first-200,191,rng,num-start-231,231,17520,4.187851190567017,True,,True,1,False,1000,True,1.0
./expes/v2_2020-11-09_3bh_200-prng-1,30_base_hphc_200,200,first-200,81,rng,num-start-761,761,17520,15.412286520004272,True,,True,1,False,1000,True,1.0
./expes/v2_2020-11-09_3bh_200-prng-1,30_base_hphc_200,200,first-200,151,rng,num-start-581,581,17520,11.585225820541382,True,,True,1,False,1000,True,1.0
./expes/v2_2020-11-09_3bh_200-prng-1,30_base_hphc_200,200,first-200,121,rng,num-start-61,61,17520,12.353260278701782,True,,True,1,False,1000,True,1.0
./expes/v2_2020-11-09_3bh_200-prng-1,30_base_hphc_200,200,first-200,161,rng,num-start-851,851,17520,18.361289501190186,True,,True,1,False,1000,True,1.0
./expes/v2_2020-11-09_3bh_200-prng-1,30_base_hphc_200,200,first-200,1,rng,num-start-711,711,17520,10.580717086791992,True,,True,1,False,1000,True,1.0
./expes/v2_2020-11-09_3bh_200-prng-1,30_base_hphc_200,200,first-200,111,rng,num-start-81,81,17520,6.943425893783569,True,,True,1,False,1000,True,1.0
./expes/v2_2020-11-09_3bh_200-prng-1,30_base_hphc_200,200,first-200,91,rng,num-start-101,101,17520,2.239151954650879,True,,True,1,False,1000,True,1.0
./expes/v2_2020-11-09_3bh_200-prng-1,30_base_hphc_200,200,first-200,141,rng,num-start-471,471,17520,9.147487878799438,True,,True,1,False,1000,True,1.0
./expes/v2_2020-11-09_3bh_200-prng-1,30_base_hphc_200,200,first-200,31,rng,num-start-741,741,17520,13.222390174865723,True,,True,1,False,1000,True,1.0
./expes/v2_2020-11-09_3bh_200-prng-1,30_base_hphc_200,200,first-200,101,rng,num-start-51,51,17520,1000.8333995342255,False,,False,0,True,1000,True,0.0
./expes/v2_2020-11-09_3bh_200-prng-1,30_base_hphc_200,200,first-200,101,rng,num-start-401,401,17520,7.032957077026367,True,,True,1,False,1000,True,1.0
./expes/v2_2020-11-09_3bh_200-prng-1,30_base_hphc_200,200,first-200,1,rng,num-start-171,171,17520,2.516101121902466,True,,True,1,False,1000,True,1.0
./expes/v2_2020-11-09_3bh_200-prng-1,30_base_hphc_200,200,first-200,161,rng,num-start-611,611,17520,10.799998044967651,True,,True,1,False,1000,True,1.0
./expes/v2_2020-11-09_3bh_200-prng-1,30_base_hphc_200,200,first-200,161,rng,num-start-161,161,17520,3.043902635574341,True,,True,1,False,1000,True,1.0
./expes/v2_2020-11-09_3bh_200-prng-1,30_base_hphc_200,200,first-200,161,rng,num-start-261,261,17520,4.901293039321899,True,,True,1,False,1000,True,1.0
./expes/v2_2020-11-09_3bh_200-prng-1,30_base_hphc_200,200,first-200,31,rng,num-start-91,91,17520,2.0006604194641113,True,,True,1,False,1000,True,1.0
./expes/v2_2020-11-09_3bh_200-prng-1,30_base_hphc_200,200,first-200,61,rng,num-start-71,71,17520,3.830806016921997,True,,True,1,False,1000,True,1.0
./expes/v2_2020-11-09_3bh_200-prng-1,30_base_hphc_200,200,first-200,121,rng,num-start-381,381,17520,7.252236843109131,True,,True,1,False,1000,True,1.0
./expes/v2_2020-11-09_3bh_200-prng-1,30_base_hphc_200,200,first-200,151,rng,num-start-821,821,17520,14.961371898651123,True,,True,1,False,1000,True,1.0
./expes/v2_2020-11-09_3bh_200-prng-1,30_base_hphc_200,200,first-200,161,rng,num-start-311,311,17520,6.42932653427124,True,,True,1,False,1000,True,1.0
./expes/v2_2020-11-09_3bh_200-prng-1,30_base_hphc_200,200,first-200,21,rng,num-start-371,371,17520,6.637792348861694,True,,True,1,False,1000,True,1.0
./expes/v2_2020-11-09_3bh_200-prng-1,30_base_hphc_200,200,first-200,81,rng,num-start-121,121,17520,2.7945361137390137,True,,True,1,False,1000,True,1.0
./expes/v2_2020-11-09_3bh_200-prng-1,30_base_hphc_200,200,first-200,61,rng,num-start-61,61,17520,19.58690309524536,True,,True,1,False,1000,True,1.0
./expes/v2_2020-11-09_3bh_200-prng-1,30_base_hphc_200,200,first-200,91,rng,num-start-621,621,17520,11.511910438537598,True,,True,1,False,1000,True,1.0
./expes/v2_2020-11-09_3bh_200-prng-1,30_base_hphc_200,200,first-200,171,rng,num-start-831,831,17520,15.797057390213013,True,,True,1,False,1000,True,1.0
./expes/v2_2020-11-09_3bh_200-prng-1,30_base_hphc_200,200,first-200,121,rng,num-start-661,661,17520,12.471002101898193,True,,True,1,False,1000,True,1.0
./expes/v2_2020-11-09_3bh_200-prng-1,30_base_hphc_200,200,first-200,21,rng,num-start-591,591,17520,11.127252340316772,True,,True,1,False,1000,True,1.0
./expes/v2_2020-11-09_3bh_200-prng-1,30_base_hphc_200,200,first-200,71,rng,num-start-461,461,17520,7.982387065887451,True,,True,1,False,1000,True,1.0
./expes/v2_2020-11-09_3bh_200-prng-1,30_base_hphc_200,200,first-200,131,rng,num-start-651,651,17520,12.473444700241089,True,,True,1,False,1000,True,1.0
./expes/v2_2020-11-09_3bh_200-prng-1,30_base_hphc_200,200,first-200,1,rng,num-start-111,111,17520,1.6418466567993164,True,,True,1,False,1000,True,1.0
./expes/v2_2020-11-09_3bh_200-prng-1,30_base_hphc_200,200,first-200,21,rng,num-start-551,551,17520,10.577580690383911,True,,True,1,False,1000,True,1.0
./expes/v2_2020-11-09_3bh_200-prng-1,30_base_hphc_200,200,first-200,111,rng,num-start-511,511,17520,9.46277141571045,True,,True,1,False,1000,True,1.0
./expes/v2_2020-11-09_3bh_200-prng-1,30_base_hphc_200,200,first-200,141,rng,num-start-301,301,17520,5.846830368041992,True,,True,1,False,1000,True,1.0
./expes/v2_2020-11-09_3bh_200-prng-1,30_base_hphc_200,200,first-200,171,rng,num-start-481,481,17520,8.394930839538574,True,,True,1,False,1000,True,1.0
./expes/v2_2020-11-09_3bh_200-prng-1,30_base_hphc_200,200,first-200,31,rng,num-start-61,61,17520,2.7427279949188232,True,,True,1,False,1000,True,1.0
./expes/v2_2020-11-09_3bh_200-prng-1,30_base_hphc_200,200,first-200,191,rng,num-start-801,801,17520,12.4388108253479,True,,True,1,False,1000,True,1.0
./expes/v2_2020-11-09_3bh_200-prng-1,30_base_hphc_200,200,first-200,81,rng,num-start-331,331,17520,6.039522171020508,True,,True,1,False,1000,True,1.0
./expes/v2_2020-11-09_3bh_200-prng-1,30_base_hphc_200,200,first-200,151,rng,num-start-561,561,17520,10.093920230865479,True,,True,1,False,1000,True,1.0
./expes/v2_2020-11-09_3bh_200-prng-1,30_base_hphc_200,200,first-200,161,rng,num-start-631,631,17520,11.218175411224365,True,,True,1,False,1000,True,1.0
./expes/v2_2020-11-09_3bh_200-prng-1,30_base_hphc_200,200,first-200,121,rng,num-start-351,351,17520,6.660914182662964,True,,True,1,False,1000,True,1.0
./expes/v2_2020-11-09_3bh_200-prng-1,30_base_hphc_200,200,first-200,1,rng,num-start-701,701,17520,10.331568241119385,True,,True,1,False,1000,True,1.0
./expes/v2_2020-11-09_3bh_200-prng-1,30_base_hphc_200,200,first-200,101,rng,num-start-181,181,17520,3.550696849822998,True,,True,1,False,1000,True,1.0
./expes/v2_2020-11-09_3bh_200-prng-1,30_base_hphc_200,200,first-200,191,rng,num-start-581,581,17520,10.188996076583862,True,,True,1,False,1000,True,1.0
./expes/v2_2020-11-09_3bh_200-prng-1,30_base_hphc_200,200,first-200,11,rng,num-start-741,741,17520,12.095561504364014,True,,True,1,False,1000,True,1.0
./expes/v2_2020-11-09_3bh_200-prng-1,30_base_hphc_200,200,first-200,111,rng,num-start-851,851,17520,15.297613143920898,True,,True,1,False,1000,True,1.0
./expes/v2_2020-11-09_3bh_200-prng-1,30_base_hphc_200,200,first-200,61,rng,num-start-111,111,17520,2.040724039077759,True,,True,1,False,1000,True,1.0
./expes/v2_2020-11-09_3bh_200-prng-1,30_base_hphc_200,200,first-200,191,rng,num-start-331,331,17520,5.392099380493164,True,,True,1,False,1000,True,1.0
./expes/v2_2020-11-09_3bh_200-prng-1,30_base_hphc_200,200,first-200,191,rng,num-start-671,671,17520,10.934454441070557,True,,True,1,False,1000,True,1.0
./expes/v2_2020-11-09_3bh_200-prng-1,30_base_hphc_200,200,first-200,101,rng,num-start-751,751,17520,12.768986225128174,True,,True,1,False,1000,True,1.0
./expes/v2_2020-11-09_3bh_200-prng-1,30_base_hphc_200,200,first-200,161,rng,num-start-681,681,17520,12.931102275848389,True,,True,1,False,1000,True,1.0
./expes/v2_2020-11-09_3bh_200-prng-1,30_base_hphc_200,200,first-200,31,rng,num-start-561,561,17520,10.272906064987183,True,,True,1,False,1000,True,1.0
./expes/v2_2020-11-09_3bh_200-prng-1,30_base_hphc_200,200,first-200,131,rng,num-start-21,21,17520,1000.4142332077026,False,,False,0,True,1000,True,0.0
./expes/v2_2020-11-09_3bh_200-prng-1,30_base_hphc_200,200,first-200,71,rng,num-start-241,241,17520,4.976401090621948,True,,True,1,False,1000,True,1.0
./expes/v2_2020-11-09_3bh_200-prng-1,30_base_hphc_200,200,first-200,1,rng,num-start-821,821,17520,12.343066692352295,True,,True,1,False,1000,True,1.0
./expes/v2_2020-11-09_3bh_200-prng-1,30_base_hphc_200,200,first-200,51,rng,num-start-741,741,17520,13.742265701293945,True,,True,1,False,1000,True,1.0
./expes/v2_2020-11-09_3bh_200-prng-1,30_base_hphc_200,200,first-200,141,rng,num-start-491,491,17520,8.519350290298462,True,,True,1,False,1000,True,1.0
./expes/v2_2020-11-09_3bh_200-prng-1,30_base_hphc_200,200,first-200,151,rng,num-start-61,61,17520,3.9990592002868652,True,,True,1,False,1000,True,1.0
./expes/v2_2020-11-09_3bh_200-prng-1,30_base_hphc_200,200,first-200,91,rng,num-start-141,141,17520,3.140486001968384,True,,True,1,False,1000,True,1.0
./expes/v2_2020-11-09_3bh_200-prng-1,30_base_hphc_200,200,first-200,71,rng,num-start-491,491,17520,9.90804147720337,True,,True,1,False,1000,True,1.0
./expes/v2_2020-11-09_3bh_200-prng-1,30_base_hphc_200,200,first-200,31,rng,num-start-891,891,17520,18.033430576324463,True,,True,1,False,1000,True,1.0
./expes/v2_2020-11-09_3bh_200-prng-1,30_base_hphc_200,200,first-200,1,rng,num-start-331,331,17520,4.923785924911499,True,,True,1,False,1000,True,1.0
./expes/v2_2020-11-09_3bh_200-prng-1,30_base_hphc_200,200,first-200,141,rng,num-start-921,921,17520,17.64055371284485,True,,True,1,False,1000,True,1.0
./expes/v2_2020-11-09_3bh_200-prng-1,30_base_hphc_200,200,first-200,21,rng,num-start-641,641,17520,10.919008255004883,True,,True,1,False,1000,True,1.0
./expes/v2_2020-11-09_3bh_200-prng-1,30_base_hphc_200,200,first-200,141,rng,num-start-721,721,17520,13.666369438171387,True,,True,1,False,1000,True,1.0
./expes/v2_2020-11-09_3bh_200-prng-1,30_base_hphc_200,200,first-200,121,rng,num-start-641,641,17520,11.637217283248901,True,,True,1,False,1000,True,1.0
./expes/v2_2020-11-09_3bh_200-prng-1,30_base_hphc_200,200,first-200,61,rng,num-start-711,711,17520,12.505817651748657,True,,True,1,False,1000,True,1.0
./expes/v2_2020-11-09_3bh_200-prng-1,30_base_hphc_200,200,first-200,71,rng,num-start-921,921,17520,18.21308708190918,True,,True,1,False,1000,True,1.0
./expes/v2_2020-11-09_3bh_200-prng-1,30_base_hphc_200,200,first-200,51,rng,num-start-461,461,17520,9.426180124282837,True,,True,1,False,1000,True,1.0
./expes/v2_2020-11-09_3bh_200-prng-1,30_base_hphc_200,200,first-200,191,rng,num-start-361,361,17520,6.373700857162476,True,,True,1,False,1000,True,1.0
./expes/v2_2020-11-09_3bh_200-prng-1,30_base_hphc_200,200,first-200,141,rng,num-start-471,471,17520,9.258262157440186,True,,True,1,False,1000,True,1.0
./expes/v2_2020-11-09_3bh_200-prng-1,30_base_hphc_200,200,first-200,1,rng,num-start-141,141,17520,2.115168571472168,True,,True,1,False,1000,True,1.0
./expes/v2_2020-11-09_3bh_200-prng-1,30_base_hphc_200,200,first-200,101,rng,num-start-311,311,17520,6.443023920059204,True,,True,1,False,1000,True,1.0
./expes/v2_2020-11-09_3bh_200-prng-1,30_base_hphc_200,200,first-200,181,rng,num-start-181,181,17520,3.3220667839050293,True,,True,1,False,1000,True,1.0
./expes/v2_2020-11-09_3bh_200-prng-1,30_base_hphc_200,200,first-200,61,rng,num-start-981,981,17520,20.65619158744812,True,,True,1,False,1000,True,1.0
./expes/v2_2020-11-09_3bh_200-prng-1,30_base_hphc_200,200,first-200,71,rng,num-start-461,461,17520,8.760061264038086,True,,True,1,False,1000,True,1.0
./expes/v2_2020-11-09_3bh_200-prng-1,30_base_hphc_200,200,first-200,191,rng,num-start-351,351,17520,6.219722270965576,True,,True,1,False,1000,True,1.0
./expes/v2_2020-11-09_3bh_200-prng-1,30_base_hphc_200,200,first-200,21,rng,num-start-241,241,17520,4.952568769454956,True,,True,1,False,1000,True,1.0
./expes/v2_2020-11-09_3bh_200-prng-1,30_base_hphc_200,200,first-200,101,rng,num-start-521,521,17520,10.474204540252686,True,,True,1,False,1000,True,1.0
./expes/v2_2020-11-09_3bh_200-prng-1,30_base_hphc_200,200,first-200,171,rng,num-start-341,341,17520,6.27995491027832,True,,True,1,False,1000,True,1.0
./expes/v2_2020-11-09_3bh_200-prng-1,30_base_hphc_200,200,first-200,171,rng,num-start-471,471,17520,8.577447891235352,True,,True,1,False,1000,True,1.0
./expes/v2_2020-11-09_3bh_200-prng-1,30_base_hphc_200,200,first-200,41,rng,num-start-631,631,17520,11.577154397964478,True,,True,1,False,1000,True,1.0
./expes/v2_2020-11-09_3bh_200-prng-1,30_base_hphc_200,200,first-200,41,rng,num-start-851,851,17520,16.34454584121704,True,,True,1,False,1000,True,1.0
./expes/v2_2020-11-09_3bh_200-prng-1,30_base_hphc_200,200,first-200,131,rng,num-start-111,111,17520,2.4680378437042236,True,,True,1,False,1000,True,1.0
./expes/v2_2020-11-09_3bh_200-prng-1,30_base_hphc_200,200,first-200,91,rng,num-start-301,301,17520,5.930931806564331,True,,True,1,False,1000,True,1.0
./expes/v2_2020-11-09_3bh_200-prng-1,30_base_hphc_200,200,first-200,101,rng,num-start-171,171,17520,3.536217212677002,True,,True,1,False,1000,True,1.0
./expes/v2_2020-11-09_3bh_200-prng-1,30_base_hphc_200,200,first-200,161,rng,num-start-621,621,17520,11.38991928100586,True,,True,1,False,1000,True,1.0
./expes/v2_2020-11-09_3bh_200-prng-1,30_base_hphc_200,200,first-200,181,rng,num-start-871,871,17520,15.748291730880737,True,,True,1,False,1000,True,1.0
./expes/v2_2020-11-09_3bh_200-prng-1,30_base_hphc_200,200,first-200,151,rng,num-start-501,501,17520,8.963859796524048,True,,True,1,False,1000,True,1.0
./expes/v2_2020-11-09_3bh_200-prng-1,30_base_hphc_200,200,first-200,31,rng,num-start-661,661,17520,11.77756118774414,True,,True,1,False,1000,True,1.0
./expes/v2_2020-11-09_3bh_200-prng-1,30_base_hphc_200,200,first-200,151,rng,num-start-741,741,17520,13.936275243759155,True,,True,1,False,1000,True,1.0
./expes/v2_2020-11-09_3bh_200-prng-1,30_base_hphc_200,200,first-200,11,rng,num-start-371,371,17520,6.649587154388428,True,,True,1,False,1000,True,1.0
./expes/v2_2020-11-09_3bh_200-prng-1,30_base_hphc_200,200,first-200,181,rng,num-start-971,971,17520,17.967281579971313,True,,True,1,False,1000,True,1.0
./expes/v2_2020-11-09_3bh_200-prng-1,30_base_hphc_200,200,first-200,11,rng,num-start-851,851,17520,14.093388557434082,True,,True,1,False,1000,True,1.0
./expes/v2_2020-11-09_3bh_200-prng-1,30_base_hphc_200,200,first-200,51,rng,num-start-331,331,17520,6.352691173553467,True,,True,1,False,1000,True,1.0
./expes/v2_2020-11-09_3bh_200-prng-1,30_base_hphc_200,200,first-200,41,rng,num-start-181,181,17520,3.3529815673828125,True,,True,1,False,1000,True,1.0
./expes/v2_2020-11-09_3bh_200-prng-1,30_base_hphc_200,200,first-200,81,rng,num-start-811,811,17520,15.132910251617432,True,,True,1,False,1000,True,1.0
./expes/v2_2020-11-09_3bh_200-prng-1,30_base_hphc_200,200,first-200,111,rng,num-start-671,671,17520,12.364988088607788,True,,True,1,False,1000,True,1.0
./expes/v2_2020-11-09_3bh_200-prng-1,30_base_hphc_200,200,first-200,111,rng,num-start-981,981,17520,20.505087852478027,True,,True,1,False,1000,True,1.0
./expes/v2_2020-11-09_3bh_200-prng-1,30_base_hphc_200,200,first-200,81,rng,num-start-501,501,17520,10.038668870925903,True,,True,1,False,1000,True,1.0
./expes/v2_2020-11-09_3bh_200-prng-1,30_base_hphc_200,200,first-200,181,rng,num-start-961,961,17520,17.166661977767944,True,,True,1,False,1000,True,1.0
./expes/v2_2020-11-09_3bh_200-prng-1,30_base_hphc_200,200,first-200,91,rng,num-start-911,911,17520,16.63018012046814,True,,True,1,False,1000,True,1.0
./expes/v2_2020-11-09_3bh_200-prng-1,30_base_hphc_200,200,first-200,41,rng,num-start-201,201,17520,4.259884357452393,True,,True,1,False,1000,True,1.0
./expes/v2_2020-11-09_3bh_200-prng-1,30_base_hphc_200,200,first-200,31,rng,num-start-151,151,17520,3.0518407821655273,True,,True,1,False,1000,True,1.0
./expes/v2_2020-11-09_3bh_200-prng-1,30_base_hphc_200,200,first-200,141,rng,num-start-41,41,17520,1000.7113013267517,False,,False,0,True,1000,True,0.0
./expes/v2_2020-11-09_3bh_200-prng-1,30_base_hphc_200,200,first-200,61,rng,num-start-71,71,17520,4.108073472976685,True,,True,1,False,1000,True,1.0
./expes/v2_2020-11-09_3bh_200-prng-1,30_base_hphc_200,200,first-200,181,rng,num-start-711,711,17520,11.646655559539795,True,,True,1,False,1000,True,1.0
./expes/v2_2020-11-09_3bh_200-prng-1,30_base_hphc_200,200,first-200,141,rng,num-start-581,581,17520,10.877721786499023,True,,True,1,False,1000,True,1.0
./expes/v2_2020-11-09_3bh_200-prng-1,30_base_hphc_200,200,first-200,91,rng,num-start-461,461,17520,8.520536422729492,True,,True,1,False,1000,True,1.0
./expes/v2_2020-11-09_3bh_200-prng-1,30_base_hphc_200,200,first-200,161,rng,num-start-301,301,17520,5.615668535232544,True,,True,1,False,1000,True,1.0
./expes/v2_2020-11-09_3bh_200-prng-1,30_base_hphc_200,200,first-200,91,rng,num-start-651,651,17520,12.958985567092896,True,,True,1,False,1000,True,1.0
./expes/v2_2020-11-09_3bh_200-prng-1,30_base_hphc_200,200,first-200,141,rng,num-start-251,251,17520,4.906869888305664,True,,True,1,False,1000,True,1.0
./expes/v2_2020-11-09_3bh_200-prng-1,30_base_hphc_200,200,first-200,81,rng,num-start-911,911,17520,17.423622131347656,True,,True,1,False,1000,True,1.0
./expes/v2_2020-11-09_3bh_200-prng-1,30_base_hphc_200,200,first-200,181,rng,num-start-711,711,17520,12.56787657737732,True,,True,1,False,1000,True,1.0
./expes/v2_2020-11-09_3bh_200-prng-1,30_base_hphc_200,200,first-200,21,rng,num-start-91,91,17520,1.9310340881347656,True,,True,1,False,1000,True,1.0
./expes/v2_2020-11-09_3bh_200-prng-1,30_base_hphc_200,200,first-200,51,rng,num-start-951,951,17520,18.934519052505493,True,,True,1,False,1000,True,1.0
./expes/v2_2020-11-09_3bh_200-prng-1,30_base_hphc_200,200,first-200,71,rng,num-start-281,281,17520,5.7010979652404785,True,,True,1,False,1000,True,1.0
./expes/v2_2020-11-09_3bh_200-prng-1,30_base_hphc_200,200,first-200,61,rng,num-start-321,321,17520,5.937993764877319,True,,True,1,False,1000,True,1.0
./expes/v2_2020-11-09_3bh_200-prng-1,30_base_hphc_200,200,first-200,61,rng,num-start-91,91,17520,3.473459243774414,True,,True,1,False,1000,True,1.0
./expes/v2_2020-11-09_3bh_200-prng-1,30_base_hphc_200,200,first-200,31,rng,num-start-901,901,17520,16.025004625320435,True,,True,1,False,1000,True,1.0
./expes/v2_2020-11-09_3bh_200-prng-1,30_base_hphc_200,200,first-200,91,rng,num-start-651,651,17520,11.546244144439697,True,,True,1,False,1000,True,1.0
./expes/v2_2020-11-09_3bh_200-prng-1,30_base_hphc_200,200,first-200,11,rng,num-start-671,671,17520,12.090317726135254,True,,True,1,False,1000,True,1.0
./expes/v2_2020-11-09_3bh_200-prng-1,30_base_hphc_200,200,first-200,151,rng,num-start-591,591,17520,10.939706563949585,True,,True,1,False,1000,True,1.0
./expes/v2_2020-11-09_3bh_200-prng-1,30_base_hphc_200,200,first-200,111,rng,num-start-51,51,17520,1000.8707709312439,False,,False,0,True,1000,True,0.0
./expes/v2_2020-11-09_3bh_200-prng-1,30_base_hphc_200,200,first-200,31,rng,num-start-441,441,17520,7.865259170532227,True,,True,1,False,1000,True,1.0
./expes/v2_2020-11-09_3bh_200-prng-1,30_base_hphc_200,200,first-200,171,rng,num-start-591,591,17520,10.623671531677246,True,,True,1,False,1000,True,1.0
./expes/v2_2020-11-09_3bh_200-prng-1,30_base_hphc_200,200,first-200,71,rng,num-start-351,351,17520,6.769569396972656,True,,True,1,False,1000,True,1.0
./expes/v2_2020-11-09_3bh_200-prng-1,30_base_hphc_200,200,first-200,1,rng,num-start-641,641,17520,9.380913734436035,True,,True,1,False,1000,True,1.0
./expes/v2_2020-11-09_3bh_200-prng-1,30_base_hphc_200,200,first-200,41,rng,num-start-561,561,17520,10.045887470245361,True,,True,1,False,1000,True,1.0
./expes/v2_2020-11-09_3bh_200-prng-1,30_base_hphc_200,200,first-200,141,rng,num-start-221,221,17520,4.512390375137329,True,,True,1,False,1000,True,1.0
./expes/v2_2020-11-09_3bh_200-prng-1,30_base_hphc_200,200,first-200,161,rng,num-start-911,911,17520,17.448935985565186,True,,True,1,False,1000,True,1.0
./expes/v2_2020-11-09_3bh_200-prng-1,30_base_hphc_200,200,first-200,91,rng,num-start-771,771,17520,13.696393728256226,True,,True,1,False,1000,True,1.0
./expes/v2_2020-11-09_3bh_200-prng-1,30_base_hphc_200,200,first-200,91,rng,num-start-481,481,17520,9.17518663406372,True,,True,1,False,1000,True,1.0
./expes/v2_2020-11-09_3bh_200-prng-1,30_base_hphc_200,200,first-200,71,rng,num-start-881,881,17520,14.79277491569519,True,,True,1,False,1000,True,1.0
./expes/v2_2020-11-09_3bh_200-prng-1,30_base_hphc_200,200,first-200,11,rng,num-start-761,761,17520,13.44526481628418,True,,True,1,False,1000,True,1.0
./expes/v2_2020-11-09_3bh_200-prng-1,30_base_hphc_200,200,first-200,131,rng,num-start-191,191,17520,3.9423584938049316,True,,True,1,False,1000,True,1.0
./expes/v2_2020-11-09_3bh_200-prng-1,30_base_hphc_200,200,first-200,91,rng,num-start-501,501,17520,8.946125030517578,True,,True,1,False,1000,True,1.0
./expes/v2_2020-11-09_3bh_200-prng-1,30_base_hphc_200,200,first-200,141,rng,num-start-931,931,17520,15.52505898475647,True,,True,1,False,1000,True,1.0
./expes/v2_2020-11-09_3bh_200-prng-1,30_base_hphc_200,200,first-200,71,rng,num-start-91,91,17520,3.5072128772735596,True,,True,1,False,1000,True,1.0
./expes/v2_2020-11-09_3bh_200-prng-1,30_base_hphc_200,200,first-200,21,rng,num-start-931,931,17520,17.068910121917725,True,,True,1,False,1000,True,1.0
./expes/v2_2020-11-09_3bh_200-prng-1,30_base_hphc_200,200,first-200,141,rng,num-start-201,201,17520,4.225145578384399,True,,True,1,False,1000,True,1.0
./expes/v2_2020-11-09_3bh_200-prng-1,30_base_hphc_200,200,first-200,91,rng,num-start-521,521,17520,10.422858238220215,True,,True,1,False,1000,True,1.0
./expes/v2_2020-11-09_3bh_200-prng-1,30_base_hphc_200,200,first-200,171,rng,num-start-431,431,17520,8.054010152816772,True,,True,1,False,1000,True,1.0
./expes/v2_2020-11-09_3bh_200-prng-1,30_base_hphc_200,200,first-200,11,rng,num-start-191,191,17520,3.558363914489746,True,,True,1,False,1000,True,1.0
./expes/v2_2020-11-09_3bh_200-prng-1,30_base_hphc_200,200,first-200,141,rng,num-start-621,621,17520,10.52488398551941,True,,True,1,False,1000,True,1.0
./expes/v2_2020-11-09_3bh_200-prng-1,30_base_hphc_200,200,first-200,121,rng,num-start-791,791,17520,14.18116021156311,True,,True,1,False,1000,True,1.0
./expes/v2_2020-11-09_3bh_200-prng-1,30_base_hphc_200,200,first-200,91,rng,num-start-31,31,17520,1000.627405166626,False,,False,0,True,1000,True,0.0
./expes/v2_2020-11-09_3bh_200-prng-1,30_base_hphc_200,200,first-200,191,rng,num-start-221,221,17520,3.9415462017059326,True,,True,1,False,1000,True,1.0
./expes/v2_2020-11-09_3bh_200-prng-1,30_base_hphc_200,200,first-200,171,rng,num-start-631,631,17520,10.881657361984253,True,,True,1,False,1000,True,1.0
./expes/v2_2020-11-09_3bh_200-prng-1,30_base_hphc_200,200,first-200,1,rng,num-start-161,161,17520,2.3644139766693115,True,,True,1,False,1000,True,1.0
./expes/v2_2020-11-09_3bh_200-prng-1,30_base_hphc_200,200,first-200,41,rng,num-start-741,741,17520,13.418263673782349,True,,True,1,False,1000,True,1.0
./expes/v2_2020-11-09_3bh_200-prng-1,30_base_hphc_200,200,first-200,121,rng,num-start-901,901,17520,17.178247213363647,True,,True,1,False,1000,True,1.0
./expes/v2_2020-11-09_3bh_200-prng-1,30_base_hphc_200,200,first-200,141,rng,num-start-971,971,17520,18.974474668502808,True,,True,1,False,1000,True,1.0
./expes/v2_2020-11-09_3bh_200-prng-1,30_base_hphc_200,200,first-200,71,rng,num-start-501,501,17520,9.274439573287964,True,,True,1,False,1000,True,1.0
./expes/v2_2020-11-09_3bh_200-prng-1,30_base_hphc_200,200,first-200,111,rng,num-start-861,861,17520,16.485666513442993,True,,True,1,False,1000,True,1.0
./expes/v2_2020-11-09_3bh_200-prng-1,30_base_hphc_200,200,first-200,171,rng,num-start-121,121,17520,2.2970893383026123,True,,True,1,False,1000,True,1.0
./expes/v2_2020-11-09_3bh_200-prng-1,30_base_hphc_200,200,first-200,11,rng,num-start-691,691,17520,11.912343740463257,True,,True,1,False,1000,True,1.0
./expes/v2_2020-11-09_3bh_200-prng-1,30_base_hphc_200,200,first-200,161,rng,num-start-921,921,17520,17.403278827667236,True,,True,1,False,1000,True,1.0
./expes/v2_2020-11-09_3bh_200-prng-1,30_base_hphc_200,200,first-200,151,rng,num-start-161,161,17520,3.2585809230804443,True,,True,1,False,1000,True,1.0
./expes/v2_2020-11-09_3bh_200-prng-1,30_base_hphc_200,200,first-200,41,rng,num-start-831,831,17520,15.456107378005981,True,,True,1,False,1000,True,1.0
./expes/v2_2020-11-09_3bh_200-prng-1,30_base_hphc_200,200,first-200,11,rng,num-start-961,961,17520,15.476182222366333,True,,True,1,False,1000,True,1.0
./expes/v2_2020-11-09_3bh_200-prng-1,30_base_hphc_200,200,first-200,171,rng,num-start-871,871,17520,14.472220182418823,True,,True,1,False,1000,True,1.0
./expes/v2_2020-11-09_3bh_200-prng-1,30_base_hphc_200,200,first-200,111,rng,num-start-11,11,17520,1000.4385049343109,False,,False,0,True,1000,True,0.0
./expes/v2_2020-11-09_3bh_200-prng-1,30_base_hphc_200,200,first-200,161,rng,num-start-411,411,17520,7.397010087966919,True,,True,1,False,1000,True,1.0
./expes/v2_2020-11-09_3bh_200-prng-1,30_base_hphc_200,200,first-200,41,rng,num-start-601,601,17520,11.68686294555664,True,,True,1,False,1000,True,1.0
./expes/v2_2020-11-09_3bh_200-prng-1,30_base_hphc_200,200,first-200,51,rng,num-start-221,221,17520,4.7676286697387695,True,,True,1,False,1000,True,1.0
./expes/v2_2020-11-09_3bh_200-prng-1,30_base_hphc_200,200,first-200,101,rng,num-start-51,51,17520,1000.8682367801666,False,,False,0,True,1000,True,0.0
./expes/v2_2020-11-09_3bh_200-prng-1,30_base_hphc_200,200,first-200,1,rng,num-start-721,721,17520,10.817574262619019,True,,True,1,False,1000,True,1.0
./expes/v2_2020-11-09_3bh_200-prng-1,30_base_hphc_200,200,first-200,81,rng,num-start-651,651,17520,11.564647197723389,True,,True,1,False,1000,True,1.0
./expes/v2_2020-11-09_3bh_200-prng-1,30_base_hphc_200,200,first-200,121,rng,num-start-931,931,17520,19.83325982093811,True,,True,1,False,1000,True,1.0
./expes/v2_2020-11-09_3bh_200-prng-1,30_base_hphc_200,200,first-200,161,rng,num-start-671,671,17520,12.019384384155273,True,,True,1,False,1000,True,1.0
./expes/v2_2020-11-09_3bh_200-prng-1,30_base_hphc_200,200,first-200,151,rng,num-start-801,801,17520,15.184603214263916,True,,True,1,False,1000,True,1.0
./expes/v2_2020-11-09_3bh_200-prng-1,30_base_hphc_200,200,first-200,51,rng,num-start-551,551,17520,10.55178689956665,True,,True,1,False,1000,True,1.0
./expes/v2_2020-11-09_3bh_200-prng-1,30_base_hphc_200,200,first-200,81,rng,num-start-661,661,17520,12.176201343536377,True,,True,1,False,1000,True,1.0
./expes/v2_2020-11-09_3bh_200-prng-1,30_base_hphc_200,200,first-200,71,rng,num-start-571,571,17520,10.236239194869995,True,,True,1,False,1000,True,1.0
./expes/v2_2020-11-09_3bh_200-prng-1,30_base_hphc_200,200,first-200,151,rng,num-start-561,561,17520,10.524932622909546,True,,True,1,False,1000,True,1.0
./expes/v2_2020-11-09_3bh_200-prng-1,30_base_hphc_200,200,first-200,91,rng,num-start-91,91,17520,3.703094005584717,True,,True,1,False,1000,True,1.0
./expes/v2_2020-11-09_3bh_200-prng-1,30_base_hphc_200,200,first-200,51,rng,num-start-191,191,17520,4.000527381896973,True,,True,1,False,1000,True,1.0
./expes/v2_2020-11-09_3bh_200-prng-1,30_base_hphc_200,200,first-200,121,rng,num-start-321,321,17520,5.651505708694458,True,,True,1,False,1000,True,1.0
./expes/v2_2020-11-09_3bh_200-prng-1,30_base_hphc_200,200,first-200,111,rng,num-start-381,381,17520,8.00127387046814,True,,True,1,False,1000,True,1.0
./expes/v2_2020-11-09_3bh_200-prng-1,30_base_hphc_200,200,first-200,21,rng,num-start-271,271,17520,5.213292837142944,True,,True,1,False,1000,True,1.0
./expes/v2_2020-11-09_3bh_200-prng-1,30_base_hphc_200,200,first-200,31,rng,num-start-901,901,17520,16.85472321510315,True,,True,1,False,1000,True,1.0
./expes/v2_2020-11-09_3bh_200-prng-1,30_base_hphc_200,200,first-200,151,rng,num-start-861,861,17520,15.312701940536499,True,,True,1,False,1000,True,1.0
./expes/v2_2020-11-09_3bh_200-prng-1,30_base_hphc_200,200,first-200,51,rng,num-start-681,681,17520,12.37025260925293,True,,True,1,False,1000,True,1.0
./expes/v2_2020-11-09_3bh_200-prng-1,30_base_hphc_200,200,first-200,191,rng,num-start-121,121,17520,2.2853915691375732,True,,True,1,False,1000,True,1.0
./expes/v2_2020-11-09_3bh_200-prng-1,30_base_hphc_200,200,first-200,51,rng,num-start-311,311,17520,5.843550205230713,True,,True,1,False,1000,True,1.0
./expes/v2_2020-11-09_3bh_200-prng-1,30_base_hphc_200,200,first-200,1,rng,num-start-841,841,17520,12.482374429702759,True,,True,1,False,1000,True,1.0
./expes/v2_2020-11-09_3bh_200-prng-1,30_base_hphc_200,200,first-200,151,rng,num-start-441,441,17520,8.256134748458862,True,,True,1,False,1000,True,1.0
./expes/v2_2020-11-09_3bh_200-prng-1,30_base_hphc_200,200,first-200,181,rng,num-start-31,31,17520,4.258840322494507,True,,True,1,False,1000,True,1.0
./expes/v2_2020-11-09_3bh_200-prng-1,30_base_hphc_200,200,first-200,11,rng,num-start-661,661,17520,11.675198078155518,True,,True,1,False,1000,True,1.0
./expes/v2_2020-11-09_3bh_200-prng-1,30_base_hphc_200,200,first-200,131,rng,num-start-171,171,17520,3.524366855621338,True,,True,1,False,1000,True,1.0
./expes/v2_2020-11-09_3bh_200-prng-1,30_base_hphc_200,200,first-200,61,rng,num-start-221,221,17520,4.709636926651001,True,,True,1,False,1000,True,1.0
./expes/v2_2020-11-09_3bh_200-prng-1,30_base_hphc_200,200,first-200,41,rng,num-start-731,731,17520,15.725930452346802,True,,True,1,False,1000,True,1.0
./expes/v2_2020-11-09_3bh_200-prng-1,30_base_hphc_200,200,first-200,121,rng,num-start-401,401,17520,7.768031358718872,True,,True,1,False,1000,True,1.0
./expes/v2_2020-11-09_3bh_200-prng-1,30_base_hphc_200,200,first-200,191,rng,num-start-991,991,17520,15.554539680480957,True,,True,1,False,1000,True,1.0
./expes/v2_2020-11-09_3bh_200-prng-1,30_base_hphc_200,200,first-200,151,rng,num-start-151,151,17520,3.177790641784668,True,,True,1,False,1000,True,1.0
./expes/v2_2020-11-09_3bh_200-prng-1,30_base_hphc_200,200,first-200,31,rng,num-start-411,411,17520,7.4166295528411865,True,,True,1,False,1000,True,1.0
./expes/v2_2020-11-09_3bh_200-prng-1,30_base_hphc_200,200,first-200,141,rng,num-start-41,41,17520,1000.7664499282837,False,,False,0,True,1000,True,0.0
./expes/v2_2020-11-09_3bh_200-prng-1,30_base_hphc_200,200,first-200,11,rng,num-start-441,441,17520,7.665464639663696,True,,True,1,False,1000,True,1.0
./expes/v2_2020-11-09_3bh_200-prng-1,30_base_hphc_200,200,first-200,11,rng,num-start-271,271,17520,5.027067422866821,True,,True,1,False,1000,True,1.0
./expes/v2_2020-11-09_3bh_200-prng-1,30_base_hphc_200,200,first-200,51,rng,num-start-221,221,17520,4.397512674331665,True,,True,1,False,1000,True,1.0
./expes/v2_2020-11-09_3bh_200-prng-1,30_base_hphc_200,200,first-200,21,rng,num-start-81,81,17520,1.6425344944000244,True,,True,1,False,1000,True,1.0
./expes/v2_2020-11-09_3bh_200-prng-1,30_base_hphc_200,200,first-200,11,rng,num-start-801,801,17520,13.235544204711914,True,,True,1,False,1000,True,1.0
./expes/v2_2020-11-09_3bh_200-prng-1,30_base_hphc_200,200,first-200,181,rng,num-start-231,231,17520,4.132761001586914,True,,True,1,False,1000,True,1.0
./expes/v2_2020-11-09_3bh_200-prng-1,30_base_hphc_200,200,first-200,181,rng,num-start-21,21,17520,1005.4869492053986,False,,False,0,True,1000,True,0.0
./expes/v2_2020-11-09_3bh_200-prng-1,30_base_hphc_200,200,first-200,41,rng,num-start-781,781,17520,13.329513788223267,True,,True,1,False,1000,True,1.0
./expes/v2_2020-11-09_3bh_200-prng-1,30_base_hphc_200,200,first-200,41,rng,num-start-731,731,17520,13.69549560546875,True,,True,1,False,1000,True,1.0
./expes/v2_2020-11-09_3bh_200-prng-1,30_base_hphc_200,200,first-200,91,rng,num-start-231,231,17520,4.982010364532471,True,,True,1,False,1000,True,1.0
./expes/v2_2020-11-09_3bh_200-prng-1,30_base_hphc_200,200,first-200,51,rng,num-start-711,711,17520,12.263706684112549,True,,True,1,False,1000,True,1.0
./expes/v2_2020-11-09_3bh_200-prng-1,30_base_hphc_200,200,first-200,71,rng,num-start-851,851,17520,15.222900629043579,True,,True,1,False,1000,True,1.0
./expes/v2_2020-11-09_3bh_200-prng-1,30_base_hphc_200,200,first-200,181,rng,num-start-371,371,17520,6.532068252563477,True,,True,1,False,1000,True,1.0
./expes/v2_2020-11-09_3bh_200-prng-1,30_base_hphc_200,200,first-200,161,rng,num-start-31,31,17520,1000.5824353694916,False,,False,0,True,1000,True,0.0
./expes/v2_2020-11-09_3bh_200-prng-1,30_base_hphc_200,200,first-200,141,rng,num-start-301,301,17520,5.347039461135864,True,,True,1,False,1000,True,1.0
./expes/v2_2020-11-09_3bh_200-prng-1,30_base_hphc_200,200,first-200,31,rng,num-start-391,391,17520,8.029932975769043,True,,True,1,False,1000,True,1.0
./expes/v2_2020-11-09_3bh_200-prng-1,30_base_hphc_200,200,first-200,161,rng,num-start-981,981,17520,17.206005573272705,True,,True,1,False,1000,True,1.0
./expes/v2_2020-11-09_3bh_200-prng-1,30_base_hphc_200,200,first-200,131,rng,num-start-671,671,17520,12.459362745285034,True,,True,1,False,1000,True,1.0
./expes/v2_2020-11-09_3bh_200-prng-1,30_base_hphc_200,200,first-200,191,rng,num-start-911,911,17520,14.207346677780151,True,,True,1,False,1000,True,1.0
./expes/v2_2020-11-09_3bh_200-prng-1,30_base_hphc_200,200,first-200,21,rng,num-start-991,991,17520,19.93722128868103,True,,True,1,False,1000,True,1.0
./expes/v2_2020-11-09_3bh_200-prng-1,30_base_hphc_200,200,first-200,81,rng,num-start-161,161,17520,3.375499725341797,True,,True,1,False,1000,True,1.0
./expes/v2_2020-11-09_3bh_200-prng-1,30_base_hphc_200,200,first-200,21,rng,num-start-921,921,17520,16.201587438583374,True,,True,1,False,1000,True,1.0
./expes/v2_2020-11-09_3bh_200-prng-1,30_base_hphc_200,200,first-200,61,rng,num-start-591,591,17520,11.626516342163086,True,,True,1,False,1000,True,1.0
./expes/v2_2020-11-09_3bh_200-prng-1,30_base_hphc_200,200,first-200,51,rng,num-start-301,301,17520,5.191766262054443,True,,True,1,False,1000,True,1.0
./expes/v2_2020-11-09_3bh_200-prng-1,30_base_hphc_200,200,first-200,71,rng,num-start-261,261,17520,5.761353254318237,True,,True,1,False,1000,True,1.0
./expes/v2_2020-11-09_3bh_200-prng-1,30_base_hphc_200,200,first-200,111,rng,num-start-471,471,17520,8.26889705657959,True,,True,1,False,1000,True,1.0
./expes/v2_2020-11-09_3bh_200-prng-1,30_base_hphc_200,200,first-200,11,rng,num-start-461,461,17520,8.2547926902771,True,,True,1,False,1000,True,1.0
./expes/v2_2020-11-09_3bh_200-prng-1,30_base_hphc_200,200,first-200,101,rng,num-start-261,261,17520,5.392590284347534,True,,True,1,False,1000,True,1.0
./expes/v2_2020-11-09_3bh_200-prng-1,30_base_hphc_200,200,first-200,81,rng,num-start-211,211,17520,4.460656404495239,True,,True,1,False,1000,True,1.0
./expes/v2_2020-11-09_3bh_200-prng-1,30_base_hphc_200,200,first-200,161,rng,num-start-141,141,17520,2.892298698425293,True,,True,1,False,1000,True,1.0
./expes/v2_2020-11-09_3bh_200-prng-1,30_base_hphc_200,200,first-200,31,rng,num-start-591,591,17520,11.311973094940186,True,,True,1,False,1000,True,1.0
./expes/v2_2020-11-09_3bh_200-prng-1,30_base_hphc_200,200,first-200,141,rng,num-start-571,571,17520,10.956992149353027,True,,True,1,False,1000,True,1.0
./expes/v2_2020-11-09_3bh_200-prng-1,30_base_hphc_200,200,first-200,141,rng,num-start-201,201,17520,3.926492691040039,True,,True,1,False,1000,True,1.0
./expes/v2_2020-11-09_3bh_200-prng-1,30_base_hphc_200,200,first-200,11,rng,num-start-871,871,17520,16.232641220092773,True,,True,1,False,1000,True,1.0
./expes/v2_2020-11-09_3bh_200-prng-1,30_base_hphc_200,200,first-200,191,rng,num-start-451,451,17520,7.372122764587402,True,,True,1,False,1000,True,1.0
./expes/v2_2020-11-09_3bh_200-prng-1,30_base_hphc_200,200,first-200,171,rng,num-start-841,841,17520,15.068356990814209,True,,True,1,False,1000,True,1.0
./expes/v2_2020-11-09_3bh_200-prng-1,30_base_hphc_200,200,first-200,1,rng,num-start-391,391,17520,5.7933032512664795,True,,True,1,False,1000,True,1.0
./expes/v2_2020-11-09_3bh_200-prng-1,30_base_hphc_200,200,first-200,81,rng,num-start-991,991,17520,19.8463077545166,True,,True,1,False,1000,True,1.0
./expes/v2_2020-11-09_3bh_200-prng-1,30_base_hphc_200,200,first-200,91,rng,num-start-551,551,17520,11.631920099258423,True,,True,1,False,1000,True,1.0
./expes/v2_2020-11-09_3bh_200-prng-1,30_base_hphc_200,200,first-200,181,rng,num-start-701,701,17520,12.354195356369019,True,,True,1,False,1000,True,1.0
./expes/v2_2020-11-09_3bh_200-prng-1,30_base_hphc_200,200,first-200,11,rng,num-start-281,281,17520,5.433730602264404,True,,True,1,False,1000,True,1.0
./expes/v2_2020-11-09_3bh_200-prng-1,30_base_hphc_200,200,first-200,101,rng,num-start-431,431,17520,8.19986867904663,True,,True,1,False,1000,True,1.0
./expes/v2_2020-11-09_3bh_200-prng-1,30_base_hphc_200,200,first-200,61,rng,num-start-881,881,17520,16.773795127868652,True,,True,1,False,1000,True,1.0
./expes/v2_2020-11-09_3bh_200-prng-1,30_base_hphc_200,200,first-200,21,rng,num-start-321,321,17520,6.046646595001221,True,,True,1,False,1000,True,1.0
./expes/v2_2020-11-09_3bh_200-prng-1,30_base_hphc_200,200,first-200,171,rng,num-start-61,61,17520,3.21328067779541,True,,True,1,False,1000,True,1.0
./expes/v2_2020-11-09_3bh_200-prng-1,30_base_hphc_200,200,first-200,31,rng,num-start-361,361,17520,6.451293230056763,True,,True,1,False,1000,True,1.0
./expes/v2_2020-11-09_3bh_200-prng-1,30_base_hphc_200,200,first-200,11,rng,num-start-181,181,17520,3.4054977893829346,True,,True,1,False,1000,True,1.0
./expes/v2_2020-11-09_3bh_200-prng-1,30_base_hphc_200,200,first-200,121,rng,num-start-981,981,17520,17.748730659484863,True,,True,1,False,1000,True,1.0
./expes/v2_2020-11-09_3bh_200-prng-1,30_base_hphc_200,200,first-200,171,rng,num-start-121,121,17520,2.3943026065826416,True,,True,1,False,1000,True,1.0
./expes/v2_2020-11-09_3bh_200-prng-1,30_base_hphc_200,200,first-200,101,rng,num-start-731,731,17520,13.642333507537842,True,,True,1,False,1000,True,1.0
./expes/v2_2020-11-09_3bh_200-prng-1,30_base_hphc_200,200,first-200,41,rng,num-start-441,441,17520,7.839854001998901,True,,True,1,False,1000,True,1.0
./expes/v2_2020-11-09_3bh_200-prng-1,30_base_hphc_200,200,first-200,91,rng,num-start-81,81,17520,3.663182497024536,True,,True,1,False,1000,True,1.0
./expes/v2_2020-11-09_3bh_200-prng-1,30_base_hphc_200,200,first-200,31,rng,num-start-781,781,17520,14.184746026992798,True,,True,1,False,1000,True,1.0
./expes/v2_2020-11-09_3bh_200-prng-1,30_base_hphc_200,200,first-200,191,rng,num-start-371,371,17520,6.396127223968506,True,,True,1,False,1000,True,1.0
./expes/v2_2020-11-09_3bh_200-prng-1,30_base_hphc_200,200,first-200,71,rng,num-start-651,651,17520,11.886114597320557,True,,True,1,False,1000,True,1.0
./expes/v2_2020-11-09_3bh_200-prng-1,30_base_hphc_200,200,first-200,111,rng,num-start-531,531,17520,10.281311511993408,True,,True,1,False,1000,True,1.0
./expes/v2_2020-11-09_3bh_200-prng-1,30_base_hphc_200,200,first-200,31,rng,num-start-351,351,17520,6.602251768112183,True,,True,1,False,1000,True,1.0
./expes/v2_2020-11-09_3bh_200-prng-1,30_base_hphc_200,200,first-200,41,rng,num-start-171,171,17520,3.4860823154449463,True,,True,1,False,1000,True,1.0
./expes/v2_2020-11-09_3bh_200-prng-1,30_base_hphc_200,200,first-200,31,rng,num-start-841,841,17520,14.975887537002563,True,,True,1,False,1000,True,1.0
./expes/v2_2020-11-09_3bh_200-prng-1,30_base_hphc_200,200,first-200,131,rng,num-start-201,201,17520,4.3460166454315186,True,,True,1,False,1000,True,1.0
./expes/v2_2020-11-09_3bh_200-prng-1,30_base_hphc_200,200,first-200,121,rng,num-start-161,161,17520,3.3352224826812744,True,,True,1,False,1000,True,1.0
./expes/v2_2020-11-09_3bh_200-prng-1,30_base_hphc_200,200,first-200,181,rng,num-start-851,851,17520,14.702980041503906,True,,True,1,False,1000,True,1.0
./expes/v2_2020-11-09_3bh_200-prng-1,30_base_hphc_200,200,first-200,71,rng,num-start-481,481,17520,8.837168455123901,True,,True,1,False,1000,True,1.0
./expes/v2_2020-11-09_3bh_200-prng-1,30_base_hphc_200,200,first-200,171,rng,num-start-211,211,17520,3.9660208225250244,True,,True,1,False,1000,True,1.0
./expes/v2_2020-11-09_3bh_200-prng-1,30_base_hphc_200,200,first-200,191,rng,num-start-201,201,17520,3.6625564098358154,True,,True,1,False,1000,True,1.0
./expes/v2_2020-11-09_3bh_200-prng-1,30_base_hphc_200,200,first-200,191,rng,num-start-451,451,17520,7.427492141723633,True,,True,1,False,1000,True,1.0
./expes/v2_2020-11-09_3bh_200-prng-1,30_base_hphc_200,200,first-200,11,rng,num-start-501,501,17520,8.017306804656982,True,,True,1,False,1000,True,1.0
./expes/v2_2020-11-09_3bh_200-prng-1,30_base_hphc_200,200,first-200,31,rng,num-start-101,101,17520,1.9919753074645996,True,,True,1,False,1000,True,1.0
./expes/v2_2020-11-09_3bh_200-prng-1,30_base_hphc_200,200,first-200,1,rng,num-start-101,101,17520,1.5009722709655762,True,,True,1,False,1000,True,1.0
./expes/v2_2020-11-09_3bh_200-prng-1,30_base_hphc_200,200,first-200,71,rng,num-start-201,201,17520,4.1484293937683105,True,,True,1,False,1000,True,1.0
./expes/v2_2020-11-09_3bh_200-prng-1,30_base_hphc_200,200,first-200,141,rng,num-start-91,91,17520,1.8561255931854248,True,,True,1,False,1000,True,1.0
./expes/v2_2020-11-09_3bh_200-prng-1,30_base_hphc_200,200,first-200,141,rng,num-start-271,271,17520,5.27592921257019,True,,True,1,False,1000,True,1.0
./expes/v2_2020-11-09_3bh_200-prng-1,30_base_hphc_200,200,first-200,51,rng,num-start-851,851,17520,16.670624256134033,True,,True,1,False,1000,True,1.0
./expes/v2_2020-11-09_3bh_200-prng-1,30_base_hphc_200,200,first-200,151,rng,num-start-351,351,17520,6.085577487945557,True,,True,1,False,1000,True,1.0
./expes/v2_2020-11-09_3bh_200-prng-1,30_base_hphc_200,200,first-200,181,rng,num-start-41,41,17520,2.4553234577178955,True,,True,1,False,1000,True,1.0
./expes/v2_2020-11-09_3bh_200-prng-1,30_base_hphc_200,200,first-200,101,rng,num-start-231,231,17520,5.130814075469971,True,,True,1,False,1000,True,1.0
./expes/v2_2020-11-09_3bh_200-prng-1,30_base_hphc_200,200,first-200,101,rng,num-start-971,971,17520,18.47339677810669,True,,True,1,False,1000,True,1.0
./expes/v2_2020-11-09_3bh_200-prng-1,30_base_hphc_200,200,first-200,91,rng,num-start-321,321,17520,5.973311901092529,True,,True,1,False,1000,True,1.0
./expes/v2_2020-11-09_3bh_200-prng-1,30_base_hphc_200,200,first-200,61,rng,num-start-211,211,17520,4.212773561477661,True,,True,1,False,1000,True,1.0
./expes/v2_2020-11-09_3bh_200-prng-1,30_base_hphc_200,200,first-200,11,rng,num-start-521,521,17520,8.60377550125122,True,,True,1,False,1000,True,1.0
./expes/v2_2020-11-09_3bh_200-prng-1,30_base_hphc_200,200,first-200,161,rng,num-start-421,421,17520,7.744638919830322,True,,True,1,False,1000,True,1.0
./expes/v2_2020-11-09_3bh_200-prng-1,30_base_hphc_200,200,first-200,11,rng,num-start-131,131,17520,2.394771099090576,True,,True,1,False,1000,True,1.0
./expes/v2_2020-11-09_3bh_200-prng-1,30_base_hphc_200,200,first-200,171,rng,num-start-571,571,17520,10.300379514694214,True,,True,1,False,1000,True,1.0
./expes/v2_2020-11-09_3bh_200-prng-1,30_base_hphc_200,200,first-200,161,rng,num-start-451,451,17520,7.905521869659424,True,,True,1,False,1000,True,1.0
./expes/v2_2020-11-09_3bh_200-prng-1,30_base_hphc_200,200,first-200,181,rng,num-start-671,671,17520,11.833843231201172,True,,True,1,False,1000,True,1.0
./expes/v2_2020-11-09_3bh_200-prng-1,30_base_hphc_200,200,first-200,161,rng,num-start-421,421,17520,7.711042881011963,True,,True,1,False,1000,True,1.0
./expes/v2_2020-11-09_3bh_200-prng-1,30_base_hphc_200,200,first-200,51,rng,num-start-171,171,17520,3.5775415897369385,True,,True,1,False,1000,True,1.0
./expes/v2_2020-11-09_3bh_200-prng-1,30_base_hphc_200,200,first-200,101,rng,num-start-1,1,17520,0.027689695358276367,False,,False,2,False,1000,True,1.0
./expes/v2_2020-11-09_3bh_200-prng-1,30_base_hphc_200,200,first-200,31,rng,num-start-511,511,17520,8.626389026641846,True,,True,1,False,1000,True,1.0
./expes/v2_2020-11-09_3bh_200-prng-1,30_base_hphc_200,200,first-200,81,rng,num-start-611,611,17520,12.191385746002197,True,,True,1,False,1000,True,1.0
./expes/v2_2020-11-09_3bh_200-prng-1,30_base_hphc_200,200,first-200,161,rng,num-start-11,11,17520,1000.2171673774719,False,,False,0,True,1000,True,0.0
./expes/v2_2020-11-09_3bh_200-prng-1,30_base_hphc_200,200,first-200,81,rng,num-start-311,311,17520,6.019277095794678,True,,True,1,False,1000,True,1.0
./expes/v2_2020-11-09_3bh_200-prng-1,30_base_hphc_200,200,first-200,31,rng,num-start-341,341,17520,6.542100429534912,True,,True,1,False,1000,True,1.0
./expes/v2_2020-11-09_3bh_200-prng-1,30_base_hphc_200,200,first-200,191,rng,num-start-601,601,17520,10.394481658935547,True,,True,1,False,1000,True,1.0
./expes/v2_2020-11-09_3bh_200-prng-1,30_base_hphc_200,200,first-200,21,rng,num-start-481,481,17520,8.256961107254028,True,,True,1,False,1000,True,1.0
./expes/v2_2020-11-09_3bh_200-prng-1,30_base_hphc_200,200,first-200,91,rng,num-start-81,81,17520,3.2118582725524902,True,,True,1,False,1000,True,1.0
./expes/v2_2020-11-09_3bh_200-prng-1,30_base_hphc_200,200,first-200,191,rng,num-start-131,131,17520,2.491755962371826,True,,True,1,False,1000,True,1.0
./expes/v2_2020-11-09_3bh_200-prng-1,30_base_hphc_200,200,first-200,21,rng,num-start-281,281,17520,5.694440603256226,True,,True,1,False,1000,True,1.0
./expes/v2_2020-11-09_3bh_200-prng-1,30_base_hphc_200,200,first-200,51,rng,num-start-911,911,17520,17.026711225509644,True,,True,1,False,1000,True,1.0
./expes/v2_2020-11-09_3bh_200-prng-1,30_base_hphc_200,200,first-200,101,rng,num-start-281,281,17520,6.474573612213135,True,,True,1,False,1000,True,1.0
./expes/v2_2020-11-09_3bh_200-prng-1,30_base_hphc_200,200,first-200,11,rng,num-start-641,641,17520,11.751428365707397,True,,True,1,False,1000,True,1.0
./expes/v2_2020-11-09_3bh_200-prng-1,30_base_hphc_200,200,first-200,121,rng,num-start-811,811,17520,15.733894348144531,True,,True,1,False,1000,True,1.0
./expes/v2_2020-11-09_3bh_200-prng-1,30_base_hphc_200,200,first-200,71,rng,num-start-131,131,17520,3.003416061401367,True,,True,1,False,1000,True,1.0
./expes/v2_2020-11-09_3bh_200-prng-1,30_base_hphc_200,200,first-200,131,rng,num-start-791,791,17520,15.279377460479736,True,,True,1,False,1000,True,1.0
./expes/v2_2020-11-09_3bh_200-prng-1,30_base_hphc_200,200,first-200,191,rng,num-start-861,861,17520,14.11395263671875,True,,True,1,False,1000,True,1.0
./expes/v2_2020-11-09_3bh_200-prng-1,30_base_hphc_200,200,first-200,131,rng,num-start-611,611,17520,11.722569704055786,True,,True,1,False,1000,True,1.0
./expes/v2_2020-11-09_3bh_200-prng-1,30_base_hphc_200,200,first-200,181,rng,num-start-281,281,17520,5.491073369979858,True,,True,1,False,1000,True,1.0
./expes/v2_2020-11-09_3bh_200-prng-1,30_base_hphc_200,200,first-200,81,rng,num-start-361,361,17520,6.920339345932007,True,,True,1,False,1000,True,1.0
./expes/v2_2020-11-09_3bh_200-prng-1,30_base_hphc_200,200,first-200,151,rng,num-start-461,461,17520,8.034405946731567,True,,True,1,False,1000,True,1.0
./expes/v2_2020-11-09_3bh_200-prng-1,30_base_hphc_200,200,first-200,171,rng,num-start-741,741,17520,13.57435131072998,True,,True,1,False,1000,True,1.0
./expes/v2_2020-11-09_3bh_200-prng-1,30_base_hphc_200,200,first-200,101,rng,num-start-861,861,17520,16.759340047836304,True,,True,1,False,1000,True,1.0
./expes/v2_2020-11-09_3bh_200-prng-1,30_base_hphc_200,200,first-200,181,rng,num-start-381,381,17520,6.317159652709961,True,,True,1,False,1000,True,1.0
./expes/v2_2020-11-09_3bh_200-prng-1,30_base_hphc_200,200,first-200,21,rng,num-start-391,391,17520,6.940991401672363,True,,True,1,False,1000,True,1.0
./expes/v2_2020-11-09_3bh_200-prng-1,30_base_hphc_200,200,first-200,131,rng,num-start-201,201,17520,4.074737787246704,True,,True,1,False,1000,True,1.0
./expes/v2_2020-11-09_3bh_200-prng-1,30_base_hphc_200,200,first-200,51,rng,num-start-831,831,17520,15.3847017288208,True,,True,1,False,1000,True,1.0
./expes/v2_2020-11-09_3bh_200-prng-1,30_base_hphc_200,200,first-200,61,rng,num-start-161,161,17520,3.2966248989105225,True,,True,1,False,1000,True,1.0
./expes/v2_2020-11-09_3bh_200-prng-1,30_base_hphc_200,200,first-200,121,rng,num-start-631,631,17520,11.935916185379028,True,,True,1,False,1000,True,1.0
./expes/v2_2020-11-09_3bh_200-prng-1,30_base_hphc_200,200,first-200,71,rng,num-start-461,461,17520,8.999430179595947,True,,True,1,False,1000,True,1.0
./expes/v2_2020-11-09_3bh_200-prng-1,30_base_hphc_200,200,first-200,111,rng,num-start-431,431,17520,7.548508882522583,True,,True,1,False,1000,True,1.0
./expes/v2_2020-11-09_3bh_200-prng-1,30_base_hphc_200,200,first-200,1,rng,num-start-751,751,17520,11.088013410568237,True,,True,1,False,1000,True,1.0
./expes/v2_2020-11-09_3bh_200-prng-1,30_base_hphc_200,200,first-200,181,rng,num-start-491,491,17520,8.739498853683472,True,,True,1,False,1000,True,1.0
./expes/v2_2020-11-09_3bh_200-prng-1,30_base_hphc_200,200,first-200,131,rng,num-start-241,241,17520,5.222933053970337,True,,True,1,False,1000,True,1.0
./expes/v2_2020-11-09_3bh_200-prng-1,30_base_hphc_200,200,first-200,111,rng,num-start-371,371,17520,7.1627209186553955,True,,True,1,False,1000,True,1.0
./expes/v2_2020-11-09_3bh_200-prng-1,30_base_hphc_200,200,first-200,181,rng,num-start-501,501,17520,8.74551773071289,True,,True,1,False,1000,True,1.0
./expes/v2_2020-11-09_3bh_200-prng-1,30_base_hphc_200,200,first-200,141,rng,num-start-361,361,17520,7.071643352508545,True,,True,1,False,1000,True,1.0
./expes/v2_2020-11-09_3bh_200-prng-1,30_base_hphc_200,200,first-200,71,rng,num-start-941,941,17520,16.850998640060425,True,,True,1,False,1000,True,1.0
./expes/v2_2020-11-09_3bh_200-prng-1,30_base_hphc_200,200,first-200,141,rng,num-start-551,551,17520,9.605169534683228,True,,True,1,False,1000,True,1.0
./expes/v2_2020-11-09_3bh_200-prng-1,30_base_hphc_200,200,first-200,121,rng,num-start-171,171,17520,3.9635274410247803,True,,True,1,False,1000,True,1.0
./expes/v2_2020-11-09_3bh_200-prng-1,30_base_hphc_200,200,first-200,51,rng,num-start-351,351,17520,7.055019378662109,True,,True,1,False,1000,True,1.0
./expes/v2_2020-11-09_3bh_200-prng-1,30_base_hphc_200,200,first-200,131,rng,num-start-281,281,17520,5.627707242965698,True,,True,1,False,1000,True,1.0
./expes/v2_2020-11-09_3bh_200-prng-1,30_base_hphc_200,200,first-200,41,rng,num-start-411,411,17520,8.43800139427185,True,,True,1,False,1000,True,1.0
./expes/v2_2020-11-09_3bh_200-prng-1,30_base_hphc_200,200,first-200,61,rng,num-start-171,171,17520,3.627016067504883,True,,True,1,False,1000,True,1.0
./expes/v2_2020-11-09_3bh_200-prng-1,30_base_hphc_200,200,first-200,21,rng,num-start-541,541,17520,10.197838544845581,True,,True,1,False,1000,True,1.0
./expes/v2_2020-11-09_3bh_200-prng-1,30_base_hphc_200,200,first-200,151,rng,num-start-221,221,17520,4.276830434799194,True,,True,1,False,1000,True,1.0
./expes/v2_2020-11-09_3bh_200-prng-1,30_base_hphc_200,200,first-200,161,rng,num-start-391,391,17520,6.966184854507446,True,,True,1,False,1000,True,1.0
./expes/v2_2020-11-09_3bh_200-prng-1,30_base_hphc_200,200,first-200,141,rng,num-start-761,761,17520,13.777957677841187,True,,True,1,False,1000,True,1.0
./expes/v2_2020-11-09_3bh_200-prng-1,30_base_hphc_200,200,first-200,91,rng,num-start-321,321,17520,6.480718612670898,True,,True,1,False,1000,True,1.0
./expes/v2_2020-11-09_3bh_200-prng-1,30_base_hphc_200,200,first-200,51,rng,num-start-71,71,17520,3.626312255859375,True,,True,1,False,1000,True,1.0
./expes/v2_2020-11-09_3bh_200-prng-1,30_base_hphc_200,200,first-200,21,rng,num-start-311,311,17520,5.493218660354614,True,,True,1,False,1000,True,1.0
./expes/v2_2020-11-09_3bh_200-prng-1,30_base_hphc_200,200,first-200,71,rng,num-start-511,511,17520,9.044890403747559,True,,True,1,False,1000,True,1.0
./expes/v2_2020-11-09_3bh_200-prng-1,30_base_hphc_200,200,first-200,1,rng,num-start-261,261,17520,3.9102728366851807,True,,True,1,False,1000,True,1.0
./expes/v2_2020-11-09_3bh_200-prng-1,30_base_hphc_200,200,first-200,101,rng,num-start-311,311,17520,5.969079971313477,True,,True,1,False,1000,True,1.0
./expes/v2_2020-11-09_3bh_200-prng-1,30_base_hphc_200,200,first-200,51,rng,num-start-261,261,17520,5.318752288818359,True,,True,1,False,1000,True,1.0
./expes/v2_2020-11-09_3bh_200-prng-1,30_base_hphc_200,200,first-200,171,rng,num-start-161,161,17520,3.15077543258667,True,,True,1,False,1000,True,1.0
./expes/v2_2020-11-09_3bh_200-prng-1,30_base_hphc_200,200,first-200,31,rng,num-start-811,811,17520,14.53671908378601,True,,True,1,False,1000,True,1.0
./expes/v2_2020-11-09_3bh_200-prng-1,30_base_hphc_200,200,first-200,151,rng,num-start-51,51,17520,512.0970942974091,True,,True,1,False,1000,True,1.0
./expes/v2_2020-11-09_3bh_200-prng-1,30_base_hphc_200,200,first-200,41,rng,num-start-451,451,17520,8.28557300567627,True,,True,1,False,1000,True,1.0
./expes/v2_2020-11-09_3bh_200-prng-1,30_base_hphc_200,200,first-200,171,rng,num-start-431,431,17520,7.744842290878296,True,,True,1,False,1000,True,1.0
./expes/v2_2020-11-09_3bh_200-prng-1,30_base_hphc_200,200,first-200,81,rng,num-start-831,831,17520,14.666085004806519,True,,True,1,False,1000,True,1.0
./expes/v2_2020-11-09_3bh_200-prng-1,30_base_hphc_200,200,first-200,51,rng,num-start-911,911,17520,17.416446447372437,True,,True,1,False,1000,True,1.0
./expes/v2_2020-11-09_3bh_200-prng-1,30_base_hphc_200,200,first-200,41,rng,num-start-391,391,17520,7.102460861206055,True,,True,1,False,1000,True,1.0
./expes/v2_2020-11-09_3bh_200-prng-1,30_base_hphc_200,200,first-200,121,rng,num-start-121,121,17520,3.1384925842285156,True,,True,1,False,1000,True,1.0
./expes/v2_2020-11-09_3bh_200-prng-1,30_base_hphc_200,200,first-200,181,rng,num-start-331,331,17520,5.509886741638184,True,,True,1,False,1000,True,1.0
./expes/v2_2020-11-09_3bh_200-prng-1,30_base_hphc_200,200,first-200,171,rng,num-start-641,641,17520,12.124112844467163,True,,True,1,False,1000,True,1.0
./expes/v2_2020-11-09_3bh_200-prng-1,30_base_hphc_200,200,first-200,41,rng,num-start-571,571,17520,12.356196403503418,True,,True,1,False,1000,True,1.0
./expes/v2_2020-11-09_3bh_200-prng-1,30_base_hphc_200,200,first-200,121,rng,num-start-541,541,17520,10.265063047409058,True,,True,1,False,1000,True,1.0
./expes/v2_2020-11-09_3bh_200-prng-1,30_base_hphc_200,200,first-200,31,rng,num-start-581,581,17520,11.482912540435791,True,,True,1,False,1000,True,1.0
./expes/v2_2020-11-09_3bh_200-prng-1,30_base_hphc_200,200,first-200,171,rng,num-start-831,831,17520,16.140392541885376,True,,True,1,False,1000,True,1.0
./expes/v2_2020-11-09_3bh_200-prng-1,30_base_hphc_200,200,first-200,51,rng,num-start-271,271,17520,5.312941551208496,True,,True,1,False,1000,True,1.0
./expes/v2_2020-11-09_3bh_200-prng-1,30_base_hphc_200,200,first-200,21,rng,num-start-481,481,17520,8.764027118682861,True,,True,1,False,1000,True,1.0
./expes/v2_2020-11-09_3bh_200-prng-1,30_base_hphc_200,200,first-200,171,rng,num-start-481,481,17520,8.02506709098816,True,,True,1,False,1000,True,1.0
./expes/v2_2020-11-09_3bh_200-prng-1,30_base_hphc_200,200,first-200,131,rng,num-start-391,391,17520,7.164182186126709,True,,True,1,False,1000,True,1.0
./expes/v2_2020-11-09_3bh_200-prng-1,30_base_hphc_200,200,first-200,131,rng,num-start-281,281,17520,5.88058066368103,True,,True,1,False,1000,True,1.0
./expes/v2_2020-11-09_3bh_200-prng-1,30_base_hphc_200,200,first-200,141,rng,num-start-981,981,17520,18.341789960861206,True,,True,1,False,1000,True,1.0
./expes/v2_2020-11-09_3bh_200-prng-1,30_base_hphc_200,200,first-200,181,rng,num-start-491,491,17520,8.26598572731018,True,,True,1,False,1000,True,1.0
./expes/v2_2020-11-09_3bh_200-prng-1,30_base_hphc_200,200,first-200,51,rng,num-start-341,341,17520,6.566689491271973,True,,True,1,False,1000,True,1.0
./expes/v2_2020-11-09_3bh_200-prng-1,30_base_hphc_200,200,first-200,131,rng,num-start-421,421,17520,7.761967420578003,True,,True,1,False,1000,True,1.0
./expes/v2_2020-11-09_3bh_200-prng-1,30_base_hphc_200,200,first-200,191,rng,num-start-451,451,17520,7.250214338302612,True,,True,1,False,1000,True,1.0
./expes/v2_2020-11-09_3bh_200-prng-1,30_base_hphc_200,200,first-200,131,rng,num-start-71,71,17520,3.070725440979004,True,,True,1,False,1000,True,1.0
./expes/v2_2020-11-09_3bh_200-prng-1,30_base_hphc_200,200,first-200,41,rng,num-start-751,751,17520,13.707266092300415,True,,True,1,False,1000,True,1.0
./expes/v2_2020-11-09_3bh_200-prng-1,30_base_hphc_200,200,first-200,31,rng,num-start-241,241,17520,5.346936941146851,True,,True,1,False,1000,True,1.0
./expes/v2_2020-11-09_3bh_200-prng-1,30_base_hphc_200,200,first-200,171,rng,num-start-961,961,17520,16.304943799972534,True,,True,1,False,1000,True,1.0
./expes/v2_2020-11-09_3bh_200-prng-1,30_base_hphc_200,200,first-200,181,rng,num-start-161,161,17520,3.0371341705322266,True,,True,1,False,1000,True,1.0
./expes/v2_2020-11-09_3bh_200-prng-1,30_base_hphc_200,200,first-200,151,rng,num-start-991,991,17520,17.867440938949585,True,,True,1,False,1000,True,1.0
./expes/v2_2020-11-09_3bh_200-prng-1,30_base_hphc_200,200,first-200,81,rng,num-start-21,21,17520,1000.4181132316589,False,,False,0,True,1000,True,0.0
./expes/v2_2020-11-09_3bh_200-prng-1,30_base_hphc_200,200,first-200,61,rng,num-start-131,131,17520,2.53287410736084,True,,True,1,False,1000,True,1.0
./expes/v2_2020-11-09_3bh_200-prng-1,30_base_hphc_200,200,first-200,151,rng,num-start-831,831,17520,14.064672470092773,True,,True,1,False,1000,True,1.0
./expes/v2_2020-11-09_3bh_200-prng-1,30_base_hphc_200,200,first-200,151,rng,num-start-871,871,17520,14.800386905670166,True,,True,1,False,1000,True,1.0
./expes/v2_2020-11-09_3bh_200-prng-1,30_base_hphc_200,200,first-200,191,rng,num-start-651,651,17520,10.232335090637207,True,,True,1,False,1000,True,1.0
./expes/v2_2020-11-09_3bh_200-prng-1,30_base_hphc_200,200,first-200,91,rng,num-start-921,921,17520,16.686205625534058,True,,True,1,False,1000,True,1.0
./expes/v2_2020-11-09_3bh_200-prng-1,30_base_hphc_200,200,first-200,21,rng,num-start-791,791,17520,15.53584337234497,True,,True,1,False,1000,True,1.0
./expes/v2_2020-11-09_3bh_200-prng-1,30_base_hphc_200,200,first-200,81,rng,num-start-981,981,17520,20.386090993881226,True,,True,1,False,1000,True,1.0
./expes/v2_2020-11-09_3bh_200-prng-1,30_base_hphc_200,200,first-200,1,rng,num-start-521,521,17520,7.670003890991211,True,,True,1,False,1000,True,1.0
./expes/v2_2020-11-09_3bh_200-prng-1,30_base_hphc_200,200,first-200,161,rng,num-start-101,101,17520,1.9395458698272705,True,,True,1,False,1000,True,1.0
./expes/v2_2020-11-09_3bh_200-prng-1,30_base_hphc_200,200,first-200,161,rng,num-start-501,501,17520,9.058568239212036,True,,True,1,False,1000,True,1.0
./expes/v2_2020-11-09_3bh_200-prng-1,30_base_hphc_200,200,first-200,11,rng,num-start-961,961,17520,15.253390073776245,True,,True,1,False,1000,True,1.0
./expes/v2_2020-11-09_3bh_200-prng-1,30_base_hphc_200,200,first-200,161,rng,num-start-561,561,17520,9.933079957962036,True,,True,1,False,1000,True,1.0
./expes/v2_2020-11-09_3bh_200-prng-1,30_base_hphc_200,200,first-200,41,rng,num-start-831,831,17520,16.098889589309692,True,,True,1,False,1000,True,1.0
./expes/v2_2020-11-09_3bh_200-prng-1,30_base_hphc_200,200,first-200,21,rng,num-start-71,71,17520,1.30029296875,True,,True,1,False,1000,True,1.0
./expes/v2_2020-11-09_3bh_200-prng-1,30_base_hphc_200,200,first-200,41,rng,num-start-491,491,17520,8.870236873626709,True,,True,1,False,1000,True,1.0
./expes/v2_2020-11-09_3bh_200-prng-1,30_base_hphc_200,200,first-200,151,rng,num-start-921,921,17520,17.299268007278442,True,,True,1,False,1000,True,1.0
./expes/v2_2020-11-09_3bh_200-prng-1,30_base_hphc_200,200,first-200,51,rng,num-start-61,61,17520,4.961971282958984,True,,True,1,False,1000,True,1.0
./expes/v2_2020-11-09_3bh_200-prng-1,30_base_hphc_200,200,first-200,51,rng,num-start-241,241,17520,4.530086994171143,True,,True,1,False,1000,True,1.0
./expes/v2_2020-11-09_3bh_200-prng-1,30_base_hphc_200,200,first-200,131,rng,num-start-281,281,17520,5.583607912063599,True,,True,1,False,1000,True,1.0
./expes/v2_2020-11-09_3bh_200-prng-1,30_base_hphc_200,200,first-200,21,rng,num-start-291,291,17520,5.674472093582153,True,,True,1,False,1000,True,1.0
./expes/v2_2020-11-09_3bh_200-prng-1,30_base_hphc_200,200,first-200,131,rng,num-start-121,121,17520,2.4550461769104004,True,,True,1,False,1000,True,1.0
./expes/v2_2020-11-09_3bh_200-prng-1,30_base_hphc_200,200,first-200,1,rng,num-start-191,191,17520,2.801774263381958,True,,True,1,False,1000,True,1.0
./expes/v2_2020-11-09_3bh_200-prng-1,30_base_hphc_200,200,first-200,141,rng,num-start-851,851,17520,16.449031829833984,True,,True,1,False,1000,True,1.0
./expes/v2_2020-11-09_3bh_200-prng-1,30_base_hphc_200,200,first-200,181,rng,num-start-631,631,17520,11.02977466583252,True,,True,1,False,1000,True,1.0
./expes/v2_2020-11-09_3bh_200-prng-1,30_base_hphc_200,200,first-200,21,rng,num-start-741,741,17520,13.454088926315308,True,,True,1,False,1000,True,1.0
./expes/v2_2020-11-09_3bh_200-prng-1,30_base_hphc_200,200,first-200,151,rng,num-start-951,951,17520,17.755271434783936,True,,True,1,False,1000,True,1.0
./expes/v2_2020-11-09_3bh_200-prng-1,30_base_hphc_200,200,first-200,191,rng,num-start-291,291,17520,4.9692652225494385,True,,True,1,False,1000,True,1.0
./expes/v2_2020-11-09_3bh_200-prng-1,30_base_hphc_200,200,first-200,1,rng,num-start-601,601,17520,8.759361743927002,True,,True,1,False,1000,True,1.0
./expes/v2_2020-11-09_3bh_200-prng-1,30_base_hphc_200,200,first-200,81,rng,num-start-131,131,17520,2.738596200942993,True,,True,1,False,1000,True,1.0
./expes/v2_2020-11-09_3bh_200-prng-1,30_base_hphc_200,200,first-200,31,rng,num-start-11,11,17520,1000.6927180290222,False,,False,0,True,1000,True,0.0
./expes/v2_2020-11-09_3bh_200-prng-1,30_base_hphc_200,200,first-200,61,rng,num-start-711,711,17520,14.182193756103516,True,,True,1,False,1000,True,1.0
./expes/v2_2020-11-09_3bh_200-prng-1,30_base_hphc_200,200,first-200,171,rng,num-start-291,291,17520,5.622170686721802,True,,True,1,False,1000,True,1.0
./expes/v2_2020-11-09_3bh_200-prng-1,30_base_hphc_200,200,first-200,181,rng,num-start-851,851,17520,16.64326024055481,True,,True,1,False,1000,True,1.0
./expes/v2_2020-11-09_3bh_200-prng-1,30_base_hphc_200,200,first-200,101,rng,num-start-381,381,17520,8.706814527511597,True,,True,1,False,1000,True,1.0
./expes/v2_2020-11-09_3bh_200-prng-1,30_base_hphc_200,200,first-200,1,rng,num-start-101,101,17520,1.5557434558868408,True,,True,1,False,1000,True,1.0
./expes/v2_2020-11-09_3bh_200-prng-1,30_base_hphc_200,200,first-200,31,rng,num-start-941,941,17520,17.799590349197388,True,,True,1,False,1000,True,1.0
./expes/v2_2020-11-09_3bh_200-prng-1,30_base_hphc_200,200,first-200,171,rng,num-start-581,581,17520,11.216833591461182,True,,True,1,False,1000,True,1.0
./expes/v2_2020-11-09_3bh_200-prng-1,30_base_hphc_200,200,first-200,161,rng,num-start-911,911,17520,16.6557297706604,True,,True,1,False,1000,True,1.0
./expes/v2_2020-11-09_3bh_200-prng-1,30_base_hphc_200,200,first-200,111,rng,num-start-391,391,17520,7.641824245452881,True,,True,1,False,1000,True,1.0
./expes/v2_2020-11-09_3bh_200-prng-1,30_base_hphc_200,200,first-200,171,rng,num-start-951,951,17520,18.49232268333435,True,,True,1,False,1000,True,1.0
./expes/v2_2020-11-09_3bh_200-prng-1,30_base_hphc_200,200,first-200,1,rng,num-start-591,591,17520,8.973956823348999,True,,True,1,False,1000,True,1.0
./expes/v2_2020-11-09_3bh_200-prng-1,30_base_hphc_200,200,first-200,1,rng,num-start-111,111,17520,1.698894739151001,True,,True,1,False,1000,True,1.0
./expes/v2_2020-11-09_3bh_200-prng-1,30_base_hphc_200,200,first-200,1,rng,num-start-831,831,17520,12.58648681640625,True,,True,1,False,1000,True,1.0
./expes/v2_2020-11-09_3bh_200-prng-1,30_base_hphc_200,200,first-200,111,rng,num-start-941,941,17520,19.760658025741577,True,,True,1,False,1000,True,1.0
./expes/v2_2020-11-09_3bh_200-prng-1,30_base_hphc_200,200,first-200,31,rng,num-start-701,701,17520,13.16891074180603,True,,True,1,False,1000,True,1.0
./expes/v2_2020-11-09_3bh_200-prng-1,30_base_hphc_200,200,first-200,71,rng,num-start-521,521,17520,10.588558435440063,True,,True,1,False,1000,True,1.0
./expes/v2_2020-11-09_3bh_200-prng-1,30_base_hphc_200,200,first-200,191,rng,num-start-441,441,17520,7.775236129760742,True,,True,1,False,1000,True,1.0
./expes/v2_2020-11-09_3bh_200-prng-1,30_base_hphc_200,200,first-200,131,rng,num-start-791,791,17520,14.715785026550293,True,,True,1,False,1000,True,1.0
./expes/v2_2020-11-09_3bh_200-prng-1,30_base_hphc_200,200,first-200,131,rng,num-start-171,171,17520,3.6684625148773193,True,,True,1,False,1000,True,1.0
./expes/v2_2020-11-09_3bh_200-prng-1,30_base_hphc_200,200,first-200,21,rng,num-start-441,441,17520,8.04801058769226,True,,True,1,False,1000,True,1.0
./expes/v2_2020-11-09_3bh_200-prng-1,30_base_hphc_200,200,first-200,1,rng,num-start-281,281,17520,4.276763439178467,True,,True,1,False,1000,True,1.0
./expes/v2_2020-11-09_3bh_200-prng-1,30_base_hphc_200,200,first-200,141,rng,num-start-511,511,17520,10.352673292160034,True,,True,1,False,1000,True,1.0
./expes/v2_2020-11-09_3bh_200-prng-1,30_base_hphc_200,200,first-200,101,rng,num-start-151,151,17520,3.2237181663513184,True,,True,1,False,1000,True,1.0
./expes/v2_2020-11-09_3bh_200-prng-1,30_base_hphc_200,200,first-200,171,rng,num-start-611,611,17520,10.757004499435425,True,,True,1,False,1000,True,1.0
./expes/v2_2020-11-09_3bh_200-prng-1,30_base_hphc_200,200,first-200,61,rng,num-start-861,861,17520,17.517976760864258,True,,True,1,False,1000,True,1.0
./expes/v2_2020-11-09_3bh_200-prng-1,30_base_hphc_200,200,first-200,81,rng,num-start-271,271,17520,6.2998926639556885,True,,True,1,False,1000,True,1.0
./expes/v2_2020-11-09_3bh_200-prng-1,30_base_hphc_200,200,first-200,141,rng,num-start-11,11,17520,1000.4787006378174,False,,False,0,True,1000,True,0.0
./expes/v2_2020-11-09_3bh_200-prng-1,30_base_hphc_200,200,first-200,11,rng,num-start-411,411,17520,6.963601589202881,True,,True,1,False,1000,True,1.0
./expes/v2_2020-11-09_3bh_200-prng-1,30_base_hphc_200,200,first-200,21,rng,num-start-121,121,17520,2.476475715637207,True,,True,1,False,1000,True,1.0
./expes/v2_2020-11-09_3bh_200-prng-1,30_base_hphc_200,200,first-200,101,rng,num-start-401,401,17520,7.437097549438477,True,,True,1,False,1000,True,1.0
./expes/v2_2020-11-09_3bh_200-prng-1,30_base_hphc_200,200,first-200,21,rng,num-start-871,871,17520,14.865700006484985,True,,True,1,False,1000,True,1.0
./expes/v2_2020-11-09_3bh_200-prng-1,30_base_hphc_200,200,first-200,51,rng,num-start-391,391,17520,7.778639078140259,True,,True,1,False,1000,True,1.0
./expes/v2_2020-11-09_3bh_200-prng-1,30_base_hphc_200,200,first-200,121,rng,num-start-391,391,17520,7.356609582901001,True,,True,1,False,1000,True,1.0
./expes/v2_2020-11-09_3bh_200-prng-1,30_base_hphc_200,200,first-200,31,rng,num-start-601,601,17520,13.476844549179077,True,,True,1,False,1000,True,1.0
./expes/v2_2020-11-09_3bh_200-prng-1,30_base_hphc_200,200,first-200,181,rng,num-start-921,921,17520,17.29583501815796,True,,True,1,False,1000,True,1.0
./expes/v2_2020-11-09_3bh_200-prng-1,30_base_hphc_200,200,first-200,81,rng,num-start-501,501,17520,9.429089784622192,True,,True,1,False,1000,True,1.0
./expes/v2_2020-11-09_3bh_200-prng-1,30_base_hphc_200,200,first-200,151,rng,num-start-581,581,17520,11.232320547103882,True,,True,1,False,1000,True,1.0
./expes/v2_2020-11-09_3bh_200-prng-1,30_base_hphc_200,200,first-200,91,rng,num-start-301,301,17520,5.9878013134002686,True,,True,1,False,1000,True,1.0
./expes/v2_2020-11-09_3bh_200-prng-1,30_base_hphc_200,200,first-200,31,rng,num-start-171,171,17520,3.5640487670898438,True,,True,1,False,1000,True,1.0
./expes/v2_2020-11-09_3bh_200-prng-1,30_base_hphc_200,200,first-200,51,rng,num-start-841,841,17520,16.509602785110474,True,,True,1,False,1000,True,1.0
./expes/v2_2020-11-09_3bh_200-prng-1,30_base_hphc_200,200,first-200,171,rng,num-start-591,591,17520,11.328178882598877,True,,True,1,False,1000,True,1.0
./expes/v2_2020-11-09_3bh_200-prng-1,30_base_hphc_200,200,first-200,71,rng,num-start-21,21,17520,1000.3758068084717,False,,False,0,True,1000,True,0.0
./expes/v2_2020-11-09_3bh_200-prng-1,30_base_hphc_200,200,first-200,31,rng,num-start-681,681,17520,11.827262163162231,True,,True,1,False,1000,True,1.0
./expes/v2_2020-11-09_3bh_200-prng-1,30_base_hphc_200,200,first-200,51,rng,num-start-61,61,17520,93.04259967803955,True,,True,1,False,1000,True,1.0
./expes/v2_2020-11-09_3bh_200-prng-1,30_base_hphc_200,200,first-200,71,rng,num-start-481,481,17520,9.328163146972656,True,,True,1,False,1000,True,1.0
./expes/v2_2020-11-09_3bh_200-prng-1,30_base_hphc_200,200,first-200,91,rng,num-start-581,581,17520,10.894315242767334,True,,True,1,False,1000,True,1.0
./expes/v2_2020-11-09_3bh_200-prng-1,30_base_hphc_200,200,first-200,11,rng,num-start-941,941,17520,15.838451623916626,True,,True,1,False,1000,True,1.0
./expes/v2_2020-11-09_3bh_200-prng-1,30_base_hphc_200,200,first-200,81,rng,num-start-371,371,17520,7.258713006973267,True,,True,1,False,1000,True,1.0
./expes/v2_2020-11-09_3bh_200-prng-1,30_base_hphc_200,200,first-200,1,rng,num-start-571,571,17520,8.540833711624146,True,,True,1,False,1000,True,1.0
./expes/v2_2020-11-09_3bh_200-prng-1,30_base_hphc_200,200,first-200,131,rng,num-start-631,631,17520,13.216585636138916,True,,True,1,False,1000,True,1.0
./expes/v2_2020-11-09_3bh_200-prng-1,30_base_hphc_200,200,first-200,161,rng,num-start-491,491,17520,9.034636497497559,True,,True,1,False,1000,True,1.0
./expes/v2_2020-11-09_3bh_200-prng-1,30_base_hphc_200,200,first-200,141,rng,num-start-391,391,17520,7.543470621109009,True,,True,1,False,1000,True,1.0
./expes/v2_2020-11-09_3bh_200-prng-1,30_base_hphc_200,200,first-200,51,rng,num-start-161,161,17520,3.0641257762908936,True,,True,1,False,1000,True,1.0
./expes/v2_2020-11-09_3bh_200-prng-1,30_base_hphc_200,200,first-200,141,rng,num-start-1,1,17520,0.026942968368530273,False,,False,2,False,1000,True,1.0
./expes/v2_2020-11-09_3bh_200-prng-1,30_base_hphc_200,200,first-200,31,rng,num-start-531,531,17520,10.101612329483032,True,,True,1,False,1000,True,1.0
./expes/v2_2020-11-09_3bh_200-prng-1,30_base_hphc_200,200,first-200,161,rng,num-start-691,691,17520,12.588747262954712,True,,True,1,False,1000,True,1.0
./expes/v2_2020-11-09_3bh_200-prng-1,30_base_hphc_200,200,first-200,111,rng,num-start-201,201,17520,4.426818132400513,True,,True,1,False,1000,True,1.0
./expes/v2_2020-11-09_3bh_200-prng-1,30_base_hphc_200,200,first-200,191,rng,num-start-541,541,17520,9.247968435287476,True,,True,1,False,1000,True,1.0
./expes/v2_2020-11-09_3bh_200-prng-1,30_base_hphc_200,200,first-200,31,rng,num-start-61,61,17520,2.4329030513763428,True,,True,1,False,1000,True,1.0
./expes/v2_2020-11-09_3bh_200-prng-1,30_base_hphc_200,200,first-200,11,rng,num-start-171,171,17520,3.2543513774871826,True,,True,1,False,1000,True,1.0
./expes/v2_2020-11-09_3bh_200-prng-1,30_base_hphc_200,200,first-200,181,rng,num-start-871,871,17520,15.29896330833435,True,,True,1,False,1000,True,1.0
./expes/v2_2020-11-09_3bh_200-prng-1,30_base_hphc_200,200,first-200,11,rng,num-start-11,11,17520,16.21541690826416,True,,True,1,False,1000,True,1.0
./expes/v2_2020-11-09_3bh_200-prng-1,30_base_hphc_200,200,first-200,21,rng,num-start-251,251,17520,4.689159393310547,True,,True,1,False,1000,True,1.0
./expes/v2_2020-11-09_3bh_200-prng-1,30_base_hphc_200,200,first-200,31,rng,num-start-441,441,17520,9.217671871185303,True,,True,1,False,1000,True,1.0
./expes/v2_2020-11-09_3bh_200-prng-1,30_base_hphc_200,200,first-200,11,rng,num-start-211,211,17520,4.093564748764038,True,,True,1,False,1000,True,1.0
./expes/v2_2020-11-09_3bh_200-prng-1,30_base_hphc_200,200,first-200,41,rng,num-start-841,841,17520,16.72719120979309,True,,True,1,False,1000,True,1.0
./expes/v2_2020-11-09_3bh_200-prng-1,30_base_hphc_200,200,first-200,181,rng,num-start-761,761,17520,13.923641204833984,True,,True,1,False,1000,True,1.0
./expes/v2_2020-11-09_3bh_200-prng-1,30_base_hphc_200,200,first-200,181,rng,num-start-451,451,17520,7.373858213424683,True,,True,1,False,1000,True,1.0
./expes/v2_2020-11-09_3bh_200-prng-1,30_base_hphc_200,200,first-200,111,rng,num-start-471,471,17520,9.028724431991577,True,,True,1,False,1000,True,1.0
./expes/v2_2020-11-09_3bh_200-prng-1,30_base_hphc_200,200,first-200,191,rng,num-start-391,391,17520,6.393821954727173,True,,True,1,False,1000,True,1.0
./expes/v2_2020-11-09_3bh_200-prng-1,30_base_hphc_200,200,first-200,101,rng,num-start-281,281,17520,5.4812798500061035,True,,True,1,False,1000,True,1.0
./expes/v2_2020-11-09_3bh_200-prng-1,30_base_hphc_200,200,first-200,111,rng,num-start-881,881,17520,14.9640052318573,True,,True,1,False,1000,True,1.0
./expes/v2_2020-11-09_3bh_200-prng-1,30_base_hphc_200,200,first-200,171,rng,num-start-311,311,17520,5.436789035797119,True,,True,1,False,1000,True,1.0
./expes/v2_2020-11-09_3bh_200-prng-1,30_base_hphc_200,200,first-200,151,rng,num-start-851,851,17520,14.24797248840332,True,,True,1,False,1000,True,1.0
./expes/v2_2020-11-09_3bh_200-prng-1,30_base_hphc_200,200,first-200,41,rng,num-start-371,371,17520,6.716155290603638,True,,True,1,False,1000,True,1.0
./expes/v2_2020-11-09_3bh_200-prng-1,30_base_hphc_200,200,first-200,51,rng,num-start-531,531,17520,10.46783185005188,True,,True,1,False,1000,True,1.0
./expes/v2_2020-11-09_3bh_200-prng-1,30_base_hphc_200,200,first-200,61,rng,num-start-671,671,17520,12.770291566848755,True,,True,1,False,1000,True,1.0
./expes/v2_2020-11-09_3bh_200-prng-1,30_base_hphc_200,200,first-200,121,rng,num-start-681,681,17520,12.626781225204468,True,,True,1,False,1000,True,1.0
./expes/v2_2020-11-09_3bh_200-prng-1,30_base_hphc_200,200,first-200,41,rng,num-start-951,951,17520,17.43122148513794,True,,True,1,False,1000,True,1.0
./expes/v2_2020-11-09_3bh_200-prng-1,30_base_hphc_200,200,first-200,61,rng,num-start-341,341,17520,6.876448631286621,True,,True,1,False,1000,True,1.0
./expes/v2_2020-11-09_3bh_200-prng-1,30_base_hphc_200,200,first-200,61,rng,num-start-901,901,17520,17.965789794921875,True,,True,1,False,1000,True,1.0
./expes/v2_2020-11-09_3bh_200-prng-1,30_base_hphc_200,200,first-200,41,rng,num-start-451,451,17520,8.319704532623291,True,,True,1,False,1000,True,1.0
./expes/v2_2020-11-09_3bh_200-prng-1,30_base_hphc_200,200,first-200,141,rng,num-start-911,911,17520,16.319907426834106,True,,True,1,False,1000,True,1.0
./expes/v2_2020-11-09_3bh_200-prng-1,30_base_hphc_200,200,first-200,41,rng,num-start-571,571,17520,11.172677278518677,True,,True,1,False,1000,True,1.0
./expes/v2_2020-11-09_3bh_200-prng-1,30_base_hphc_200,200,first-200,21,rng,num-start-551,551,17520,11.199784755706787,True,,True,1,False,1000,True,1.0
./expes/v2_2020-11-09_3bh_200-prng-1,30_base_hphc_200,200,first-200,191,rng,num-start-831,831,17520,13.321410417556763,True,,True,1,False,1000,True,1.0
./expes/v2_2020-11-09_3bh_200-prng-1,30_base_hphc_200,200,first-200,1,rng,num-start-511,511,17520,7.567774057388306,True,,True,1,False,1000,True,1.0
./expes/v2_2020-11-09_3bh_200-prng-1,30_base_hphc_200,200,first-200,101,rng,num-start-911,911,17520,17.48180627822876,True,,True,1,False,1000,True,1.0
./expes/v2_2020-11-09_3bh_200-prng-1,30_base_hphc_200,200,first-200,41,rng,num-start-411,411,17520,8.23283338546753,True,,True,1,False,1000,True,1.0
./expes/v2_2020-11-09_3bh_200-prng-1,30_base_hphc_200,200,first-200,181,rng,num-start-131,131,17520,2.383629560470581,True,,True,1,False,1000,True,1.0
./expes/v2_2020-11-09_3bh_200-prng-1,30_base_hphc_200,200,first-200,1,rng,num-start-641,641,17520,9.558637380599976,True,,True,1,False,1000,True,1.0
./expes/v2_2020-11-09_3bh_200-prng-1,30_base_hphc_200,200,first-200,121,rng,num-start-741,741,17520,13.657349586486816,True,,True,1,False,1000,True,1.0
./expes/v2_2020-11-09_3bh_200-prng-1,30_base_hphc_200,200,first-200,101,rng,num-start-441,441,17520,8.210631608963013,True,,True,1,False,1000,True,1.0
./expes/v2_2020-11-09_3bh_200-prng-1,30_base_hphc_200,200,first-200,71,rng,num-start-691,691,17520,13.313580751419067,True,,True,1,False,1000,True,1.0
./expes/v2_2020-11-09_3bh_200-prng-1,30_base_hphc_200,200,first-200,161,rng,num-start-1,1,17520,0.027168989181518555,False,,False,2,False,1000,True,1.0
./expes/v2_2020-11-09_3bh_200-prng-1,30_base_hphc_200,200,first-200,51,rng,num-start-801,801,17520,15.062712669372559,True,,True,1,False,1000,True,1.0
./expes/v2_2020-11-09_3bh_200-prng-1,30_base_hphc_200,200,first-200,161,rng,num-start-971,971,17520,19.16977834701538,True,,True,1,False,1000,True,1.0
./expes/v2_2020-11-09_3bh_200-prng-1,30_base_hphc_200,200,first-200,21,rng,num-start-971,971,17520,20.536611080169678,True,,True,1,False,1000,True,1.0
./expes/v2_2020-11-09_3bh_200-prng-1,30_base_hphc_200,200,first-200,121,rng,num-start-751,751,17520,14.018645286560059,True,,True,1,False,1000,True,1.0
./expes/v2_2020-11-09_3bh_200-prng-1,30_base_hphc_200,200,first-200,151,rng,num-start-151,151,17520,3.0309085845947266,True,,True,1,False,1000,True,1.0
./expes/v2_2020-11-09_3bh_200-prng-1,30_base_hphc_200,200,first-200,91,rng,num-start-831,831,17520,17.366453886032104,True,,True,1,False,1000,True,1.0
./expes/v2_2020-11-09_3bh_200-prng-1,30_base_hphc_200,200,first-200,11,rng,num-start-61,61,17520,1.583369255065918,True,,True,1,False,1000,True,1.0
./expes/v2_2020-11-09_3bh_200-prng-1,30_base_hphc_200,200,first-200,191,rng,num-start-121,121,17520,2.1337921619415283,True,,True,1,False,1000,True,1.0
./expes/v2_2020-11-09_3bh_200-prng-1,30_base_hphc_200,200,first-200,131,rng,num-start-271,271,17520,5.867395401000977,True,,True,1,False,1000,True,1.0
./expes/v2_2020-11-09_3bh_200-prng-1,30_base_hphc_200,200,first-200,141,rng,num-start-131,131,17520,2.8586978912353516,True,,True,1,False,1000,True,1.0
./expes/v2_2020-11-09_3bh_200-prng-1,30_base_hphc_200,200,first-200,51,rng,num-start-371,371,17520,7.225949048995972,True,,True,1,False,1000,True,1.0
./expes/v2_2020-11-09_3bh_200-prng-1,30_base_hphc_200,200,first-200,131,rng,num-start-851,851,17520,17.26169514656067,True,,True,1,False,1000,True,1.0
./expes/v2_2020-11-09_3bh_200-prng-1,30_base_hphc_200,200,first-200,141,rng,num-start-921,921,17520,17.846786499023438,True,,True,1,False,1000,True,1.0
./expes/v2_2020-11-09_3bh_200-prng-1,30_base_hphc_200,200,first-200,81,rng,num-start-641,641,17520,11.140568494796753,True,,True,1,False,1000,True,1.0
./expes/v2_2020-11-09_3bh_200-prng-1,30_base_hphc_200,200,first-200,171,rng,num-start-251,251,17520,4.955572128295898,True,,True,1,False,1000,True,1.0
./expes/v2_2020-11-09_3bh_200-prng-1,30_base_hphc_200,200,first-200,131,rng,num-start-581,581,17520,10.335381269454956,True,,True,1,False,1000,True,1.0
./expes/v2_2020-11-09_3bh_200-prng-1,30_base_hphc_200,200,first-200,91,rng,num-start-621,621,17520,11.229760885238647,True,,True,1,False,1000,True,1.0
./expes/v2_2020-11-09_3bh_200-prng-1,30_base_hphc_200,200,first-200,171,rng,num-start-441,441,17520,7.676227569580078,True,,True,1,False,1000,True,1.0
./expes/v2_2020-11-09_3bh_200-prng-1,30_base_hphc_200,200,first-200,71,rng,num-start-131,131,17520,2.876155138015747,True,,True,1,False,1000,True,1.0
./expes/v2_2020-11-09_3bh_200-prng-1,30_base_hphc_200,200,first-200,181,rng,num-start-141,141,17520,2.582228422164917,True,,True,1,False,1000,True,1.0
./expes/v2_2020-11-09_3bh_200-prng-1,30_base_hphc_200,200,first-200,141,rng,num-start-401,401,17520,7.303568601608276,True,,True,1,False,1000,True,1.0
./expes/v2_2020-11-09_3bh_200-prng-1,30_base_hphc_200,200,first-200,111,rng,num-start-761,761,17520,14.073993921279907,True,,True,1,False,1000,True,1.0
./expes/v2_2020-11-09_3bh_200-prng-1,30_base_hphc_200,200,first-200,101,rng,num-start-301,301,17520,5.459829807281494,True,,True,1,False,1000,True,1.0
./expes/v2_2020-11-09_3bh_200-prng-1,30_base_hphc_200,200,first-200,81,rng,num-start-201,201,17520,4.576066493988037,True,,True,1,False,1000,True,1.0
./expes/v2_2020-11-09_3bh_200-prng-1,30_base_hphc_200,200,first-200,41,rng,num-start-691,691,17520,12.578235864639282,True,,True,1,False,1000,True,1.0
./expes/v2_2020-11-09_3bh_200-prng-1,30_base_hphc_200,200,first-200,121,rng,num-start-651,651,17520,11.541810989379883,True,,True,1,False,1000,True,1.0
./expes/v2_2020-11-09_3bh_200-prng-1,30_base_hphc_200,200,first-200,131,rng,num-start-991,991,17520,17.72703266143799,True,,True,1,False,1000,True,1.0
./expes/v2_2020-11-09_3bh_200-prng-1,30_base_hphc_200,200,first-200,121,rng,num-start-951,951,17520,16.73201870918274,True,,True,1,False,1000,True,1.0
./expes/v2_2020-11-09_3bh_200-prng-1,30_base_hphc_200,200,first-200,71,rng,num-start-411,411,17520,7.7861247062683105,True,,True,1,False,1000,True,1.0
./expes/v2_2020-11-09_3bh_200-prng-1,30_base_hphc_200,200,first-200,81,rng,num-start-611,611,17520,11.846791982650757,True,,True,1,False,1000,True,1.0
./expes/v2_2020-11-09_3bh_200-prng-1,30_base_hphc_200,200,first-200,181,rng,num-start-711,711,17520,12.23279857635498,True,,True,1,False,1000,True,1.0
./expes/v2_2020-11-09_3bh_200-prng-1,30_base_hphc_200,200,first-200,161,rng,num-start-661,661,17520,11.998602867126465,True,,True,1,False,1000,True,1.0
./expes/v2_2020-11-09_3bh_200-prng-1,30_base_hphc_200,200,first-200,101,rng,num-start-311,311,17520,6.183809995651245,True,,True,1,False,1000,True,1.0
./expes/v2_2020-11-09_3bh_200-prng-1,30_base_hphc_200,200,first-200,131,rng,num-start-241,241,17520,4.961837291717529,True,,True,1,False,1000,True,1.0
./expes/v2_2020-11-09_3bh_200-prng-1,30_base_hphc_200,200,first-200,11,rng,num-start-341,341,17520,5.7209858894348145,True,,True,1,False,1000,True,1.0
./expes/v2_2020-11-09_3bh_200-prng-1,30_base_hphc_200,200,first-200,51,rng,num-start-421,421,17520,8.020308256149292,True,,True,1,False,1000,True,1.0
./expes/v2_2020-11-09_3bh_200-prng-1,30_base_hphc_200,200,first-200,161,rng,num-start-391,391,17520,7.3430399894714355,True,,True,1,False,1000,True,1.0
./expes/v2_2020-11-09_3bh_200-prng-1,30_base_hphc_200,200,first-200,11,rng,num-start-81,81,17520,1.6389660835266113,True,,True,1,False,1000,True,1.0
./expes/v2_2020-11-09_3bh_200-prng-1,30_base_hphc_200,200,first-200,1,rng,num-start-381,381,17520,5.598577976226807,True,,True,1,False,1000,True,1.0
./expes/v2_2020-11-09_3bh_200-prng-1,30_base_hphc_200,200,first-200,61,rng,num-start-11,11,17520,1000.2586855888367,False,,False,0,True,1000,True,0.0
./expes/v2_2020-11-09_3bh_200-prng-1,30_base_hphc_200,200,first-200,11,rng,num-start-221,221,17520,4.194289922714233,True,,True,1,False,1000,True,1.0
./expes/v2_2020-11-09_3bh_200-prng-1,30_base_hphc_200,200,first-200,41,rng,num-start-151,151,17520,3.0238568782806396,True,,True,1,False,1000,True,1.0
./expes/v2_2020-11-09_3bh_200-prng-1,30_base_hphc_200,200,first-200,61,rng,num-start-521,521,17520,8.978740692138672,True,,True,1,False,1000,True,1.0
./expes/v2_2020-11-09_3bh_200-prng-1,30_base_hphc_200,200,first-200,81,rng,num-start-801,801,17520,16.004414796829224,True,,True,1,False,1000,True,1.0
./expes/v2_2020-11-09_3bh_200-prng-1,30_base_hphc_200,200,first-200,101,rng,num-start-51,51,17520,1000.8882522583008,False,,False,0,True,1000,True,0.0
./expes/v2_2020-11-09_3bh_200-prng-1,30_base_hphc_200,200,first-200,71,rng,num-start-731,731,17520,14.433025121688843,True,,True,1,False,1000,True,1.0
./expes/v2_2020-11-09_3bh_200-prng-1,30_base_hphc_200,200,first-200,31,rng,num-start-21,21,17520,1001.1059880256653,False,,False,0,True,1000,True,0.0
./expes/v2_2020-11-09_3bh_200-prng-1,30_base_hphc_200,200,first-200,101,rng,num-start-711,711,17520,14.05704665184021,True,,True,1,False,1000,True,1.0
./expes/v2_2020-11-09_3bh_200-prng-1,30_base_hphc_200,200,first-200,191,rng,num-start-401,401,17520,6.419983625411987,True,,True,1,False,1000,True,1.0
./expes/v2_2020-11-09_3bh_200-prng-1,30_base_hphc_200,200,first-200,91,rng,num-start-951,951,17520,17.48037552833557,True,,True,1,False,1000,True,1.0
./expes/v2_2020-11-09_3bh_200-prng-1,30_base_hphc_200,200,first-200,81,rng,num-start-511,511,17520,9.48783278465271,True,,True,1,False,1000,True,1.0
./expes/v2_2020-11-09_3bh_200-prng-1,30_base_hphc_200,200,first-200,1,rng,num-start-131,131,17520,1.9505033493041992,True,,True,1,False,1000,True,1.0
./expes/v2_2020-11-09_3bh_200-prng-1,30_base_hphc_200,200,first-200,81,rng,num-start-601,601,17520,11.500199317932129,True,,True,1,False,1000,True,1.0
./expes/v2_2020-11-09_3bh_200-prng-1,30_base_hphc_200,200,first-200,1,rng,num-start-151,151,17520,2.249052047729492,True,,True,1,False,1000,True,1.0
./expes/v2_2020-11-09_3bh_200-prng-1,30_base_hphc_200,200,first-200,191,rng,num-start-401,401,17520,6.529096364974976,True,,True,1,False,1000,True,1.0
./expes/v2_2020-11-09_3bh_200-prng-1,30_base_hphc_200,200,first-200,121,rng,num-start-311,311,17520,6.065547943115234,True,,True,1,False,1000,True,1.0
./expes/v2_2020-11-09_3bh_200-prng-1,30_base_hphc_200,200,first-200,11,rng,num-start-81,81,17520,1.6864268779754639,True,,True,1,False,1000,True,1.0
./expes/v2_2020-11-09_3bh_200-prng-1,30_base_hphc_200,200,first-200,151,rng,num-start-211,211,17520,4.363296270370483,True,,True,1,False,1000,True,1.0
./expes/v2_2020-11-09_3bh_200-prng-1,30_base_hphc_200,200,first-200,51,rng,num-start-1,1,17520,0.030046463012695312,False,,False,2,False,1000,True,1.0
./expes/v2_2020-11-09_3bh_200-prng-1,30_base_hphc_200,200,first-200,81,rng,num-start-71,71,17520,582.6897766590118,True,,True,1,False,1000,True,1.0
./expes/v2_2020-11-09_3bh_200-prng-1,30_base_hphc_200,200,first-200,1,rng,num-start-841,841,17520,12.39232325553894,True,,True,1,False,1000,True,1.0
./expes/v2_2020-11-09_3bh_200-prng-1,30_base_hphc_200,200,first-200,101,rng,num-start-591,591,17520,11.715738773345947,True,,True,1,False,1000,True,1.0
./expes/v2_2020-11-09_3bh_200-prng-1,30_base_hphc_200,200,first-200,31,rng,num-start-721,721,17520,13.802546262741089,True,,True,1,False,1000,True,1.0
./expes/v2_2020-11-09_3bh_200-prng-1,30_base_hphc_200,200,first-200,21,rng,num-start-541,541,17520,10.615169048309326,True,,True,1,False,1000,True,1.0
./expes/v2_2020-11-09_3bh_200-prng-1,30_base_hphc_200,200,first-200,21,rng,num-start-151,151,17520,2.9795615673065186,True,,True,1,False,1000,True,1.0
./expes/v2_2020-11-09_3bh_200-prng-1,30_base_hphc_200,200,first-200,191,rng,num-start-901,901,17520,14.205035209655762,True,,True,1,False,1000,True,1.0
./expes/v2_2020-11-09_3bh_200-prng-1,30_base_hphc_200,200,first-200,131,rng,num-start-891,891,17520,16.508244276046753,True,,True,1,False,1000,True,1.0
./expes/v2_2020-11-09_3bh_200-prng-1,30_base_hphc_200,200,first-200,181,rng,num-start-781,781,17520,13.249040126800537,True,,True,1,False,1000,True,1.0
./expes/v2_2020-11-09_3bh_200-prng-1,30_base_hphc_200,200,first-200,41,rng,num-start-601,601,17520,11.322379112243652,True,,True,1,False,1000,True,1.0
./expes/v2_2020-11-09_3bh_200-prng-1,30_base_hphc_200,200,first-200,81,rng,num-start-661,661,17520,12.619977235794067,True,,True,1,False,1000,True,1.0
./expes/v2_2020-11-09_3bh_200-prng-1,30_base_hphc_200,200,first-200,171,rng,num-start-591,591,17520,10.332891464233398,True,,True,1,False,1000,True,1.0
./expes/v2_2020-11-09_3bh_200-prng-1,30_base_hphc_200,200,first-200,11,rng,num-start-991,991,17520,18.66716456413269,True,,True,1,False,1000,True,1.0
./expes/v2_2020-11-09_3bh_200-prng-1,30_base_hphc_200,200,first-200,161,rng,num-start-511,511,17520,9.453348636627197,True,,True,1,False,1000,True,1.0
./expes/v2_2020-11-09_3bh_200-prng-1,30_base_hphc_200,200,first-200,111,rng,num-start-321,321,17520,5.704102039337158,True,,True,1,False,1000,True,1.0
./expes/v2_2020-11-09_3bh_200-prng-1,30_base_hphc_200,200,first-200,181,rng,num-start-1,1,17520,0.022680044174194336,False,,False,2,False,1000,True,1.0
./expes/v2_2020-11-09_3bh_200-prng-1,30_base_hphc_200,200,first-200,41,rng,num-start-11,11,17520,1000.2112603187561,False,,False,0,True,1000,True,0.0
./expes/v2_2020-11-09_3bh_200-prng-1,30_base_hphc_200,200,first-200,171,rng,num-start-51,51,17520,3.5145483016967773,True,,True,1,False,1000,True,1.0
./expes/v2_2020-11-09_3bh_200-prng-1,30_base_hphc_200,200,first-200,21,rng,num-start-191,191,17520,3.8942105770111084,True,,True,1,False,1000,True,1.0
./expes/v2_2020-11-09_3bh_200-prng-1,30_base_hphc_200,200,first-200,181,rng,num-start-621,621,17520,11.268359899520874,True,,True,1,False,1000,True,1.0
./expes/v2_2020-11-09_3bh_200-prng-1,30_base_hphc_200,200,first-200,61,rng,num-start-641,641,17520,12.550452947616577,True,,True,1,False,1000,True,1.0
./expes/v2_2020-11-09_3bh_200-prng-1,30_base_hphc_200,200,first-200,11,rng,num-start-931,931,17520,16.903369188308716,True,,True,1,False,1000,True,1.0
./expes/v2_2020-11-09_3bh_200-prng-1,30_base_hphc_200,200,first-200,121,rng,num-start-761,761,17520,15.38840365409851,True,,True,1,False,1000,True,1.0
./expes/v2_2020-11-09_3bh_200-prng-1,30_base_hphc_200,200,first-200,101,rng,num-start-331,331,17520,6.225223779678345,True,,True,1,False,1000,True,1.0
./expes/v2_2020-11-09_3bh_200-prng-1,30_base_hphc_200,200,first-200,51,rng,num-start-311,311,17520,6.286802053451538,True,,True,1,False,1000,True,1.0
./expes/v2_2020-11-09_3bh_200-prng-1,30_base_hphc_200,200,first-200,121,rng,num-start-421,421,17520,7.367859125137329,True,,True,1,False,1000,True,1.0
./expes/v2_2020-11-09_3bh_200-prng-1,30_base_hphc_200,200,first-200,81,rng,num-start-521,521,17520,9.70367431640625,True,,True,1,False,1000,True,1.0
./expes/v2_2020-11-09_3bh_200-prng-1,30_base_hphc_200,200,first-200,31,rng,num-start-421,421,17520,7.561642169952393,True,,True,1,False,1000,True,1.0
./expes/v2_2020-11-09_3bh_200-prng-1,30_base_hphc_200,200,first-200,91,rng,num-start-561,561,17520,12.229127168655396,True,,True,1,False,1000,True,1.0
./expes/v2_2020-11-09_3bh_200-prng-1,30_base_hphc_200,200,first-200,101,rng,num-start-41,41,17520,1000.9297745227814,False,,False,0,True,1000,True,0.0
./expes/v2_2020-11-09_3bh_200-prng-1,30_base_hphc_200,200,first-200,141,rng,num-start-641,641,17520,11.255354166030884,True,,True,1,False,1000,True,1.0
./expes/v2_2020-11-09_3bh_200-prng-1,30_base_hphc_200,200,first-200,101,rng,num-start-111,111,17520,2.2536275386810303,True,,True,1,False,1000,True,1.0
./expes/v2_2020-11-09_3bh_200-prng-1,30_base_hphc_200,200,first-200,121,rng,num-start-141,141,17520,2.919621706008911,True,,True,1,False,1000,True,1.0
./expes/v2_2020-11-09_3bh_200-prng-1,30_base_hphc_200,200,first-200,131,rng,num-start-191,191,17520,3.9937093257904053,True,,True,1,False,1000,True,1.0
./expes/v2_2020-11-09_3bh_200-prng-1,30_base_hphc_200,200,first-200,11,rng,num-start-271,271,17520,4.997814893722534,True,,True,1,False,1000,True,1.0
./expes/v2_2020-11-09_3bh_200-prng-1,30_base_hphc_200,200,first-200,101,rng,num-start-721,721,17520,13.55087423324585,True,,True,1,False,1000,True,1.0
./expes/v2_2020-11-09_3bh_200-prng-1,30_base_hphc_200,200,first-200,181,rng,num-start-531,531,17520,9.042778730392456,True,,True,1,False,1000,True,1.0
./expes/v2_2020-11-09_3bh_200-prng-1,30_base_hphc_200,200,first-200,91,rng,num-start-491,491,17520,9.14692997932434,True,,True,1,False,1000,True,1.0
./expes/v2_2020-11-09_3bh_200-prng-1,30_base_hphc_200,200,first-200,161,rng,num-start-731,731,17520,13.28558611869812,True,,True,1,False,1000,True,1.0
./expes/v2_2020-11-09_3bh_200-prng-1,30_base_hphc_200,200,first-200,141,rng,num-start-961,961,17520,16.137534618377686,True,,True,1,False,1000,True,1.0
./expes/v2_2020-11-09_3bh_200-prng-1,30_base_hphc_200,200,first-200,41,rng,num-start-701,701,17520,13.248288631439209,True,,True,1,False,1000,True,1.0
./expes/v2_2020-11-09_3bh_200-prng-1,30_base_hphc_200,200,first-200,101,rng,num-start-21,21,17520,1000.4585483074188,False,,False,0,True,1000,True,0.0
./expes/v2_2020-11-09_3bh_200-prng-1,30_base_hphc_200,200,first-200,21,rng,num-start-791,791,17520,15.564462184906006,True,,True,1,False,1000,True,1.0
./expes/v2_2020-11-09_3bh_200-prng-1,30_base_hphc_200,200,first-200,101,rng,num-start-721,721,17520,14.609204530715942,True,,True,1,False,1000,True,1.0
./expes/v2_2020-11-09_3bh_200-prng-1,30_base_hphc_200,200,first-200,1,rng,num-start-81,81,17520,1.188861608505249,True,,True,1,False,1000,True,1.0
./expes/v2_2020-11-09_3bh_200-prng-1,30_base_hphc_200,200,first-200,61,rng,num-start-911,911,17520,18.894137382507324,True,,True,1,False,1000,True,1.0
./expes/v2_2020-11-09_3bh_200-prng-1,30_base_hphc_200,200,first-200,131,rng,num-start-581,581,17520,10.853821754455566,True,,True,1,False,1000,True,1.0
./expes/v2_2020-11-09_3bh_200-prng-1,30_base_hphc_200,200,first-200,161,rng,num-start-631,631,17520,11.384718656539917,True,,True,1,False,1000,True,1.0
./expes/v2_2020-11-09_3bh_200-prng-1,30_base_hphc_200,200,first-200,11,rng,num-start-251,251,17520,4.859176397323608,True,,True,1,False,1000,True,1.0
./expes/v2_2020-11-09_3bh_200-prng-1,30_base_hphc_200,200,first-200,141,rng,num-start-751,751,17520,13.44738483428955,True,,True,1,False,1000,True,1.0
./expes/v2_2020-11-09_3bh_200-prng-1,30_base_hphc_200,200,first-200,181,rng,num-start-471,471,17520,7.805320501327515,True,,True,1,False,1000,True,1.0
./expes/v2_2020-11-09_3bh_200-prng-1,30_base_hphc_200,200,first-200,151,rng,num-start-761,761,17520,13.755924940109253,True,,True,1,False,1000,True,1.0
./expes/v2_2020-11-09_3bh_200-prng-1,30_base_hphc_200,200,first-200,81,rng,num-start-981,981,17520,18.238484859466553,True,,True,1,False,1000,True,1.0
./expes/v2_2020-11-09_3bh_200-prng-1,30_base_hphc_200,200,first-200,191,rng,num-start-801,801,17520,13.090260982513428,True,,True,1,False,1000,True,1.0
./expes/v2_2020-11-09_3bh_200-prng-1,30_base_hphc_200,200,first-200,21,rng,num-start-831,831,17520,16.072099208831787,True,,True,1,False,1000,True,1.0
./expes/v2_2020-11-09_3bh_200-prng-1,30_base_hphc_200,200,first-200,31,rng,num-start-431,431,17520,8.17122483253479,True,,True,1,False,1000,True,1.0
./expes/v2_2020-11-09_3bh_200-prng-1,30_base_hphc_200,200,first-200,41,rng,num-start-51,51,17520,502.64618015289307,True,,True,1,False,1000,True,1.0
./expes/v2_2020-11-09_3bh_200-prng-1,30_base_hphc_200,200,first-200,51,rng,num-start-941,941,17520,18.454453229904175,True,,True,1,False,1000,True,1.0
./expes/v2_2020-11-09_3bh_200-prng-1,30_base_hphc_200,200,first-200,181,rng,num-start-941,941,17520,17.178717136383057,True,,True,1,False,1000,True,1.0
./expes/v2_2020-11-09_3bh_200-prng-1,30_base_hphc_200,200,first-200,141,rng,num-start-401,401,17520,7.425823926925659,True,,True,1,False,1000,True,1.0
./expes/v2_2020-11-09_3bh_200-prng-1,30_base_hphc_200,200,first-200,91,rng,num-start-41,41,17520,1000.700971364975,False,,False,0,True,1000,True,0.0
./expes/v2_2020-11-09_3bh_200-prng-1,30_base_hphc_200,200,first-200,91,rng,num-start-751,751,17520,14.798999547958374,True,,True,1,False,1000,True,1.0
./expes/v2_2020-11-09_3bh_200-prng-1,30_base_hphc_200,200,first-200,81,rng,num-start-891,891,17520,16.179708003997803,True,,True,1,False,1000,True,1.0
./expes/v2_2020-11-09_3bh_200-prng-1,30_base_hphc_200,200,first-200,151,rng,num-start-981,981,17520,18.02630090713501,True,,True,1,False,1000,True,1.0
./expes/v2_2020-11-09_3bh_200-prng-1,30_base_hphc_200,200,first-200,181,rng,num-start-1,1,17520,0.028688669204711914,False,,False,2,False,1000,True,1.0
./expes/v2_2020-11-09_3bh_200-prng-1,30_base_hphc_200,200,first-200,91,rng,num-start-381,381,17520,7.740988731384277,True,,True,1,False,1000,True,1.0
./expes/v2_2020-11-09_3bh_200-prng-1,30_base_hphc_200,200,first-200,61,rng,num-start-861,861,17520,15.573915958404541,True,,True,1,False,1000,True,1.0
./expes/v2_2020-11-09_3bh_200-prng-1,30_base_hphc_200,200,first-200,111,rng,num-start-601,601,17520,11.389663219451904,True,,True,1,False,1000,True,1.0
./expes/v2_2020-11-09_3bh_200-prng-1,30_base_hphc_200,200,first-200,31,rng,num-start-271,271,17520,5.0669543743133545,True,,True,1,False,1000,True,1.0
./expes/v2_2020-11-09_3bh_200-prng-1,30_base_hphc_200,200,first-200,171,rng,num-start-151,151,17520,2.988374948501587,True,,True,1,False,1000,True,1.0
./expes/v2_2020-11-09_3bh_200-prng-1,30_base_hphc_200,200,first-200,31,rng,num-start-401,401,17520,7.778197765350342,True,,True,1,False,1000,True,1.0
./expes/v2_2020-11-09_3bh_200-prng-1,30_base_hphc_200,200,first-200,1,rng,num-start-1,1,17520,0.02302408218383789,False,,False,2,False,1000,True,1.0
./expes/v2_2020-11-09_3bh_200-prng-1,30_base_hphc_200,200,first-200,101,rng,num-start-771,771,17520,14.816775560379028,True,,True,1,False,1000,True,1.0
./expes/v2_2020-11-09_3bh_200-prng-1,30_base_hphc_200,200,first-200,71,rng,num-start-371,371,17520,7.142149209976196,True,,True,1,False,1000,True,1.0
./expes/v2_2020-11-09_3bh_200-prng-1,30_base_hphc_200,200,first-200,1,rng,num-start-11,11,17520,0.1655259132385254,True,,True,1,False,1000,True,1.0
./expes/v2_2020-11-09_3bh_200-prng-1,30_base_hphc_200,200,first-200,81,rng,num-start-621,621,17520,13.129907369613647,True,,True,1,False,1000,True,1.0
./expes/v2_2020-11-09_3bh_200-prng-1,30_base_hphc_200,200,first-200,71,rng,num-start-131,131,17520,2.45196270942688,True,,True,1,False,1000,True,1.0
./expes/v2_2020-11-09_3bh_200-prng-1,30_base_hphc_200,200,first-200,31,rng,num-start-761,761,17520,14.146809101104736,True,,True,1,False,1000,True,1.0
./expes/v2_2020-11-09_3bh_200-prng-1,30_base_hphc_200,200,first-200,171,rng,num-start-851,851,17520,15.282267332077026,True,,True,1,False,1000,True,1.0
./expes/v2_2020-11-09_3bh_200-prng-1,30_base_hphc_200,200,first-200,161,rng,num-start-531,531,17520,9.41466999053955,True,,True,1,False,1000,True,1.0
./expes/v2_2020-11-09_3bh_200-prng-1,30_base_hphc_200,200,first-200,151,rng,num-start-361,361,17520,6.9674437046051025,True,,True,1,False,1000,True,1.0
./expes/v2_2020-11-09_3bh_200-prng-1,30_base_hphc_200,200,first-200,51,rng,num-start-21,21,17520,1000.430093050003,False,,False,0,True,1000,True,0.0
./expes/v2_2020-11-09_3bh_200-prng-1,30_base_hphc_200,200,first-200,111,rng,num-start-521,521,17520,9.804524183273315,True,,True,1,False,1000,True,1.0
./expes/v2_2020-11-09_3bh_200-prng-1,30_base_hphc_200,200,first-200,51,rng,num-start-741,741,17520,14.520230770111084,True,,True,1,False,1000,True,1.0
./expes/v2_2020-11-09_3bh_200-prng-1,30_base_hphc_200,200,first-200,71,rng,num-start-191,191,17520,3.7324700355529785,True,,True,1,False,1000,True,1.0
