expe,clients,clients_size,clients_subset,agg_size,method,days,days_size,days_total,time,valid,valid_sum,success,nsols,wall_hit,wall_time,pooled,valid_sums
./expes/v2_2020-11-09_3bh_200-prng-1,30_base_hphc_200,200,first-200,21,rng,num-start-151,151,17520,3.088803291320801,True,,True,1,False,1000,True,1.0
./expes/v2_2020-11-09_3bh_200-prng-1,30_base_hphc_200,200,first-200,101,rng,num-start-61,61,17520,1001.0542647838593,False,,False,0,True,1000,True,0.0
./expes/v2_2020-11-09_3bh_200-prng-1,30_base_hphc_200,200,first-200,111,rng,num-start-671,671,17520,13.025277853012085,True,,True,1,False,1000,True,1.0
./expes/v2_2020-11-09_3bh_200-prng-1,30_base_hphc_200,200,first-200,151,rng,num-start-281,281,17520,4.996529817581177,True,,True,1,False,1000,True,1.0
./expes/v2_2020-11-09_3bh_200-prng-1,30_base_hphc_200,200,first-200,141,rng,num-start-331,331,17520,5.903810262680054,True,,True,1,False,1000,True,1.0
./expes/v2_2020-11-09_3bh_200-prng-1,30_base_hphc_200,200,first-200,181,rng,num-start-551,551,17520,10.236747026443481,True,,True,1,False,1000,True,1.0
./expes/v2_2020-11-09_3bh_200-prng-1,30_base_hphc_200,200,first-200,171,rng,num-start-671,671,17520,11.324928283691406,True,,True,1,False,1000,True,1.0
./expes/v2_2020-11-09_3bh_200-prng-1,30_base_hphc_200,200,first-200,151,rng,num-start-651,651,17520,12.933500051498413,True,,True,1,False,1000,True,1.0
./expes/v2_2020-11-09_3bh_200-prng-1,30_base_hphc_200,200,first-200,31,rng,num-start-401,401,17520,7.600173473358154,True,,True,1,False,1000,True,1.0
./expes/v2_2020-11-09_3bh_200-prng-1,30_base_hphc_200,200,first-200,101,rng,num-start-421,421,17520,8.697647333145142,True,,True,1,False,1000,True,1.0
./expes/v2_2020-11-09_3bh_200-prng-1,30_base_hphc_200,200,first-200,171,rng,num-start-651,651,17520,10.899253129959106,True,,True,1,False,1000,True,1.0
./expes/v2_2020-11-09_3bh_200-prng-1,30_base_hphc_200,200,first-200,61,rng,num-start-501,501,17520,9.279776334762573,True,,True,1,False,1000,True,1.0
./expes/v2_2020-11-09_3bh_200-prng-1,30_base_hphc_200,200,first-200,41,rng,num-start-921,921,17520,16.96501898765564,True,,True,1,False,1000,True,1.0
./expes/v2_2020-11-09_3bh_200-prng-1,30_base_hphc_200,200,first-200,151,rng,num-start-831,831,17520,14.724582195281982,True,,True,1,False,1000,True,1.0
./expes/v2_2020-11-09_3bh_200-prng-1,30_base_hphc_200,200,first-200,41,rng,num-start-581,581,17520,11.182075023651123,True,,True,1,False,1000,True,1.0
./expes/v2_2020-11-09_3bh_200-prng-1,30_base_hphc_200,200,first-200,131,rng,num-start-561,561,17520,10.9473237991333,True,,True,1,False,1000,True,1.0
./expes/v2_2020-11-09_3bh_200-prng-1,30_base_hphc_200,200,first-200,31,rng,num-start-471,471,17520,8.917006492614746,True,,True,1,False,1000,True,1.0
./expes/v2_2020-11-09_3bh_200-prng-1,30_base_hphc_200,200,first-200,71,rng,num-start-541,541,17520,10.893908262252808,True,,True,1,False,1000,True,1.0
./expes/v2_2020-11-09_3bh_200-prng-1,30_base_hphc_200,200,first-200,181,rng,num-start-681,681,17520,12.735090494155884,True,,True,1,False,1000,True,1.0
./expes/v2_2020-11-09_3bh_200-prng-1,30_base_hphc_200,200,first-200,71,rng,num-start-761,761,17520,13.556212186813354,True,,True,1,False,1000,True,1.0
./expes/v2_2020-11-09_3bh_200-prng-1,30_base_hphc_200,200,first-200,151,rng,num-start-321,321,17520,5.699715614318848,True,,True,1,False,1000,True,1.0
./expes/v2_2020-11-09_3bh_200-prng-1,30_base_hphc_200,200,first-200,61,rng,num-start-201,201,17520,4.121596336364746,True,,True,1,False,1000,True,1.0
./expes/v2_2020-11-09_3bh_200-prng-1,30_base_hphc_200,200,first-200,71,rng,num-start-91,91,17520,2.2312300205230713,True,,True,1,False,1000,True,1.0
./expes/v2_2020-11-09_3bh_200-prng-1,30_base_hphc_200,200,first-200,131,rng,num-start-921,921,17520,17.40520405769348,True,,True,1,False,1000,True,1.0
./expes/v2_2020-11-09_3bh_200-prng-1,30_base_hphc_200,200,first-200,21,rng,num-start-421,421,17520,8.476304531097412,True,,True,1,False,1000,True,1.0
./expes/v2_2020-11-09_3bh_200-prng-1,30_base_hphc_200,200,first-200,191,rng,num-start-581,581,17520,10.047417640686035,True,,True,1,False,1000,True,1.0
./expes/v2_2020-11-09_3bh_200-prng-1,30_base_hphc_200,200,first-200,171,rng,num-start-811,811,17520,14.36652421951294,True,,True,1,False,1000,True,1.0
./expes/v2_2020-11-09_3bh_200-prng-1,30_base_hphc_200,200,first-200,81,rng,num-start-581,581,17520,11.302712440490723,True,,True,1,False,1000,True,1.0
./expes/v2_2020-11-09_3bh_200-prng-1,30_base_hphc_200,200,first-200,81,rng,num-start-81,81,17520,3.2838122844696045,True,,True,1,False,1000,True,1.0
./expes/v2_2020-11-09_3bh_200-prng-1,30_base_hphc_200,200,first-200,71,rng,num-start-151,151,17520,3.2857160568237305,True,,True,1,False,1000,True,1.0
./expes/v2_2020-11-09_3bh_200-prng-1,30_base_hphc_200,200,first-200,21,rng,num-start-821,821,17520,13.83007264137268,True,,True,1,False,1000,True,1.0
./expes/v2_2020-11-09_3bh_200-prng-1,30_base_hphc_200,200,first-200,171,rng,num-start-941,941,17520,17.788406372070312,True,,True,1,False,1000,True,1.0
./expes/v2_2020-11-09_3bh_200-prng-1,30_base_hphc_200,200,first-200,41,rng,num-start-611,611,17520,10.147675037384033,True,,True,1,False,1000,True,1.0
./expes/v2_2020-11-09_3bh_200-prng-1,30_base_hphc_200,200,first-200,1,rng,num-start-341,341,17520,4.87155818939209,True,,True,1,False,1000,True,1.0
./expes/v2_2020-11-09_3bh_200-prng-1,30_base_hphc_200,200,first-200,81,rng,num-start-331,331,17520,5.787522554397583,True,,True,1,False,1000,True,1.0
./expes/v2_2020-11-09_3bh_200-prng-1,30_base_hphc_200,200,first-200,41,rng,num-start-461,461,17520,8.971916437149048,True,,True,1,False,1000,True,1.0
./expes/v2_2020-11-09_3bh_200-prng-1,30_base_hphc_200,200,first-200,51,rng,num-start-621,621,17520,11.53310489654541,True,,True,1,False,1000,True,1.0
./expes/v2_2020-11-09_3bh_200-prng-1,30_base_hphc_200,200,first-200,151,rng,num-start-981,981,17520,16.380300283432007,True,,True,1,False,1000,True,1.0
./expes/v2_2020-11-09_3bh_200-prng-1,30_base_hphc_200,200,first-200,161,rng,num-start-951,951,17520,18.147465467453003,True,,True,1,False,1000,True,1.0
./expes/v2_2020-11-09_3bh_200-prng-1,30_base_hphc_200,200,first-200,161,rng,num-start-201,201,17520,4.155956745147705,True,,True,1,False,1000,True,1.0
./expes/v2_2020-11-09_3bh_200-prng-1,30_base_hphc_200,200,first-200,181,rng,num-start-701,701,17520,11.351186037063599,True,,True,1,False,1000,True,1.0
./expes/v2_2020-11-09_3bh_200-prng-1,30_base_hphc_200,200,first-200,81,rng,num-start-711,711,17520,12.812829494476318,True,,True,1,False,1000,True,1.0
./expes/v2_2020-11-09_3bh_200-prng-1,30_base_hphc_200,200,first-200,181,rng,num-start-631,631,17520,11.297407865524292,True,,True,1,False,1000,True,1.0
./expes/v2_2020-11-09_3bh_200-prng-1,30_base_hphc_200,200,first-200,171,rng,num-start-411,411,17520,7.700705528259277,True,,True,1,False,1000,True,1.0
./expes/v2_2020-11-09_3bh_200-prng-1,30_base_hphc_200,200,first-200,101,rng,num-start-871,871,17520,15.876807928085327,True,,True,1,False,1000,True,1.0
./expes/v2_2020-11-09_3bh_200-prng-1,30_base_hphc_200,200,first-200,61,rng,num-start-661,661,17520,13.638444662094116,True,,True,1,False,1000,True,1.0
./expes/v2_2020-11-09_3bh_200-prng-1,30_base_hphc_200,200,first-200,111,rng,num-start-661,661,17520,12.981769561767578,True,,True,1,False,1000,True,1.0
./expes/v2_2020-11-09_3bh_200-prng-1,30_base_hphc_200,200,first-200,101,rng,num-start-811,811,17520,14.436230659484863,True,,True,1,False,1000,True,1.0
./expes/v2_2020-11-09_3bh_200-prng-1,30_base_hphc_200,200,first-200,121,rng,num-start-681,681,17520,12.841638803482056,True,,True,1,False,1000,True,1.0
./expes/v2_2020-11-09_3bh_200-prng-1,30_base_hphc_200,200,first-200,181,rng,num-start-551,551,17520,9.986502408981323,True,,True,1,False,1000,True,1.0
./expes/v2_2020-11-09_3bh_200-prng-1,30_base_hphc_200,200,first-200,181,rng,num-start-961,961,17520,18.96744465827942,True,,True,1,False,1000,True,1.0
./expes/v2_2020-11-09_3bh_200-prng-1,30_base_hphc_200,200,first-200,141,rng,num-start-121,121,17520,2.8605785369873047,True,,True,1,False,1000,True,1.0
./expes/v2_2020-11-09_3bh_200-prng-1,30_base_hphc_200,200,first-200,71,rng,num-start-451,451,17520,8.478659391403198,True,,True,1,False,1000,True,1.0
./expes/v2_2020-11-09_3bh_200-prng-1,30_base_hphc_200,200,first-200,71,rng,num-start-501,501,17520,9.377637386322021,True,,True,1,False,1000,True,1.0
./expes/v2_2020-11-09_3bh_200-prng-1,30_base_hphc_200,200,first-200,61,rng,num-start-301,301,17520,5.9726481437683105,True,,True,1,False,1000,True,1.0
./expes/v2_2020-11-09_3bh_200-prng-1,30_base_hphc_200,200,first-200,101,rng,num-start-131,131,17520,2.7957115173339844,True,,True,1,False,1000,True,1.0
./expes/v2_2020-11-09_3bh_200-prng-1,30_base_hphc_200,200,first-200,121,rng,num-start-131,131,17520,2.897925615310669,True,,True,1,False,1000,True,1.0
./expes/v2_2020-11-09_3bh_200-prng-1,30_base_hphc_200,200,first-200,21,rng,num-start-91,91,17520,2.043900489807129,True,,True,1,False,1000,True,1.0
./expes/v2_2020-11-09_3bh_200-prng-1,30_base_hphc_200,200,first-200,1,rng,num-start-931,931,17520,13.757124900817871,True,,True,1,False,1000,True,1.0
./expes/v2_2020-11-09_3bh_200-prng-1,30_base_hphc_200,200,first-200,111,rng,num-start-591,591,17520,11.143006324768066,True,,True,1,False,1000,True,1.0
./expes/v2_2020-11-09_3bh_200-prng-1,30_base_hphc_200,200,first-200,71,rng,num-start-1,1,17520,0.03255629539489746,False,,False,2,False,1000,True,1.0
./expes/v2_2020-11-09_3bh_200-prng-1,30_base_hphc_200,200,first-200,51,rng,num-start-961,961,17520,16.287811040878296,True,,True,1,False,1000,True,1.0
./expes/v2_2020-11-09_3bh_200-prng-1,30_base_hphc_200,200,first-200,141,rng,num-start-241,241,17520,4.897348403930664,True,,True,1,False,1000,True,1.0
./expes/v2_2020-11-09_3bh_200-prng-1,30_base_hphc_200,200,first-200,151,rng,num-start-101,101,17520,2.075753927230835,True,,True,1,False,1000,True,1.0
./expes/v2_2020-11-09_3bh_200-prng-1,30_base_hphc_200,200,first-200,191,rng,num-start-611,611,17520,10.060895919799805,True,,True,1,False,1000,True,1.0
./expes/v2_2020-11-09_3bh_200-prng-1,30_base_hphc_200,200,first-200,1,rng,num-start-521,521,17520,7.740204334259033,True,,True,1,False,1000,True,1.0
./expes/v2_2020-11-09_3bh_200-prng-1,30_base_hphc_200,200,first-200,181,rng,num-start-301,301,17520,5.357292413711548,True,,True,1,False,1000,True,1.0
./expes/v2_2020-11-09_3bh_200-prng-1,30_base_hphc_200,200,first-200,81,rng,num-start-521,521,17520,10.285672664642334,True,,True,1,False,1000,True,1.0
./expes/v2_2020-11-09_3bh_200-prng-1,30_base_hphc_200,200,first-200,91,rng,num-start-391,391,17520,7.508758544921875,True,,True,1,False,1000,True,1.0
./expes/v2_2020-11-09_3bh_200-prng-1,30_base_hphc_200,200,first-200,151,rng,num-start-551,551,17520,10.282088279724121,True,,True,1,False,1000,True,1.0
./expes/v2_2020-11-09_3bh_200-prng-1,30_base_hphc_200,200,first-200,101,rng,num-start-211,211,17520,4.50754189491272,True,,True,1,False,1000,True,1.0
./expes/v2_2020-11-09_3bh_200-prng-1,30_base_hphc_200,200,first-200,11,rng,num-start-851,851,17520,13.467641592025757,True,,True,1,False,1000,True,1.0
./expes/v2_2020-11-09_3bh_200-prng-1,30_base_hphc_200,200,first-200,131,rng,num-start-741,741,17520,13.721919775009155,True,,True,1,False,1000,True,1.0
./expes/v2_2020-11-09_3bh_200-prng-1,30_base_hphc_200,200,first-200,91,rng,num-start-551,551,17520,11.189457893371582,True,,True,1,False,1000,True,1.0
./expes/v2_2020-11-09_3bh_200-prng-1,30_base_hphc_200,200,first-200,111,rng,num-start-231,231,17520,4.957543849945068,True,,True,1,False,1000,True,1.0
./expes/v2_2020-11-09_3bh_200-prng-1,30_base_hphc_200,200,first-200,171,rng,num-start-911,911,17520,16.30956244468689,True,,True,1,False,1000,True,1.0
./expes/v2_2020-11-09_3bh_200-prng-1,30_base_hphc_200,200,first-200,191,rng,num-start-721,721,17520,11.678016901016235,True,,True,1,False,1000,True,1.0
./expes/v2_2020-11-09_3bh_200-prng-1,30_base_hphc_200,200,first-200,61,rng,num-start-591,591,17520,11.007959365844727,True,,True,1,False,1000,True,1.0
./expes/v2_2020-11-09_3bh_200-prng-1,30_base_hphc_200,200,first-200,21,rng,num-start-571,571,17520,11.370641231536865,True,,True,1,False,1000,True,1.0
./expes/v2_2020-11-09_3bh_200-prng-1,30_base_hphc_200,200,first-200,71,rng,num-start-611,611,17520,12.158658027648926,True,,True,1,False,1000,True,1.0
./expes/v2_2020-11-09_3bh_200-prng-1,30_base_hphc_200,200,first-200,41,rng,num-start-621,621,17520,12.099847793579102,True,,True,1,False,1000,True,1.0
./expes/v2_2020-11-09_3bh_200-prng-1,30_base_hphc_200,200,first-200,171,rng,num-start-501,501,17520,8.763983249664307,True,,True,1,False,1000,True,1.0
./expes/v2_2020-11-09_3bh_200-prng-1,30_base_hphc_200,200,first-200,111,rng,num-start-601,601,17520,11.731767416000366,True,,True,1,False,1000,True,1.0
./expes/v2_2020-11-09_3bh_200-prng-1,30_base_hphc_200,200,first-200,81,rng,num-start-621,621,17520,11.677110195159912,True,,True,1,False,1000,True,1.0
./expes/v2_2020-11-09_3bh_200-prng-1,30_base_hphc_200,200,first-200,111,rng,num-start-361,361,17520,6.905296087265015,True,,True,1,False,1000,True,1.0
./expes/v2_2020-11-09_3bh_200-prng-1,30_base_hphc_200,200,first-200,81,rng,num-start-791,791,17520,16.28219985961914,True,,True,1,False,1000,True,1.0
./expes/v2_2020-11-09_3bh_200-prng-1,30_base_hphc_200,200,first-200,91,rng,num-start-861,861,17520,14.889162302017212,True,,True,1,False,1000,True,1.0
./expes/v2_2020-11-09_3bh_200-prng-1,30_base_hphc_200,200,first-200,91,rng,num-start-391,391,17520,7.185755729675293,True,,True,1,False,1000,True,1.0
./expes/v2_2020-11-09_3bh_200-prng-1,30_base_hphc_200,200,first-200,51,rng,num-start-321,321,17520,6.084239482879639,True,,True,1,False,1000,True,1.0
./expes/v2_2020-11-09_3bh_200-prng-1,30_base_hphc_200,200,first-200,151,rng,num-start-651,651,17520,11.973314046859741,True,,True,1,False,1000,True,1.0
./expes/v2_2020-11-09_3bh_200-prng-1,30_base_hphc_200,200,first-200,61,rng,num-start-361,361,17520,6.769927501678467,True,,True,1,False,1000,True,1.0
./expes/v2_2020-11-09_3bh_200-prng-1,30_base_hphc_200,200,first-200,141,rng,num-start-581,581,17520,11.289504289627075,True,,True,1,False,1000,True,1.0
./expes/v2_2020-11-09_3bh_200-prng-1,30_base_hphc_200,200,first-200,101,rng,num-start-211,211,17520,4.566426038742065,True,,True,1,False,1000,True,1.0
./expes/v2_2020-11-09_3bh_200-prng-1,30_base_hphc_200,200,first-200,141,rng,num-start-571,571,17520,10.155170440673828,True,,True,1,False,1000,True,1.0
./expes/v2_2020-11-09_3bh_200-prng-1,30_base_hphc_200,200,first-200,181,rng,num-start-631,631,17520,12.168727397918701,True,,True,1,False,1000,True,1.0
./expes/v2_2020-11-09_3bh_200-prng-1,30_base_hphc_200,200,first-200,41,rng,num-start-811,811,17520,14.108716487884521,True,,True,1,False,1000,True,1.0
./expes/v2_2020-11-09_3bh_200-prng-1,30_base_hphc_200,200,first-200,61,rng,num-start-71,71,17520,3.015171527862549,True,,True,1,False,1000,True,1.0
./expes/v2_2020-11-09_3bh_200-prng-1,30_base_hphc_200,200,first-200,11,rng,num-start-741,741,17520,14.511642456054688,True,,True,1,False,1000,True,1.0
./expes/v2_2020-11-09_3bh_200-prng-1,30_base_hphc_200,200,first-200,151,rng,num-start-671,671,17520,12.405242919921875,True,,True,1,False,1000,True,1.0
./expes/v2_2020-11-09_3bh_200-prng-1,30_base_hphc_200,200,first-200,51,rng,num-start-811,811,17520,15.8667631149292,True,,True,1,False,1000,True,1.0
./expes/v2_2020-11-09_3bh_200-prng-1,30_base_hphc_200,200,first-200,31,rng,num-start-621,621,17520,11.898974895477295,True,,True,1,False,1000,True,1.0
./expes/v2_2020-11-09_3bh_200-prng-1,30_base_hphc_200,200,first-200,111,rng,num-start-641,641,17520,12.831822633743286,True,,True,1,False,1000,True,1.0
./expes/v2_2020-11-09_3bh_200-prng-1,30_base_hphc_200,200,first-200,191,rng,num-start-81,81,17520,1.4938075542449951,True,,True,1,False,1000,True,1.0
./expes/v2_2020-11-09_3bh_200-prng-1,30_base_hphc_200,200,first-200,101,rng,num-start-671,671,17520,13.328359842300415,True,,True,1,False,1000,True,1.0
./expes/v2_2020-11-09_3bh_200-prng-1,30_base_hphc_200,200,first-200,91,rng,num-start-21,21,17520,1000.4885647296906,False,,False,0,True,1000,True,0.0
./expes/v2_2020-11-09_3bh_200-prng-1,30_base_hphc_200,200,first-200,71,rng,num-start-991,991,17520,19.639362335205078,True,,True,1,False,1000,True,1.0
./expes/v2_2020-11-09_3bh_200-prng-1,30_base_hphc_200,200,first-200,71,rng,num-start-821,821,17520,15.321962356567383,True,,True,1,False,1000,True,1.0
./expes/v2_2020-11-09_3bh_200-prng-1,30_base_hphc_200,200,first-200,141,rng,num-start-691,691,17520,12.538732767105103,True,,True,1,False,1000,True,1.0
./expes/v2_2020-11-09_3bh_200-prng-1,30_base_hphc_200,200,first-200,141,rng,num-start-321,321,17520,5.954302787780762,True,,True,1,False,1000,True,1.0
./expes/v2_2020-11-09_3bh_200-prng-1,30_base_hphc_200,200,first-200,51,rng,num-start-61,61,17520,29.546284437179565,True,,True,1,False,1000,True,1.0
./expes/v2_2020-11-09_3bh_200-prng-1,30_base_hphc_200,200,first-200,21,rng,num-start-431,431,17520,8.218379020690918,True,,True,1,False,1000,True,1.0
./expes/v2_2020-11-09_3bh_200-prng-1,30_base_hphc_200,200,first-200,151,rng,num-start-231,231,17520,4.64344334602356,True,,True,1,False,1000,True,1.0
./expes/v2_2020-11-09_3bh_200-prng-1,30_base_hphc_200,200,first-200,111,rng,num-start-861,861,17520,16.195390224456787,True,,True,1,False,1000,True,1.0
./expes/v2_2020-11-09_3bh_200-prng-1,30_base_hphc_200,200,first-200,111,rng,num-start-171,171,17520,3.4850876331329346,True,,True,1,False,1000,True,1.0
./expes/v2_2020-11-09_3bh_200-prng-1,30_base_hphc_200,200,first-200,51,rng,num-start-561,561,17520,10.599800109863281,True,,True,1,False,1000,True,1.0
./expes/v2_2020-11-09_3bh_200-prng-1,30_base_hphc_200,200,first-200,121,rng,num-start-921,921,17520,16.4092435836792,True,,True,1,False,1000,True,1.0
./expes/v2_2020-11-09_3bh_200-prng-1,30_base_hphc_200,200,first-200,111,rng,num-start-921,921,17520,17.902823448181152,True,,True,1,False,1000,True,1.0
./expes/v2_2020-11-09_3bh_200-prng-1,30_base_hphc_200,200,first-200,61,rng,num-start-411,411,17520,7.6750264167785645,True,,True,1,False,1000,True,1.0
./expes/v2_2020-11-09_3bh_200-prng-1,30_base_hphc_200,200,first-200,11,rng,num-start-251,251,17520,4.6279003620147705,True,,True,1,False,1000,True,1.0
./expes/v2_2020-11-09_3bh_200-prng-1,30_base_hphc_200,200,first-200,181,rng,num-start-1,1,17520,0.023529529571533203,False,,False,2,False,1000,True,1.0
./expes/v2_2020-11-09_3bh_200-prng-1,30_base_hphc_200,200,first-200,41,rng,num-start-521,521,17520,11.165136337280273,True,,True,1,False,1000,True,1.0
./expes/v2_2020-11-09_3bh_200-prng-1,30_base_hphc_200,200,first-200,181,rng,num-start-211,211,17520,3.7979750633239746,True,,True,1,False,1000,True,1.0
./expes/v2_2020-11-09_3bh_200-prng-1,30_base_hphc_200,200,first-200,11,rng,num-start-691,691,17520,11.498850107192993,True,,True,1,False,1000,True,1.0
./expes/v2_2020-11-09_3bh_200-prng-1,30_base_hphc_200,200,first-200,181,rng,num-start-611,611,17520,10.870398998260498,True,,True,1,False,1000,True,1.0
./expes/v2_2020-11-09_3bh_200-prng-1,30_base_hphc_200,200,first-200,101,rng,num-start-951,951,17520,18.99436926841736,True,,True,1,False,1000,True,1.0
./expes/v2_2020-11-09_3bh_200-prng-1,30_base_hphc_200,200,first-200,31,rng,num-start-1,1,17520,0.02847886085510254,False,,False,2,False,1000,True,1.0
./expes/v2_2020-11-09_3bh_200-prng-1,30_base_hphc_200,200,first-200,61,rng,num-start-421,421,17520,8.227327823638916,True,,True,1,False,1000,True,1.0
./expes/v2_2020-11-09_3bh_200-prng-1,30_base_hphc_200,200,first-200,151,rng,num-start-611,611,17520,11.914074659347534,True,,True,1,False,1000,True,1.0
./expes/v2_2020-11-09_3bh_200-prng-1,30_base_hphc_200,200,first-200,11,rng,num-start-361,361,17520,6.496275424957275,True,,True,1,False,1000,True,1.0
./expes/v2_2020-11-09_3bh_200-prng-1,30_base_hphc_200,200,first-200,111,rng,num-start-151,151,17520,3.1207354068756104,True,,True,1,False,1000,True,1.0
./expes/v2_2020-11-09_3bh_200-prng-1,30_base_hphc_200,200,first-200,181,rng,num-start-241,241,17520,4.351573705673218,True,,True,1,False,1000,True,1.0
./expes/v2_2020-11-09_3bh_200-prng-1,30_base_hphc_200,200,first-200,91,rng,num-start-451,451,17520,8.844878435134888,True,,True,1,False,1000,True,1.0
./expes/v2_2020-11-09_3bh_200-prng-1,30_base_hphc_200,200,first-200,81,rng,num-start-211,211,17520,4.482562303543091,True,,True,1,False,1000,True,1.0
./expes/v2_2020-11-09_3bh_200-prng-1,30_base_hphc_200,200,first-200,11,rng,num-start-311,311,17520,5.34935736656189,True,,True,1,False,1000,True,1.0
./expes/v2_2020-11-09_3bh_200-prng-1,30_base_hphc_200,200,first-200,151,rng,num-start-191,191,17520,4.101731777191162,True,,True,1,False,1000,True,1.0
./expes/v2_2020-11-09_3bh_200-prng-1,30_base_hphc_200,200,first-200,11,rng,num-start-541,541,17520,9.469877481460571,True,,True,1,False,1000,True,1.0
./expes/v2_2020-11-09_3bh_200-prng-1,30_base_hphc_200,200,first-200,71,rng,num-start-711,711,17520,14.107322216033936,True,,True,1,False,1000,True,1.0
./expes/v2_2020-11-09_3bh_200-prng-1,30_base_hphc_200,200,first-200,71,rng,num-start-981,981,17520,18.315592527389526,True,,True,1,False,1000,True,1.0
./expes/v2_2020-11-09_3bh_200-prng-1,30_base_hphc_200,200,first-200,101,rng,num-start-611,611,17520,11.625889778137207,True,,True,1,False,1000,True,1.0
./expes/v2_2020-11-09_3bh_200-prng-1,30_base_hphc_200,200,first-200,91,rng,num-start-681,681,17520,12.070466041564941,True,,True,1,False,1000,True,1.0
./expes/v2_2020-11-09_3bh_200-prng-1,30_base_hphc_200,200,first-200,151,rng,num-start-241,241,17520,4.566613674163818,True,,True,1,False,1000,True,1.0
./expes/v2_2020-11-09_3bh_200-prng-1,30_base_hphc_200,200,first-200,161,rng,num-start-201,201,17520,3.7516140937805176,True,,True,1,False,1000,True,1.0
./expes/v2_2020-11-09_3bh_200-prng-1,30_base_hphc_200,200,first-200,161,rng,num-start-691,691,17520,12.557833433151245,True,,True,1,False,1000,True,1.0
./expes/v2_2020-11-09_3bh_200-prng-1,30_base_hphc_200,200,first-200,11,rng,num-start-741,741,17520,11.94729495048523,True,,True,1,False,1000,True,1.0
./expes/v2_2020-11-09_3bh_200-prng-1,30_base_hphc_200,200,first-200,1,rng,num-start-941,941,17520,13.773211240768433,True,,True,1,False,1000,True,1.0
./expes/v2_2020-11-09_3bh_200-prng-1,30_base_hphc_200,200,first-200,91,rng,num-start-731,731,17520,13.057208061218262,True,,True,1,False,1000,True,1.0
./expes/v2_2020-11-09_3bh_200-prng-1,30_base_hphc_200,200,first-200,131,rng,num-start-531,531,17520,9.256410360336304,True,,True,1,False,1000,True,1.0
./expes/v2_2020-11-09_3bh_200-prng-1,30_base_hphc_200,200,first-200,181,rng,num-start-501,501,17520,8.506417512893677,True,,True,1,False,1000,True,1.0
./expes/v2_2020-11-09_3bh_200-prng-1,30_base_hphc_200,200,first-200,121,rng,num-start-931,931,17520,17.78517746925354,True,,True,1,False,1000,True,1.0
./expes/v2_2020-11-09_3bh_200-prng-1,30_base_hphc_200,200,first-200,141,rng,num-start-731,731,17520,13.013618230819702,True,,True,1,False,1000,True,1.0
./expes/v2_2020-11-09_3bh_200-prng-1,30_base_hphc_200,200,first-200,111,rng,num-start-941,941,17520,16.66827392578125,True,,True,1,False,1000,True,1.0
