expe,clients,clients_size,clients_subset,agg_size,method,days,days_size,days_total,time,valid,valid_sum,success,nsols,wall_hit,wall_time,pooled,valid_sums
./expes/v2_2020-11-09_3bh_200-prng-1,30_base_hphc_200,200,first-200,61,rng,num-start-741,741,17520,23.264951467514038,True,,True,1,False,1000,True,1.0
./expes/v2_2020-11-09_3bh_200-prng-1,30_base_hphc_200,200,first-200,81,rng,num-start-171,171,17520,5.264328479766846,True,,True,1,False,1000,True,1.0
./expes/v2_2020-11-09_3bh_200-prng-1,30_base_hphc_200,200,first-200,81,rng,num-start-61,61,17520,728.7168004512787,True,,True,1,False,1000,True,1.0
./expes/v2_2020-11-09_3bh_200-prng-1,30_base_hphc_200,200,first-200,121,rng,num-start-651,651,17520,19.51822328567505,True,,True,1,False,1000,True,1.0
./expes/v2_2020-11-09_3bh_200-prng-1,30_base_hphc_200,200,first-200,181,rng,num-start-461,461,17520,12.592917919158936,True,,True,1,False,1000,True,1.0
./expes/v2_2020-11-09_3bh_200-prng-1,30_base_hphc_200,200,first-200,131,rng,num-start-111,111,17520,3.324340343475342,True,,True,1,False,1000,True,1.0
./expes/v2_2020-11-09_3bh_200-prng-1,30_base_hphc_200,200,first-200,91,rng,num-start-621,621,17520,18.21055579185486,True,,True,1,False,1000,True,1.0
./expes/v2_2020-11-09_3bh_200-prng-1,30_base_hphc_200,200,first-200,111,rng,num-start-671,671,17520,19.869975566864014,True,,True,1,False,1000,True,1.0
./expes/v2_2020-11-09_3bh_200-prng-1,30_base_hphc_200,200,first-200,11,rng,num-start-141,141,17520,4.069135904312134,True,,True,1,False,1000,True,1.0
./expes/v2_2020-11-09_3bh_200-prng-1,30_base_hphc_200,200,first-200,1,rng,num-start-1,1,17520,0.05056881904602051,True,,False,2,False,1000,True,1.0
./expes/v2_2020-11-09_3bh_200-prng-1,30_base_hphc_200,200,first-200,191,rng,num-start-731,731,17520,19.230390071868896,True,,True,1,False,1000,True,1.0
./expes/v2_2020-11-09_3bh_200-prng-1,30_base_hphc_200,200,first-200,181,rng,num-start-861,861,17520,24.832996129989624,True,,True,1,False,1000,True,1.0
./expes/v2_2020-11-09_3bh_200-prng-1,30_base_hphc_200,200,first-200,111,rng,num-start-831,831,17520,27.228598833084106,True,,True,1,False,1000,True,1.0
./expes/v2_2020-11-09_3bh_200-prng-1,30_base_hphc_200,200,first-200,81,rng,num-start-421,421,17520,13.121918201446533,True,,True,1,False,1000,True,1.0
./expes/v2_2020-11-09_3bh_200-prng-1,30_base_hphc_200,200,first-200,1,rng,num-start-261,261,17520,6.4578375816345215,True,,True,1,False,1000,True,1.0
./expes/v2_2020-11-09_3bh_200-prng-1,30_base_hphc_200,200,first-200,41,rng,num-start-371,371,17520,11.064568042755127,True,,True,1,False,1000,True,1.0
./expes/v2_2020-11-09_3bh_200-prng-1,30_base_hphc_200,200,first-200,61,rng,num-start-411,411,17520,11.76351284980774,True,,True,1,False,1000,True,1.0
./expes/v2_2020-11-09_3bh_200-prng-1,30_base_hphc_200,200,first-200,121,rng,num-start-171,171,17520,4.967068910598755,True,,True,1,False,1000,True,1.0
./expes/v2_2020-11-09_3bh_200-prng-1,30_base_hphc_200,200,first-200,171,rng,num-start-91,91,17520,2.6678028106689453,True,,True,1,False,1000,True,1.0
./expes/v2_2020-11-09_3bh_200-prng-1,30_base_hphc_200,200,first-200,51,rng,num-start-911,911,17520,27.356194734573364,True,,True,1,False,1000,True,1.0
./expes/v2_2020-11-09_3bh_200-prng-1,30_base_hphc_200,200,first-200,71,rng,num-start-951,951,17520,29.2161808013916,True,,True,1,False,1000,True,1.0
./expes/v2_2020-11-09_3bh_200-prng-1,30_base_hphc_200,200,first-200,21,rng,num-start-511,511,17520,14.903047800064087,True,,True,1,False,1000,True,1.0
./expes/v2_2020-11-09_3bh_200-prng-1,30_base_hphc_200,200,first-200,31,rng,num-start-541,541,17520,15.1790189743042,True,,True,1,False,1000,True,1.0
./expes/v2_2020-11-09_3bh_200-prng-1,30_base_hphc_200,200,first-200,51,rng,num-start-881,881,17520,26.289435625076294,True,,True,1,False,1000,True,1.0
./expes/v2_2020-11-09_3bh_200-prng-1,30_base_hphc_200,200,first-200,171,rng,num-start-981,981,17520,30.234111070632935,True,,True,1,False,1000,True,1.0
./expes/v2_2020-11-09_3bh_200-prng-1,30_base_hphc_200,200,first-200,31,rng,num-start-991,991,17520,29.972941637039185,True,,True,1,False,1000,True,1.0
./expes/v2_2020-11-09_3bh_200-prng-1,30_base_hphc_200,200,first-200,81,rng,num-start-311,311,17520,8.973687410354614,True,,True,1,False,1000,True,1.0
./expes/v2_2020-11-09_3bh_200-prng-1,30_base_hphc_200,200,first-200,101,rng,num-start-881,881,17520,26.915724515914917,True,,True,1,False,1000,True,1.0
./expes/v2_2020-11-09_3bh_200-prng-1,30_base_hphc_200,200,first-200,101,rng,num-start-271,271,17520,7.978459596633911,True,,True,1,False,1000,True,1.0
./expes/v2_2020-11-09_3bh_200-prng-1,30_base_hphc_200,200,first-200,101,rng,num-start-281,281,17520,8.516958951950073,True,,True,1,False,1000,True,1.0
./expes/v2_2020-11-09_3bh_200-prng-1,30_base_hphc_200,200,first-200,181,rng,num-start-911,911,17520,25.461486339569092,True,,True,1,False,1000,True,1.0
./expes/v2_2020-11-09_3bh_200-prng-1,30_base_hphc_200,200,first-200,111,rng,num-start-971,971,17520,30.324438095092773,True,,True,1,False,1000,True,1.0
./expes/v2_2020-11-09_3bh_200-prng-1,30_base_hphc_200,200,first-200,181,rng,num-start-871,871,17520,25.44075083732605,True,,True,1,False,1000,True,1.0
./expes/v2_2020-11-09_3bh_200-prng-1,30_base_hphc_200,200,first-200,91,rng,num-start-451,451,17520,13.158003330230713,True,,True,1,False,1000,True,1.0
./expes/v2_2020-11-09_3bh_200-prng-1,30_base_hphc_200,200,first-200,101,rng,num-start-521,521,17520,15.535818338394165,True,,True,1,False,1000,True,1.0
./expes/v2_2020-11-09_3bh_200-prng-1,30_base_hphc_200,200,first-200,71,rng,num-start-701,701,17520,21.06398892402649,True,,True,1,False,1000,True,1.0
./expes/v2_2020-11-09_3bh_200-prng-1,30_base_hphc_200,200,first-200,21,rng,num-start-111,111,17520,3.3327836990356445,True,,True,1,False,1000,True,1.0
./expes/v2_2020-11-09_3bh_200-prng-1,30_base_hphc_200,200,first-200,1,rng,num-start-511,511,17520,12.944813966751099,True,,True,1,False,1000,True,1.0
./expes/v2_2020-11-09_3bh_200-prng-1,30_base_hphc_200,200,first-200,71,rng,num-start-381,381,17520,11.105205059051514,True,,True,1,False,1000,True,1.0
./expes/v2_2020-11-09_3bh_200-prng-1,30_base_hphc_200,200,first-200,161,rng,num-start-751,751,17520,22.440541982650757,True,,True,1,False,1000,True,1.0
./expes/v2_2020-11-09_3bh_200-prng-1,30_base_hphc_200,200,first-200,121,rng,num-start-281,281,17520,8.361838340759277,True,,True,1,False,1000,True,1.0
./expes/v2_2020-11-09_3bh_200-prng-1,30_base_hphc_200,200,first-200,61,rng,num-start-251,251,17520,7.562621116638184,True,,True,1,False,1000,True,1.0
./expes/v2_2020-11-09_3bh_200-prng-1,30_base_hphc_200,200,first-200,11,rng,num-start-871,871,17520,23.889960289001465,True,,True,1,False,1000,True,1.0
./expes/v2_2020-11-09_3bh_200-prng-1,30_base_hphc_200,200,first-200,111,rng,num-start-201,201,17520,6.165964126586914,True,,True,1,False,1000,True,1.0
./expes/v2_2020-11-09_3bh_200-prng-1,30_base_hphc_200,200,first-200,21,rng,num-start-311,311,17520,9.015364170074463,True,,True,1,False,1000,True,1.0
./expes/v2_2020-11-09_3bh_200-prng-1,30_base_hphc_200,200,first-200,141,rng,num-start-611,611,17520,18.47498631477356,True,,True,1,False,1000,True,1.0
./expes/v2_2020-11-09_3bh_200-prng-1,30_base_hphc_200,200,first-200,61,rng,num-start-211,211,17520,6.344329595565796,True,,True,1,False,1000,True,1.0
./expes/v2_2020-11-09_3bh_200-prng-1,30_base_hphc_200,200,first-200,71,rng,num-start-951,951,17520,29.587214708328247,True,,True,1,False,1000,True,1.0
./expes/v2_2020-11-09_3bh_200-prng-1,30_base_hphc_200,200,first-200,111,rng,num-start-621,621,17520,19.053831100463867,True,,True,1,False,1000,True,1.0
./expes/v2_2020-11-09_3bh_200-prng-1,30_base_hphc_200,200,first-200,11,rng,num-start-461,461,17520,12.911308288574219,True,,True,1,False,1000,True,1.0
./expes/v2_2020-11-09_3bh_200-prng-1,30_base_hphc_200,200,first-200,181,rng,num-start-481,481,17520,13.518727779388428,True,,True,1,False,1000,True,1.0
./expes/v2_2020-11-09_3bh_200-prng-1,30_base_hphc_200,200,first-200,151,rng,num-start-201,201,17520,5.886590242385864,True,,True,1,False,1000,True,1.0
./expes/v2_2020-11-09_3bh_200-prng-1,30_base_hphc_200,200,first-200,81,rng,num-start-331,331,17520,9.54102611541748,True,,True,1,False,1000,True,1.0
./expes/v2_2020-11-09_3bh_200-prng-1,30_base_hphc_200,200,first-200,81,rng,num-start-91,91,17520,2.989884376525879,True,,True,1,False,1000,True,1.0
./expes/v2_2020-11-09_3bh_200-prng-1,30_base_hphc_200,200,first-200,171,rng,num-start-21,21,17520,1000.7294039726257,False,,False,0,True,1000,True,0.0
./expes/v2_2020-11-09_3bh_200-prng-1,30_base_hphc_200,200,first-200,31,rng,num-start-521,521,17520,15.562757730484009,True,,True,1,False,1000,True,1.0
./expes/v2_2020-11-09_3bh_200-prng-1,30_base_hphc_200,200,first-200,181,rng,num-start-381,381,17520,10.734074115753174,True,,True,1,False,1000,True,1.0
./expes/v2_2020-11-09_3bh_200-prng-1,30_base_hphc_200,200,first-200,121,rng,num-start-481,481,17520,14.518531560897827,True,,True,1,False,1000,True,1.0
./expes/v2_2020-11-09_3bh_200-prng-1,30_base_hphc_200,200,first-200,101,rng,num-start-851,851,17520,26.92467713356018,True,,True,1,False,1000,True,1.0
./expes/v2_2020-11-09_3bh_200-prng-1,30_base_hphc_200,200,first-200,171,rng,num-start-981,981,17520,31.499051094055176,True,,True,1,False,1000,True,1.0
./expes/v2_2020-11-09_3bh_200-prng-1,30_base_hphc_200,200,first-200,191,rng,num-start-131,131,17520,3.8511834144592285,True,,True,1,False,1000,True,1.0
./expes/v2_2020-11-09_3bh_200-prng-1,30_base_hphc_200,200,first-200,11,rng,num-start-61,61,17520,1.9252691268920898,True,,True,1,False,1000,True,1.0
./expes/v2_2020-11-09_3bh_200-prng-1,30_base_hphc_200,200,first-200,71,rng,num-start-731,731,17520,22.397810220718384,True,,True,1,False,1000,True,1.0
./expes/v2_2020-11-09_3bh_200-prng-1,30_base_hphc_200,200,first-200,121,rng,num-start-201,201,17520,6.288070201873779,True,,True,1,False,1000,True,1.0
./expes/v2_2020-11-09_3bh_200-prng-1,30_base_hphc_200,200,first-200,61,rng,num-start-521,521,17520,16.257057428359985,True,,True,1,False,1000,True,1.0
./expes/v2_2020-11-09_3bh_200-prng-1,30_base_hphc_200,200,first-200,81,rng,num-start-791,791,17520,25.98076319694519,True,,True,1,False,1000,True,1.0
./expes/v2_2020-11-09_3bh_200-prng-1,30_base_hphc_200,200,first-200,171,rng,num-start-731,731,17520,22.25980043411255,True,,True,1,False,1000,True,1.0
./expes/v2_2020-11-09_3bh_200-prng-1,30_base_hphc_200,200,first-200,1,rng,num-start-411,411,17520,10.82289457321167,True,,True,1,False,1000,True,1.0
./expes/v2_2020-11-09_3bh_200-prng-1,30_base_hphc_200,200,first-200,1,rng,num-start-791,791,17520,20.73480200767517,True,,True,1,False,1000,True,1.0
./expes/v2_2020-11-09_3bh_200-prng-1,30_base_hphc_200,200,first-200,171,rng,num-start-891,891,17520,27.244752645492554,True,,True,1,False,1000,True,1.0
./expes/v2_2020-11-09_3bh_200-prng-1,30_base_hphc_200,200,first-200,181,rng,num-start-341,341,17520,9.889221429824829,True,,True,1,False,1000,True,1.0
./expes/v2_2020-11-09_3bh_200-prng-1,30_base_hphc_200,200,first-200,131,rng,num-start-851,851,17520,25.04246711730957,True,,True,1,False,1000,True,1.0
./expes/v2_2020-11-09_3bh_200-prng-1,30_base_hphc_200,200,first-200,181,rng,num-start-431,431,17520,12.054303169250488,True,,True,1,False,1000,True,1.0
./expes/v2_2020-11-09_3bh_200-prng-1,30_base_hphc_200,200,first-200,21,rng,num-start-851,851,17520,26.285842180252075,True,,True,1,False,1000,True,1.0
./expes/v2_2020-11-09_3bh_200-prng-1,30_base_hphc_200,200,first-200,141,rng,num-start-631,631,17520,19.200958013534546,True,,True,1,False,1000,True,1.0
./expes/v2_2020-11-09_3bh_200-prng-1,30_base_hphc_200,200,first-200,1,rng,num-start-881,881,17520,22.973403215408325,True,,True,1,False,1000,True,1.0
./expes/v2_2020-11-09_3bh_200-prng-1,30_base_hphc_200,200,first-200,161,rng,num-start-181,181,17520,5.335998296737671,True,,True,1,False,1000,True,1.0
./expes/v2_2020-11-09_3bh_200-prng-1,30_base_hphc_200,200,first-200,141,rng,num-start-871,871,17520,26.026989698410034,True,,True,1,False,1000,True,1.0
./expes/v2_2020-11-09_3bh_200-prng-1,30_base_hphc_200,200,first-200,191,rng,num-start-261,261,17520,7.435009002685547,True,,True,1,False,1000,True,1.0
./expes/v2_2020-11-09_3bh_200-prng-1,30_base_hphc_200,200,first-200,111,rng,num-start-821,821,17520,25.56177854537964,True,,True,1,False,1000,True,1.0
./expes/v2_2020-11-09_3bh_200-prng-1,30_base_hphc_200,200,first-200,51,rng,num-start-261,261,17520,7.8465776443481445,True,,True,1,False,1000,True,1.0
./expes/v2_2020-11-09_3bh_200-prng-1,30_base_hphc_200,200,first-200,71,rng,num-start-851,851,17520,27.119388580322266,True,,True,1,False,1000,True,1.0
./expes/v2_2020-11-09_3bh_200-prng-1,30_base_hphc_200,200,first-200,71,rng,num-start-161,161,17520,4.7496325969696045,True,,True,1,False,1000,True,1.0
./expes/v2_2020-11-09_3bh_200-prng-1,30_base_hphc_200,200,first-200,161,rng,num-start-541,541,17520,15.838513135910034,True,,True,1,False,1000,True,1.0
./expes/v2_2020-11-09_3bh_200-prng-1,30_base_hphc_200,200,first-200,111,rng,num-start-701,701,17520,22.283286333084106,True,,True,1,False,1000,True,1.0
./expes/v2_2020-11-09_3bh_200-prng-1,30_base_hphc_200,200,first-200,51,rng,num-start-291,291,17520,9.003785371780396,True,,True,1,False,1000,True,1.0
./expes/v2_2020-11-09_3bh_200-prng-1,30_base_hphc_200,200,first-200,81,rng,num-start-171,171,17520,4.9982590675354,True,,True,1,False,1000,True,1.0
./expes/v2_2020-11-09_3bh_200-prng-1,30_base_hphc_200,200,first-200,31,rng,num-start-171,171,17520,5.27370548248291,True,,True,1,False,1000,True,1.0
./expes/v2_2020-11-09_3bh_200-prng-1,30_base_hphc_200,200,first-200,21,rng,num-start-431,431,17520,11.617747783660889,True,,True,1,False,1000,True,1.0
./expes/v2_2020-11-09_3bh_200-prng-1,30_base_hphc_200,200,first-200,151,rng,num-start-601,601,17520,17.96303915977478,True,,True,1,False,1000,True,1.0
./expes/v2_2020-11-09_3bh_200-prng-1,30_base_hphc_200,200,first-200,161,rng,num-start-881,881,17520,27.44950580596924,True,,True,1,False,1000,True,1.0
./expes/v2_2020-11-09_3bh_200-prng-1,30_base_hphc_200,200,first-200,91,rng,num-start-421,421,17520,12.763673067092896,True,,True,1,False,1000,True,1.0
./expes/v2_2020-11-09_3bh_200-prng-1,30_base_hphc_200,200,first-200,21,rng,num-start-51,51,17520,2.8990988731384277,True,,True,1,False,1000,True,1.0
./expes/v2_2020-11-09_3bh_200-prng-1,30_base_hphc_200,200,first-200,91,rng,num-start-491,491,17520,14.904057502746582,True,,True,1,False,1000,True,1.0
./expes/v2_2020-11-09_3bh_200-prng-1,30_base_hphc_200,200,first-200,11,rng,num-start-21,21,17520,1.368316411972046,True,,True,1,False,1000,True,1.0
./expes/v2_2020-11-09_3bh_200-prng-1,30_base_hphc_200,200,first-200,91,rng,num-start-411,411,17520,11.941138982772827,True,,True,1,False,1000,True,1.0
./expes/v2_2020-11-09_3bh_200-prng-1,30_base_hphc_200,200,first-200,1,rng,num-start-701,701,17520,17.32782793045044,True,,True,1,False,1000,True,1.0
./expes/v2_2020-11-09_3bh_200-prng-1,30_base_hphc_200,200,first-200,131,rng,num-start-161,161,17520,5.0971925258636475,True,,True,1,False,1000,True,1.0
./expes/v2_2020-11-09_3bh_200-prng-1,30_base_hphc_200,200,first-200,111,rng,num-start-931,931,17520,29.451950073242188,True,,True,1,False,1000,True,1.0
./expes/v2_2020-11-09_3bh_200-prng-1,30_base_hphc_200,200,first-200,61,rng,num-start-861,861,17520,25.8798565864563,True,,True,1,False,1000,True,1.0
./expes/v2_2020-11-09_3bh_200-prng-1,30_base_hphc_200,200,first-200,31,rng,num-start-41,41,17520,23.906166315078735,True,,True,1,False,1000,True,1.0
./expes/v2_2020-11-09_3bh_200-prng-1,30_base_hphc_200,200,first-200,41,rng,num-start-741,741,17520,21.741053819656372,True,,True,1,False,1000,True,1.0
./expes/v2_2020-11-09_3bh_200-prng-1,30_base_hphc_200,200,first-200,141,rng,num-start-221,221,17520,7.059428930282593,True,,True,1,False,1000,True,1.0
./expes/v2_2020-11-09_3bh_200-prng-1,30_base_hphc_200,200,first-200,61,rng,num-start-641,641,17520,19.180357217788696,True,,True,1,False,1000,True,1.0
./expes/v2_2020-11-09_3bh_200-prng-1,30_base_hphc_200,200,first-200,61,rng,num-start-851,851,17520,26.81139826774597,True,,True,1,False,1000,True,1.0
./expes/v2_2020-11-09_3bh_200-prng-1,30_base_hphc_200,200,first-200,101,rng,num-start-1,1,17520,0.05499911308288574,False,,False,2,False,1000,True,1.0
./expes/v2_2020-11-09_3bh_200-prng-1,30_base_hphc_200,200,first-200,91,rng,num-start-41,41,17520,1001.1628158092499,False,,False,0,True,1000,True,0.0
./expes/v2_2020-11-09_3bh_200-prng-1,30_base_hphc_200,200,first-200,51,rng,num-start-311,311,17520,8.898098945617676,True,,True,1,False,1000,True,1.0
./expes/v2_2020-11-09_3bh_200-prng-1,30_base_hphc_200,200,first-200,21,rng,num-start-531,531,17520,15.641478300094604,True,,True,1,False,1000,True,1.0
./expes/v2_2020-11-09_3bh_200-prng-1,30_base_hphc_200,200,first-200,31,rng,num-start-461,461,17520,12.866739749908447,True,,True,1,False,1000,True,1.0
./expes/v2_2020-11-09_3bh_200-prng-1,30_base_hphc_200,200,first-200,181,rng,num-start-231,231,17520,6.611118316650391,True,,True,1,False,1000,True,1.0
./expes/v2_2020-11-09_3bh_200-prng-1,30_base_hphc_200,200,first-200,11,rng,num-start-351,351,17520,9.632962942123413,True,,True,1,False,1000,True,1.0
./expes/v2_2020-11-09_3bh_200-prng-1,30_base_hphc_200,200,first-200,31,rng,num-start-541,541,17520,16.245357036590576,True,,True,1,False,1000,True,1.0
./expes/v2_2020-11-09_3bh_200-prng-1,30_base_hphc_200,200,first-200,181,rng,num-start-121,121,17520,3.428466796875,True,,True,1,False,1000,True,1.0
./expes/v2_2020-11-09_3bh_200-prng-1,30_base_hphc_200,200,first-200,191,rng,num-start-431,431,17520,11.855909824371338,True,,True,1,False,1000,True,1.0
./expes/v2_2020-11-09_3bh_200-prng-1,30_base_hphc_200,200,first-200,181,rng,num-start-421,421,17520,11.97517442703247,True,,True,1,False,1000,True,1.0
./expes/v2_2020-11-09_3bh_200-prng-1,30_base_hphc_200,200,first-200,41,rng,num-start-211,211,17520,6.30661678314209,True,,True,1,False,1000,True,1.0
./expes/v2_2020-11-09_3bh_200-prng-1,30_base_hphc_200,200,first-200,61,rng,num-start-451,451,17520,13.684607028961182,True,,True,1,False,1000,True,1.0
./expes/v2_2020-11-09_3bh_200-prng-1,30_base_hphc_200,200,first-200,141,rng,num-start-191,191,17520,5.763262033462524,True,,True,1,False,1000,True,1.0
./expes/v2_2020-11-09_3bh_200-prng-1,30_base_hphc_200,200,first-200,11,rng,num-start-801,801,17520,22.315911769866943,True,,True,1,False,1000,True,1.0
./expes/v2_2020-11-09_3bh_200-prng-1,30_base_hphc_200,200,first-200,1,rng,num-start-521,521,17520,13.649399280548096,True,,True,1,False,1000,True,1.0
./expes/v2_2020-11-09_3bh_200-prng-1,30_base_hphc_200,200,first-200,111,rng,num-start-951,951,17520,30.25735378265381,True,,True,1,False,1000,True,1.0
./expes/v2_2020-11-09_3bh_200-prng-1,30_base_hphc_200,200,first-200,11,rng,num-start-301,301,17520,8.325773000717163,True,,True,1,False,1000,True,1.0
./expes/v2_2020-11-09_3bh_200-prng-1,30_base_hphc_200,200,first-200,81,rng,num-start-211,211,17520,6.824720621109009,True,,True,1,False,1000,True,1.0
./expes/v2_2020-11-09_3bh_200-prng-1,30_base_hphc_200,200,first-200,1,rng,num-start-441,441,17520,11.187434673309326,True,,True,1,False,1000,True,1.0
./expes/v2_2020-11-09_3bh_200-prng-1,30_base_hphc_200,200,first-200,1,rng,num-start-971,971,17520,24.72677969932556,True,,True,1,False,1000,True,1.0
./expes/v2_2020-11-09_3bh_200-prng-1,30_base_hphc_200,200,first-200,111,rng,num-start-251,251,17520,7.6314098834991455,True,,True,1,False,1000,True,1.0
./expes/v2_2020-11-09_3bh_200-prng-1,30_base_hphc_200,200,first-200,171,rng,num-start-161,161,17520,4.637529373168945,True,,True,1,False,1000,True,1.0
./expes/v2_2020-11-09_3bh_200-prng-1,30_base_hphc_200,200,first-200,31,rng,num-start-521,521,17520,15.078643560409546,True,,True,1,False,1000,True,1.0
./expes/v2_2020-11-09_3bh_200-prng-1,30_base_hphc_200,200,first-200,181,rng,num-start-721,721,17520,20.10991859436035,True,,True,1,False,1000,True,1.0
./expes/v2_2020-11-09_3bh_200-prng-1,30_base_hphc_200,200,first-200,131,rng,num-start-181,181,17520,5.683457612991333,True,,True,1,False,1000,True,1.0
./expes/v2_2020-11-09_3bh_200-prng-1,30_base_hphc_200,200,first-200,91,rng,num-start-701,701,17520,21.206483602523804,True,,True,1,False,1000,True,1.0
./expes/v2_2020-11-09_3bh_200-prng-1,30_base_hphc_200,200,first-200,161,rng,num-start-251,251,17520,7.653350591659546,True,,True,1,False,1000,True,1.0
./expes/v2_2020-11-09_3bh_200-prng-1,30_base_hphc_200,200,first-200,161,rng,num-start-461,461,17520,13.156860113143921,True,,True,1,False,1000,True,1.0
./expes/v2_2020-11-09_3bh_200-prng-1,30_base_hphc_200,200,first-200,141,rng,num-start-671,671,17520,19.37052297592163,True,,True,1,False,1000,True,1.0
./expes/v2_2020-11-09_3bh_200-prng-1,30_base_hphc_200,200,first-200,101,rng,num-start-731,731,17520,22.17492389678955,True,,True,1,False,1000,True,1.0
./expes/v2_2020-11-09_3bh_200-prng-1,30_base_hphc_200,200,first-200,151,rng,num-start-131,131,17520,3.8208796977996826,True,,True,1,False,1000,True,1.0
./expes/v2_2020-11-09_3bh_200-prng-1,30_base_hphc_200,200,first-200,81,rng,num-start-151,151,17520,4.764462232589722,True,,True,1,False,1000,True,1.0
./expes/v2_2020-11-09_3bh_200-prng-1,30_base_hphc_200,200,first-200,1,rng,num-start-261,261,17520,6.708876132965088,True,,True,1,False,1000,True,1.0
./expes/v2_2020-11-09_3bh_200-prng-1,30_base_hphc_200,200,first-200,71,rng,num-start-251,251,17520,7.438807249069214,True,,True,1,False,1000,True,1.0
./expes/v2_2020-11-09_3bh_200-prng-1,30_base_hphc_200,200,first-200,131,rng,num-start-571,571,17520,16.78489637374878,True,,True,1,False,1000,True,1.0
./expes/v2_2020-11-09_3bh_200-prng-1,30_base_hphc_200,200,first-200,141,rng,num-start-251,251,17520,8.05874252319336,True,,True,1,False,1000,True,1.0
./expes/v2_2020-11-09_3bh_200-prng-1,30_base_hphc_200,200,first-200,51,rng,num-start-751,751,17520,21.532049655914307,True,,True,1,False,1000,True,1.0
./expes/v2_2020-11-09_3bh_200-prng-1,30_base_hphc_200,200,first-200,121,rng,num-start-321,321,17520,9.433379173278809,True,,True,1,False,1000,True,1.0
./expes/v2_2020-11-09_3bh_200-prng-1,30_base_hphc_200,200,first-200,41,rng,num-start-881,881,17520,27.345362186431885,True,,True,1,False,1000,True,1.0
./expes/v2_2020-11-09_3bh_200-prng-1,30_base_hphc_200,200,first-200,21,rng,num-start-261,261,17520,7.582052707672119,True,,True,1,False,1000,True,1.0
./expes/v2_2020-11-09_3bh_200-prng-1,30_base_hphc_200,200,first-200,181,rng,num-start-601,601,17520,17.76729702949524,True,,True,1,False,1000,True,1.0
./expes/v2_2020-11-09_3bh_200-prng-1,30_base_hphc_200,200,first-200,131,rng,num-start-511,511,17520,15.238552808761597,True,,True,1,False,1000,True,1.0
./expes/v2_2020-11-09_3bh_200-prng-1,30_base_hphc_200,200,first-200,71,rng,num-start-211,211,17520,6.7442848682403564,True,,True,1,False,1000,True,1.0
./expes/v2_2020-11-09_3bh_200-prng-1,30_base_hphc_200,200,first-200,71,rng,num-start-561,561,17520,16.431878328323364,True,,True,1,False,1000,True,1.0
./expes/v2_2020-11-09_3bh_200-prng-1,30_base_hphc_200,200,first-200,51,rng,num-start-21,21,17520,1000.541216135025,False,,False,0,True,1000,True,0.0
./expes/v2_2020-11-09_3bh_200-prng-1,30_base_hphc_200,200,first-200,191,rng,num-start-991,991,17520,26.782665491104126,True,,True,1,False,1000,True,1.0
./expes/v2_2020-11-09_3bh_200-prng-1,30_base_hphc_200,200,first-200,61,rng,num-start-491,491,17520,14.166603565216064,True,,True,1,False,1000,True,1.0
./expes/v2_2020-11-09_3bh_200-prng-1,30_base_hphc_200,200,first-200,61,rng,num-start-471,471,17520,14.340139865875244,True,,True,1,False,1000,True,1.0
./expes/v2_2020-11-09_3bh_200-prng-1,30_base_hphc_200,200,first-200,181,rng,num-start-871,871,17520,25.745091915130615,True,,True,1,False,1000,True,1.0
./expes/v2_2020-11-09_3bh_200-prng-1,30_base_hphc_200,200,first-200,161,rng,num-start-971,971,17520,27.505650997161865,True,,True,1,False,1000,True,1.0
./expes/v2_2020-11-09_3bh_200-prng-1,30_base_hphc_200,200,first-200,111,rng,num-start-81,81,17520,5.4068262577056885,True,,True,1,False,1000,True,1.0
./expes/v2_2020-11-09_3bh_200-prng-1,30_base_hphc_200,200,first-200,51,rng,num-start-751,751,17520,22.86965298652649,True,,True,1,False,1000,True,1.0
./expes/v2_2020-11-09_3bh_200-prng-1,30_base_hphc_200,200,first-200,131,rng,num-start-301,301,17520,8.915678977966309,True,,True,1,False,1000,True,1.0
./expes/v2_2020-11-09_3bh_200-prng-1,30_base_hphc_200,200,first-200,181,rng,num-start-381,381,17520,10.726093053817749,True,,True,1,False,1000,True,1.0
./expes/v2_2020-11-09_3bh_200-prng-1,30_base_hphc_200,200,first-200,71,rng,num-start-481,481,17520,14.056565046310425,True,,True,1,False,1000,True,1.0
./expes/v2_2020-11-09_3bh_200-prng-1,30_base_hphc_200,200,first-200,181,rng,num-start-51,51,17520,1.4996042251586914,True,,True,1,False,1000,True,1.0
./expes/v2_2020-11-09_3bh_200-prng-1,30_base_hphc_200,200,first-200,61,rng,num-start-851,851,17520,25.25098466873169,True,,True,1,False,1000,True,1.0
./expes/v2_2020-11-09_3bh_200-prng-1,30_base_hphc_200,200,first-200,121,rng,num-start-431,431,17520,12.5837984085083,True,,True,1,False,1000,True,1.0
./expes/v2_2020-11-09_3bh_200-prng-1,30_base_hphc_200,200,first-200,141,rng,num-start-151,151,17520,4.958620309829712,True,,True,1,False,1000,True,1.0
./expes/v2_2020-11-09_3bh_200-prng-1,30_base_hphc_200,200,first-200,121,rng,num-start-251,251,17520,7.5523927211761475,True,,True,1,False,1000,True,1.0
./expes/v2_2020-11-09_3bh_200-prng-1,30_base_hphc_200,200,first-200,151,rng,num-start-741,741,17520,21.97496461868286,True,,True,1,False,1000,True,1.0
./expes/v2_2020-11-09_3bh_200-prng-1,30_base_hphc_200,200,first-200,51,rng,num-start-811,811,17520,23.588447332382202,True,,True,1,False,1000,True,1.0
./expes/v2_2020-11-09_3bh_200-prng-1,30_base_hphc_200,200,first-200,91,rng,num-start-691,691,17520,21.133412837982178,True,,True,1,False,1000,True,1.0
./expes/v2_2020-11-09_3bh_200-prng-1,30_base_hphc_200,200,first-200,191,rng,num-start-581,581,17520,16.04791235923767,True,,True,1,False,1000,True,1.0
./expes/v2_2020-11-09_3bh_200-prng-1,30_base_hphc_200,200,first-200,21,rng,num-start-341,341,17520,10.138814926147461,True,,True,1,False,1000,True,1.0
./expes/v2_2020-11-09_3bh_200-prng-1,30_base_hphc_200,200,first-200,11,rng,num-start-161,161,17520,4.659132480621338,True,,True,1,False,1000,True,1.0
./expes/v2_2020-11-09_3bh_200-prng-1,30_base_hphc_200,200,first-200,121,rng,num-start-561,561,17520,17.507073402404785,True,,True,1,False,1000,True,1.0
./expes/v2_2020-11-09_3bh_200-prng-1,30_base_hphc_200,200,first-200,181,rng,num-start-131,131,17520,3.761991262435913,True,,True,1,False,1000,True,1.0
./expes/v2_2020-11-09_3bh_200-prng-1,30_base_hphc_200,200,first-200,11,rng,num-start-181,181,17520,5.363174676895142,True,,True,1,False,1000,True,1.0
./expes/v2_2020-11-09_3bh_200-prng-1,30_base_hphc_200,200,first-200,151,rng,num-start-871,871,17520,26.869775533676147,True,,True,1,False,1000,True,1.0
./expes/v2_2020-11-09_3bh_200-prng-1,30_base_hphc_200,200,first-200,111,rng,num-start-791,791,17520,23.632501363754272,True,,True,1,False,1000,True,1.0
./expes/v2_2020-11-09_3bh_200-prng-1,30_base_hphc_200,200,first-200,191,rng,num-start-131,131,17520,3.7340219020843506,True,,True,1,False,1000,True,1.0
./expes/v2_2020-11-09_3bh_200-prng-1,30_base_hphc_200,200,first-200,111,rng,num-start-91,91,17520,5.5747246742248535,True,,True,1,False,1000,True,1.0
./expes/v2_2020-11-09_3bh_200-prng-1,30_base_hphc_200,200,first-200,151,rng,num-start-181,181,17520,5.284754037857056,True,,True,1,False,1000,True,1.0
./expes/v2_2020-11-09_3bh_200-prng-1,30_base_hphc_200,200,first-200,51,rng,num-start-531,531,17520,15.630314826965332,True,,True,1,False,1000,True,1.0
./expes/v2_2020-11-09_3bh_200-prng-1,30_base_hphc_200,200,first-200,171,rng,num-start-451,451,17520,12.552993535995483,True,,True,1,False,1000,True,1.0
./expes/v2_2020-11-09_3bh_200-prng-1,30_base_hphc_200,200,first-200,141,rng,num-start-551,551,17520,15.942641496658325,True,,True,1,False,1000,True,1.0
./expes/v2_2020-11-09_3bh_200-prng-1,30_base_hphc_200,200,first-200,181,rng,num-start-531,531,17520,14.555028676986694,True,,True,1,False,1000,True,1.0
./expes/v2_2020-11-09_3bh_200-prng-1,30_base_hphc_200,200,first-200,121,rng,num-start-371,371,17520,10.515763998031616,True,,True,1,False,1000,True,1.0
./expes/v2_2020-11-09_3bh_200-prng-1,30_base_hphc_200,200,first-200,71,rng,num-start-211,211,17520,6.227354526519775,True,,True,1,False,1000,True,1.0
./expes/v2_2020-11-09_3bh_200-prng-1,30_base_hphc_200,200,first-200,131,rng,num-start-521,521,17520,15.113802194595337,True,,True,1,False,1000,True,1.0
./expes/v2_2020-11-09_3bh_200-prng-1,30_base_hphc_200,200,first-200,151,rng,num-start-781,781,17520,22.731648683547974,True,,True,1,False,1000,True,1.0
./expes/v2_2020-11-09_3bh_200-prng-1,30_base_hphc_200,200,first-200,111,rng,num-start-681,681,17520,20.891669750213623,True,,True,1,False,1000,True,1.0
./expes/v2_2020-11-09_3bh_200-prng-1,30_base_hphc_200,200,first-200,21,rng,num-start-491,491,17520,14.245457410812378,True,,True,1,False,1000,True,1.0
./expes/v2_2020-11-09_3bh_200-prng-1,30_base_hphc_200,200,first-200,151,rng,num-start-621,621,17520,18.389158248901367,True,,True,1,False,1000,True,1.0
./expes/v2_2020-11-09_3bh_200-prng-1,30_base_hphc_200,200,first-200,111,rng,num-start-541,541,17520,16.986765146255493,True,,True,1,False,1000,True,1.0
./expes/v2_2020-11-09_3bh_200-prng-1,30_base_hphc_200,200,first-200,101,rng,num-start-551,551,17520,16.445915937423706,True,,True,1,False,1000,True,1.0
./expes/v2_2020-11-09_3bh_200-prng-1,30_base_hphc_200,200,first-200,171,rng,num-start-541,541,17520,15.311687707901001,True,,True,1,False,1000,True,1.0
./expes/v2_2020-11-09_3bh_200-prng-1,30_base_hphc_200,200,first-200,151,rng,num-start-931,931,17520,27.375330209732056,True,,True,1,False,1000,True,1.0
./expes/v2_2020-11-09_3bh_200-prng-1,30_base_hphc_200,200,first-200,91,rng,num-start-781,781,17520,24.39099931716919,True,,True,1,False,1000,True,1.0
./expes/v2_2020-11-09_3bh_200-prng-1,30_base_hphc_200,200,first-200,161,rng,num-start-371,371,17520,10.5493745803833,True,,True,1,False,1000,True,1.0
./expes/v2_2020-11-09_3bh_200-prng-1,30_base_hphc_200,200,first-200,151,rng,num-start-341,341,17520,9.69379186630249,True,,True,1,False,1000,True,1.0
./expes/v2_2020-11-09_3bh_200-prng-1,30_base_hphc_200,200,first-200,181,rng,num-start-1,1,17520,0.059809207916259766,False,,False,2,False,1000,True,1.0
./expes/v2_2020-11-09_3bh_200-prng-1,30_base_hphc_200,200,first-200,81,rng,num-start-181,181,17520,5.433409929275513,True,,True,1,False,1000,True,1.0
./expes/v2_2020-11-09_3bh_200-prng-1,30_base_hphc_200,200,first-200,191,rng,num-start-241,241,17520,6.659029722213745,True,,True,1,False,1000,True,1.0
./expes/v2_2020-11-09_3bh_200-prng-1,30_base_hphc_200,200,first-200,151,rng,num-start-621,621,17520,18.185858488082886,True,,True,1,False,1000,True,1.0
./expes/v2_2020-11-09_3bh_200-prng-1,30_base_hphc_200,200,first-200,31,rng,num-start-231,231,17520,6.778352975845337,True,,True,1,False,1000,True,1.0
./expes/v2_2020-11-09_3bh_200-prng-1,30_base_hphc_200,200,first-200,71,rng,num-start-681,681,17520,20.269071578979492,True,,True,1,False,1000,True,1.0
./expes/v2_2020-11-09_3bh_200-prng-1,30_base_hphc_200,200,first-200,131,rng,num-start-931,931,17520,29.426480531692505,True,,True,1,False,1000,True,1.0
./expes/v2_2020-11-09_3bh_200-prng-1,30_base_hphc_200,200,first-200,111,rng,num-start-661,661,17520,19.478313207626343,True,,True,1,False,1000,True,1.0
./expes/v2_2020-11-09_3bh_200-prng-1,30_base_hphc_200,200,first-200,61,rng,num-start-931,931,17520,30.27500891685486,True,,True,1,False,1000,True,1.0
./expes/v2_2020-11-09_3bh_200-prng-1,30_base_hphc_200,200,first-200,101,rng,num-start-561,561,17520,16.84240698814392,True,,True,1,False,1000,True,1.0
./expes/v2_2020-11-09_3bh_200-prng-1,30_base_hphc_200,200,first-200,51,rng,num-start-601,601,17520,17.780375480651855,True,,True,1,False,1000,True,1.0
./expes/v2_2020-11-09_3bh_200-prng-1,30_base_hphc_200,200,first-200,81,rng,num-start-771,771,17520,22.513429880142212,True,,True,1,False,1000,True,1.0
./expes/v2_2020-11-09_3bh_200-prng-1,30_base_hphc_200,200,first-200,31,rng,num-start-941,941,17520,27.522513151168823,True,,True,1,False,1000,True,1.0
./expes/v2_2020-11-09_3bh_200-prng-1,30_base_hphc_200,200,first-200,11,rng,num-start-781,781,17520,21.872912168502808,True,,True,1,False,1000,True,1.0
./expes/v2_2020-11-09_3bh_200-prng-1,30_base_hphc_200,200,first-200,71,rng,num-start-921,921,17520,28.046794891357422,True,,True,1,False,1000,True,1.0
./expes/v2_2020-11-09_3bh_200-prng-1,30_base_hphc_200,200,first-200,11,rng,num-start-481,481,17520,12.865598917007446,True,,True,1,False,1000,True,1.0
./expes/v2_2020-11-09_3bh_200-prng-1,30_base_hphc_200,200,first-200,1,rng,num-start-891,891,17520,22.378000497817993,True,,True,1,False,1000,True,1.0
./expes/v2_2020-11-09_3bh_200-prng-1,30_base_hphc_200,200,first-200,71,rng,num-start-761,761,17520,22.668810844421387,True,,True,1,False,1000,True,1.0
./expes/v2_2020-11-09_3bh_200-prng-1,30_base_hphc_200,200,first-200,161,rng,num-start-421,421,17520,12.194860696792603,True,,True,1,False,1000,True,1.0
./expes/v2_2020-11-09_3bh_200-prng-1,30_base_hphc_200,200,first-200,91,rng,num-start-431,431,17520,13.209625720977783,True,,True,1,False,1000,True,1.0
./expes/v2_2020-11-09_3bh_200-prng-1,30_base_hphc_200,200,first-200,71,rng,num-start-451,451,17520,13.768533706665039,True,,True,1,False,1000,True,1.0
./expes/v2_2020-11-09_3bh_200-prng-1,30_base_hphc_200,200,first-200,131,rng,num-start-781,781,17520,23.85981774330139,True,,True,1,False,1000,True,1.0
./expes/v2_2020-11-09_3bh_200-prng-1,30_base_hphc_200,200,first-200,111,rng,num-start-161,161,17520,4.801400899887085,True,,True,1,False,1000,True,1.0
./expes/v2_2020-11-09_3bh_200-prng-1,30_base_hphc_200,200,first-200,131,rng,num-start-491,491,17520,14.327710390090942,True,,True,1,False,1000,True,1.0
./expes/v2_2020-11-09_3bh_200-prng-1,30_base_hphc_200,200,first-200,111,rng,num-start-221,221,17520,6.5607826709747314,True,,True,1,False,1000,True,1.0
./expes/v2_2020-11-09_3bh_200-prng-1,30_base_hphc_200,200,first-200,101,rng,num-start-221,221,17520,6.751407861709595,True,,True,1,False,1000,True,1.0
./expes/v2_2020-11-09_3bh_200-prng-1,30_base_hphc_200,200,first-200,31,rng,num-start-31,31,17520,1000.7914183139801,False,,False,0,True,1000,True,0.0
./expes/v2_2020-11-09_3bh_200-prng-1,30_base_hphc_200,200,first-200,141,rng,num-start-431,431,17520,12.371537923812866,True,,True,1,False,1000,True,1.0
./expes/v2_2020-11-09_3bh_200-prng-1,30_base_hphc_200,200,first-200,21,rng,num-start-711,711,17520,20.34386110305786,True,,True,1,False,1000,True,1.0
./expes/v2_2020-11-09_3bh_200-prng-1,30_base_hphc_200,200,first-200,11,rng,num-start-791,791,17520,21.870102882385254,True,,True,1,False,1000,True,1.0
./expes/v2_2020-11-09_3bh_200-prng-1,30_base_hphc_200,200,first-200,101,rng,num-start-931,931,17520,29.52207326889038,True,,True,1,False,1000,True,1.0
./expes/v2_2020-11-09_3bh_200-prng-1,30_base_hphc_200,200,first-200,81,rng,num-start-221,221,17520,6.6951024532318115,True,,True,1,False,1000,True,1.0
./expes/v2_2020-11-09_3bh_200-prng-1,30_base_hphc_200,200,first-200,161,rng,num-start-341,341,17520,10.384798765182495,True,,True,1,False,1000,True,1.0
./expes/v2_2020-11-09_3bh_200-prng-1,30_base_hphc_200,200,first-200,91,rng,num-start-711,711,17520,23.15213179588318,True,,True,1,False,1000,True,1.0
./expes/v2_2020-11-09_3bh_200-prng-1,30_base_hphc_200,200,first-200,101,rng,num-start-711,711,17520,21.971054792404175,True,,True,1,False,1000,True,1.0
./expes/v2_2020-11-09_3bh_200-prng-1,30_base_hphc_200,200,first-200,131,rng,num-start-101,101,17520,3.043095588684082,True,,True,1,False,1000,True,1.0
./expes/v2_2020-11-09_3bh_200-prng-1,30_base_hphc_200,200,first-200,141,rng,num-start-961,961,17520,28.93673586845398,True,,True,1,False,1000,True,1.0
./expes/v2_2020-11-09_3bh_200-prng-1,30_base_hphc_200,200,first-200,111,rng,num-start-651,651,17520,18.640403747558594,True,,True,1,False,1000,True,1.0
./expes/v2_2020-11-09_3bh_200-prng-1,30_base_hphc_200,200,first-200,121,rng,num-start-321,321,17520,9.261410474777222,True,,True,1,False,1000,True,1.0
./expes/v2_2020-11-09_3bh_200-prng-1,30_base_hphc_200,200,first-200,41,rng,num-start-881,881,17520,26.628588914871216,True,,True,1,False,1000,True,1.0
./expes/v2_2020-11-09_3bh_200-prng-1,30_base_hphc_200,200,first-200,111,rng,num-start-591,591,17520,19.208879709243774,True,,True,1,False,1000,True,1.0
./expes/v2_2020-11-09_3bh_200-prng-1,30_base_hphc_200,200,first-200,81,rng,num-start-261,261,17520,8.380035638809204,True,,True,1,False,1000,True,1.0
./expes/v2_2020-11-09_3bh_200-prng-1,30_base_hphc_200,200,first-200,141,rng,num-start-601,601,17520,17.69217014312744,True,,True,1,False,1000,True,1.0
./expes/v2_2020-11-09_3bh_200-prng-1,30_base_hphc_200,200,first-200,1,rng,num-start-991,991,17520,24.95331621170044,True,,True,1,False,1000,True,1.0
./expes/v2_2020-11-09_3bh_200-prng-1,30_base_hphc_200,200,first-200,101,rng,num-start-981,981,17520,28.96591281890869,True,,True,1,False,1000,True,1.0
./expes/v2_2020-11-09_3bh_200-prng-1,30_base_hphc_200,200,first-200,81,rng,num-start-141,141,17520,4.3882575035095215,True,,True,1,False,1000,True,1.0
./expes/v2_2020-11-09_3bh_200-prng-1,30_base_hphc_200,200,first-200,151,rng,num-start-831,831,17520,26.193336009979248,True,,True,1,False,1000,True,1.0
./expes/v2_2020-11-09_3bh_200-prng-1,30_base_hphc_200,200,first-200,1,rng,num-start-651,651,17520,16.50048327445984,True,,True,1,False,1000,True,1.0
./expes/v2_2020-11-09_3bh_200-prng-1,30_base_hphc_200,200,first-200,81,rng,num-start-111,111,17520,3.5076797008514404,True,,True,1,False,1000,True,1.0
./expes/v2_2020-11-09_3bh_200-prng-1,30_base_hphc_200,200,first-200,51,rng,num-start-131,131,17520,3.816662311553955,True,,True,1,False,1000,True,1.0
./expes/v2_2020-11-09_3bh_200-prng-1,30_base_hphc_200,200,first-200,21,rng,num-start-271,271,17520,7.931640863418579,True,,True,1,False,1000,True,1.0
./expes/v2_2020-11-09_3bh_200-prng-1,30_base_hphc_200,200,first-200,111,rng,num-start-551,551,17520,16.294323682785034,True,,True,1,False,1000,True,1.0
./expes/v2_2020-11-09_3bh_200-prng-1,30_base_hphc_200,200,first-200,101,rng,num-start-681,681,17520,20.4366672039032,True,,True,1,False,1000,True,1.0
./expes/v2_2020-11-09_3bh_200-prng-1,30_base_hphc_200,200,first-200,111,rng,num-start-841,841,17520,25.478660106658936,True,,True,1,False,1000,True,1.0
./expes/v2_2020-11-09_3bh_200-prng-1,30_base_hphc_200,200,first-200,131,rng,num-start-291,291,17520,8.990753173828125,True,,True,1,False,1000,True,1.0
./expes/v2_2020-11-09_3bh_200-prng-1,30_base_hphc_200,200,first-200,101,rng,num-start-181,181,17520,5.584835529327393,True,,True,1,False,1000,True,1.0
./expes/v2_2020-11-09_3bh_200-prng-1,30_base_hphc_200,200,first-200,191,rng,num-start-201,201,17520,5.663587331771851,True,,True,1,False,1000,True,1.0
./expes/v2_2020-11-09_3bh_200-prng-1,30_base_hphc_200,200,first-200,101,rng,num-start-171,171,17520,4.995703220367432,True,,True,1,False,1000,True,1.0
./expes/v2_2020-11-09_3bh_200-prng-1,30_base_hphc_200,200,first-200,91,rng,num-start-971,971,17520,28.96608567237854,True,,True,1,False,1000,True,1.0
./expes/v2_2020-11-09_3bh_200-prng-1,30_base_hphc_200,200,first-200,61,rng,num-start-21,21,17520,1000.5704846382141,False,,False,0,True,1000,True,0.0
./expes/v2_2020-11-09_3bh_200-prng-1,30_base_hphc_200,200,first-200,81,rng,num-start-501,501,17520,14.875966548919678,True,,True,1,False,1000,True,1.0
./expes/v2_2020-11-09_3bh_200-prng-1,30_base_hphc_200,200,first-200,71,rng,num-start-71,71,17520,14.161448955535889,True,,True,1,False,1000,True,1.0
./expes/v2_2020-11-09_3bh_200-prng-1,30_base_hphc_200,200,first-200,161,rng,num-start-151,151,17520,4.824573993682861,True,,True,1,False,1000,True,1.0
