expe,clients,clients_size,clients_subset,agg_size,method,days,days_size,days_total,time,valid,valid_sum,success,nsols,wall_hit,wall_time,pooled,valid_sums
./expes/v2_2020-11-04_dbh_50-prng-1,daily_base_hphc_50,50,first-50,41,rng,num-start-81,81,365,0.7844300270080566,True,,True,1,False,1000,True,1.0
./expes/v2_2020-11-04_dbh_50-prng-1,daily_base_hphc_50,50,first-50,41,rng,num-start-241,241,365,1.809849500656128,True,,True,1,False,1000,True,1.0
