expe,clients,clients_size,clients_subset,agg_size,method,days,days_size,days_total,time,valid,valid_sum,success,nsols,wall_hit,wall_time,pooled,valid_sums
./expes/v2_2020-11-04_dbh_50-prng-1,daily_base_hphc_50,50,first-50,11,rng,num-start-11,11,365,0.33589839935302734,True,,True,1,False,1000,True,1.0
./expes/v2_2020-11-04_dbh_50-prng-1,daily_base_hphc_50,50,first-50,31,rng,num-start-71,71,365,0.5802452564239502,True,,True,1,False,1000,True,1.0
