,expe,clients,clients_size,clients_subset,agg_size,agg_size_pc,method,days,days_size,days_total,noise_method,time,valid,valid_sum,success,score_avg,score_min,score_max,nsols,oracle,wall_hit,wall_time,pooled,pool_size,optimal,valid_sums,uuid
0,./expes/v3_2021-01-22_di_4500-prng-1-w1-p100,daily_issda-4500,4500,first-4500,336,7,rng,num-start-51,51,536,classic,1019.5756297111512,False,,True,0.0,,,0,"Index(['6', '27', '32', '44', '45', '53', '60', '68', '71', '89',
       ...
       '4401', '4404', '4422', '4440', '4442', '4456', '4460', '4469', '4482',
       '4495'],
      dtype='object', length=336)",True,1000,True,100,0.0,0.0,08ae3df961
1,./expes/v3_2021-01-22_di_4500-prng-1-w1-p100,daily_issda-4500,4500,first-4500,784,17,rng,num-start-1,1,536,classic,25.975611448287964,False,,True,0.4624982620438779,0.4612173625806693,0.4632840469807299,10,"Index(['16', '21', '24', '31', '38', '43', '46', '51', '55', '62',
       ...
       '4453', '4454', '4460', '4469', '4475', '4482', '4488', '4494', '4495',
       '4499'],
      dtype='object', length=784)",False,1000,True,100,1.0,1.0,ebffe518e8
2,./expes/v3_2021-01-22_di_4500-prng-1-w1-p100,daily_issda-4500,4500,first-4500,1792,39,rng,num-start-111,111,536,classic,1044.955659866333,False,,True,0.0,,,0,"Index(['2', '4', '9', '10', '11', '12', '14', '15', '16', '22',
       ...
       '4476', '4482', '4488', '4490', '4492', '4494', '4495', '4496', '4499',
       '4500'],
      dtype='object', length=1792)",True,1000,True,100,0.0,0.0,3d086a873f
3,./expes/v3_2021-01-22_di_4500-prng-1-w1-p100,daily_issda-4500,4500,first-4500,1232,27,rng,num-start-181,181,536,classic,1072.9283378124237,False,,True,0.0,,,0,"Index(['1', '2', '3', '4', '14', '16', '17', '24', '25', '28',
       ...
       '4471', '4474', '4477', '4479', '4481', '4483', '4490', '4493', '4495',
       '4500'],
      dtype='object', length=1232)",True,1000,True,100,0.0,0.0,ba5a299a68
4,./expes/v3_2021-01-22_di_4500-prng-1-w1-p100,daily_issda-4500,4500,first-4500,1120,24,rng,num-start-181,181,536,classic,1076.9742498397827,False,,True,0.0,,,0,"Index(['1', '2', '3', '9', '10', '13', '16', '20', '21', '26',
       ...
       '4467', '4474', '4477', '4479', '4483', '4485', '4494', '4495', '4497',
       '4499'],
      dtype='object', length=1120)",True,1000,True,100,0.0,0.0,22209157f3
5,./expes/v3_2021-01-22_di_4500-prng-1-w1-p100,daily_issda-4500,4500,first-4500,1344,29,rng,num-start-61,61,536,classic,1026.0010995864868,False,,True,0.0,,,0,"Index(['2', '4', '9', '10', '11', '12', '15', '16', '22', '24',
       ...
       '4462', '4465', '4473', '4482', '4488', '4490', '4492', '4495', '4499',
       '4500'],
      dtype='object', length=1344)",True,1000,True,100,0.0,0.0,e6da458e87
6,./expes/v3_2021-01-22_di_4500-prng-1-w1-p100,daily_issda-4500,4500,first-4500,1120,24,rng,num-start-161,161,536,classic,1064.4305911064148,False,,True,0.0,,,0,"Index(['1', '3', '10', '14', '16', '21', '26', '33', '47', '49',
       ...
       '4464', '4465', '4471', '4474', '4490', '4494', '4496', '4497', '4499',
       '4500'],
      dtype='object', length=1120)",True,1000,True,100,0.0,0.0,6b2779527a
7,./expes/v3_2021-01-22_di_4500-prng-1-w1-p100,daily_issda-4500,4500,first-4500,672,14,rng,num-start-241,241,536,classic,1096.2470433712006,False,,True,0.0,,,0,"Index(['7', '13', '18', '29', '32', '33', '43', '47', '62', '70',
       ...
       '4463', '4467', '4468', '4469', '4482', '4487', '4490', '4492', '4496',
       '4500'],
      dtype='object', length=672)",True,1000,True,100,0.0,0.0,8d3ab91d8d
8,./expes/v3_2021-01-22_di_4500-prng-1-w1-p100,daily_issda-4500,4500,first-4500,784,17,rng,num-start-131,131,536,classic,1052.02943444252,False,,True,0.0,,,0,"Index(['14', '20', '31', '33', '49', '51', '55', '60', '64', '67',
       ...
       '4468', '4475', '4476', '4478', '4490', '4492', '4493', '4496', '4497',
       '4499'],
      dtype='object', length=784)",True,1000,True,100,0.0,0.0,07b98adc1c
9,./expes/v3_2021-01-22_di_4500-prng-1-w1-p100,daily_issda-4500,4500,first-4500,672,14,rng,num-start-281,281,536,classic,1119.65359044075,False,,True,0.0,,,0,"Index(['8', '14', '22', '27', '30', '40', '46', '48', '60', '66',
       ...
       '4439', '4452', '4455', '4458', '4460', '4465', '4470', '4475', '4483',
       '4487'],
      dtype='object', length=672)",True,1000,True,100,0.0,0.0,f8ea1c3a08
10,./expes/v3_2021-01-22_di_4500-prng-1-w1-p100,daily_issda-4500,4500,first-4500,2240,49,rng,num-start-81,81,536,classic,1032.6438546180725,False,,True,0.0,,,0,"Index(['4', '5', '7', '10', '13', '21', '24', '25', '27', '29',
       ...
       '4484', '4488', '4489', '4490', '4494', '4495', '4496', '4497', '4498',
       '4499'],
      dtype='object', length=2240)",True,1000,True,100,0.0,0.0,6f704dd476
11,./expes/v3_2021-01-22_di_4500-prng-1-w1-p100,daily_issda-4500,4500,first-4500,336,7,rng,num-start-61,61,536,classic,1024.5114159584043,False,,True,0.0,,,0,"Index(['17', '24', '57', '72', '102', '133', '138', '148', '155', '179',
       ...
       '4408', '4422', '4439', '4440', '4444', '4460', '4467', '4469', '4471',
       '4483'],
      dtype='object', length=336)",True,1000,True,100,0.0,0.0,01a603bcc1
12,./expes/v3_2021-01-22_di_4500-prng-1-w1-p100,daily_issda-4500,4500,first-4500,896,19,rng,num-start-271,271,536,classic,1109.6483442783356,False,,True,0.0,,,0,"Index(['2', '4', '10', '11', '13', '22', '23', '25', '26', '27',
       ...
       '4449', '4451', '4456', '4464', '4466', '4467', '4471', '4481', '4483',
       '4494'],
      dtype='object', length=896)",True,1000,True,100,0.0,0.0,f3a782808e
13,./expes/v3_2021-01-22_di_4500-prng-1-w1-p100,daily_issda-4500,4500,first-4500,1680,37,rng,num-start-71,71,536,classic,1029.3208348751068,False,,True,0.0,,,0,"Index(['1', '2', '3', '4', '5', '6', '8', '13', '15', '21',
       ...
       '4470', '4473', '4474', '4480', '4481', '4486', '4489', '4493', '4499',
       '4500'],
      dtype='object', length=1680)",True,1000,True,100,0.0,0.0,6702ee3cf4
14,./expes/v3_2021-01-22_di_4500-prng-1-w1-p100,daily_issda-4500,4500,first-4500,784,17,rng,num-start-271,271,536,classic,1106.9475581645966,False,,True,0.0,,,0,"Index(['2', '4', '10', '11', '25', '38', '45', '55', '87', '88',
       ...
       '4465', '4468', '4473', '4476', '4478', '4482', '4484', '4486', '4489',
       '4491'],
      dtype='object', length=784)",True,1000,True,100,0.0,0.0,84964676d4
15,./expes/v3_2021-01-22_di_4500-prng-1-w1-p100,daily_issda-4500,4500,first-4500,1232,27,rng,num-start-221,221,536,classic,1082.728127002716,False,,True,0.0,,,0,"Index(['1', '2', '3', '4', '8', '9', '19', '25', '28', '30',
       ...
       '4442', '4447', '4449', '4457', '4469', '4472', '4473', '4479', '4486',
       '4498'],
      dtype='object', length=1232)",True,1000,True,100,0.0,0.0,59c371aca6
16,./expes/v3_2021-01-22_di_4500-prng-1-w1-p100,daily_issda-4500,4500,first-4500,1008,22,rng,num-start-191,191,536,classic,1075.4857165813446,False,,True,0.0,,,0,"Index(['5', '6', '12', '16', '17', '24', '27', '32', '41', '42',
       ...
       '4458', '4460', '4468', '4469', '4470', '4474', '4477', '4482', '4493',
       '4495'],
      dtype='object', length=1008)",True,1000,True,100,0.0,0.0,89865e938d
17,./expes/v3_2021-01-22_di_4500-prng-1-w1-p100,daily_issda-4500,4500,first-4500,112,2,rng,num-start-131,131,536,classic,1055.3276517391205,False,,True,0.0,,,0,"Index(['6', '32', '44', '53', '68', '144', '151', '193', '209', '281',
       ...
       '4070', '4075', '4103', '4119', '4137', '4148', '4240', '4277', '4404',
       '4422'],
      dtype='object', length=112)",True,1000,True,100,0.0,0.0,00fd5e1c85
18,./expes/v3_2021-01-22_di_4500-prng-1-w1-p100,daily_issda-4500,4500,first-4500,2016,44,rng,num-start-291,291,536,classic,1113.6718516349792,False,,True,0.0,,,0,"Index(['1', '2', '3', '4', '5', '6', '8', '11', '13', '15',
       ...
       '4474', '4477', '4480', '4481', '4486', '4489', '4490', '4493', '4499',
       '4500'],
      dtype='object', length=2016)",True,1000,True,100,0.0,0.0,4543849a90
19,./expes/v3_2021-01-22_di_4500-prng-1-w1-p100,daily_issda-4500,4500,first-4500,336,7,rng,num-start-151,151,536,classic,1063.4620969295502,False,,True,0.0,,,0,"Index(['4', '22', '40', '51', '80', '81', '101', '103', '108', '122',
       ...
       '4387', '4388', '4407', '4410', '4418', '4426', '4447', '4456', '4471',
       '4483'],
      dtype='object', length=336)",True,1000,True,100,0.0,0.0,d3f5f565c8
20,./expes/v3_2021-01-22_di_4500-prng-1-w1-p100,daily_issda-4500,4500,first-4500,1120,24,rng,num-start-131,131,536,classic,1056.592653274536,False,,True,0.0,,,0,"Index(['5', '7', '13', '18', '25', '29', '32', '33', '35', '40',
       ...
       '4471', '4473', '4481', '4482', '4487', '4490', '4492', '4496', '4499',
       '4500'],
      dtype='object', length=1120)",True,1000,True,100,0.0,0.0,8b477f9718
21,./expes/v3_2021-01-22_di_4500-prng-1-w1-p100,daily_issda-4500,4500,first-4500,448,9,rng,num-start-181,181,536,classic,1072.781105041504,False,,True,0.0,,,0,"Index(['24', '29', '34', '42', '45', '64', '101', '109', '120', '122',
       ...
       '4388', '4394', '4397', '4400', '4413', '4423', '4435', '4464', '4465',
       '4498'],
      dtype='object', length=448)",True,1000,True,100,0.0,0.0,1a38e2e0b7
22,./expes/v3_2021-01-22_di_4500-prng-1-w1-p100,daily_issda-4500,4500,first-4500,896,19,rng,num-start-221,221,536,classic,1089.862632036209,False,,True,0.0,,,0,"Index(['3', '10', '14', '16', '21', '26', '33', '47', '49', '51',
       ...
       '4461', '4464', '4465', '4471', '4474', '4490', '4494', '4496', '4499',
       '4500'],
      dtype='object', length=896)",True,1000,True,100,0.0,0.0,60e49f4c9c
23,./expes/v3_2021-01-22_di_4500-prng-1-w1-p100,daily_issda-4500,4500,first-4500,1568,34,rng,num-start-61,61,536,classic,1023.6710863113404,False,,True,0.0,,,0,"Index(['1', '3', '7', '13', '18', '19', '25', '26', '29', '31',
       ...
       '4467', '4468', '4473', '4474', '4477', '4484', '4487', '4494', '4499',
       '4500'],
      dtype='object', length=1568)",True,1000,True,100,0.0,0.0,2cb5a0ee42
24,./expes/v3_2021-01-22_di_4500-prng-1-w1-p100,daily_issda-4500,4500,first-4500,1008,22,rng,num-start-71,71,536,classic,1031.629151344299,False,,True,0.0,,,0,"Index(['1', '2', '3', '5', '6', '15', '24', '29', '36', '40',
       ...
       '4465', '4468', '4473', '4480', '4481', '4486', '4489', '4493', '4499',
       '4500'],
      dtype='object', length=1008)",True,1000,True,100,0.0,0.0,9955475dc4
25,./expes/v3_2021-01-22_di_4500-prng-1-w1-p100,daily_issda-4500,4500,first-4500,2240,49,rng,num-start-291,291,536,classic,1116.6136419773102,False,,True,0.0,,,0,"Index(['4', '5', '6', '8', '12', '14', '18', '21', '22', '27',
       ...
       '4482', '4484', '4486', '4488', '4489', '4491', '4492', '4495', '4496',
       '4500'],
      dtype='object', length=2240)",True,1000,True,100,0.0,0.0,aea784b7eb
26,./expes/v3_2021-01-22_di_4500-prng-1-w1-p100,daily_issda-4500,4500,first-4500,1232,27,rng,num-start-91,91,536,classic,1036.458435535431,False,,True,0.0,,,0,"Index(['5', '12', '13', '14', '15', '16', '25', '30', '35', '40',
       ...
       '4459', '4462', '4467', '4475', '4477', '4481', '4482', '4486', '4488',
       '4494'],
      dtype='object', length=1232)",True,1000,True,100,0.0,0.0,871a6bf791
27,./expes/v3_2021-01-22_di_4500-prng-1-w1-p100,daily_issda-4500,4500,first-4500,1568,34,rng,num-start-1,1,536,classic,38.9011287689209,False,,True,0.322381078179274,0.3200551778986275,0.3246472359893261,10,"Index(['5', '7', '12', '13', '18', '25', '26', '28', '29', '30',
       ...
       '4473', '4476', '4481', '4482', '4487', '4490', '4492', '4496', '4499',
       '4500'],
      dtype='object', length=1568)",False,1000,True,100,1.0,1.0,9f531822e2
28,./expes/v3_2021-01-22_di_4500-prng-1-w1-p100,daily_issda-4500,4500,first-4500,784,17,rng,num-start-241,241,536,classic,1096.533394575119,False,,True,0.0,,,0,"Index(['7', '13', '18', '29', '32', '33', '43', '47', '62', '70',
       ...
       '4467', '4468', '4469', '4481', '4482', '4487', '4490', '4492', '4496',
       '4500'],
      dtype='object', length=784)",True,1000,True,100,0.0,0.0,41871b08c9
29,./expes/v3_2021-01-22_di_4500-prng-1-w1-p100,daily_issda-4500,4500,first-4500,1792,39,rng,num-start-81,81,536,classic,1032.7267961502075,False,,True,0.0,,,0,"Index(['1', '3', '6', '7', '13', '18', '19', '25', '26', '29',
       ...
       '4468', '4470', '4473', '4474', '4477', '4484', '4487', '4494', '4499',
       '4500'],
      dtype='object', length=1792)",True,1000,True,100,0.0,0.0,d88609177d
30,./expes/v3_2021-01-22_di_4500-prng-1-w1-p100,daily_issda-4500,4500,first-4500,224,4,rng,num-start-251,251,536,classic,1104.2985229492188,False,,True,0.0,,,0,"Index(['25', '38', '55', '98', '109', '139', '164', '186', '210', '249',
       ...
       '4290', '4307', '4320', '4325', '4332', '4334', '4357', '4422', '4465',
       '4484'],
      dtype='object', length=224)",True,1000,True,100,0.0,0.0,975066b729
31,./expes/v3_2021-01-22_di_4500-prng-1-w1-p100,daily_issda-4500,4500,first-4500,2240,49,rng,num-start-211,211,536,classic,1084.1500525474548,False,,True,0.0,,,0,"Index(['1', '2', '3', '4', '7', '8', '9', '11', '16', '19',
       ...
       '4479', '4482', '4483', '4486', '4493', '4495', '4497', '4498', '4499',
       '4500'],
      dtype='object', length=2240)",True,1000,True,100,0.0,0.0,8475f4a193
32,./expes/v3_2021-01-22_di_4500-prng-1-w1-p100,daily_issda-4500,4500,first-4500,1008,22,rng,num-start-231,231,536,classic,1091.9028103351593,False,,True,0.0,,,0,"Index(['5', '8', '14', '17', '22', '27', '30', '39', '40', '43',
       ...
       '4459', '4460', '4465', '4467', '4469', '4470', '4475', '4483', '4487',
       '4500'],
      dtype='object', length=1008)",True,1000,True,100,0.0,0.0,d24a51c7bd
33,./expes/v3_2021-01-22_di_4500-prng-1-w1-p100,daily_issda-4500,4500,first-4500,1904,42,rng,num-start-221,221,536,classic,1094.6400282382965,False,,True,0.0,,,0,"Index(['1', '2', '3', '4', '12', '14', '16', '17', '19', '23',
       ...
       '4474', '4475', '4477', '4479', '4481', '4483', '4490', '4493', '4495',
       '4500'],
      dtype='object', length=1904)",True,1000,True,100,0.0,0.0,5b085d3865
34,./expes/v3_2021-01-22_di_4500-prng-1-w1-p100,daily_issda-4500,4500,first-4500,1120,24,rng,num-start-151,151,536,classic,1065.3100774288175,False,,True,0.0,,,0,"Index(['1', '2', '4', '8', '9', '19', '25', '28', '30', '34',
       ...
       '4435', '4438', '4442', '4447', '4449', '4457', '4469', '4472', '4479',
       '4498'],
      dtype='object', length=1120)",True,1000,True,100,0.0,0.0,195b5fa38e
35,./expes/v3_2021-01-22_di_4500-prng-1-w1-p100,daily_issda-4500,4500,first-4500,1680,37,rng,num-start-201,201,536,classic,1084.4589319229126,False,,True,0.0,,,0,"Index(['1', '2', '3', '4', '12', '14', '16', '17', '19', '23',
       ...
       '4474', '4475', '4477', '4479', '4481', '4483', '4490', '4493', '4495',
       '4500'],
      dtype='object', length=1680)",True,1000,True,100,0.0,0.0,2fd3381054
36,./expes/v3_2021-01-22_di_4500-prng-1-w1-p100,daily_issda-4500,4500,first-4500,1792,39,rng,num-start-231,231,536,classic,1093.7868237495422,False,,True,0.0,,,0,"Index(['1', '2', '3', '4', '5', '6', '8', '13', '15', '17',
       ...
       '4473', '4474', '4477', '4480', '4481', '4486', '4489', '4493', '4499',
       '4500'],
      dtype='object', length=1792)",True,1000,True,100,0.0,0.0,9a3b8028ef
37,./expes/v3_2021-01-22_di_4500-prng-1-w1-p100,daily_issda-4500,4500,first-4500,784,17,rng,num-start-31,31,536,classic,1012.4406836032867,False,,True,0.0,,,0,"Index(['4', '5', '32', '38', '41', '56', '77', '78', '79', '84',
       ...
       '4448', '4451', '4454', '4457', '4458', '4463', '4469', '4474', '4480',
       '4495'],
      dtype='object', length=784)",True,1000,True,100,0.0,0.0,0bf2959a9b
38,./expes/v3_2021-01-22_di_4500-prng-1-w1-p100,daily_issda-4500,4500,first-4500,1456,32,rng,num-start-271,271,536,classic,1108.656795978546,False,,True,0.0,,,0,"Index(['1', '2', '13', '14', '15', '16', '17', '20', '23', '29',
       ...
       '4460', '4463', '4469', '4473', '4474', '4482', '4484', '4493', '4495',
       '4500'],
      dtype='object', length=1456)",True,1000,True,100,0.0,0.0,5edd071f60
39,./expes/v3_2021-01-22_di_4500-prng-1-w1-p100,daily_issda-4500,4500,first-4500,672,14,rng,num-start-191,191,536,classic,1076.587460041046,False,,True,0.0,,,0,"Index(['14', '31', '51', '55', '64', '67', '69', '71', '79', '85',
       ...
       '4468', '4475', '4476', '4478', '4490', '4492', '4493', '4496', '4497',
       '4499'],
      dtype='object', length=672)",True,1000,True,100,0.0,0.0,fa2d393f51
40,./expes/v3_2021-01-22_di_4500-prng-1-w1-p100,daily_issda-4500,4500,first-4500,1456,32,rng,num-start-241,241,536,classic,1100.639412164688,False,,True,0.0,,,0,"Index(['5', '7', '13', '18', '25', '28', '29', '30', '32', '33',
       ...
       '4473', '4476', '4481', '4482', '4487', '4490', '4492', '4496', '4499',
       '4500'],
      dtype='object', length=1456)",True,1000,True,100,0.0,0.0,957cde6446
41,./expes/v3_2021-01-22_di_4500-prng-1-w1-p100,daily_issda-4500,4500,first-4500,448,9,rng,num-start-221,221,536,classic,1090.3561918735504,False,,True,0.0,,,0,"Index(['15', '16', '25', '35', '40', '44', '69', '70', '86', '96',
       ...
       '4366', '4368', '4388', '4408', '4412', '4431', '4458', '4467', '4486',
       '4494'],
      dtype='object', length=448)",True,1000,True,100,0.0,0.0,d7dbaa5d21
42,./expes/v3_2021-01-22_di_4500-prng-1-w1-p100,daily_issda-4500,4500,first-4500,896,19,rng,num-start-61,61,536,classic,1026.0623922348022,False,,True,0.0,,,0,"Index(['16', '21', '24', '25', '31', '35', '38', '43', '46', '51',
       ...
       '4454', '4460', '4462', '4469', '4475', '4482', '4488', '4494', '4495',
       '4499'],
      dtype='object', length=896)",True,1000,True,100,0.0,0.0,aa0c6a037f
43,./expes/v3_2021-01-22_di_4500-prng-1-w1-p100,daily_issda-4500,4500,first-4500,560,12,rng,num-start-221,221,536,classic,1090.237584590912,False,,True,0.0,,,0,"Index(['15', '20', '29', '39', '41', '57', '60', '62', '94', '108',
       ...
       '4432', '4435', '4436', '4439', '4450', '4456', '4459', '4460', '4463',
       '4493'],
      dtype='object', length=560)",True,1000,True,100,0.0,0.0,0365bf74da
44,./expes/v3_2021-01-22_di_4500-prng-1-w1-p100,daily_issda-4500,4500,first-4500,1680,37,rng,num-start-161,161,536,classic,1067.5842599868774,False,,True,0.0,,,0,"Index(['4', '5', '8', '12', '22', '28', '29', '30', '32', '33',
       ...
       '4475', '4480', '4482', '4484', '4488', '4489', '4491', '4492', '4495',
       '4500'],
      dtype='object', length=1680)",True,1000,True,100,0.0,0.0,59a5871286
45,./expes/v3_2021-01-22_di_4500-prng-1-w1-p100,daily_issda-4500,4500,first-4500,1456,32,rng,num-start-31,31,536,classic,1012.8400332927704,False,,True,0.0,,,0,"Index(['4', '8', '9', '14', '20', '24', '31', '33', '35', '36',
       ...
       '4476', '4477', '4478', '4486', '4490', '4492', '4493', '4496', '4497',
       '4499'],
      dtype='object', length=1456)",True,1000,True,100,0.0,0.0,ba24972971
46,./expes/v3_2021-01-22_di_4500-prng-1-w1-p100,daily_issda-4500,4500,first-4500,672,14,rng,num-start-101,101,536,classic,1041.8053679466248,False,,True,0.0,,,0,"Index(['15', '20', '23', '29', '30', '39', '41', '57', '60', '62',
       ...
       '4432', '4435', '4436', '4439', '4450', '4456', '4459', '4460', '4463',
       '4493'],
      dtype='object', length=672)",True,1000,True,100,0.0,0.0,dbbc6d4e56
47,./expes/v3_2021-01-22_di_4500-prng-1-w1-p100,daily_issda-4500,4500,first-4500,784,17,rng,num-start-1,1,536,classic,21.395696878433228,False,,True,0.461960606685006,0.4612173625806693,0.4624564197304167,10,"Index(['3', '10', '14', '26', '33', '47', '49', '51', '52', '55',
       ...
       '4453', '4454', '4461', '4464', '4465', '4471', '4474', '4490', '4494',
       '4500'],
      dtype='object', length=784)",False,1000,True,100,1.0,1.0,2c5f034441
48,./expes/v3_2021-01-22_di_4500-prng-1-w1-p100,daily_issda-4500,4500,first-4500,448,9,rng,num-start-201,201,536,classic,1083.5046741962433,False,,True,0.0,,,0,"Index(['2', '16', '33', '34', '95', '99', '117', '126', '138', '149',
       ...
       '4390', '4396', '4430', '4437', '4450', '4460', '4473', '4488', '4492',
       '4495'],
      dtype='object', length=448)",True,1000,True,100,0.0,0.0,6f0ddeaa03
49,./expes/v3_2021-01-22_di_4500-prng-1-w1-p100,daily_issda-4500,4500,first-4500,784,17,rng,num-start-231,231,536,classic,1089.5984580516815,False,,True,0.0,,,0,"Index(['10', '24', '25', '29', '30', '34', '36', '41', '42', '45',
       ...
       '4430', '4435', '4437', '4452', '4461', '4464', '4465', '4469', '4498',
       '4499'],
      dtype='object', length=784)",True,1000,True,100,0.0,0.0,eb0432cc6e
50,./expes/v3_2021-01-22_di_4500-prng-1-w1-p100,daily_issda-4500,4500,first-4500,224,4,rng,num-start-41,41,536,classic,1017.2312688827516,False,,True,0.0,,,0,"Index(['6', '32', '44', '53', '68', '98', '107', '122', '144', '151',
       ...
       '4387', '4388', '4401', '4404', '4422', '4442', '4460', '4469', '4482',
       '4495'],
      dtype='object', length=224)",True,1000,True,100,0.0,0.0,a541ba03e1
51,./expes/v3_2021-01-22_di_4500-prng-1-w1-p100,daily_issda-4500,4500,first-4500,1232,27,rng,num-start-91,91,536,classic,1038.8805084228516,False,,True,0.0,,,0,"Index(['1', '2', '14', '15', '16', '20', '23', '29', '30', '39',
       ...
       '4456', '4459', '4460', '4463', '4473', '4474', '4482', '4484', '4493',
       '4495'],
      dtype='object', length=1232)",True,1000,True,100,0.0,0.0,a3666ca9a6
52,./expes/v3_2021-01-22_di_4500-prng-1-w1-p100,daily_issda-4500,4500,first-4500,1120,24,rng,num-start-221,221,536,classic,1092.459894180298,False,,True,0.0,,,0,"Index(['1', '2', '3', '14', '16', '17', '24', '25', '28', '33',
       ...
       '4471', '4474', '4477', '4479', '4481', '4483', '4490', '4493', '4495',
       '4500'],
      dtype='object', length=1120)",True,1000,True,100,0.0,0.0,cc07f1682f
53,./expes/v3_2021-01-22_di_4500-prng-1-w1-p100,daily_issda-4500,4500,first-4500,672,14,rng,num-start-11,11,536,classic,1004.7603318691254,False,,True,0.0,,,0,"Index(['4', '10', '25', '38', '45', '55', '87', '91', '98', '103',
       ...
       '4453', '4465', '4468', '4476', '4478', '4482', '4484', '4486', '4489',
       '4491'],
      dtype='object', length=672)",True,1000,True,100,0.0,0.0,8b882515c9
54,./expes/v3_2021-01-22_di_4500-prng-1-w1-p100,daily_issda-4500,4500,first-4500,672,14,rng,num-start-151,151,536,classic,1063.9307372570038,False,,True,0.0,,,0,"Index(['24', '25', '29', '34', '41', '42', '45', '58', '64', '81',
       ...
       '4427', '4430', '4435', '4437', '4452', '4461', '4464', '4465', '4498',
       '4499'],
      dtype='object', length=672)",True,1000,True,100,0.0,0.0,d772a124af
55,./expes/v3_2021-01-22_di_4500-prng-1-w1-p100,daily_issda-4500,4500,first-4500,1792,39,rng,num-start-191,191,536,classic,1078.5740303993225,False,,True,0.0,,,0,"Index(['4', '5', '8', '12', '22', '28', '29', '30', '32', '33',
       ...
       '4480', '4482', '4484', '4486', '4488', '4489', '4491', '4492', '4495',
       '4500'],
      dtype='object', length=1792)",True,1000,True,100,0.0,0.0,6eb99bca46
56,./expes/v3_2021-01-22_di_4500-prng-1-w1-p100,daily_issda-4500,4500,first-4500,1904,42,rng,num-start-81,81,536,classic,1034.217384338379,False,,True,0.0,,,0,"Index(['4', '8', '9', '11', '14', '16', '20', '24', '31', '32',
       ...
       '4480', '4482', '4486', '4490', '4492', '4493', '4496', '4497', '4498',
       '4499'],
      dtype='object', length=1904)",True,1000,True,100,0.0,0.0,f21c8c0c72
57,./expes/v3_2021-01-22_di_4500-prng-1-w1-p100,daily_issda-4500,4500,first-4500,784,17,rng,num-start-271,271,536,classic,1114.0789635181427,False,,True,0.0,,,0,"Index(['10', '24', '25', '29', '30', '34', '36', '41', '42', '45',
       ...
       '4430', '4435', '4437', '4452', '4461', '4464', '4465', '4469', '4498',
       '4499'],
      dtype='object', length=784)",True,1000,True,100,0.0,0.0,e3b06ee575
58,./expes/v3_2021-01-22_di_4500-prng-1-w1-p100,daily_issda-4500,4500,first-4500,1792,39,rng,num-start-191,191,536,classic,1083.4090673923492,False,,True,0.0,,,0,"Index(['1', '2', '3', '4', '8', '9', '11', '16', '19', '25',
       ...
       '4472', '4473', '4475', '4479', '4482', '4483', '4486', '4498', '4499',
       '4500'],
      dtype='object', length=1792)",True,1000,True,100,0.0,0.0,a79f88fac5
59,./expes/v3_2021-01-22_di_4500-prng-1-w1-p100,daily_issda-4500,4500,first-4500,1232,27,rng,num-start-51,51,536,classic,1022.2198450565338,False,,True,0.0,,,0,"Index(['1', '3', '4', '10', '14', '16', '21', '26', '30', '33',
       ...
       '4465', '4471', '4474', '4490', '4491', '4494', '4496', '4497', '4499',
       '4500'],
      dtype='object', length=1232)",True,1000,True,100,0.0,0.0,95f3d0f1b8
60,./expes/v3_2021-01-22_di_4500-prng-1-w1-p100,daily_issda-4500,4500,first-4500,560,12,rng,num-start-201,201,536,classic,1089.0592679977417,False,,True,0.0,,,0,"Index(['1', '2', '3', '5', '15', '24', '29', '40', '64', '84',
       ...
       '4437', '4444', '4452', '4457', '4463', '4468', '4473', '4480', '4486',
       '4493'],
      dtype='object', length=560)",True,1000,True,100,0.0,0.0,0e813df402
61,./expes/v3_2021-01-22_di_4500-prng-1-w1-p100,daily_issda-4500,4500,first-4500,448,9,rng,num-start-151,151,536,classic,1063.591798067093,False,,True,0.0,,,0,"Index(['1', '2', '4', '9', '25', '30', '34', '48', '51', '62',
       ...
       '4366', '4377', '4378', '4380', '4388', '4401', '4409', '4417', '4418',
       '4438'],
      dtype='object', length=448)",True,1000,True,100,0.0,0.0,59f2362d2a
62,./expes/v3_2021-01-22_di_4500-prng-1-w1-p100,daily_issda-4500,4500,first-4500,448,9,rng,num-start-121,121,536,classic,1051.550253868103,False,,True,0.0,,,0,"Index(['17', '24', '57', '72', '102', '108', '133', '138', '148', '155',
       ...
       '4439', '4440', '4444', '4460', '4467', '4469', '4471', '4477', '4483',
       '4495'],
      dtype='object', length=448)",True,1000,True,100,0.0,0.0,b8038256db
63,./expes/v3_2021-01-22_di_4500-prng-1-w1-p100,daily_issda-4500,4500,first-4500,1456,32,rng,num-start-221,221,536,classic,1093.6696555614471,False,,True,0.0,,,0,"Index(['1', '2', '3', '4', '8', '9', '16', '19', '25', '28',
       ...
       '4464', '4467', '4469', '4472', '4473', '4475', '4479', '4486', '4498',
       '4500'],
      dtype='object', length=1456)",True,1000,True,100,0.0,0.0,30f79ea66d
64,./expes/v3_2021-01-22_di_4500-prng-1-w1-p100,daily_issda-4500,4500,first-4500,1792,39,rng,num-start-41,41,536,classic,1017.579775094986,False,,True,0.0,,,0,"Index(['1', '3', '4', '5', '7', '9', '10', '11', '12', '14',
       ...
       '4471', '4474', '4479', '4490', '4491', '4494', '4496', '4497', '4499',
       '4500'],
      dtype='object', length=1792)",True,1000,True,100,0.0,0.0,48b97eabcf
65,./expes/v3_2021-01-22_di_4500-prng-1-w1-p100,daily_issda-4500,4500,first-4500,224,4,rng,num-start-241,241,536,classic,1096.9651744365692,False,,True,0.0,,,0,"Index(['15', '28', '44', '75', '95', '108', '149', '177', '188', '227',
       ...
       '4337', '4343', '4357', '4371', '4418', '4455', '4466', '4481', '4491',
       '4498'],
      dtype='object', length=224)",True,1000,True,100,0.0,0.0,6c0b2d8ea5
66,./expes/v3_2021-01-22_di_4500-prng-1-w1-p100,daily_issda-4500,4500,first-4500,2240,49,rng,num-start-111,111,536,classic,1045.9936001300812,False,,True,0.0,,,0,"Index(['1', '2', '3', '4', '12', '14', '15', '16', '17', '19',
       ...
       '4477', '4479', '4481', '4483', '4490', '4491', '4493', '4495', '4497',
       '4500'],
      dtype='object', length=2240)",True,1000,True,100,0.0,0.0,4eaef2aca8
67,./expes/v3_2021-01-22_di_4500-prng-1-w1-p100,daily_issda-4500,4500,first-4500,1456,32,rng,num-start-221,221,536,classic,1087.1891202926636,False,,True,0.0,,,0,"Index(['1', '3', '7', '13', '18', '19', '26', '29', '31', '32',
       ...
       '4462', '4467', '4468', '4473', '4474', '4477', '4484', '4487', '4494',
       '4499'],
      dtype='object', length=1456)",True,1000,True,100,0.0,0.0,321f5131b4
68,./expes/v3_2021-01-22_di_4500-prng-1-w1-p100,daily_issda-4500,4500,first-4500,1008,22,rng,num-start-291,291,536,classic,1117.5459775924685,False,,True,0.0,,,0,"Index(['1', '2', '4', '8', '9', '19', '25', '28', '30', '34',
       ...
       '4417', '4418', '4424', '4438', '4442', '4447', '4449', '4457', '4472',
       '4498'],
      dtype='object', length=1008)",True,1000,True,100,0.0,0.0,674762eb7f
69,./expes/v3_2021-01-22_di_4500-prng-1-w1-p100,daily_issda-4500,4500,first-4500,896,19,rng,num-start-291,291,536,classic,1120.313390493393,False,,True,0.0,,,0,"Index(['2', '9', '10', '12', '15', '16', '24', '28', '30', '31',
       ...
       '4450', '4460', '4462', '4473', '4482', '4488', '4492', '4495', '4499',
       '4500'],
      dtype='object', length=896)",True,1000,True,100,0.0,0.0,77a5976a27
70,./expes/v3_2021-01-22_di_4500-prng-1-w1-p100,daily_issda-4500,4500,first-4500,1456,32,rng,num-start-51,51,536,classic,1021.2853903770448,False,,True,0.0,,,0,"Index(['5', '7', '13', '18', '25', '28', '29', '30', '32', '33',
       ...
       '4473', '4476', '4481', '4482', '4487', '4490', '4492', '4496', '4499',
       '4500'],
      dtype='object', length=1456)",True,1000,True,100,0.0,0.0,4f16dec97c
71,./expes/v3_2021-01-22_di_4500-prng-1-w1-p100,daily_issda-4500,4500,first-4500,336,7,rng,num-start-221,221,536,classic,1095.8948183059692,False,,True,0.0,,,0,"Index(['1', '10', '13', '20', '28', '65', '73', '102', '109', '116',
       ...
       '4407', '4427', '4429', '4449', '4459', '4460', '4483', '4485', '4494',
       '4495'],
      dtype='object', length=336)",True,1000,True,100,0.0,0.0,7d697b13be
72,./expes/v3_2021-01-22_di_4500-prng-1-w1-p100,daily_issda-4500,4500,first-4500,336,7,rng,num-start-141,141,536,classic,1057.557965517044,False,,True,0.0,,,0,"Index(['47', '52', '55', '72', '91', '106', '117', '141', '144', '149',
       ...
       '4407', '4414', '4415', '4416', '4425', '4434', '4453', '4464', '4465',
       '4494'],
      dtype='object', length=336)",True,1000,True,100,0.0,0.0,a2e76f6101
73,./expes/v3_2021-01-22_di_4500-prng-1-w1-p100,daily_issda-4500,4500,first-4500,224,4,rng,num-start-31,31,536,classic,1012.8129811286926,False,,True,0.0,,,0,"Index(['16', '35', '40', '69', '129', '148', '157', '160', '163', '174',
       ...
       '4266', '4280', '4286', '4302', '4304', '4307', '4311', '4345', '4388',
       '4458'],
      dtype='object', length=224)",True,1000,True,100,0.0,0.0,8b3ed32770
74,./expes/v3_2021-01-22_di_4500-prng-1-w1-p100,daily_issda-4500,4500,first-4500,336,7,rng,num-start-271,271,536,classic,1120.1732065677645,False,,True,0.0,,,0,"Index(['2', '16', '33', '34', '99', '117', '154', '176', '185', '190',
       ...
       '4380', '4390', '4396', '4430', '4437', '4450', '4460', '4488', '4492',
       '4495'],
      dtype='object', length=336)",True,1000,True,100,0.0,0.0,bac83650ef
75,./expes/v3_2021-01-22_di_4500-prng-1-w1-p100,daily_issda-4500,4500,first-4500,896,19,rng,num-start-271,271,536,classic,1110.8544743061066,False,,True,0.0,,,0,"Index(['1', '26', '39', '40', '42', '43', '47', '58', '59', '60',
       ...
       '4446', '4449', '4455', '4460', '4462', '4467', '4468', '4484', '4487',
       '4499'],
      dtype='object', length=896)",True,1000,True,100,0.0,0.0,da744cdd72
76,./expes/v3_2021-01-22_di_4500-prng-1-w1-p100,daily_issda-4500,4500,first-4500,1456,32,rng,num-start-291,291,536,classic,1117.128061056137,False,,True,0.0,,,0,"Index(['2', '4', '9', '10', '11', '12', '15', '16', '22', '23',
       ...
       '4468', '4473', '4482', '4488', '4490', '4492', '4494', '4495', '4499',
       '4500'],
      dtype='object', length=1456)",True,1000,True,100,0.0,0.0,ba12c2fbea
77,./expes/v3_2021-01-22_di_4500-prng-1-w1-p100,daily_issda-4500,4500,first-4500,112,2,rng,num-start-291,291,536,classic,1116.807674407959,False,,True,0.0,,,0,"Index(['43', '80', '147', '158', '170', '221', '406', '412', '413', '415',
       ...
       '4303', '4317', '4361', '4366', '4368', '4399', '4424', '4426', '4442',
       '4449'],
      dtype='object', length=112)",True,1000,True,100,0.0,0.0,f91ab29d84
78,./expes/v3_2021-01-22_di_4500-prng-1-w1-p100,daily_issda-4500,4500,first-4500,1120,24,rng,num-start-201,201,536,classic,1085.4650666713717,False,,True,0.0,,,0,"Index(['5', '8', '14', '17', '22', '23', '27', '30', '39', '40',
       ...
       '4465', '4467', '4469', '4470', '4472', '4475', '4483', '4487', '4489',
       '4500'],
      dtype='object', length=1120)",True,1000,True,100,0.0,0.0,e3c0631611
79,./expes/v3_2021-01-22_di_4500-prng-1-w1-p100,daily_issda-4500,4500,first-4500,2016,44,rng,num-start-61,61,536,classic,1024.8213584423063,False,,True,0.0,,,0,"Index(['2', '3', '4', '7', '8', '9', '10', '11', '13', '15',
       ...
       '4486', '4488', '4489', '4491', '4492', '4493', '4494', '4496', '4499',
       '4500'],
      dtype='object', length=2016)",True,1000,True,100,0.0,0.0,e69567bf2c
80,./expes/v3_2021-01-22_di_4500-prng-1-w1-p100,daily_issda-4500,4500,first-4500,224,4,rng,num-start-181,181,536,classic,1076.0339496135712,False,,True,0.0,,,0,"Index(['24', '34', '42', '64', '122', '134', '205', '261', '267', '270',
       ...
       '4288', '4304', '4371', '4387', '4394', '4413', '4423', '4435', '4464',
       '4498'],
      dtype='object', length=224)",True,1000,True,100,0.0,0.0,1a441b4f80
81,./expes/v3_2021-01-22_di_4500-prng-1-w1-p100,daily_issda-4500,4500,first-4500,1680,37,rng,num-start-281,281,536,classic,1122.0898609161377,False,,True,0.0,,,0,"Index(['1', '4', '6', '8', '9', '10', '13', '14', '15', '16',
       ...
       '4476', '4481', '4484', '4486', '4490', '4491', '4492', '4493', '4498',
       '4499'],
      dtype='object', length=1680)",True,1000,True,100,0.0,0.0,d410d5110a
82,./expes/v3_2021-01-22_di_4500-prng-1-w1-p100,daily_issda-4500,4500,first-4500,2128,47,rng,num-start-81,81,536,classic,1034.726892709732,False,,True,0.0,,,0,"Index(['2', '3', '4', '7', '8', '9', '10', '11', '13', '15',
       ...
       '4486', '4488', '4489', '4491', '4492', '4493', '4494', '4496', '4499',
       '4500'],
      dtype='object', length=2128)",True,1000,True,100,0.0,0.0,b3f7aed89d
83,./expes/v3_2021-01-22_di_4500-prng-1-w1-p100,daily_issda-4500,4500,first-4500,896,19,rng,num-start-31,31,536,classic,1013.5695939064026,False,,True,0.0,,,0,"Index(['1', '4', '6', '8', '9', '13', '14', '15', '20', '24',
       ...
       '4470', '4471', '4473', '4481', '4484', '4491', '4492', '4493', '4498',
       '4499'],
      dtype='object', length=896)",True,1000,True,100,0.0,0.0,b204c8adad
84,./expes/v3_2021-01-22_di_4500-prng-1-w1-p100,daily_issda-4500,4500,first-4500,1120,24,rng,num-start-251,251,536,classic,1105.792485952377,False,,True,0.0,,,0,"Index(['16', '20', '21', '24', '25', '31', '35', '38', '43', '46',
       ...
       '4462', '4469', '4475', '4477', '4482', '4488', '4490', '4494', '4495',
       '4499'],
      dtype='object', length=1120)",True,1000,True,100,0.0,0.0,13670b90af
85,./expes/v3_2021-01-22_di_4500-prng-1-w1-p100,daily_issda-4500,4500,first-4500,896,19,rng,num-start-41,41,536,classic,1017.6090171337128,False,,True,0.0,,,0,"Index(['14', '15', '16', '20', '23', '29', '30', '39', '41', '57',
       ...
       '4441', '4450', '4456', '4459', '4460', '4463', '4473', '4482', '4484',
       '4493'],
      dtype='object', length=896)",True,1000,True,100,0.0,0.0,3c12e9341d
86,./expes/v3_2021-01-22_di_4500-prng-1-w1-p100,daily_issda-4500,4500,first-4500,1904,42,rng,num-start-61,61,536,classic,1026.150414466858,False,,True,0.0,,,0,"Index(['2', '4', '5', '7', '8', '10', '11', '12', '13', '14',
       ...
       '4480', '4481', '4483', '4492', '4493', '4494', '4495', '4496', '4497',
       '4498'],
      dtype='object', length=1904)",True,1000,True,100,0.0,0.0,d001598e56
87,./expes/v3_2021-01-22_di_4500-prng-1-w1-p100,daily_issda-4500,4500,first-4500,2016,44,rng,num-start-251,251,536,classic,1104.97936296463,False,,True,0.0,,,0,"Index(['2', '3', '4', '7', '8', '9', '10', '11', '13', '15',
       ...
       '4486', '4488', '4489', '4491', '4492', '4493', '4494', '4496', '4499',
       '4500'],
      dtype='object', length=2016)",True,1000,True,100,0.0,0.0,1f50aa8756
88,./expes/v3_2021-01-22_di_4500-prng-1-w1-p100,daily_issda-4500,4500,first-4500,1120,24,rng,num-start-121,121,536,classic,1050.867954492569,False,,True,0.0,,,0,"Index(['1', '2', '14', '15', '16', '20', '23', '29', '30', '39',
       ...
       '4456', '4459', '4460', '4463', '4473', '4474', '4482', '4484', '4493',
       '4495'],
      dtype='object', length=1120)",True,1000,True,100,0.0,0.0,f6f97f51f6
89,./expes/v3_2021-01-22_di_4500-prng-1-w1-p100,daily_issda-4500,4500,first-4500,1456,32,rng,num-start-261,261,536,classic,1108.2771244049072,False,,True,0.0,,,0,"Index(['1', '3', '4', '9', '10', '14', '16', '19', '21', '26',
       ...
       '4467', '4471', '4474', '4490', '4491', '4494', '4496', '4497', '4499',
       '4500'],
      dtype='object', length=1456)",True,1000,True,100,0.0,0.0,dcaaedee29
90,./expes/v3_2021-01-22_di_4500-prng-1-w1-p100,daily_issda-4500,4500,first-4500,2016,44,rng,num-start-31,31,536,classic,1013.6046621799468,False,,True,0.0,,,0,"Index(['1', '2', '3', '4', '5', '6', '8', '11', '13', '15',
       ...
       '4474', '4477', '4480', '4481', '4486', '4489', '4490', '4493', '4499',
       '4500'],
      dtype='object', length=2016)",True,1000,True,100,0.0,0.0,39016cd331
91,./expes/v3_2021-01-22_di_4500-prng-1-w1-p100,daily_issda-4500,4500,first-4500,112,2,rng,num-start-231,231,536,classic,1211.0455257892609,False,,True,0.0,,,0,"Index(['185', '308', '322', '382', '396', '407', '476', '483', '485', '489',
       ...
       '4067', '4068', '4069', '4157', '4194', '4303', '4356', '4390', '4430',
       '4488'],
      dtype='object', length=112)",True,1000,True,100,0.0,0.0,df682a35f5
92,./expes/v3_2021-01-22_di_4500-prng-1-w1-p100,daily_issda-4500,4500,first-4500,2128,47,rng,num-start-171,171,536,classic,1076.1179332733154,False,,True,0.0,,,0,"Index(['1', '5', '8', '11', '12', '13', '14', '15', '16', '18',
       ...
       '4481', '4482', '4484', '4485', '4486', '4488', '4489', '4494', '4495',
       '4499'],
      dtype='object', length=2128)",True,1000,True,100,0.0,0.0,e1a72ab9f3
93,./expes/v3_2021-01-22_di_4500-prng-1-w1-p100,daily_issda-4500,4500,first-4500,2128,47,rng,num-start-251,251,536,classic,1103.049066543579,False,,True,0.0,,,0,"Index(['4', '5', '6', '8', '12', '14', '18', '21', '22', '27',
       ...
       '4480', '4482', '4484', '4486', '4488', '4489', '4491', '4492', '4495',
       '4500'],
      dtype='object', length=2128)",True,1000,True,100,0.0,0.0,b0d0680658
94,./expes/v3_2021-01-22_di_4500-prng-1-w1-p100,daily_issda-4500,4500,first-4500,1904,42,rng,num-start-101,101,536,classic,1040.8578391075134,False,,True,0.0,,,0,"Index(['1', '5', '8', '11', '12', '13', '14', '15', '16', '18',
       ...
       '4476', '4477', '4481', '4482', '4484', '4486', '4488', '4494', '4495',
       '4499'],
      dtype='object', length=1904)",True,1000,True,100,0.0,0.0,d265396ff2
95,./expes/v3_2021-01-22_di_4500-prng-1-w1-p100,daily_issda-4500,4500,first-4500,112,2,rng,num-start-201,201,536,classic,1084.0039746761322,False,,True,0.0,,,0,"Index(['4', '5', '38', '79', '90', '123', '125', '139', '161', '244',
       ...
       '3898', '3989', '4095', '4161', '4169', '4194', '4202', '4253', '4329',
       '4413'],
      dtype='object', length=112)",True,1000,True,100,0.0,0.0,29946c2c56
96,./expes/v3_2021-01-22_di_4500-prng-1-w1-p100,daily_issda-4500,4500,first-4500,224,4,rng,num-start-41,41,536,classic,1016.8566837310792,False,,True,0.0,,,0,"Index(['47', '52', '55', '72', '91', '106', '117', '141', '144', '149',
       ...
       '4364', '4377', '4407', '4414', '4416', '4425', '4434', '4453', '4464',
       '4494'],
      dtype='object', length=224)",True,1000,True,100,0.0,0.0,384956a098
97,./expes/v3_2021-01-22_di_4500-prng-1-w1-p100,daily_issda-4500,4500,first-4500,1008,22,rng,num-start-81,81,536,classic,1034.9756116867063,False,,True,0.0,,,0,"Index(['2', '3', '4', '10', '11', '16', '25', '38', '45', '55',
       ...
       '4473', '4476', '4478', '4480', '4482', '4484', '4486', '4489', '4491',
       '4492'],
      dtype='object', length=1008)",True,1000,True,100,0.0,0.0,9d4385b7d7
98,./expes/v3_2021-01-22_di_4500-prng-1-w1-p100,daily_issda-4500,4500,first-4500,1232,27,rng,num-start-281,281,536,classic,1117.618477344513,False,,True,0.0,,,0,"Index(['1', '2', '3', '5', '6', '8', '15', '24', '28', '29',
       ...
       '4465', '4468', '4473', '4480', '4481', '4486', '4489', '4493', '4499',
       '4500'],
      dtype='object', length=1232)",True,1000,True,100,0.0,0.0,52be62956e
99,./expes/v3_2021-01-22_di_4500-prng-1-w1-p100,daily_issda-4500,4500,first-4500,112,2,rng,num-start-21,21,536,classic,1009.1857874393464,False,,True,0.0,,,0,"Index(['13', '18', '47', '76', '101', '177', '183', '209', '233', '238',
       ...
       '4250', '4268', '4323', '4412', '4421', '4425', '4436', '4490', '4492',
       '4496'],
      dtype='object', length=112)",True,1000,True,100,0.0,0.0,c7370f0c72
100,./expes/v3_2021-01-22_di_4500-prng-1-w1-p100,daily_issda-4500,4500,first-4500,784,17,rng,num-start-61,61,536,classic,1025.06769490242,False,,True,0.0,,,0,"Index(['5', '6', '12', '27', '32', '41', '44', '45', '48', '51',
       ...
       '4456', '4457', '4458', '4460', '4469', '4470', '4474', '4477', '4482',
       '4495'],
      dtype='object', length=784)",True,1000,True,100,0.0,0.0,44cc0aafb6
101,./expes/v3_2021-01-22_di_4500-prng-1-w1-p100,daily_issda-4500,4500,first-4500,1568,34,rng,num-start-1,1,536,classic,26.14771151542664,False,,True,0.3210369390898607,0.3203821530664178,0.3223473172194607,10,"Index(['4', '6', '7', '10', '16', '17', '18', '19', '20', '21',
       ...
       '4479', '4481', '4482', '4487', '4488', '4490', '4494', '4495', '4499',
       '4500'],
      dtype='object', length=1568)",False,1000,True,100,1.0,1.0,038fc06d63
102,./expes/v3_2021-01-22_di_4500-prng-1-w1-p100,daily_issda-4500,4500,first-4500,336,7,rng,num-start-41,41,536,classic,1016.5951611995696,False,,True,0.0,,,0,"Index(['17', '24', '57', '72', '102', '133', '138', '148', '155', '179',
       ...
       '4408', '4422', '4439', '4440', '4444', '4460', '4467', '4469', '4471',
       '4483'],
      dtype='object', length=336)",True,1000,True,100,0.0,0.0,700182f367
103,./expes/v3_2021-01-22_di_4500-prng-1-w1-p100,daily_issda-4500,4500,first-4500,896,19,rng,num-start-281,281,536,classic,1115.8635022640228,False,,True,0.0,,,0,"Index(['14', '15', '16', '20', '23', '29', '30', '39', '41', '57',
       ...
       '4441', '4450', '4456', '4459', '4460', '4463', '4473', '4482', '4484',
       '4493'],
      dtype='object', length=896)",True,1000,True,100,0.0,0.0,b12c69bdee
104,./expes/v3_2021-01-22_di_4500-prng-1-w1-p100,daily_issda-4500,4500,first-4500,1008,22,rng,num-start-171,171,536,classic,1071.0016160011292,False,,True,0.0,,,0,"Index(['4', '5', '12', '32', '38', '41', '56', '77', '78', '79',
       ...
       '4458', '4463', '4469', '4474', '4475', '4480', '4484', '4489', '4492',
       '4495'],
      dtype='object', length=1008)",True,1000,True,100,0.0,0.0,a60d9f621c
105,./expes/v3_2021-01-22_di_4500-prng-1-w1-p100,daily_issda-4500,4500,first-4500,2240,49,rng,num-start-151,151,536,classic,1063.0263752937317,False,,True,0.0,,,0,"Index(['4', '5', '8', '9', '10', '11', '13', '14', '16', '20',
       ...
       '4482', '4486', '4490', '4492', '4493', '4496', '4497', '4498', '4499',
       '4500'],
      dtype='object', length=2240)",True,1000,True,100,0.0,0.0,be3aa55418
106,./expes/v3_2021-01-22_di_4500-prng-1-w1-p100,daily_issda-4500,4500,first-4500,1232,27,rng,num-start-61,61,536,classic,1029.143846988678,False,,True,0.0,,,0,"Index(['5', '12', '13', '14', '15', '16', '25', '30', '35', '40',
       ...
       '4459', '4462', '4467', '4475', '4477', '4481', '4482', '4486', '4488',
       '4494'],
      dtype='object', length=1232)",True,1000,True,100,0.0,0.0,0010e0e917
107,./expes/v3_2021-01-22_di_4500-prng-1-w1-p100,daily_issda-4500,4500,first-4500,1568,34,rng,num-start-31,31,536,classic,1012.3866806030272,False,,True,0.0,,,0,"Index(['5', '7', '12', '13', '18', '25', '26', '28', '29', '30',
       ...
       '4473', '4476', '4481', '4482', '4487', '4490', '4492', '4496', '4499',
       '4500'],
      dtype='object', length=1568)",True,1000,True,100,0.0,0.0,fe6aaa4589
108,./expes/v3_2021-01-22_di_4500-prng-1-w1-p100,daily_issda-4500,4500,first-4500,1456,32,rng,num-start-231,231,536,classic,1183.3399231433868,False,,True,0.0,,,0,"Index(['5', '7', '10', '21', '24', '25', '29', '30', '34', '36',
       ...
       '4464', '4465', '4467', '4469', '4474', '4477', '4480', '4484', '4498',
       '4499'],
      dtype='object', length=1456)",True,1000,True,100,0.0,0.0,e55507dd99
109,./expes/v3_2021-01-22_di_4500-prng-1-w1-p100,daily_issda-4500,4500,first-4500,2016,44,rng,num-start-111,111,536,classic,1047.865142583847,False,,True,0.0,,,0,"Index(['1', '2', '3', '4', '12', '14', '15', '16', '17', '19',
       ...
       '4474', '4475', '4477', '4479', '4481', '4483', '4490', '4493', '4495',
       '4500'],
      dtype='object', length=2016)",True,1000,True,100,0.0,0.0,c71b5cf20c
110,./expes/v3_2021-01-22_di_4500-prng-1-w1-p100,daily_issda-4500,4500,first-4500,1008,22,rng,num-start-61,61,536,classic,1025.3059766292572,False,,True,0.0,,,0,"Index(['5', '6', '12', '16', '17', '24', '27', '32', '41', '42',
       ...
       '4458', '4460', '4468', '4469', '4470', '4474', '4477', '4482', '4493',
       '4495'],
      dtype='object', length=1008)",True,1000,True,100,0.0,0.0,5ace5beac8
111,./expes/v3_2021-01-22_di_4500-prng-1-w1-p100,daily_issda-4500,4500,first-4500,672,14,rng,num-start-181,181,536,classic,1075.8994784355164,False,,True,0.0,,,0,"Index(['13', '15', '16', '25', '35', '40', '44', '52', '69', '70',
       ...
       '4442', '4446', '4458', '4459', '4462', '4467', '4475', '4482', '4486',
       '4494'],
      dtype='object', length=672)",True,1000,True,100,0.0,0.0,04daca411e
112,./expes/v3_2021-01-22_di_4500-prng-1-w1-p100,daily_issda-4500,4500,first-4500,2240,49,rng,num-start-211,211,536,classic,1091.9593575000763,False,,True,0.0,,,0,"Index(['1', '2', '4', '5', '7', '8', '10', '11', '12', '13',
       ...
       '4483', '4487', '4491', '4492', '4493', '4494', '4495', '4496', '4497',
       '4498'],
      dtype='object', length=2240)",True,1000,True,100,0.0,0.0,d57d8560ce
113,./expes/v3_2021-01-22_di_4500-prng-1-w1-p100,daily_issda-4500,4500,first-4500,1344,29,rng,num-start-41,41,536,classic,1017.0020718574524,False,,True,0.0,,,0,"Index(['2', '4', '9', '10', '11', '12', '15', '16', '22', '24',
       ...
       '4462', '4465', '4473', '4482', '4488', '4490', '4492', '4495', '4499',
       '4500'],
      dtype='object', length=1344)",True,1000,True,100,0.0,0.0,477e2531a8
114,./expes/v3_2021-01-22_di_4500-prng-1-w1-p100,daily_issda-4500,4500,first-4500,784,17,rng,num-start-251,251,536,classic,1103.5734906196594,False,,True,0.0,,,0,"Index(['13', '15', '16', '25', '30', '35', '40', '44', '52', '68',
       ...
       '4446', '4453', '4458', '4459', '4462', '4467', '4475', '4482', '4486',
       '4494'],
      dtype='object', length=784)",True,1000,True,100,0.0,0.0,de548858cc
115,./expes/v3_2021-01-22_di_4500-prng-1-w1-p100,daily_issda-4500,4500,first-4500,112,2,rng,num-start-241,241,536,classic,1097.872927427292,False,,True,0.0,,,0,"Index(['4', '103', '140', '152', '180', '233', '302', '375', '441', '627',
       ...
       '4127', '4217', '4233', '4235', '4278', '4303', '4321', '4407', '4410',
       '4418'],
      dtype='object', length=112)",True,1000,True,100,0.0,0.0,c9c4ca18bf
116,./expes/v3_2021-01-22_di_4500-prng-1-w1-p100,daily_issda-4500,4500,first-4500,112,2,rng,num-start-191,191,536,classic,1081.4699883461,False,,True,0.0,,,0,"Index(['185', '308', '322', '382', '396', '407', '476', '483', '485', '489',
       ...
       '4067', '4068', '4069', '4157', '4194', '4303', '4356', '4390', '4430',
       '4488'],
      dtype='object', length=112)",True,1000,True,100,0.0,0.0,80005e7b81
117,./expes/v3_2021-01-22_di_4500-prng-1-w1-p100,daily_issda-4500,4500,first-4500,1792,39,rng,num-start-291,291,536,classic,1117.4550695419312,False,,True,0.0,,,0,"Index(['4', '5', '7', '10', '21', '24', '25', '29', '30', '34',
       ...
       '4472', '4474', '4477', '4480', '4484', '4488', '4494', '4495', '4498',
       '4499'],
      dtype='object', length=1792)",True,1000,True,100,0.0,0.0,e1d46ab559
118,./expes/v3_2021-01-22_di_4500-prng-1-w1-p100,daily_issda-4500,4500,first-4500,1120,24,rng,num-start-61,61,536,classic,1024.644877910614,False,,True,0.0,,,0,"Index(['5', '7', '13', '18', '25', '29', '32', '33', '35', '40',
       ...
       '4471', '4473', '4481', '4482', '4487', '4490', '4492', '4496', '4499',
       '4500'],
      dtype='object', length=1120)",True,1000,True,100,0.0,0.0,6ba85ddabf
119,./expes/v3_2021-01-22_di_4500-prng-1-w1-p100,daily_issda-4500,4500,first-4500,1344,29,rng,num-start-211,211,536,classic,1085.2330961227417,False,,True,0.0,,,0,"Index(['1', '2', '3', '4', '14', '16', '17', '24', '25', '28',
       ...
       '4474', '4475', '4477', '4479', '4481', '4483', '4490', '4493', '4495',
       '4500'],
      dtype='object', length=1344)",True,1000,True,100,0.0,0.0,3c4e5682ca
120,./expes/v3_2021-01-22_di_4500-prng-1-w1-p100,daily_issda-4500,4500,first-4500,672,14,rng,num-start-271,271,536,classic,1113.5780940055847,False,,True,0.0,,,0,"Index(['4', '10', '25', '38', '45', '55', '87', '91', '98', '103',
       ...
       '4453', '4465', '4468', '4476', '4478', '4482', '4484', '4486', '4489',
       '4491'],
      dtype='object', length=672)",True,1000,True,100,0.0,0.0,d8e09fe6cf
121,./expes/v3_2021-01-22_di_4500-prng-1-w1-p100,daily_issda-4500,4500,first-4500,1680,37,rng,num-start-61,61,536,classic,1025.2388942241669,False,,True,0.0,,,0,"Index(['5', '7', '8', '10', '14', '17', '22', '23', '27', '29',
       ...
       '4470', '4472', '4475', '4478', '4480', '4483', '4487', '4489', '4497',
       '4500'],
      dtype='object', length=1680)",True,1000,True,100,0.0,0.0,f0274c9097
122,./expes/v3_2021-01-22_di_4500-prng-1-w1-p100,daily_issda-4500,4500,first-4500,1008,22,rng,num-start-261,261,536,classic,1108.3503093719482,False,,True,0.0,,,0,"Index(['1', '4', '6', '8', '9', '13', '14', '15', '20', '24',
       ...
       '4471', '4473', '4481', '4484', '4486', '4491', '4492', '4493', '4498',
       '4499'],
      dtype='object', length=1008)",True,1000,True,100,0.0,0.0,e91f3d36b5
123,./expes/v3_2021-01-22_di_4500-prng-1-w1-p100,daily_issda-4500,4500,first-4500,2016,44,rng,num-start-151,151,536,classic,1064.5722415447235,False,,True,0.0,,,0,"Index(['1', '2', '3', '4', '5', '6', '9', '10', '11', '13',
       ...
       '4483', '4484', '4485', '4488', '4489', '4492', '4494', '4495', '4497',
       '4499'],
      dtype='object', length=2016)",True,1000,True,100,0.0,0.0,8072bb908d
124,./expes/v3_2021-01-22_di_4500-prng-1-w1-p100,daily_issda-4500,4500,first-4500,672,14,rng,num-start-31,31,536,classic,1012.9853217601776,False,,True,0.0,,,0,"Index(['4', '10', '13', '22', '23', '25', '27', '40', '44', '51',
       ...
       '4443', '4444', '4447', '4451', '4456', '4464', '4466', '4471', '4481',
       '4483'],
      dtype='object', length=672)",True,1000,True,100,0.0,0.0,b39043afb1
125,./expes/v3_2021-01-22_di_4500-prng-1-w1-p100,daily_issda-4500,4500,first-4500,1344,29,rng,num-start-201,201,536,classic,1085.2778148651123,False,,True,0.0,,,0,"Index(['5', '8', '10', '14', '17', '22', '23', '27', '30', '38',
       ...
       '4467', '4469', '4470', '4472', '4475', '4480', '4483', '4487', '4489',
       '4500'],
      dtype='object', length=1344)",True,1000,True,100,0.0,0.0,17229730d0
126,./expes/v3_2021-01-22_di_4500-prng-1-w1-p100,daily_issda-4500,4500,first-4500,896,19,rng,num-start-111,111,536,classic,1045.771788597107,False,,True,0.0,,,0,"Index(['2', '3', '17', '24', '28', '33', '44', '45', '49', '53',
       ...
       '4467', '4469', '4471', '4477', '4479', '4481', '4483', '4493', '4495',
       '4500'],
      dtype='object', length=896)",True,1000,True,100,0.0,0.0,5be3de465c
127,./expes/v3_2021-01-22_di_4500-prng-1-w1-p100,daily_issda-4500,4500,first-4500,560,12,rng,num-start-41,41,536,classic,1017.1095843315125,False,,True,0.0,,,0,"Index(['21', '24', '31', '38', '43', '51', '55', '62', '63', '66',
       ...
       '4399', '4411', '4413', '4439', '4454', '4460', '4475', '4488', '4494',
       '4495'],
      dtype='object', length=560)",True,1000,True,100,0.0,0.0,aee10305ba
128,./expes/v3_2021-01-22_di_4500-prng-1-w1-p100,daily_issda-4500,4500,first-4500,784,17,rng,num-start-231,231,536,classic,1247.109351396561,False,,True,0.0,,,0,"Index(['1', '26', '39', '40', '42', '43', '47', '58', '60', '62',
       ...
       '4434', '4435', '4442', '4446', '4449', '4455', '4460', '4462', '4484',
       '4487'],
      dtype='object', length=784)",True,1000,True,100,0.0,0.0,0c2ca3c34e
129,./expes/v3_2021-01-22_di_4500-prng-1-w1-p100,daily_issda-4500,4500,first-4500,112,2,rng,num-start-291,291,536,classic,1121.9186828136444,False,,True,0.0,,,0,"Index(['47', '52', '55', '72', '149', '646', '715', '727', '759', '830',
       ...
       '4215', '4278', '4316', '4364', '4377', '4407', '4434', '4453', '4464',
       '4494'],
      dtype='object', length=112)",True,1000,True,100,0.0,0.0,88d0d61655
130,./expes/v3_2021-01-22_di_4500-prng-1-w1-p100,daily_issda-4500,4500,first-4500,560,12,rng,num-start-251,251,536,classic,1107.348301410675,False,,True,0.0,,,0,"Index(['2', '9', '16', '28', '30', '33', '34', '41', '95', '99',
       ...
       '4430', '4437', '4450', '4460', '4473', '4482', '4488', '4492', '4495',
       '4499'],
      dtype='object', length=560)",True,1000,True,100,0.0,0.0,189a75b1e7
131,./expes/v3_2021-01-22_di_4500-prng-1-w1-p100,daily_issda-4500,4500,first-4500,1792,39,rng,num-start-91,91,536,classic,1039.785475730896,False,,True,0.0,,,0,"Index(['1', '2', '5', '7', '12', '13', '14', '15', '16', '17',
       ...
       '4469', '4473', '4474', '4479', '4482', '4484', '4493', '4494', '4495',
       '4500'],
      dtype='object', length=1792)",True,1000,True,100,0.0,0.0,3ddfe9999e
132,./expes/v3_2021-01-22_di_4500-prng-1-w1-p100,daily_issda-4500,4500,first-4500,2016,44,rng,num-start-11,11,536,classic,1004.6973798274994,False,,True,0.0,,,0,"Index(['1', '4', '6', '8', '9', '10', '11', '13', '14', '15',
       ...
       '4484', '4485', '4486', '4490', '4491', '4492', '4493', '4498', '4499',
       '4500'],
      dtype='object', length=2016)",True,1000,True,100,0.0,0.0,8ea44906f0
133,./expes/v3_2021-01-22_di_4500-prng-1-w1-p100,daily_issda-4500,4500,first-4500,672,14,rng,num-start-241,241,536,classic,1100.721729040146,False,,True,0.0,,,0,"Index(['5', '6', '8', '10', '16', '17', '18', '25', '27', '31',
       ...
       '4393', '4395', '4397', '4408', '4451', '4466', '4468', '4469', '4480',
       '4482'],
      dtype='object', length=672)",True,1000,True,100,0.0,0.0,1ccccf03df
134,./expes/v3_2021-01-22_di_4500-prng-1-w1-p100,daily_issda-4500,4500,first-4500,1568,34,rng,num-start-71,71,536,classic,1030.0501499176023,False,,True,0.0,,,0,"Index(['2', '4', '9', '10', '11', '12', '14', '15', '16', '22',
       ...
       '4473', '4482', '4488', '4490', '4492', '4494', '4495', '4496', '4499',
       '4500'],
      dtype='object', length=1568)",True,1000,True,100,0.0,0.0,df1bc244ce
135,./expes/v3_2021-01-22_di_4500-prng-1-w1-p100,daily_issda-4500,4500,first-4500,1904,42,rng,num-start-51,51,536,classic,1019.5417730808258,False,,True,0.0,,,0,"Index(['5', '7', '12', '13', '18', '25', '26', '28', '29', '30',
       ...
       '4481', '4482', '4487', '4490', '4492', '4494', '4496', '4498', '4499',
       '4500'],
      dtype='object', length=1904)",True,1000,True,100,0.0,0.0,4a1e949a33
136,./expes/v3_2021-01-22_di_4500-prng-1-w1-p100,daily_issda-4500,4500,first-4500,560,12,rng,num-start-81,81,536,classic,1033.7732963562012,False,,True,0.0,,,0,"Index(['4', '10', '13', '22', '23', '27', '40', '44', '51', '80',
       ...
       '4439', '4440', '4447', '4451', '4456', '4464', '4466', '4471', '4481',
       '4483'],
      dtype='object', length=560)",True,1000,True,100,0.0,0.0,3eeaf1874f
137,./expes/v3_2021-01-22_di_4500-prng-1-w1-p100,daily_issda-4500,4500,first-4500,1792,39,rng,num-start-241,241,536,classic,1097.9805688858032,False,,True,0.0,,,0,"Index(['4', '8', '9', '11', '14', '16', '20', '24', '31', '32',
       ...
       '4478', '4480', '4486', '4490', '4492', '4493', '4496', '4497', '4498',
       '4499'],
      dtype='object', length=1792)",True,1000,True,100,0.0,0.0,70b2aa6b8a
138,./expes/v3_2021-01-22_di_4500-prng-1-w1-p100,daily_issda-4500,4500,first-4500,672,14,rng,num-start-101,101,536,classic,1043.7344377040863,False,,True,0.0,,,0,"Index(['1', '2', '3', '5', '6', '15', '24', '29', '40', '64',
       ...
       '4452', '4457', '4463', '4468', '4473', '4480', '4481', '4486', '4493',
       '4500'],
      dtype='object', length=672)",True,1000,True,100,0.0,0.0,30afb7e669
139,./expes/v3_2021-01-22_di_4500-prng-1-w1-p100,daily_issda-4500,4500,first-4500,1456,32,rng,num-start-221,221,536,classic,1096.9012138843536,False,,True,0.0,,,0,"Index(['1', '2', '3', '4', '6', '9', '10', '13', '14', '16',
       ...
       '4474', '4477', '4479', '4483', '4485', '4492', '4494', '4495', '4497',
       '4499'],
      dtype='object', length=1456)",True,1000,True,100,0.0,0.0,7ad631b743
140,./expes/v3_2021-01-22_di_4500-prng-1-w1-p100,daily_issda-4500,4500,first-4500,1792,39,rng,num-start-181,181,536,classic,1076.277394771576,False,,True,0.0,,,0,"Index(['4', '5', '6', '8', '9', '10', '12', '14', '15', '16',
       ...
       '4469', '4474', '4475', '4478', '4480', '4482', '4486', '4489', '4495',
       '4498'],
      dtype='object', length=1792)",True,1000,True,100,0.0,0.0,1736239d39
141,./expes/v3_2021-01-22_di_4500-prng-1-w1-p100,daily_issda-4500,4500,first-4500,2240,49,rng,num-start-211,211,536,classic,1086.9466485977173,False,,True,0.0,,,0,"Index(['1', '3', '5', '6', '7', '13', '14', '15', '17', '18',
       ...
       '4474', '4477', '4482', '4484', '4485', '4487', '4492', '4494', '4499',
       '4500'],
      dtype='object', length=2240)",True,1000,True,100,0.0,0.0,a5fb9d199c
142,./expes/v3_2021-01-22_di_4500-prng-1-w1-p100,daily_issda-4500,4500,first-4500,2016,44,rng,num-start-61,61,536,classic,1025.306886434555,False,,True,0.0,,,0,"Index(['4', '6', '7', '10', '11', '12', '16', '17', '18', '19',
       ...
       '4481', '4482', '4484', '4487', '4488', '4490', '4494', '4495', '4499',
       '4500'],
      dtype='object', length=2016)",True,1000,True,100,0.0,0.0,b3862d601b
143,./expes/v3_2021-01-22_di_4500-prng-1-w1-p100,daily_issda-4500,4500,first-4500,1456,32,rng,num-start-261,261,536,classic,1106.818223237991,False,,True,0.0,,,0,"Index(['1', '2', '3', '4', '6', '9', '10', '13', '14', '16',
       ...
       '4474', '4477', '4479', '4483', '4485', '4492', '4494', '4495', '4497',
       '4499'],
      dtype='object', length=1456)",True,1000,True,100,0.0,0.0,6b0a55691a
144,./expes/v3_2021-01-22_di_4500-prng-1-w1-p100,daily_issda-4500,4500,first-4500,448,9,rng,num-start-51,51,536,classic,1020.5349779129028,False,,True,0.0,,,0,"Index(['26', '43', '58', '62', '65', '68', '80', '87', '96', '98',
       ...
       '4417', '4424', '4426', '4428', '4442', '4449', '4455', '4462', '4484',
       '4487'],
      dtype='object', length=448)",True,1000,True,100,0.0,0.0,773e610f61
145,./expes/v3_2021-01-22_di_4500-prng-1-w1-p100,daily_issda-4500,4500,first-4500,1680,37,rng,num-start-111,111,536,classic,1045.905322790146,False,,True,0.0,,,0,"Index(['1', '4', '6', '8', '9', '10', '13', '14', '15', '16',
       ...
       '4476', '4481', '4484', '4486', '4490', '4491', '4492', '4493', '4498',
       '4499'],
      dtype='object', length=1680)",True,1000,True,100,0.0,0.0,8f697c9cd4
146,./expes/v3_2021-01-22_di_4500-prng-1-w1-p100,daily_issda-4500,4500,first-4500,1008,22,rng,num-start-101,101,536,classic,1043.2925939559937,False,,True,0.0,,,0,"Index(['2', '4', '10', '11', '12', '13', '22', '23', '25', '26',
       ...
       '4464', '4466', '4467', '4471', '4475', '4481', '4483', '4494', '4496',
       '4497'],
      dtype='object', length=1008)",True,1000,True,100,0.0,0.0,7aed81f19e
147,./expes/v3_2021-01-22_di_4500-prng-1-w1-p100,daily_issda-4500,4500,first-4500,1344,29,rng,num-start-141,141,536,classic,1058.7036645412445,False,,True,0.0,,,0,"Index(['5', '7', '10', '21', '24', '25', '29', '30', '34', '36',
       ...
       '4464', '4465', '4467', '4469', '4474', '4477', '4480', '4484', '4498',
       '4499'],
      dtype='object', length=1344)",True,1000,True,100,0.0,0.0,87b8d3e059
148,./expes/v3_2021-01-22_di_4500-prng-1-w1-p100,daily_issda-4500,4500,first-4500,2016,44,rng,num-start-61,61,536,classic,1024.8535859584808,False,,True,0.0,,,0,"Index(['1', '4', '6', '8', '9', '10', '11', '13', '14', '15',
       ...
       '4484', '4485', '4486', '4490', '4491', '4492', '4493', '4498', '4499',
       '4500'],
      dtype='object', length=2016)",True,1000,True,100,0.0,0.0,041dad20aa
