expe,clients,clients_size,clients_subset,agg_size,method,days,days_size,days_total,time,valid,valid_sum,success,nsols,wall_hit,wall_time,pooled,valid_sums
./expes/v2_2020-12-06_dh_2000-prng-1,30_issda_2000,2000,rng-2000,501,rng,num-start-401,401,25726,1048.0768909454346,False,,False,0,True,1000,True,0.0
./expes/v2_2020-12-06_dh_2000-prng-1,30_issda_2000,2000,rng-2000,801,rng,num-start-1901,1901,25726,1243.9893581867218,False,,False,1,True,1000,True,0.0
./expes/v2_2020-12-06_dh_2000-prng-1,30_issda_2000,2000,rng-2000,1301,rng,num-start-1,1,25726,0.251784086227417,False,,False,2,False,1000,True,1.0
./expes/v2_2020-12-06_dh_2000-prng-1,30_issda_2000,2000,rng-2000,901,rng,num-start-101,101,25726,1013.0467028617859,False,,False,0,True,1000,True,0.0
./expes/v2_2020-12-06_dh_2000-prng-1,30_issda_2000,2000,rng-2000,1901,rng,num-start-901,901,25726,847.7580509185791,True,,True,1,False,1000,True,1.0
./expes/v2_2020-12-06_dh_2000-prng-1,30_issda_2000,2000,rng-2000,801,rng,num-start-701,701,25726,1094.2972762584686,False,,False,0,True,1000,True,0.0
./expes/v2_2020-12-06_dh_2000-prng-1,30_issda_2000,2000,rng-2000,1,rng,num-start-101,101,25726,12.77088975906372,True,,True,1,False,1000,True,1.0
./expes/v2_2020-12-06_dh_2000-prng-1,30_issda_2000,2000,rng-2000,901,rng,num-start-1501,1501,25726,1186.9322423934937,False,,False,1,True,1000,True,0.0
./expes/v2_2020-12-06_dh_2000-prng-1,30_issda_2000,2000,rng-2000,1301,rng,num-start-1,1,25726,0.2600705623626709,False,,False,2,False,1000,True,1.0
./expes/v2_2020-12-06_dh_2000-prng-1,30_issda_2000,2000,rng-2000,801,rng,num-start-801,801,25726,1102.4858539104462,False,,False,0,True,1000,True,0.0
./expes/v2_2020-12-06_dh_2000-prng-1,30_issda_2000,2000,rng-2000,1,rng,num-start-1401,1401,25726,187.01955318450928,True,,True,1,False,1000,True,1.0
./expes/v2_2020-12-06_dh_2000-prng-1,30_issda_2000,2000,rng-2000,501,rng,num-start-1601,1601,25726,1025.0036153793335,False,,False,2,False,1000,True,1.0
./expes/v2_2020-12-06_dh_2000-prng-1,30_issda_2000,2000,rng-2000,401,rng,num-start-701,701,25726,1086.8692560195923,False,,False,0,True,1000,True,0.0
./expes/v2_2020-12-06_dh_2000-prng-1,30_issda_2000,2000,rng-2000,1701,rng,num-start-1,1,25726,0.20949292182922363,False,,False,2,False,1000,True,1.0
./expes/v2_2020-12-06_dh_2000-prng-1,30_issda_2000,2000,rng-2000,901,rng,num-start-1,1,25726,0.19463276863098145,False,,False,2,False,1000,True,1.0
