expe,clients,clients_size,clients_subset,agg_size,agg_size_pc,method,days,days_size,days_total,noise_method,time,valid,valid_sum,success,score_avg,score_min,score_max,nsols,oracle,wall_hit,wall_time,pooled,pool_size,uuid,infeasible,optimal,valid_sums
./expes/v2_2021-04-10_issda-30_500-prng-1-w1-p2,30_issda-500,500,first-500,150,30,rng,num-start-350,350,25726,classic,21.477182149887085,True,,True,1.0,1.0,1.0,1,"['5', '13', '15', '19', '26', '29', '31', '39', '44', '47', '55', '70', '82', '83', '85', '86', '87', '89', '91', '94', '98', '107', '109', '114', '117', '119', '121', '128', '129', '138', '140', '143', '156', '158', '159', '160', '164', '167', '175', '180', '182', '185', '186', '187', '188', '191', '195', '202', '205', '209', '213', '217', '221', '228', '229', '233', '234', '237', '239', '246', '250', '251', '256', '257', '258', '259', '260', '261', '262', '263', '264', '266', '269', '270', '272', '279', '286', '287', '288', '291', '295', '298', '302', '303', '304', '311', '316', '320', '327', '334', '335', '336', '338', '339', '343', '346', '349', '350', '351', '359', '362', '367', '371', '372', '375', '377', '379', '382', '387', '391', '396', '402', '405', '408', '410', '412', '415', '418', '421', '426', '428', '435', '438', '440', '441', '442', '446', '449', '452', '453', '457', '458', '461', '462', '463', '465', '466', '467', '472', '474', '478', '479', '480', '482', '486', '487', '489', '490', '491', '493']",False,1000,True,2,1a52e31d4b,0.0,1.0,1.0
./expes/v2_2021-04-10_issda-30_500-prng-1-w1-p2,30_issda-500,500,first-500,250,50,rng,num-start-100,100,25726,classic,1003.4819741249084,False,,False,0,,,0,"['1', '7', '8', '9', '12', '14', '17', '19', '20', '21', '24', '30', '32', '33', '36', '37', '38', '41', '42', '43', '46', '47', '48', '49', '51', '52', '56', '60', '61', '62', '64', '67', '68', '70', '72', '73', '75', '76', '77', '79', '82', '83', '87', '88', '90', '93', '95', '96', '97', '98', '100', '103', '105', '108', '111', '112', '113', '114', '121', '123', '124', '125', '129', '133', '134', '139', '141', '142', '144', '145', '148', '149', '150', '155', '156', '159', '160', '162', '163', '164', '167', '170', '171', '172', '176', '180', '181', '182', '183', '184', '190', '191', '198', '199', '201', '205', '208', '210', '213', '215', '216', '218', '219', '223', '224', '227', '228', '230', '231', '235', '240', '241', '242', '244', '245', '246', '247', '249', '250', '251', '253', '258', '259', '261', '262', '267', '268', '269', '272', '273', '274', '277', '279', '281', '283', '287', '288', '291', '292', '294', '295', '297', '299', '301', '302', '303', '305', '306', '309', '311', '313', '314', '317', '318', '321', '323', '325', '326', '328', '329', '332', '333', '334', '337', '339', '341', '343', '345', '347', '348', '349', '350', '351', '354', '358', '359', '361', '362', '364', '367', '368', '369', '373', '374', '375', '379', '380', '384', '387', '388', '389', '391', '393', '401', '402', '404', '407', '409', '410', '412', '413', '415', '416', '418', '419', '421', '423', '424', '425', '426', '427', '428', '429', '430', '431', '432', '433', '435', '436', '438', '444', '445', '446', '448', '449', '456', '457', '459', '460', '461', '462', '464', '465', '466', '468', '469', '470', '471', '472', '473', '478', '480', '485', '487', '489', '493', '494', '495', '496', '497']",True,1000,True,2,2b7c5d426c,0.0,0.0,0.0
