expe,clients,clients_size,clients_subset,agg_size,agg_size_pc,method,days,days_size,days_total,noise_method,time,valid,valid_sum,success,score_avg,score_min,score_max,nsols,oracle,wall_hit,wall_time,pooled,pool_size,uuid,infeasible,optimal,valid_sums
./expes/v2_2021-04-10_issda-30_500-prng-1-w1-p2,30_issda-500,500,first-500,450,90,rng,num-start-100,100,25726,classic,12.977595090866089,True,,True,1.0,1.0,1.0,1,"['1', '2', '3', '4', '6', '7', '8', '10', '11', '12', '13', '14', '15', '16', '17', '18', '19', '20', '22', '23', '24', '26', '27', '28', '29', '31', '32', '33', '34', '35', '36', '37', '38', '40', '41', '42', '43', '44', '45', '46', '47', '48', '50', '51', '52', '53', '54', '55', '56', '57', '58', '59', '61', '62', '63', '64', '65', '66', '67', '68', '69', '70', '71', '72', '73', '74', '75', '76', '77', '78', '79', '80', '81', '82', '83', '84', '87', '88', '89', '91', '92', '93', '94', '95', '96', '97', '98', '99', '100', '102', '103', '104', '106', '107', '108', '109', '112', '114', '115', '116', '117', '118', '119', '120', '121', '122', '123', '124', '126', '127', '128', '129', '130', '131', '132', '133', '135', '136', '137', '138', '139', '141', '143', '144', '146', '147', '148', '149', '150', '151', '152', '153', '154', '155', '156', '158', '159', '160', '161', '162', '163', '164', '165', '166', '167', '168', '169', '170', '171', '172', '173', '174', '175', '176', '177', '178', '180', '181', '182', '183', '184', '185', '186', '187', '188', '189', '190', '191', '192', '193', '194', '195', '196', '197', '198', '199', '200', '201', '202', '203', '204', '205', '206', '207', '209', '210', '211', '212', '213', '214', '215', '216', '217', '218', '219', '220', '221', '222', '223', '224', '225', '227', '228', '230', '231', '232', '233', '234', '235', '236', '238', '239', '240', '241', '243', '244', '245', '246', '247', '248', '249', '250', '251', '252', '253', '254', '255', '256', '257', '258', '259', '260', '261', '262', '263', '264', '265', '266', '267', '268', '269', '270', '271', '272', '273', '274', '275', '276', '277', '278', '279', '281', '282', '283', '284', '285', '286', '287', '289', '290', '291', '292', '293', '294', '295', '296', '297', '298', '299', '300', '301', '302', '303', '304', '305', '306', '307', '308', '310', '311', '312', '313', '314', '315', '316', '317', '318', '319', '320', '321', '322', '324', '325', '326', '328', '329', '330', '331', '332', '333', '335', '336', '337', '338', '339', '340', '341', '342', '344', '345', '346', '347', '348', '349', '350', '351', '352', '354', '356', '357', '358', '359', '360', '361', '362', '365', '366', '367', '368', '369', '370', '371', '373', '374', '375', '376', '377', '378', '379', '380', '381', '382', '383', '384', '386', '387', '388', '389', '390', '393', '394', '395', '396', '397', '398', '399', '400', '401', '403', '404', '405', '406', '407', '408', '409', '410', '411', '412', '413', '414', '415', '416', '417', '418', '419', '420', '421', '422', '424', '426', '427', '428', '429', '430', '431', '432', '433', '434', '435', '436', '437', '438', '439', '440', '441', '442', '443', '444', '445', '446', '447', '449', '450', '451', '452', '453', '454', '455', '456', '457', '459', '460', '461', '462', '463', '464', '466', '467', '468', '469', '470', '472', '473', '474', '475', '476', '477', '478', '479', '480', '481', '482', '483', '484', '485', '486', '487', '488', '489', '490', '491', '492', '493', '494', '495', '496', '497', '498', '499', '500']",False,1000,True,2,c92dbff8d7,0.0,1.0,1.0
./expes/v2_2021-04-10_issda-30_500-prng-1-w1-p2,30_issda-500,500,first-500,400,80,rng,num-start-200,200,25726,classic,15.80748462677002,True,,True,1.0,1.0,1.0,1,"['1', '2', '3', '4', '5', '6', '7', '8', '9', '10', '11', '12', '13', '14', '15', '16', '17', '18', '19', '20', '21', '22', '23', '24', '25', '29', '31', '32', '33', '34', '36', '37', '38', '39', '40', '42', '43', '44', '45', '46', '47', '48', '49', '50', '51', '52', '53', '54', '55', '56', '57', '58', '59', '60', '61', '62', '65', '67', '69', '70', '71', '73', '75', '76', '77', '79', '81', '82', '83', '84', '86', '87', '88', '89', '91', '92', '93', '94', '95', '96', '97', '98', '100', '102', '103', '105', '106', '107', '108', '109', '110', '111', '112', '113', '114', '115', '116', '117', '118', '119', '120', '121', '123', '124', '125', '126', '127', '128', '129', '130', '131', '133', '137', '138', '140', '141', '142', '144', '145', '146', '149', '150', '151', '152', '153', '154', '156', '157', '158', '159', '160', '161', '162', '163', '164', '165', '167', '168', '170', '171', '172', '173', '174', '175', '176', '177', '178', '181', '182', '183', '184', '185', '187', '188', '189', '190', '192', '194', '195', '196', '197', '198', '200', '201', '202', '203', '204', '205', '206', '207', '208', '209', '212', '213', '214', '216', '217', '219', '220', '221', '222', '223', '225', '229', '230', '231', '232', '233', '234', '235', '236', '241', '242', '243', '245', '246', '247', '249', '250', '251', '253', '254', '255', '256', '257', '258', '259', '260', '261', '262', '263', '264', '265', '266', '267', '269', '271', '273', '274', '276', '277', '278', '279', '280', '281', '282', '283', '284', '285', '287', '288', '289', '290', '292', '293', '294', '295', '296', '297', '300', '301', '302', '303', '304', '306', '308', '309', '310', '311', '312', '313', '314', '315', '317', '319', '320', '323', '324', '326', '328', '329', '330', '331', '332', '333', '334', '335', '337', '338', '339', '340', '341', '342', '344', '345', '346', '347', '348', '349', '350', '352', '353', '354', '355', '356', '357', '360', '361', '364', '365', '366', '367', '369', '370', '371', '372', '373', '374', '375', '376', '378', '380', '381', '383', '385', '386', '387', '389', '390', '391', '392', '393', '394', '395', '398', '399', '400', '401', '402', '403', '404', '405', '406', '407', '408', '409', '411', '412', '413', '414', '415', '416', '417', '419', '420', '421', '423', '424', '425', '427', '428', '429', '431', '433', '434', '435', '436', '437', '439', '440', '441', '442', '444', '445', '446', '447', '449', '450', '452', '453', '454', '455', '457', '458', '459', '460', '461', '462', '463', '465', '466', '467', '468', '469', '470', '471', '472', '473', '474', '475', '477', '478', '480', '481', '482', '484', '487', '488', '489', '490', '491', '492', '493', '494', '495', '496', '497', '498', '499', '500']",False,1000,True,2,f10b8e67d4,0.0,1.0,1.0
./expes/v2_2021-04-10_issda-30_500-prng-1-w1-p2,30_issda-500,500,first-500,300,60,rng,num-start-500,500,25726,classic,48.933350563049316,True,,True,1.0,1.0,1.0,1,"['1', '2', '3', '5', '7', '8', '9', '10', '11', '12', '13', '14', '15', '16', '17', '18', '19', '20', '23', '25', '29', '31', '33', '34', '36', '37', '40', '43', '45', '47', '49', '50', '51', '52', '53', '54', '56', '57', '59', '61', '62', '65', '67', '69', '70', '75', '81', '82', '83', '84', '86', '87', '88', '89', '91', '93', '95', '96', '97', '98', '100', '103', '106', '108', '109', '110', '111', '112', '113', '114', '115', '116', '117', '118', '119', '120', '121', '125', '128', '130', '131', '133', '137', '138', '140', '144', '145', '146', '149', '151', '152', '153', '156', '157', '158', '159', '160', '163', '165', '167', '168', '170', '171', '174', '176', '177', '178', '181', '183', '187', '188', '190', '192', '194', '195', '196', '197', '198', '200', '202', '203', '204', '206', '207', '208', '212', '213', '214', '216', '217', '219', '220', '222', '225', '229', '231', '232', '233', '235', '236', '241', '242', '243', '246', '247', '249', '250', '251', '253', '254', '255', '256', '257', '258', '259', '260', '261', '262', '263', '264', '265', '266', '267', '269', '271', '273', '274', '276', '277', '278', '279', '281', '282', '283', '284', '285', '288', '289', '290', '292', '294', '295', '296', '297', '300', '301', '302', '303', '304', '308', '311', '312', '314', '315', '319', '320', '323', '324', '326', '329', '332', '333', '334', '337', '338', '340', '341', '344', '345', '346', '347', '348', '352', '356', '357', '360', '361', '365', '369', '370', '371', '372', '374', '376', '378', '380', '381', '387', '390', '391', '392', '393', '394', '395', '398', '399', '400', '401', '402', '403', '404', '408', '409', '411', '412', '415', '416', '417', '419', '420', '421', '424', '425', '427', '428', '429', '431', '434', '435', '436', '437', '439', '440', '441', '445', '446', '447', '449', '450', '452', '454', '458', '459', '460', '461', '462', '466', '467', '469', '470', '472', '473', '475', '477', '478', '480', '481', '482', '484', '487', '488', '489', '491', '492', '493', '495', '496', '497', '499', '500']",False,1000,True,2,229f9dd582,0.0,1.0,1.0
./expes/v2_2021-04-10_issda-30_500-prng-1-w1-p2,30_issda-500,500,first-500,200,40,rng,num-start-100,100,25726,classic,1005.6333532333374,False,,False,0,,,0,"['4', '6', '7', '8', '11', '12', '15', '16', '17', '19', '22', '23', '24', '31', '32', '33', '34', '35', '40', '46', '50', '53', '54', '56', '61', '64', '67', '69', '70', '71', '78', '80', '82', '84', '91', '95', '99', '102', '109', '112', '119', '120', '121', '122', '129', '133', '135', '137', '138', '139', '143', '144', '146', '150', '151', '153', '155', '156', '159', '161', '162', '164', '168', '170', '171', '173', '174', '177', '180', '181', '185', '187', '188', '190', '193', '194', '198', '199', '200', '203', '204', '209', '211', '213', '216', '219', '221', '224', '228', '234', '236', '239', '241', '243', '244', '247', '248', '251', '254', '259', '260', '267', '268', '274', '275', '277', '278', '279', '281', '282', '283', '287', '292', '293', '294', '296', '297', '298', '300', '301', '302', '303', '304', '305', '308', '310', '311', '312', '313', '315', '316', '318', '321', '322', '324', '325', '326', '328', '330', '336', '344', '345', '347', '348', '349', '350', '354', '357', '358', '362', '366', '367', '368', '369', '373', '378', '380', '389', '390', '394', '398', '399', '400', '404', '410', '411', '416', '422', '426', '427', '429', '438', '439', '441', '442', '444', '445', '446', '447', '450', '452', '460', '463', '464', '466', '469', '470', '472', '473', '475', '476', '480', '482', '486', '489', '491', '494', '495', '498', '499']",True,1000,True,2,b59d111904,0.0,0.0,0.0
