expe,clients,clients_size,clients_subset,agg_size,agg_size_pc,method,days,days_size,days_total,noise_method,time,valid,valid_sum,success,score_avg,score_min,score_max,nsols,oracle,wall_hit,wall_time,pooled,pool_size,uuid,infeasible,optimal,valid_sums
./expes/v4_2021-03-18_issda_1000-prng-1-w1-p100-ukn95_98,30_issda-1000,997,first-1000,150,15,rng,num-start-1000,1000,25726,ukn-95-98,119.62073278427124,False,,False,0.5165619264473083,0.4539297013347664,0.9451178700051548,100,"['8', '19', '21', '27', '44', '45', '48', '61', '64', '69', '84', '85', '89', '92', '93', '104', '106', '109', '126', '149', '159', '166', '169', '177', '182', '183', '189', '199', '200', '201', '204', '208', '220', '228', '235', '239', '242', '244', '254', '255', '266', '267', '269', '279', '283', '284', '285', '287', '288', '293', '296', '297', '298', '299', '308', '311', '313', '318', '320', '329', '332', '335', '340', '346', '352', '365', '366', '369', '382', '398', '406', '412', '423', '424', '434', '442', '447', '452', '463', '471', '474', '483', '485', '491', '519', '521', '532', '533', '548', '550', '561', '563', '572', '587', '597', '603', '614', '621', '631', '642', '643', '648', '650', '651', '657', '664', '688', '690', '692', '715', '718', '722', '726', '739', '750', '753', '765', '784', '799', '817', '820', '827', '833', '838', '847', '849', '860', '861', '866', '869', '876', '883', '887', '889', '902', '904', '918', '927', '931', '936', '940', '950', '958', '965', '966', '968', '978', '983', '984', '988']",False,1000,True,100,ab77be5b80,0.0,1.0,0.0
./expes/v4_2021-03-18_issda_1000-prng-1-w1-p100-ukn95_98,30_issda-1000,996,first-1000,200,20,rng,num-start-400,400,25726,ukn-95-98,33.77388548851013,False,,False,0.44016892368619975,0.3691355535863955,0.9365957375051759,100,"['1', '13', '18', '19', '23', '30', '38', '47', '56', '79', '83', '88', '91', '92', '96', '97', '99', '100', '120', '123', '127', '130', '142', '146', '150', '167', '174', '177', '190', '193', '194', '197', '198', '199', '201', '202', '203', '204', '206', '215', '229', '251', '252', '257', '258', '261', '263', '268', '272', '273', '275', '280', '297', '299', '311', '312', '314', '320', '328', '332', '338', '341', '344', '366', '370', '371', '376', '383', '384', '387', '389', '390', '399', '408', '419', '420', '421', '424', '432', '434', '435', '437', '441', '452', '456', '457', '458', '463', '479', '482', '483', '487', '491', '496', '497', '498', '499', '500', '501', '504', '509', '513', '515', '516', '528', '530', '535', '538', '541', '551', '552', '553', '567', '572', '577', '588', '590', '601', '603', '604', '609', '612', '617', '618', '623', '625', '627', '634', '636', '649', '650', '651', '661', '664', '672', '673', '676', '679', '687', '688', '695', '696', '697', '699', '703', '715', '717', '718', '723', '737', '739', '740', '747', '748', '753', '765', '774', '778', '781', '789', '797', '803', '813', '816', '820', '822', '823', '825', '826', '837', '842', '848', '852', '853', '855', '865', '887', '892', '894', '898', '901', '902', '911', '914', '925', '927', '932', '933', '935', '936', '939', '946', '950', '956', '964', '975', '989', '994', '995', '1000']",False,1000,True,100,4f95d0413c,0.0,1.0,0.0
./expes/v4_2021-03-18_issda_1000-prng-1-w1-p100-ukn95_98,30_issda-1000,999,first-1000,50,5,rng,num-start-1000,1000,25726,ukn-95-98,120.05020046234131,False,,False,0.7108831279968878,0.6947355691445678,0.9683455531083541,100,"['1', '23', '38', '83', '91', '96', '97', '150', '198', '203', '268', '272', '280', '328', '344', '371', '383', '420', '424', '435', '482', '497', '501', '552', '553', '567', '577', '588', '601', '625', '679', '699', '703', '717', '747', '748', '753', '778', '781', '789', '813', '820', '822', '823', '825', '842', '865', '894', '933', '989']",False,1000,True,100,aadfd12588,0.0,1.0,0.0
./expes/v4_2021-03-18_issda_1000-prng-1-w1-p100-ukn95_98,30_issda-1000,993,first-1000,350,35,rng,num-start-500,500,25726,ukn-95-98,38.60966777801514,False,,False,0.3376775656641861,0.16418380628428875,0.9159973118709691,100,"['4', '5', '7', '13', '14', '18', '21', '23', '24', '27', '32', '34', '35', '39', '45', '47', '51', '53', '60', '63', '65', '66', '71', '72', '74', '82', '83', '84', '86', '87', '88', '89', '92', '93', '96', '98', '100', '109', '110', '111', '112', '115', '117', '120', '124', '125', '130', '139', '141', '143', '144', '146', '152', '153', '154', '158', '159', '163', '165', '168', '171', '175', '177', '180', '183', '195', '197', '198', '199', '201', '203', '206', '207', '211', '213', '215', '216', '217', '226', '230', '231', '233', '235', '238', '240', '241', '250', '251', '252', '254', '256', '261', '265', '274', '276', '278', '281', '284', '292', '293', '296', '297', '298', '299', '303', '304', '306', '307', '308', '310', '317', '320', '322', '329', '332', '334', '346', '347', '349', '351', '352', '353', '360', '365', '366', '369', '370', '371', '373', '375', '377', '379', '380', '385', '386', '387', '388', '389', '390', '391', '393', '394', '396', '398', '400', '404', '406', '407', '411', '413', '417', '418', '420', '422', '427', '428', '430', '434', '437', '438', '442', '443', '447', '451', '453', '456', '457', '464', '465', '467', '468', '469', '471', '483', '485', '486', '497', '500', '501', '502', '507', '509', '510', '511', '514', '515', '516', '517', '518', '519', '520', '523', '527', '529', '530', '533', '534', '537', '538', '539', '540', '541', '542', '545', '553', '559', '561', '571', '578', '581', '583', '587', '588', '593', '594', '595', '596', '599', '600', '603', '611', '615', '616', '619', '620', '622', '625', '627', '628', '633', '636', '639', '640', '641', '648', '658', '660', '662', '663', '664', '666', '668', '671', '673', '674', '675', '677', '679', '680', '690', '693', '701', '707', '708', '718', '719', '722', '723', '726', '733', '735', '737', '739', '743', '744', '746', '747', '751', '759', '762', '763', '766', '767', '774', '778', '783', '785', '799', '800', '803', '806', '810', '813', '816', '824', '827', '828', '831', '833', '834', '837', '839', '841', '843', '845', '846', '850', '851', '852', '855', '856', '857', '859', '863', '864', '867', '868', '871', '873', '876', '878', '881', '888', '890', '897', '900', '903', '905', '910', '913', '917', '919', '924', '925', '926', '927', '929', '930', '931', '932', '934', '935', '941', '942', '943', '950', '951', '955', '959', '965', '969', '973', '981', '982', '986', '989', '992', '994', '997', '999']",False,1000,True,100,742b77402d,0.0,1.0,0.0
