expe,clients,clients_size,clients_subset,agg_size,agg_size_pc,method,days,days_size,days_total,noise_method,time,valid,valid_sum,success,score_avg,score_min,score_max,nsols,oracle,wall_hit,wall_time,pooled,pool_size,uuid,infeasible,optimal,valid_sums
./expes/v4_2021-03-18_issda_1000-prng-1-w1-p100-ukn95_98,30_issda-1000,992,first-1000,400,40,rng,num-start-1000,1000,25726,ukn-95-98,107.58814764022827,False,,False,0.3249021216962713,0.1060241979720572,0.9101520513035235,100,"['1', '5', '7', '10', '13', '16', '18', '19', '21', '23', '30', '31', '32', '33', '34', '35', '38', '39', '41', '47', '54', '56', '59', '61', '63', '64', '66', '71', '76', '77', '78', '79', '80', '83', '86', '88', '91', '92', '96', '97', '99', '100', '103', '108', '115', '117', '118', '120', '123', '127', '129', '130', '131', '132', '138', '139', '140', '141', '142', '146', '148', '149', '150', '153', '154', '155', '159', '162', '165', '167', '168', '169', '174', '177', '178', '187', '189', '190', '191', '193', '194', '197', '198', '199', '201', '202', '203', '204', '206', '215', '227', '229', '238', '240', '245', '247', '250', '251', '252', '256', '257', '258', '261', '263', '268', '272', '273', '275', '276', '279', '280', '281', '283', '284', '287', '289', '293', '297', '298', '299', '311', '312', '314', '320', '325', '326', '328', '332', '334', '338', '341', '344', '345', '352', '359', '366', '369', '370', '371', '373', '376', '377', '380', '381', '382', '383', '384', '386', '387', '389', '390', '391', '394', '396', '398', '399', '408', '410', '419', '420', '421', '424', '430', '432', '433', '434', '435', '437', '441', '442', '444', '451', '452', '455', '456', '457', '458', '461', '463', '474', '476', '479', '481', '482', '483', '484', '485', '487', '489', '490', '491', '496', '497', '498', '499', '500', '501', '504', '507', '509', '510', '512', '513', '515', '516', '520', '528', '530', '533', '535', '538', '539', '541', '544', '549', '551', '552', '553', '554', '557', '561', '565', '567', '572', '574', '575', '577', '578', '583', '584', '587', '588', '590', '594', '601', '603', '604', '609', '612', '617', '618', '620', '622', '623', '625', '627', '629', '632', '633', '634', '635', '636', '639', '641', '644', '645', '647', '649', '650', '651', '653', '654', '655', '661', '662', '664', '667', '670', '672', '673', '676', '678', '679', '683', '685', '687', '688', '690', '693', '695', '696', '697', '698', '699', '703', '707', '708', '711', '712', '713', '715', '717', '718', '719', '723', '726', '729', '730', '731', '732', '733', '734', '736', '737', '739', '740', '742', '747', '748', '750', '753', '757', '758', '761', '764', '765', '770', '774', '776', '778', '779', '781', '784', '789', '793', '797', '798', '802', '803', '806', '811', '813', '816', '820', '822', '823', '825', '826', '834', '836', '837', '838', '842', '848', '852', '853', '855', '859', '865', '866', '871', '874', '876', '879', '887', '892', '894', '898', '901', '902', '907', '911', '914', '915', '922', '925', '927', '930', '931', '932', '933', '934', '935', '936', '939', '942', '945', '946', '947', '950', '956', '957', '960', '961', '963', '964', '967', '968', '971', '973', '975', '986', '988', '989', '990', '994', '995', '996', '999', '1000']",False,1000,True,100,52c9a1ccb3,0.0,1.0,0.0
./expes/v4_2021-03-18_issda_1000-prng-1-w1-p100-ukn95_98,30_issda-1000,997,first-1000,150,15,rng,num-start-300,300,25726,ukn-95-98,26.532914876937866,False,,False,0.4939856591677993,0.4822430211415528,0.9451178700051548,100,"['1', '13', '18', '23', '30', '38', '47', '56', '83', '91', '92', '96', '97', '99', '100', '120', '123', '130', '142', '150', '174', '190', '194', '198', '199', '201', '202', '203', '204', '206', '215', '229', '251', '252', '257', '268', '272', '275', '280', '297', '299', '312', '314', '320', '328', '341', '344', '366', '370', '371', '383', '384', '387', '389', '399', '408', '420', '424', '434', '435', '441', '452', '456', '457', '458', '482', '496', '497', '499', '501', '513', '516', '528', '535', '538', '541', '552', '553', '567', '572', '577', '588', '590', '601', '603', '604', '609', '612', '617', '618', '623', '625', '634', '636', '649', '651', '661', '664', '672', '679', '687', '688', '695', '696', '699', '703', '715', '717', '718', '737', '747', '748', '753', '765', '774', '778', '781', '789', '797', '803', '813', '816', '820', '822', '823', '825', '826', '842', '848', '853', '855', '865', '887', '892', '894', '898', '902', '911', '914', '925', '927', '932', '933', '935', '939', '956', '975', '989', '994', '1000']",False,1000,True,100,6c26cc31ca,0.0,1.0,0.0
./expes/v4_2021-03-18_issda_1000-prng-1-w1-p100-ukn95_98,30_issda-1000,998,first-1000,100,10,rng,num-start-600,600,25726,ukn-95-98,74.25362634658813,False,,False,0.5864326137797435,0.5750980997046213,0.9552114070977611,100,"['21', '32', '39', '45', '60', '65', '66', '88', '89', '92', '100', '111', '117', '130', '139', '141', '146', '152', '163', '197', '198', '199', '213', '215', '233', '240', '241', '254', '265', '274', '293', '322', '347', '366', '380', '385', '387', '389', '396', '400', '411', '413', '418', '437', '456', '465', '468', '471', '486', '497', '500', '501', '507', '510', '516', '519', '530', '533', '545', '553', '571', '587', '593', '596', '599', '616', '622', '636', '639', '658', '660', '666', '677', '679', '707', '708', '718', '719', '722', '744', '747', '778', '783', '828', '831', '834', '850', '851', '864', '876', '881', '900', '903', '919', '924', '926', '934', '969', '973', '986']",False,1000,True,100,da0527f602,0.0,1.0,0.0
./expes/v4_2021-03-18_issda_1000-prng-1-w1-p100-ukn95_98,30_issda-1000,996,first-1000,200,20,rng,num-start-300,300,25726,ukn-95-98,23.876633167266846,False,,False,0.4338524334095819,0.3691355535863955,0.9365957375051759,100,"['8', '10', '19', '21', '27', '42', '44', '45', '46', '48', '57', '61', '64', '69', '80', '84', '85', '89', '92', '93', '100', '104', '106', '109', '117', '126', '140', '149', '154', '157', '159', '163', '166', '169', '173', '174', '177', '182', '183', '189', '197', '199', '200', '201', '204', '208', '213', '220', '228', '235', '239', '242', '244', '254', '255', '256', '257', '266', '267', '269', '279', '283', '284', '285', '287', '288', '293', '296', '297', '298', '299', '300', '301', '308', '311', '313', '318', '320', '329', '330', '331', '332', '335', '340', '346', '352', '365', '366', '369', '372', '373', '374', '382', '391', '398', '406', '412', '421', '423', '424', '434', '435', '442', '447', '450', '452', '455', '463', '466', '471', '474', '483', '485', '491', '503', '519', '521', '532', '533', '548', '550', '560', '561', '563', '572', '586', '587', '597', '603', '610', '614', '621', '622', '631', '633', '636', '642', '643', '648', '650', '651', '657', '664', '668', '688', '690', '692', '694', '697', '715', '718', '722', '726', '739', '750', '753', '755', '765', '784', '794', '799', '803', '817', '820', '824', '827', '833', '838', '847', '849', '860', '861', '866', '869', '876', '883', '887', '889', '891', '902', '904', '916', '918', '927', '931', '936', '939', '940', '950', '958', '965', '966', '968', '978', '983', '984', '985', '988', '990', '994']",False,1000,True,100,fe6bd948fd,0.0,1.0,0.0
./expes/v4_2021-03-18_issda_1000-prng-1-w1-p100-ukn95_98,30_issda-1000,992,first-1000,400,40,rng,num-start-400,400,25726,ukn-95-98,33.01966857910156,False,,False,0.3199714528607757,0.1060241979720572,0.9101520513035235,100,"['4', '5', '7', '13', '14', '18', '21', '23', '24', '27', '32', '34', '35', '38', '39', '40', '45', '47', '51', '53', '59', '60', '63', '65', '66', '67', '68', '71', '72', '74', '77', '82', '83', '84', '85', '86', '87', '88', '89', '90', '92', '93', '95', '96', '98', '100', '103', '109', '110', '111', '112', '115', '117', '120', '124', '125', '130', '139', '141', '143', '144', '146', '152', '153', '154', '158', '159', '161', '163', '164', '165', '168', '171', '175', '177', '180', '181', '183', '195', '196', '197', '198', '199', '201', '203', '204', '206', '207', '211', '213', '215', '216', '217', '226', '228', '230', '231', '233', '235', '237', '238', '240', '241', '250', '251', '252', '254', '256', '261', '262', '265', '271', '274', '276', '278', '281', '284', '290', '292', '293', '296', '297', '298', '299', '301', '303', '304', '306', '307', '308', '310', '317', '320', '322', '327', '328', '329', '332', '334', '335', '346', '347', '349', '351', '352', '353', '357', '360', '365', '366', '367', '369', '370', '371', '373', '375', '376', '377', '379', '380', '385', '386', '387', '388', '389', '390', '391', '393', '394', '396', '398', '399', '400', '404', '406', '407', '411', '413', '417', '418', '420', '422', '427', '428', '430', '434', '437', '438', '442', '443', '445', '447', '451', '453', '456', '457', '464', '465', '467', '468', '469', '471', '474', '483', '485', '486', '497', '500', '501', '502', '507', '509', '510', '511', '514', '515', '516', '517', '518', '519', '520', '523', '527', '529', '530', '533', '534', '537', '538', '539', '540', '541', '542', '545', '548', '553', '559', '561', '570', '571', '578', '580', '581', '583', '587', '588', '593', '594', '595', '596', '599', '600', '603', '611', '615', '616', '619', '620', '622', '625', '627', '628', '633', '636', '639', '640', '641', '648', '658', '660', '662', '663', '664', '666', '668', '669', '670', '671', '673', '674', '675', '677', '679', '680', '686', '690', '693', '701', '702', '707', '708', '718', '719', '722', '723', '726', '733', '735', '737', '739', '743', '744', '746', '747', '751', '754', '759', '762', '763', '766', '767', '768', '774', '778', '783', '785', '799', '800', '801', '803', '806', '810', '813', '816', '824', '827', '828', '831', '833', '834', '835', '837', '839', '841', '843', '845', '846', '849', '850', '851', '852', '855', '856', '857', '859', '863', '864', '867', '868', '871', '873', '876', '878', '880', '881', '886', '888', '890', '897', '900', '903', '905', '910', '913', '915', '917', '919', '922', '924', '925', '926', '927', '928', '929', '930', '931', '932', '934', '935', '939', '941', '942', '943', '948', '950', '951', '955', '959', '965', '969', '973', '981', '982', '986', '989', '991', '992', '994', '997', '999']",False,1000,True,100,c2bdc7493b,0.0,1.0,0.0
