expe,clients,clients_size,clients_subset,agg_size,agg_size_pc,method,days,days_size,days_total,noise_method,time,valid,valid_sum,success,score_avg,score_min,score_max,nsols,oracle,wall_hit,wall_time,pooled,pool_size,uuid,infeasible,optimal,valid_sums
./expes/v4_2021-03-18_issda_1000-prng-1-w1-p100-ukn95_98,30_issda-1000,993,first-1000,350,35,rng,num-start-400,400,25726,ukn-95-98,28.654812574386597,False,,False,0.3530722665179966,0.16418380628428875,0.9159973118709691,100,"['2', '3', '6', '9', '10', '13', '15', '18', '19', '22', '23', '25', '27', '29', '30', '31', '32', '34', '36', '37', '39', '45', '49', '58', '61', '65', '72', '73', '79', '86', '89', '94', '97', '99', '102', '103', '105', '107', '111', '112', '113', '117', '121', '124', '129', '133', '134', '138', '139', '150', '161', '163', '164', '165', '168', '172', '173', '175', '176', '178', '182', '186', '190', '191', '193', '195', '199', '205', '206', '211', '215', '218', '219', '222', '223', '225', '226', '228', '229', '231', '233', '235', '236', '237', '238', '239', '249', '256', '259', '260', '262', '265', '273', '276', '280', '288', '289', '291', '297', '298', '302', '304', '306', '311', '314', '316', '318', '320', '326', '329', '330', '334', '336', '340', '341', '348', '352', '353', '354', '355', '356', '362', '366', '374', '376', '380', '384', '388', '389', '391', '393', '396', '400', '403', '404', '405', '407', '412', '414', '415', '424', '425', '427', '432', '433', '437', '440', '443', '444', '449', '450', '457', '461', '462', '464', '466', '470', '471', '472', '481', '484', '486', '492', '493', '497', '500', '502', '505', '508', '509', '512', '513', '515', '517', '518', '519', '520', '521', '522', '523', '525', '527', '529', '532', '534', '537', '541', '552', '553', '554', '555', '558', '562', '564', '565', '567', '568', '570', '575', '577', '579', '583', '584', '588', '590', '592', '593', '599', '602', '604', '605', '606', '608', '615', '621', '623', '624', '627', '628', '630', '638', '639', '640', '645', '646', '647', '651', '658', '663', '664', '665', '666', '668', '673', '676', '680', '681', '682', '687', '690', '691', '692', '694', '695', '703', '712', '713', '720', '721', '722', '729', '737', '739', '742', '744', '747', '748', '751', '756', '759', '761', '762', '773', '774', '780', '781', '783', '786', '790', '795', '797', '798', '799', '802', '803', '806', '808', '816', '817', '818', '822', '823', '824', '829', '831', '833', '837', '840', '841', '848', '850', '853', '856', '858', '861', '862', '867', '868', '869', '871', '872', '874', '878', '879', '880', '881', '882', '889', '891', '893', '897', '900', '903', '904', '908', '915', '918', '919', '922', '923', '924', '932', '933', '939', '940', '943', '945', '949', '954', '959', '961', '962', '964', '967', '968', '973', '975', '976', '978', '981', '983', '986', '989', '991', '992', '993', '997', '998', '999', '1000']",False,1000,True,100,fa724ab849,0.0,1.0,0.0
./expes/v4_2021-03-18_issda_1000-prng-1-w1-p100-ukn95_98,30_issda-1000,994,first-1000,300,30,rng,num-start-900,900,25726,ukn-95-98,88.27222299575806,False,,False,0.3807318867655392,0.22657430144955237,0.9222677925663528,100,"['1', '5', '13', '24', '27', '28', '29', '30', '39', '41', '48', '50', '51', '54', '56', '60', '61', '62', '63', '64', '65', '67', '69', '71', '72', '73', '75', '80', '83', '84', '85', '88', '89', '93', '94', '96', '97', '100', '104', '105', '106', '107', '113', '119', '120', '121', '126', '127', '129', '133', '137', '141', '148', '150', '151', '153', '155', '156', '166', '167', '169', '171', '172', '173', '181', '185', '186', '187', '193', '196', '200', '205', '211', '213', '214', '220', '224', '227', '229', '233', '237', '238', '239', '246', '247', '250', '254', '255', '259', '268', '270', '272', '277', '285', '286', '289', '292', '295', '297', '306', '307', '308', '316', '318', '320', '322', '327', '332', '338', '349', '351', '352', '356', '359', '364', '365', '368', '371', '373', '375', '376', '379', '382', '386', '390', '396', '401', '402', '404', '405', '407', '408', '409', '411', '412', '426', '429', '430', '432', '435', '438', '441', '445', '452', '457', '460', '465', '468', '473', '477', '478', '486', '491', '492', '494', '496', '497', '500', '501', '505', '506', '507', '509', '515', '520', '525', '528', '529', '531', '538', '541', '545', '546', '548', '549', '550', '554', '555', '557', '561', '563', '564', '565', '571', '572', '573', '574', '578', '580', '581', '585', '587', '589', '591', '592', '594', '596', '597', '600', '604', '609', '616', '617', '624', '625', '626', '628', '629', '633', '634', '643', '646', '650', '652', '655', '659', '663', '667', '671', '675', '681', '685', '693', '697', '698', '699', '700', '707', '708', '709', '712', '713', '714', '716', '719', '724', '730', '734', '747', '749', '757', '758', '759', '768', '776', '777', '783', '787', '791', '796', '798', '799', '808', '809', '810', '814', '817', '818', '823', '826', '831', '836', '838', '839', '841', '842', '847', '849', '852', '861', '866', '870', '874', '880', '885', '892', '893', '896', '897', '905', '906', '909', '922', '931', '932', '937', '939', '946', '956', '964', '968', '971', '972', '974', '975', '976', '979', '981', '986', '1000']",False,1000,True,100,a32c3bd29e,0.0,1.0,0.0
./expes/v4_2021-03-18_issda_1000-prng-1-w1-p100-ukn95_98,30_issda-1000,997,first-1000,150,15,rng,num-start-300,300,25726,ukn-95-98,23.120740175247192,False,,False,0.5017443718860244,0.4539297013347664,0.9451178700051548,100,"['2', '4', '6', '10', '14', '19', '23', '24', '30', '38', '48', '54', '59', '67', '68', '74', '105', '111', '116', '122', '130', '136', '143', '150', '161', '164', '170', '171', '181', '186', '187', '190', '202', '204', '210', '215', '221', '222', '252', '253', '256', '257', '262', '263', '271', '287', '297', '303', '306', '309', '314', '318', '322', '324', '340', '347', '353', '364', '367', '368', '370', '375', '377', '381', '386', '390', '393', '399', '414', '418', '425', '429', '444', '456', '464', '474', '477', '481', '484', '493', '525', '538', '543', '553', '557', '563', '588', '593', '601', '604', '611', '618', '633', '638', '639', '641', '665', '668', '695', '708', '714', '722', '725', '749', '758', '760', '767', '768', '774', '781', '785', '793', '795', '800', '807', '815', '817', '838', '839', '840', '861', '862', '866', '881', '889', '890', '893', '894', '898', '915', '916', '923', '939', '945', '952', '959', '962', '964', '965', '966', '973', '978', '979', '984', '985', '989', '990', '992', '996', '999']",False,1000,True,100,0dd3bf9bc5,0.0,1.0,0.0
./expes/v4_2021-03-18_issda_1000-prng-1-w1-p100-ukn95_98,30_issda-1000,994,first-1000,300,30,rng,num-start-800,800,25726,ukn-95-98,58.598843574523926,False,,False,0.36450214937911374,0.22657430144955237,0.91024257822696,100,"['1', '4', '6', '7', '9', '13', '14', '16', '18', '19', '25', '27', '30', '31', '36', '42', '43', '45', '50', '52', '53', '56', '57', '63', '65', '66', '68', '69', '71', '83', '86', '87', '89', '90', '91', '96', '99', '102', '103', '105', '106', '113', '114', '115', '121', '124', '125', '132', '136', '137', '141', '142', '143', '145', '146', '149', '152', '153', '161', '166', '167', '169', '173', '174', '176', '177', '178', '181', '191', '197', '203', '204', '205', '208', '210', '214', '215', '216', '219', '228', '230', '237', '243', '244', '255', '266', '269', '270', '274', '275', '277', '281', '284', '285', '288', '292', '298', '299', '302', '304', '308', '315', '317', '333', '337', '339', '343', '347', '350', '355', '356', '358', '364', '375', '379', '382', '383', '388', '389', '391', '393', '398', '399', '407', '408', '411', '412', '413', '422', '431', '432', '433', '435', '436', '439', '444', '447', '455', '462', '463', '465', '468', '475', '486', '493', '494', '504', '507', '509', '510', '513', '515', '518', '519', '523', '530', '535', '537', '540', '542', '549', '551', '553', '556', '558', '559', '562', '568', '569', '570', '573', '574', '576', '579', '580', '587', '588', '589', '590', '593', '594', '595', '599', '600', '603', '605', '606', '608', '612', '620', '621', '622', '623', '624', '626', '627', '628', '632', '645', '655', '658', '659', '664', '667', '680', '684', '691', '693', '700', '705', '710', '713', '717', '718', '721', '723', '726', '727', '733', '737', '738', '743', '744', '746', '754', '755', '756', '764', '765', '766', '779', '783', '784', '791', '792', '793', '794', '797', '799', '800', '803', '806', '809', '813', '814', '816', '818', '819', '823', '827', '829', '830', '835', '841', '864', '866', '867', '872', '873', '880', '881', '885', '888', '889', '890', '893', '897', '899', '901', '902', '903', '908', '909', '911', '914', '917', '918', '920', '928', '929', '932', '934', '940', '942', '944', '946', '947', '959', '963', '964', '969', '970', '974', '975', '979', '982', '985', '988', '990', '999']",False,1000,True,100,b3243151a3,0.0,1.0,0.0
./expes/v4_2021-03-18_issda_1000-prng-1-w1-p100-ukn95_98,30_issda-1000,996,first-1000,200,20,rng,num-start-600,600,25726,ukn-95-98,43.91623592376709,False,,False,0.4542182921836041,0.3691355535863955,0.9365957375051759,100,"['8', '12', '14', '16', '21', '30', '32', '33', '37', '44', '46', '47', '62', '65', '66', '68', '69', '79', '91', '100', '106', '107', '111', '122', '128', '134', '137', '138', '140', '142', '155', '156', '160', '164', '168', '197', '203', '217', '223', '238', '240', '242', '244', '265', '266', '270', '274', '276', '278', '286', '287', '292', '299', '301', '309', '311', '318', '322', '323', '335', '339', '345', '348', '353', '360', '369', '375', '379', '386', '387', '396', '397', '400', '405', '407', '418', '421', '426', '432', '438', '442', '447', '448', '456', '472', '481', '482', '485', '486', '488', '494', '496', '507', '518', '520', '533', '534', '536', '547', '549', '554', '555', '558', '562', '563', '565', '573', '583', '586', '588', '591', '594', '595', '599', '600', '601', '604', '606', '607', '610', '615', '619', '620', '621', '626', '630', '631', '636', '641', '642', '643', '648', '649', '650', '651', '655', '660', '672', '688', '689', '698', '699', '707', '713', '716', '731', '732', '733', '735', '736', '737', '738', '746', '760', '777', '780', '788', '796', '798', '799', '808', '820', '821', '831', '844', '852', '854', '857', '858', '875', '876', '877', '882', '883', '887', '888', '889', '891', '894', '900', '903', '919', '926', '927', '931', '938', '943', '944', '945', '949', '952', '959', '964', '972', '981', '982', '988', '989', '995', '997']",False,1000,True,100,57c4d24688,0.0,1.0,0.0
./expes/v4_2021-03-18_issda_1000-prng-1-w1-p100-ukn95_98,30_issda-1000,991,first-1000,450,45,rng,num-start-100,100,25726,ukn-95-98,7.725935459136963,False,,False,0.30695176041398836,0.05131670194948623,0.894590744661054,100,"['2', '4', '5', '6', '8', '12', '14', '16', '19', '21', '22', '23', '25', '27', '28', '29', '30', '32', '33', '34', '35', '36', '37', '44', '45', '46', '47', '48', '51', '52', '53', '55', '57', '62', '63', '65', '66', '68', '69', '70', '71', '74', '79', '82', '88', '89', '91', '95', '100', '102', '105', '106', '107', '108', '111', '112', '117', '118', '122', '123', '124', '125', '126', '127', '128', '129', '130', '131', '132', '133', '134', '135', '137', '138', '140', '142', '147', '155', '156', '160', '161', '164', '168', '174', '176', '182', '183', '184', '188', '190', '192', '196', '197', '203', '204', '205', '217', '223', '224', '227', '228', '230', '231', '233', '238', '240', '242', '244', '245', '246', '251', '255', '258', '259', '265', '266', '269', '270', '271', '272', '274', '276', '277', '278', '281', '286', '287', '292', '294', '296', '298', '299', '301', '306', '308', '309', '311', '312', '318', '321', '322', '323', '324', '327', '328', '330', '331', '334', '335', '336', '337', '339', '341', '342', '345', '348', '349', '350', '353', '354', '355', '360', '361', '362', '369', '370', '373', '375', '379', '382', '383', '384', '385', '386', '387', '390', '396', '397', '399', '400', '405', '407', '410', '418', '420', '421', '424', '426', '427', '429', '430', '431', '432', '434', '436', '437', '438', '439', '441', '442', '445', '446', '447', '448', '449', '456', '462', '468', '472', '476', '478', '481', '482', '485', '486', '488', '489', '493', '494', '495', '496', '500', '502', '507', '509', '513', '515', '516', '518', '520', '523', '525', '528', '531', '532', '533', '534', '536', '538', '540', '543', '545', '547', '548', '549', '550', '554', '555', '557', '558', '562', '563', '565', '569', '573', '578', '581', '582', '583', '585', '586', '588', '589', '591', '594', '595', '599', '600', '601', '602', '603', '604', '605', '606', '607', '610', '615', '616', '619', '620', '621', '624', '626', '627', '630', '631', '633', '635', '636', '638', '641', '642', '643', '644', '648', '649', '650', '651', '652', '655', '658', '660', '663', '666', '670', '672', '676', '679', '684', '688', '689', '692', '693', '695', '696', '698', '699', '701', '707', '708', '711', '712', '713', '715', '716', '720', '724', '730', '731', '732', '733', '734', '735', '736', '737', '738', '741', '746', '750', '752', '753', '756', '760', '764', '766', '772', '775', '777', '779', '780', '788', '791', '793', '794', '796', '798', '799', '802', '806', '807', '808', '810', '811', '812', '813', '815', '820', '821', '823', '824', '826', '827', '830', '831', '832', '833', '837', '840', '844', '848', '852', '853', '854', '857', '858', '859', '862', '865', '871', '873', '875', '876', '877', '878', '879', '882', '883', '884', '885', '887', '888', '889', '891', '892', '894', '900', '901', '902', '903', '905', '907', '908', '909', '911', '912', '919', '920', '922', '926', '927', '931', '935', '938', '940', '943', '944', '945', '947', '949', '950', '952', '959', '962', '964', '966', '972', '973', '974', '978', '981', '982', '984', '987', '988', '989', '993', '995', '996', '997', '999']",False,1000,True,100,14d44332d7,0.0,1.0,0.0
