expe,clients,clients_size,clients_subset,agg_size,method,days,days_size,days_total,time,valid,valid_sum,success,nsols,wall_hit,wall_time,pooled,valid_sums
./expes/v2_2020-12-03_dh_300-prng-1,30_issda_300,300,rng-300,31,rng,num-start-441,441,25726,10.257930755615234,True,,True,1,False,1000,True,1.0
./expes/v2_2020-12-03_dh_300-prng-1,30_issda_300,300,rng-300,21,rng,num-start-21,21,25726,1000.4136135578156,False,,False,0,True,1000,True,0.0
./expes/v2_2020-12-03_dh_300-prng-1,30_issda_300,300,rng-300,251,rng,num-start-251,251,25726,7.01702094078064,True,,True,1,False,1000,True,1.0
./expes/v2_2020-12-03_dh_300-prng-1,30_issda_300,300,rng-300,291,rng,num-start-31,31,25726,1.1805849075317383,True,,True,1,False,1000,True,1.0
./expes/v2_2020-12-03_dh_300-prng-1,30_issda_300,300,rng-300,211,rng,num-start-1,1,25726,0.11232900619506836,False,,False,2,False,1000,True,1.0
./expes/v2_2020-12-03_dh_300-prng-1,30_issda_300,300,rng-300,71,rng,num-start-151,151,25726,5.257950305938721,True,,True,1,False,1000,True,1.0
./expes/v2_2020-12-03_dh_300-prng-1,30_issda_300,300,rng-300,1,rng,num-start-931,931,25726,18.25810170173645,True,,True,1,False,1000,True,1.0
./expes/v2_2020-12-03_dh_300-prng-1,30_issda_300,300,rng-300,291,rng,num-start-961,961,25726,20.057342052459717,True,,True,1,False,1000,True,1.0
./expes/v2_2020-12-03_dh_300-prng-1,30_issda_300,300,rng-300,31,rng,num-start-851,851,25726,18.141165018081665,True,,True,1,False,1000,True,1.0
./expes/v2_2020-12-03_dh_300-prng-1,30_issda_300,300,rng-300,191,rng,num-start-151,151,25726,7.150808095932007,True,,True,1,False,1000,True,1.0
./expes/v2_2020-12-03_dh_300-prng-1,30_issda_300,300,rng-300,101,rng,num-start-711,711,25726,20.913273811340332,True,,True,1,False,1000,True,1.0
./expes/v2_2020-12-03_dh_300-prng-1,30_issda_300,300,rng-300,211,rng,num-start-731,731,25726,20.238842725753784,True,,True,1,False,1000,True,1.0
./expes/v2_2020-12-03_dh_300-prng-1,30_issda_300,300,rng-300,181,rng,num-start-101,101,25726,14.89301323890686,True,,True,1,False,1000,True,1.0
./expes/v2_2020-12-03_dh_300-prng-1,30_issda_300,300,rng-300,201,rng,num-start-461,461,25726,13.806545972824097,True,,True,1,False,1000,True,1.0
./expes/v2_2020-12-03_dh_300-prng-1,30_issda_300,300,rng-300,231,rng,num-start-291,291,25726,7.76915168762207,True,,True,1,False,1000,True,1.0
./expes/v2_2020-12-03_dh_300-prng-1,30_issda_300,300,rng-300,231,rng,num-start-41,41,25726,1000.9041674137115,False,,False,0,True,1000,True,0.0
./expes/v2_2020-12-03_dh_300-prng-1,30_issda_300,300,rng-300,71,rng,num-start-891,891,25726,30.850146293640137,True,,True,1,False,1000,True,1.0
./expes/v2_2020-12-03_dh_300-prng-1,30_issda_300,300,rng-300,211,rng,num-start-931,931,25726,27.38783359527588,True,,True,1,False,1000,True,1.0
./expes/v2_2020-12-03_dh_300-prng-1,30_issda_300,300,rng-300,141,rng,num-start-11,11,25726,1000.2625379562378,False,,False,0,True,1000,True,0.0
./expes/v2_2020-12-03_dh_300-prng-1,30_issda_300,300,rng-300,131,rng,num-start-21,21,25726,1000.8324284553528,False,,False,0,True,1000,True,0.0
./expes/v2_2020-12-03_dh_300-prng-1,30_issda_300,300,rng-300,51,rng,num-start-361,361,25726,10.643176555633545,True,,True,1,False,1000,True,1.0
./expes/v2_2020-12-03_dh_300-prng-1,30_issda_300,300,rng-300,211,rng,num-start-571,571,25726,16.014058589935303,True,,True,1,False,1000,True,1.0
./expes/v2_2020-12-03_dh_300-prng-1,30_issda_300,300,rng-300,251,rng,num-start-691,691,25726,18.75102663040161,True,,True,1,False,1000,True,1.0
./expes/v2_2020-12-03_dh_300-prng-1,30_issda_300,300,rng-300,81,rng,num-start-841,841,25726,29.558088064193726,True,,True,1,False,1000,True,1.0
./expes/v2_2020-12-03_dh_300-prng-1,30_issda_300,300,rng-300,31,rng,num-start-11,11,25726,1000.6251015663147,False,,False,0,True,1000,True,0.0
./expes/v2_2020-12-03_dh_300-prng-1,30_issda_300,300,rng-300,61,rng,num-start-1,1,25726,0.06574487686157227,False,,False,2,False,1000,True,1.0
./expes/v2_2020-12-03_dh_300-prng-1,30_issda_300,300,rng-300,141,rng,num-start-311,311,25726,10.687792539596558,True,,True,1,False,1000,True,1.0
./expes/v2_2020-12-03_dh_300-prng-1,30_issda_300,300,rng-300,171,rng,num-start-221,221,25726,8.090715646743774,True,,True,1,False,1000,True,1.0
./expes/v2_2020-12-03_dh_300-prng-1,30_issda_300,300,rng-300,241,rng,num-start-761,761,25726,20.49806308746338,True,,True,1,False,1000,True,1.0
./expes/v2_2020-12-03_dh_300-prng-1,30_issda_300,300,rng-300,101,rng,num-start-981,981,25726,24.41930341720581,True,,True,1,False,1000,True,1.0
./expes/v2_2020-12-03_dh_300-prng-1,30_issda_300,300,rng-300,281,rng,num-start-211,211,25726,5.722066879272461,True,,True,1,False,1000,True,1.0
./expes/v2_2020-12-03_dh_300-prng-1,30_issda_300,300,rng-300,81,rng,num-start-71,71,25726,1001.4937126636505,False,,False,0,True,1000,True,0.0
./expes/v2_2020-12-03_dh_300-prng-1,30_issda_300,300,rng-300,281,rng,num-start-351,351,25726,10.593999862670898,True,,True,1,False,1000,True,1.0
./expes/v2_2020-12-03_dh_300-prng-1,30_issda_300,300,rng-300,161,rng,num-start-951,951,25726,32.0473575592041,True,,True,1,False,1000,True,1.0
./expes/v2_2020-12-03_dh_300-prng-1,30_issda_300,300,rng-300,271,rng,num-start-611,611,25726,19.277403354644775,True,,True,1,False,1000,True,1.0
./expes/v2_2020-12-03_dh_300-prng-1,30_issda_300,300,rng-300,191,rng,num-start-801,801,25726,23.077491760253906,True,,True,1,False,1000,True,1.0
./expes/v2_2020-12-03_dh_300-prng-1,30_issda_300,300,rng-300,131,rng,num-start-491,491,25726,17.373167276382446,True,,True,1,False,1000,True,1.0
./expes/v2_2020-12-03_dh_300-prng-1,30_issda_300,300,rng-300,151,rng,num-start-551,551,25726,17.533463954925537,True,,True,1,False,1000,True,1.0
./expes/v2_2020-12-03_dh_300-prng-1,30_issda_300,300,rng-300,41,rng,num-start-351,351,25726,10.423184871673584,True,,True,1,False,1000,True,1.0
./expes/v2_2020-12-03_dh_300-prng-1,30_issda_300,300,rng-300,1,rng,num-start-361,361,25726,7.2935943603515625,True,,True,1,False,1000,True,1.0
./expes/v2_2020-12-03_dh_300-prng-1,30_issda_300,300,rng-300,281,rng,num-start-541,541,25726,13.87428903579712,True,,True,1,False,1000,True,1.0
./expes/v2_2020-12-03_dh_300-prng-1,30_issda_300,300,rng-300,281,rng,num-start-541,541,25726,14.851521492004395,True,,True,1,False,1000,True,1.0
./expes/v2_2020-12-03_dh_300-prng-1,30_issda_300,300,rng-300,161,rng,num-start-151,151,25726,5.798214435577393,True,,True,1,False,1000,True,1.0
./expes/v2_2020-12-03_dh_300-prng-1,30_issda_300,300,rng-300,21,rng,num-start-501,501,25726,14.277782201766968,True,,True,1,False,1000,True,1.0
./expes/v2_2020-12-03_dh_300-prng-1,30_issda_300,300,rng-300,241,rng,num-start-881,881,25726,23.299238920211792,True,,True,1,False,1000,True,1.0
./expes/v2_2020-12-03_dh_300-prng-1,30_issda_300,300,rng-300,241,rng,num-start-701,701,25726,20.051688194274902,True,,True,1,False,1000,True,1.0
./expes/v2_2020-12-03_dh_300-prng-1,30_issda_300,300,rng-300,231,rng,num-start-741,741,25726,18.523613452911377,True,,True,1,False,1000,True,1.0
./expes/v2_2020-12-03_dh_300-prng-1,30_issda_300,300,rng-300,131,rng,num-start-591,591,25726,17.692667245864868,True,,True,1,False,1000,True,1.0
./expes/v2_2020-12-03_dh_300-prng-1,30_issda_300,300,rng-300,281,rng,num-start-831,831,25726,23.656743049621582,True,,True,1,False,1000,True,1.0
./expes/v2_2020-12-03_dh_300-prng-1,30_issda_300,300,rng-300,271,rng,num-start-941,941,25726,25.741000652313232,True,,True,1,False,1000,True,1.0
./expes/v2_2020-12-03_dh_300-prng-1,30_issda_300,300,rng-300,161,rng,num-start-751,751,25726,24.469082832336426,True,,True,1,False,1000,True,1.0
./expes/v2_2020-12-03_dh_300-prng-1,30_issda_300,300,rng-300,31,rng,num-start-581,581,25726,19.174660205841064,True,,True,1,False,1000,True,1.0
./expes/v2_2020-12-03_dh_300-prng-1,30_issda_300,300,rng-300,291,rng,num-start-41,41,25726,1.1568965911865234,True,,True,1,False,1000,True,1.0
./expes/v2_2020-12-03_dh_300-prng-1,30_issda_300,300,rng-300,201,rng,num-start-921,921,25726,29.46186876296997,True,,True,1,False,1000,True,1.0
./expes/v2_2020-12-03_dh_300-prng-1,30_issda_300,300,rng-300,71,rng,num-start-451,451,25726,15.141798257827759,True,,True,1,False,1000,True,1.0
./expes/v2_2020-12-03_dh_300-prng-1,30_issda_300,300,rng-300,151,rng,num-start-191,191,25726,7.167412996292114,True,,True,1,False,1000,True,1.0
./expes/v2_2020-12-03_dh_300-prng-1,30_issda_300,300,rng-300,1,rng,num-start-341,341,25726,6.737694263458252,True,,True,1,False,1000,True,1.0
./expes/v2_2020-12-03_dh_300-prng-1,30_issda_300,300,rng-300,21,rng,num-start-641,641,25726,16.30228877067566,True,,True,1,False,1000,True,1.0
./expes/v2_2020-12-03_dh_300-prng-1,30_issda_300,300,rng-300,191,rng,num-start-851,851,25726,29.09016180038452,True,,True,1,False,1000,True,1.0
./expes/v2_2020-12-03_dh_300-prng-1,30_issda_300,300,rng-300,241,rng,num-start-71,71,25726,1002.0055565834045,False,,False,0,True,1000,True,0.0
./expes/v2_2020-12-03_dh_300-prng-1,30_issda_300,300,rng-300,141,rng,num-start-451,451,25726,16.375267505645752,True,,True,1,False,1000,True,1.0
./expes/v2_2020-12-03_dh_300-prng-1,30_issda_300,300,rng-300,181,rng,num-start-41,41,25726,1001.166642665863,False,,False,0,True,1000,True,0.0
./expes/v2_2020-12-03_dh_300-prng-1,30_issda_300,300,rng-300,121,rng,num-start-691,691,25726,18.845049619674683,True,,True,1,False,1000,True,1.0
./expes/v2_2020-12-03_dh_300-prng-1,30_issda_300,300,rng-300,91,rng,num-start-231,231,25726,7.128214359283447,True,,True,1,False,1000,True,1.0
./expes/v2_2020-12-03_dh_300-prng-1,30_issda_300,300,rng-300,211,rng,num-start-21,21,25726,1000.5055248737335,False,,False,0,True,1000,True,0.0
./expes/v2_2020-12-03_dh_300-prng-1,30_issda_300,300,rng-300,41,rng,num-start-801,801,25726,23.775110721588135,True,,True,1,False,1000,True,1.0
./expes/v2_2020-12-03_dh_300-prng-1,30_issda_300,300,rng-300,1,rng,num-start-81,81,25726,1.429490566253662,True,,True,1,False,1000,True,1.0
./expes/v2_2020-12-03_dh_300-prng-1,30_issda_300,300,rng-300,211,rng,num-start-691,691,25726,21.393461227416992,True,,True,1,False,1000,True,1.0
./expes/v2_2020-12-03_dh_300-prng-1,30_issda_300,300,rng-300,171,rng,num-start-31,31,25726,1000.64581990242,False,,False,0,True,1000,True,0.0
./expes/v2_2020-12-03_dh_300-prng-1,30_issda_300,300,rng-300,141,rng,num-start-761,761,25726,29.514755725860596,True,,True,1,False,1000,True,1.0
./expes/v2_2020-12-03_dh_300-prng-1,30_issda_300,300,rng-300,81,rng,num-start-771,771,25726,31.326555490493774,True,,True,1,False,1000,True,1.0
./expes/v2_2020-12-03_dh_300-prng-1,30_issda_300,300,rng-300,131,rng,num-start-391,391,25726,13.686097145080566,True,,True,1,False,1000,True,1.0
./expes/v2_2020-12-03_dh_300-prng-1,30_issda_300,300,rng-300,241,rng,num-start-871,871,25726,25.332549810409546,True,,True,1,False,1000,True,1.0
./expes/v2_2020-12-03_dh_300-prng-1,30_issda_300,300,rng-300,111,rng,num-start-651,651,25726,22.613444089889526,True,,True,1,False,1000,True,1.0
./expes/v2_2020-12-03_dh_300-prng-1,30_issda_300,300,rng-300,121,rng,num-start-661,661,25726,21.453215837478638,True,,True,1,False,1000,True,1.0
./expes/v2_2020-12-03_dh_300-prng-1,30_issda_300,300,rng-300,21,rng,num-start-641,641,25726,16.647923231124878,True,,True,1,False,1000,True,1.0
./expes/v2_2020-12-03_dh_300-prng-1,30_issda_300,300,rng-300,111,rng,num-start-101,101,25726,796.5617909431458,True,,True,1,False,1000,True,1.0
./expes/v2_2020-12-03_dh_300-prng-1,30_issda_300,300,rng-300,171,rng,num-start-661,661,25726,17.942530632019043,True,,True,1,False,1000,True,1.0
./expes/v2_2020-12-03_dh_300-prng-1,30_issda_300,300,rng-300,201,rng,num-start-901,901,25726,23.405438899993896,True,,True,1,False,1000,True,1.0
./expes/v2_2020-12-03_dh_300-prng-1,30_issda_300,300,rng-300,31,rng,num-start-811,811,25726,23.13493251800537,True,,True,1,False,1000,True,1.0
./expes/v2_2020-12-03_dh_300-prng-1,30_issda_300,300,rng-300,81,rng,num-start-91,91,25726,15.366436004638672,True,,True,1,False,1000,True,1.0
./expes/v2_2020-12-03_dh_300-prng-1,30_issda_300,300,rng-300,131,rng,num-start-471,471,25726,17.852993965148926,True,,True,1,False,1000,True,1.0
./expes/v2_2020-12-03_dh_300-prng-1,30_issda_300,300,rng-300,271,rng,num-start-591,591,25726,14.574549913406372,True,,True,1,False,1000,True,1.0
./expes/v2_2020-12-03_dh_300-prng-1,30_issda_300,300,rng-300,11,rng,num-start-421,421,25726,8.336126327514648,True,,True,1,False,1000,True,1.0
./expes/v2_2020-12-03_dh_300-prng-1,30_issda_300,300,rng-300,231,rng,num-start-411,411,25726,13.201930046081543,True,,True,1,False,1000,True,1.0
./expes/v2_2020-12-03_dh_300-prng-1,30_issda_300,300,rng-300,51,rng,num-start-991,991,25726,24.895363330841064,True,,True,1,False,1000,True,1.0
./expes/v2_2020-12-03_dh_300-prng-1,30_issda_300,300,rng-300,121,rng,num-start-251,251,25726,6.37304425239563,True,,True,1,False,1000,True,1.0
./expes/v2_2020-12-03_dh_300-prng-1,30_issda_300,300,rng-300,101,rng,num-start-31,31,25726,1000.7489492893219,False,,False,0,True,1000,True,0.0
./expes/v2_2020-12-03_dh_300-prng-1,30_issda_300,300,rng-300,111,rng,num-start-101,101,25726,1003.1474478244781,False,,False,1,True,1000,True,0.0
./expes/v2_2020-12-03_dh_300-prng-1,30_issda_300,300,rng-300,21,rng,num-start-581,581,25726,16.70698308944702,True,,True,1,False,1000,True,1.0
./expes/v2_2020-12-03_dh_300-prng-1,30_issda_300,300,rng-300,201,rng,num-start-781,781,25726,23.925402402877808,True,,True,1,False,1000,True,1.0
./expes/v2_2020-12-03_dh_300-prng-1,30_issda_300,300,rng-300,251,rng,num-start-161,161,25726,4.411720514297485,True,,True,1,False,1000,True,1.0
./expes/v2_2020-12-03_dh_300-prng-1,30_issda_300,300,rng-300,211,rng,num-start-921,921,25726,29.073877811431885,True,,True,1,False,1000,True,1.0
./expes/v2_2020-12-03_dh_300-prng-1,30_issda_300,300,rng-300,101,rng,num-start-21,21,25726,1000.7920732498169,False,,False,0,True,1000,True,0.0
./expes/v2_2020-12-03_dh_300-prng-1,30_issda_300,300,rng-300,21,rng,num-start-811,811,25726,21.267971992492676,True,,True,1,False,1000,True,1.0
./expes/v2_2020-12-03_dh_300-prng-1,30_issda_300,300,rng-300,291,rng,num-start-321,321,25726,6.919075012207031,True,,True,1,False,1000,True,1.0
./expes/v2_2020-12-03_dh_300-prng-1,30_issda_300,300,rng-300,251,rng,num-start-11,11,25726,1000.464921951294,False,,False,0,True,1000,True,0.0
./expes/v2_2020-12-03_dh_300-prng-1,30_issda_300,300,rng-300,151,rng,num-start-251,251,25726,8.23712158203125,True,,True,1,False,1000,True,1.0
./expes/v2_2020-12-03_dh_300-prng-1,30_issda_300,300,rng-300,121,rng,num-start-211,211,25726,6.776681900024414,True,,True,1,False,1000,True,1.0
./expes/v2_2020-12-03_dh_300-prng-1,30_issda_300,300,rng-300,51,rng,num-start-501,501,25726,12.930972814559937,True,,True,1,False,1000,True,1.0
./expes/v2_2020-12-03_dh_300-prng-1,30_issda_300,300,rng-300,31,rng,num-start-801,801,25726,22.188980102539062,True,,True,1,False,1000,True,1.0
./expes/v2_2020-12-03_dh_300-prng-1,30_issda_300,300,rng-300,101,rng,num-start-611,611,25726,19.290321111679077,True,,True,1,False,1000,True,1.0
./expes/v2_2020-12-03_dh_300-prng-1,30_issda_300,300,rng-300,271,rng,num-start-491,491,25726,13.462221622467041,True,,True,1,False,1000,True,1.0
./expes/v2_2020-12-03_dh_300-prng-1,30_issda_300,300,rng-300,141,rng,num-start-81,81,25726,1001.587568283081,False,,False,0,True,1000,True,0.0
./expes/v2_2020-12-03_dh_300-prng-1,30_issda_300,300,rng-300,281,rng,num-start-371,371,25726,10.387452602386475,True,,True,1,False,1000,True,1.0
./expes/v2_2020-12-03_dh_300-prng-1,30_issda_300,300,rng-300,41,rng,num-start-761,761,25726,20.455667972564697,True,,True,1,False,1000,True,1.0
./expes/v2_2020-12-03_dh_300-prng-1,30_issda_300,300,rng-300,281,rng,num-start-641,641,25726,18.229862689971924,True,,True,1,False,1000,True,1.0
./expes/v2_2020-12-03_dh_300-prng-1,30_issda_300,300,rng-300,41,rng,num-start-441,441,25726,12.365158081054688,True,,True,1,False,1000,True,1.0
./expes/v2_2020-12-03_dh_300-prng-1,30_issda_300,300,rng-300,161,rng,num-start-271,271,25726,7.965130567550659,True,,True,1,False,1000,True,1.0
./expes/v2_2020-12-03_dh_300-prng-1,30_issda_300,300,rng-300,51,rng,num-start-641,641,25726,19.165340662002563,True,,True,1,False,1000,True,1.0
./expes/v2_2020-12-03_dh_300-prng-1,30_issda_300,300,rng-300,121,rng,num-start-541,541,25726,19.358853816986084,True,,True,1,False,1000,True,1.0
./expes/v2_2020-12-03_dh_300-prng-1,30_issda_300,300,rng-300,241,rng,num-start-971,971,25726,24.897980213165283,True,,True,1,False,1000,True,1.0
./expes/v2_2020-12-03_dh_300-prng-1,30_issda_300,300,rng-300,241,rng,num-start-591,591,25726,16.862716913223267,True,,True,1,False,1000,True,1.0
./expes/v2_2020-12-03_dh_300-prng-1,30_issda_300,300,rng-300,101,rng,num-start-891,891,25726,30.832237482070923,True,,True,1,False,1000,True,1.0
./expes/v2_2020-12-03_dh_300-prng-1,30_issda_300,300,rng-300,51,rng,num-start-521,521,25726,16.762306928634644,True,,True,1,False,1000,True,1.0
./expes/v2_2020-12-03_dh_300-prng-1,30_issda_300,300,rng-300,51,rng,num-start-671,671,25726,16.75254487991333,True,,True,1,False,1000,True,1.0
./expes/v2_2020-12-03_dh_300-prng-1,30_issda_300,300,rng-300,91,rng,num-start-391,391,25726,13.246156215667725,True,,True,1,False,1000,True,1.0
./expes/v2_2020-12-03_dh_300-prng-1,30_issda_300,300,rng-300,171,rng,num-start-971,971,25726,27.534940242767334,True,,True,1,False,1000,True,1.0
./expes/v2_2020-12-03_dh_300-prng-1,30_issda_300,300,rng-300,1,rng,num-start-761,761,25726,14.649281978607178,True,,True,1,False,1000,True,1.0
./expes/v2_2020-12-03_dh_300-prng-1,30_issda_300,300,rng-300,121,rng,num-start-761,761,25726,25.582122325897217,True,,True,1,False,1000,True,1.0
./expes/v2_2020-12-03_dh_300-prng-1,30_issda_300,300,rng-300,151,rng,num-start-221,221,25726,7.561079263687134,True,,True,1,False,1000,True,1.0
./expes/v2_2020-12-03_dh_300-prng-1,30_issda_300,300,rng-300,181,rng,num-start-941,941,25726,29.995815992355347,True,,True,1,False,1000,True,1.0
./expes/v2_2020-12-03_dh_300-prng-1,30_issda_300,300,rng-300,271,rng,num-start-141,141,25726,3.5081965923309326,True,,True,1,False,1000,True,1.0
./expes/v2_2020-12-03_dh_300-prng-1,30_issda_300,300,rng-300,41,rng,num-start-481,481,25726,12.064151525497437,True,,True,1,False,1000,True,1.0
./expes/v2_2020-12-03_dh_300-prng-1,30_issda_300,300,rng-300,11,rng,num-start-341,341,25726,7.73524808883667,True,,True,1,False,1000,True,1.0
./expes/v2_2020-12-03_dh_300-prng-1,30_issda_300,300,rng-300,271,rng,num-start-801,801,25726,21.282123565673828,False,,False,2,False,1000,True,1.0
./expes/v2_2020-12-03_dh_300-prng-1,30_issda_300,300,rng-300,101,rng,num-start-791,791,25726,25.810428142547607,True,,True,1,False,1000,True,1.0
./expes/v2_2020-12-03_dh_300-prng-1,30_issda_300,300,rng-300,11,rng,num-start-641,641,25726,15.439789533615112,True,,True,1,False,1000,True,1.0
./expes/v2_2020-12-03_dh_300-prng-1,30_issda_300,300,rng-300,231,rng,num-start-821,821,25726,23.960139513015747,True,,True,1,False,1000,True,1.0
./expes/v2_2020-12-03_dh_300-prng-1,30_issda_300,300,rng-300,11,rng,num-start-41,41,25726,1.2321140766143799,True,,True,1,False,1000,True,1.0
./expes/v2_2020-12-03_dh_300-prng-1,30_issda_300,300,rng-300,191,rng,num-start-261,261,25726,7.332846164703369,True,,True,1,False,1000,True,1.0
./expes/v2_2020-12-03_dh_300-prng-1,30_issda_300,300,rng-300,11,rng,num-start-781,781,25726,16.235710620880127,True,,True,1,False,1000,True,1.0
./expes/v2_2020-12-03_dh_300-prng-1,30_issda_300,300,rng-300,21,rng,num-start-471,471,25726,11.843278169631958,True,,True,1,False,1000,True,1.0
./expes/v2_2020-12-03_dh_300-prng-1,30_issda_300,300,rng-300,271,rng,num-start-111,111,25726,2.7913193702697754,True,,True,1,False,1000,True,1.0
./expes/v2_2020-12-03_dh_300-prng-1,30_issda_300,300,rng-300,51,rng,num-start-451,451,25726,12.785651922225952,True,,True,1,False,1000,True,1.0
./expes/v2_2020-12-03_dh_300-prng-1,30_issda_300,300,rng-300,61,rng,num-start-841,841,25726,26.42062997817993,True,,True,1,False,1000,True,1.0
./expes/v2_2020-12-03_dh_300-prng-1,30_issda_300,300,rng-300,151,rng,num-start-41,41,25726,1000.913253068924,False,,False,0,True,1000,True,0.0
./expes/v2_2020-12-03_dh_300-prng-1,30_issda_300,300,rng-300,291,rng,num-start-451,451,25726,9.55137300491333,True,,True,1,False,1000,True,1.0
./expes/v2_2020-12-03_dh_300-prng-1,30_issda_300,300,rng-300,11,rng,num-start-151,151,25726,3.516462802886963,True,,True,1,False,1000,True,1.0
./expes/v2_2020-12-03_dh_300-prng-1,30_issda_300,300,rng-300,81,rng,num-start-101,101,25726,7.023577928543091,True,,True,1,False,1000,True,1.0
./expes/v2_2020-12-03_dh_300-prng-1,30_issda_300,300,rng-300,211,rng,num-start-281,281,25726,7.920881032943726,True,,True,1,False,1000,True,1.0
./expes/v2_2020-12-03_dh_300-prng-1,30_issda_300,300,rng-300,281,rng,num-start-791,791,25726,16.996628284454346,True,,True,1,False,1000,True,1.0
./expes/v2_2020-12-03_dh_300-prng-1,30_issda_300,300,rng-300,101,rng,num-start-311,311,25726,8.295796394348145,True,,True,1,False,1000,True,1.0
./expes/v2_2020-12-03_dh_300-prng-1,30_issda_300,300,rng-300,211,rng,num-start-251,251,25726,6.543304681777954,True,,True,1,False,1000,True,1.0
./expes/v2_2020-12-03_dh_300-prng-1,30_issda_300,300,rng-300,221,rng,num-start-311,311,25726,9.057374954223633,True,,True,1,False,1000,True,1.0
./expes/v2_2020-12-03_dh_300-prng-1,30_issda_300,300,rng-300,81,rng,num-start-201,201,25726,5.343765497207642,True,,True,1,False,1000,True,1.0
./expes/v2_2020-12-03_dh_300-prng-1,30_issda_300,300,rng-300,51,rng,num-start-821,821,25726,22.232937574386597,True,,True,1,False,1000,True,1.0
./expes/v2_2020-12-03_dh_300-prng-1,30_issda_300,300,rng-300,151,rng,num-start-701,701,25726,17.102978944778442,True,,True,1,False,1000,True,1.0
./expes/v2_2020-12-03_dh_300-prng-1,30_issda_300,300,rng-300,221,rng,num-start-301,301,25726,7.9378392696380615,True,,True,1,False,1000,True,1.0
./expes/v2_2020-12-03_dh_300-prng-1,30_issda_300,300,rng-300,111,rng,num-start-601,601,25726,17.126419067382812,True,,True,1,False,1000,True,1.0
./expes/v2_2020-12-03_dh_300-prng-1,30_issda_300,300,rng-300,231,rng,num-start-341,341,25726,8.906675577163696,True,,True,1,False,1000,True,1.0
./expes/v2_2020-12-03_dh_300-prng-1,30_issda_300,300,rng-300,181,rng,num-start-491,491,25726,12.581465482711792,True,,True,1,False,1000,True,1.0
./expes/v2_2020-12-03_dh_300-prng-1,30_issda_300,300,rng-300,91,rng,num-start-31,31,25726,1000.8240344524384,False,,False,0,True,1000,True,0.0
./expes/v2_2020-12-03_dh_300-prng-1,30_issda_300,300,rng-300,231,rng,num-start-391,391,25726,12.364267110824585,True,,True,1,False,1000,True,1.0
./expes/v2_2020-12-03_dh_300-prng-1,30_issda_300,300,rng-300,71,rng,num-start-491,491,25726,14.047334671020508,True,,True,1,False,1000,True,1.0
./expes/v2_2020-12-03_dh_300-prng-1,30_issda_300,300,rng-300,221,rng,num-start-561,561,25726,14.340156078338623,True,,True,1,False,1000,True,1.0
./expes/v2_2020-12-03_dh_300-prng-1,30_issda_300,300,rng-300,101,rng,num-start-401,401,25726,12.607818126678467,True,,True,1,False,1000,True,1.0
./expes/v2_2020-12-03_dh_300-prng-1,30_issda_300,300,rng-300,21,rng,num-start-991,991,25726,22.79002809524536,True,,True,1,False,1000,True,1.0
./expes/v2_2020-12-03_dh_300-prng-1,30_issda_300,300,rng-300,31,rng,num-start-171,171,25726,4.416561603546143,True,,True,1,False,1000,True,1.0
./expes/v2_2020-12-03_dh_300-prng-1,30_issda_300,300,rng-300,71,rng,num-start-911,911,25726,24.48993706703186,True,,True,1,False,1000,True,1.0
./expes/v2_2020-12-03_dh_300-prng-1,30_issda_300,300,rng-300,121,rng,num-start-381,381,25726,12.615780353546143,True,,True,1,False,1000,True,1.0
./expes/v2_2020-12-03_dh_300-prng-1,30_issda_300,300,rng-300,81,rng,num-start-421,421,25726,12.579434156417847,True,,True,1,False,1000,True,1.0
./expes/v2_2020-12-03_dh_300-prng-1,30_issda_300,300,rng-300,21,rng,num-start-581,581,25726,13.161277055740356,True,,True,1,False,1000,True,1.0
./expes/v2_2020-12-03_dh_300-prng-1,30_issda_300,300,rng-300,121,rng,num-start-311,311,25726,10.356825590133667,True,,True,1,False,1000,True,1.0
./expes/v2_2020-12-03_dh_300-prng-1,30_issda_300,300,rng-300,291,rng,num-start-211,211,25726,4.505799055099487,True,,True,1,False,1000,True,1.0
./expes/v2_2020-12-03_dh_300-prng-1,30_issda_300,300,rng-300,181,rng,num-start-41,41,25726,1000.8853266239166,False,,False,0,True,1000,True,0.0
./expes/v2_2020-12-03_dh_300-prng-1,30_issda_300,300,rng-300,101,rng,num-start-371,371,25726,9.771653175354004,True,,True,1,False,1000,True,1.0
./expes/v2_2020-12-03_dh_300-prng-1,30_issda_300,300,rng-300,111,rng,num-start-401,401,25726,13.172510385513306,True,,True,1,False,1000,True,1.0
./expes/v2_2020-12-03_dh_300-prng-1,30_issda_300,300,rng-300,101,rng,num-start-871,871,25726,23.956160306930542,True,,True,1,False,1000,True,1.0
./expes/v2_2020-12-03_dh_300-prng-1,30_issda_300,300,rng-300,291,rng,num-start-451,451,25726,8.650238513946533,True,,True,1,False,1000,True,1.0
./expes/v2_2020-12-03_dh_300-prng-1,30_issda_300,300,rng-300,71,rng,num-start-291,291,25726,8.686019659042358,True,,True,1,False,1000,True,1.0
./expes/v2_2020-12-03_dh_300-prng-1,30_issda_300,300,rng-300,231,rng,num-start-681,681,25726,18.036219358444214,True,,True,1,False,1000,True,1.0
./expes/v2_2020-12-03_dh_300-prng-1,30_issda_300,300,rng-300,161,rng,num-start-371,371,25726,10.836408853530884,True,,True,1,False,1000,True,1.0
./expes/v2_2020-12-03_dh_300-prng-1,30_issda_300,300,rng-300,21,rng,num-start-901,901,25726,22.191702127456665,True,,True,1,False,1000,True,1.0
./expes/v2_2020-12-03_dh_300-prng-1,30_issda_300,300,rng-300,61,rng,num-start-531,531,25726,16.901397228240967,True,,True,1,False,1000,True,1.0
./expes/v2_2020-12-03_dh_300-prng-1,30_issda_300,300,rng-300,41,rng,num-start-361,361,25726,10.727730512619019,True,,True,1,False,1000,True,1.0
./expes/v2_2020-12-03_dh_300-prng-1,30_issda_300,300,rng-300,131,rng,num-start-271,271,25726,8.022008180618286,True,,True,1,False,1000,True,1.0
./expes/v2_2020-12-03_dh_300-prng-1,30_issda_300,300,rng-300,201,rng,num-start-441,441,25726,10.667443990707397,True,,True,1,False,1000,True,1.0
./expes/v2_2020-12-03_dh_300-prng-1,30_issda_300,300,rng-300,41,rng,num-start-921,921,25726,25.74174928665161,True,,True,1,False,1000,True,1.0
./expes/v2_2020-12-03_dh_300-prng-1,30_issda_300,300,rng-300,291,rng,num-start-611,611,25726,11.272397994995117,True,,True,1,False,1000,True,1.0
./expes/v2_2020-12-03_dh_300-prng-1,30_issda_300,300,rng-300,261,rng,num-start-331,331,25726,9.63511037826538,True,,True,1,False,1000,True,1.0
./expes/v2_2020-12-03_dh_300-prng-1,30_issda_300,300,rng-300,171,rng,num-start-71,71,25726,1001.4946451187134,False,,False,0,True,1000,True,0.0
./expes/v2_2020-12-03_dh_300-prng-1,30_issda_300,300,rng-300,221,rng,num-start-431,431,25726,11.590667247772217,True,,True,1,False,1000,True,1.0
./expes/v2_2020-12-03_dh_300-prng-1,30_issda_300,300,rng-300,1,rng,num-start-191,191,25726,3.655550718307495,True,,True,1,False,1000,True,1.0
./expes/v2_2020-12-03_dh_300-prng-1,30_issda_300,300,rng-300,261,rng,num-start-571,571,25726,14.910587310791016,True,,True,1,False,1000,True,1.0
./expes/v2_2020-12-03_dh_300-prng-1,30_issda_300,300,rng-300,91,rng,num-start-251,251,25726,7.562536716461182,True,,True,1,False,1000,True,1.0
./expes/v2_2020-12-03_dh_300-prng-1,30_issda_300,300,rng-300,61,rng,num-start-431,431,25726,11.18474555015564,True,,True,1,False,1000,True,1.0
./expes/v2_2020-12-03_dh_300-prng-1,30_issda_300,300,rng-300,211,rng,num-start-621,621,25726,16.47166419029236,True,,True,1,False,1000,True,1.0
./expes/v2_2020-12-03_dh_300-prng-1,30_issda_300,300,rng-300,71,rng,num-start-131,131,25726,4.089837074279785,True,,True,1,False,1000,True,1.0
./expes/v2_2020-12-03_dh_300-prng-1,30_issda_300,300,rng-300,291,rng,num-start-811,811,25726,15.226592540740967,True,,True,1,False,1000,True,1.0
./expes/v2_2020-12-03_dh_300-prng-1,30_issda_300,300,rng-300,21,rng,num-start-221,221,25726,5.879163026809692,True,,True,1,False,1000,True,1.0
./expes/v2_2020-12-03_dh_300-prng-1,30_issda_300,300,rng-300,11,rng,num-start-461,461,25726,9.614587545394897,True,,True,1,False,1000,True,1.0
./expes/v2_2020-12-03_dh_300-prng-1,30_issda_300,300,rng-300,41,rng,num-start-631,631,25726,17.72512435913086,True,,True,1,False,1000,True,1.0
./expes/v2_2020-12-03_dh_300-prng-1,30_issda_300,300,rng-300,251,rng,num-start-701,701,25726,17.76612138748169,True,,True,1,False,1000,True,1.0
./expes/v2_2020-12-03_dh_300-prng-1,30_issda_300,300,rng-300,31,rng,num-start-771,771,25726,22.752480506896973,True,,True,1,False,1000,True,1.0
./expes/v2_2020-12-03_dh_300-prng-1,30_issda_300,300,rng-300,141,rng,num-start-81,81,25726,1001.6343774795532,False,,False,0,True,1000,True,0.0
./expes/v2_2020-12-03_dh_300-prng-1,30_issda_300,300,rng-300,241,rng,num-start-981,981,25726,28.881847381591797,True,,True,1,False,1000,True,1.0
./expes/v2_2020-12-03_dh_300-prng-1,30_issda_300,300,rng-300,51,rng,num-start-171,171,25726,4.920959711074829,True,,True,1,False,1000,True,1.0
./expes/v2_2020-12-03_dh_300-prng-1,30_issda_300,300,rng-300,61,rng,num-start-711,711,25726,16.898226976394653,True,,True,1,False,1000,True,1.0
./expes/v2_2020-12-03_dh_300-prng-1,30_issda_300,300,rng-300,201,rng,num-start-251,251,25726,7.53130316734314,True,,True,1,False,1000,True,1.0
./expes/v2_2020-12-03_dh_300-prng-1,30_issda_300,300,rng-300,91,rng,num-start-711,711,25726,17.75112819671631,True,,True,1,False,1000,True,1.0
./expes/v2_2020-12-03_dh_300-prng-1,30_issda_300,300,rng-300,171,rng,num-start-751,751,25726,19.963350296020508,True,,True,1,False,1000,True,1.0
./expes/v2_2020-12-03_dh_300-prng-1,30_issda_300,300,rng-300,71,rng,num-start-241,241,25726,7.574142932891846,True,,True,1,False,1000,True,1.0
./expes/v2_2020-12-03_dh_300-prng-1,30_issda_300,300,rng-300,11,rng,num-start-591,591,25726,11.982622146606445,True,,True,1,False,1000,True,1.0
./expes/v2_2020-12-03_dh_300-prng-1,30_issda_300,300,rng-300,51,rng,num-start-51,51,25726,1001.4403672218323,False,,False,0,True,1000,True,0.0
./expes/v2_2020-12-03_dh_300-prng-1,30_issda_300,300,rng-300,201,rng,num-start-161,161,25726,5.138625144958496,True,,True,1,False,1000,True,1.0
./expes/v2_2020-12-03_dh_300-prng-1,30_issda_300,300,rng-300,251,rng,num-start-701,701,25726,17.869961977005005,True,,True,1,False,1000,True,1.0
./expes/v2_2020-12-03_dh_300-prng-1,30_issda_300,300,rng-300,271,rng,num-start-591,591,25726,14.195908546447754,True,,True,1,False,1000,True,1.0
./expes/v2_2020-12-03_dh_300-prng-1,30_issda_300,300,rng-300,151,rng,num-start-981,981,25726,27.622274160385132,True,,True,1,False,1000,True,1.0
./expes/v2_2020-12-03_dh_300-prng-1,30_issda_300,300,rng-300,41,rng,num-start-831,831,25726,25.73751211166382,True,,True,1,False,1000,True,1.0
./expes/v2_2020-12-03_dh_300-prng-1,30_issda_300,300,rng-300,281,rng,num-start-791,791,25726,19.38311791419983,True,,True,1,False,1000,True,1.0
./expes/v2_2020-12-03_dh_300-prng-1,30_issda_300,300,rng-300,1,rng,num-start-121,121,25726,2.332270383834839,True,,True,1,False,1000,True,1.0
./expes/v2_2020-12-03_dh_300-prng-1,30_issda_300,300,rng-300,251,rng,num-start-201,201,25726,5.735198020935059,True,,True,1,False,1000,True,1.0
./expes/v2_2020-12-03_dh_300-prng-1,30_issda_300,300,rng-300,171,rng,num-start-261,261,25726,8.53718113899231,True,,True,1,False,1000,True,1.0
./expes/v2_2020-12-03_dh_300-prng-1,30_issda_300,300,rng-300,51,rng,num-start-91,91,25726,5.170272350311279,True,,True,1,False,1000,True,1.0
./expes/v2_2020-12-03_dh_300-prng-1,30_issda_300,300,rng-300,181,rng,num-start-101,101,25726,1002.2848787307739,False,,False,0,True,1000,True,0.0
./expes/v2_2020-12-03_dh_300-prng-1,30_issda_300,300,rng-300,201,rng,num-start-701,701,25726,17.34234929084778,True,,True,1,False,1000,True,1.0
./expes/v2_2020-12-03_dh_300-prng-1,30_issda_300,300,rng-300,71,rng,num-start-211,211,25726,6.490246295928955,True,,True,1,False,1000,True,1.0
./expes/v2_2020-12-03_dh_300-prng-1,30_issda_300,300,rng-300,281,rng,num-start-471,471,25726,10.056940793991089,True,,True,1,False,1000,True,1.0
./expes/v2_2020-12-03_dh_300-prng-1,30_issda_300,300,rng-300,241,rng,num-start-871,871,25726,21.71630024909973,True,,True,1,False,1000,True,1.0
./expes/v2_2020-12-03_dh_300-prng-1,30_issda_300,300,rng-300,81,rng,num-start-321,321,25726,9.051710605621338,True,,True,1,False,1000,True,1.0
./expes/v2_2020-12-03_dh_300-prng-1,30_issda_300,300,rng-300,171,rng,num-start-291,291,25726,9.113106966018677,True,,True,1,False,1000,True,1.0
./expes/v2_2020-12-03_dh_300-prng-1,30_issda_300,300,rng-300,111,rng,num-start-771,771,25726,22.477380752563477,True,,True,1,False,1000,True,1.0
./expes/v2_2020-12-03_dh_300-prng-1,30_issda_300,300,rng-300,161,rng,num-start-631,631,25726,18.857221364974976,True,,True,1,False,1000,True,1.0
./expes/v2_2020-12-03_dh_300-prng-1,30_issda_300,300,rng-300,1,rng,num-start-601,601,25726,11.70067811012268,True,,True,1,False,1000,True,1.0
./expes/v2_2020-12-03_dh_300-prng-1,30_issda_300,300,rng-300,211,rng,num-start-511,511,25726,15.19088339805603,True,,True,1,False,1000,True,1.0
./expes/v2_2020-12-03_dh_300-prng-1,30_issda_300,300,rng-300,131,rng,num-start-351,351,25726,10.625976800918579,True,,True,1,False,1000,True,1.0
./expes/v2_2020-12-03_dh_300-prng-1,30_issda_300,300,rng-300,71,rng,num-start-341,341,25726,10.044185161590576,True,,True,1,False,1000,True,1.0
./expes/v2_2020-12-03_dh_300-prng-1,30_issda_300,300,rng-300,251,rng,num-start-1,1,25726,0.07813906669616699,False,,False,2,False,1000,True,1.0
./expes/v2_2020-12-03_dh_300-prng-1,30_issda_300,300,rng-300,231,rng,num-start-641,641,25726,19.154956340789795,True,,True,1,False,1000,True,1.0
./expes/v2_2020-12-03_dh_300-prng-1,30_issda_300,300,rng-300,221,rng,num-start-511,511,25726,16.426088571548462,True,,True,1,False,1000,True,1.0
./expes/v2_2020-12-03_dh_300-prng-1,30_issda_300,300,rng-300,41,rng,num-start-611,611,25726,16.87236976623535,True,,True,1,False,1000,True,1.0
./expes/v2_2020-12-03_dh_300-prng-1,30_issda_300,300,rng-300,91,rng,num-start-701,701,25726,22.276293516159058,True,,True,1,False,1000,True,1.0
./expes/v2_2020-12-03_dh_300-prng-1,30_issda_300,300,rng-300,81,rng,num-start-521,521,25726,16.38909649848938,True,,True,1,False,1000,True,1.0
./expes/v2_2020-12-03_dh_300-prng-1,30_issda_300,300,rng-300,271,rng,num-start-321,321,25726,8.022868394851685,True,,True,1,False,1000,True,1.0
./expes/v2_2020-12-03_dh_300-prng-1,30_issda_300,300,rng-300,31,rng,num-start-551,551,25726,13.98147177696228,True,,True,1,False,1000,True,1.0
./expes/v2_2020-12-03_dh_300-prng-1,30_issda_300,300,rng-300,141,rng,num-start-941,941,25726,22.789103031158447,True,,True,1,False,1000,True,1.0
./expes/v2_2020-12-03_dh_300-prng-1,30_issda_300,300,rng-300,121,rng,num-start-171,171,25726,5.675812482833862,True,,True,1,False,1000,True,1.0
./expes/v2_2020-12-03_dh_300-prng-1,30_issda_300,300,rng-300,151,rng,num-start-651,651,25726,18.057828664779663,True,,True,1,False,1000,True,1.0
./expes/v2_2020-12-03_dh_300-prng-1,30_issda_300,300,rng-300,221,rng,num-start-21,21,25726,1000.9343738555908,False,,False,0,True,1000,True,0.0
./expes/v2_2020-12-03_dh_300-prng-1,30_issda_300,300,rng-300,161,rng,num-start-31,31,25726,1000.6470596790314,False,,False,0,True,1000,True,0.0
./expes/v2_2020-12-03_dh_300-prng-1,30_issda_300,300,rng-300,21,rng,num-start-721,721,25726,21.14210796356201,True,,True,1,False,1000,True,1.0
./expes/v2_2020-12-03_dh_300-prng-1,30_issda_300,300,rng-300,211,rng,num-start-231,231,25726,7.1558380126953125,True,,True,1,False,1000,True,1.0
./expes/v2_2020-12-03_dh_300-prng-1,30_issda_300,300,rng-300,71,rng,num-start-41,41,25726,1001.1791620254517,False,,False,0,True,1000,True,0.0
./expes/v2_2020-12-03_dh_300-prng-1,30_issda_300,300,rng-300,81,rng,num-start-561,561,25726,18.415051460266113,True,,True,1,False,1000,True,1.0
./expes/v2_2020-12-03_dh_300-prng-1,30_issda_300,300,rng-300,161,rng,num-start-261,261,25726,8.360840320587158,True,,True,1,False,1000,True,1.0
./expes/v2_2020-12-03_dh_300-prng-1,30_issda_300,300,rng-300,241,rng,num-start-611,611,25726,14.50838017463684,True,,True,1,False,1000,True,1.0
./expes/v2_2020-12-03_dh_300-prng-1,30_issda_300,300,rng-300,161,rng,num-start-661,661,25726,20.767746686935425,True,,True,1,False,1000,True,1.0
./expes/v2_2020-12-03_dh_300-prng-1,30_issda_300,300,rng-300,211,rng,num-start-111,111,25726,16.72225856781006,True,,True,1,False,1000,True,1.0
./expes/v2_2020-12-03_dh_300-prng-1,30_issda_300,300,rng-300,21,rng,num-start-371,371,25726,9.10400676727295,True,,True,1,False,1000,True,1.0
./expes/v2_2020-12-03_dh_300-prng-1,30_issda_300,300,rng-300,21,rng,num-start-451,451,25726,12.201719760894775,True,,True,1,False,1000,True,1.0
./expes/v2_2020-12-03_dh_300-prng-1,30_issda_300,300,rng-300,21,rng,num-start-491,491,25726,13.253307819366455,True,,True,1,False,1000,True,1.0
./expes/v2_2020-12-03_dh_300-prng-1,30_issda_300,300,rng-300,281,rng,num-start-231,231,25726,5.696025609970093,True,,True,1,False,1000,True,1.0
./expes/v2_2020-12-03_dh_300-prng-1,30_issda_300,300,rng-300,91,rng,num-start-311,311,25726,7.34079647064209,True,,True,1,False,1000,True,1.0
./expes/v2_2020-12-03_dh_300-prng-1,30_issda_300,300,rng-300,151,rng,num-start-991,991,25726,29.638262510299683,True,,True,1,False,1000,True,1.0
./expes/v2_2020-12-03_dh_300-prng-1,30_issda_300,300,rng-300,1,rng,num-start-941,941,25726,17.94044256210327,True,,True,1,False,1000,True,1.0
./expes/v2_2020-12-03_dh_300-prng-1,30_issda_300,300,rng-300,121,rng,num-start-861,861,25726,24.283440113067627,True,,True,1,False,1000,True,1.0
./expes/v2_2020-12-03_dh_300-prng-1,30_issda_300,300,rng-300,181,rng,num-start-341,341,25726,11.375650405883789,True,,True,1,False,1000,True,1.0
./expes/v2_2020-12-03_dh_300-prng-1,30_issda_300,300,rng-300,121,rng,num-start-571,571,25726,17.16037154197693,True,,True,1,False,1000,True,1.0
./expes/v2_2020-12-03_dh_300-prng-1,30_issda_300,300,rng-300,111,rng,num-start-581,581,25726,19.23730731010437,True,,True,1,False,1000,True,1.0
./expes/v2_2020-12-03_dh_300-prng-1,30_issda_300,300,rng-300,141,rng,num-start-411,411,25726,13.58607816696167,True,,True,1,False,1000,True,1.0
./expes/v2_2020-12-03_dh_300-prng-1,30_issda_300,300,rng-300,71,rng,num-start-811,811,25726,23.804749727249146,True,,True,1,False,1000,True,1.0
./expes/v2_2020-12-03_dh_300-prng-1,30_issda_300,300,rng-300,221,rng,num-start-661,661,25726,16.76262927055359,True,,True,1,False,1000,True,1.0
./expes/v2_2020-12-03_dh_300-prng-1,30_issda_300,300,rng-300,31,rng,num-start-291,291,25726,7.490298748016357,True,,True,1,False,1000,True,1.0
./expes/v2_2020-12-03_dh_300-prng-1,30_issda_300,300,rng-300,111,rng,num-start-361,361,25726,13.133023977279663,True,,True,1,False,1000,True,1.0
./expes/v2_2020-12-03_dh_300-prng-1,30_issda_300,300,rng-300,141,rng,num-start-971,971,25726,27.615100622177124,True,,True,1,False,1000,True,1.0
./expes/v2_2020-12-03_dh_300-prng-1,30_issda_300,300,rng-300,261,rng,num-start-101,101,25726,3.218477725982666,True,,True,1,False,1000,True,1.0
./expes/v2_2020-12-03_dh_300-prng-1,30_issda_300,300,rng-300,151,rng,num-start-191,191,25726,7.329408407211304,True,,True,1,False,1000,True,1.0
./expes/v2_2020-12-03_dh_300-prng-1,30_issda_300,300,rng-300,1,rng,num-start-851,851,25726,20.748159646987915,True,,True,1,False,1000,True,1.0
./expes/v2_2020-12-03_dh_300-prng-1,30_issda_300,300,rng-300,81,rng,num-start-661,661,25726,24.21016240119934,True,,True,1,False,1000,True,1.0
./expes/v2_2020-12-03_dh_300-prng-1,30_issda_300,300,rng-300,11,rng,num-start-341,341,25726,9.379347085952759,True,,True,1,False,1000,True,1.0
./expes/v2_2020-12-03_dh_300-prng-1,30_issda_300,300,rng-300,41,rng,num-start-701,701,25726,19.486883401870728,True,,True,1,False,1000,True,1.0
./expes/v2_2020-12-03_dh_300-prng-1,30_issda_300,300,rng-300,191,rng,num-start-701,701,25726,18.841161489486694,True,,True,1,False,1000,True,1.0
./expes/v2_2020-12-03_dh_300-prng-1,30_issda_300,300,rng-300,211,rng,num-start-431,431,25726,12.844125747680664,True,,True,1,False,1000,True,1.0
./expes/v2_2020-12-03_dh_300-prng-1,30_issda_300,300,rng-300,101,rng,num-start-811,811,25726,21.995647192001343,True,,True,1,False,1000,True,1.0
./expes/v2_2020-12-03_dh_300-prng-1,30_issda_300,300,rng-300,51,rng,num-start-541,541,25726,15.404043436050415,True,,True,1,False,1000,True,1.0
./expes/v2_2020-12-03_dh_300-prng-1,30_issda_300,300,rng-300,81,rng,num-start-201,201,25726,6.532163858413696,True,,True,1,False,1000,True,1.0
./expes/v2_2020-12-03_dh_300-prng-1,30_issda_300,300,rng-300,261,rng,num-start-121,121,25726,3.4845385551452637,True,,True,1,False,1000,True,1.0
./expes/v2_2020-12-03_dh_300-prng-1,30_issda_300,300,rng-300,31,rng,num-start-781,781,25726,22.95469641685486,True,,True,1,False,1000,True,1.0
./expes/v2_2020-12-03_dh_300-prng-1,30_issda_300,300,rng-300,271,rng,num-start-471,471,25726,13.664074420928955,True,,True,1,False,1000,True,1.0
./expes/v2_2020-12-03_dh_300-prng-1,30_issda_300,300,rng-300,201,rng,num-start-981,981,25726,24.984460830688477,True,,True,1,False,1000,True,1.0
./expes/v2_2020-12-03_dh_300-prng-1,30_issda_300,300,rng-300,211,rng,num-start-701,701,25726,17.03011703491211,True,,True,1,False,1000,True,1.0
./expes/v2_2020-12-03_dh_300-prng-1,30_issda_300,300,rng-300,81,rng,num-start-101,101,25726,9.67363452911377,True,,True,1,False,1000,True,1.0
./expes/v2_2020-12-03_dh_300-prng-1,30_issda_300,300,rng-300,81,rng,num-start-31,31,25726,1001.0963637828827,False,,False,0,True,1000,True,0.0
./expes/v2_2020-12-03_dh_300-prng-1,30_issda_300,300,rng-300,171,rng,num-start-441,441,25726,12.76389765739441,True,,True,1,False,1000,True,1.0
./expes/v2_2020-12-03_dh_300-prng-1,30_issda_300,300,rng-300,11,rng,num-start-11,11,25726,609.8101725578308,True,,True,1,False,1000,True,1.0
./expes/v2_2020-12-03_dh_300-prng-1,30_issda_300,300,rng-300,251,rng,num-start-381,381,25726,9.586984872817993,True,,True,1,False,1000,True,1.0
./expes/v2_2020-12-03_dh_300-prng-1,30_issda_300,300,rng-300,81,rng,num-start-921,921,25726,29.08435034751892,True,,True,1,False,1000,True,1.0
./expes/v2_2020-12-03_dh_300-prng-1,30_issda_300,300,rng-300,281,rng,num-start-681,681,25726,15.223280906677246,True,,True,1,False,1000,True,1.0
./expes/v2_2020-12-03_dh_300-prng-1,30_issda_300,300,rng-300,231,rng,num-start-341,341,25726,8.746901512145996,True,,True,1,False,1000,True,1.0
./expes/v2_2020-12-03_dh_300-prng-1,30_issda_300,300,rng-300,61,rng,num-start-71,71,25726,1001.3659691810608,False,,False,0,True,1000,True,0.0
./expes/v2_2020-12-03_dh_300-prng-1,30_issda_300,300,rng-300,211,rng,num-start-681,681,25726,18.63283610343933,True,,True,1,False,1000,True,1.0
./expes/v2_2020-12-03_dh_300-prng-1,30_issda_300,300,rng-300,211,rng,num-start-561,561,25726,16.949257373809814,True,,True,1,False,1000,True,1.0
./expes/v2_2020-12-03_dh_300-prng-1,30_issda_300,300,rng-300,181,rng,num-start-261,261,25726,8.797326803207397,True,,True,1,False,1000,True,1.0
./expes/v2_2020-12-03_dh_300-prng-1,30_issda_300,300,rng-300,111,rng,num-start-121,121,25726,15.662243366241455,True,,True,1,False,1000,True,1.0
./expes/v2_2020-12-03_dh_300-prng-1,30_issda_300,300,rng-300,221,rng,num-start-451,451,25726,13.033458709716797,True,,True,1,False,1000,True,1.0
./expes/v2_2020-12-03_dh_300-prng-1,30_issda_300,300,rng-300,271,rng,num-start-781,781,25726,20.908793926239014,True,,True,1,False,1000,True,1.0
./expes/v2_2020-12-03_dh_300-prng-1,30_issda_300,300,rng-300,71,rng,num-start-641,641,25726,16.376333236694336,True,,True,1,False,1000,True,1.0
./expes/v2_2020-12-03_dh_300-prng-1,30_issda_300,300,rng-300,201,rng,num-start-321,321,25726,8.90817642211914,True,,True,1,False,1000,True,1.0
./expes/v2_2020-12-03_dh_300-prng-1,30_issda_300,300,rng-300,251,rng,num-start-691,691,25726,16.777702808380127,True,,True,1,False,1000,True,1.0
./expes/v2_2020-12-03_dh_300-prng-1,30_issda_300,300,rng-300,221,rng,num-start-271,271,25726,7.75708532333374,True,,True,1,False,1000,True,1.0
./expes/v2_2020-12-03_dh_300-prng-1,30_issda_300,300,rng-300,121,rng,num-start-441,441,25726,14.138006210327148,True,,True,1,False,1000,True,1.0
./expes/v2_2020-12-03_dh_300-prng-1,30_issda_300,300,rng-300,261,rng,num-start-611,611,25726,15.344444036483765,True,,True,1,False,1000,True,1.0
./expes/v2_2020-12-03_dh_300-prng-1,30_issda_300,300,rng-300,1,rng,num-start-121,121,25726,2.2528913021087646,True,,True,1,False,1000,True,1.0
./expes/v2_2020-12-03_dh_300-prng-1,30_issda_300,300,rng-300,111,rng,num-start-121,121,25726,20.377413988113403,True,,True,1,False,1000,True,1.0
./expes/v2_2020-12-03_dh_300-prng-1,30_issda_300,300,rng-300,241,rng,num-start-131,131,25726,3.7020838260650635,True,,True,1,False,1000,True,1.0
./expes/v2_2020-12-03_dh_300-prng-1,30_issda_300,300,rng-300,241,rng,num-start-691,691,25726,17.170669078826904,True,,True,1,False,1000,True,1.0
./expes/v2_2020-12-03_dh_300-prng-1,30_issda_300,300,rng-300,221,rng,num-start-981,981,25726,29.983760118484497,True,,True,1,False,1000,True,1.0
./expes/v2_2020-12-03_dh_300-prng-1,30_issda_300,300,rng-300,151,rng,num-start-891,891,25726,30.943792819976807,True,,True,1,False,1000,True,1.0
./expes/v2_2020-12-03_dh_300-prng-1,30_issda_300,300,rng-300,1,rng,num-start-761,761,25726,14.818121671676636,True,,True,1,False,1000,True,1.0
./expes/v2_2020-12-03_dh_300-prng-1,30_issda_300,300,rng-300,171,rng,num-start-731,731,25726,26.61787462234497,True,,True,1,False,1000,True,1.0
./expes/v2_2020-12-03_dh_300-prng-1,30_issda_300,300,rng-300,191,rng,num-start-111,111,25726,8.949631214141846,True,,True,1,False,1000,True,1.0
./expes/v2_2020-12-03_dh_300-prng-1,30_issda_300,300,rng-300,261,rng,num-start-491,491,25726,14.42564344406128,True,,True,1,False,1000,True,1.0
./expes/v2_2020-12-03_dh_300-prng-1,30_issda_300,300,rng-300,11,rng,num-start-111,111,25726,2.555088758468628,True,,True,1,False,1000,True,1.0
./expes/v2_2020-12-03_dh_300-prng-1,30_issda_300,300,rng-300,111,rng,num-start-221,221,25726,7.770035743713379,True,,True,1,False,1000,True,1.0
./expes/v2_2020-12-03_dh_300-prng-1,30_issda_300,300,rng-300,201,rng,num-start-811,811,25726,24.281729221343994,True,,True,1,False,1000,True,1.0
./expes/v2_2020-12-03_dh_300-prng-1,30_issda_300,300,rng-300,111,rng,num-start-1,1,25726,0.048146724700927734,False,,False,2,False,1000,True,1.0
./expes/v2_2020-12-03_dh_300-prng-1,30_issda_300,300,rng-300,181,rng,num-start-171,171,25726,5.4903223514556885,True,,True,1,False,1000,True,1.0
./expes/v2_2020-12-03_dh_300-prng-1,30_issda_300,300,rng-300,121,rng,num-start-431,431,25726,12.566869735717773,True,,True,1,False,1000,True,1.0
./expes/v2_2020-12-03_dh_300-prng-1,30_issda_300,300,rng-300,51,rng,num-start-321,321,25726,9.458125591278076,True,,True,1,False,1000,True,1.0
./expes/v2_2020-12-03_dh_300-prng-1,30_issda_300,300,rng-300,221,rng,num-start-751,751,25726,20.012028455734253,True,,True,1,False,1000,True,1.0
./expes/v2_2020-12-03_dh_300-prng-1,30_issda_300,300,rng-300,101,rng,num-start-461,461,25726,14.393832683563232,True,,True,1,False,1000,True,1.0
./expes/v2_2020-12-03_dh_300-prng-1,30_issda_300,300,rng-300,281,rng,num-start-141,141,25726,3.437091112136841,True,,True,1,False,1000,True,1.0
./expes/v2_2020-12-03_dh_300-prng-1,30_issda_300,300,rng-300,251,rng,num-start-421,421,25726,11.048465967178345,True,,True,1,False,1000,True,1.0
./expes/v2_2020-12-03_dh_300-prng-1,30_issda_300,300,rng-300,141,rng,num-start-291,291,25726,7.937751054763794,True,,True,1,False,1000,True,1.0
./expes/v2_2020-12-03_dh_300-prng-1,30_issda_300,300,rng-300,251,rng,num-start-881,881,25726,26.037392139434814,True,,True,1,False,1000,True,1.0
./expes/v2_2020-12-03_dh_300-prng-1,30_issda_300,300,rng-300,71,rng,num-start-551,551,25726,14.509742259979248,True,,True,1,False,1000,True,1.0
./expes/v2_2020-12-03_dh_300-prng-1,30_issda_300,300,rng-300,11,rng,num-start-871,871,25726,18.897870540618896,True,,True,1,False,1000,True,1.0
./expes/v2_2020-12-03_dh_300-prng-1,30_issda_300,300,rng-300,221,rng,num-start-481,481,25726,13.822429656982422,True,,True,1,False,1000,True,1.0
./expes/v2_2020-12-03_dh_300-prng-1,30_issda_300,300,rng-300,61,rng,num-start-241,241,25726,7.409530162811279,True,,True,1,False,1000,True,1.0
./expes/v2_2020-12-03_dh_300-prng-1,30_issda_300,300,rng-300,71,rng,num-start-21,21,25726,1000.4930310249329,False,,False,0,True,1000,True,0.0
./expes/v2_2020-12-03_dh_300-prng-1,30_issda_300,300,rng-300,11,rng,num-start-801,801,25726,20.86257266998291,True,,True,1,False,1000,True,1.0
./expes/v2_2020-12-03_dh_300-prng-1,30_issda_300,300,rng-300,261,rng,num-start-41,41,25726,1002.0164158344269,False,,False,0,True,1000,True,0.0
./expes/v2_2020-12-03_dh_300-prng-1,30_issda_300,300,rng-300,251,rng,num-start-301,301,25726,7.413704872131348,True,,True,1,False,1000,True,1.0
./expes/v2_2020-12-03_dh_300-prng-1,30_issda_300,300,rng-300,171,rng,num-start-211,211,25726,6.083775758743286,True,,True,1,False,1000,True,1.0
./expes/v2_2020-12-03_dh_300-prng-1,30_issda_300,300,rng-300,191,rng,num-start-931,931,25726,24.756163835525513,True,,True,1,False,1000,True,1.0
./expes/v2_2020-12-03_dh_300-prng-1,30_issda_300,300,rng-300,31,rng,num-start-351,351,25726,9.2319917678833,True,,True,1,False,1000,True,1.0
./expes/v2_2020-12-03_dh_300-prng-1,30_issda_300,300,rng-300,231,rng,num-start-571,571,25726,18.423965454101562,True,,True,1,False,1000,True,1.0
./expes/v2_2020-12-03_dh_300-prng-1,30_issda_300,300,rng-300,31,rng,num-start-541,541,25726,13.84168553352356,True,,True,1,False,1000,True,1.0
./expes/v2_2020-12-03_dh_300-prng-1,30_issda_300,300,rng-300,51,rng,num-start-761,761,25726,20.30603790283203,True,,True,1,False,1000,True,1.0
./expes/v2_2020-12-03_dh_300-prng-1,30_issda_300,300,rng-300,11,rng,num-start-461,461,25726,9.880265951156616,True,,True,1,False,1000,True,1.0
./expes/v2_2020-12-03_dh_300-prng-1,30_issda_300,300,rng-300,181,rng,num-start-501,501,25726,16.22731113433838,True,,True,1,False,1000,True,1.0
./expes/v2_2020-12-03_dh_300-prng-1,30_issda_300,300,rng-300,131,rng,num-start-511,511,25726,18.439425230026245,True,,True,1,False,1000,True,1.0
./expes/v2_2020-12-03_dh_300-prng-1,30_issda_300,300,rng-300,281,rng,num-start-551,551,25726,13.035950660705566,True,,True,1,False,1000,True,1.0
./expes/v2_2020-12-03_dh_300-prng-1,30_issda_300,300,rng-300,61,rng,num-start-731,731,25726,17.724757432937622,True,,True,1,False,1000,True,1.0
./expes/v2_2020-12-03_dh_300-prng-1,30_issda_300,300,rng-300,1,rng,num-start-171,171,25726,3.3724284172058105,True,,True,1,False,1000,True,1.0
./expes/v2_2020-12-03_dh_300-prng-1,30_issda_300,300,rng-300,141,rng,num-start-771,771,25726,25.004629850387573,True,,True,1,False,1000,True,1.0
./expes/v2_2020-12-03_dh_300-prng-1,30_issda_300,300,rng-300,81,rng,num-start-531,531,25726,17.748629093170166,True,,True,1,False,1000,True,1.0
./expes/v2_2020-12-03_dh_300-prng-1,30_issda_300,300,rng-300,121,rng,num-start-771,771,25726,19.63021445274353,False,,False,2,False,1000,True,1.0
./expes/v2_2020-12-03_dh_300-prng-1,30_issda_300,300,rng-300,211,rng,num-start-421,421,25726,12.251848697662354,True,,True,1,False,1000,True,1.0
./expes/v2_2020-12-03_dh_300-prng-1,30_issda_300,300,rng-300,91,rng,num-start-751,751,25726,22.921159029006958,True,,True,1,False,1000,True,1.0
./expes/v2_2020-12-03_dh_300-prng-1,30_issda_300,300,rng-300,1,rng,num-start-671,671,25726,13.44841194152832,True,,True,1,False,1000,True,1.0
./expes/v2_2020-12-03_dh_300-prng-1,30_issda_300,300,rng-300,251,rng,num-start-211,211,25726,5.839052438735962,True,,True,1,False,1000,True,1.0
./expes/v2_2020-12-03_dh_300-prng-1,30_issda_300,300,rng-300,1,rng,num-start-931,931,25726,18.551604509353638,True,,True,1,False,1000,True,1.0
./expes/v2_2020-12-03_dh_300-prng-1,30_issda_300,300,rng-300,231,rng,num-start-71,71,25726,114.11376786231995,True,,True,1,False,1000,True,1.0
./expes/v2_2020-12-03_dh_300-prng-1,30_issda_300,300,rng-300,171,rng,num-start-911,911,25726,22.62290358543396,True,,True,1,False,1000,True,1.0
./expes/v2_2020-12-03_dh_300-prng-1,30_issda_300,300,rng-300,251,rng,num-start-561,561,25726,15.322580099105835,True,,True,1,False,1000,True,1.0
./expes/v2_2020-12-03_dh_300-prng-1,30_issda_300,300,rng-300,191,rng,num-start-521,521,25726,17.94169855117798,True,,True,1,False,1000,True,1.0
./expes/v2_2020-12-03_dh_300-prng-1,30_issda_300,300,rng-300,61,rng,num-start-181,181,25726,4.526577472686768,True,,True,1,False,1000,True,1.0
./expes/v2_2020-12-03_dh_300-prng-1,30_issda_300,300,rng-300,111,rng,num-start-141,141,25726,6.877578496932983,True,,True,1,False,1000,True,1.0
./expes/v2_2020-12-03_dh_300-prng-1,30_issda_300,300,rng-300,151,rng,num-start-911,911,25726,26.199409246444702,True,,True,1,False,1000,True,1.0
./expes/v2_2020-12-03_dh_300-prng-1,30_issda_300,300,rng-300,221,rng,num-start-891,891,25726,21.327447414398193,True,,True,1,False,1000,True,1.0
./expes/v2_2020-12-03_dh_300-prng-1,30_issda_300,300,rng-300,221,rng,num-start-141,141,25726,3.8302767276763916,True,,True,1,False,1000,True,1.0
./expes/v2_2020-12-03_dh_300-prng-1,30_issda_300,300,rng-300,261,rng,num-start-641,641,25726,23.335869789123535,True,,True,1,False,1000,True,1.0
./expes/v2_2020-12-03_dh_300-prng-1,30_issda_300,300,rng-300,271,rng,num-start-711,711,25726,19.12518882751465,True,,True,1,False,1000,True,1.0
./expes/v2_2020-12-03_dh_300-prng-1,30_issda_300,300,rng-300,131,rng,num-start-51,51,25726,1001.2607626914978,False,,False,0,True,1000,True,0.0
./expes/v2_2020-12-03_dh_300-prng-1,30_issda_300,300,rng-300,71,rng,num-start-901,901,25726,27.413297653198242,True,,True,1,False,1000,True,1.0
./expes/v2_2020-12-03_dh_300-prng-1,30_issda_300,300,rng-300,11,rng,num-start-591,591,25726,13.930034637451172,True,,True,1,False,1000,True,1.0
./expes/v2_2020-12-03_dh_300-prng-1,30_issda_300,300,rng-300,231,rng,num-start-681,681,25726,18.405924320220947,True,,True,1,False,1000,True,1.0
./expes/v2_2020-12-03_dh_300-prng-1,30_issda_300,300,rng-300,261,rng,num-start-811,811,25726,18.808310508728027,True,,True,1,False,1000,True,1.0
./expes/v2_2020-12-03_dh_300-prng-1,30_issda_300,300,rng-300,81,rng,num-start-491,491,25726,13.6182222366333,True,,True,1,False,1000,True,1.0
./expes/v2_2020-12-03_dh_300-prng-1,30_issda_300,300,rng-300,281,rng,num-start-241,241,25726,7.30207085609436,True,,True,1,False,1000,True,1.0
./expes/v2_2020-12-03_dh_300-prng-1,30_issda_300,300,rng-300,241,rng,num-start-981,981,25726,25.61149549484253,True,,True,1,False,1000,True,1.0
./expes/v2_2020-12-03_dh_300-prng-1,30_issda_300,300,rng-300,101,rng,num-start-271,271,25726,8.567125082015991,True,,True,1,False,1000,True,1.0
./expes/v2_2020-12-03_dh_300-prng-1,30_issda_300,300,rng-300,31,rng,num-start-381,381,25726,11.301536321640015,True,,True,1,False,1000,True,1.0
./expes/v2_2020-12-03_dh_300-prng-1,30_issda_300,300,rng-300,201,rng,num-start-751,751,25726,24.38088059425354,True,,True,1,False,1000,True,1.0
./expes/v2_2020-12-03_dh_300-prng-1,30_issda_300,300,rng-300,111,rng,num-start-821,821,25726,22.318536520004272,True,,True,1,False,1000,True,1.0
./expes/v2_2020-12-03_dh_300-prng-1,30_issda_300,300,rng-300,131,rng,num-start-551,551,25726,17.53835415840149,True,,True,1,False,1000,True,1.0
./expes/v2_2020-12-03_dh_300-prng-1,30_issda_300,300,rng-300,91,rng,num-start-711,711,25726,15.91321611404419,True,,True,1,False,1000,True,1.0
./expes/v2_2020-12-03_dh_300-prng-1,30_issda_300,300,rng-300,291,rng,num-start-771,771,25726,15.692102670669556,True,,True,1,False,1000,True,1.0
./expes/v2_2020-12-03_dh_300-prng-1,30_issda_300,300,rng-300,261,rng,num-start-881,881,25726,21.817631483078003,True,,True,1,False,1000,True,1.0
./expes/v2_2020-12-03_dh_300-prng-1,30_issda_300,300,rng-300,81,rng,num-start-61,61,25726,1001.3096594810486,False,,False,0,True,1000,True,0.0
./expes/v2_2020-12-03_dh_300-prng-1,30_issda_300,300,rng-300,161,rng,num-start-331,331,25726,8.985228538513184,True,,True,1,False,1000,True,1.0
./expes/v2_2020-12-03_dh_300-prng-1,30_issda_300,300,rng-300,151,rng,num-start-101,101,25726,1002.0377476215363,False,,False,0,True,1000,True,0.0
./expes/v2_2020-12-03_dh_300-prng-1,30_issda_300,300,rng-300,161,rng,num-start-41,41,25726,1001.4464521408081,False,,False,0,True,1000,True,0.0
./expes/v2_2020-12-03_dh_300-prng-1,30_issda_300,300,rng-300,71,rng,num-start-211,211,25726,6.358093738555908,True,,True,1,False,1000,True,1.0
./expes/v2_2020-12-03_dh_300-prng-1,30_issda_300,300,rng-300,101,rng,num-start-351,351,25726,9.698501825332642,True,,True,1,False,1000,True,1.0
./expes/v2_2020-12-03_dh_300-prng-1,30_issda_300,300,rng-300,291,rng,num-start-101,101,25726,1.9371862411499023,True,,True,1,False,1000,True,1.0
./expes/v2_2020-12-03_dh_300-prng-1,30_issda_300,300,rng-300,151,rng,num-start-411,411,25726,11.039017915725708,True,,True,1,False,1000,True,1.0
./expes/v2_2020-12-03_dh_300-prng-1,30_issda_300,300,rng-300,291,rng,num-start-401,401,25726,8.522974491119385,True,,True,1,False,1000,True,1.0
./expes/v2_2020-12-03_dh_300-prng-1,30_issda_300,300,rng-300,171,rng,num-start-581,581,25726,15.889512300491333,True,,True,1,False,1000,True,1.0
./expes/v2_2020-12-03_dh_300-prng-1,30_issda_300,300,rng-300,11,rng,num-start-561,561,25726,15.884539604187012,True,,True,1,False,1000,True,1.0
./expes/v2_2020-12-03_dh_300-prng-1,30_issda_300,300,rng-300,251,rng,num-start-981,981,25726,21.933675050735474,True,,True,1,False,1000,True,1.0
./expes/v2_2020-12-03_dh_300-prng-1,30_issda_300,300,rng-300,291,rng,num-start-591,591,25726,11.521641254425049,True,,True,1,False,1000,True,1.0
./expes/v2_2020-12-03_dh_300-prng-1,30_issda_300,300,rng-300,201,rng,num-start-841,841,25726,23.949223041534424,True,,True,1,False,1000,True,1.0
./expes/v2_2020-12-03_dh_300-prng-1,30_issda_300,300,rng-300,141,rng,num-start-191,191,25726,6.148966312408447,True,,True,1,False,1000,True,1.0
./expes/v2_2020-12-03_dh_300-prng-1,30_issda_300,300,rng-300,171,rng,num-start-31,31,25726,1000.6496667861938,False,,False,0,True,1000,True,0.0
./expes/v2_2020-12-03_dh_300-prng-1,30_issda_300,300,rng-300,111,rng,num-start-811,811,25726,23.92611575126648,True,,True,1,False,1000,True,1.0
./expes/v2_2020-12-03_dh_300-prng-1,30_issda_300,300,rng-300,201,rng,num-start-21,21,25726,1000.7368087768555,False,,False,0,True,1000,True,0.0
./expes/v2_2020-12-03_dh_300-prng-1,30_issda_300,300,rng-300,291,rng,num-start-891,891,25726,18.16728687286377,True,,True,1,False,1000,True,1.0
./expes/v2_2020-12-03_dh_300-prng-1,30_issda_300,300,rng-300,141,rng,num-start-571,571,25726,17.172784566879272,True,,True,1,False,1000,True,1.0
./expes/v2_2020-12-03_dh_300-prng-1,30_issda_300,300,rng-300,111,rng,num-start-71,71,25726,1001.2935228347778,False,,False,0,True,1000,True,0.0
./expes/v2_2020-12-03_dh_300-prng-1,30_issda_300,300,rng-300,241,rng,num-start-711,711,25726,20.564815521240234,True,,True,1,False,1000,True,1.0
./expes/v2_2020-12-03_dh_300-prng-1,30_issda_300,300,rng-300,121,rng,num-start-981,981,25726,26.67959761619568,True,,True,1,False,1000,True,1.0
./expes/v2_2020-12-03_dh_300-prng-1,30_issda_300,300,rng-300,31,rng,num-start-841,841,25726,18.428170204162598,True,,True,1,False,1000,True,1.0
./expes/v2_2020-12-03_dh_300-prng-1,30_issda_300,300,rng-300,241,rng,num-start-631,631,25726,15.9292471408844,True,,True,1,False,1000,True,1.0
./expes/v2_2020-12-03_dh_300-prng-1,30_issda_300,300,rng-300,41,rng,num-start-121,121,25726,2.9890828132629395,True,,True,1,False,1000,True,1.0
./expes/v2_2020-12-03_dh_300-prng-1,30_issda_300,300,rng-300,101,rng,num-start-781,781,25726,22.07179594039917,True,,True,1,False,1000,True,1.0
./expes/v2_2020-12-03_dh_300-prng-1,30_issda_300,300,rng-300,151,rng,num-start-281,281,25726,9.24436902999878,True,,True,1,False,1000,True,1.0
./expes/v2_2020-12-03_dh_300-prng-1,30_issda_300,300,rng-300,161,rng,num-start-291,291,25726,9.66039490699768,True,,True,1,False,1000,True,1.0
./expes/v2_2020-12-03_dh_300-prng-1,30_issda_300,300,rng-300,191,rng,num-start-371,371,25726,10.81356930732727,True,,True,1,False,1000,True,1.0
./expes/v2_2020-12-03_dh_300-prng-1,30_issda_300,300,rng-300,161,rng,num-start-71,71,25726,1001.6321978569031,False,,False,0,True,1000,True,0.0
./expes/v2_2020-12-03_dh_300-prng-1,30_issda_300,300,rng-300,71,rng,num-start-91,91,25726,1002.0418376922607,False,,False,0,True,1000,True,0.0
./expes/v2_2020-12-03_dh_300-prng-1,30_issda_300,300,rng-300,291,rng,num-start-891,891,25726,17.17607545852661,True,,True,1,False,1000,True,1.0
./expes/v2_2020-12-03_dh_300-prng-1,30_issda_300,300,rng-300,1,rng,num-start-801,801,25726,15.236303091049194,True,,True,1,False,1000,True,1.0
./expes/v2_2020-12-03_dh_300-prng-1,30_issda_300,300,rng-300,1,rng,num-start-101,101,25726,1.8802416324615479,True,,True,1,False,1000,True,1.0
./expes/v2_2020-12-03_dh_300-prng-1,30_issda_300,300,rng-300,271,rng,num-start-31,31,25726,1000.7995946407318,False,,False,0,True,1000,True,0.0
./expes/v2_2020-12-03_dh_300-prng-1,30_issda_300,300,rng-300,21,rng,num-start-771,771,25726,20.486505270004272,True,,True,1,False,1000,True,1.0
./expes/v2_2020-12-03_dh_300-prng-1,30_issda_300,300,rng-300,51,rng,num-start-401,401,25726,11.09642505645752,True,,True,1,False,1000,True,1.0
./expes/v2_2020-12-03_dh_300-prng-1,30_issda_300,300,rng-300,41,rng,num-start-231,231,25726,6.881263256072998,True,,True,1,False,1000,True,1.0
./expes/v2_2020-12-03_dh_300-prng-1,30_issda_300,300,rng-300,191,rng,num-start-581,581,25726,17.976693391799927,True,,True,1,False,1000,True,1.0
./expes/v2_2020-12-03_dh_300-prng-1,30_issda_300,300,rng-300,221,rng,num-start-661,661,25726,18.100640773773193,True,,True,1,False,1000,True,1.0
./expes/v2_2020-12-03_dh_300-prng-1,30_issda_300,300,rng-300,241,rng,num-start-111,111,25726,6.388406038284302,True,,True,1,False,1000,True,1.0
./expes/v2_2020-12-03_dh_300-prng-1,30_issda_300,300,rng-300,41,rng,num-start-211,211,25726,5.544337272644043,True,,True,1,False,1000,True,1.0
./expes/v2_2020-12-03_dh_300-prng-1,30_issda_300,300,rng-300,201,rng,num-start-911,911,25726,22.542418956756592,True,,True,1,False,1000,True,1.0
./expes/v2_2020-12-03_dh_300-prng-1,30_issda_300,300,rng-300,101,rng,num-start-991,991,25726,32.955873012542725,True,,False,2,False,1000,True,1.0
./expes/v2_2020-12-03_dh_300-prng-1,30_issda_300,300,rng-300,71,rng,num-start-331,331,25726,10.84446120262146,True,,True,1,False,1000,True,1.0
./expes/v2_2020-12-03_dh_300-prng-1,30_issda_300,300,rng-300,41,rng,num-start-741,741,25726,19.123104095458984,True,,True,1,False,1000,True,1.0
./expes/v2_2020-12-03_dh_300-prng-1,30_issda_300,300,rng-300,281,rng,num-start-941,941,25726,25.719852209091187,True,,True,1,False,1000,True,1.0
./expes/v2_2020-12-03_dh_300-prng-1,30_issda_300,300,rng-300,291,rng,num-start-1,1,25726,0.054993391036987305,False,,False,2,False,1000,True,1.0
./expes/v2_2020-12-03_dh_300-prng-1,30_issda_300,300,rng-300,51,rng,num-start-651,651,25726,18.62787437438965,True,,True,1,False,1000,True,1.0
./expes/v2_2020-12-03_dh_300-prng-1,30_issda_300,300,rng-300,181,rng,num-start-461,461,25726,14.384892463684082,True,,True,1,False,1000,True,1.0
./expes/v2_2020-12-03_dh_300-prng-1,30_issda_300,300,rng-300,51,rng,num-start-611,611,25726,16.157580614089966,True,,True,1,False,1000,True,1.0
./expes/v2_2020-12-03_dh_300-prng-1,30_issda_300,300,rng-300,211,rng,num-start-1,1,25726,0.06588172912597656,False,,False,2,False,1000,True,1.0
./expes/v2_2020-12-03_dh_300-prng-1,30_issda_300,300,rng-300,51,rng,num-start-781,781,25726,21.758811235427856,True,,True,1,False,1000,True,1.0
./expes/v2_2020-12-03_dh_300-prng-1,30_issda_300,300,rng-300,191,rng,num-start-691,691,25726,19.45871901512146,True,,True,1,False,1000,True,1.0
./expes/v2_2020-12-03_dh_300-prng-1,30_issda_300,300,rng-300,41,rng,num-start-871,871,25726,23.738408088684082,True,,True,1,False,1000,True,1.0
./expes/v2_2020-12-03_dh_300-prng-1,30_issda_300,300,rng-300,111,rng,num-start-291,291,25726,9.126988410949707,True,,True,1,False,1000,True,1.0
./expes/v2_2020-12-03_dh_300-prng-1,30_issda_300,300,rng-300,231,rng,num-start-681,681,25726,20.98570442199707,True,,True,1,False,1000,True,1.0
./expes/v2_2020-12-03_dh_300-prng-1,30_issda_300,300,rng-300,51,rng,num-start-641,641,25726,22.468077898025513,True,,True,1,False,1000,True,1.0
./expes/v2_2020-12-03_dh_300-prng-1,30_issda_300,300,rng-300,11,rng,num-start-81,81,25726,2.4494261741638184,True,,True,1,False,1000,True,1.0
./expes/v2_2020-12-03_dh_300-prng-1,30_issda_300,300,rng-300,221,rng,num-start-391,391,25726,15.84691572189331,True,,True,1,False,1000,True,1.0
./expes/v2_2020-12-03_dh_300-prng-1,30_issda_300,300,rng-300,231,rng,num-start-421,421,25726,50.353033781051636,True,,True,1,False,1000,True,1.0
./expes/v2_2020-12-03_dh_300-prng-1,30_issda_300,300,rng-300,261,rng,num-start-81,81,25726,6.211298942565918,True,,True,1,False,1000,True,1.0
./expes/v2_2020-12-03_dh_300-prng-1,30_issda_300,300,rng-300,121,rng,num-start-291,291,25726,12.983513355255127,True,,True,1,False,1000,True,1.0
./expes/v2_2020-12-03_dh_300-prng-1,30_issda_300,300,rng-300,91,rng,num-start-201,201,25726,8.062427759170532,True,,True,1,False,1000,True,1.0
./expes/v2_2020-12-03_dh_300-prng-1,30_issda_300,300,rng-300,71,rng,num-start-11,11,25726,1002.3243734836578,False,,False,0,True,1000,True,0.0
./expes/v2_2020-12-03_dh_300-prng-1,30_issda_300,300,rng-300,151,rng,num-start-751,751,25726,21.427369832992554,True,,True,1,False,1000,True,1.0
./expes/v2_2020-12-03_dh_300-prng-1,30_issda_300,300,rng-300,131,rng,num-start-501,501,25726,16.11562967300415,True,,True,1,False,1000,True,1.0
./expes/v2_2020-12-03_dh_300-prng-1,30_issda_300,300,rng-300,231,rng,num-start-781,781,25726,22.645362615585327,True,,True,1,False,1000,True,1.0
./expes/v2_2020-12-03_dh_300-prng-1,30_issda_300,300,rng-300,51,rng,num-start-301,301,25726,8.777306318283081,True,,True,1,False,1000,True,1.0
./expes/v2_2020-12-03_dh_300-prng-1,30_issda_300,300,rng-300,61,rng,num-start-21,21,25726,1008.4159369468689,False,,False,0,True,1000,True,0.0
./expes/v2_2020-12-03_dh_300-prng-1,30_issda_300,300,rng-300,191,rng,num-start-451,451,25726,15.024522304534912,True,,True,1,False,1000,True,1.0
./expes/v2_2020-12-03_dh_300-prng-1,30_issda_300,300,rng-300,181,rng,num-start-61,61,25726,1001.3053493499756,False,,False,0,True,1000,True,0.0
./expes/v2_2020-12-03_dh_300-prng-1,30_issda_300,300,rng-300,241,rng,num-start-591,591,25726,13.80264925956726,True,,True,1,False,1000,True,1.0
./expes/v2_2020-12-03_dh_300-prng-1,30_issda_300,300,rng-300,171,rng,num-start-861,861,25726,25.076565742492676,True,,True,1,False,1000,True,1.0
./expes/v2_2020-12-03_dh_300-prng-1,30_issda_300,300,rng-300,151,rng,num-start-361,361,25726,11.597001314163208,True,,True,1,False,1000,True,1.0
./expes/v2_2020-12-03_dh_300-prng-1,30_issda_300,300,rng-300,241,rng,num-start-311,311,25726,8.503340482711792,True,,True,1,False,1000,True,1.0
./expes/v2_2020-12-03_dh_300-prng-1,30_issda_300,300,rng-300,11,rng,num-start-221,221,25726,5.519938707351685,True,,True,1,False,1000,True,1.0
./expes/v2_2020-12-03_dh_300-prng-1,30_issda_300,300,rng-300,211,rng,num-start-681,681,25726,18.152100801467896,True,,True,1,False,1000,True,1.0
./expes/v2_2020-12-03_dh_300-prng-1,30_issda_300,300,rng-300,21,rng,num-start-191,191,25726,5.189679384231567,True,,True,1,False,1000,True,1.0
./expes/v2_2020-12-03_dh_300-prng-1,30_issda_300,300,rng-300,271,rng,num-start-381,381,25726,9.188181638717651,True,,True,1,False,1000,True,1.0
./expes/v2_2020-12-03_dh_300-prng-1,30_issda_300,300,rng-300,61,rng,num-start-541,541,25726,14.648021936416626,True,,True,1,False,1000,True,1.0
./expes/v2_2020-12-03_dh_300-prng-1,30_issda_300,300,rng-300,121,rng,num-start-151,151,25726,4.494997024536133,True,,True,1,False,1000,True,1.0
./expes/v2_2020-12-03_dh_300-prng-1,30_issda_300,300,rng-300,151,rng,num-start-201,201,25726,5.984747409820557,True,,True,1,False,1000,True,1.0
./expes/v2_2020-12-03_dh_300-prng-1,30_issda_300,300,rng-300,121,rng,num-start-661,661,25726,22.17592763900757,True,,True,1,False,1000,True,1.0
./expes/v2_2020-12-03_dh_300-prng-1,30_issda_300,300,rng-300,161,rng,num-start-21,21,25726,1000.7867584228516,False,,False,0,True,1000,True,0.0
./expes/v2_2020-12-03_dh_300-prng-1,30_issda_300,300,rng-300,261,rng,num-start-971,971,25726,26.797734260559082,True,,True,1,False,1000,True,1.0
./expes/v2_2020-12-03_dh_300-prng-1,30_issda_300,300,rng-300,21,rng,num-start-481,481,25726,18.127161741256714,True,,True,1,False,1000,True,1.0
./expes/v2_2020-12-03_dh_300-prng-1,30_issda_300,300,rng-300,31,rng,num-start-971,971,25726,24.85713267326355,True,,True,1,False,1000,True,1.0
./expes/v2_2020-12-03_dh_300-prng-1,30_issda_300,300,rng-300,11,rng,num-start-721,721,25726,15.944284200668335,True,,True,1,False,1000,True,1.0
./expes/v2_2020-12-03_dh_300-prng-1,30_issda_300,300,rng-300,1,rng,num-start-921,921,25726,18.733229160308838,True,,True,1,False,1000,True,1.0
./expes/v2_2020-12-03_dh_300-prng-1,30_issda_300,300,rng-300,251,rng,num-start-461,461,25726,11.61265230178833,True,,True,1,False,1000,True,1.0
./expes/v2_2020-12-03_dh_300-prng-1,30_issda_300,300,rng-300,111,rng,num-start-831,831,25726,24.68932604789734,True,,True,1,False,1000,True,1.0
./expes/v2_2020-12-03_dh_300-prng-1,30_issda_300,300,rng-300,171,rng,num-start-251,251,25726,8.273215770721436,True,,True,1,False,1000,True,1.0
./expes/v2_2020-12-03_dh_300-prng-1,30_issda_300,300,rng-300,111,rng,num-start-31,31,25726,1000.7424418926239,False,,False,0,True,1000,True,0.0
./expes/v2_2020-12-03_dh_300-prng-1,30_issda_300,300,rng-300,201,rng,num-start-381,381,25726,11.312071800231934,True,,True,1,False,1000,True,1.0
./expes/v2_2020-12-03_dh_300-prng-1,30_issda_300,300,rng-300,231,rng,num-start-171,171,25726,4.823574781417847,True,,True,1,False,1000,True,1.0
./expes/v2_2020-12-03_dh_300-prng-1,30_issda_300,300,rng-300,31,rng,num-start-41,41,25726,1000.8585605621338,False,,False,0,True,1000,True,0.0
./expes/v2_2020-12-03_dh_300-prng-1,30_issda_300,300,rng-300,1,rng,num-start-601,601,25726,11.029384136199951,True,,True,1,False,1000,True,1.0
./expes/v2_2020-12-03_dh_300-prng-1,30_issda_300,300,rng-300,211,rng,num-start-511,511,25726,15.074055433273315,True,,True,1,False,1000,True,1.0
./expes/v2_2020-12-03_dh_300-prng-1,30_issda_300,300,rng-300,171,rng,num-start-391,391,25726,13.117858171463013,True,,True,1,False,1000,True,1.0
./expes/v2_2020-12-03_dh_300-prng-1,30_issda_300,300,rng-300,31,rng,num-start-321,321,25726,7.931058406829834,True,,True,1,False,1000,True,1.0
./expes/v2_2020-12-03_dh_300-prng-1,30_issda_300,300,rng-300,21,rng,num-start-511,511,25726,13.352305889129639,True,,True,1,False,1000,True,1.0
./expes/v2_2020-12-03_dh_300-prng-1,30_issda_300,300,rng-300,81,rng,num-start-101,101,25726,6.823010683059692,True,,True,1,False,1000,True,1.0
./expes/v2_2020-12-03_dh_300-prng-1,30_issda_300,300,rng-300,101,rng,num-start-231,231,25726,6.821654319763184,True,,True,1,False,1000,True,1.0
./expes/v2_2020-12-03_dh_300-prng-1,30_issda_300,300,rng-300,281,rng,num-start-941,941,25726,23.73054599761963,True,,True,1,False,1000,True,1.0
./expes/v2_2020-12-03_dh_300-prng-1,30_issda_300,300,rng-300,191,rng,num-start-741,741,25726,19.90723443031311,True,,True,1,False,1000,True,1.0
./expes/v2_2020-12-03_dh_300-prng-1,30_issda_300,300,rng-300,61,rng,num-start-421,421,25726,11.139413595199585,True,,True,1,False,1000,True,1.0
./expes/v2_2020-12-03_dh_300-prng-1,30_issda_300,300,rng-300,21,rng,num-start-231,231,25726,5.323237657546997,True,,True,1,False,1000,True,1.0
./expes/v2_2020-12-03_dh_300-prng-1,30_issda_300,300,rng-300,91,rng,num-start-511,511,25726,13.232360601425171,True,,True,1,False,1000,True,1.0
./expes/v2_2020-12-03_dh_300-prng-1,30_issda_300,300,rng-300,191,rng,num-start-71,71,25726,1001.6517493724823,False,,False,0,True,1000,True,0.0
./expes/v2_2020-12-03_dh_300-prng-1,30_issda_300,300,rng-300,101,rng,num-start-701,701,25726,22.58365821838379,True,,True,1,False,1000,True,1.0
./expes/v2_2020-12-03_dh_300-prng-1,30_issda_300,300,rng-300,241,rng,num-start-361,361,25726,9.652099370956421,True,,True,1,False,1000,True,1.0
./expes/v2_2020-12-03_dh_300-prng-1,30_issda_300,300,rng-300,71,rng,num-start-261,261,25726,7.068058013916016,True,,True,1,False,1000,True,1.0
./expes/v2_2020-12-03_dh_300-prng-1,30_issda_300,300,rng-300,181,rng,num-start-731,731,25726,20.016108989715576,True,,True,1,False,1000,True,1.0
./expes/v2_2020-12-03_dh_300-prng-1,30_issda_300,300,rng-300,221,rng,num-start-81,81,25726,1001.6846809387207,False,,False,1,True,1000,True,0.0
./expes/v2_2020-12-03_dh_300-prng-1,30_issda_300,300,rng-300,11,rng,num-start-611,611,25726,14.245243787765503,True,,True,1,False,1000,True,1.0
./expes/v2_2020-12-03_dh_300-prng-1,30_issda_300,300,rng-300,221,rng,num-start-741,741,25726,21.28237748146057,True,,True,1,False,1000,True,1.0
./expes/v2_2020-12-03_dh_300-prng-1,30_issda_300,300,rng-300,261,rng,num-start-171,171,25726,4.740849018096924,True,,True,1,False,1000,True,1.0
./expes/v2_2020-12-03_dh_300-prng-1,30_issda_300,300,rng-300,241,rng,num-start-801,801,25726,19.650086641311646,True,,True,1,False,1000,True,1.0
./expes/v2_2020-12-03_dh_300-prng-1,30_issda_300,300,rng-300,141,rng,num-start-781,781,25726,22.286067724227905,True,,True,1,False,1000,True,1.0
./expes/v2_2020-12-03_dh_300-prng-1,30_issda_300,300,rng-300,11,rng,num-start-511,511,25726,12.189717531204224,True,,True,1,False,1000,True,1.0
./expes/v2_2020-12-03_dh_300-prng-1,30_issda_300,300,rng-300,111,rng,num-start-851,851,25726,22.846349716186523,True,,True,1,False,1000,True,1.0
./expes/v2_2020-12-03_dh_300-prng-1,30_issda_300,300,rng-300,121,rng,num-start-351,351,25726,9.265229225158691,True,,True,1,False,1000,True,1.0
./expes/v2_2020-12-03_dh_300-prng-1,30_issda_300,300,rng-300,101,rng,num-start-721,721,25726,18.694525718688965,True,,True,1,False,1000,True,1.0
./expes/v2_2020-12-03_dh_300-prng-1,30_issda_300,300,rng-300,21,rng,num-start-651,651,25726,15.572997093200684,True,,True,1,False,1000,True,1.0
./expes/v2_2020-12-03_dh_300-prng-1,30_issda_300,300,rng-300,271,rng,num-start-51,51,25726,2.85408616065979,True,,True,1,False,1000,True,1.0
./expes/v2_2020-12-03_dh_300-prng-1,30_issda_300,300,rng-300,251,rng,num-start-861,861,25726,21.583120107650757,True,,True,1,False,1000,True,1.0
./expes/v2_2020-12-03_dh_300-prng-1,30_issda_300,300,rng-300,131,rng,num-start-261,261,25726,8.11750841140747,True,,True,1,False,1000,True,1.0
./expes/v2_2020-12-03_dh_300-prng-1,30_issda_300,300,rng-300,91,rng,num-start-891,891,25726,24.62446403503418,True,,True,1,False,1000,True,1.0
./expes/v2_2020-12-03_dh_300-prng-1,30_issda_300,300,rng-300,231,rng,num-start-251,251,25726,7.611868381500244,True,,True,1,False,1000,True,1.0
./expes/v2_2020-12-03_dh_300-prng-1,30_issda_300,300,rng-300,1,rng,num-start-241,241,25726,4.668476581573486,True,,True,1,False,1000,True,1.0
./expes/v2_2020-12-03_dh_300-prng-1,30_issda_300,300,rng-300,171,rng,num-start-251,251,25726,9.207619905471802,True,,True,1,False,1000,True,1.0
./expes/v2_2020-12-03_dh_300-prng-1,30_issda_300,300,rng-300,81,rng,num-start-381,381,25726,10.873414516448975,True,,True,1,False,1000,True,1.0
./expes/v2_2020-12-03_dh_300-prng-1,30_issda_300,300,rng-300,181,rng,num-start-91,91,25726,1001.9403746128082,False,,False,0,True,1000,True,0.0
./expes/v2_2020-12-03_dh_300-prng-1,30_issda_300,300,rng-300,61,rng,num-start-981,981,25726,36.46457266807556,True,,True,1,False,1000,True,1.0
./expes/v2_2020-12-03_dh_300-prng-1,30_issda_300,300,rng-300,271,rng,num-start-841,841,25726,21.537961959838867,True,,True,1,False,1000,True,1.0
./expes/v2_2020-12-03_dh_300-prng-1,30_issda_300,300,rng-300,291,rng,num-start-261,261,25726,4.9829230308532715,True,,True,1,False,1000,True,1.0
./expes/v2_2020-12-03_dh_300-prng-1,30_issda_300,300,rng-300,101,rng,num-start-41,41,25726,1001.1144578456879,False,,False,0,True,1000,True,0.0
./expes/v2_2020-12-03_dh_300-prng-1,30_issda_300,300,rng-300,21,rng,num-start-291,291,25726,6.755814790725708,True,,True,1,False,1000,True,1.0
./expes/v2_2020-12-03_dh_300-prng-1,30_issda_300,300,rng-300,91,rng,num-start-291,291,25726,10.553242683410645,True,,True,1,False,1000,True,1.0
./expes/v2_2020-12-03_dh_300-prng-1,30_issda_300,300,rng-300,91,rng,num-start-781,781,25726,23.152387619018555,True,,True,1,False,1000,True,1.0
./expes/v2_2020-12-03_dh_300-prng-1,30_issda_300,300,rng-300,161,rng,num-start-611,611,25726,16.821646690368652,True,,True,1,False,1000,True,1.0
./expes/v2_2020-12-03_dh_300-prng-1,30_issda_300,300,rng-300,131,rng,num-start-391,391,25726,12.580785751342773,True,,True,1,False,1000,True,1.0
./expes/v2_2020-12-03_dh_300-prng-1,30_issda_300,300,rng-300,251,rng,num-start-371,371,25726,8.729889631271362,True,,True,1,False,1000,True,1.0
./expes/v2_2020-12-03_dh_300-prng-1,30_issda_300,300,rng-300,261,rng,num-start-411,411,25726,12.268517971038818,True,,True,1,False,1000,True,1.0
./expes/v2_2020-12-03_dh_300-prng-1,30_issda_300,300,rng-300,211,rng,num-start-871,871,25726,26.693140745162964,True,,True,1,False,1000,True,1.0
./expes/v2_2020-12-03_dh_300-prng-1,30_issda_300,300,rng-300,181,rng,num-start-111,111,25726,504.5546588897705,True,,True,1,False,1000,True,1.0
./expes/v2_2020-12-03_dh_300-prng-1,30_issda_300,300,rng-300,241,rng,num-start-531,531,25726,14.170464038848877,True,,True,1,False,1000,True,1.0
./expes/v2_2020-12-03_dh_300-prng-1,30_issda_300,300,rng-300,51,rng,num-start-211,211,25726,5.871906280517578,True,,True,1,False,1000,True,1.0
./expes/v2_2020-12-03_dh_300-prng-1,30_issda_300,300,rng-300,111,rng,num-start-401,401,25726,12.226097822189331,True,,True,1,False,1000,True,1.0
./expes/v2_2020-12-03_dh_300-prng-1,30_issda_300,300,rng-300,141,rng,num-start-121,121,25726,57.697869300842285,True,,True,1,False,1000,True,1.0
./expes/v2_2020-12-03_dh_300-prng-1,30_issda_300,300,rng-300,11,rng,num-start-741,741,25726,17.35056734085083,True,,True,1,False,1000,True,1.0
./expes/v2_2020-12-03_dh_300-prng-1,30_issda_300,300,rng-300,251,rng,num-start-471,471,25726,13.622400283813477,True,,True,1,False,1000,True,1.0
./expes/v2_2020-12-03_dh_300-prng-1,30_issda_300,300,rng-300,101,rng,num-start-941,941,25726,28.911760091781616,True,,True,1,False,1000,True,1.0
./expes/v2_2020-12-03_dh_300-prng-1,30_issda_300,300,rng-300,71,rng,num-start-101,101,25726,5.912229061126709,True,,True,1,False,1000,True,1.0
./expes/v2_2020-12-03_dh_300-prng-1,30_issda_300,300,rng-300,201,rng,num-start-311,311,25726,10.31243085861206,True,,True,1,False,1000,True,1.0
./expes/v2_2020-12-03_dh_300-prng-1,30_issda_300,300,rng-300,101,rng,num-start-221,221,25726,7.159514665603638,True,,True,1,False,1000,True,1.0
./expes/v2_2020-12-03_dh_300-prng-1,30_issda_300,300,rng-300,11,rng,num-start-121,121,25726,4.648411273956299,True,,True,1,False,1000,True,1.0
