expe,clients,clients_size,clients_subset,agg_size,method,days,days_size,days_total,time,valid,valid_sum,success,nsols,wall_hit,wall_time,pooled,valid_sums
./expes/v2_2020-12-03_dh_300-prng-1,30_issda_300,300,rng-300,11,rng,num-start-221,221,25726,8.859160423278809,True,,True,1,False,1000,True,1.0
./expes/v2_2020-12-03_dh_300-prng-1,30_issda_300,300,rng-300,121,rng,num-start-51,51,25726,1002.1885051727295,False,,False,0,True,1000,True,0.0
./expes/v2_2020-12-03_dh_300-prng-1,30_issda_300,300,rng-300,181,rng,num-start-391,391,25726,16.213449954986572,True,,True,1,False,1000,True,1.0
./expes/v2_2020-12-03_dh_300-prng-1,30_issda_300,300,rng-300,201,rng,num-start-871,871,25726,33.485893964767456,True,,True,1,False,1000,True,1.0
./expes/v2_2020-12-03_dh_300-prng-1,30_issda_300,300,rng-300,251,rng,num-start-941,941,25726,37.15052533149719,True,,True,1,False,1000,True,1.0
./expes/v2_2020-12-03_dh_300-prng-1,30_issda_300,300,rng-300,1,rng,num-start-421,421,25726,14.863400936126709,True,,True,1,False,1000,True,1.0
./expes/v2_2020-12-03_dh_300-prng-1,30_issda_300,300,rng-300,151,rng,num-start-411,411,25726,17.309245824813843,True,,True,1,False,1000,True,1.0
./expes/v2_2020-12-03_dh_300-prng-1,30_issda_300,300,rng-300,111,rng,num-start-161,161,25726,7.104802131652832,True,,True,1,False,1000,True,1.0
./expes/v2_2020-12-03_dh_300-prng-1,30_issda_300,300,rng-300,281,rng,num-start-871,871,25726,33.79637622833252,True,,True,1,False,1000,True,1.0
./expes/v2_2020-12-03_dh_300-prng-1,30_issda_300,300,rng-300,11,rng,num-start-831,831,25726,30.923545360565186,True,,True,1,False,1000,True,1.0
./expes/v2_2020-12-03_dh_300-prng-1,30_issda_300,300,rng-300,41,rng,num-start-921,921,25726,37.15619921684265,True,,True,1,False,1000,True,1.0
./expes/v2_2020-12-03_dh_300-prng-1,30_issda_300,300,rng-300,81,rng,num-start-71,71,25726,1002.6578679084778,False,,False,0,True,1000,True,0.0
./expes/v2_2020-12-03_dh_300-prng-1,30_issda_300,300,rng-300,261,rng,num-start-431,431,25726,16.05244278907776,True,,True,1,False,1000,True,1.0
./expes/v2_2020-12-03_dh_300-prng-1,30_issda_300,300,rng-300,41,rng,num-start-51,51,25726,1002.0055928230286,False,,False,0,True,1000,True,0.0
./expes/v2_2020-12-03_dh_300-prng-1,30_issda_300,300,rng-300,71,rng,num-start-971,971,25726,37.73834276199341,True,,True,1,False,1000,True,1.0
./expes/v2_2020-12-03_dh_300-prng-1,30_issda_300,300,rng-300,271,rng,num-start-121,121,25726,4.918771743774414,True,,True,1,False,1000,True,1.0
./expes/v2_2020-12-03_dh_300-prng-1,30_issda_300,300,rng-300,211,rng,num-start-461,461,25726,18.641096353530884,True,,True,1,False,1000,True,1.0
./expes/v2_2020-12-03_dh_300-prng-1,30_issda_300,300,rng-300,141,rng,num-start-901,901,25726,37.08593535423279,True,,True,1,False,1000,True,1.0
./expes/v2_2020-12-03_dh_300-prng-1,30_issda_300,300,rng-300,121,rng,num-start-851,851,25726,37.10833930969238,True,,True,1,False,1000,True,1.0
./expes/v2_2020-12-03_dh_300-prng-1,30_issda_300,300,rng-300,131,rng,num-start-101,101,25726,18.120601177215576,True,,True,1,False,1000,True,1.0
./expes/v2_2020-12-03_dh_300-prng-1,30_issda_300,300,rng-300,111,rng,num-start-871,871,25726,33.13979935646057,True,,True,1,False,1000,True,1.0
./expes/v2_2020-12-03_dh_300-prng-1,30_issda_300,300,rng-300,161,rng,num-start-931,931,25726,35.67198729515076,True,,True,1,False,1000,True,1.0
./expes/v2_2020-12-03_dh_300-prng-1,30_issda_300,300,rng-300,251,rng,num-start-331,331,25726,12.175444602966309,True,,True,1,False,1000,True,1.0
./expes/v2_2020-12-03_dh_300-prng-1,30_issda_300,300,rng-300,1,rng,num-start-651,651,25726,22.31958508491516,True,,True,1,False,1000,True,1.0
./expes/v2_2020-12-03_dh_300-prng-1,30_issda_300,300,rng-300,271,rng,num-start-931,931,25726,34.028079986572266,True,,True,1,False,1000,True,1.0
./expes/v2_2020-12-03_dh_300-prng-1,30_issda_300,300,rng-300,201,rng,num-start-731,731,25726,28.883025646209717,True,,True,1,False,1000,True,1.0
./expes/v2_2020-12-03_dh_300-prng-1,30_issda_300,300,rng-300,271,rng,num-start-551,551,25726,20.34239673614502,True,,True,1,False,1000,True,1.0
./expes/v2_2020-12-03_dh_300-prng-1,30_issda_300,300,rng-300,221,rng,num-start-211,211,25726,8.832912683486938,True,,True,1,False,1000,True,1.0
./expes/v2_2020-12-03_dh_300-prng-1,30_issda_300,300,rng-300,131,rng,num-start-851,851,25726,36.07248544692993,True,,True,1,False,1000,True,1.0
./expes/v2_2020-12-03_dh_300-prng-1,30_issda_300,300,rng-300,241,rng,num-start-591,591,25726,22.817065238952637,True,,True,1,False,1000,True,1.0
./expes/v2_2020-12-03_dh_300-prng-1,30_issda_300,300,rng-300,161,rng,num-start-861,861,25726,36.59324669837952,True,,True,1,False,1000,True,1.0
./expes/v2_2020-12-03_dh_300-prng-1,30_issda_300,300,rng-300,111,rng,num-start-131,131,25726,8.766633749008179,True,,True,1,False,1000,True,1.0
./expes/v2_2020-12-03_dh_300-prng-1,30_issda_300,300,rng-300,231,rng,num-start-21,21,25726,1000.7696418762207,False,,False,0,True,1000,True,0.0
./expes/v2_2020-12-03_dh_300-prng-1,30_issda_300,300,rng-300,71,rng,num-start-441,441,25726,17.533010959625244,True,,True,1,False,1000,True,1.0
./expes/v2_2020-12-03_dh_300-prng-1,30_issda_300,300,rng-300,251,rng,num-start-451,451,25726,16.630544424057007,True,,True,1,False,1000,True,1.0
./expes/v2_2020-12-03_dh_300-prng-1,30_issda_300,300,rng-300,291,rng,num-start-541,541,25726,20.349653959274292,True,,True,1,False,1000,True,1.0
./expes/v2_2020-12-03_dh_300-prng-1,30_issda_300,300,rng-300,221,rng,num-start-71,71,25726,1002.4849038124084,False,,False,0,True,1000,True,0.0
./expes/v2_2020-12-03_dh_300-prng-1,30_issda_300,300,rng-300,181,rng,num-start-471,471,25726,19.489383220672607,True,,True,1,False,1000,True,1.0
./expes/v2_2020-12-03_dh_300-prng-1,30_issda_300,300,rng-300,281,rng,num-start-451,451,25726,17.080770254135132,True,,True,1,False,1000,True,1.0
./expes/v2_2020-12-03_dh_300-prng-1,30_issda_300,300,rng-300,91,rng,num-start-361,361,25726,14.364524602890015,True,,True,1,False,1000,True,1.0
./expes/v2_2020-12-03_dh_300-prng-1,30_issda_300,300,rng-300,51,rng,num-start-11,11,25726,1000.4916615486145,False,,False,0,True,1000,True,0.0
./expes/v2_2020-12-03_dh_300-prng-1,30_issda_300,300,rng-300,241,rng,num-start-971,971,25726,37.250332832336426,True,,True,1,False,1000,True,1.0
./expes/v2_2020-12-03_dh_300-prng-1,30_issda_300,300,rng-300,41,rng,num-start-471,471,25726,19.728750705718994,True,,True,1,False,1000,True,1.0
./expes/v2_2020-12-03_dh_300-prng-1,30_issda_300,300,rng-300,191,rng,num-start-821,821,25726,33.78590631484985,True,,True,1,False,1000,True,1.0
./expes/v2_2020-12-03_dh_300-prng-1,30_issda_300,300,rng-300,11,rng,num-start-711,711,25726,26.007869958877563,True,,True,1,False,1000,True,1.0
./expes/v2_2020-12-03_dh_300-prng-1,30_issda_300,300,rng-300,51,rng,num-start-561,561,25726,23.447494983673096,True,,True,1,False,1000,True,1.0
./expes/v2_2020-12-03_dh_300-prng-1,30_issda_300,300,rng-300,21,rng,num-start-421,421,25726,15.869841814041138,True,,True,1,False,1000,True,1.0
./expes/v2_2020-12-03_dh_300-prng-1,30_issda_300,300,rng-300,291,rng,num-start-301,301,25726,11.503268241882324,True,,True,1,False,1000,True,1.0
./expes/v2_2020-12-03_dh_300-prng-1,30_issda_300,300,rng-300,191,rng,num-start-101,101,25726,69.9143557548523,True,,True,1,False,1000,True,1.0
./expes/v2_2020-12-03_dh_300-prng-1,30_issda_300,300,rng-300,161,rng,num-start-581,581,25726,23.38923192024231,True,,True,1,False,1000,True,1.0
./expes/v2_2020-12-03_dh_300-prng-1,30_issda_300,300,rng-300,81,rng,num-start-201,201,25726,8.001549482345581,True,,True,1,False,1000,True,1.0
./expes/v2_2020-12-03_dh_300-prng-1,30_issda_300,300,rng-300,271,rng,num-start-851,851,25726,30.66758966445923,True,,True,1,False,1000,True,1.0
./expes/v2_2020-12-03_dh_300-prng-1,30_issda_300,300,rng-300,211,rng,num-start-681,681,25726,28.077350854873657,True,,True,1,False,1000,True,1.0
./expes/v2_2020-12-03_dh_300-prng-1,30_issda_300,300,rng-300,281,rng,num-start-381,381,25726,13.846073627471924,True,,True,1,False,1000,True,1.0
./expes/v2_2020-12-03_dh_300-prng-1,30_issda_300,300,rng-300,271,rng,num-start-711,711,25726,26.09895896911621,True,,True,1,False,1000,True,1.0
./expes/v2_2020-12-03_dh_300-prng-1,30_issda_300,300,rng-300,131,rng,num-start-701,701,25726,28.40055012702942,True,,True,1,False,1000,True,1.0
./expes/v2_2020-12-03_dh_300-prng-1,30_issda_300,300,rng-300,91,rng,num-start-931,931,25726,39.01858592033386,True,,True,1,False,1000,True,1.0
./expes/v2_2020-12-03_dh_300-prng-1,30_issda_300,300,rng-300,201,rng,num-start-471,471,25726,18.32023310661316,True,,True,1,False,1000,True,1.0
./expes/v2_2020-12-03_dh_300-prng-1,30_issda_300,300,rng-300,41,rng,num-start-821,821,25726,32.015360593795776,True,,True,1,False,1000,True,1.0
./expes/v2_2020-12-03_dh_300-prng-1,30_issda_300,300,rng-300,91,rng,num-start-421,421,25726,17.497783422470093,True,,True,1,False,1000,True,1.0
./expes/v2_2020-12-03_dh_300-prng-1,30_issda_300,300,rng-300,171,rng,num-start-531,531,25726,20.525834798812866,True,,True,1,False,1000,True,1.0
./expes/v2_2020-12-03_dh_300-prng-1,30_issda_300,300,rng-300,151,rng,num-start-381,381,25726,15.494457244873047,True,,True,1,False,1000,True,1.0
./expes/v2_2020-12-03_dh_300-prng-1,30_issda_300,300,rng-300,211,rng,num-start-321,321,25726,12.277779340744019,True,,True,1,False,1000,True,1.0
./expes/v2_2020-12-03_dh_300-prng-1,30_issda_300,300,rng-300,61,rng,num-start-241,241,25726,10.14844274520874,True,,True,1,False,1000,True,1.0
./expes/v2_2020-12-03_dh_300-prng-1,30_issda_300,300,rng-300,131,rng,num-start-831,831,25726,37.741745710372925,True,,True,1,False,1000,True,1.0
./expes/v2_2020-12-03_dh_300-prng-1,30_issda_300,300,rng-300,61,rng,num-start-121,121,25726,5.4265546798706055,True,,True,1,False,1000,True,1.0
./expes/v2_2020-12-03_dh_300-prng-1,30_issda_300,300,rng-300,121,rng,num-start-941,941,25726,39.73038196563721,True,,True,1,False,1000,True,1.0
./expes/v2_2020-12-03_dh_300-prng-1,30_issda_300,300,rng-300,31,rng,num-start-211,211,25726,8.63022756576538,True,,True,1,False,1000,True,1.0
./expes/v2_2020-12-03_dh_300-prng-1,30_issda_300,300,rng-300,281,rng,num-start-671,671,25726,26.345028400421143,True,,True,1,False,1000,True,1.0
./expes/v2_2020-12-03_dh_300-prng-1,30_issda_300,300,rng-300,201,rng,num-start-11,11,25726,1000.4284021854401,False,,False,0,True,1000,True,0.0
./expes/v2_2020-12-03_dh_300-prng-1,30_issda_300,300,rng-300,31,rng,num-start-311,311,25726,11.829774141311646,True,,True,1,False,1000,True,1.0
./expes/v2_2020-12-03_dh_300-prng-1,30_issda_300,300,rng-300,131,rng,num-start-91,91,25726,1003.340247631073,False,,False,0,True,1000,True,0.0
./expes/v2_2020-12-03_dh_300-prng-1,30_issda_300,300,rng-300,31,rng,num-start-171,171,25726,7.604585647583008,True,,True,1,False,1000,True,1.0
./expes/v2_2020-12-03_dh_300-prng-1,30_issda_300,300,rng-300,291,rng,num-start-811,811,25726,26.54537534713745,True,,True,1,False,1000,True,1.0
./expes/v2_2020-12-03_dh_300-prng-1,30_issda_300,300,rng-300,291,rng,num-start-231,231,25726,8.024237871170044,True,,True,1,False,1000,True,1.0
./expes/v2_2020-12-03_dh_300-prng-1,30_issda_300,300,rng-300,141,rng,num-start-761,761,25726,31.017944812774658,True,,True,1,False,1000,True,1.0
./expes/v2_2020-12-03_dh_300-prng-1,30_issda_300,300,rng-300,171,rng,num-start-721,721,25726,30.034611701965332,True,,True,1,False,1000,True,1.0
./expes/v2_2020-12-03_dh_300-prng-1,30_issda_300,300,rng-300,81,rng,num-start-821,821,25726,32.530296087265015,True,,True,1,False,1000,True,1.0
./expes/v2_2020-12-03_dh_300-prng-1,30_issda_300,300,rng-300,251,rng,num-start-631,631,25726,25.468095541000366,True,,True,1,False,1000,True,1.0
./expes/v2_2020-12-03_dh_300-prng-1,30_issda_300,300,rng-300,221,rng,num-start-431,431,25726,16.673909902572632,True,,True,1,False,1000,True,1.0
./expes/v2_2020-12-03_dh_300-prng-1,30_issda_300,300,rng-300,111,rng,num-start-921,921,25726,36.70912313461304,True,,True,1,False,1000,True,1.0
./expes/v2_2020-12-03_dh_300-prng-1,30_issda_300,300,rng-300,71,rng,num-start-791,791,25726,32.043193340301514,True,,True,1,False,1000,True,1.0
./expes/v2_2020-12-03_dh_300-prng-1,30_issda_300,300,rng-300,181,rng,num-start-161,161,25726,6.609104156494141,True,,True,1,False,1000,True,1.0
./expes/v2_2020-12-03_dh_300-prng-1,30_issda_300,300,rng-300,11,rng,num-start-661,661,25726,25.508103609085083,True,,True,1,False,1000,True,1.0
./expes/v2_2020-12-03_dh_300-prng-1,30_issda_300,300,rng-300,151,rng,num-start-881,881,25726,35.58533453941345,True,,True,1,False,1000,True,1.0
./expes/v2_2020-12-03_dh_300-prng-1,30_issda_300,300,rng-300,111,rng,num-start-791,791,25726,31.993800401687622,True,,True,1,False,1000,True,1.0
./expes/v2_2020-12-03_dh_300-prng-1,30_issda_300,300,rng-300,111,rng,num-start-671,671,25726,28.09219241142273,True,,True,1,False,1000,True,1.0
./expes/v2_2020-12-03_dh_300-prng-1,30_issda_300,300,rng-300,151,rng,num-start-371,371,25726,15.954589128494263,True,,True,1,False,1000,True,1.0
./expes/v2_2020-12-03_dh_300-prng-1,30_issda_300,300,rng-300,131,rng,num-start-351,351,25726,14.138288497924805,True,,True,1,False,1000,True,1.0
./expes/v2_2020-12-03_dh_300-prng-1,30_issda_300,300,rng-300,221,rng,num-start-781,781,25726,30.45345687866211,True,,True,1,False,1000,True,1.0
./expes/v2_2020-12-03_dh_300-prng-1,30_issda_300,300,rng-300,181,rng,num-start-101,101,25726,1003.5493006706238,False,,False,0,True,1000,True,0.0
./expes/v2_2020-12-03_dh_300-prng-1,30_issda_300,300,rng-300,81,rng,num-start-141,141,25726,5.9936792850494385,True,,True,1,False,1000,True,1.0
./expes/v2_2020-12-03_dh_300-prng-1,30_issda_300,300,rng-300,131,rng,num-start-681,681,25726,26.84380054473877,True,,True,1,False,1000,True,1.0
./expes/v2_2020-12-03_dh_300-prng-1,30_issda_300,300,rng-300,61,rng,num-start-861,861,25726,32.08511781692505,True,,True,1,False,1000,True,1.0
./expes/v2_2020-12-03_dh_300-prng-1,30_issda_300,300,rng-300,41,rng,num-start-11,11,25726,1000.5295276641846,False,,False,0,True,1000,True,0.0
./expes/v2_2020-12-03_dh_300-prng-1,30_issda_300,300,rng-300,151,rng,num-start-11,11,25726,1000.4810812473297,False,,False,0,True,1000,True,0.0
./expes/v2_2020-12-03_dh_300-prng-1,30_issda_300,300,rng-300,71,rng,num-start-141,141,25726,5.860942363739014,True,,True,1,False,1000,True,1.0
./expes/v2_2020-12-03_dh_300-prng-1,30_issda_300,300,rng-300,271,rng,num-start-341,341,25726,12.976529359817505,True,,True,1,False,1000,True,1.0
./expes/v2_2020-12-03_dh_300-prng-1,30_issda_300,300,rng-300,71,rng,num-start-261,261,25726,11.119709253311157,True,,True,1,False,1000,True,1.0
./expes/v2_2020-12-03_dh_300-prng-1,30_issda_300,300,rng-300,281,rng,num-start-171,171,25726,6.6369805335998535,True,,True,1,False,1000,True,1.0
./expes/v2_2020-12-03_dh_300-prng-1,30_issda_300,300,rng-300,231,rng,num-start-441,441,25726,17.349473476409912,True,,True,1,False,1000,True,1.0
./expes/v2_2020-12-03_dh_300-prng-1,30_issda_300,300,rng-300,101,rng,num-start-311,311,25726,13.7293381690979,True,,True,1,False,1000,True,1.0
./expes/v2_2020-12-03_dh_300-prng-1,30_issda_300,300,rng-300,201,rng,num-start-131,131,25726,6.057000160217285,True,,True,1,False,1000,True,1.0
./expes/v2_2020-12-03_dh_300-prng-1,30_issda_300,300,rng-300,161,rng,num-start-731,731,25726,30.47333574295044,True,,True,1,False,1000,True,1.0
./expes/v2_2020-12-03_dh_300-prng-1,30_issda_300,300,rng-300,271,rng,num-start-941,941,25726,36.38614344596863,True,,True,1,False,1000,True,1.0
./expes/v2_2020-12-03_dh_300-prng-1,30_issda_300,300,rng-300,231,rng,num-start-681,681,25726,26.61968421936035,True,,True,1,False,1000,True,1.0
./expes/v2_2020-12-03_dh_300-prng-1,30_issda_300,300,rng-300,121,rng,num-start-291,291,25726,12.001728296279907,True,,True,1,False,1000,True,1.0
./expes/v2_2020-12-03_dh_300-prng-1,30_issda_300,300,rng-300,201,rng,num-start-121,121,25726,8.182896852493286,True,,True,1,False,1000,True,1.0
./expes/v2_2020-12-03_dh_300-prng-1,30_issda_300,300,rng-300,1,rng,num-start-611,611,25726,20.652326583862305,True,,True,1,False,1000,True,1.0
./expes/v2_2020-12-03_dh_300-prng-1,30_issda_300,300,rng-300,231,rng,num-start-131,131,25726,5.203694581985474,True,,True,1,False,1000,True,1.0
./expes/v2_2020-12-03_dh_300-prng-1,30_issda_300,300,rng-300,41,rng,num-start-521,521,25726,20.112993001937866,True,,True,1,False,1000,True,1.0
./expes/v2_2020-12-03_dh_300-prng-1,30_issda_300,300,rng-300,241,rng,num-start-521,521,25726,19.719927310943604,True,,True,1,False,1000,True,1.0
./expes/v2_2020-12-03_dh_300-prng-1,30_issda_300,300,rng-300,91,rng,num-start-931,931,25726,36.172492265701294,True,,True,1,False,1000,True,1.0
./expes/v2_2020-12-03_dh_300-prng-1,30_issda_300,300,rng-300,241,rng,num-start-581,581,25726,21.90787625312805,True,,True,1,False,1000,True,1.0
./expes/v2_2020-12-03_dh_300-prng-1,30_issda_300,300,rng-300,151,rng,num-start-861,861,25726,34.694864988327026,True,,True,1,False,1000,True,1.0
./expes/v2_2020-12-03_dh_300-prng-1,30_issda_300,300,rng-300,51,rng,num-start-631,631,25726,23.64982533454895,True,,True,1,False,1000,True,1.0
./expes/v2_2020-12-03_dh_300-prng-1,30_issda_300,300,rng-300,191,rng,num-start-51,51,25726,1001.7595205307007,False,,False,0,True,1000,True,0.0
./expes/v2_2020-12-03_dh_300-prng-1,30_issda_300,300,rng-300,51,rng,num-start-71,71,25726,71.81996893882751,True,,True,1,False,1000,True,1.0
./expes/v2_2020-12-03_dh_300-prng-1,30_issda_300,300,rng-300,91,rng,num-start-861,861,25726,38.79226040840149,True,,True,1,False,1000,True,1.0
./expes/v2_2020-12-03_dh_300-prng-1,30_issda_300,300,rng-300,151,rng,num-start-851,851,25726,39.777199506759644,True,,True,1,False,1000,True,1.0
./expes/v2_2020-12-03_dh_300-prng-1,30_issda_300,300,rng-300,241,rng,num-start-431,431,25726,16.631707429885864,True,,True,1,False,1000,True,1.0
./expes/v2_2020-12-03_dh_300-prng-1,30_issda_300,300,rng-300,51,rng,num-start-921,921,25726,38.2529137134552,True,,True,1,False,1000,True,1.0
./expes/v2_2020-12-03_dh_300-prng-1,30_issda_300,300,rng-300,161,rng,num-start-81,81,25726,1002.8001959323883,False,,False,0,True,1000,True,0.0
./expes/v2_2020-12-03_dh_300-prng-1,30_issda_300,300,rng-300,221,rng,num-start-311,311,25726,13.213650226593018,True,,True,1,False,1000,True,1.0
./expes/v2_2020-12-03_dh_300-prng-1,30_issda_300,300,rng-300,221,rng,num-start-721,721,25726,29.01401686668396,True,,True,1,False,1000,True,1.0
./expes/v2_2020-12-03_dh_300-prng-1,30_issda_300,300,rng-300,71,rng,num-start-551,551,25726,21.219605207443237,True,,True,1,False,1000,True,1.0
./expes/v2_2020-12-03_dh_300-prng-1,30_issda_300,300,rng-300,31,rng,num-start-201,201,25726,8.377020120620728,True,,True,1,False,1000,True,1.0
./expes/v2_2020-12-03_dh_300-prng-1,30_issda_300,300,rng-300,91,rng,num-start-571,571,25726,23.668877124786377,True,,True,1,False,1000,True,1.0
./expes/v2_2020-12-03_dh_300-prng-1,30_issda_300,300,rng-300,21,rng,num-start-981,981,25726,37.58371424674988,True,,True,1,False,1000,True,1.0
./expes/v2_2020-12-03_dh_300-prng-1,30_issda_300,300,rng-300,111,rng,num-start-601,601,25726,25.846154928207397,True,,True,1,False,1000,True,1.0
./expes/v2_2020-12-03_dh_300-prng-1,30_issda_300,300,rng-300,111,rng,num-start-441,441,25726,20.317447423934937,True,,True,1,False,1000,True,1.0
./expes/v2_2020-12-03_dh_300-prng-1,30_issda_300,300,rng-300,221,rng,num-start-491,491,25726,19.83161449432373,True,,True,1,False,1000,True,1.0
./expes/v2_2020-12-03_dh_300-prng-1,30_issda_300,300,rng-300,11,rng,num-start-561,561,25726,21.351706981658936,True,,True,1,False,1000,True,1.0
./expes/v2_2020-12-03_dh_300-prng-1,30_issda_300,300,rng-300,51,rng,num-start-911,911,25726,35.474653482437134,True,,True,1,False,1000,True,1.0
./expes/v2_2020-12-03_dh_300-prng-1,30_issda_300,300,rng-300,141,rng,num-start-401,401,25726,15.764060258865356,True,,True,1,False,1000,True,1.0
./expes/v2_2020-12-03_dh_300-prng-1,30_issda_300,300,rng-300,231,rng,num-start-251,251,25726,10.168930768966675,True,,True,1,False,1000,True,1.0
./expes/v2_2020-12-03_dh_300-prng-1,30_issda_300,300,rng-300,21,rng,num-start-921,921,25726,35.1755096912384,True,,True,1,False,1000,True,1.0
./expes/v2_2020-12-03_dh_300-prng-1,30_issda_300,300,rng-300,141,rng,num-start-691,691,25726,27.426677703857422,True,,True,1,False,1000,True,1.0
./expes/v2_2020-12-03_dh_300-prng-1,30_issda_300,300,rng-300,11,rng,num-start-171,171,25726,6.743021011352539,True,,True,1,False,1000,True,1.0
./expes/v2_2020-12-03_dh_300-prng-1,30_issda_300,300,rng-300,81,rng,num-start-281,281,25726,10.782551527023315,True,,True,1,False,1000,True,1.0
./expes/v2_2020-12-03_dh_300-prng-1,30_issda_300,300,rng-300,131,rng,num-start-131,131,25726,8.512464761734009,True,,True,1,False,1000,True,1.0
./expes/v2_2020-12-03_dh_300-prng-1,30_issda_300,300,rng-300,251,rng,num-start-751,751,25726,28.353967666625977,True,,True,1,False,1000,True,1.0
./expes/v2_2020-12-03_dh_300-prng-1,30_issda_300,300,rng-300,221,rng,num-start-421,421,25726,15.777323961257935,True,,True,1,False,1000,True,1.0
./expes/v2_2020-12-03_dh_300-prng-1,30_issda_300,300,rng-300,211,rng,num-start-531,531,25726,21.51785111427307,True,,True,1,False,1000,True,1.0
./expes/v2_2020-12-03_dh_300-prng-1,30_issda_300,300,rng-300,51,rng,num-start-851,851,25726,34.92089080810547,True,,True,1,False,1000,True,1.0
./expes/v2_2020-12-03_dh_300-prng-1,30_issda_300,300,rng-300,161,rng,num-start-921,921,25726,35.744014739990234,True,,True,1,False,1000,True,1.0
./expes/v2_2020-12-03_dh_300-prng-1,30_issda_300,300,rng-300,261,rng,num-start-601,601,25726,23.43077325820923,True,,True,1,False,1000,True,1.0
./expes/v2_2020-12-03_dh_300-prng-1,30_issda_300,300,rng-300,1,rng,num-start-21,21,25726,0.6875870227813721,True,,True,1,False,1000,True,1.0
./expes/v2_2020-12-03_dh_300-prng-1,30_issda_300,300,rng-300,161,rng,num-start-831,831,25726,33.56490969657898,True,,True,1,False,1000,True,1.0
./expes/v2_2020-12-03_dh_300-prng-1,30_issda_300,300,rng-300,41,rng,num-start-861,861,25726,34.35302662849426,True,,True,1,False,1000,True,1.0
./expes/v2_2020-12-03_dh_300-prng-1,30_issda_300,300,rng-300,141,rng,num-start-341,341,25726,14.093520879745483,True,,True,1,False,1000,True,1.0
./expes/v2_2020-12-03_dh_300-prng-1,30_issda_300,300,rng-300,241,rng,num-start-111,111,25726,4.463547229766846,True,,True,1,False,1000,True,1.0
./expes/v2_2020-12-03_dh_300-prng-1,30_issda_300,300,rng-300,61,rng,num-start-421,421,25726,16.90211510658264,True,,True,1,False,1000,True,1.0
./expes/v2_2020-12-03_dh_300-prng-1,30_issda_300,300,rng-300,161,rng,num-start-681,681,25726,28.654701471328735,True,,True,1,False,1000,True,1.0
./expes/v2_2020-12-03_dh_300-prng-1,30_issda_300,300,rng-300,21,rng,num-start-681,681,25726,27.153005599975586,True,,True,1,False,1000,True,1.0
./expes/v2_2020-12-03_dh_300-prng-1,30_issda_300,300,rng-300,201,rng,num-start-701,701,25726,28.167388439178467,True,,True,1,False,1000,True,1.0
./expes/v2_2020-12-03_dh_300-prng-1,30_issda_300,300,rng-300,31,rng,num-start-431,431,25726,17.760558366775513,True,,True,1,False,1000,True,1.0
./expes/v2_2020-12-03_dh_300-prng-1,30_issda_300,300,rng-300,1,rng,num-start-761,761,25726,25.973016500473022,True,,True,1,False,1000,True,1.0
./expes/v2_2020-12-03_dh_300-prng-1,30_issda_300,300,rng-300,251,rng,num-start-551,551,25726,21.646772623062134,True,,True,1,False,1000,True,1.0
./expes/v2_2020-12-03_dh_300-prng-1,30_issda_300,300,rng-300,221,rng,num-start-781,781,25726,30.43105697631836,True,,True,1,False,1000,True,1.0
./expes/v2_2020-12-03_dh_300-prng-1,30_issda_300,300,rng-300,131,rng,num-start-971,971,25726,37.741373777389526,True,,True,1,False,1000,True,1.0
./expes/v2_2020-12-03_dh_300-prng-1,30_issda_300,300,rng-300,11,rng,num-start-901,901,25726,32.40552878379822,True,,True,1,False,1000,True,1.0
./expes/v2_2020-12-03_dh_300-prng-1,30_issda_300,300,rng-300,71,rng,num-start-611,611,25726,24.311372995376587,True,,True,1,False,1000,True,1.0
./expes/v2_2020-12-03_dh_300-prng-1,30_issda_300,300,rng-300,211,rng,num-start-171,171,25726,7.640105247497559,True,,True,1,False,1000,True,1.0
./expes/v2_2020-12-03_dh_300-prng-1,30_issda_300,300,rng-300,101,rng,num-start-881,881,25726,33.87220859527588,True,,True,1,False,1000,True,1.0
./expes/v2_2020-12-03_dh_300-prng-1,30_issda_300,300,rng-300,21,rng,num-start-771,771,25726,30.643761157989502,True,,True,1,False,1000,True,1.0
./expes/v2_2020-12-03_dh_300-prng-1,30_issda_300,300,rng-300,181,rng,num-start-731,731,25726,30.54066491127014,True,,True,1,False,1000,True,1.0
./expes/v2_2020-12-03_dh_300-prng-1,30_issda_300,300,rng-300,181,rng,num-start-531,531,25726,22.030750513076782,True,,True,1,False,1000,True,1.0
./expes/v2_2020-12-03_dh_300-prng-1,30_issda_300,300,rng-300,51,rng,num-start-911,911,25726,37.074034690856934,True,,True,1,False,1000,True,1.0
./expes/v2_2020-12-03_dh_300-prng-1,30_issda_300,300,rng-300,1,rng,num-start-991,991,25726,35.38150095939636,True,,True,1,False,1000,True,1.0
./expes/v2_2020-12-03_dh_300-prng-1,30_issda_300,300,rng-300,141,rng,num-start-501,501,25726,21.43242359161377,True,,True,1,False,1000,True,1.0
./expes/v2_2020-12-03_dh_300-prng-1,30_issda_300,300,rng-300,281,rng,num-start-101,101,25726,4.163076877593994,True,,True,1,False,1000,True,1.0
./expes/v2_2020-12-03_dh_300-prng-1,30_issda_300,300,rng-300,101,rng,num-start-881,881,25726,37.444427490234375,True,,True,1,False,1000,True,1.0
./expes/v2_2020-12-03_dh_300-prng-1,30_issda_300,300,rng-300,61,rng,num-start-241,241,25726,10.031738519668579,True,,True,1,False,1000,True,1.0
./expes/v2_2020-12-03_dh_300-prng-1,30_issda_300,300,rng-300,101,rng,num-start-541,541,25726,21.84675431251526,True,,True,1,False,1000,True,1.0
./expes/v2_2020-12-03_dh_300-prng-1,30_issda_300,300,rng-300,41,rng,num-start-381,381,25726,16.581357955932617,True,,True,1,False,1000,True,1.0
./expes/v2_2020-12-03_dh_300-prng-1,30_issda_300,300,rng-300,111,rng,num-start-481,481,25726,19.611188888549805,True,,True,1,False,1000,True,1.0
./expes/v2_2020-12-03_dh_300-prng-1,30_issda_300,300,rng-300,251,rng,num-start-961,961,25726,39.19099235534668,True,,True,1,False,1000,True,1.0
./expes/v2_2020-12-03_dh_300-prng-1,30_issda_300,300,rng-300,251,rng,num-start-21,21,25726,1000.8290252685547,False,,False,0,True,1000,True,0.0
./expes/v2_2020-12-03_dh_300-prng-1,30_issda_300,300,rng-300,261,rng,num-start-271,271,25726,10.75329065322876,True,,True,1,False,1000,True,1.0
./expes/v2_2020-12-03_dh_300-prng-1,30_issda_300,300,rng-300,281,rng,num-start-841,841,25726,34.68082237243652,True,,True,1,False,1000,True,1.0
./expes/v2_2020-12-03_dh_300-prng-1,30_issda_300,300,rng-300,161,rng,num-start-771,771,25726,29.595426321029663,True,,True,1,False,1000,True,1.0
./expes/v2_2020-12-03_dh_300-prng-1,30_issda_300,300,rng-300,151,rng,num-start-791,791,25726,32.313252449035645,True,,True,1,False,1000,True,1.0
./expes/v2_2020-12-03_dh_300-prng-1,30_issda_300,300,rng-300,31,rng,num-start-221,221,25726,8.854548692703247,True,,True,1,False,1000,True,1.0
./expes/v2_2020-12-03_dh_300-prng-1,30_issda_300,300,rng-300,131,rng,num-start-391,391,25726,15.385623693466187,True,,True,1,False,1000,True,1.0
./expes/v2_2020-12-03_dh_300-prng-1,30_issda_300,300,rng-300,1,rng,num-start-611,611,25726,20.84989309310913,True,,True,1,False,1000,True,1.0
./expes/v2_2020-12-03_dh_300-prng-1,30_issda_300,300,rng-300,11,rng,num-start-141,141,25726,5.775778532028198,True,,True,1,False,1000,True,1.0
./expes/v2_2020-12-03_dh_300-prng-1,30_issda_300,300,rng-300,21,rng,num-start-651,651,25726,24.823063373565674,True,,True,1,False,1000,True,1.0
./expes/v2_2020-12-03_dh_300-prng-1,30_issda_300,300,rng-300,281,rng,num-start-91,91,25726,3.8175508975982666,True,,True,1,False,1000,True,1.0
./expes/v2_2020-12-03_dh_300-prng-1,30_issda_300,300,rng-300,161,rng,num-start-471,471,25726,18.736960887908936,True,,True,1,False,1000,True,1.0
./expes/v2_2020-12-03_dh_300-prng-1,30_issda_300,300,rng-300,251,rng,num-start-521,521,25726,19.88684844970703,True,,True,1,False,1000,True,1.0
./expes/v2_2020-12-03_dh_300-prng-1,30_issda_300,300,rng-300,101,rng,num-start-401,401,25726,16.279427528381348,True,,True,1,False,1000,True,1.0
./expes/v2_2020-12-03_dh_300-prng-1,30_issda_300,300,rng-300,141,rng,num-start-111,111,25726,855.6651999950409,True,,True,1,False,1000,True,1.0
./expes/v2_2020-12-03_dh_300-prng-1,30_issda_300,300,rng-300,221,rng,num-start-171,171,25726,7.463070392608643,True,,True,1,False,1000,True,1.0
./expes/v2_2020-12-03_dh_300-prng-1,30_issda_300,300,rng-300,221,rng,num-start-831,831,25726,34.85041952133179,True,,True,1,False,1000,True,1.0
./expes/v2_2020-12-03_dh_300-prng-1,30_issda_300,300,rng-300,1,rng,num-start-411,411,25726,14.743484020233154,True,,True,1,False,1000,True,1.0
./expes/v2_2020-12-03_dh_300-prng-1,30_issda_300,300,rng-300,211,rng,num-start-1,1,25726,0.10709547996520996,False,,False,2,False,1000,True,1.0
./expes/v2_2020-12-03_dh_300-prng-1,30_issda_300,300,rng-300,261,rng,num-start-381,381,25726,15.586175918579102,True,,True,1,False,1000,True,1.0
./expes/v2_2020-12-03_dh_300-prng-1,30_issda_300,300,rng-300,101,rng,num-start-61,61,25726,1002.2772841453552,False,,False,0,True,1000,True,0.0
./expes/v2_2020-12-03_dh_300-prng-1,30_issda_300,300,rng-300,291,rng,num-start-851,851,25726,29.587283611297607,True,,True,1,False,1000,True,1.0
./expes/v2_2020-12-03_dh_300-prng-1,30_issda_300,300,rng-300,261,rng,num-start-371,371,25726,14.539474725723267,True,,True,1,False,1000,True,1.0
./expes/v2_2020-12-03_dh_300-prng-1,30_issda_300,300,rng-300,101,rng,num-start-621,621,25726,24.803273916244507,True,,True,1,False,1000,True,1.0
./expes/v2_2020-12-03_dh_300-prng-1,30_issda_300,300,rng-300,141,rng,num-start-661,661,25726,27.272718906402588,True,,True,1,False,1000,True,1.0
./expes/v2_2020-12-03_dh_300-prng-1,30_issda_300,300,rng-300,71,rng,num-start-281,281,25726,11.638132810592651,True,,True,1,False,1000,True,1.0
./expes/v2_2020-12-03_dh_300-prng-1,30_issda_300,300,rng-300,171,rng,num-start-981,981,25726,45.90037274360657,True,,True,1,False,1000,True,1.0
./expes/v2_2020-12-03_dh_300-prng-1,30_issda_300,300,rng-300,101,rng,num-start-211,211,25726,8.844026803970337,True,,True,1,False,1000,True,1.0
./expes/v2_2020-12-03_dh_300-prng-1,30_issda_300,300,rng-300,51,rng,num-start-731,731,25726,29.234172105789185,True,,True,1,False,1000,True,1.0
./expes/v2_2020-12-03_dh_300-prng-1,30_issda_300,300,rng-300,21,rng,num-start-751,751,25726,30.82265830039978,True,,True,1,False,1000,True,1.0
./expes/v2_2020-12-03_dh_300-prng-1,30_issda_300,300,rng-300,251,rng,num-start-101,101,25726,4.598530530929565,True,,True,1,False,1000,True,1.0
./expes/v2_2020-12-03_dh_300-prng-1,30_issda_300,300,rng-300,151,rng,num-start-991,991,25726,41.718998670578,True,,True,1,False,1000,True,1.0
./expes/v2_2020-12-03_dh_300-prng-1,30_issda_300,300,rng-300,21,rng,num-start-131,131,25726,5.587107181549072,True,,True,1,False,1000,True,1.0
./expes/v2_2020-12-03_dh_300-prng-1,30_issda_300,300,rng-300,171,rng,num-start-931,931,25726,41.94559121131897,True,,True,1,False,1000,True,1.0
./expes/v2_2020-12-03_dh_300-prng-1,30_issda_300,300,rng-300,131,rng,num-start-491,491,25726,21.24661087989807,True,,True,1,False,1000,True,1.0
./expes/v2_2020-12-03_dh_300-prng-1,30_issda_300,300,rng-300,241,rng,num-start-831,831,25726,30.755486011505127,True,,True,1,False,1000,True,1.0
./expes/v2_2020-12-03_dh_300-prng-1,30_issda_300,300,rng-300,151,rng,num-start-391,391,25726,15.376300811767578,True,,True,1,False,1000,True,1.0
./expes/v2_2020-12-03_dh_300-prng-1,30_issda_300,300,rng-300,131,rng,num-start-861,861,25726,34.254273414611816,True,,True,1,False,1000,True,1.0
./expes/v2_2020-12-03_dh_300-prng-1,30_issda_300,300,rng-300,171,rng,num-start-571,571,25726,23.168189764022827,True,,True,1,False,1000,True,1.0
./expes/v2_2020-12-03_dh_300-prng-1,30_issda_300,300,rng-300,1,rng,num-start-181,181,25726,6.205686569213867,True,,True,1,False,1000,True,1.0
./expes/v2_2020-12-03_dh_300-prng-1,30_issda_300,300,rng-300,31,rng,num-start-751,751,25726,31.5710027217865,True,,True,1,False,1000,True,1.0
./expes/v2_2020-12-03_dh_300-prng-1,30_issda_300,300,rng-300,241,rng,num-start-591,591,25726,23.8236141204834,True,,True,1,False,1000,True,1.0
./expes/v2_2020-12-03_dh_300-prng-1,30_issda_300,300,rng-300,261,rng,num-start-281,281,25726,11.321129560470581,True,,True,1,False,1000,True,1.0
./expes/v2_2020-12-03_dh_300-prng-1,30_issda_300,300,rng-300,181,rng,num-start-751,751,25726,32.81542348861694,True,,True,1,False,1000,True,1.0
./expes/v2_2020-12-03_dh_300-prng-1,30_issda_300,300,rng-300,291,rng,num-start-691,691,25726,26.66309142112732,True,,True,1,False,1000,True,1.0
./expes/v2_2020-12-03_dh_300-prng-1,30_issda_300,300,rng-300,81,rng,num-start-241,241,25726,9.896409749984741,True,,True,1,False,1000,True,1.0
./expes/v2_2020-12-03_dh_300-prng-1,30_issda_300,300,rng-300,261,rng,num-start-381,381,25726,14.645392417907715,True,,True,1,False,1000,True,1.0
./expes/v2_2020-12-03_dh_300-prng-1,30_issda_300,300,rng-300,191,rng,num-start-221,221,25726,9.480193614959717,True,,True,1,False,1000,True,1.0
./expes/v2_2020-12-03_dh_300-prng-1,30_issda_300,300,rng-300,161,rng,num-start-871,871,25726,34.74823212623596,True,,True,1,False,1000,True,1.0
./expes/v2_2020-12-03_dh_300-prng-1,30_issda_300,300,rng-300,291,rng,num-start-81,81,25726,3.2353813648223877,True,,True,1,False,1000,True,1.0
./expes/v2_2020-12-03_dh_300-prng-1,30_issda_300,300,rng-300,81,rng,num-start-81,81,25726,1003.072717666626,False,,False,0,True,1000,True,0.0
./expes/v2_2020-12-03_dh_300-prng-1,30_issda_300,300,rng-300,121,rng,num-start-931,931,25726,37.20427393913269,True,,True,1,False,1000,True,1.0
./expes/v2_2020-12-03_dh_300-prng-1,30_issda_300,300,rng-300,221,rng,num-start-91,91,25726,1003.238043308258,False,,False,1,True,1000,True,0.0
./expes/v2_2020-12-03_dh_300-prng-1,30_issda_300,300,rng-300,141,rng,num-start-961,961,25726,37.28007411956787,True,,True,1,False,1000,True,1.0
./expes/v2_2020-12-03_dh_300-prng-1,30_issda_300,300,rng-300,181,rng,num-start-911,911,25726,35.41239380836487,True,,True,1,False,1000,True,1.0
./expes/v2_2020-12-03_dh_300-prng-1,30_issda_300,300,rng-300,41,rng,num-start-1,1,25726,0.13463163375854492,False,,False,2,False,1000,True,1.0
./expes/v2_2020-12-03_dh_300-prng-1,30_issda_300,300,rng-300,201,rng,num-start-221,221,25726,9.008105516433716,True,,True,1,False,1000,True,1.0
./expes/v2_2020-12-03_dh_300-prng-1,30_issda_300,300,rng-300,21,rng,num-start-541,541,25726,20.183440446853638,True,,True,1,False,1000,True,1.0
./expes/v2_2020-12-03_dh_300-prng-1,30_issda_300,300,rng-300,91,rng,num-start-941,941,25726,36.447179079055786,True,,True,1,False,1000,True,1.0
./expes/v2_2020-12-03_dh_300-prng-1,30_issda_300,300,rng-300,171,rng,num-start-341,341,25726,13.26297402381897,True,,True,1,False,1000,True,1.0
./expes/v2_2020-12-03_dh_300-prng-1,30_issda_300,300,rng-300,221,rng,num-start-311,311,25726,12.146222829818726,True,,True,1,False,1000,True,1.0
./expes/v2_2020-12-03_dh_300-prng-1,30_issda_300,300,rng-300,21,rng,num-start-31,31,25726,2.47412109375,True,,True,1,False,1000,True,1.0
./expes/v2_2020-12-03_dh_300-prng-1,30_issda_300,300,rng-300,171,rng,num-start-31,31,25726,1001.2473928928375,False,,False,0,True,1000,True,0.0
./expes/v2_2020-12-03_dh_300-prng-1,30_issda_300,300,rng-300,91,rng,num-start-281,281,25726,11.052145957946777,True,,True,1,False,1000,True,1.0
./expes/v2_2020-12-03_dh_300-prng-1,30_issda_300,300,rng-300,91,rng,num-start-771,771,25726,30.8742778301239,True,,True,1,False,1000,True,1.0
./expes/v2_2020-12-03_dh_300-prng-1,30_issda_300,300,rng-300,51,rng,num-start-101,101,25726,4.915681600570679,True,,True,1,False,1000,True,1.0
./expes/v2_2020-12-03_dh_300-prng-1,30_issda_300,300,rng-300,261,rng,num-start-401,401,25726,16.21530556678772,True,,True,1,False,1000,True,1.0
./expes/v2_2020-12-03_dh_300-prng-1,30_issda_300,300,rng-300,261,rng,num-start-381,381,25726,14.537890434265137,True,,True,1,False,1000,True,1.0
./expes/v2_2020-12-03_dh_300-prng-1,30_issda_300,300,rng-300,101,rng,num-start-61,61,25726,1002.0983610153198,False,,False,0,True,1000,True,0.0
./expes/v2_2020-12-03_dh_300-prng-1,30_issda_300,300,rng-300,21,rng,num-start-921,921,25726,33.39903473854065,True,,True,1,False,1000,True,1.0
./expes/v2_2020-12-03_dh_300-prng-1,30_issda_300,300,rng-300,1,rng,num-start-491,491,25726,16.38710880279541,True,,True,1,False,1000,True,1.0
./expes/v2_2020-12-03_dh_300-prng-1,30_issda_300,300,rng-300,191,rng,num-start-701,701,25726,27.140664100646973,True,,True,1,False,1000,True,1.0
./expes/v2_2020-12-03_dh_300-prng-1,30_issda_300,300,rng-300,191,rng,num-start-641,641,25726,25.322321891784668,True,,True,1,False,1000,True,1.0
./expes/v2_2020-12-03_dh_300-prng-1,30_issda_300,300,rng-300,271,rng,num-start-441,441,25726,17.02668809890747,True,,True,1,False,1000,True,1.0
./expes/v2_2020-12-03_dh_300-prng-1,30_issda_300,300,rng-300,151,rng,num-start-271,271,25726,11.823898315429688,True,,True,1,False,1000,True,1.0
./expes/v2_2020-12-03_dh_300-prng-1,30_issda_300,300,rng-300,131,rng,num-start-901,901,25726,35.56542158126831,True,,True,1,False,1000,True,1.0
./expes/v2_2020-12-03_dh_300-prng-1,30_issda_300,300,rng-300,111,rng,num-start-441,441,25726,17.405902862548828,True,,True,1,False,1000,True,1.0
./expes/v2_2020-12-03_dh_300-prng-1,30_issda_300,300,rng-300,211,rng,num-start-21,21,25726,1000.8958492279053,False,,False,0,True,1000,True,0.0
./expes/v2_2020-12-03_dh_300-prng-1,30_issda_300,300,rng-300,21,rng,num-start-841,841,25726,31.085758447647095,True,,True,1,False,1000,True,1.0
./expes/v2_2020-12-03_dh_300-prng-1,30_issda_300,300,rng-300,111,rng,num-start-161,161,25726,6.907680988311768,True,,True,1,False,1000,True,1.0
./expes/v2_2020-12-03_dh_300-prng-1,30_issda_300,300,rng-300,141,rng,num-start-811,811,25726,34.252888917922974,True,,True,1,False,1000,True,1.0
./expes/v2_2020-12-03_dh_300-prng-1,30_issda_300,300,rng-300,81,rng,num-start-431,431,25726,16.152469396591187,True,,True,1,False,1000,True,1.0
./expes/v2_2020-12-03_dh_300-prng-1,30_issda_300,300,rng-300,251,rng,num-start-781,781,25726,28.4052517414093,True,,True,1,False,1000,True,1.0
./expes/v2_2020-12-03_dh_300-prng-1,30_issda_300,300,rng-300,181,rng,num-start-391,391,25726,15.649266242980957,True,,True,1,False,1000,True,1.0
./expes/v2_2020-12-03_dh_300-prng-1,30_issda_300,300,rng-300,1,rng,num-start-781,781,25726,25.984378814697266,True,,True,1,False,1000,True,1.0
./expes/v2_2020-12-03_dh_300-prng-1,30_issda_300,300,rng-300,61,rng,num-start-571,571,25726,21.240814447402954,True,,True,1,False,1000,True,1.0
./expes/v2_2020-12-03_dh_300-prng-1,30_issda_300,300,rng-300,231,rng,num-start-471,471,25726,19.08498501777649,True,,True,1,False,1000,True,1.0
./expes/v2_2020-12-03_dh_300-prng-1,30_issda_300,300,rng-300,1,rng,num-start-221,221,25726,7.909728288650513,True,,True,1,False,1000,True,1.0
./expes/v2_2020-12-03_dh_300-prng-1,30_issda_300,300,rng-300,211,rng,num-start-241,241,25726,9.892576456069946,True,,True,1,False,1000,True,1.0
./expes/v2_2020-12-03_dh_300-prng-1,30_issda_300,300,rng-300,261,rng,num-start-431,431,25726,17.246431827545166,True,,True,1,False,1000,True,1.0
./expes/v2_2020-12-03_dh_300-prng-1,30_issda_300,300,rng-300,41,rng,num-start-151,151,25726,6.4560534954071045,True,,True,1,False,1000,True,1.0
./expes/v2_2020-12-03_dh_300-prng-1,30_issda_300,300,rng-300,221,rng,num-start-541,541,25726,21.955631971359253,True,,True,1,False,1000,True,1.0
./expes/v2_2020-12-03_dh_300-prng-1,30_issda_300,300,rng-300,181,rng,num-start-951,951,25726,41.53781056404114,True,,True,1,False,1000,True,1.0
./expes/v2_2020-12-03_dh_300-prng-1,30_issda_300,300,rng-300,171,rng,num-start-901,901,25726,37.08596467971802,True,,True,1,False,1000,True,1.0
./expes/v2_2020-12-03_dh_300-prng-1,30_issda_300,300,rng-300,51,rng,num-start-831,831,25726,34.68704342842102,True,,True,1,False,1000,True,1.0
./expes/v2_2020-12-03_dh_300-prng-1,30_issda_300,300,rng-300,281,rng,num-start-981,981,25726,37.08174014091492,True,,True,1,False,1000,True,1.0
./expes/v2_2020-12-03_dh_300-prng-1,30_issda_300,300,rng-300,201,rng,num-start-281,281,25726,11.308953762054443,True,,True,1,False,1000,True,1.0
./expes/v2_2020-12-03_dh_300-prng-1,30_issda_300,300,rng-300,31,rng,num-start-801,801,25726,31.65069603919983,True,,True,1,False,1000,True,1.0
./expes/v2_2020-12-03_dh_300-prng-1,30_issda_300,300,rng-300,81,rng,num-start-601,601,25726,24.678784370422363,True,,True,1,False,1000,True,1.0
./expes/v2_2020-12-03_dh_300-prng-1,30_issda_300,300,rng-300,251,rng,num-start-901,901,25726,34.91840863227844,True,,True,1,False,1000,True,1.0
./expes/v2_2020-12-03_dh_300-prng-1,30_issda_300,300,rng-300,1,rng,num-start-671,671,25726,23.74117088317871,True,,True,1,False,1000,True,1.0
./expes/v2_2020-12-03_dh_300-prng-1,30_issda_300,300,rng-300,61,rng,num-start-411,411,25726,17.195730447769165,True,,True,1,False,1000,True,1.0
./expes/v2_2020-12-03_dh_300-prng-1,30_issda_300,300,rng-300,211,rng,num-start-371,371,25726,14.839139223098755,True,,True,1,False,1000,True,1.0
./expes/v2_2020-12-03_dh_300-prng-1,30_issda_300,300,rng-300,121,rng,num-start-481,481,25726,20.71106719970703,True,,True,1,False,1000,True,1.0
./expes/v2_2020-12-03_dh_300-prng-1,30_issda_300,300,rng-300,1,rng,num-start-541,541,25726,18.48695945739746,True,,True,1,False,1000,True,1.0
./expes/v2_2020-12-03_dh_300-prng-1,30_issda_300,300,rng-300,261,rng,num-start-341,341,25726,13.06126880645752,True,,True,1,False,1000,True,1.0
./expes/v2_2020-12-03_dh_300-prng-1,30_issda_300,300,rng-300,61,rng,num-start-691,691,25726,27.248650550842285,True,,True,1,False,1000,True,1.0
./expes/v2_2020-12-03_dh_300-prng-1,30_issda_300,300,rng-300,191,rng,num-start-881,881,25726,35.79458808898926,True,,True,1,False,1000,True,1.0
./expes/v2_2020-12-03_dh_300-prng-1,30_issda_300,300,rng-300,291,rng,num-start-871,871,25726,30.42630696296692,True,,True,1,False,1000,True,1.0
./expes/v2_2020-12-03_dh_300-prng-1,30_issda_300,300,rng-300,141,rng,num-start-31,31,25726,1001.2075791358948,False,,False,0,True,1000,True,0.0
./expes/v2_2020-12-03_dh_300-prng-1,30_issda_300,300,rng-300,91,rng,num-start-341,341,25726,13.344555616378784,True,,True,1,False,1000,True,1.0
./expes/v2_2020-12-03_dh_300-prng-1,30_issda_300,300,rng-300,91,rng,num-start-91,91,25726,54.132566690444946,True,,True,1,False,1000,True,1.0
./expes/v2_2020-12-03_dh_300-prng-1,30_issda_300,300,rng-300,61,rng,num-start-51,51,25726,1001.9013850688934,False,,False,0,True,1000,True,0.0
./expes/v2_2020-12-03_dh_300-prng-1,30_issda_300,300,rng-300,11,rng,num-start-551,551,25726,18.919015407562256,True,,True,1,False,1000,True,1.0
./expes/v2_2020-12-03_dh_300-prng-1,30_issda_300,300,rng-300,121,rng,num-start-981,981,25726,40.468806743621826,True,,True,1,False,1000,True,1.0
./expes/v2_2020-12-03_dh_300-prng-1,30_issda_300,300,rng-300,51,rng,num-start-161,161,25726,6.661501884460449,True,,True,1,False,1000,True,1.0
./expes/v2_2020-12-03_dh_300-prng-1,30_issda_300,300,rng-300,141,rng,num-start-541,541,25726,20.624595403671265,True,,True,1,False,1000,True,1.0
./expes/v2_2020-12-03_dh_300-prng-1,30_issda_300,300,rng-300,11,rng,num-start-601,601,25726,22.78805422782898,True,,True,1,False,1000,True,1.0
./expes/v2_2020-12-03_dh_300-prng-1,30_issda_300,300,rng-300,261,rng,num-start-421,421,25726,16.19023633003235,True,,True,1,False,1000,True,1.0
./expes/v2_2020-12-03_dh_300-prng-1,30_issda_300,300,rng-300,181,rng,num-start-531,531,25726,21.114160776138306,True,,True,1,False,1000,True,1.0
./expes/v2_2020-12-03_dh_300-prng-1,30_issda_300,300,rng-300,71,rng,num-start-561,561,25726,22.716636180877686,True,,True,1,False,1000,True,1.0
./expes/v2_2020-12-03_dh_300-prng-1,30_issda_300,300,rng-300,251,rng,num-start-461,461,25726,17.622883796691895,True,,True,1,False,1000,True,1.0
./expes/v2_2020-12-03_dh_300-prng-1,30_issda_300,300,rng-300,101,rng,num-start-191,191,25726,7.999067544937134,True,,True,1,False,1000,True,1.0
./expes/v2_2020-12-03_dh_300-prng-1,30_issda_300,300,rng-300,151,rng,num-start-741,741,25726,29.995490312576294,True,,True,1,False,1000,True,1.0
./expes/v2_2020-12-03_dh_300-prng-1,30_issda_300,300,rng-300,51,rng,num-start-71,71,25726,18.843509912490845,True,,True,1,False,1000,True,1.0
./expes/v2_2020-12-03_dh_300-prng-1,30_issda_300,300,rng-300,21,rng,num-start-111,111,25726,4.488692045211792,True,,True,1,False,1000,True,1.0
./expes/v2_2020-12-03_dh_300-prng-1,30_issda_300,300,rng-300,51,rng,num-start-891,891,25726,34.037423849105835,True,,True,1,False,1000,True,1.0
./expes/v2_2020-12-03_dh_300-prng-1,30_issda_300,300,rng-300,101,rng,num-start-841,841,25726,34.09313917160034,True,,True,1,False,1000,True,1.0
./expes/v2_2020-12-03_dh_300-prng-1,30_issda_300,300,rng-300,141,rng,num-start-981,981,25726,39.29355835914612,True,,True,1,False,1000,True,1.0
./expes/v2_2020-12-03_dh_300-prng-1,30_issda_300,300,rng-300,41,rng,num-start-561,561,25726,21.015885829925537,True,,True,1,False,1000,True,1.0
./expes/v2_2020-12-03_dh_300-prng-1,30_issda_300,300,rng-300,41,rng,num-start-221,221,25726,9.083959341049194,True,,True,1,False,1000,True,1.0
