expe,clients,clients_size,clients_subset,agg_size,method,days,days_size,days_total,time,valid,valid_sum,success,nsols,wall_hit,wall_time,pooled,valid_sums
./expes/v2_2020-12-01_dh_2000-prng-1,30_issda_2000,2000,rng-2000,1,rng,num-start-11001,11001,25726,2113.0060987472534,True,,True,1,False,1000,True,1.0
./expes/v2_2020-12-01_dh_2000-prng-1,30_issda_2000,2000,rng-2000,1001,rng,num-start-5001,5001,25726,1938.8411769866943,False,,False,1,True,1000,True,0.0
./expes/v2_2020-12-01_dh_2000-prng-1,30_issda_2000,2000,rng-2000,1001,rng,num-start-9001,9001,25726,2651.739003419876,False,,False,1,True,1000,True,0.0
./expes/v2_2020-12-01_dh_2000-prng-1,30_issda_2000,2000,rng-2000,1001,rng,num-start-8001,8001,25726,2461.3088676929474,False,,False,1,True,1000,True,0.0
./expes/v2_2020-12-01_dh_2000-prng-1,30_issda_2000,2000,rng-2000,1,rng,num-start-3001,3001,25726,551.3165724277496,True,,True,1,False,1000,True,1.0
./expes/v2_2020-12-01_dh_2000-prng-1,30_issda_2000,2000,rng-2000,1,rng,num-start-4001,4001,25726,759.118260383606,True,,True,1,False,1000,True,1.0
./expes/v2_2020-12-01_dh_2000-prng-1,30_issda_2000,2000,rng-2000,1,rng,num-start-10001,10001,25726,1866.7607853412628,True,,True,1,False,1000,True,1.0
./expes/v2_2020-12-01_dh_2000-prng-1,30_issda_2000,2000,rng-2000,501,rng,num-start-14001,14001,25726,3593.217052459717,False,,False,1,True,1000,True,0.0
./expes/v2_2020-12-01_dh_2000-prng-1,30_issda_2000,2000,rng-2000,1501,rng,num-start-4001,4001,25726,1746.1757452487946,False,,False,1,True,1000,True,0.0
./expes/v2_2020-12-01_dh_2000-prng-1,30_issda_2000,2000,rng-2000,1001,rng,num-start-1,1,25726,0.28103184700012207,False,,False,2,False,1000,True,1.0
./expes/v2_2020-12-01_dh_2000-prng-1,30_issda_2000,2000,rng-2000,1001,rng,num-start-10001,10001,25726,2863.849561214447,False,,False,1,True,1000,True,0.0
./expes/v2_2020-12-01_dh_2000-prng-1,30_issda_2000,2000,rng-2000,1,rng,num-start-2001,2001,25726,377.21410942077637,True,,True,1,False,1000,True,1.0
./expes/v2_2020-12-01_dh_2000-prng-1,30_issda_2000,2000,rng-2000,1001,rng,num-start-7001,7001,25726,2291.214739561081,False,,False,1,True,1000,True,0.0
./expes/v2_2020-12-01_dh_2000-prng-1,30_issda_2000,2000,rng-2000,501,rng,num-start-15001,15001,25726,3817.5462214946747,False,,False,1,True,1000,True,0.0
./expes/v2_2020-12-01_dh_2000-prng-1,30_issda_2000,2000,rng-2000,1001,rng,num-start-5001,5001,25726,1932.8071472644806,False,,False,1,True,1000,True,0.0
./expes/v2_2020-12-01_dh_2000-prng-1,30_issda_2000,2000,rng-2000,1001,rng,num-start-15001,15001,25726,3827.2909359931946,False,,False,1,True,1000,True,0.0
