expe,clients,clients_size,clients_subset,agg_size,method,days,days_size,days_total,time,valid,valid_sum,success,nsols,wall_hit,wall_time,pooled,valid_sums
./expes/v2_2020-12-01_dh_2000-prng-1,30_issda_2000,2000,rng-2000,1501,rng,num-start-11001,11001,25726,3126.5912742614746,False,,False,1,True,1000,True,0.0
./expes/v2_2020-12-01_dh_2000-prng-1,30_issda_2000,2000,rng-2000,1501,rng,num-start-8001,8001,25726,2499.770310640335,False,,False,1,True,1000,True,0.0
./expes/v2_2020-12-01_dh_2000-prng-1,30_issda_2000,2000,rng-2000,501,rng,num-start-3001,3001,25726,1565.2980053424835,False,,False,1,True,1000,True,0.0
./expes/v2_2020-12-01_dh_2000-prng-1,30_issda_2000,2000,rng-2000,1,rng,num-start-12001,12001,25726,2231.3066639900208,True,,True,1,False,1000,True,1.0
