expe,clients,clients_size,clients_subset,agg_size,method,days,days_size,days_total,time,valid,valid_sum,success,nsols,wall_hit,wall_time,pooled,valid_sums
./expes/v2_2020-11-23_di_250-prng-1,daily_issda_300,300,rng-300,191,rng,num-start-21,21,536,1000.7151651382446,False,,False,0,True,1000,True,0.0
./expes/v2_2020-11-23_di_250-prng-1,daily_issda_300,300,rng-300,281,rng,num-start-241,241,536,7.506844758987427,True,,True,1,False,1000,True,1.0
./expes/v2_2020-11-23_di_250-prng-1,daily_issda_300,300,rng-300,241,rng,num-start-241,241,536,8.030144691467285,True,,True,1,False,1000,True,1.0
./expes/v2_2020-11-23_di_250-prng-1,daily_issda_300,300,rng-300,21,rng,num-start-211,211,536,7.131486177444458,True,,True,1,False,1000,True,1.0
./expes/v2_2020-11-23_di_250-prng-1,daily_issda_300,300,rng-300,241,rng,num-start-71,71,536,1001.9818203449249,False,,False,0,True,1000,True,0.0
./expes/v2_2020-11-23_di_250-prng-1,daily_issda_300,300,rng-300,31,rng,num-start-71,71,536,2.9008705615997314,True,,True,1,False,1000,True,1.0
./expes/v2_2020-11-23_di_250-prng-1,daily_issda_300,300,rng-300,61,rng,num-start-251,251,536,9.85645341873169,True,,True,1,False,1000,True,1.0
./expes/v2_2020-11-23_di_250-prng-1,daily_issda_300,300,rng-300,191,rng,num-start-161,161,536,5.7079079151153564,True,,True,1,False,1000,True,1.0
./expes/v2_2020-11-23_di_250-prng-1,daily_issda_300,300,rng-300,291,rng,num-start-181,181,536,5.7721428871154785,True,,True,1,False,1000,True,1.0
./expes/v2_2020-11-23_di_250-prng-1,daily_issda_300,300,rng-300,91,rng,num-start-201,201,536,7.729480981826782,True,,True,1,False,1000,True,1.0
./expes/v2_2020-11-23_di_250-prng-1,daily_issda_300,300,rng-300,81,rng,num-start-71,71,536,1001.9248471260071,False,,False,0,True,1000,True,0.0
./expes/v2_2020-11-23_di_250-prng-1,daily_issda_300,300,rng-300,101,rng,num-start-171,171,536,6.563486814498901,True,,True,1,False,1000,True,1.0
./expes/v2_2020-11-23_di_250-prng-1,daily_issda_300,300,rng-300,51,rng,num-start-91,91,536,4.8212058544158936,True,,True,1,False,1000,True,1.0
./expes/v2_2020-11-23_di_250-prng-1,daily_issda_300,300,rng-300,21,rng,num-start-11,11,536,1001.8826885223389,False,,False,0,True,1000,True,0.0
./expes/v2_2020-11-23_di_250-prng-1,daily_issda_300,300,rng-300,231,rng,num-start-141,141,536,4.94192910194397,True,,True,1,False,1000,True,1.0
./expes/v2_2020-11-23_di_250-prng-1,daily_issda_300,300,rng-300,81,rng,num-start-141,141,536,5.198466539382935,True,,True,1,False,1000,True,1.0
./expes/v2_2020-11-23_di_250-prng-1,daily_issda_300,300,rng-300,121,rng,num-start-151,151,536,5.559171199798584,True,,True,1,False,1000,True,1.0
./expes/v2_2020-11-23_di_250-prng-1,daily_issda_300,300,rng-300,11,rng,num-start-31,31,536,1.3102641105651855,True,,True,1,False,1000,True,1.0
./expes/v2_2020-11-23_di_250-prng-1,daily_issda_300,300,rng-300,231,rng,num-start-171,171,536,6.113028287887573,True,,True,1,False,1000,True,1.0
./expes/v2_2020-11-23_di_250-prng-1,daily_issda_300,300,rng-300,171,rng,num-start-141,141,536,5.968954801559448,True,,True,1,False,1000,True,1.0
./expes/v2_2020-11-23_di_250-prng-1,daily_issda_300,300,rng-300,91,rng,num-start-291,291,536,9.565855026245117,True,,True,1,False,1000,True,1.0
./expes/v2_2020-11-23_di_250-prng-1,daily_issda_300,300,rng-300,241,rng,num-start-291,291,536,9.97128415107727,True,,True,1,False,1000,True,1.0
./expes/v2_2020-11-23_di_250-prng-1,daily_issda_300,300,rng-300,101,rng,num-start-161,161,536,5.8753662109375,True,,True,1,False,1000,True,1.0
./expes/v2_2020-11-23_di_250-prng-1,daily_issda_300,300,rng-300,251,rng,num-start-131,131,536,4.445728778839111,True,,True,1,False,1000,True,1.0
./expes/v2_2020-11-23_di_250-prng-1,daily_issda_300,300,rng-300,161,rng,num-start-271,271,536,8.91555380821228,True,,True,1,False,1000,True,1.0
./expes/v2_2020-11-23_di_250-prng-1,daily_issda_300,300,rng-300,91,rng,num-start-11,11,536,1000.3795847892761,False,,False,0,True,1000,True,0.0
./expes/v2_2020-11-23_di_250-prng-1,daily_issda_300,300,rng-300,51,rng,num-start-191,191,536,5.847957134246826,True,,True,1,False,1000,True,1.0
./expes/v2_2020-11-23_di_250-prng-1,daily_issda_300,300,rng-300,161,rng,num-start-141,141,536,5.144745588302612,True,,True,1,False,1000,True,1.0
./expes/v2_2020-11-23_di_250-prng-1,daily_issda_300,300,rng-300,161,rng,num-start-221,221,536,7.895090341567993,True,,True,1,False,1000,True,1.0
./expes/v2_2020-11-23_di_250-prng-1,daily_issda_300,300,rng-300,181,rng,num-start-191,191,536,6.832970380783081,True,,True,1,False,1000,True,1.0
./expes/v2_2020-11-23_di_250-prng-1,daily_issda_300,300,rng-300,261,rng,num-start-81,81,536,3.989652633666992,True,,True,1,False,1000,True,1.0
./expes/v2_2020-11-23_di_250-prng-1,daily_issda_300,300,rng-300,261,rng,num-start-191,191,536,6.360817909240723,True,,True,1,False,1000,True,1.0
./expes/v2_2020-11-23_di_250-prng-1,daily_issda_300,300,rng-300,201,rng,num-start-261,261,536,8.500487565994263,True,,True,1,False,1000,True,1.0
./expes/v2_2020-11-23_di_250-prng-1,daily_issda_300,300,rng-300,251,rng,num-start-71,71,536,23.64676022529602,True,,True,1,False,1000,True,1.0
./expes/v2_2020-11-23_di_250-prng-1,daily_issda_300,300,rng-300,121,rng,num-start-181,181,536,7.032941102981567,True,,True,1,False,1000,True,1.0
./expes/v2_2020-11-23_di_250-prng-1,daily_issda_300,300,rng-300,101,rng,num-start-231,231,536,8.379907846450806,True,,True,1,False,1000,True,1.0
./expes/v2_2020-11-23_di_250-prng-1,daily_issda_300,300,rng-300,41,rng,num-start-241,241,536,7.645050048828125,True,,True,1,False,1000,True,1.0
./expes/v2_2020-11-23_di_250-prng-1,daily_issda_300,300,rng-300,121,rng,num-start-81,81,536,1002.1045665740967,False,,False,0,True,1000,True,0.0
./expes/v2_2020-11-23_di_250-prng-1,daily_issda_300,300,rng-300,21,rng,num-start-131,131,536,4.742153644561768,True,,True,1,False,1000,True,1.0
./expes/v2_2020-11-23_di_250-prng-1,daily_issda_300,300,rng-300,261,rng,num-start-41,41,536,1001.4346849918365,False,,False,0,True,1000,True,0.0
./expes/v2_2020-11-23_di_250-prng-1,daily_issda_300,300,rng-300,151,rng,num-start-151,151,536,5.471126317977905,True,,True,1,False,1000,True,1.0
./expes/v2_2020-11-23_di_250-prng-1,daily_issda_300,300,rng-300,251,rng,num-start-61,61,536,1001.7507066726685,False,,False,0,True,1000,True,0.0
./expes/v2_2020-11-23_di_250-prng-1,daily_issda_300,300,rng-300,271,rng,num-start-31,31,536,1001.5069472789764,False,,False,0,True,1000,True,0.0
./expes/v2_2020-11-23_di_250-prng-1,daily_issda_300,300,rng-300,111,rng,num-start-51,51,536,1001.5575785636902,False,,False,0,True,1000,True,0.0
./expes/v2_2020-11-23_di_250-prng-1,daily_issda_300,300,rng-300,91,rng,num-start-121,121,536,7.578240871429443,True,,True,1,False,1000,True,1.0
./expes/v2_2020-11-23_di_250-prng-1,daily_issda_300,300,rng-300,281,rng,num-start-91,91,536,2.859814405441284,True,,True,1,False,1000,True,1.0
./expes/v2_2020-11-23_di_250-prng-1,daily_issda_300,300,rng-300,21,rng,num-start-211,211,536,7.800314426422119,True,,True,1,False,1000,True,1.0
./expes/v2_2020-11-23_di_250-prng-1,daily_issda_300,300,rng-300,41,rng,num-start-11,11,536,1000.5505669116974,False,,False,0,True,1000,True,0.0
./expes/v2_2020-11-23_di_250-prng-1,daily_issda_300,300,rng-300,31,rng,num-start-21,21,536,1001.0529782772064,False,,False,0,True,1000,True,0.0
./expes/v2_2020-11-23_di_250-prng-1,daily_issda_300,300,rng-300,281,rng,num-start-231,231,536,7.372265100479126,True,,True,1,False,1000,True,1.0
./expes/v2_2020-11-23_di_250-prng-1,daily_issda_300,300,rng-300,151,rng,num-start-141,141,536,9.20881700515747,True,,True,1,False,1000,True,1.0
./expes/v2_2020-11-23_di_250-prng-1,daily_issda_300,300,rng-300,251,rng,num-start-21,21,536,1000.6739320755005,False,,False,0,True,1000,True,0.0
./expes/v2_2020-11-23_di_250-prng-1,daily_issda_300,300,rng-300,261,rng,num-start-71,71,536,4.523877382278442,True,,True,1,False,1000,True,1.0
./expes/v2_2020-11-23_di_250-prng-1,daily_issda_300,300,rng-300,51,rng,num-start-171,171,536,5.633440256118774,True,,True,1,False,1000,True,1.0
./expes/v2_2020-11-23_di_250-prng-1,daily_issda_300,300,rng-300,51,rng,num-start-271,271,536,9.655115127563477,True,,True,1,False,1000,True,1.0
./expes/v2_2020-11-23_di_250-prng-1,daily_issda_300,300,rng-300,41,rng,num-start-281,281,536,9.25326418876648,True,,True,1,False,1000,True,1.0
./expes/v2_2020-11-23_di_250-prng-1,daily_issda_300,300,rng-300,271,rng,num-start-181,181,536,5.836472511291504,True,,True,1,False,1000,True,1.0
./expes/v2_2020-11-23_di_250-prng-1,daily_issda_300,300,rng-300,31,rng,num-start-221,221,536,7.076780796051025,True,,True,1,False,1000,True,1.0
./expes/v2_2020-11-23_di_250-prng-1,daily_issda_300,300,rng-300,231,rng,num-start-131,131,536,4.751595735549927,True,,True,1,False,1000,True,1.0
./expes/v2_2020-11-23_di_250-prng-1,daily_issda_300,300,rng-300,151,rng,num-start-261,261,536,10.173427820205688,True,,True,1,False,1000,True,1.0
./expes/v2_2020-11-23_di_250-prng-1,daily_issda_300,300,rng-300,151,rng,num-start-241,241,536,9.321837902069092,True,,True,1,False,1000,True,1.0
./expes/v2_2020-11-23_di_250-prng-1,daily_issda_300,300,rng-300,11,rng,num-start-231,231,536,6.671472549438477,True,,True,1,False,1000,True,1.0
./expes/v2_2020-11-23_di_250-prng-1,daily_issda_300,300,rng-300,251,rng,num-start-71,71,536,900.5674905776978,True,,True,1,False,1000,True,1.0
./expes/v2_2020-11-23_di_250-prng-1,daily_issda_300,300,rng-300,151,rng,num-start-31,31,536,1001.3379352092743,False,,False,0,True,1000,True,0.0
./expes/v2_2020-11-23_di_250-prng-1,daily_issda_300,300,rng-300,271,rng,num-start-281,281,536,8.933180570602417,True,,True,1,False,1000,True,1.0
./expes/v2_2020-11-23_di_250-prng-1,daily_issda_300,300,rng-300,191,rng,num-start-161,161,536,5.934983253479004,True,,True,1,False,1000,True,1.0
./expes/v2_2020-11-23_di_250-prng-1,daily_issda_300,300,rng-300,261,rng,num-start-51,51,536,1001.5241379737854,False,,False,0,True,1000,True,0.0
./expes/v2_2020-11-23_di_250-prng-1,daily_issda_300,300,rng-300,291,rng,num-start-171,171,536,4.998477935791016,True,,True,1,False,1000,True,1.0
./expes/v2_2020-11-23_di_250-prng-1,daily_issda_300,300,rng-300,71,rng,num-start-121,121,536,4.431202411651611,True,,True,1,False,1000,True,1.0
./expes/v2_2020-11-23_di_250-prng-1,daily_issda_300,300,rng-300,51,rng,num-start-41,41,536,1021.4110689163208,False,,False,0,True,1000,True,0.0
./expes/v2_2020-11-23_di_250-prng-1,daily_issda_300,300,rng-300,111,rng,num-start-81,81,536,1002.19118309021,False,,False,0,True,1000,True,0.0
./expes/v2_2020-11-23_di_250-prng-1,daily_issda_300,300,rng-300,71,rng,num-start-1,1,536,1.304255723953247,False,,False,2,False,1000,True,1.0
./expes/v2_2020-11-23_di_250-prng-1,daily_issda_300,300,rng-300,181,rng,num-start-191,191,536,6.916107654571533,True,,True,1,False,1000,True,1.0
./expes/v2_2020-11-23_di_250-prng-1,daily_issda_300,300,rng-300,31,rng,num-start-151,151,536,5.204668045043945,True,,True,1,False,1000,True,1.0
./expes/v2_2020-11-23_di_250-prng-1,daily_issda_300,300,rng-300,201,rng,num-start-1,1,536,4.477581024169922,False,,False,2,False,1000,True,1.0
./expes/v2_2020-11-23_di_250-prng-1,daily_issda_300,300,rng-300,101,rng,num-start-181,181,536,6.791896820068359,True,,True,1,False,1000,True,1.0
./expes/v2_2020-11-23_di_250-prng-1,daily_issda_300,300,rng-300,221,rng,num-start-31,31,536,1000.9038050174713,False,,False,0,True,1000,True,0.0
./expes/v2_2020-11-23_di_250-prng-1,daily_issda_300,300,rng-300,261,rng,num-start-51,51,536,1001.4438610076904,False,,False,0,True,1000,True,0.0
./expes/v2_2020-11-23_di_250-prng-1,daily_issda_300,300,rng-300,151,rng,num-start-111,111,536,29.22494411468506,True,,True,1,False,1000,True,1.0
./expes/v2_2020-11-23_di_250-prng-1,daily_issda_300,300,rng-300,221,rng,num-start-101,101,536,6.653272390365601,True,,True,1,False,1000,True,1.0
./expes/v2_2020-11-23_di_250-prng-1,daily_issda_300,300,rng-300,81,rng,num-start-81,81,536,1002.1968350410461,False,,False,0,True,1000,True,0.0
./expes/v2_2020-11-23_di_250-prng-1,daily_issda_300,300,rng-300,1,rng,num-start-11,11,536,0.29137730598449707,True,,True,1,False,1000,True,1.0
./expes/v2_2020-11-23_di_250-prng-1,daily_issda_300,300,rng-300,11,rng,num-start-201,201,536,7.039004564285278,True,,True,1,False,1000,True,1.0
./expes/v2_2020-11-23_di_250-prng-1,daily_issda_300,300,rng-300,31,rng,num-start-21,21,536,1000.8911793231964,False,,False,0,True,1000,True,0.0
./expes/v2_2020-11-23_di_250-prng-1,daily_issda_300,300,rng-300,1,rng,num-start-81,81,536,2.191077470779419,True,,True,1,False,1000,True,1.0
./expes/v2_2020-11-23_di_250-prng-1,daily_issda_300,300,rng-300,11,rng,num-start-71,71,536,2.2727530002593994,True,,True,1,False,1000,True,1.0
./expes/v2_2020-11-23_di_250-prng-1,daily_issda_300,300,rng-300,1,rng,num-start-61,61,536,1.5857317447662354,True,,True,1,False,1000,True,1.0
./expes/v2_2020-11-23_di_250-prng-1,daily_issda_300,300,rng-300,11,rng,num-start-271,271,536,8.008063316345215,True,,True,1,False,1000,True,1.0
./expes/v2_2020-11-23_di_250-prng-1,daily_issda_300,300,rng-300,271,rng,num-start-171,171,536,5.180352210998535,True,,True,1,False,1000,True,1.0
./expes/v2_2020-11-23_di_250-prng-1,daily_issda_300,300,rng-300,151,rng,num-start-191,191,536,6.91861629486084,True,,True,1,False,1000,True,1.0
./expes/v2_2020-11-23_di_250-prng-1,daily_issda_300,300,rng-300,111,rng,num-start-41,41,536,1001.1439180374146,False,,False,0,True,1000,True,0.0
./expes/v2_2020-11-23_di_250-prng-1,daily_issda_300,300,rng-300,31,rng,num-start-231,231,536,7.702373504638672,True,,True,1,False,1000,True,1.0
./expes/v2_2020-11-23_di_250-prng-1,daily_issda_300,300,rng-300,221,rng,num-start-171,171,536,6.548878192901611,True,,True,1,False,1000,True,1.0
./expes/v2_2020-11-23_di_250-prng-1,daily_issda_300,300,rng-300,31,rng,num-start-251,251,536,8.959837675094604,True,,True,1,False,1000,True,1.0
./expes/v2_2020-11-23_di_250-prng-1,daily_issda_300,300,rng-300,281,rng,num-start-181,181,536,5.791200637817383,True,,True,1,False,1000,True,1.0
./expes/v2_2020-11-23_di_250-prng-1,daily_issda_300,300,rng-300,271,rng,num-start-71,71,536,3.755911350250244,True,,True,1,False,1000,True,1.0
./expes/v2_2020-11-23_di_250-prng-1,daily_issda_300,300,rng-300,161,rng,num-start-151,151,536,6.47491979598999,True,,True,1,False,1000,True,1.0
./expes/v2_2020-11-23_di_250-prng-1,daily_issda_300,300,rng-300,41,rng,num-start-191,191,536,6.859560012817383,True,,True,1,False,1000,True,1.0
./expes/v2_2020-11-23_di_250-prng-1,daily_issda_300,300,rng-300,281,rng,num-start-201,201,536,6.269690036773682,True,,True,1,False,1000,True,1.0
./expes/v2_2020-11-23_di_250-prng-1,daily_issda_300,300,rng-300,51,rng,num-start-121,121,536,4.4080140590667725,True,,True,1,False,1000,True,1.0
./expes/v2_2020-11-23_di_250-prng-1,daily_issda_300,300,rng-300,251,rng,num-start-291,291,536,10.04582405090332,True,,True,1,False,1000,True,1.0
./expes/v2_2020-11-23_di_250-prng-1,daily_issda_300,300,rng-300,251,rng,num-start-61,61,536,1001.7459330558777,False,,False,0,True,1000,True,0.0
./expes/v2_2020-11-23_di_250-prng-1,daily_issda_300,300,rng-300,281,rng,num-start-1,1,536,3.2582454681396484,False,,False,2,False,1000,True,1.0
./expes/v2_2020-11-23_di_250-prng-1,daily_issda_300,300,rng-300,11,rng,num-start-141,141,536,4.2586469650268555,True,,True,1,False,1000,True,1.0
./expes/v2_2020-11-23_di_250-prng-1,daily_issda_300,300,rng-300,131,rng,num-start-81,81,536,1002.2560923099518,False,,False,0,True,1000,True,0.0
./expes/v2_2020-11-23_di_250-prng-1,daily_issda_300,300,rng-300,271,rng,num-start-81,81,536,2.572885036468506,True,,True,1,False,1000,True,1.0
./expes/v2_2020-11-23_di_250-prng-1,daily_issda_300,300,rng-300,81,rng,num-start-231,231,536,7.649060964584351,True,,True,1,False,1000,True,1.0
./expes/v2_2020-11-23_di_250-prng-1,daily_issda_300,300,rng-300,81,rng,num-start-1,1,536,3.2007503509521484,False,,False,2,False,1000,True,1.0
./expes/v2_2020-11-23_di_250-prng-1,daily_issda_300,300,rng-300,151,rng,num-start-191,191,536,6.6149046421051025,True,,True,1,False,1000,True,1.0
./expes/v2_2020-11-23_di_250-prng-1,daily_issda_300,300,rng-300,221,rng,num-start-251,251,536,8.277191400527954,True,,True,1,False,1000,True,1.0
./expes/v2_2020-11-23_di_250-prng-1,daily_issda_300,300,rng-300,51,rng,num-start-241,241,536,9.390957593917847,True,,True,1,False,1000,True,1.0
./expes/v2_2020-11-23_di_250-prng-1,daily_issda_300,300,rng-300,241,rng,num-start-201,201,536,6.9443359375,True,,True,1,False,1000,True,1.0
./expes/v2_2020-11-23_di_250-prng-1,daily_issda_300,300,rng-300,21,rng,num-start-191,191,536,6.868171453475952,True,,True,1,False,1000,True,1.0
./expes/v2_2020-11-23_di_250-prng-1,daily_issda_300,300,rng-300,281,rng,num-start-141,141,536,4.318464279174805,True,,True,1,False,1000,True,1.0
./expes/v2_2020-11-23_di_250-prng-1,daily_issda_300,300,rng-300,121,rng,num-start-71,71,536,1001.8614616394043,False,,False,0,True,1000,True,0.0
./expes/v2_2020-11-23_di_250-prng-1,daily_issda_300,300,rng-300,171,rng,num-start-121,121,536,33.733726263046265,True,,True,1,False,1000,True,1.0
./expes/v2_2020-11-23_di_250-prng-1,daily_issda_300,300,rng-300,201,rng,num-start-291,291,536,10.218749284744263,True,,True,1,False,1000,True,1.0
./expes/v2_2020-11-23_di_250-prng-1,daily_issda_300,300,rng-300,11,rng,num-start-81,81,536,2.7465338706970215,True,,True,1,False,1000,True,1.0
./expes/v2_2020-11-23_di_250-prng-1,daily_issda_300,300,rng-300,21,rng,num-start-11,11,536,1001.1157360076904,False,,False,0,True,1000,True,0.0
./expes/v2_2020-11-23_di_250-prng-1,daily_issda_300,300,rng-300,111,rng,num-start-221,221,536,8.7000150680542,True,,True,1,False,1000,True,1.0
./expes/v2_2020-11-23_di_250-prng-1,daily_issda_300,300,rng-300,71,rng,num-start-221,221,536,8.052637815475464,True,,True,1,False,1000,True,1.0
./expes/v2_2020-11-23_di_250-prng-1,daily_issda_300,300,rng-300,81,rng,num-start-201,201,536,7.263139009475708,True,,True,1,False,1000,True,1.0
./expes/v2_2020-11-23_di_250-prng-1,daily_issda_300,300,rng-300,61,rng,num-start-91,91,536,6.244631767272949,True,,True,1,False,1000,True,1.0
./expes/v2_2020-11-23_di_250-prng-1,daily_issda_300,300,rng-300,181,rng,num-start-31,31,536,1000.9404199123383,False,,False,0,True,1000,True,0.0
./expes/v2_2020-11-23_di_250-prng-1,daily_issda_300,300,rng-300,261,rng,num-start-291,291,536,9.583340883255005,True,,True,1,False,1000,True,1.0
./expes/v2_2020-11-23_di_250-prng-1,daily_issda_300,300,rng-300,1,rng,num-start-121,121,536,3.313145637512207,True,,True,1,False,1000,True,1.0
./expes/v2_2020-11-23_di_250-prng-1,daily_issda_300,300,rng-300,241,rng,num-start-21,21,536,1000.6662037372589,False,,False,0,True,1000,True,0.0
./expes/v2_2020-11-23_di_250-prng-1,daily_issda_300,300,rng-300,241,rng,num-start-131,131,536,4.361567735671997,True,,True,1,False,1000,True,1.0
./expes/v2_2020-11-23_di_250-prng-1,daily_issda_300,300,rng-300,291,rng,num-start-21,21,536,1.4745762348175049,True,,True,1,False,1000,True,1.0
./expes/v2_2020-11-23_di_250-prng-1,daily_issda_300,300,rng-300,21,rng,num-start-151,151,536,5.018928289413452,True,,True,1,False,1000,True,1.0
./expes/v2_2020-11-23_di_250-prng-1,daily_issda_300,300,rng-300,291,rng,num-start-101,101,536,3.083911180496216,True,,True,1,False,1000,True,1.0
./expes/v2_2020-11-23_di_250-prng-1,daily_issda_300,300,rng-300,211,rng,num-start-171,171,536,6.137288331985474,True,,True,1,False,1000,True,1.0
./expes/v2_2020-11-23_di_250-prng-1,daily_issda_300,300,rng-300,281,rng,num-start-71,71,536,2.3903515338897705,True,,True,1,False,1000,True,1.0
./expes/v2_2020-11-23_di_250-prng-1,daily_issda_300,300,rng-300,221,rng,num-start-211,211,536,7.3585569858551025,True,,True,1,False,1000,True,1.0
./expes/v2_2020-11-23_di_250-prng-1,daily_issda_300,300,rng-300,261,rng,num-start-131,131,536,4.298972129821777,True,,True,1,False,1000,True,1.0
./expes/v2_2020-11-23_di_250-prng-1,daily_issda_300,300,rng-300,21,rng,num-start-271,271,536,7.987320899963379,True,,True,1,False,1000,True,1.0
./expes/v2_2020-11-23_di_250-prng-1,daily_issda_300,300,rng-300,151,rng,num-start-111,111,536,17.991904258728027,True,,True,1,False,1000,True,1.0
./expes/v2_2020-11-23_di_250-prng-1,daily_issda_300,300,rng-300,11,rng,num-start-291,291,536,10.31624460220337,True,,True,1,False,1000,True,1.0
./expes/v2_2020-11-23_di_250-prng-1,daily_issda_300,300,rng-300,231,rng,num-start-261,261,536,8.825895547866821,True,,True,1,False,1000,True,1.0
./expes/v2_2020-11-23_di_250-prng-1,daily_issda_300,300,rng-300,21,rng,num-start-191,191,536,5.954995632171631,True,,True,1,False,1000,True,1.0
./expes/v2_2020-11-23_di_250-prng-1,daily_issda_300,300,rng-300,161,rng,num-start-201,201,536,7.760454416275024,True,,True,1,False,1000,True,1.0
./expes/v2_2020-11-23_di_250-prng-1,daily_issda_300,300,rng-300,181,rng,num-start-291,291,536,9.898565769195557,True,,True,1,False,1000,True,1.0
./expes/v2_2020-11-23_di_250-prng-1,daily_issda_300,300,rng-300,101,rng,num-start-281,281,536,9.692906379699707,True,,True,1,False,1000,True,1.0
./expes/v2_2020-11-23_di_250-prng-1,daily_issda_300,300,rng-300,131,rng,num-start-51,51,536,1001.6641848087311,False,,False,0,True,1000,True,0.0
./expes/v2_2020-11-23_di_250-prng-1,daily_issda_300,300,rng-300,1,rng,num-start-261,261,536,7.026842832565308,True,,True,1,False,1000,True,1.0
./expes/v2_2020-11-23_di_250-prng-1,daily_issda_300,300,rng-300,141,rng,num-start-201,201,536,7.217809677124023,True,,True,1,False,1000,True,1.0
./expes/v2_2020-11-23_di_250-prng-1,daily_issda_300,300,rng-300,211,rng,num-start-181,181,536,6.4766998291015625,True,,True,1,False,1000,True,1.0
./expes/v2_2020-11-23_di_250-prng-1,daily_issda_300,300,rng-300,291,rng,num-start-51,51,536,1.629802942276001,True,,True,1,False,1000,True,1.0
./expes/v2_2020-11-23_di_250-prng-1,daily_issda_300,300,rng-300,231,rng,num-start-271,271,536,9.451722860336304,True,,True,1,False,1000,True,1.0
./expes/v2_2020-11-23_di_250-prng-1,daily_issda_300,300,rng-300,271,rng,num-start-131,131,536,4.223907947540283,True,,True,1,False,1000,True,1.0
./expes/v2_2020-11-23_di_250-prng-1,daily_issda_300,300,rng-300,191,rng,num-start-211,211,536,7.385590314865112,True,,True,1,False,1000,True,1.0
./expes/v2_2020-11-23_di_250-prng-1,daily_issda_300,300,rng-300,121,rng,num-start-21,21,536,1000.717447757721,False,,False,0,True,1000,True,0.0
./expes/v2_2020-11-23_di_250-prng-1,daily_issda_300,300,rng-300,111,rng,num-start-221,221,536,7.472622632980347,True,,True,1,False,1000,True,1.0
./expes/v2_2020-11-23_di_250-prng-1,daily_issda_300,300,rng-300,261,rng,num-start-271,271,536,8.206140518188477,True,,True,1,False,1000,True,1.0
./expes/v2_2020-11-23_di_250-prng-1,daily_issda_300,300,rng-300,231,rng,num-start-91,91,536,46.52669835090637,True,,True,1,False,1000,True,1.0
./expes/v2_2020-11-23_di_250-prng-1,daily_issda_300,300,rng-300,81,rng,num-start-141,141,536,5.664189100265503,True,,True,1,False,1000,True,1.0
./expes/v2_2020-11-23_di_250-prng-1,daily_issda_300,300,rng-300,51,rng,num-start-131,131,536,4.312139987945557,True,,True,1,False,1000,True,1.0
./expes/v2_2020-11-23_di_250-prng-1,daily_issda_300,300,rng-300,61,rng,num-start-201,201,536,6.731144428253174,True,,True,1,False,1000,True,1.0
./expes/v2_2020-11-23_di_250-prng-1,daily_issda_300,300,rng-300,291,rng,num-start-261,261,536,7.88317084312439,True,,True,1,False,1000,True,1.0
./expes/v2_2020-11-23_di_250-prng-1,daily_issda_300,300,rng-300,261,rng,num-start-51,51,536,13.661689043045044,True,,True,1,False,1000,True,1.0
./expes/v2_2020-11-23_di_250-prng-1,daily_issda_300,300,rng-300,201,rng,num-start-251,251,536,9.663334608078003,True,,True,1,False,1000,True,1.0
./expes/v2_2020-11-23_di_250-prng-1,daily_issda_300,300,rng-300,1,rng,num-start-241,241,536,6.386934280395508,True,,True,1,False,1000,True,1.0
./expes/v2_2020-11-23_di_250-prng-1,daily_issda_300,300,rng-300,181,rng,num-start-71,71,536,1001.9229567050934,False,,False,0,True,1000,True,0.0
./expes/v2_2020-11-23_di_250-prng-1,daily_issda_300,300,rng-300,201,rng,num-start-121,121,536,8.366924047470093,True,,True,1,False,1000,True,1.0
./expes/v2_2020-11-23_di_250-prng-1,daily_issda_300,300,rng-300,251,rng,num-start-41,41,536,1001.3298552036285,False,,False,0,True,1000,True,0.0
./expes/v2_2020-11-23_di_250-prng-1,daily_issda_300,300,rng-300,251,rng,num-start-41,41,536,1001.2241516113281,False,,False,0,True,1000,True,0.0
./expes/v2_2020-11-23_di_250-prng-1,daily_issda_300,300,rng-300,251,rng,num-start-201,201,536,6.309671640396118,True,,True,1,False,1000,True,1.0
./expes/v2_2020-11-23_di_250-prng-1,daily_issda_300,300,rng-300,281,rng,num-start-151,151,536,4.5823938846588135,True,,True,1,False,1000,True,1.0
./expes/v2_2020-11-23_di_250-prng-1,daily_issda_300,300,rng-300,111,rng,num-start-51,51,536,1001.5305178165436,False,,False,0,True,1000,True,0.0
./expes/v2_2020-11-23_di_250-prng-1,daily_issda_300,300,rng-300,181,rng,num-start-261,261,536,9.122216939926147,True,,True,1,False,1000,True,1.0
./expes/v2_2020-11-23_di_250-prng-1,daily_issda_300,300,rng-300,131,rng,num-start-51,51,536,1001.4093194007874,False,,False,0,True,1000,True,0.0
./expes/v2_2020-11-23_di_250-prng-1,daily_issda_300,300,rng-300,121,rng,num-start-161,161,536,6.236485481262207,True,,True,1,False,1000,True,1.0
./expes/v2_2020-11-23_di_250-prng-1,daily_issda_300,300,rng-300,261,rng,num-start-181,181,536,5.92361855506897,True,,True,1,False,1000,True,1.0
./expes/v2_2020-11-23_di_250-prng-1,daily_issda_300,300,rng-300,51,rng,num-start-151,151,536,5.343346357345581,True,,True,1,False,1000,True,1.0
./expes/v2_2020-11-23_di_250-prng-1,daily_issda_300,300,rng-300,61,rng,num-start-291,291,536,9.452427864074707,True,,True,1,False,1000,True,1.0
./expes/v2_2020-11-23_di_250-prng-1,daily_issda_300,300,rng-300,261,rng,num-start-61,61,536,19.05425214767456,True,,True,1,False,1000,True,1.0
./expes/v2_2020-11-23_di_250-prng-1,daily_issda_300,300,rng-300,91,rng,num-start-91,91,536,1002.506679058075,False,,False,0,True,1000,True,0.0
./expes/v2_2020-11-23_di_250-prng-1,daily_issda_300,300,rng-300,191,rng,num-start-11,11,536,1000.5139033794403,False,,False,0,True,1000,True,0.0
./expes/v2_2020-11-23_di_250-prng-1,daily_issda_300,300,rng-300,141,rng,num-start-41,41,536,1001.1761887073517,False,,False,0,True,1000,True,0.0
./expes/v2_2020-11-23_di_250-prng-1,daily_issda_300,300,rng-300,11,rng,num-start-91,91,536,2.971467971801758,True,,True,1,False,1000,True,1.0
./expes/v2_2020-11-23_di_250-prng-1,daily_issda_300,300,rng-300,121,rng,num-start-101,101,536,7.346309423446655,True,,True,1,False,1000,True,1.0
./expes/v2_2020-11-23_di_250-prng-1,daily_issda_300,300,rng-300,91,rng,num-start-201,201,536,7.3780622482299805,True,,True,1,False,1000,True,1.0
./expes/v2_2020-11-23_di_250-prng-1,daily_issda_300,300,rng-300,231,rng,num-start-151,151,536,5.382306337356567,True,,True,1,False,1000,True,1.0
./expes/v2_2020-11-23_di_250-prng-1,daily_issda_300,300,rng-300,1,rng,num-start-181,181,536,4.73556113243103,True,,True,1,False,1000,True,1.0
./expes/v2_2020-11-23_di_250-prng-1,daily_issda_300,300,rng-300,71,rng,num-start-151,151,536,5.374976634979248,True,,True,1,False,1000,True,1.0
./expes/v2_2020-11-23_di_250-prng-1,daily_issda_300,300,rng-300,11,rng,num-start-151,151,536,4.872622728347778,True,,True,1,False,1000,True,1.0
./expes/v2_2020-11-23_di_250-prng-1,daily_issda_300,300,rng-300,211,rng,num-start-241,241,536,7.9913153648376465,True,,True,1,False,1000,True,1.0
./expes/v2_2020-11-23_di_250-prng-1,daily_issda_300,300,rng-300,241,rng,num-start-101,101,536,7.4881672859191895,True,,True,1,False,1000,True,1.0
./expes/v2_2020-11-23_di_250-prng-1,daily_issda_300,300,rng-300,111,rng,num-start-131,131,536,5.486465930938721,True,,True,1,False,1000,True,1.0
./expes/v2_2020-11-23_di_250-prng-1,daily_issda_300,300,rng-300,61,rng,num-start-261,261,536,9.643492221832275,True,,True,1,False,1000,True,1.0
./expes/v2_2020-11-23_di_250-prng-1,daily_issda_300,300,rng-300,261,rng,num-start-141,141,536,5.080880165100098,True,,True,1,False,1000,True,1.0
./expes/v2_2020-11-23_di_250-prng-1,daily_issda_300,300,rng-300,131,rng,num-start-201,201,536,7.5534937381744385,True,,True,1,False,1000,True,1.0
./expes/v2_2020-11-23_di_250-prng-1,daily_issda_300,300,rng-300,151,rng,num-start-11,11,536,1000.4519279003143,False,,False,0,True,1000,True,0.0
./expes/v2_2020-11-23_di_250-prng-1,daily_issda_300,300,rng-300,131,rng,num-start-261,261,536,10.146312236785889,True,,True,1,False,1000,True,1.0
./expes/v2_2020-11-23_di_250-prng-1,daily_issda_300,300,rng-300,81,rng,num-start-141,141,536,4.64289402961731,True,,True,1,False,1000,True,1.0
./expes/v2_2020-11-23_di_250-prng-1,daily_issda_300,300,rng-300,171,rng,num-start-121,121,536,10.723008155822754,True,,True,1,False,1000,True,1.0
./expes/v2_2020-11-23_di_250-prng-1,daily_issda_300,300,rng-300,141,rng,num-start-71,71,536,1001.9803891181946,False,,False,0,True,1000,True,0.0
./expes/v2_2020-11-23_di_250-prng-1,daily_issda_300,300,rng-300,121,rng,num-start-131,131,536,4.627558708190918,True,,True,1,False,1000,True,1.0
./expes/v2_2020-11-23_di_250-prng-1,daily_issda_300,300,rng-300,81,rng,num-start-211,211,536,7.813416004180908,True,,True,1,False,1000,True,1.0
./expes/v2_2020-11-23_di_250-prng-1,daily_issda_300,300,rng-300,281,rng,num-start-161,161,536,5.09691047668457,True,,True,1,False,1000,True,1.0
./expes/v2_2020-11-23_di_250-prng-1,daily_issda_300,300,rng-300,51,rng,num-start-51,51,536,1001.4907376766205,False,,False,0,True,1000,True,0.0
./expes/v2_2020-11-23_di_250-prng-1,daily_issda_300,300,rng-300,71,rng,num-start-131,131,536,5.706448554992676,True,,True,1,False,1000,True,1.0
./expes/v2_2020-11-23_di_250-prng-1,daily_issda_300,300,rng-300,171,rng,num-start-81,81,536,1002.334237575531,False,,False,0,True,1000,True,0.0
./expes/v2_2020-11-23_di_250-prng-1,daily_issda_300,300,rng-300,121,rng,num-start-61,61,536,1001.9421792030334,False,,False,0,True,1000,True,0.0
./expes/v2_2020-11-23_di_250-prng-1,daily_issda_300,300,rng-300,51,rng,num-start-31,31,536,1001.0044405460358,False,,False,0,True,1000,True,0.0
./expes/v2_2020-11-23_di_250-prng-1,daily_issda_300,300,rng-300,11,rng,num-start-31,31,536,1.785414218902588,True,,True,1,False,1000,True,1.0
./expes/v2_2020-11-23_di_250-prng-1,daily_issda_300,300,rng-300,141,rng,num-start-161,161,536,6.075750350952148,True,,True,1,False,1000,True,1.0
./expes/v2_2020-11-23_di_250-prng-1,daily_issda_300,300,rng-300,131,rng,num-start-231,231,536,8.399131536483765,True,,True,1,False,1000,True,1.0
./expes/v2_2020-11-23_di_250-prng-1,daily_issda_300,300,rng-300,131,rng,num-start-1,1,536,0.8247499465942383,False,,False,2,False,1000,True,1.0
./expes/v2_2020-11-23_di_250-prng-1,daily_issda_300,300,rng-300,141,rng,num-start-51,51,536,1001.4350814819336,False,,False,0,True,1000,True,0.0
./expes/v2_2020-11-23_di_250-prng-1,daily_issda_300,300,rng-300,111,rng,num-start-171,171,536,6.507938623428345,True,,True,1,False,1000,True,1.0
./expes/v2_2020-11-23_di_250-prng-1,daily_issda_300,300,rng-300,21,rng,num-start-151,151,536,5.044156551361084,True,,True,1,False,1000,True,1.0
./expes/v2_2020-11-23_di_250-prng-1,daily_issda_300,300,rng-300,141,rng,num-start-1,1,536,2.228581190109253,False,,False,2,False,1000,True,1.0
./expes/v2_2020-11-23_di_250-prng-1,daily_issda_300,300,rng-300,41,rng,num-start-191,191,536,6.535520792007446,True,,True,1,False,1000,True,1.0
./expes/v2_2020-11-23_di_250-prng-1,daily_issda_300,300,rng-300,191,rng,num-start-201,201,536,8.169382810592651,True,,True,1,False,1000,True,1.0
./expes/v2_2020-11-23_di_250-prng-1,daily_issda_300,300,rng-300,221,rng,num-start-11,11,536,1000.4388194084167,False,,False,0,True,1000,True,0.0
./expes/v2_2020-11-23_di_250-prng-1,daily_issda_300,300,rng-300,161,rng,num-start-171,171,536,6.445056200027466,True,,True,1,False,1000,True,1.0
./expes/v2_2020-11-23_di_250-prng-1,daily_issda_300,300,rng-300,141,rng,num-start-101,101,536,1002.7967519760132,False,,False,0,True,1000,True,0.0
./expes/v2_2020-11-23_di_250-prng-1,daily_issda_300,300,rng-300,151,rng,num-start-91,91,536,1002.4781312942505,False,,False,0,True,1000,True,0.0
./expes/v2_2020-11-23_di_250-prng-1,daily_issda_300,300,rng-300,281,rng,num-start-61,61,536,2.0313162803649902,True,,True,1,False,1000,True,1.0
./expes/v2_2020-11-23_di_250-prng-1,daily_issda_300,300,rng-300,131,rng,num-start-181,181,536,6.767946004867554,True,,True,1,False,1000,True,1.0
./expes/v2_2020-11-23_di_250-prng-1,daily_issda_300,300,rng-300,231,rng,num-start-181,181,536,6.738900423049927,True,,True,1,False,1000,True,1.0
./expes/v2_2020-11-23_di_250-prng-1,daily_issda_300,300,rng-300,91,rng,num-start-181,181,536,6.789582252502441,True,,True,1,False,1000,True,1.0
./expes/v2_2020-11-23_di_250-prng-1,daily_issda_300,300,rng-300,91,rng,num-start-181,181,536,6.683675050735474,True,,True,1,False,1000,True,1.0
./expes/v2_2020-11-23_di_250-prng-1,daily_issda_300,300,rng-300,81,rng,num-start-121,121,536,5.863951921463013,True,,True,1,False,1000,True,1.0
./expes/v2_2020-11-23_di_250-prng-1,daily_issda_300,300,rng-300,121,rng,num-start-51,51,536,1001.5462248325348,False,,False,0,True,1000,True,0.0
./expes/v2_2020-11-23_di_250-prng-1,daily_issda_300,300,rng-300,211,rng,num-start-111,111,536,7.053767681121826,True,,True,1,False,1000,True,1.0
./expes/v2_2020-11-23_di_250-prng-1,daily_issda_300,300,rng-300,261,rng,num-start-51,51,536,1002.202960729599,False,,False,0,True,1000,True,0.0
./expes/v2_2020-11-23_di_250-prng-1,daily_issda_300,300,rng-300,211,rng,num-start-221,221,536,8.072885751724243,True,,True,1,False,1000,True,1.0
./expes/v2_2020-11-23_di_250-prng-1,daily_issda_300,300,rng-300,101,rng,num-start-201,201,536,7.352360963821411,True,,True,1,False,1000,True,1.0
./expes/v2_2020-11-23_di_250-prng-1,daily_issda_300,300,rng-300,51,rng,num-start-181,181,536,6.3610405921936035,True,,True,1,False,1000,True,1.0
./expes/v2_2020-11-23_di_250-prng-1,daily_issda_300,300,rng-300,201,rng,num-start-81,81,536,1002.1465907096863,False,,False,0,True,1000,True,0.0
./expes/v2_2020-11-23_di_250-prng-1,daily_issda_300,300,rng-300,11,rng,num-start-181,181,536,5.92271876335144,True,,True,1,False,1000,True,1.0
./expes/v2_2020-11-23_di_250-prng-1,daily_issda_300,300,rng-300,231,rng,num-start-1,1,536,1.1873059272766113,False,,False,2,False,1000,True,1.0
./expes/v2_2020-11-23_di_250-prng-1,daily_issda_300,300,rng-300,191,rng,num-start-91,91,536,1002.4125580787659,False,,False,0,True,1000,True,0.0
./expes/v2_2020-11-23_di_250-prng-1,daily_issda_300,300,rng-300,171,rng,num-start-71,71,536,1001.9996178150177,False,,False,0,True,1000,True,0.0
./expes/v2_2020-11-23_di_250-prng-1,daily_issda_300,300,rng-300,291,rng,num-start-31,31,536,0.9940061569213867,True,,True,1,False,1000,True,1.0
./expes/v2_2020-11-23_di_250-prng-1,daily_issda_300,300,rng-300,211,rng,num-start-231,231,536,8.629437446594238,True,,True,1,False,1000,True,1.0
./expes/v2_2020-11-23_di_250-prng-1,daily_issda_300,300,rng-300,21,rng,num-start-11,11,536,1000.531444311142,False,,False,0,True,1000,True,0.0
./expes/v2_2020-11-23_di_250-prng-1,daily_issda_300,300,rng-300,11,rng,num-start-261,261,536,9.026275396347046,True,,True,1,False,1000,True,1.0
./expes/v2_2020-11-23_di_250-prng-1,daily_issda_300,300,rng-300,101,rng,num-start-231,231,536,7.747121810913086,True,,True,1,False,1000,True,1.0
./expes/v2_2020-11-23_di_250-prng-1,daily_issda_300,300,rng-300,181,rng,num-start-221,221,536,8.849050521850586,True,,True,1,False,1000,True,1.0
./expes/v2_2020-11-23_di_250-prng-1,daily_issda_300,300,rng-300,1,rng,num-start-161,161,536,4.40382194519043,True,,True,1,False,1000,True,1.0
./expes/v2_2020-11-23_di_250-prng-1,daily_issda_300,300,rng-300,11,rng,num-start-31,31,536,1.6910035610198975,True,,True,1,False,1000,True,1.0
./expes/v2_2020-11-23_di_250-prng-1,daily_issda_300,300,rng-300,151,rng,num-start-121,121,536,8.893787622451782,True,,True,1,False,1000,True,1.0
./expes/v2_2020-11-23_di_250-prng-1,daily_issda_300,300,rng-300,211,rng,num-start-211,211,536,7.9522929191589355,True,,True,1,False,1000,True,1.0
./expes/v2_2020-11-23_di_250-prng-1,daily_issda_300,300,rng-300,61,rng,num-start-11,11,536,1000.3822796344757,False,,False,0,True,1000,True,0.0
./expes/v2_2020-11-23_di_250-prng-1,daily_issda_300,300,rng-300,141,rng,num-start-291,291,536,10.530601263046265,True,,True,1,False,1000,True,1.0
./expes/v2_2020-11-23_di_250-prng-1,daily_issda_300,300,rng-300,171,rng,num-start-121,121,536,13.598514080047607,True,,True,1,False,1000,True,1.0
./expes/v2_2020-11-23_di_250-prng-1,daily_issda_300,300,rng-300,131,rng,num-start-151,151,536,6.086106300354004,True,,True,1,False,1000,True,1.0
./expes/v2_2020-11-23_di_250-prng-1,daily_issda_300,300,rng-300,281,rng,num-start-251,251,536,8.119990587234497,True,,True,1,False,1000,True,1.0
./expes/v2_2020-11-23_di_250-prng-1,daily_issda_300,300,rng-300,221,rng,num-start-191,191,536,6.632494926452637,True,,True,1,False,1000,True,1.0
./expes/v2_2020-11-23_di_250-prng-1,daily_issda_300,300,rng-300,11,rng,num-start-1,1,536,3.3225274085998535,False,,False,2,False,1000,True,1.0
./expes/v2_2020-11-23_di_250-prng-1,daily_issda_300,300,rng-300,61,rng,num-start-61,61,536,1001.9888935089111,False,,False,0,True,1000,True,0.0
./expes/v2_2020-11-23_di_250-prng-1,daily_issda_300,300,rng-300,71,rng,num-start-281,281,536,10.202650785446167,True,,True,1,False,1000,True,1.0
./expes/v2_2020-11-23_di_250-prng-1,daily_issda_300,300,rng-300,81,rng,num-start-231,231,536,8.591250896453857,True,,True,1,False,1000,True,1.0
./expes/v2_2020-11-23_di_250-prng-1,daily_issda_300,300,rng-300,271,rng,num-start-111,111,536,3.9164681434631348,True,,True,1,False,1000,True,1.0
./expes/v2_2020-11-23_di_250-prng-1,daily_issda_300,300,rng-300,81,rng,num-start-271,271,536,9.280080795288086,True,,True,1,False,1000,True,1.0
./expes/v2_2020-11-23_di_250-prng-1,daily_issda_300,300,rng-300,271,rng,num-start-101,101,536,3.2284066677093506,True,,True,1,False,1000,True,1.0
./expes/v2_2020-11-23_di_250-prng-1,daily_issda_300,300,rng-300,161,rng,num-start-41,41,536,1001.4019351005554,False,,False,0,True,1000,True,0.0
./expes/v2_2020-11-23_di_250-prng-1,daily_issda_300,300,rng-300,181,rng,num-start-121,121,536,8.898547887802124,True,,True,1,False,1000,True,1.0
./expes/v2_2020-11-23_di_250-prng-1,daily_issda_300,300,rng-300,201,rng,num-start-31,31,536,1001.0415353775024,False,,False,0,True,1000,True,0.0
./expes/v2_2020-11-23_di_250-prng-1,daily_issda_300,300,rng-300,271,rng,num-start-71,71,536,3.7253236770629883,True,,True,1,False,1000,True,1.0
./expes/v2_2020-11-23_di_250-prng-1,daily_issda_300,300,rng-300,131,rng,num-start-261,261,536,9.41636872291565,True,,True,1,False,1000,True,1.0
./expes/v2_2020-11-23_di_250-prng-1,daily_issda_300,300,rng-300,271,rng,num-start-101,101,536,3.3896617889404297,True,,True,1,False,1000,True,1.0
./expes/v2_2020-11-23_di_250-prng-1,daily_issda_300,300,rng-300,281,rng,num-start-191,191,536,7.0114359855651855,True,,True,1,False,1000,True,1.0
./expes/v2_2020-11-23_di_250-prng-1,daily_issda_300,300,rng-300,231,rng,num-start-91,91,536,41.895920515060425,True,,True,1,False,1000,True,1.0
./expes/v2_2020-11-23_di_250-prng-1,daily_issda_300,300,rng-300,141,rng,num-start-261,261,536,10.631591796875,True,,True,1,False,1000,True,1.0
./expes/v2_2020-11-23_di_250-prng-1,daily_issda_300,300,rng-300,11,rng,num-start-31,31,536,1.8375606536865234,True,,True,1,False,1000,True,1.0
./expes/v2_2020-11-23_di_250-prng-1,daily_issda_300,300,rng-300,21,rng,num-start-291,291,536,9.580503940582275,True,,True,1,False,1000,True,1.0
./expes/v2_2020-11-23_di_250-prng-1,daily_issda_300,300,rng-300,51,rng,num-start-111,111,536,4.084729433059692,True,,True,1,False,1000,True,1.0
./expes/v2_2020-11-23_di_250-prng-1,daily_issda_300,300,rng-300,91,rng,num-start-41,41,536,1001.2012526988983,False,,False,0,True,1000,True,0.0
./expes/v2_2020-11-23_di_250-prng-1,daily_issda_300,300,rng-300,221,rng,num-start-241,241,536,8.562541961669922,True,,True,1,False,1000,True,1.0
./expes/v2_2020-11-23_di_250-prng-1,daily_issda_300,300,rng-300,221,rng,num-start-211,211,536,7.391636371612549,True,,True,1,False,1000,True,1.0
./expes/v2_2020-11-23_di_250-prng-1,daily_issda_300,300,rng-300,251,rng,num-start-201,201,536,7.0528881549835205,True,,True,1,False,1000,True,1.0
./expes/v2_2020-11-23_di_250-prng-1,daily_issda_300,300,rng-300,251,rng,num-start-271,271,536,8.435039758682251,True,,True,1,False,1000,True,1.0
./expes/v2_2020-11-23_di_250-prng-1,daily_issda_300,300,rng-300,281,rng,num-start-201,201,536,6.210989952087402,True,,True,1,False,1000,True,1.0
./expes/v2_2020-11-23_di_250-prng-1,daily_issda_300,300,rng-300,191,rng,num-start-31,31,536,1000.9511070251465,False,,False,0,True,1000,True,0.0
./expes/v2_2020-11-23_di_250-prng-1,daily_issda_300,300,rng-300,181,rng,num-start-221,221,536,7.703848123550415,True,,True,1,False,1000,True,1.0
./expes/v2_2020-11-23_di_250-prng-1,daily_issda_300,300,rng-300,281,rng,num-start-121,121,536,3.730645179748535,True,,True,1,False,1000,True,1.0
./expes/v2_2020-11-23_di_250-prng-1,daily_issda_300,300,rng-300,61,rng,num-start-221,221,536,7.4043965339660645,True,,True,1,False,1000,True,1.0
./expes/v2_2020-11-23_di_250-prng-1,daily_issda_300,300,rng-300,81,rng,num-start-51,51,536,1001.584148645401,False,,False,0,True,1000,True,0.0
./expes/v2_2020-11-23_di_250-prng-1,daily_issda_300,300,rng-300,121,rng,num-start-21,21,536,1000.6999983787537,False,,False,0,True,1000,True,0.0
