expe,clients,clients_size,clients_subset,agg_size,method,days,days_size,days_total,time,valid,valid_sum,success,nsols,wall_hit,wall_time,pooled,valid_sums
./expes/v2_2020-11-23_di_250-prng-1,daily_issda_300,300,rng-300,251,rng,num-start-161,161,536,5.295172929763794,True,,True,1,False,1000,True,1.0
./expes/v2_2020-11-23_di_250-prng-1,daily_issda_300,300,rng-300,181,rng,num-start-171,171,536,5.490566968917847,True,,True,1,False,1000,True,1.0
./expes/v2_2020-11-23_di_250-prng-1,daily_issda_300,300,rng-300,171,rng,num-start-201,201,536,7.070375204086304,True,,True,1,False,1000,True,1.0
./expes/v2_2020-11-23_di_250-prng-1,daily_issda_300,300,rng-300,141,rng,num-start-91,91,536,1001.8103642463684,False,,False,0,True,1000,True,0.0
./expes/v2_2020-11-23_di_250-prng-1,daily_issda_300,300,rng-300,191,rng,num-start-71,71,536,1001.3926818370819,False,,False,0,True,1000,True,0.0
./expes/v2_2020-11-23_di_250-prng-1,daily_issda_300,300,rng-300,141,rng,num-start-1,1,536,1.5518290996551514,False,,False,2,False,1000,True,0.0
./expes/v2_2020-11-23_di_250-prng-1,daily_issda_300,300,rng-300,211,rng,num-start-51,51,536,1001.0261569023132,False,,False,0,True,1000,True,0.0
./expes/v2_2020-11-23_di_250-prng-1,daily_issda_300,300,rng-300,211,rng,num-start-191,191,536,6.371726751327515,True,,True,1,False,1000,True,1.0
./expes/v2_2020-11-23_di_250-prng-1,daily_issda_300,300,rng-300,231,rng,num-start-161,161,536,5.29755163192749,True,,True,1,False,1000,True,1.0
./expes/v2_2020-11-23_di_250-prng-1,daily_issda_300,300,rng-300,291,rng,num-start-1,1,536,0.6255791187286377,False,,False,2,False,1000,True,1.0
./expes/v2_2020-11-23_di_250-prng-1,daily_issda_300,300,rng-300,121,rng,num-start-181,181,536,6.369396924972534,True,,True,1,False,1000,True,1.0
./expes/v2_2020-11-23_di_250-prng-1,daily_issda_300,300,rng-300,91,rng,num-start-241,241,536,8.26762843132019,True,,True,1,False,1000,True,1.0
./expes/v2_2020-11-23_di_250-prng-1,daily_issda_300,300,rng-300,231,rng,num-start-101,101,536,6.589444875717163,True,,True,1,False,1000,True,1.0
./expes/v2_2020-11-23_di_250-prng-1,daily_issda_300,300,rng-300,41,rng,num-start-231,231,536,7.249177694320679,True,,True,1,False,1000,True,1.0
./expes/v2_2020-11-23_di_250-prng-1,daily_issda_300,300,rng-300,31,rng,num-start-81,81,536,4.847666263580322,True,,True,1,False,1000,True,1.0
./expes/v2_2020-11-23_di_250-prng-1,daily_issda_300,300,rng-300,21,rng,num-start-31,31,536,1002.4328389167786,False,,False,0,True,1000,True,0.0
./expes/v2_2020-11-23_di_250-prng-1,daily_issda_300,300,rng-300,111,rng,num-start-291,291,536,9.605892419815063,True,,True,1,False,1000,True,1.0
./expes/v2_2020-11-23_di_250-prng-1,daily_issda_300,300,rng-300,161,rng,num-start-221,221,536,8.21270751953125,True,,True,1,False,1000,True,1.0
./expes/v2_2020-11-23_di_250-prng-1,daily_issda_300,300,rng-300,81,rng,num-start-291,291,536,8.711087942123413,True,,True,1,False,1000,True,1.0
./expes/v2_2020-11-23_di_250-prng-1,daily_issda_300,300,rng-300,111,rng,num-start-231,231,536,7.325727939605713,True,,True,1,False,1000,True,1.0
./expes/v2_2020-11-23_di_250-prng-1,daily_issda_300,300,rng-300,151,rng,num-start-141,141,536,12.477397680282593,True,,True,1,False,1000,True,1.0
./expes/v2_2020-11-23_di_250-prng-1,daily_issda_300,300,rng-300,241,rng,num-start-151,151,536,4.772100925445557,True,,True,1,False,1000,True,1.0
./expes/v2_2020-11-23_di_250-prng-1,daily_issda_300,300,rng-300,31,rng,num-start-41,41,536,1001.4955153465271,False,,False,0,True,1000,True,0.0
./expes/v2_2020-11-23_di_250-prng-1,daily_issda_300,300,rng-300,101,rng,num-start-211,211,536,6.982191562652588,True,,True,1,False,1000,True,1.0
./expes/v2_2020-11-23_di_250-prng-1,daily_issda_300,300,rng-300,61,rng,num-start-41,41,536,1000.9264364242554,False,,False,0,True,1000,True,0.0
./expes/v2_2020-11-23_di_250-prng-1,daily_issda_300,300,rng-300,281,rng,num-start-1,1,536,2.73075008392334,False,,False,2,False,1000,True,1.0
./expes/v2_2020-11-23_di_250-prng-1,daily_issda_300,300,rng-300,161,rng,num-start-191,191,536,6.612765312194824,True,,True,1,False,1000,True,1.0
./expes/v2_2020-11-23_di_250-prng-1,daily_issda_300,300,rng-300,151,rng,num-start-261,261,536,7.649244070053101,True,,True,1,False,1000,True,1.0
./expes/v2_2020-11-23_di_250-prng-1,daily_issda_300,300,rng-300,91,rng,num-start-201,201,536,7.1834447383880615,True,,True,1,False,1000,True,1.0
./expes/v2_2020-11-23_di_250-prng-1,daily_issda_300,300,rng-300,131,rng,num-start-121,121,536,11.013309001922607,True,,True,1,False,1000,True,1.0
./expes/v2_2020-11-23_di_250-prng-1,daily_issda_300,300,rng-300,111,rng,num-start-121,121,536,9.43282175064087,True,,True,1,False,1000,True,1.0
./expes/v2_2020-11-23_di_250-prng-1,daily_issda_300,300,rng-300,71,rng,num-start-11,11,536,1000.3210389614105,False,,False,0,True,1000,True,0.0
./expes/v2_2020-11-23_di_250-prng-1,daily_issda_300,300,rng-300,261,rng,num-start-261,261,536,6.470588445663452,True,,True,1,False,1000,True,1.0
./expes/v2_2020-11-23_di_250-prng-1,daily_issda_300,300,rng-300,221,rng,num-start-1,1,536,4.981922149658203,False,,False,2,False,1000,True,1.0
./expes/v2_2020-11-23_di_250-prng-1,daily_issda_300,300,rng-300,51,rng,num-start-91,91,536,5.382298946380615,True,,True,1,False,1000,True,1.0
./expes/v2_2020-11-23_di_250-prng-1,daily_issda_300,300,rng-300,51,rng,num-start-161,161,536,4.713677883148193,True,,True,1,False,1000,True,1.0
./expes/v2_2020-11-23_di_250-prng-1,daily_issda_300,300,rng-300,111,rng,num-start-71,71,536,1001.4678916931152,False,,False,0,True,1000,True,0.0
./expes/v2_2020-11-23_di_250-prng-1,daily_issda_300,300,rng-300,181,rng,num-start-281,281,536,9.911382913589478,True,,True,1,False,1000,True,1.0
./expes/v2_2020-11-23_di_250-prng-1,daily_issda_300,300,rng-300,101,rng,num-start-291,291,536,9.270111560821533,True,,True,1,False,1000,True,1.0
./expes/v2_2020-11-23_di_250-prng-1,daily_issda_300,300,rng-300,31,rng,num-start-291,291,536,8.343412637710571,True,,True,1,False,1000,True,1.0
./expes/v2_2020-11-23_di_250-prng-1,daily_issda_300,300,rng-300,51,rng,num-start-1,1,536,1.3978495597839355,False,,False,2,False,1000,True,1.0
./expes/v2_2020-11-23_di_250-prng-1,daily_issda_300,300,rng-300,161,rng,num-start-1,1,536,0.5720818042755127,False,,False,2,False,1000,True,1.0
./expes/v2_2020-11-23_di_250-prng-1,daily_issda_300,300,rng-300,241,rng,num-start-291,291,536,7.636133432388306,True,,True,1,False,1000,True,1.0
./expes/v2_2020-11-23_di_250-prng-1,daily_issda_300,300,rng-300,281,rng,num-start-151,151,536,4.059457778930664,True,,True,1,False,1000,True,1.0
./expes/v2_2020-11-23_di_250-prng-1,daily_issda_300,300,rng-300,31,rng,num-start-191,191,536,5.612323045730591,True,,True,1,False,1000,True,1.0
./expes/v2_2020-11-23_di_250-prng-1,daily_issda_300,300,rng-300,181,rng,num-start-131,131,536,9.067428827285767,True,,True,1,False,1000,True,1.0
./expes/v2_2020-11-23_di_250-prng-1,daily_issda_300,300,rng-300,291,rng,num-start-41,41,536,2.9558498859405518,True,,True,1,False,1000,True,1.0
./expes/v2_2020-11-23_di_250-prng-1,daily_issda_300,300,rng-300,141,rng,num-start-21,21,536,1000.5467867851257,False,,False,0,True,1000,True,0.0
./expes/v2_2020-11-23_di_250-prng-1,daily_issda_300,300,rng-300,81,rng,num-start-271,271,536,8.935110569000244,True,,True,1,False,1000,True,1.0
./expes/v2_2020-11-23_di_250-prng-1,daily_issda_300,300,rng-300,141,rng,num-start-161,161,536,5.982551574707031,True,,True,1,False,1000,True,1.0
./expes/v2_2020-11-23_di_250-prng-1,daily_issda_300,300,rng-300,31,rng,num-start-11,11,536,1000.4252059459686,False,,False,0,True,1000,True,0.0
./expes/v2_2020-11-23_di_250-prng-1,daily_issda_300,300,rng-300,211,rng,num-start-221,221,536,7.712074518203735,True,,True,1,False,1000,True,1.0
./expes/v2_2020-11-23_di_250-prng-1,daily_issda_300,300,rng-300,71,rng,num-start-151,151,536,4.7834179401397705,True,,True,1,False,1000,True,1.0
./expes/v2_2020-11-23_di_250-prng-1,daily_issda_300,300,rng-300,61,rng,num-start-191,191,536,6.048157691955566,True,,True,1,False,1000,True,1.0
./expes/v2_2020-11-23_di_250-prng-1,daily_issda_300,300,rng-300,41,rng,num-start-121,121,536,4.473942041397095,True,,True,1,False,1000,True,1.0
./expes/v2_2020-11-23_di_250-prng-1,daily_issda_300,300,rng-300,211,rng,num-start-101,101,536,36.8078727722168,True,,True,1,False,1000,True,1.0
./expes/v2_2020-11-23_di_250-prng-1,daily_issda_300,300,rng-300,261,rng,num-start-221,221,536,6.424757480621338,True,,True,1,False,1000,True,1.0
./expes/v2_2020-11-23_di_250-prng-1,daily_issda_300,300,rng-300,71,rng,num-start-211,211,536,7.113296747207642,True,,True,1,False,1000,True,1.0
./expes/v2_2020-11-23_di_250-prng-1,daily_issda_300,300,rng-300,271,rng,num-start-21,21,536,1000.7901029586792,False,,False,0,True,1000,True,0.0
./expes/v2_2020-11-23_di_250-prng-1,daily_issda_300,300,rng-300,111,rng,num-start-21,21,536,1000.5069804191589,False,,False,0,True,1000,True,0.0
./expes/v2_2020-11-23_di_250-prng-1,daily_issda_300,300,rng-300,21,rng,num-start-211,211,536,5.433535814285278,True,,True,1,False,1000,True,1.0
./expes/v2_2020-11-23_di_250-prng-1,daily_issda_300,300,rng-300,61,rng,num-start-251,251,536,7.483520984649658,True,,True,1,False,1000,True,1.0
./expes/v2_2020-11-23_di_250-prng-1,daily_issda_300,300,rng-300,141,rng,num-start-151,151,536,9.571479558944702,True,,True,1,False,1000,True,1.0
./expes/v2_2020-11-23_di_250-prng-1,daily_issda_300,300,rng-300,141,rng,num-start-221,221,536,7.360990762710571,True,,True,1,False,1000,True,1.0
./expes/v2_2020-11-23_di_250-prng-1,daily_issda_300,300,rng-300,181,rng,num-start-51,51,536,1001.0537884235382,False,,False,0,True,1000,True,0.0
./expes/v2_2020-11-23_di_250-prng-1,daily_issda_300,300,rng-300,131,rng,num-start-161,161,536,5.894132375717163,True,,True,1,False,1000,True,1.0
./expes/v2_2020-11-23_di_250-prng-1,daily_issda_300,300,rng-300,231,rng,num-start-251,251,536,7.218424081802368,True,,True,1,False,1000,True,1.0
./expes/v2_2020-11-23_di_250-prng-1,daily_issda_300,300,rng-300,31,rng,num-start-161,161,536,5.001260042190552,True,,True,1,False,1000,True,1.0
./expes/v2_2020-11-23_di_250-prng-1,daily_issda_300,300,rng-300,51,rng,num-start-231,231,536,7.065426826477051,True,,True,1,False,1000,True,1.0
./expes/v2_2020-11-23_di_250-prng-1,daily_issda_300,300,rng-300,61,rng,num-start-171,171,536,5.437857627868652,True,,True,1,False,1000,True,1.0
./expes/v2_2020-11-23_di_250-prng-1,daily_issda_300,300,rng-300,121,rng,num-start-41,41,536,1000.9546458721161,False,,False,0,True,1000,True,0.0
./expes/v2_2020-11-23_di_250-prng-1,daily_issda_300,300,rng-300,221,rng,num-start-291,291,536,7.69742226600647,True,,True,1,False,1000,True,1.0
./expes/v2_2020-11-23_di_250-prng-1,daily_issda_300,300,rng-300,61,rng,num-start-111,111,536,6.768896579742432,True,,True,1,False,1000,True,1.0
./expes/v2_2020-11-23_di_250-prng-1,daily_issda_300,300,rng-300,81,rng,num-start-191,191,536,5.897727012634277,True,,True,1,False,1000,True,1.0
./expes/v2_2020-11-23_di_250-prng-1,daily_issda_300,300,rng-300,11,rng,num-start-61,61,536,1.6227951049804688,True,,True,1,False,1000,True,1.0
./expes/v2_2020-11-23_di_250-prng-1,daily_issda_300,300,rng-300,131,rng,num-start-101,101,536,1002.5035662651062,False,,False,0,True,1000,True,0.0
./expes/v2_2020-11-23_di_250-prng-1,daily_issda_300,300,rng-300,41,rng,num-start-291,291,536,8.607221364974976,True,,True,1,False,1000,True,1.0
./expes/v2_2020-11-23_di_250-prng-1,daily_issda_300,300,rng-300,1,rng,num-start-231,231,536,4.382411241531372,True,,True,1,False,1000,True,1.0
./expes/v2_2020-11-23_di_250-prng-1,daily_issda_300,300,rng-300,1,rng,num-start-281,281,536,5.294865846633911,True,,True,1,False,1000,True,1.0
./expes/v2_2020-11-23_di_250-prng-1,daily_issda_300,300,rng-300,71,rng,num-start-121,121,536,4.022845029830933,True,,True,1,False,1000,True,1.0
./expes/v2_2020-11-23_di_250-prng-1,daily_issda_300,300,rng-300,81,rng,num-start-271,271,536,7.9666526317596436,True,,True,1,False,1000,True,1.0
./expes/v2_2020-11-23_di_250-prng-1,daily_issda_300,300,rng-300,221,rng,num-start-121,121,536,5.668172836303711,True,,True,1,False,1000,True,1.0
./expes/v2_2020-11-23_di_250-prng-1,daily_issda_300,300,rng-300,181,rng,num-start-101,101,536,1002.0152676105499,False,,False,1,True,1000,True,0.0
./expes/v2_2020-11-23_di_250-prng-1,daily_issda_300,300,rng-300,201,rng,num-start-271,271,536,9.19647741317749,True,,True,1,False,1000,True,1.0
./expes/v2_2020-11-23_di_250-prng-1,daily_issda_300,300,rng-300,231,rng,num-start-61,61,536,1001.8456921577454,False,,False,0,True,1000,True,0.0
./expes/v2_2020-11-23_di_250-prng-1,daily_issda_300,300,rng-300,171,rng,num-start-41,41,536,1000.9015069007874,False,,False,0,True,1000,True,0.0
./expes/v2_2020-11-23_di_250-prng-1,daily_issda_300,300,rng-300,41,rng,num-start-201,201,536,6.346296787261963,True,,True,1,False,1000,True,1.0
./expes/v2_2020-11-23_di_250-prng-1,daily_issda_300,300,rng-300,241,rng,num-start-91,91,536,4.518455505371094,True,,True,1,False,1000,True,1.0
./expes/v2_2020-11-23_di_250-prng-1,daily_issda_300,300,rng-300,61,rng,num-start-21,21,536,1000.5712020397186,False,,False,0,True,1000,True,0.0
./expes/v2_2020-11-23_di_250-prng-1,daily_issda_300,300,rng-300,221,rng,num-start-191,191,536,5.871949195861816,True,,True,1,False,1000,True,1.0
./expes/v2_2020-11-23_di_250-prng-1,daily_issda_300,300,rng-300,121,rng,num-start-151,151,536,4.952507495880127,True,,True,1,False,1000,True,1.0
./expes/v2_2020-11-23_di_250-prng-1,daily_issda_300,300,rng-300,241,rng,num-start-41,41,536,1001.0826902389526,False,,False,0,True,1000,True,0.0
./expes/v2_2020-11-23_di_250-prng-1,daily_issda_300,300,rng-300,221,rng,num-start-241,241,536,6.249755144119263,True,,True,1,False,1000,True,1.0
./expes/v2_2020-11-23_di_250-prng-1,daily_issda_300,300,rng-300,51,rng,num-start-71,71,536,17.232752799987793,True,,True,1,False,1000,True,1.0
./expes/v2_2020-11-23_di_250-prng-1,daily_issda_300,300,rng-300,291,rng,num-start-121,121,536,3.053274631500244,True,,True,1,False,1000,True,1.0
./expes/v2_2020-11-23_di_250-prng-1,daily_issda_300,300,rng-300,291,rng,num-start-101,101,536,2.5648317337036133,True,,True,1,False,1000,True,1.0
./expes/v2_2020-11-23_di_250-prng-1,daily_issda_300,300,rng-300,141,rng,num-start-151,151,536,9.373846054077148,True,,True,1,False,1000,True,1.0
./expes/v2_2020-11-23_di_250-prng-1,daily_issda_300,300,rng-300,221,rng,num-start-111,111,536,10.928696393966675,True,,True,1,False,1000,True,1.0
./expes/v2_2020-11-23_di_250-prng-1,daily_issda_300,300,rng-300,201,rng,num-start-241,241,536,7.732727289199829,True,,True,1,False,1000,True,1.0
./expes/v2_2020-11-23_di_250-prng-1,daily_issda_300,300,rng-300,151,rng,num-start-31,31,536,1000.707222700119,False,,False,0,True,1000,True,0.0
./expes/v2_2020-11-23_di_250-prng-1,daily_issda_300,300,rng-300,261,rng,num-start-181,181,536,5.005785942077637,True,,True,1,False,1000,True,1.0
./expes/v2_2020-11-23_di_250-prng-1,daily_issda_300,300,rng-300,221,rng,num-start-71,71,536,1001.439014673233,False,,False,0,True,1000,True,0.0
./expes/v2_2020-11-23_di_250-prng-1,daily_issda_300,300,rng-300,181,rng,num-start-291,291,536,9.702725410461426,True,,True,1,False,1000,True,1.0
./expes/v2_2020-11-23_di_250-prng-1,daily_issda_300,300,rng-300,71,rng,num-start-211,211,536,7.137025833129883,True,,True,1,False,1000,True,1.0
./expes/v2_2020-11-23_di_250-prng-1,daily_issda_300,300,rng-300,261,rng,num-start-81,81,536,3.229983329772949,True,,True,1,False,1000,True,1.0
./expes/v2_2020-11-23_di_250-prng-1,daily_issda_300,300,rng-300,221,rng,num-start-121,121,536,9.373809337615967,True,,True,1,False,1000,True,1.0
./expes/v2_2020-11-23_di_250-prng-1,daily_issda_300,300,rng-300,261,rng,num-start-181,181,536,4.58056378364563,True,,True,1,False,1000,True,1.0
./expes/v2_2020-11-23_di_250-prng-1,daily_issda_300,300,rng-300,1,rng,num-start-101,101,536,1.9005820751190186,True,,True,1,False,1000,True,1.0
./expes/v2_2020-11-23_di_250-prng-1,daily_issda_300,300,rng-300,261,rng,num-start-11,11,536,1000.3087956905365,False,,False,0,True,1000,True,0.0
./expes/v2_2020-11-23_di_250-prng-1,daily_issda_300,300,rng-300,81,rng,num-start-71,71,536,1001.4145314693451,False,,False,0,True,1000,True,0.0
./expes/v2_2020-11-23_di_250-prng-1,daily_issda_300,300,rng-300,271,rng,num-start-181,181,536,4.659743309020996,True,,True,1,False,1000,True,1.0
./expes/v2_2020-11-23_di_250-prng-1,daily_issda_300,300,rng-300,1,rng,num-start-291,291,536,5.5667548179626465,True,,True,1,False,1000,True,1.0
./expes/v2_2020-11-23_di_250-prng-1,daily_issda_300,300,rng-300,71,rng,num-start-31,31,536,1000.6528697013855,False,,False,0,True,1000,True,0.0
./expes/v2_2020-11-23_di_250-prng-1,daily_issda_300,300,rng-300,291,rng,num-start-281,281,536,6.813595294952393,True,,True,1,False,1000,True,1.0
./expes/v2_2020-11-23_di_250-prng-1,daily_issda_300,300,rng-300,21,rng,num-start-281,281,536,8.329277515411377,True,,True,1,False,1000,True,1.0
./expes/v2_2020-11-23_di_250-prng-1,daily_issda_300,300,rng-300,111,rng,num-start-101,101,536,1001.9878726005554,False,,False,0,True,1000,True,0.0
./expes/v2_2020-11-23_di_250-prng-1,daily_issda_300,300,rng-300,61,rng,num-start-31,31,536,1000.6238884925842,False,,False,0,True,1000,True,0.0
./expes/v2_2020-11-23_di_250-prng-1,daily_issda_300,300,rng-300,211,rng,num-start-211,211,536,7.184368371963501,True,,True,1,False,1000,True,1.0
./expes/v2_2020-11-23_di_250-prng-1,daily_issda_300,300,rng-300,131,rng,num-start-241,241,536,8.695905685424805,True,,True,1,False,1000,True,1.0
./expes/v2_2020-11-23_di_250-prng-1,daily_issda_300,300,rng-300,261,rng,num-start-171,171,536,4.527459383010864,True,,True,1,False,1000,True,1.0
./expes/v2_2020-11-23_di_250-prng-1,daily_issda_300,300,rng-300,141,rng,num-start-271,271,536,8.484626293182373,True,,True,1,False,1000,True,1.0
./expes/v2_2020-11-23_di_250-prng-1,daily_issda_300,300,rng-300,151,rng,num-start-101,101,536,1001.9679174423218,False,,False,0,True,1000,True,0.0
./expes/v2_2020-11-23_di_250-prng-1,daily_issda_300,300,rng-300,211,rng,num-start-61,61,536,1001.2409160137177,False,,False,0,True,1000,True,0.0
./expes/v2_2020-11-23_di_250-prng-1,daily_issda_300,300,rng-300,191,rng,num-start-211,211,536,7.369192600250244,True,,True,1,False,1000,True,1.0
./expes/v2_2020-11-23_di_250-prng-1,daily_issda_300,300,rng-300,41,rng,num-start-171,171,536,4.690497398376465,True,,True,1,False,1000,True,1.0
./expes/v2_2020-11-23_di_250-prng-1,daily_issda_300,300,rng-300,61,rng,num-start-101,101,536,6.386793613433838,True,,True,1,False,1000,True,1.0
./expes/v2_2020-11-23_di_250-prng-1,daily_issda_300,300,rng-300,181,rng,num-start-201,201,536,6.780592441558838,True,,True,1,False,1000,True,1.0
./expes/v2_2020-11-23_di_250-prng-1,daily_issda_300,300,rng-300,231,rng,num-start-41,41,536,1000.8223621845245,False,,False,0,True,1000,True,0.0
./expes/v2_2020-11-23_di_250-prng-1,daily_issda_300,300,rng-300,111,rng,num-start-11,11,536,1000.3121001720428,False,,False,0,True,1000,True,0.0
./expes/v2_2020-11-23_di_250-prng-1,daily_issda_300,300,rng-300,211,rng,num-start-171,171,536,5.85762882232666,True,,True,1,False,1000,True,1.0
./expes/v2_2020-11-23_di_250-prng-1,daily_issda_300,300,rng-300,251,rng,num-start-41,41,536,1000.8185472488403,False,,False,0,True,1000,True,0.0
./expes/v2_2020-11-23_di_250-prng-1,daily_issda_300,300,rng-300,161,rng,num-start-161,161,536,5.742920875549316,True,,True,1,False,1000,True,1.0
./expes/v2_2020-11-23_di_250-prng-1,daily_issda_300,300,rng-300,191,rng,num-start-231,231,536,7.999168395996094,True,,True,1,False,1000,True,1.0
./expes/v2_2020-11-23_di_250-prng-1,daily_issda_300,300,rng-300,281,rng,num-start-131,131,536,3.137924909591675,True,,True,1,False,1000,True,1.0
./expes/v2_2020-11-23_di_250-prng-1,daily_issda_300,300,rng-300,191,rng,num-start-201,201,536,7.6388936042785645,True,,True,1,False,1000,True,1.0
./expes/v2_2020-11-23_di_250-prng-1,daily_issda_300,300,rng-300,201,rng,num-start-11,11,536,1000.2696433067322,False,,False,0,True,1000,True,0.0
./expes/v2_2020-11-23_di_250-prng-1,daily_issda_300,300,rng-300,101,rng,num-start-281,281,536,10.06677794456482,True,,True,1,False,1000,True,1.0
./expes/v2_2020-11-23_di_250-prng-1,daily_issda_300,300,rng-300,181,rng,num-start-231,231,536,8.648019790649414,True,,True,1,False,1000,True,1.0
./expes/v2_2020-11-23_di_250-prng-1,daily_issda_300,300,rng-300,1,rng,num-start-1,1,536,0.026578187942504883,True,,True,1,False,1000,True,1.0
./expes/v2_2020-11-23_di_250-prng-1,daily_issda_300,300,rng-300,291,rng,num-start-151,151,536,3.574583053588867,True,,True,1,False,1000,True,1.0
./expes/v2_2020-11-23_di_250-prng-1,daily_issda_300,300,rng-300,111,rng,num-start-221,221,536,7.346715450286865,True,,True,1,False,1000,True,1.0
./expes/v2_2020-11-23_di_250-prng-1,daily_issda_300,300,rng-300,111,rng,num-start-271,271,536,9.208086967468262,True,,True,1,False,1000,True,1.0
./expes/v2_2020-11-23_di_250-prng-1,daily_issda_300,300,rng-300,251,rng,num-start-241,241,536,7.717535495758057,True,,True,1,False,1000,True,1.0
./expes/v2_2020-11-23_di_250-prng-1,daily_issda_300,300,rng-300,251,rng,num-start-161,161,536,5.027188301086426,True,,True,1,False,1000,True,1.0
./expes/v2_2020-11-23_di_250-prng-1,daily_issda_300,300,rng-300,231,rng,num-start-191,191,536,5.1443798542022705,True,,True,1,False,1000,True,1.0
./expes/v2_2020-11-23_di_250-prng-1,daily_issda_300,300,rng-300,151,rng,num-start-31,31,536,1000.6586117744446,False,,False,0,True,1000,True,0.0
./expes/v2_2020-11-23_di_250-prng-1,daily_issda_300,300,rng-300,221,rng,num-start-31,31,536,1000.6942455768585,False,,False,0,True,1000,True,0.0
./expes/v2_2020-11-23_di_250-prng-1,daily_issda_300,300,rng-300,11,rng,num-start-91,91,536,2.2108871936798096,True,,True,1,False,1000,True,1.0
./expes/v2_2020-11-23_di_250-prng-1,daily_issda_300,300,rng-300,281,rng,num-start-61,61,536,2.452723979949951,True,,True,1,False,1000,True,1.0
./expes/v2_2020-11-23_di_250-prng-1,daily_issda_300,300,rng-300,1,rng,num-start-31,31,536,0.6035640239715576,True,,True,1,False,1000,True,1.0
./expes/v2_2020-11-23_di_250-prng-1,daily_issda_300,300,rng-300,161,rng,num-start-191,191,536,5.799082517623901,True,,True,1,False,1000,True,1.0
./expes/v2_2020-11-23_di_250-prng-1,daily_issda_300,300,rng-300,221,rng,num-start-111,111,536,7.269694566726685,True,,True,1,False,1000,True,1.0
./expes/v2_2020-11-23_di_250-prng-1,daily_issda_300,300,rng-300,291,rng,num-start-101,101,536,2.437229871749878,True,,True,1,False,1000,True,1.0
./expes/v2_2020-11-23_di_250-prng-1,daily_issda_300,300,rng-300,81,rng,num-start-231,231,536,7.484054088592529,True,,True,1,False,1000,True,1.0
./expes/v2_2020-11-23_di_250-prng-1,daily_issda_300,300,rng-300,211,rng,num-start-71,71,536,1001.4695789813995,False,,False,0,True,1000,True,0.0
./expes/v2_2020-11-23_di_250-prng-1,daily_issda_300,300,rng-300,1,rng,num-start-101,101,536,2.0604817867279053,True,,True,1,False,1000,True,1.0
./expes/v2_2020-11-23_di_250-prng-1,daily_issda_300,300,rng-300,261,rng,num-start-141,141,536,3.7738308906555176,True,,True,1,False,1000,True,1.0
./expes/v2_2020-11-23_di_250-prng-1,daily_issda_300,300,rng-300,91,rng,num-start-71,71,536,1001.4189591407776,False,,False,0,True,1000,True,0.0
./expes/v2_2020-11-23_di_250-prng-1,daily_issda_300,300,rng-300,131,rng,num-start-161,161,536,5.332392454147339,True,,True,1,False,1000,True,1.0
./expes/v2_2020-11-23_di_250-prng-1,daily_issda_300,300,rng-300,291,rng,num-start-241,241,536,5.492380380630493,True,,True,1,False,1000,True,1.0
./expes/v2_2020-11-23_di_250-prng-1,daily_issda_300,300,rng-300,81,rng,num-start-151,151,536,4.929164171218872,True,,True,1,False,1000,True,1.0
./expes/v2_2020-11-23_di_250-prng-1,daily_issda_300,300,rng-300,111,rng,num-start-101,101,536,32.909507274627686,True,,True,1,False,1000,True,1.0
./expes/v2_2020-11-23_di_250-prng-1,daily_issda_300,300,rng-300,41,rng,num-start-11,11,536,1000.2606432437897,False,,False,0,True,1000,True,0.0
./expes/v2_2020-11-23_di_250-prng-1,daily_issda_300,300,rng-300,201,rng,num-start-31,31,536,1000.680516242981,False,,False,0,True,1000,True,0.0
./expes/v2_2020-11-23_di_250-prng-1,daily_issda_300,300,rng-300,101,rng,num-start-141,141,536,8.961909294128418,True,,True,1,False,1000,True,1.0
./expes/v2_2020-11-23_di_250-prng-1,daily_issda_300,300,rng-300,291,rng,num-start-51,51,536,1.2803702354431152,True,,True,1,False,1000,True,1.0
./expes/v2_2020-11-23_di_250-prng-1,daily_issda_300,300,rng-300,281,rng,num-start-91,91,536,2.4386725425720215,True,,True,1,False,1000,True,1.0
./expes/v2_2020-11-23_di_250-prng-1,daily_issda_300,300,rng-300,121,rng,num-start-51,51,536,1001.5475811958313,False,,False,0,True,1000,True,0.0
./expes/v2_2020-11-23_di_250-prng-1,daily_issda_300,300,rng-300,31,rng,num-start-291,291,536,8.931294441223145,True,,True,1,False,1000,True,1.0
./expes/v2_2020-11-23_di_250-prng-1,daily_issda_300,300,rng-300,1,rng,num-start-221,221,536,4.2658843994140625,True,,True,1,False,1000,True,1.0
./expes/v2_2020-11-23_di_250-prng-1,daily_issda_300,300,rng-300,231,rng,num-start-81,81,536,1001.7326011657715,False,,False,0,True,1000,True,0.0
./expes/v2_2020-11-23_di_250-prng-1,daily_issda_300,300,rng-300,31,rng,num-start-141,141,536,4.349609613418579,True,,True,1,False,1000,True,1.0
./expes/v2_2020-11-23_di_250-prng-1,daily_issda_300,300,rng-300,211,rng,num-start-211,211,536,7.981187105178833,True,,True,1,False,1000,True,1.0
./expes/v2_2020-11-23_di_250-prng-1,daily_issda_300,300,rng-300,271,rng,num-start-61,61,536,3.0083069801330566,True,,True,1,False,1000,True,1.0
./expes/v2_2020-11-23_di_250-prng-1,daily_issda_300,300,rng-300,31,rng,num-start-171,171,536,4.624371767044067,True,,True,1,False,1000,True,1.0
./expes/v2_2020-11-23_di_250-prng-1,daily_issda_300,300,rng-300,131,rng,num-start-121,121,536,26.284491777420044,True,,True,1,False,1000,True,1.0
./expes/v2_2020-11-23_di_250-prng-1,daily_issda_300,300,rng-300,111,rng,num-start-161,161,536,5.874568939208984,True,,True,1,False,1000,True,1.0
./expes/v2_2020-11-23_di_250-prng-1,daily_issda_300,300,rng-300,281,rng,num-start-261,261,536,6.318258047103882,True,,True,1,False,1000,True,1.0
./expes/v2_2020-11-23_di_250-prng-1,daily_issda_300,300,rng-300,221,rng,num-start-91,91,536,1001.8091304302216,False,,False,0,True,1000,True,0.0
./expes/v2_2020-11-23_di_250-prng-1,daily_issda_300,300,rng-300,221,rng,num-start-201,201,536,6.499486207962036,True,,True,1,False,1000,True,1.0
./expes/v2_2020-11-23_di_250-prng-1,daily_issda_300,300,rng-300,291,rng,num-start-151,151,536,3.6526925563812256,True,,True,1,False,1000,True,1.0
./expes/v2_2020-11-23_di_250-prng-1,daily_issda_300,300,rng-300,61,rng,num-start-271,271,536,6.118279695510864,True,,True,1,False,1000,True,1.0
./expes/v2_2020-11-23_di_250-prng-1,daily_issda_300,300,rng-300,81,rng,num-start-191,191,536,6.761359214782715,True,,True,1,False,1000,True,1.0
./expes/v2_2020-11-23_di_250-prng-1,daily_issda_300,300,rng-300,131,rng,num-start-91,91,536,1001.9173741340637,False,,False,0,True,1000,True,0.0
./expes/v2_2020-11-23_di_250-prng-1,daily_issda_300,300,rng-300,181,rng,num-start-1,1,536,1.218599796295166,False,,False,2,False,1000,True,1.0
./expes/v2_2020-11-23_di_250-prng-1,daily_issda_300,300,rng-300,151,rng,num-start-261,261,536,9.74856185913086,True,,True,1,False,1000,True,1.0
./expes/v2_2020-11-23_di_250-prng-1,daily_issda_300,300,rng-300,171,rng,num-start-31,31,536,1000.7269892692566,False,,False,0,True,1000,True,0.0
./expes/v2_2020-11-23_di_250-prng-1,daily_issda_300,300,rng-300,11,rng,num-start-271,271,536,6.7251951694488525,True,,True,1,False,1000,True,1.0
./expes/v2_2020-11-23_di_250-prng-1,daily_issda_300,300,rng-300,241,rng,num-start-151,151,536,5.37429666519165,True,,True,1,False,1000,True,1.0
./expes/v2_2020-11-23_di_250-prng-1,daily_issda_300,300,rng-300,261,rng,num-start-1,1,536,1.1032156944274902,False,,False,2,False,1000,True,1.0
./expes/v2_2020-11-23_di_250-prng-1,daily_issda_300,300,rng-300,211,rng,num-start-71,71,536,1001.4384076595306,False,,False,0,True,1000,True,0.0
./expes/v2_2020-11-23_di_250-prng-1,daily_issda_300,300,rng-300,221,rng,num-start-201,201,536,6.486286640167236,True,,True,1,False,1000,True,1.0
./expes/v2_2020-11-23_di_250-prng-1,daily_issda_300,300,rng-300,101,rng,num-start-181,181,536,5.978929758071899,True,,True,1,False,1000,True,1.0
./expes/v2_2020-11-23_di_250-prng-1,daily_issda_300,300,rng-300,271,rng,num-start-61,61,536,4.513152837753296,True,,True,1,False,1000,True,1.0
./expes/v2_2020-11-23_di_250-prng-1,daily_issda_300,300,rng-300,11,rng,num-start-251,251,536,6.055960178375244,True,,True,1,False,1000,True,1.0
./expes/v2_2020-11-23_di_250-prng-1,daily_issda_300,300,rng-300,71,rng,num-start-251,251,536,7.781288385391235,True,,True,1,False,1000,True,1.0
./expes/v2_2020-11-23_di_250-prng-1,daily_issda_300,300,rng-300,21,rng,num-start-1,1,536,0.9486093521118164,False,,False,2,False,1000,True,0.0
./expes/v2_2020-11-23_di_250-prng-1,daily_issda_300,300,rng-300,91,rng,num-start-101,101,536,36.249720335006714,True,,True,1,False,1000,True,1.0
./expes/v2_2020-11-23_di_250-prng-1,daily_issda_300,300,rng-300,111,rng,num-start-121,121,536,9.288027286529541,True,,True,1,False,1000,True,1.0
./expes/v2_2020-11-23_di_250-prng-1,daily_issda_300,300,rng-300,31,rng,num-start-201,201,536,5.572486162185669,True,,True,1,False,1000,True,1.0
./expes/v2_2020-11-23_di_250-prng-1,daily_issda_300,300,rng-300,201,rng,num-start-171,171,536,5.581499338150024,True,,True,1,False,1000,True,1.0
./expes/v2_2020-11-23_di_250-prng-1,daily_issda_300,300,rng-300,231,rng,num-start-11,11,536,1000.3178539276123,False,,False,0,True,1000,True,0.0
./expes/v2_2020-11-23_di_250-prng-1,daily_issda_300,300,rng-300,31,rng,num-start-191,191,536,5.011227130889893,True,,True,1,False,1000,True,1.0
./expes/v2_2020-11-23_di_250-prng-1,daily_issda_300,300,rng-300,141,rng,num-start-21,21,536,1000.5286483764648,False,,False,0,True,1000,True,0.0
./expes/v2_2020-11-23_di_250-prng-1,daily_issda_300,300,rng-300,81,rng,num-start-211,211,536,6.656214952468872,True,,True,1,False,1000,True,1.0
./expes/v2_2020-11-23_di_250-prng-1,daily_issda_300,300,rng-300,241,rng,num-start-41,41,536,1000.9243195056915,False,,False,0,True,1000,True,0.0
./expes/v2_2020-11-23_di_250-prng-1,daily_issda_300,300,rng-300,101,rng,num-start-201,201,536,7.253161430358887,True,,True,1,False,1000,True,1.0
./expes/v2_2020-11-23_di_250-prng-1,daily_issda_300,300,rng-300,31,rng,num-start-281,281,536,8.771845817565918,True,,True,1,False,1000,True,1.0
./expes/v2_2020-11-23_di_250-prng-1,daily_issda_300,300,rng-300,1,rng,num-start-61,61,536,1.1949951648712158,True,,True,1,False,1000,True,1.0
./expes/v2_2020-11-23_di_250-prng-1,daily_issda_300,300,rng-300,291,rng,num-start-111,111,536,2.7572133541107178,True,,True,1,False,1000,True,1.0
./expes/v2_2020-11-23_di_250-prng-1,daily_issda_300,300,rng-300,91,rng,num-start-151,151,536,4.802886486053467,True,,True,1,False,1000,True,1.0
./expes/v2_2020-11-23_di_250-prng-1,daily_issda_300,300,rng-300,61,rng,num-start-261,261,536,7.964249134063721,True,,True,1,False,1000,True,1.0
./expes/v2_2020-11-23_di_250-prng-1,daily_issda_300,300,rng-300,281,rng,num-start-211,211,536,5.232264995574951,True,,True,1,False,1000,True,1.0
./expes/v2_2020-11-23_di_250-prng-1,daily_issda_300,300,rng-300,101,rng,num-start-141,141,536,5.087354898452759,True,,True,1,False,1000,True,1.0
./expes/v2_2020-11-23_di_250-prng-1,daily_issda_300,300,rng-300,61,rng,num-start-21,21,536,1000.5979418754578,False,,False,0,True,1000,True,0.0
./expes/v2_2020-11-23_di_250-prng-1,daily_issda_300,300,rng-300,61,rng,num-start-221,221,536,6.768757581710815,True,,True,1,False,1000,True,1.0
./expes/v2_2020-11-23_di_250-prng-1,daily_issda_300,300,rng-300,21,rng,num-start-211,211,536,5.800273656845093,True,,True,1,False,1000,True,1.0
./expes/v2_2020-11-23_di_250-prng-1,daily_issda_300,300,rng-300,211,rng,num-start-261,261,536,8.431333303451538,True,,True,1,False,1000,True,1.0
./expes/v2_2020-11-23_di_250-prng-1,daily_issda_300,300,rng-300,61,rng,num-start-251,251,536,7.569574356079102,True,,True,1,False,1000,True,1.0
./expes/v2_2020-11-23_di_250-prng-1,daily_issda_300,300,rng-300,51,rng,num-start-191,191,536,5.9174277782440186,True,,True,1,False,1000,True,1.0
./expes/v2_2020-11-23_di_250-prng-1,daily_issda_300,300,rng-300,221,rng,num-start-151,151,536,5.545442819595337,True,,True,1,False,1000,True,1.0
./expes/v2_2020-11-23_di_250-prng-1,daily_issda_300,300,rng-300,41,rng,num-start-131,131,536,4.43695068359375,True,,True,1,False,1000,True,1.0
./expes/v2_2020-11-23_di_250-prng-1,daily_issda_300,300,rng-300,171,rng,num-start-211,211,536,7.897945404052734,True,,True,1,False,1000,True,1.0
./expes/v2_2020-11-23_di_250-prng-1,daily_issda_300,300,rng-300,221,rng,num-start-191,191,536,5.725053548812866,True,,True,1,False,1000,True,1.0
./expes/v2_2020-11-23_di_250-prng-1,daily_issda_300,300,rng-300,181,rng,num-start-41,41,536,1000.834127664566,False,,False,0,True,1000,True,0.0
./expes/v2_2020-11-23_di_250-prng-1,daily_issda_300,300,rng-300,171,rng,num-start-281,281,536,9.656490802764893,True,,True,1,False,1000,True,1.0
./expes/v2_2020-11-23_di_250-prng-1,daily_issda_300,300,rng-300,281,rng,num-start-281,281,536,6.784185171127319,True,,True,1,False,1000,True,1.0
./expes/v2_2020-11-23_di_250-prng-1,daily_issda_300,300,rng-300,51,rng,num-start-171,171,536,5.6141698360443115,True,,True,1,False,1000,True,1.0
./expes/v2_2020-11-23_di_250-prng-1,daily_issda_300,300,rng-300,261,rng,num-start-241,241,536,7.30967903137207,True,,True,1,False,1000,True,1.0
./expes/v2_2020-11-23_di_250-prng-1,daily_issda_300,300,rng-300,91,rng,num-start-141,141,536,4.69146466255188,True,,True,1,False,1000,True,1.0
./expes/v2_2020-11-23_di_250-prng-1,daily_issda_300,300,rng-300,61,rng,num-start-121,121,536,3.595641851425171,True,,True,1,False,1000,True,1.0
./expes/v2_2020-11-23_di_250-prng-1,daily_issda_300,300,rng-300,131,rng,num-start-131,131,536,12.589856147766113,True,,True,1,False,1000,True,1.0
./expes/v2_2020-11-23_di_250-prng-1,daily_issda_300,300,rng-300,231,rng,num-start-231,231,536,8.209200859069824,True,,True,1,False,1000,True,1.0
./expes/v2_2020-11-23_di_250-prng-1,daily_issda_300,300,rng-300,221,rng,num-start-191,191,536,6.443020343780518,True,,True,1,False,1000,True,1.0
./expes/v2_2020-11-23_di_250-prng-1,daily_issda_300,300,rng-300,31,rng,num-start-181,181,536,4.810238361358643,True,,True,1,False,1000,True,1.0
./expes/v2_2020-11-23_di_250-prng-1,daily_issda_300,300,rng-300,181,rng,num-start-151,151,536,4.341119289398193,True,,True,1,False,1000,True,1.0
./expes/v2_2020-11-23_di_250-prng-1,daily_issda_300,300,rng-300,251,rng,num-start-261,261,536,7.503101825714111,True,,True,1,False,1000,True,1.0
./expes/v2_2020-11-23_di_250-prng-1,daily_issda_300,300,rng-300,291,rng,num-start-81,81,536,1.9821715354919434,True,,True,1,False,1000,True,1.0
./expes/v2_2020-11-23_di_250-prng-1,daily_issda_300,300,rng-300,51,rng,num-start-171,171,536,5.356908082962036,True,,True,1,False,1000,True,1.0
./expes/v2_2020-11-23_di_250-prng-1,daily_issda_300,300,rng-300,291,rng,num-start-231,231,536,6.083311557769775,True,,True,1,False,1000,True,1.0
./expes/v2_2020-11-23_di_250-prng-1,daily_issda_300,300,rng-300,41,rng,num-start-241,241,536,7.032219409942627,True,,True,1,False,1000,True,1.0
./expes/v2_2020-11-23_di_250-prng-1,daily_issda_300,300,rng-300,111,rng,num-start-131,131,536,4.8679211139678955,True,,True,1,False,1000,True,1.0
./expes/v2_2020-11-23_di_250-prng-1,daily_issda_300,300,rng-300,261,rng,num-start-91,91,536,3.056823492050171,True,,True,1,False,1000,True,1.0
./expes/v2_2020-11-23_di_250-prng-1,daily_issda_300,300,rng-300,141,rng,num-start-11,11,536,1000.3075518608093,False,,False,0,True,1000,True,0.0
./expes/v2_2020-11-23_di_250-prng-1,daily_issda_300,300,rng-300,41,rng,num-start-141,141,536,4.184257984161377,True,,True,1,False,1000,True,1.0
./expes/v2_2020-11-23_di_250-prng-1,daily_issda_300,300,rng-300,171,rng,num-start-251,251,536,7.820289373397827,True,,True,1,False,1000,True,1.0
./expes/v2_2020-11-23_di_250-prng-1,daily_issda_300,300,rng-300,111,rng,num-start-141,141,536,6.025163412094116,True,,True,1,False,1000,True,1.0
./expes/v2_2020-11-23_di_250-prng-1,daily_issda_300,300,rng-300,151,rng,num-start-201,201,536,6.700676679611206,True,,True,1,False,1000,True,1.0
./expes/v2_2020-11-23_di_250-prng-1,daily_issda_300,300,rng-300,281,rng,num-start-141,141,536,3.751890182495117,True,,True,1,False,1000,True,1.0
./expes/v2_2020-11-23_di_250-prng-1,daily_issda_300,300,rng-300,211,rng,num-start-111,111,536,9.103723764419556,True,,True,1,False,1000,True,1.0
./expes/v2_2020-11-23_di_250-prng-1,daily_issda_300,300,rng-300,41,rng,num-start-51,51,536,1001.1527254581451,False,,False,0,True,1000,True,0.0
./expes/v2_2020-11-23_di_250-prng-1,daily_issda_300,300,rng-300,151,rng,num-start-261,261,536,8.626014947891235,True,,True,1,False,1000,True,1.0
./expes/v2_2020-11-23_di_250-prng-1,daily_issda_300,300,rng-300,161,rng,num-start-51,51,536,1001.0606052875519,False,,False,0,True,1000,True,0.0
./expes/v2_2020-11-23_di_250-prng-1,daily_issda_300,300,rng-300,1,rng,num-start-141,141,536,2.7914414405822754,True,,True,1,False,1000,True,1.0
./expes/v2_2020-11-23_di_250-prng-1,daily_issda_300,300,rng-300,171,rng,num-start-21,21,536,1000.461019039154,False,,False,0,True,1000,True,0.0
./expes/v2_2020-11-23_di_250-prng-1,daily_issda_300,300,rng-300,111,rng,num-start-91,91,536,1001.7152953147888,False,,False,0,True,1000,True,0.0
./expes/v2_2020-11-23_di_250-prng-1,daily_issda_300,300,rng-300,151,rng,num-start-71,71,536,1001.4684302806854,False,,False,0,True,1000,True,0.0
./expes/v2_2020-11-23_di_250-prng-1,daily_issda_300,300,rng-300,21,rng,num-start-251,251,536,6.730688571929932,True,,True,1,False,1000,True,1.0
./expes/v2_2020-11-23_di_250-prng-1,daily_issda_300,300,rng-300,131,rng,num-start-231,231,536,7.470244646072388,True,,True,1,False,1000,True,1.0
./expes/v2_2020-11-23_di_250-prng-1,daily_issda_300,300,rng-300,251,rng,num-start-41,41,536,1000.8673634529114,False,,False,0,True,1000,True,0.0
./expes/v2_2020-11-23_di_250-prng-1,daily_issda_300,300,rng-300,91,rng,num-start-101,101,536,7.649994611740112,True,,True,1,False,1000,True,1.0
./expes/v2_2020-11-23_di_250-prng-1,daily_issda_300,300,rng-300,151,rng,num-start-131,131,536,8.521052122116089,True,,True,1,False,1000,True,1.0
./expes/v2_2020-11-23_di_250-prng-1,daily_issda_300,300,rng-300,121,rng,num-start-91,91,536,1001.901769399643,False,,False,0,True,1000,True,0.0
./expes/v2_2020-11-23_di_250-prng-1,daily_issda_300,300,rng-300,231,rng,num-start-201,201,536,5.945161581039429,True,,True,1,False,1000,True,1.0
./expes/v2_2020-11-23_di_250-prng-1,daily_issda_300,300,rng-300,281,rng,num-start-1,1,536,1.018481731414795,False,,False,2,False,1000,True,1.0
./expes/v2_2020-11-23_di_250-prng-1,daily_issda_300,300,rng-300,291,rng,num-start-271,271,536,5.9579267501831055,True,,True,1,False,1000,True,1.0
./expes/v2_2020-11-23_di_250-prng-1,daily_issda_300,300,rng-300,201,rng,num-start-101,101,536,15.381982803344727,True,,True,1,False,1000,True,1.0
./expes/v2_2020-11-23_di_250-prng-1,daily_issda_300,300,rng-300,181,rng,num-start-81,81,536,1001.8828682899475,False,,False,0,True,1000,True,0.0
./expes/v2_2020-11-23_di_250-prng-1,daily_issda_300,300,rng-300,221,rng,num-start-171,171,536,5.161986589431763,True,,True,1,False,1000,True,1.0
./expes/v2_2020-11-23_di_250-prng-1,daily_issda_300,300,rng-300,101,rng,num-start-41,41,536,1001.1378953456879,False,,False,0,True,1000,True,0.0
./expes/v2_2020-11-23_di_250-prng-1,daily_issda_300,300,rng-300,171,rng,num-start-291,291,536,9.97054934501648,True,,True,1,False,1000,True,1.0
./expes/v2_2020-11-23_di_250-prng-1,daily_issda_300,300,rng-300,41,rng,num-start-21,21,536,1000.4458935260773,False,,False,0,True,1000,True,0.0
./expes/v2_2020-11-23_di_250-prng-1,daily_issda_300,300,rng-300,271,rng,num-start-161,161,536,4.044779300689697,True,,True,1,False,1000,True,1.0
./expes/v2_2020-11-23_di_250-prng-1,daily_issda_300,300,rng-300,81,rng,num-start-151,151,536,4.828726530075073,True,,True,1,False,1000,True,1.0
./expes/v2_2020-11-23_di_250-prng-1,daily_issda_300,300,rng-300,51,rng,num-start-61,61,536,1001.238822221756,False,,False,0,True,1000,True,0.0
./expes/v2_2020-11-23_di_250-prng-1,daily_issda_300,300,rng-300,71,rng,num-start-201,201,536,6.2135093212127686,True,,True,1,False,1000,True,1.0
./expes/v2_2020-11-23_di_250-prng-1,daily_issda_300,300,rng-300,231,rng,num-start-11,11,536,1000.283055305481,False,,False,0,True,1000,True,0.0
