expe,clients,clients_size,clients_subset,agg_size,agg_size_pc,method,days,days_size,days_total,noise_method,time,valid,valid_sum,success,score_avg,score_min,score_max,nsols,oracle,wall_hit,wall_time,pooled,pool_size,uuid,optimal,valid_sums
./expes/v3_2021-02-22_hi_4500-prng-1-w10-p100-1,30_issda-4500,4500,first-4500,450,10,rng,num-start-750,750,25726,classic,10195.77262210846,False,,False,0,,,0,"['1', '2', '10', '13', '20', '28', '65', '73', '80', '102', '109', '116', '118', '121', '126', '133', '153', '166', '168', '178', '179', '187', '219', '227', '259', '266', '271', '276', '289', '291', '293', '295', '299', '310', '317', '319', '323', '332', '333', '334', '338', '345', '347', '371', '375', '384', '386', '396', '409', '455', '476', '493', '501', '510', '511', '516', '524', '538', '540', '544', '566', '574', '581', '590', '605', '607', '626', '648', '658', '660', '662', '667', '669', '675', '684', '686', '694', '713', '736', '743', '748', '750', '751', '765', '768', '777', '802', '804', '810', '815', '821', '825', '827', '832', '858', '859', '863', '891', '894', '910', '942', '943', '945', '949', '951', '960', '961', '975', '981', '1015', '1019', '1020', '1023', '1042', '1044', '1063', '1067', '1070', '1085', '1088', '1093', '1105', '1135', '1141', '1145', '1155', '1168', '1199', '1204', '1216', '1220', '1225', '1226', '1238', '1240', '1241', '1257', '1266', '1276', '1278', '1292', '1297', '1312', '1317', '1327', '1342', '1343', '1358', '1365', '1388', '1397', '1433', '1461', '1472', '1478', '1491', '1493', '1507', '1516', '1530', '1541', '1545', '1552', '1560', '1561', '1566', '1573', '1576', '1595', '1598', '1622', '1623', '1627', '1634', '1653', '1655', '1665', '1667', '1676', '1686', '1689', '1698', '1703', '1726', '1750', '1763', '1769', '1780', '1790', '1793', '1804', '1807', '1810', '1811', '1817', '1828', '1844', '1914', '1930', '1955', '1958', '1962', '1964', '1968', '1984', '1991', '1999', '2053', '2054', '2056', '2085', '2102', '2105', '2122', '2124', '2128', '2130', '2131', '2132', '2134', '2138', '2147', '2209', '2221', '2224', '2251', '2255', '2258', '2281', '2294', '2301', '2309', '2352', '2357', '2359', '2372', '2373', '2375', '2379', '2385', '2404', '2412', '2428', '2452', '2462', '2467', '2470', '2474', '2478', '2480', '2481', '2485', '2523', '2541', '2542', '2552', '2557', '2579', '2591', '2598', '2608', '2622', '2637', '2642', '2654', '2657', '2665', '2671', '2692', '2705', '2709', '2725', '2726', '2730', '2732', '2737', '2740', '2745', '2747', '2752', '2762', '2765', '2768', '2771', '2788', '2805', '2816', '2840', '2844', '2870', '2886', '2890', '2899', '2926', '2928', '2934', '2937', '2938', '2943', '2957', '2963', '3006', '3009', '3018', '3033', '3042', '3048', '3052', '3077', '3097', '3102', '3105', '3132', '3141', '3144', '3148', '3153', '3154', '3156', '3168', '3179', '3184', '3205', '3206', '3227', '3235', '3250', '3261', '3268', '3292', '3296', '3303', '3318', '3326', '3343', '3358', '3369', '3395', '3398', '3401', '3421', '3423', '3424', '3427', '3436', '3446', '3466', '3468', '3487', '3491', '3493', '3495', '3533', '3557', '3568', '3573', '3624', '3627', '3646', '3649', '3657', '3670', '3672', '3675', '3692', '3700', '3711', '3752', '3756', '3758', '3760', '3775', '3820', '3825', '3827', '3828', '3853', '3854', '3858', '3864', '3868', '3884', '3897', '3904', '3905', '3908', '3917', '3925', '3926', '3942', '3944', '3948', '3951', '3981', '3985', '3992', '3997', '4003', '4009', '4017', '4030', '4036', '4043', '4044', '4051', '4052', '4059', '4073', '4078', '4084', '4085', '4116', '4126', '4135', '4137', '4153', '4162', '4167', '4189', '4232', '4244', '4252', '4267', '4270', '4271', '4275', '4285', '4298', '4302', '4308', '4322', '4329', '4338', '4341', '4363', '4377', '4387', '4407', '4427', '4429', '4447', '4449', '4459', '4460', '4477', '4483', '4485', '4494', '4495', '4499']",True,10000,True,100,9ca07394e8,0.0,0.0
./expes/v3_2021-02-22_hi_4500-prng-1-w10-p100-1,30_issda-4500,4500,first-4500,350,7,rng,num-start-3750,3750,25726,classic,5802.906720638275,True,,True,1.0,1.0,1.0,1,"['1', '10', '13', '20', '28', '65', '73', '102', '109', '116', '118', '121', '133', '153', '178', '179', '187', '219', '227', '259', '271', '293', '299', '310', '317', '319', '323', '332', '334', '338', '345', '347', '371', '375', '384', '396', '409', '476', '501', '510', '511', '516', '524', '540', '566', '574', '581', '590', '605', '607', '648', '658', '660', '662', '667', '675', '684', '686', '694', '713', '736', '748', '750', '751', '765', '768', '777', '802', '804', '810', '815', '821', '825', '827', '832', '858', '891', '894', '942', '943', '945', '949', '951', '960', '961', '975', '981', '1015', '1019', '1020', '1023', '1063', '1067', '1070', '1085', '1093', '1105', '1135', '1141', '1145', '1168', '1199', '1204', '1225', '1226', '1238', '1257', '1266', '1276', '1292', '1297', '1312', '1327', '1343', '1358', '1365', '1388', '1397', '1433', '1461', '1472', '1478', '1493', '1507', '1516', '1530', '1541', '1545', '1552', '1560', '1561', '1566', '1573', '1576', '1595', '1622', '1623', '1627', '1634', '1653', '1665', '1667', '1676', '1686', '1698', '1703', '1726', '1750', '1763', '1769', '1780', '1790', '1793', '1804', '1807', '1810', '1811', '1817', '1828', '1930', '1955', '1962', '1964', '1968', '1984', '1991', '1999', '2053', '2054', '2056', '2102', '2122', '2124', '2128', '2130', '2131', '2132', '2134', '2138', '2209', '2221', '2224', '2251', '2255', '2258', '2281', '2294', '2301', '2309', '2357', '2359', '2372', '2375', '2379', '2385', '2404', '2452', '2467', '2470', '2474', '2478', '2480', '2485', '2523', '2541', '2542', '2552', '2557', '2579', '2591', '2598', '2622', '2657', '2665', '2671', '2692', '2705', '2725', '2726', '2730', '2732', '2740', '2745', '2747', '2752', '2762', '2765', '2771', '2805', '2816', '2844', '2870', '2886', '2899', '2926', '2928', '2934', '2937', '2938', '2943', '2957', '2963', '3006', '3009', '3018', '3033', '3048', '3052', '3077', '3097', '3102', '3153', '3154', '3156', '3179', '3184', '3205', '3206', '3227', '3235', '3250', '3261', '3268', '3292', '3296', '3303', '3318', '3358', '3395', '3398', '3401', '3421', '3427', '3436', '3446', '3466', '3487', '3491', '3495', '3533', '3557', '3568', '3573', '3624', '3627', '3646', '3649', '3657', '3670', '3672', '3675', '3692', '3700', '3711', '3752', '3756', '3758', '3825', '3827', '3853', '3864', '3868', '3884', '3897', '3904', '3905', '3908', '3917', '3925', '3926', '3942', '3948', '3981', '3985', '3992', '4003', '4009', '4036', '4044', '4051', '4052', '4073', '4078', '4126', '4135', '4162', '4167', '4189', '4252', '4267', '4271', '4275', '4285', '4298', '4308', '4322', '4329', '4338', '4363', '4377', '4407', '4427', '4429', '4449', '4459', '4460', '4483', '4485', '4494', '4495']",False,10000,True,100,5b140a45ee,1.0,1.0
