expe,clients,clients_size,clients_subset,agg_size,method,days,days_size,days_total,time,valid,valid_sum,success,nsols,wall_hit,wall_time,pooled,valid_sums
./expes/v2_2020-11-23_di_150-prng-1,daily_issda_150,150,rng-150,41,rng,num-start-31,31,536,1001.248724937439,False,,False,0,True,1000,True,0.0
./expes/v2_2020-11-23_di_150-prng-1,daily_issda_150,150,rng-150,71,rng,num-start-131,131,536,1.8271949291229248,True,,True,1,False,1000,True,1.0
./expes/v2_2020-11-23_di_150-prng-1,daily_issda_150,150,rng-150,21,rng,num-start-121,121,536,1.6940147876739502,True,,True,1,False,1000,True,1.0
./expes/v2_2020-11-23_di_150-prng-1,daily_issda_150,150,rng-150,21,rng,num-start-131,131,536,1.9029886722564697,True,,True,1,False,1000,True,1.0
./expes/v2_2020-11-23_di_150-prng-1,daily_issda_150,150,rng-150,101,rng,num-start-181,181,536,2.660184144973755,True,,True,1,False,1000,True,1.0
./expes/v2_2020-11-23_di_150-prng-1,daily_issda_150,150,rng-150,71,rng,num-start-211,211,536,2.667391777038574,True,,True,1,False,1000,True,1.0
./expes/v2_2020-11-23_di_150-prng-1,daily_issda_150,150,rng-150,81,rng,num-start-201,201,536,2.6604268550872803,True,,True,1,False,1000,True,1.0
./expes/v2_2020-11-23_di_150-prng-1,daily_issda_150,150,rng-150,61,rng,num-start-101,101,536,1.562072515487671,True,,True,1,False,1000,True,1.0
./expes/v2_2020-11-23_di_150-prng-1,daily_issda_150,150,rng-150,11,rng,num-start-81,81,536,1.1145102977752686,True,,True,1,False,1000,True,1.0
./expes/v2_2020-11-23_di_150-prng-1,daily_issda_150,150,rng-150,81,rng,num-start-71,71,536,1.1844663619995117,True,,True,1,False,1000,True,1.0
./expes/v2_2020-11-23_di_150-prng-1,daily_issda_150,150,rng-150,121,rng,num-start-291,291,536,3.8173024654388428,True,,True,1,False,1000,True,1.0
./expes/v2_2020-11-23_di_150-prng-1,daily_issda_150,150,rng-150,11,rng,num-start-261,261,536,3.1194775104522705,True,,True,1,False,1000,True,1.0
./expes/v2_2020-11-23_di_150-prng-1,daily_issda_150,150,rng-150,141,rng,num-start-81,81,536,1.1143410205841064,True,,True,1,False,1000,True,1.0
./expes/v2_2020-11-23_di_150-prng-1,daily_issda_150,150,rng-150,21,rng,num-start-11,11,536,1001.7841188907623,False,,False,0,True,1000,True,0.0
./expes/v2_2020-11-23_di_150-prng-1,daily_issda_150,150,rng-150,131,rng,num-start-161,161,536,2.133941888809204,True,,True,1,False,1000,True,1.0
./expes/v2_2020-11-23_di_150-prng-1,daily_issda_150,150,rng-150,131,rng,num-start-271,271,536,3.361290693283081,True,,True,1,False,1000,True,1.0
./expes/v2_2020-11-23_di_150-prng-1,daily_issda_150,150,rng-150,71,rng,num-start-281,281,536,3.6226086616516113,True,,True,1,False,1000,True,1.0
./expes/v2_2020-11-23_di_150-prng-1,daily_issda_150,150,rng-150,111,rng,num-start-41,41,536,5.3279502391815186,True,,True,1,False,1000,True,1.0
./expes/v2_2020-11-23_di_150-prng-1,daily_issda_150,150,rng-150,141,rng,num-start-251,251,536,3.021920919418335,True,,True,1,False,1000,True,1.0
./expes/v2_2020-11-23_di_150-prng-1,daily_issda_150,150,rng-150,81,rng,num-start-131,131,536,1.813981533050537,True,,True,1,False,1000,True,1.0
./expes/v2_2020-11-23_di_150-prng-1,daily_issda_150,150,rng-150,121,rng,num-start-91,91,536,1.2320199012756348,True,,True,1,False,1000,True,1.0
./expes/v2_2020-11-23_di_150-prng-1,daily_issda_150,150,rng-150,71,rng,num-start-231,231,536,3.0253002643585205,True,,True,1,False,1000,True,1.0
./expes/v2_2020-11-23_di_150-prng-1,daily_issda_150,150,rng-150,91,rng,num-start-71,71,536,1.6227779388427734,True,,True,1,False,1000,True,1.0
./expes/v2_2020-11-23_di_150-prng-1,daily_issda_150,150,rng-150,21,rng,num-start-281,281,536,3.6531572341918945,True,,True,1,False,1000,True,1.0
./expes/v2_2020-11-23_di_150-prng-1,daily_issda_150,150,rng-150,51,rng,num-start-51,51,536,1.6743168830871582,True,,True,1,False,1000,True,1.0
./expes/v2_2020-11-23_di_150-prng-1,daily_issda_150,150,rng-150,1,rng,num-start-11,11,536,0.1275959014892578,True,,True,1,False,1000,True,1.0
./expes/v2_2020-11-23_di_150-prng-1,daily_issda_150,150,rng-150,11,rng,num-start-171,171,536,2.3414053916931152,True,,True,1,False,1000,True,1.0
./expes/v2_2020-11-23_di_150-prng-1,daily_issda_150,150,rng-150,61,rng,num-start-151,151,536,2.2875571250915527,True,,True,1,False,1000,True,1.0
./expes/v2_2020-11-23_di_150-prng-1,daily_issda_150,150,rng-150,131,rng,num-start-81,81,536,1.065725326538086,True,,True,1,False,1000,True,1.0
./expes/v2_2020-11-23_di_150-prng-1,daily_issda_150,150,rng-150,101,rng,num-start-201,201,536,2.821155309677124,True,,True,1,False,1000,True,1.0
./expes/v2_2020-11-23_di_150-prng-1,daily_issda_150,150,rng-150,51,rng,num-start-251,251,536,3.2887492179870605,True,,True,1,False,1000,True,1.0
./expes/v2_2020-11-23_di_150-prng-1,daily_issda_150,150,rng-150,141,rng,num-start-291,291,536,3.2641103267669678,True,,True,1,False,1000,True,1.0
./expes/v2_2020-11-23_di_150-prng-1,daily_issda_150,150,rng-150,111,rng,num-start-281,281,536,3.3683435916900635,True,,True,1,False,1000,True,1.0
./expes/v2_2020-11-23_di_150-prng-1,daily_issda_150,150,rng-150,141,rng,num-start-61,61,536,0.8087165355682373,True,,True,1,False,1000,True,1.0
./expes/v2_2020-11-23_di_150-prng-1,daily_issda_150,150,rng-150,91,rng,num-start-71,71,536,1.713357925415039,True,,True,1,False,1000,True,1.0
./expes/v2_2020-11-23_di_150-prng-1,daily_issda_150,150,rng-150,51,rng,num-start-191,191,536,2.6467058658599854,True,,True,1,False,1000,True,1.0
./expes/v2_2020-11-23_di_150-prng-1,daily_issda_150,150,rng-150,91,rng,num-start-241,241,536,3.3621826171875,True,,True,1,False,1000,True,1.0
./expes/v2_2020-11-23_di_150-prng-1,daily_issda_150,150,rng-150,91,rng,num-start-211,211,536,2.898873805999756,True,,True,1,False,1000,True,1.0
./expes/v2_2020-11-23_di_150-prng-1,daily_issda_150,150,rng-150,81,rng,num-start-231,231,536,3.0401439666748047,True,,True,1,False,1000,True,1.0
./expes/v2_2020-11-23_di_150-prng-1,daily_issda_150,150,rng-150,11,rng,num-start-251,251,536,2.8985140323638916,True,,True,1,False,1000,True,1.0
./expes/v2_2020-11-23_di_150-prng-1,daily_issda_150,150,rng-150,131,rng,num-start-161,161,536,2.0738108158111572,True,,True,1,False,1000,True,1.0
./expes/v2_2020-11-23_di_150-prng-1,daily_issda_150,150,rng-150,121,rng,num-start-281,281,536,3.342750072479248,True,,True,1,False,1000,True,1.0
./expes/v2_2020-11-23_di_150-prng-1,daily_issda_150,150,rng-150,131,rng,num-start-1,1,536,0.7721881866455078,False,,False,2,False,1000,True,1.0
./expes/v2_2020-11-23_di_150-prng-1,daily_issda_150,150,rng-150,51,rng,num-start-211,211,536,2.8543882369995117,True,,True,1,False,1000,True,1.0
./expes/v2_2020-11-23_di_150-prng-1,daily_issda_150,150,rng-150,121,rng,num-start-271,271,536,3.445502996444702,True,,True,1,False,1000,True,1.0
./expes/v2_2020-11-23_di_150-prng-1,daily_issda_150,150,rng-150,31,rng,num-start-91,91,536,1.252397060394287,True,,True,1,False,1000,True,1.0
./expes/v2_2020-11-23_di_150-prng-1,daily_issda_150,150,rng-150,71,rng,num-start-231,231,536,2.7362520694732666,True,,True,1,False,1000,True,1.0
./expes/v2_2020-11-23_di_150-prng-1,daily_issda_150,150,rng-150,131,rng,num-start-141,141,536,1.8620784282684326,True,,True,1,False,1000,True,1.0
./expes/v2_2020-11-23_di_150-prng-1,daily_issda_150,150,rng-150,1,rng,num-start-81,81,536,0.7827718257904053,True,,True,1,False,1000,True,1.0
./expes/v2_2020-11-23_di_150-prng-1,daily_issda_150,150,rng-150,141,rng,num-start-51,51,536,0.6491827964782715,True,,True,1,False,1000,True,1.0
./expes/v2_2020-11-23_di_150-prng-1,daily_issda_150,150,rng-150,101,rng,num-start-101,101,536,1.4162611961364746,True,,True,1,False,1000,True,1.0
./expes/v2_2020-11-23_di_150-prng-1,daily_issda_150,150,rng-150,111,rng,num-start-91,91,536,1.1927194595336914,True,,True,1,False,1000,True,1.0
./expes/v2_2020-11-23_di_150-prng-1,daily_issda_150,150,rng-150,31,rng,num-start-61,61,536,0.8622424602508545,True,,True,1,False,1000,True,1.0
./expes/v2_2020-11-23_di_150-prng-1,daily_issda_150,150,rng-150,41,rng,num-start-271,271,536,3.5893502235412598,True,,True,1,False,1000,True,1.0
./expes/v2_2020-11-23_di_150-prng-1,daily_issda_150,150,rng-150,41,rng,num-start-251,251,536,3.4616713523864746,True,,True,1,False,1000,True,1.0
./expes/v2_2020-11-23_di_150-prng-1,daily_issda_150,150,rng-150,61,rng,num-start-1,1,536,1.254918098449707,False,,False,2,False,1000,True,1.0
./expes/v2_2020-11-23_di_150-prng-1,daily_issda_150,150,rng-150,31,rng,num-start-11,11,536,1000.4109315872192,False,,False,0,True,1000,True,0.0
./expes/v2_2020-11-23_di_150-prng-1,daily_issda_150,150,rng-150,111,rng,num-start-131,131,536,1.7486424446105957,True,,True,1,False,1000,True,1.0
./expes/v2_2020-11-23_di_150-prng-1,daily_issda_150,150,rng-150,111,rng,num-start-31,31,536,1002.1799471378326,False,,False,0,True,1000,True,0.0
./expes/v2_2020-11-23_di_150-prng-1,daily_issda_150,150,rng-150,71,rng,num-start-281,281,536,3.8291146755218506,True,,True,1,False,1000,True,1.0
./expes/v2_2020-11-23_di_150-prng-1,daily_issda_150,150,rng-150,91,rng,num-start-281,281,536,3.5674026012420654,True,,True,1,False,1000,True,1.0
./expes/v2_2020-11-23_di_150-prng-1,daily_issda_150,150,rng-150,1,rng,num-start-191,191,536,1.8694307804107666,True,,True,1,False,1000,True,1.0
./expes/v2_2020-11-23_di_150-prng-1,daily_issda_150,150,rng-150,51,rng,num-start-221,221,536,2.845716953277588,True,,True,1,False,1000,True,1.0
./expes/v2_2020-11-23_di_150-prng-1,daily_issda_150,150,rng-150,71,rng,num-start-121,121,536,1.5348808765411377,True,,True,1,False,1000,True,1.0
./expes/v2_2020-11-23_di_150-prng-1,daily_issda_150,150,rng-150,41,rng,num-start-41,41,536,1.3858201503753662,True,,True,1,False,1000,True,1.0
./expes/v2_2020-11-23_di_150-prng-1,daily_issda_150,150,rng-150,71,rng,num-start-81,81,536,1.1753606796264648,True,,True,1,False,1000,True,1.0
./expes/v2_2020-11-23_di_150-prng-1,daily_issda_150,150,rng-150,91,rng,num-start-181,181,536,2.6883296966552734,True,,True,1,False,1000,True,1.0
./expes/v2_2020-11-23_di_150-prng-1,daily_issda_150,150,rng-150,121,rng,num-start-241,241,536,3.4116718769073486,True,,True,1,False,1000,True,1.0
./expes/v2_2020-11-23_di_150-prng-1,daily_issda_150,150,rng-150,81,rng,num-start-51,51,536,5.426011800765991,True,,True,1,False,1000,True,1.0
./expes/v2_2020-11-23_di_150-prng-1,daily_issda_150,150,rng-150,121,rng,num-start-181,181,536,2.3910272121429443,True,,True,1,False,1000,True,1.0
./expes/v2_2020-11-23_di_150-prng-1,daily_issda_150,150,rng-150,141,rng,num-start-161,161,536,2.203429698944092,True,,True,1,False,1000,True,1.0
./expes/v2_2020-11-23_di_150-prng-1,daily_issda_150,150,rng-150,91,rng,num-start-231,231,536,3.0977818965911865,True,,True,1,False,1000,True,1.0
./expes/v2_2020-11-23_di_150-prng-1,daily_issda_150,150,rng-150,41,rng,num-start-281,281,536,3.639397382736206,True,,True,1,False,1000,True,1.0
./expes/v2_2020-11-23_di_150-prng-1,daily_issda_150,150,rng-150,101,rng,num-start-41,41,536,1.1773414611816406,True,,True,1,False,1000,True,1.0
./expes/v2_2020-11-23_di_150-prng-1,daily_issda_150,150,rng-150,31,rng,num-start-251,251,536,2.929799795150757,True,,True,1,False,1000,True,1.0
./expes/v2_2020-11-23_di_150-prng-1,daily_issda_150,150,rng-150,81,rng,num-start-291,291,536,3.711057662963867,True,,True,1,False,1000,True,1.0
./expes/v2_2020-11-23_di_150-prng-1,daily_issda_150,150,rng-150,11,rng,num-start-71,71,536,1.0448403358459473,True,,True,1,False,1000,True,1.0
./expes/v2_2020-11-23_di_150-prng-1,daily_issda_150,150,rng-150,111,rng,num-start-201,201,536,2.616230010986328,True,,True,1,False,1000,True,1.0
./expes/v2_2020-11-23_di_150-prng-1,daily_issda_150,150,rng-150,121,rng,num-start-121,121,536,1.6153628826141357,True,,True,1,False,1000,True,1.0
./expes/v2_2020-11-23_di_150-prng-1,daily_issda_150,150,rng-150,1,rng,num-start-201,201,536,1.9429824352264404,True,,True,1,False,1000,True,1.0
./expes/v2_2020-11-23_di_150-prng-1,daily_issda_150,150,rng-150,121,rng,num-start-241,241,536,2.9308159351348877,True,,True,1,False,1000,True,1.0
./expes/v2_2020-11-23_di_150-prng-1,daily_issda_150,150,rng-150,31,rng,num-start-191,191,536,2.5538463592529297,True,,True,1,False,1000,True,1.0
./expes/v2_2020-11-23_di_150-prng-1,daily_issda_150,150,rng-150,51,rng,num-start-91,91,536,1.3362741470336914,True,,True,1,False,1000,True,1.0
./expes/v2_2020-11-23_di_150-prng-1,daily_issda_150,150,rng-150,91,rng,num-start-291,291,536,3.4050064086914062,True,,True,1,False,1000,True,1.0
./expes/v2_2020-11-23_di_150-prng-1,daily_issda_150,150,rng-150,61,rng,num-start-121,121,536,1.9499609470367432,True,,True,1,False,1000,True,1.0
./expes/v2_2020-11-23_di_150-prng-1,daily_issda_150,150,rng-150,11,rng,num-start-251,251,536,2.90191650390625,True,,True,1,False,1000,True,1.0
./expes/v2_2020-11-23_di_150-prng-1,daily_issda_150,150,rng-150,71,rng,num-start-91,91,536,1.426347255706787,True,,True,1,False,1000,True,1.0
./expes/v2_2020-11-23_di_150-prng-1,daily_issda_150,150,rng-150,51,rng,num-start-81,81,536,1.2354190349578857,True,,True,1,False,1000,True,1.0
./expes/v2_2020-11-23_di_150-prng-1,daily_issda_150,150,rng-150,131,rng,num-start-21,21,536,1017.8664090633392,False,,False,0,True,1000,True,0.0
./expes/v2_2020-11-23_di_150-prng-1,daily_issda_150,150,rng-150,121,rng,num-start-251,251,536,3.3747446537017822,True,,True,1,False,1000,True,1.0
./expes/v2_2020-11-23_di_150-prng-1,daily_issda_150,150,rng-150,81,rng,num-start-201,201,536,3.063349962234497,True,,True,1,False,1000,True,1.0
./expes/v2_2020-11-23_di_150-prng-1,daily_issda_150,150,rng-150,131,rng,num-start-181,181,536,2.2765145301818848,True,,True,1,False,1000,True,1.0
./expes/v2_2020-11-23_di_150-prng-1,daily_issda_150,150,rng-150,11,rng,num-start-231,231,536,3.1682956218719482,True,,True,1,False,1000,True,1.0
./expes/v2_2020-11-23_di_150-prng-1,daily_issda_150,150,rng-150,31,rng,num-start-131,131,536,2.177729368209839,True,,True,1,False,1000,True,1.0
./expes/v2_2020-11-23_di_150-prng-1,daily_issda_150,150,rng-150,21,rng,num-start-81,81,536,1.1729764938354492,True,,True,1,False,1000,True,1.0
./expes/v2_2020-11-23_di_150-prng-1,daily_issda_150,150,rng-150,141,rng,num-start-101,101,536,1.2752387523651123,True,,True,1,False,1000,True,1.0
./expes/v2_2020-11-23_di_150-prng-1,daily_issda_150,150,rng-150,91,rng,num-start-181,181,536,2.4354124069213867,True,,True,1,False,1000,True,1.0
./expes/v2_2020-11-23_di_150-prng-1,daily_issda_150,150,rng-150,101,rng,num-start-91,91,536,1.3006353378295898,True,,True,1,False,1000,True,1.0
./expes/v2_2020-11-23_di_150-prng-1,daily_issda_150,150,rng-150,41,rng,num-start-61,61,536,0.9917709827423096,True,,True,1,False,1000,True,1.0
./expes/v2_2020-11-23_di_150-prng-1,daily_issda_150,150,rng-150,11,rng,num-start-61,61,536,0.8745157718658447,True,,True,1,False,1000,True,1.0
./expes/v2_2020-11-23_di_150-prng-1,daily_issda_150,150,rng-150,21,rng,num-start-191,191,536,2.362147092819214,True,,True,1,False,1000,True,1.0
./expes/v2_2020-11-23_di_150-prng-1,daily_issda_150,150,rng-150,81,rng,num-start-231,231,536,3.162262201309204,True,,True,1,False,1000,True,1.0
./expes/v2_2020-11-23_di_150-prng-1,daily_issda_150,150,rng-150,41,rng,num-start-271,271,536,3.681602954864502,True,,True,1,False,1000,True,1.0
./expes/v2_2020-11-23_di_150-prng-1,daily_issda_150,150,rng-150,11,rng,num-start-161,161,536,2.231220245361328,True,,True,1,False,1000,True,1.0
./expes/v2_2020-11-23_di_150-prng-1,daily_issda_150,150,rng-150,41,rng,num-start-211,211,536,2.8294644355773926,True,,True,1,False,1000,True,1.0
./expes/v2_2020-11-23_di_150-prng-1,daily_issda_150,150,rng-150,141,rng,num-start-61,61,536,0.8178982734680176,True,,True,1,False,1000,True,1.0
./expes/v2_2020-11-23_di_150-prng-1,daily_issda_150,150,rng-150,51,rng,num-start-291,291,536,4.076080799102783,True,,True,1,False,1000,True,1.0
./expes/v2_2020-11-23_di_150-prng-1,daily_issda_150,150,rng-150,11,rng,num-start-291,291,536,3.261552095413208,True,,True,1,False,1000,True,1.0
./expes/v2_2020-11-23_di_150-prng-1,daily_issda_150,150,rng-150,121,rng,num-start-81,81,536,1.367706060409546,True,,True,1,False,1000,True,1.0
./expes/v2_2020-11-23_di_150-prng-1,daily_issda_150,150,rng-150,81,rng,num-start-191,191,536,2.581590175628662,True,,True,1,False,1000,True,1.0
./expes/v2_2020-11-23_di_150-prng-1,daily_issda_150,150,rng-150,31,rng,num-start-251,251,536,2.9452881813049316,True,,True,1,False,1000,True,1.0
./expes/v2_2020-11-23_di_150-prng-1,daily_issda_150,150,rng-150,131,rng,num-start-221,221,536,2.492164373397827,True,,True,1,False,1000,True,1.0
./expes/v2_2020-11-23_di_150-prng-1,daily_issda_150,150,rng-150,111,rng,num-start-291,291,536,3.2474422454833984,True,,True,1,False,1000,True,1.0
./expes/v2_2020-11-23_di_150-prng-1,daily_issda_150,150,rng-150,51,rng,num-start-271,271,536,3.4756908416748047,True,,True,1,False,1000,True,1.0
./expes/v2_2020-11-23_di_150-prng-1,daily_issda_150,150,rng-150,41,rng,num-start-231,231,536,3.114964485168457,True,,True,1,False,1000,True,1.0
./expes/v2_2020-11-23_di_150-prng-1,daily_issda_150,150,rng-150,11,rng,num-start-261,261,536,2.9314138889312744,True,,True,1,False,1000,True,1.0
./expes/v2_2020-11-23_di_150-prng-1,daily_issda_150,150,rng-150,41,rng,num-start-271,271,536,3.311246871948242,True,,True,1,False,1000,True,1.0
./expes/v2_2020-11-23_di_150-prng-1,daily_issda_150,150,rng-150,131,rng,num-start-201,201,536,2.5240724086761475,True,,True,1,False,1000,True,1.0
./expes/v2_2020-11-23_di_150-prng-1,daily_issda_150,150,rng-150,71,rng,num-start-201,201,536,2.785135269165039,True,,True,1,False,1000,True,1.0
./expes/v2_2020-11-23_di_150-prng-1,daily_issda_150,150,rng-150,61,rng,num-start-281,281,536,3.333646774291992,True,,True,1,False,1000,True,1.0
./expes/v2_2020-11-23_di_150-prng-1,daily_issda_150,150,rng-150,41,rng,num-start-191,191,536,2.445666551589966,True,,True,1,False,1000,True,1.0
./expes/v2_2020-11-23_di_150-prng-1,daily_issda_150,150,rng-150,31,rng,num-start-81,81,536,1.136401891708374,True,,True,1,False,1000,True,1.0
./expes/v2_2020-11-23_di_150-prng-1,daily_issda_150,150,rng-150,61,rng,num-start-81,81,536,1.2144339084625244,True,,True,1,False,1000,True,1.0
./expes/v2_2020-11-23_di_150-prng-1,daily_issda_150,150,rng-150,111,rng,num-start-51,51,536,1.144625186920166,True,,True,1,False,1000,True,1.0
./expes/v2_2020-11-23_di_150-prng-1,daily_issda_150,150,rng-150,1,rng,num-start-61,61,536,0.6221773624420166,True,,True,1,False,1000,True,1.0
./expes/v2_2020-11-23_di_150-prng-1,daily_issda_150,150,rng-150,111,rng,num-start-231,231,536,2.899923086166382,True,,True,1,False,1000,True,1.0
./expes/v2_2020-11-23_di_150-prng-1,daily_issda_150,150,rng-150,21,rng,num-start-281,281,536,3.5910744667053223,True,,True,1,False,1000,True,1.0
./expes/v2_2020-11-23_di_150-prng-1,daily_issda_150,150,rng-150,81,rng,num-start-51,51,536,4.938776969909668,True,,True,1,False,1000,True,1.0
./expes/v2_2020-11-23_di_150-prng-1,daily_issda_150,150,rng-150,31,rng,num-start-281,281,536,3.39201021194458,True,,True,1,False,1000,True,1.0
./expes/v2_2020-11-23_di_150-prng-1,daily_issda_150,150,rng-150,81,rng,num-start-31,31,536,1001.350252866745,False,,False,0,True,1000,True,0.0
./expes/v2_2020-11-23_di_150-prng-1,daily_issda_150,150,rng-150,141,rng,num-start-31,31,536,0.5070483684539795,True,,True,1,False,1000,True,1.0
./expes/v2_2020-11-23_di_150-prng-1,daily_issda_150,150,rng-150,91,rng,num-start-111,111,536,1.4301865100860596,True,,True,1,False,1000,True,1.0
./expes/v2_2020-11-23_di_150-prng-1,daily_issda_150,150,rng-150,21,rng,num-start-261,261,536,3.2088139057159424,True,,True,1,False,1000,True,1.0
./expes/v2_2020-11-23_di_150-prng-1,daily_issda_150,150,rng-150,121,rng,num-start-231,231,536,2.7104990482330322,True,,True,1,False,1000,True,1.0
./expes/v2_2020-11-23_di_150-prng-1,daily_issda_150,150,rng-150,11,rng,num-start-1,1,536,1.2216002941131592,False,,False,2,False,1000,True,1.0
./expes/v2_2020-11-23_di_150-prng-1,daily_issda_150,150,rng-150,91,rng,num-start-21,21,536,1000.307012796402,False,,False,0,True,1000,True,0.0
./expes/v2_2020-11-23_di_150-prng-1,daily_issda_150,150,rng-150,141,rng,num-start-271,271,536,3.155965566635132,True,,True,1,False,1000,True,1.0
./expes/v2_2020-11-23_di_150-prng-1,daily_issda_150,150,rng-150,141,rng,num-start-171,171,536,2.14288592338562,True,,True,1,False,1000,True,1.0
./expes/v2_2020-11-23_di_150-prng-1,daily_issda_150,150,rng-150,51,rng,num-start-271,271,536,3.2632687091827393,True,,True,1,False,1000,True,1.0
./expes/v2_2020-11-23_di_150-prng-1,daily_issda_150,150,rng-150,51,rng,num-start-61,61,536,1.3681793212890625,True,,True,1,False,1000,True,1.0
./expes/v2_2020-11-23_di_150-prng-1,daily_issda_150,150,rng-150,11,rng,num-start-141,141,536,1.7548940181732178,True,,True,1,False,1000,True,1.0
./expes/v2_2020-11-23_di_150-prng-1,daily_issda_150,150,rng-150,61,rng,num-start-51,51,536,6.8206610679626465,True,,True,1,False,1000,True,1.0
./expes/v2_2020-11-23_di_150-prng-1,daily_issda_150,150,rng-150,121,rng,num-start-1,1,536,0.5662989616394043,False,,False,2,False,1000,True,1.0
./expes/v2_2020-11-23_di_150-prng-1,daily_issda_150,150,rng-150,11,rng,num-start-31,31,536,0.7808747291564941,True,,True,1,False,1000,True,1.0
./expes/v2_2020-11-23_di_150-prng-1,daily_issda_150,150,rng-150,41,rng,num-start-181,181,536,2.2804479598999023,True,,True,1,False,1000,True,1.0
./expes/v2_2020-11-23_di_150-prng-1,daily_issda_150,150,rng-150,31,rng,num-start-251,251,536,3.0581486225128174,True,,True,1,False,1000,True,1.0
./expes/v2_2020-11-23_di_150-prng-1,daily_issda_150,150,rng-150,61,rng,num-start-111,111,536,1.6208953857421875,True,,True,1,False,1000,True,1.0
./expes/v2_2020-11-23_di_150-prng-1,daily_issda_150,150,rng-150,51,rng,num-start-51,51,536,3.971194267272949,True,,True,1,False,1000,True,1.0
./expes/v2_2020-11-23_di_150-prng-1,daily_issda_150,150,rng-150,91,rng,num-start-71,71,536,1.354611873626709,True,,True,1,False,1000,True,1.0
./expes/v2_2020-11-23_di_150-prng-1,daily_issda_150,150,rng-150,41,rng,num-start-201,201,536,2.4535114765167236,True,,True,1,False,1000,True,1.0
./expes/v2_2020-11-23_di_150-prng-1,daily_issda_150,150,rng-150,11,rng,num-start-91,91,536,1.1067323684692383,True,,True,1,False,1000,True,1.0
./expes/v2_2020-11-23_di_150-prng-1,daily_issda_150,150,rng-150,81,rng,num-start-231,231,536,3.536973714828491,True,,True,1,False,1000,True,1.0
./expes/v2_2020-11-23_di_150-prng-1,daily_issda_150,150,rng-150,81,rng,num-start-141,141,536,2.0585649013519287,True,,True,1,False,1000,True,1.0
./expes/v2_2020-11-23_di_150-prng-1,daily_issda_150,150,rng-150,31,rng,num-start-1,1,536,1.042814016342163,False,,False,2,False,1000,True,1.0
./expes/v2_2020-11-23_di_150-prng-1,daily_issda_150,150,rng-150,121,rng,num-start-101,101,536,1.3762261867523193,True,,True,1,False,1000,True,1.0
./expes/v2_2020-11-23_di_150-prng-1,daily_issda_150,150,rng-150,1,rng,num-start-11,11,536,0.11289095878601074,True,,True,1,False,1000,True,1.0
./expes/v2_2020-11-23_di_150-prng-1,daily_issda_150,150,rng-150,91,rng,num-start-71,71,536,2.006300687789917,True,,True,1,False,1000,True,1.0
./expes/v2_2020-11-23_di_150-prng-1,daily_issda_150,150,rng-150,1,rng,num-start-161,161,536,1.6241250038146973,True,,True,1,False,1000,True,1.0
./expes/v2_2020-11-23_di_150-prng-1,daily_issda_150,150,rng-150,11,rng,num-start-281,281,536,3.7108705043792725,True,,True,1,False,1000,True,1.0
./expes/v2_2020-11-23_di_150-prng-1,daily_issda_150,150,rng-150,41,rng,num-start-91,91,536,1.1977951526641846,True,,True,1,False,1000,True,1.0
./expes/v2_2020-11-23_di_150-prng-1,daily_issda_150,150,rng-150,31,rng,num-start-251,251,536,3.511047840118408,True,,True,1,False,1000,True,1.0
./expes/v2_2020-11-23_di_150-prng-1,daily_issda_150,150,rng-150,31,rng,num-start-191,191,536,2.579129934310913,True,,True,1,False,1000,True,1.0
./expes/v2_2020-11-23_di_150-prng-1,daily_issda_150,150,rng-150,31,rng,num-start-131,131,536,2.558690309524536,True,,True,1,False,1000,True,1.0
./expes/v2_2020-11-23_di_150-prng-1,daily_issda_150,150,rng-150,71,rng,num-start-291,291,536,3.65462064743042,True,,True,1,False,1000,True,1.0
./expes/v2_2020-11-23_di_150-prng-1,daily_issda_150,150,rng-150,81,rng,num-start-81,81,536,1.198984146118164,True,,True,1,False,1000,True,1.0
./expes/v2_2020-11-23_di_150-prng-1,daily_issda_150,150,rng-150,111,rng,num-start-181,181,536,2.442617654800415,True,,True,1,False,1000,True,1.0
./expes/v2_2020-11-23_di_150-prng-1,daily_issda_150,150,rng-150,101,rng,num-start-281,281,536,3.6881422996520996,True,,True,1,False,1000,True,1.0
./expes/v2_2020-11-23_di_150-prng-1,daily_issda_150,150,rng-150,81,rng,num-start-91,91,536,1.2535974979400635,True,,True,1,False,1000,True,1.0
./expes/v2_2020-11-23_di_150-prng-1,daily_issda_150,150,rng-150,61,rng,num-start-21,21,536,1000.5654032230377,False,,False,0,True,1000,True,0.0
./expes/v2_2020-11-23_di_150-prng-1,daily_issda_150,150,rng-150,41,rng,num-start-151,151,536,2.0539751052856445,True,,True,1,False,1000,True,1.0
./expes/v2_2020-11-23_di_150-prng-1,daily_issda_150,150,rng-150,121,rng,num-start-31,31,536,1.741175651550293,True,,True,1,False,1000,True,1.0
./expes/v2_2020-11-23_di_150-prng-1,daily_issda_150,150,rng-150,41,rng,num-start-11,11,536,1000.235378742218,False,,False,0,True,1000,True,0.0
./expes/v2_2020-11-23_di_150-prng-1,daily_issda_150,150,rng-150,71,rng,num-start-171,171,536,2.3185601234436035,True,,True,1,False,1000,True,1.0
./expes/v2_2020-11-23_di_150-prng-1,daily_issda_150,150,rng-150,61,rng,num-start-171,171,536,2.610107898712158,True,,True,1,False,1000,True,1.0
./expes/v2_2020-11-23_di_150-prng-1,daily_issda_150,150,rng-150,61,rng,num-start-51,51,536,1.4974913597106934,True,,True,1,False,1000,True,1.0
./expes/v2_2020-11-23_di_150-prng-1,daily_issda_150,150,rng-150,121,rng,num-start-71,71,536,1.32979416847229,True,,True,1,False,1000,True,1.0
./expes/v2_2020-11-23_di_150-prng-1,daily_issda_150,150,rng-150,141,rng,num-start-181,181,536,2.232692003250122,True,,True,1,False,1000,True,1.0
./expes/v2_2020-11-23_di_150-prng-1,daily_issda_150,150,rng-150,111,rng,num-start-191,191,536,2.470106363296509,True,,True,1,False,1000,True,1.0
./expes/v2_2020-11-23_di_150-prng-1,daily_issda_150,150,rng-150,21,rng,num-start-151,151,536,1.9971034526824951,True,,True,1,False,1000,True,1.0
./expes/v2_2020-11-23_di_150-prng-1,daily_issda_150,150,rng-150,101,rng,num-start-101,101,536,1.4671251773834229,True,,True,1,False,1000,True,1.0
./expes/v2_2020-11-23_di_150-prng-1,daily_issda_150,150,rng-150,61,rng,num-start-191,191,536,2.5866243839263916,True,,True,1,False,1000,True,1.0
./expes/v2_2020-11-23_di_150-prng-1,daily_issda_150,150,rng-150,51,rng,num-start-221,221,536,3.107224702835083,True,,True,1,False,1000,True,1.0
./expes/v2_2020-11-23_di_150-prng-1,daily_issda_150,150,rng-150,71,rng,num-start-151,151,536,2.290311813354492,True,,True,1,False,1000,True,1.0
./expes/v2_2020-11-23_di_150-prng-1,daily_issda_150,150,rng-150,101,rng,num-start-111,111,536,1.5431756973266602,True,,True,1,False,1000,True,1.0
./expes/v2_2020-11-23_di_150-prng-1,daily_issda_150,150,rng-150,111,rng,num-start-151,151,536,2.0222883224487305,True,,True,1,False,1000,True,1.0
./expes/v2_2020-11-23_di_150-prng-1,daily_issda_150,150,rng-150,141,rng,num-start-121,121,536,1.450774908065796,True,,True,1,False,1000,True,1.0
./expes/v2_2020-11-23_di_150-prng-1,daily_issda_150,150,rng-150,21,rng,num-start-231,231,536,2.898397445678711,True,,True,1,False,1000,True,1.0
./expes/v2_2020-11-23_di_150-prng-1,daily_issda_150,150,rng-150,141,rng,num-start-291,291,536,3.380904197692871,True,,True,1,False,1000,True,1.0
./expes/v2_2020-11-23_di_150-prng-1,daily_issda_150,150,rng-150,41,rng,num-start-241,241,536,3.200913667678833,True,,True,1,False,1000,True,1.0
./expes/v2_2020-11-23_di_150-prng-1,daily_issda_150,150,rng-150,31,rng,num-start-171,171,536,2.330331802368164,True,,True,1,False,1000,True,1.0
./expes/v2_2020-11-23_di_150-prng-1,daily_issda_150,150,rng-150,21,rng,num-start-141,141,536,1.9086217880249023,True,,True,1,False,1000,True,1.0
./expes/v2_2020-11-23_di_150-prng-1,daily_issda_150,150,rng-150,11,rng,num-start-241,241,536,2.7161459922790527,True,,True,1,False,1000,True,1.0
./expes/v2_2020-11-23_di_150-prng-1,daily_issda_150,150,rng-150,11,rng,num-start-291,291,536,3.3507535457611084,True,,True,1,False,1000,True,1.0
./expes/v2_2020-11-23_di_150-prng-1,daily_issda_150,150,rng-150,11,rng,num-start-131,131,536,1.7778167724609375,True,,True,1,False,1000,True,1.0
./expes/v2_2020-11-23_di_150-prng-1,daily_issda_150,150,rng-150,111,rng,num-start-251,251,536,3.0626044273376465,True,,True,1,False,1000,True,1.0
./expes/v2_2020-11-23_di_150-prng-1,daily_issda_150,150,rng-150,11,rng,num-start-51,51,536,0.7883851528167725,True,,True,1,False,1000,True,1.0
./expes/v2_2020-11-23_di_150-prng-1,daily_issda_150,150,rng-150,21,rng,num-start-291,291,536,4.050034523010254,True,,True,1,False,1000,True,1.0
./expes/v2_2020-11-23_di_150-prng-1,daily_issda_150,150,rng-150,101,rng,num-start-91,91,536,1.3136341571807861,True,,True,1,False,1000,True,1.0
./expes/v2_2020-11-23_di_150-prng-1,daily_issda_150,150,rng-150,91,rng,num-start-211,211,536,3.134206771850586,True,,True,1,False,1000,True,1.0
./expes/v2_2020-11-23_di_150-prng-1,daily_issda_150,150,rng-150,121,rng,num-start-231,231,536,2.800804376602173,True,,True,1,False,1000,True,1.0
./expes/v2_2020-11-23_di_150-prng-1,daily_issda_150,150,rng-150,1,rng,num-start-71,71,536,0.7191195487976074,True,,True,1,False,1000,True,1.0
./expes/v2_2020-11-23_di_150-prng-1,daily_issda_150,150,rng-150,101,rng,num-start-241,241,536,3.3186042308807373,True,,True,1,False,1000,True,1.0
./expes/v2_2020-11-23_di_150-prng-1,daily_issda_150,150,rng-150,121,rng,num-start-261,261,536,2.8382108211517334,True,,True,1,False,1000,True,1.0
./expes/v2_2020-11-23_di_150-prng-1,daily_issda_150,150,rng-150,1,rng,num-start-231,231,536,2.2310478687286377,True,,True,1,False,1000,True,1.0
./expes/v2_2020-11-23_di_150-prng-1,daily_issda_150,150,rng-150,71,rng,num-start-71,71,536,1.2800266742706299,True,,True,1,False,1000,True,1.0
./expes/v2_2020-11-23_di_150-prng-1,daily_issda_150,150,rng-150,1,rng,num-start-31,31,536,0.30195021629333496,True,,True,1,False,1000,True,1.0
./expes/v2_2020-11-23_di_150-prng-1,daily_issda_150,150,rng-150,51,rng,num-start-201,201,536,2.743412733078003,True,,True,1,False,1000,True,1.0
./expes/v2_2020-11-23_di_150-prng-1,daily_issda_150,150,rng-150,11,rng,num-start-251,251,536,2.9193406105041504,True,,True,1,False,1000,True,1.0
./expes/v2_2020-11-23_di_150-prng-1,daily_issda_150,150,rng-150,41,rng,num-start-11,11,536,1000.1626827716827,False,,False,0,True,1000,True,0.0
