expe,clients,clients_size,clients_subset,agg_size,agg_size_pc,method,days,days_size,days_total,noise_method,time,valid,valid_sum,success,score_avg,score_min,score_max,nsols,oracle,wall_hit,wall_time,pooled,pool_size,uuid,infeasible,optimal,valid_sums
./expes/v3_2021-02-19_hi_1000-prng-1-w1-fpa10-0.4-p100,30_issda-1000,1000,first-1000,300,30,rng,num-start-2750,2750,25726,fpa-09-10-0.6-20,414.49646043777466,False,,False,0.3616572043206018,0.3531472977420451,0.365648045323101,100,"['2', '3', '6', '10', '13', '15', '18', '19', '22', '23', '25', '27', '29', '30', '31', '32', '34', '36', '37', '45', '49', '58', '61', '65', '72', '73', '86', '89', '94', '97', '103', '105', '111', '112', '113', '117', '121', '124', '129', '133', '138', '150', '164', '165', '168', '172', '173', '175', '178', '182', '186', '190', '191', '193', '195', '205', '211', '215', '218', '222', '225', '226', '228', '229', '231', '233', '235', '236', '237', '238', '239', '249', '256', '260', '262', '265', '273', '276', '280', '288', '291', '297', '298', '302', '304', '306', '311', '314', '316', '320', '326', '329', '330', '340', '341', '352', '353', '354', '355', '362', '366', '374', '376', '380', '384', '389', '391', '393', '396', '400', '403', '404', '405', '407', '414', '415', '424', '425', '427', '432', '433', '437', '443', '444', '449', '450', '457', '461', '462', '464', '466', '470', '471', '481', '484', '486', '492', '493', '497', '500', '502', '508', '509', '512', '513', '515', '517', '518', '519', '520', '521', '523', '525', '527', '529', '532', '534', '537', '541', '552', '553', '554', '555', '558', '562', '564', '565', '567', '568', '570', '575', '583', '584', '590', '592', '593', '599', '602', '604', '606', '608', '615', '621', '623', '624', '628', '630', '639', '640', '645', '646', '647', '651', '658', '663', '664', '665', '666', '668', '673', '676', '680', '681', '687', '690', '691', '692', '694', '695', '703', '712', '713', '720', '721', '722', '729', '737', '739', '742', '744', '747', '748', '751', '756', '759', '761', '762', '773', '774', '780', '781', '783', '786', '790', '795', '797', '798', '803', '806', '808', '816', '817', '818', '822', '823', '824', '829', '833', '837', '841', '850', '853', '856', '858', '861', '862', '867', '868', '869', '872', '874', '878', '881', '882', '889', '891', '897', '903', '904', '908', '915', '918', '922', '924', '932', '933', '939', '943', '945', '949', '954', '959', '961', '962', '964', '967', '968', '973', '975', '976', '978', '981', '983', '989', '991', '992', '993', '997', '999', '1000']",False,1000,True,100,78be2d494c,0.0,1.0,0.0
./expes/v3_2021-02-19_hi_1000-prng-1-w1-fpa10-0.4-p100,30_issda-1000,1000,first-1000,500,50,rng,num-start-4000,4000,25726,fpa-09-10-0.6-20,641.6320734024048,False,,False,0.290763442488669,0.2813091648584096,0.301080484970917,100,"['2', '4', '5', '6', '9', '12', '17', '18', '19', '20', '21', '22', '25', '26', '29', '31', '32', '33', '35', '37', '38', '39', '42', '45', '47', '51', '53', '55', '58', '59', '61', '62', '68', '69', '70', '73', '75', '76', '78', '79', '82', '83', '84', '85', '87', '89', '90', '94', '96', '97', '99', '103', '104', '105', '108', '109', '114', '115', '116', '118', '119', '122', '125', '126', '131', '132', '135', '139', '140', '142', '144', '145', '148', '149', '151', '155', '156', '158', '160', '161', '162', '163', '165', '166', '169', '171', '174', '175', '177', '178', '181', '182', '185', '186', '187', '189', '193', '196', '197', '204', '205', '210', '213', '214', '216', '218', '221', '222', '223', '225', '228', '231', '233', '234', '237', '238', '239', '241', '242', '247', '251', '253', '254', '255', '256', '257', '258', '260', '261', '262', '263', '264', '266', '269', '271', '273', '274', '275', '276', '280', '281', '286', '292', '293', '294', '297', '298', '304', '311', '314', '316', '317', '318', '320', '321', '324', '327', '333', '336', '337', '338', '339', '343', '346', '350', '353', '354', '356', '359', '360', '363', '365', '367', '368', '369', '370', '371', '372', '373', '375', '376', '381', '382', '383', '384', '390', '392', '393', '394', '395', '396', '400', '401', '402', '403', '405', '410', '412', '413', '414', '415', '417', '419', '421', '423', '425', '427', '429', '430', '434', '436', '438', '442', '445', '450', '452', '456', '457', '459', '460', '463', '465', '466', '468', '469', '471', '472', '473', '475', '476', '477', '478', '479', '482', '484', '485', '490', '492', '494', '495', '496', '497', '498', '499', '501', '502', '503', '504', '510', '511', '513', '515', '517', '520', '521', '522', '523', '524', '525', '526', '527', '528', '529', '531', '532', '534', '535', '536', '537', '538', '539', '544', '546', '549', '554', '558', '559', '561', '562', '565', '571', '572', '574', '576', '580', '582', '583', '586', '588', '589', '590', '595', '596', '599', '600', '601', '603', '604', '606', '608', '610', '611', '620', '621', '622', '626', '627', '628', '629', '631', '632', '634', '637', '639', '640', '641', '643', '651', '653', '654', '657', '658', '664', '666', '668', '669', '671', '675', '677', '678', '680', '683', '686', '687', '689', '691', '692', '695', '696', '697', '698', '699', '701', '702', '704', '707', '709', '710', '713', '716', '717', '721', '723', '724', '726', '727', '728', '729', '730', '731', '732', '733', '734', '735', '737', '741', '742', '744', '746', '747', '749', '753', '754', '755', '757', '758', '761', '763', '764', '766', '769', '772', '773', '774', '778', '779', '780', '782', '783', '785', '786', '792', '794', '796', '800', '802', '804', '807', '808', '809', '811', '814', '816', '818', '819', '820', '821', '822', '823', '824', '826', '829', '830', '832', '833', '835', '836', '838', '840', '841', '845', '846', '852', '854', '856', '857', '858', '859', '861', '870', '871', '873', '875', '880', '881', '884', '885', '887', '892', '896', '897', '898', '899', '902', '903', '904', '905', '906', '907', '909', '911', '914', '916', '917', '920', '922', '923', '924', '925', '928', '929', '930', '931', '934', '937', '938', '939', '941', '943', '944', '945', '948', '952', '955', '957', '958', '959', '960', '961', '962', '964', '966', '967', '971', '973', '978', '979', '981', '982', '983', '984', '985', '986', '987', '990', '993', '994', '995', '996', '998']",False,1000,True,100,56fdf6db32,0.0,1.0,0.0
./expes/v3_2021-02-19_hi_1000-prng-1-w1-fpa10-0.4-p100,30_issda-1000,1000,first-1000,350,35,rng,num-start-500,500,25726,fpa-09-10-0.6-20,62.81794738769531,False,,False,0.3141953887232977,0.31117892419404414,0.3229043948906045,100,"['5', '8', '12', '14', '16', '21', '22', '23', '28', '30', '32', '33', '34', '35', '36', '37', '44', '46', '47', '51', '55', '62', '63', '65', '66', '68', '69', '70', '79', '82', '88', '91', '100', '105', '106', '107', '108', '111', '117', '122', '123', '124', '126', '128', '129', '133', '134', '135', '137', '138', '140', '142', '155', '156', '160', '164', '168', '174', '176', '182', '188', '190', '192', '196', '197', '203', '204', '205', '217', '223', '224', '227', '228', '230', '231', '233', '238', '240', '242', '244', '245', '246', '251', '258', '259', '265', '266', '270', '271', '274', '276', '278', '286', '287', '292', '294', '296', '298', '299', '301', '306', '308', '309', '311', '318', '321', '322', '323', '328', '330', '335', '336', '339', '341', '342', '345', '348', '349', '350', '353', '354', '355', '360', '361', '362', '369', '373', '375', '379', '386', '387', '396', '397', '400', '405', '407', '418', '420', '421', '424', '426', '427', '430', '432', '438', '441', '442', '445', '446', '447', '448', '449', '456', '462', '468', '472', '476', '478', '481', '482', '485', '486', '488', '489', '493', '494', '496', '502', '507', '513', '516', '518', '520', '523', '525', '531', '532', '533', '534', '536', '538', '543', '547', '548', '549', '550', '554', '555', '557', '558', '562', '563', '565', '573', '582', '583', '586', '588', '589', '591', '594', '595', '599', '600', '601', '603', '604', '606', '607', '610', '615', '616', '619', '620', '621', '624', '626', '627', '630', '631', '635', '636', '638', '641', '642', '643', '644', '648', '649', '650', '651', '655', '658', '660', '666', '670', '672', '679', '688', '689', '692', '693', '695', '696', '698', '699', '701', '707', '711', '713', '715', '716', '724', '731', '732', '733', '735', '736', '737', '738', '746', '753', '756', '760', '764', '766', '772', '777', '780', '788', '791', '796', '798', '799', '802', '806', '807', '808', '813', '820', '821', '823', '824', '826', '827', '830', '831', '832', '833', '837', '844', '848', '852', '853', '854', '857', '858', '859', '865', '871', '875', '876', '877', '879', '882', '883', '885', '887', '888', '889', '891', '894', '900', '902', '903', '905', '907', '909', '912', '919', '922', '926', '927', '931', '935', '938', '940', '943', '944', '945', '947', '949', '950', '952', '959', '962', '964', '966', '972', '973', '978', '981', '982', '984', '987', '988', '989', '995', '996', '997']",False,1000,True,100,3e88889229,0.0,1.0,0.0
./expes/v3_2021-02-19_hi_1000-prng-1-w1-fpa10-0.4-p100,30_issda-1000,1000,first-1000,150,15,rng,num-start-250,250,25726,fpa-09-10-0.6-20,30.51619243621826,False,,False,0.4968190244754054,0.4918088368947584,0.5037679512100752,100,"['8', '14', '16', '21', '30', '32', '37', '44', '46', '47', '65', '66', '68', '69', '91', '100', '107', '122', '128', '134', '138', '140', '155', '156', '164', '168', '197', '217', '223', '238', '240', '242', '244', '265', '266', '274', '276', '286', '287', '292', '301', '309', '318', '335', '339', '345', '353', '360', '375', '379', '387', '396', '397', '400', '405', '407', '418', '421', '426', '432', '438', '447', '456', '481', '482', '485', '486', '488', '494', '496', '507', '518', '520', '536', '547', '554', '555', '558', '563', '565', '583', '586', '588', '591', '595', '599', '600', '601', '606', '607', '610', '619', '620', '621', '630', '641', '642', '649', '651', '655', '672', '688', '689', '699', '713', '716', '731', '732', '735', '736', '737', '746', '760', '777', '780', '788', '796', '798', '799', '808', '820', '821', '844', '852', '854', '857', '858', '875', '876', '877', '882', '887', '889', '894', '900', '903', '919', '926', '927', '931', '938', '943', '944', '945', '949', '952', '959', '981', '988', '989']",False,1000,True,100,425c85833b,0.0,1.0,0.0
./expes/v3_2021-02-19_hi_1000-prng-1-w1-fpa10-0.4-p100,30_issda-1000,1000,first-1000,150,15,rng,num-start-1500,1500,25726,fpa-09-10-0.6-20,246.70713067054749,False,,False,0.48951340508518265,0.4859335993626268,0.5017548311842369,100,"['3', '10', '13', '23', '27', '30', '31', '32', '36', '45', '65', '89', '97', '103', '105', '111', '121', '124', '138', '168', '173', '175', '178', '191', '195', '205', '215', '222', '225', '228', '233', '235', '237', '238', '239', '249', '262', '273', '291', '297', '304', '311', '316', '326', '341', '354', '376', '380', '384', '389', '391', '400', '403', '404', '414', '425', '427', '433', '444', '449', '450', '457', '461', '471', '481', '484', '492', '500', '502', '508', '512', '513', '515', '518', '520', '521', '534', '541', '553', '555', '562', '567', '570', '583', '593', '602', '604', '606', '608', '623', '630', '645', '658', '663', '666', '668', '680', '681', '687', '691', '694', '703', '713', '720', '721', '729', '739', '742', '744', '751', '756', '761', '762', '780', '781', '783', '786', '790', '795', '798', '808', '817', '822', '850', '856', '858', '861', '867', '868', '869', '874', '881', '903', '904', '915', '918', '924', '933', '939', '943', '945', '949', '959', '962', '964', '968', '976', '991', '993', '997']",False,1000,True,100,f162279bd5,0.0,1.0,0.0
./expes/v3_2021-02-19_hi_1000-prng-1-w1-fpa10-0.4-p100,30_issda-1000,1000,first-1000,350,35,rng,num-start-2500,2500,25726,fpa-09-10-0.6-20,416.0503056049347,False,,False,0.32688073775902204,0.3229043948906045,0.3378531594589925,100,"['1', '2', '3', '4', '13', '14', '15', '16', '17', '23', '24', '28', '33', '34', '38', '40', '41', '42', '47', '48', '52', '60', '63', '64', '65', '66', '71', '72', '74', '76', '81', '83', '85', '86', '92', '94', '96', '98', '101', '102', '104', '112', '119', '120', '121', '122', '123', '127', '128', '134', '136', '139', '143', '144', '146', '150', '151', '154', '158', '162', '163', '164', '166', '170', '174', '175', '180', '185', '189', '190', '192', '193', '194', '195', '196', '197', '200', '204', '205', '209', '210', '216', '219', '221', '224', '225', '226', '227', '228', '229', '242', '245', '246', '248', '249', '250', '257', '266', '267', '278', '282', '283', '288', '289', '295', '298', '299', '309', '311', '318', '319', '320', '324', '325', '328', '333', '334', '339', '341', '342', '343', '344', '351', '359', '361', '363', '366', '367', '368', '380', '381', '388', '395', '398', '401', '409', '412', '415', '420', '425', '426', '428', '429', '430', '431', '436', '437', '445', '447', '453', '454', '456', '457', '458', '459', '462', '469', '479', '482', '483', '484', '488', '489', '491', '494', '498', '499', '502', '505', '506', '507', '516', '517', '521', '524', '534', '535', '538', '541', '542', '543', '546', '548', '554', '557', '558', '561', '562', '565', '566', '574', '575', '582', '583', '584', '588', '590', '594', '598', '602', '604', '605', '609', '611', '612', '617', '618', '619', '621', '623', '625', '626', '627', '628', '634', '636', '641', '646', '649', '650', '651', '653', '656', '657', '663', '665', '667', '673', '674', '677', '679', '682', '685', '689', '690', '692', '693', '695', '696', '697', '698', '700', '701', '708', '715', '716', '717', '718', '719', '721', '723', '724', '727', '728', '733', '735', '736', '737', '743', '745', '748', '750', '757', '760', '767', '773', '774', '776', '777', '781', '786', '791', '802', '803', '804', '808', '813', '814', '818', '819', '820', '823', '825', '829', '830', '832', '835', '836', '837', '842', '843', '845', '846', '848', '849', '850', '851', '854', '856', '858', '859', '861', '863', '865', '866', '870', '871', '875', '876', '887', '889', '892', '893', '896', '897', '898', '906', '907', '912', '914', '917', '920', '921', '922', '924', '927', '930', '932', '935', '938', '939', '940', '941', '944', '945', '946', '956', '959', '960', '970', '973', '977', '985', '987', '989', '990', '991', '992', '994', '998']",False,1000,True,100,5ffff9cde9,0.0,1.0,0.0
./expes/v3_2021-02-19_hi_1000-prng-1-w1-fpa10-0.4-p100,30_issda-1000,1000,first-1000,50,5,rng,num-start-5000,5000,25726,fpa-09-10-0.6-20,1005.2028331756592,False,,False,0.6911466119677351,0.6836140014158336,0.7032036252106706,100,"['3', '10', '23', '27', '30', '32', '65', '97', '105', '121', '138', '215', '222', '235', '262', '273', '326', '389', '391', '400', '433', '444', '457', '461', '484', '500', '508', '555', '583', '606', '623', '666', '668', '703', '713', '739', '780', '781', '783', '786', '808', '822', '856', '868', '903', '915', '924', '962', '968', '993']",False,1000,True,100,3745aa2c19,0.0,1.0,0.0
./expes/v3_2021-02-19_hi_1000-prng-1-w1-fpa10-0.4-p100,30_issda-1000,1000,first-1000,450,45,rng,num-start-3500,3500,25726,fpa-09-10-0.6-20,476.48148798942566,False,,False,0.3027747469558588,0.298221906517101,0.31117892419404414,100,"['2', '3', '6', '9', '10', '11', '13', '15', '18', '19', '22', '23', '25', '27', '28', '29', '30', '31', '32', '34', '36', '37', '39', '41', '42', '45', '47', '49', '58', '61', '65', '66', '67', '72', '73', '75', '79', '84', '86', '87', '89', '92', '94', '97', '99', '102', '103', '105', '106', '107', '111', '112', '113', '115', '117', '118', '119', '121', '124', '129', '133', '134', '137', '138', '139', '150', '151', '161', '163', '164', '165', '166', '168', '171', '172', '173', '174', '175', '176', '178', '182', '186', '188', '190', '191', '193', '195', '199', '204', '205', '206', '211', '213', '215', '218', '219', '221', '222', '223', '225', '226', '228', '229', '230', '231', '233', '235', '236', '237', '238', '239', '241', '246', '248', '249', '253', '256', '257', '259', '260', '262', '265', '266', '273', '274', '275', '276', '280', '284', '288', '289', '291', '297', '298', '299', '302', '303', '304', '306', '311', '314', '315', '316', '318', '320', '321', '323', '325', '326', '328', '329', '330', '334', '336', '340', '341', '347', '348', '349', '350', '352', '353', '354', '355', '356', '362', '365', '366', '370', '374', '376', '377', '380', '384', '388', '389', '390', '391', '393', '396', '400', '401', '403', '404', '405', '407', '409', '412', '414', '415', '417', '424', '425', '427', '432', '433', '437', '440', '443', '444', '446', '449', '450', '457', '459', '461', '462', '464', '466', '467', '469', '470', '471', '472', '481', '484', '486', '489', '492', '493', '497', '500', '501', '502', '505', '508', '509', '512', '513', '515', '517', '518', '519', '520', '521', '522', '523', '525', '527', '529', '532', '534', '537', '541', '546', '548', '552', '553', '554', '555', '556', '558', '561', '562', '564', '565', '567', '568', '570', '575', '577', '578', '579', '580', '583', '584', '585', '588', '590', '592', '593', '594', '599', '601', '602', '604', '605', '606', '608', '611', '615', '616', '619', '621', '623', '624', '627', '628', '629', '630', '633', '638', '639', '640', '645', '646', '647', '651', '658', '663', '664', '665', '666', '668', '673', '676', '678', '680', '681', '682', '687', '690', '691', '692', '694', '695', '698', '703', '704', '705', '712', '713', '720', '721', '722', '729', '733', '737', '739', '742', '743', '744', '747', '748', '751', '756', '759', '761', '762', '772', '773', '774', '778', '780', '781', '783', '786', '787', '789', '790', '795', '797', '798', '799', '801', '802', '803', '804', '805', '806', '808', '809', '816', '817', '818', '822', '823', '824', '826', '829', '831', '833', '837', '838', '840', '841', '846', '848', '849', '850', '853', '856', '858', '861', '862', '866', '867', '868', '869', '871', '872', '874', '878', '879', '880', '881', '882', '887', '889', '891', '893', '897', '900', '903', '904', '907', '908', '909', '913', '915', '918', '919', '922', '923', '924', '932', '933', '936', '937', '939', '940', '943', '945', '948', '949', '954', '955', '959', '961', '962', '964', '967', '968', '973', '975', '976', '978', '981', '983', '986', '988', '989', '991', '992', '993', '994', '997', '998', '999', '1000']",False,1000,True,100,96f32b026f,0.0,1.0,0.0
./expes/v3_2021-02-19_hi_1000-prng-1-w1-fpa10-0.4-p100,30_issda-1000,1000,first-1000,300,30,rng,num-start-1000,1000,25726,fpa-09-10-0.6-20,128.06466007232666,False,,False,0.36535067326767967,0.3609316089741189,0.36722800283166734,100,"['2', '5', '9', '19', '21', '22', '25', '26', '29', '32', '33', '35', '37', '38', '42', '45', '47', '51', '53', '58', '59', '61', '62', '70', '76', '78', '83', '85', '87', '90', '94', '96', '99', '103', '105', '108', '109', '114', '116', '118', '131', '135', '140', '144', '148', '155', '156', '158', '161', '163', '165', '166', '169', '171', '174', '175', '177', '178', '181', '182', '187', '189', '196', '213', '216', '218', '223', '228', '231', '233', '234', '237', '238', '239', '242', '247', '251', '253', '254', '256', '257', '258', '260', '262', '263', '266', '269', '271', '273', '275', '280', '286', '293', '311', '316', '317', '318', '320', '324', '327', '333', '336', '346', '350', '353', '360', '363', '369', '370', '371', '372', '373', '376', '381', '383', '390', '394', '395', '403', '410', '412', '417', '419', '425', '430', '434', '436', '442', '445', '456', '457', '459', '460', '465', '466', '468', '473', '476', '477', '485', '492', '499', '501', '502', '511', '513', '515', '517', '520', '521', '522', '523', '524', '525', '527', '528', '531', '534', '535', '536', '538', '539', '544', '549', '558', '565', '571', '572', '574', '576', '582', '589', '596', '599', '603', '604', '606', '608', '620', '621', '622', '631', '632', '637', '639', '640', '643', '651', '654', '658', '668', '669', '671', '675', '677', '678', '686', '687', '689', '691', '698', '699', '701', '702', '704', '709', '717', '723', '724', '726', '727', '732', '733', '735', '741', '742', '744', '747', '749', '753', '754', '757', '758', '761', '763', '766', '769', '773', '774', '778', '779', '782', '785', '792', '800', '804', '808', '809', '811', '814', '816', '819', '820', '823', '826', '829', '833', '835', '841', '845', '852', '856', '859', '870', '875', '880', '881', '884', '892', '896', '897', '898', '902', '903', '904', '905', '906', '914', '916', '920', '922', '923', '924', '925', '929', '930', '931', '934', '938', '939', '941', '943', '948', '955', '957', '959', '961', '964', '967', '971', '973', '978', '979', '981', '982', '983', '985', '987', '994', '995']",False,1000,True,100,1c9e9370c6,0.0,1.0,0.0
./expes/v3_2021-02-19_hi_1000-prng-1-w1-fpa10-0.4-p100,30_issda-1000,1000,first-1000,350,35,rng,num-start-3750,3750,25726,fpa-09-10-0.6-20,714.9126918315887,False,,False,0.338978622629349,0.33183351891430046,0.34545555656744853,100,"['1', '2', '3', '4', '13', '14', '15', '16', '17', '23', '24', '28', '33', '34', '38', '40', '41', '42', '47', '48', '52', '60', '63', '64', '65', '66', '71', '72', '74', '76', '81', '83', '85', '86', '92', '94', '96', '98', '101', '102', '104', '112', '119', '120', '121', '122', '123', '127', '128', '134', '136', '139', '143', '144', '146', '150', '151', '154', '158', '162', '163', '164', '166', '170', '174', '175', '180', '185', '189', '190', '192', '193', '194', '195', '196', '197', '200', '204', '205', '209', '210', '216', '219', '221', '224', '225', '226', '227', '228', '229', '242', '245', '246', '248', '249', '250', '257', '266', '267', '278', '282', '283', '288', '289', '295', '298', '299', '309', '311', '318', '319', '320', '324', '325', '328', '333', '334', '339', '341', '342', '343', '344', '351', '359', '361', '363', '366', '367', '368', '380', '381', '388', '395', '398', '401', '409', '412', '415', '420', '425', '426', '428', '429', '430', '431', '436', '437', '445', '447', '453', '454', '456', '457', '458', '459', '462', '469', '479', '482', '483', '484', '488', '489', '491', '494', '498', '499', '502', '505', '506', '507', '516', '517', '521', '524', '534', '535', '538', '541', '542', '543', '546', '548', '554', '557', '558', '561', '562', '565', '566', '574', '575', '582', '583', '584', '588', '590', '594', '598', '602', '604', '605', '609', '611', '612', '617', '618', '619', '621', '623', '625', '626', '627', '628', '634', '636', '641', '646', '649', '650', '651', '653', '656', '657', '663', '665', '667', '673', '674', '677', '679', '682', '685', '689', '690', '692', '693', '695', '696', '697', '698', '700', '701', '708', '715', '716', '717', '718', '719', '721', '723', '724', '727', '728', '733', '735', '736', '737', '743', '745', '748', '750', '757', '760', '767', '773', '774', '776', '777', '781', '786', '791', '802', '803', '804', '808', '813', '814', '818', '819', '820', '823', '825', '829', '830', '832', '835', '836', '837', '842', '843', '845', '846', '848', '849', '850', '851', '854', '856', '858', '859', '861', '863', '865', '866', '870', '871', '875', '876', '887', '889', '892', '893', '896', '897', '898', '906', '907', '912', '914', '917', '920', '921', '922', '924', '927', '930', '932', '935', '938', '939', '940', '941', '944', '945', '946', '956', '959', '960', '970', '973', '977', '985', '987', '989', '990', '991', '992', '994', '998']",False,1000,True,100,8655c0c726,0.0,1.0,0.0
./expes/v3_2021-02-19_hi_1000-prng-1-w1-fpa10-0.4-p100,30_issda-1000,1000,first-1000,50,5,rng,num-start-2000,2000,25726,fpa-09-10-0.6-20,586.1310143470764,False,,False,0.693525693490028,0.6836140014158336,0.6998498874061678,100,"['42', '76', '98', '102', '104', '143', '144', '151', '224', '257', '266', '289', '311', '318', '339', '363', '367', '395', '415', '431', '484', '489', '498', '517', '524', '546', '574', '598', '617', '634', '701', '723', '748', '774', '777', '803', '819', '830', '850', '865', '871', '912', '914', '921', '924', '930', '932', '941', '989', '992']",False,1000,True,100,b356f2b96c,0.0,1.0,0.0
./expes/v3_2021-02-19_hi_1000-prng-1-w1-fpa10-0.4-p100,30_issda-1000,1000,first-1000,250,25,rng,num-start-500,500,25726,fpa-09-10-0.6-20,61.2699019908905,False,,False,0.3934704804854072,0.3800125933662972,0.3980345837488981,100,"['2', '3', '6', '10', '13', '15', '18', '23', '25', '27', '29', '30', '31', '32', '34', '36', '45', '58', '65', '72', '73', '86', '89', '94', '97', '103', '105', '111', '113', '117', '121', '124', '133', '138', '164', '168', '172', '173', '175', '178', '182', '186', '190', '191', '195', '205', '211', '215', '222', '225', '228', '233', '235', '236', '237', '238', '239', '249', '256', '262', '273', '276', '280', '288', '291', '297', '298', '302', '304', '311', '316', '320', '326', '330', '340', '341', '352', '353', '354', '355', '362', '366', '374', '376', '380', '384', '389', '391', '393', '396', '400', '403', '404', '414', '415', '424', '425', '427', '433', '437', '444', '449', '450', '457', '461', '464', '466', '470', '471', '481', '484', '486', '492', '493', '497', '500', '502', '508', '509', '512', '513', '515', '517', '518', '520', '521', '525', '527', '532', '534', '541', '552', '553', '554', '555', '562', '564', '565', '567', '568', '570', '575', '583', '584', '592', '593', '599', '602', '604', '606', '608', '615', '623', '624', '628', '630', '639', '640', '645', '651', '658', '663', '664', '666', '668', '673', '676', '680', '681', '687', '690', '691', '694', '703', '713', '720', '721', '729', '739', '742', '744', '747', '751', '756', '759', '761', '762', '773', '774', '780', '781', '783', '786', '790', '795', '797', '798', '803', '806', '808', '817', '818', '822', '824', '829', '833', '837', '841', '850', '856', '858', '861', '862', '867', '868', '869', '872', '874', '878', '881', '882', '889', '891', '903', '904', '908', '915', '918', '924', '932', '933', '939', '943', '945', '949', '954', '959', '961', '962', '964', '967', '968', '973', '975', '976', '978', '981', '991', '993', '997']",False,1000,True,100,455c47562b,0.0,1.0,0.0
./expes/v3_2021-02-19_hi_1000-prng-1-w1-fpa10-0.4-p100,30_issda-1000,1000,first-1000,250,25,rng,num-start-2750,2750,25726,fpa-09-10-0.6-20,432.15076541900635,False,,False,0.3786461908897308,0.3751877158774882,0.38487531477075443,100,"['8', '12', '14', '16', '21', '22', '23', '28', '30', '32', '33', '37', '44', '46', '47', '62', '63', '65', '66', '68', '69', '79', '91', '100', '105', '106', '107', '108', '111', '122', '128', '134', '135', '137', '138', '140', '142', '155', '156', '160', '164', '168', '182', '190', '192', '197', '203', '217', '223', '228', '238', '240', '242', '244', '245', '258', '265', '266', '270', '271', '274', '276', '278', '286', '287', '292', '299', '301', '306', '308', '309', '311', '318', '321', '322', '323', '328', '330', '335', '336', '339', '341', '342', '345', '348', '353', '360', '362', '369', '373', '375', '379', '386', '387', '396', '397', '400', '405', '407', '418', '421', '426', '432', '438', '442', '446', '447', '448', '456', '468', '472', '478', '481', '482', '485', '486', '488', '494', '496', '502', '507', '513', '518', '520', '533', '534', '536', '547', '549', '554', '555', '558', '562', '563', '565', '573', '583', '586', '588', '591', '594', '595', '599', '600', '601', '604', '606', '607', '610', '615', '616', '619', '620', '621', '624', '626', '630', '631', '636', '641', '642', '643', '644', '648', '649', '650', '651', '655', '660', '666', '670', '672', '688', '689', '693', '695', '696', '698', '699', '701', '707', '713', '715', '716', '724', '731', '732', '733', '735', '736', '737', '738', '746', '753', '756', '760', '777', '780', '788', '791', '796', '798', '799', '807', '808', '820', '821', '824', '831', '833', '844', '852', '854', '857', '858', '865', '875', '876', '877', '882', '883', '887', '888', '889', '891', '894', '900', '903', '919', '926', '927', '931', '938', '940', '943', '944', '945', '949', '952', '959', '964', '972', '978', '981', '982', '987', '988', '989', '995', '997']",False,1000,True,100,c1e807dbb3,0.0,1.0,0.0
./expes/v3_2021-02-19_hi_1000-prng-1-w1-fpa10-0.4-p100,30_issda-1000,1000,first-1000,200,20,rng,num-start-250,250,25726,fpa-09-10-0.6-20,29.30324935913086,False,,False,0.4300404926813359,0.42178348835895874,0.4593593686261712,100,"['2', '15', '17', '34', '40', '42', '47', '64', '65', '71', '76', '83', '85', '92', '94', '96', '98', '102', '104', '112', '119', '120', '128', '134', '143', '144', '146', '150', '151', '154', '175', '189', '192', '194', '195', '196', '209', '210', '221', '224', '225', '226', '228', '242', '245', '248', '249', '250', '257', '266', '267', '278', '282', '283', '289', '295', '298', '299', '309', '311', '318', '324', '325', '328', '333', '334', '339', '341', '342', '344', '363', '366', '367', '381', '395', '401', '409', '415', '430', '431', '437', '445', '454', '456', '459', '462', '484', '488', '489', '498', '499', '502', '505', '506', '517', '521', '524', '534', '535', '538', '546', '554', '557', '561', '562', '565', '566', '574', '582', '588', '590', '594', '598', '602', '604', '611', '617', '618', '626', '627', '628', '634', '641', '646', '650', '656', '657', '673', '677', '685', '696', '700', '701', '715', '717', '718', '721', '723', '724', '728', '737', '748', '750', '774', '776', '777', '802', '803', '804', '813', '814', '818', '819', '823', '825', '830', '832', '835', '836', '837', '842', '845', '846', '848', '850', '858', '861', '863', '865', '866', '870', '871', '876', '887', '889', '892', '897', '898', '912', '914', '917', '920', '921', '924', '930', '932', '935', '938', '939', '940', '941', '945', '946', '956', '973', '987', '989', '990', '991', '992']",False,1000,True,100,df23d872f0,0.0,1.0,0.0
./expes/v3_2021-02-19_hi_1000-prng-1-w1-fpa10-0.4-p100,30_issda-1000,1000,first-1000,50,5,rng,num-start-1250,1250,25726,fpa-09-10-0.6-20,222.9667661190033,False,,False,0.6907441041033562,0.6836140014158336,0.6998498874061678,100,"['21', '27', '61', '69', '89', '93', '106', '109', '159', '169', '177', '199', '220', '228', '242', '267', '269', '279', '284', '297', '311', '318', '369', '382', '406', '412', '491', '533', '550', '563', '621', '643', '657', '739', '750', '784', '799', '820', '827', '847', '849', '866', '869', '876', '889', '902', '940', '950', '966', '984']",False,1000,True,100,38ad2e466d,0.0,1.0,0.0
./expes/v3_2021-02-19_hi_1000-prng-1-w1-fpa10-0.4-p100,30_issda-1000,1000,first-1000,500,50,rng,num-start-4500,4500,25726,fpa-09-10-0.6-20,573.8775146007538,False,,False,0.2700667176756239,0.2675134564126542,0.2967969749108764,100,"['2', '3', '6', '9', '10', '11', '13', '15', '18', '19', '21', '22', '23', '25', '27', '28', '29', '30', '31', '32', '33', '34', '36', '37', '39', '41', '42', '43', '45', '47', '49', '58', '61', '65', '66', '67', '72', '73', '75', '77', '79', '84', '86', '87', '89', '92', '93', '94', '95', '97', '99', '102', '103', '104', '105', '106', '107', '110', '111', '112', '113', '115', '117', '118', '119', '121', '124', '129', '130', '133', '134', '137', '138', '139', '145', '146', '150', '151', '154', '158', '161', '163', '164', '165', '166', '168', '171', '172', '173', '174', '175', '176', '178', '182', '183', '184', '186', '188', '190', '191', '192', '193', '195', '199', '204', '205', '206', '211', '212', '213', '215', '218', '219', '221', '222', '223', '225', '226', '228', '229', '230', '231', '233', '235', '236', '237', '238', '239', '241', '246', '248', '249', '250', '251', '252', '253', '256', '257', '259', '260', '262', '265', '266', '273', '274', '275', '276', '280', '284', '288', '289', '291', '297', '298', '299', '301', '302', '303', '304', '306', '311', '313', '314', '315', '316', '318', '320', '321', '323', '324', '325', '326', '328', '329', '330', '334', '336', '340', '341', '343', '347', '348', '349', '350', '352', '353', '354', '355', '356', '362', '365', '366', '368', '370', '374', '376', '377', '380', '384', '388', '389', '390', '391', '393', '396', '400', '401', '403', '404', '405', '407', '409', '412', '414', '415', '417', '424', '425', '427', '432', '433', '437', '440', '443', '444', '446', '449', '450', '457', '459', '461', '462', '464', '466', '467', '469', '470', '471', '472', '481', '484', '486', '489', '492', '493', '497', '500', '501', '502', '505', '506', '508', '509', '512', '513', '514', '515', '517', '518', '519', '520', '521', '522', '523', '525', '527', '529', '532', '534', '537', '541', '546', '548', '552', '553', '554', '555', '556', '558', '559', '561', '562', '564', '565', '567', '568', '570', '575', '577', '578', '579', '580', '583', '584', '585', '588', '589', '590', '592', '593', '594', '599', '601', '602', '604', '605', '606', '608', '611', '615', '616', '617', '619', '621', '623', '624', '627', '628', '629', '630', '633', '638', '639', '640', '645', '646', '647', '651', '658', '659', '663', '664', '665', '666', '668', '673', '676', '678', '680', '681', '682', '687', '689', '690', '691', '692', '694', '695', '698', '703', '704', '705', '707', '712', '713', '720', '721', '722', '727', '729', '733', '737', '739', '740', '742', '743', '744', '747', '748', '751', '756', '759', '761', '762', '765', '769', '772', '773', '774', '778', '780', '781', '783', '786', '787', '789', '790', '795', '797', '798', '799', '801', '802', '803', '804', '805', '806', '808', '809', '812', '815', '816', '817', '818', '822', '823', '824', '826', '827', '828', '829', '831', '833', '837', '838', '840', '841', '842', '846', '848', '849', '850', '853', '855', '856', '858', '861', '862', '866', '867', '868', '869', '871', '872', '874', '878', '879', '880', '881', '882', '884', '887', '889', '891', '893', '897', '900', '903', '904', '907', '908', '909', '913', '915', '916', '918', '919', '922', '923', '924', '925', '929', '932', '933', '936', '937', '939', '940', '942', '943', '944', '945', '948', '949', '954', '955', '959', '961', '962', '964', '967', '968', '973', '975', '976', '978', '981', '983', '986', '988', '989', '990', '991', '992', '993', '994', '997', '998', '999', '1000']",False,1000,True,100,cd37dd68ba,0.0,1.0,0.0
./expes/v3_2021-02-19_hi_1000-prng-1-w1-fpa10-0.4-p100,30_issda-1000,1000,first-1000,50,5,rng,num-start-1250,1250,25726,fpa-09-10-0.6-20,160.06277418136597,False,,False,0.6975339285343413,0.6900062966831486,0.6998498874061678,100,"['29', '37', '58', '87', '94', '163', '174', '218', '258', '275', '316', '327', '370', '373', '381', '390', '403', '434', '442', '456', '477', '515', '522', '539', '558', '596', '621', '622', '654', '686', '698', '741', '754', '823', '829', '856', '870', '875', '881', '884', '892', '906', '914', '923', '930', '955', '959', '971', '973', '979']",False,1000,True,100,5603c2fbe6,0.0,1.0,0.0
./expes/v3_2021-02-19_hi_1000-prng-1-w1-fpa10-0.4-p100,30_issda-1000,1000,first-1000,400,40,rng,num-start-2250,2250,25726,fpa-09-10-0.6-20,399.52505826950073,False,,False,0.30115481361170454,0.2967969749108764,0.3053904100269832,100,"['4', '5', '6', '8', '10', '11', '14', '19', '21', '27', '28', '33', '36', '37', '38', '42', '43', '44', '45', '46', '48', '53', '55', '57', '61', '62', '64', '69', '77', '78', '80', '81', '82', '84', '85', '88', '89', '92', '93', '96', '98', '100', '104', '106', '109', '114', '116', '117', '118', '119', '120', '122', '124', '126', '131', '140', '143', '146', '149', '153', '154', '157', '159', '161', '163', '166', '167', '169', '170', '172', '173', '174', '177', '181', '182', '183', '185', '189', '193', '196', '197', '199', '200', '201', '204', '206', '207', '208', '211', '213', '214', '216', '217', '220', '221', '224', '225', '228', '235', '238', '239', '240', '242', '244', '248', '249', '252', '254', '255', '256', '257', '260', '261', '264', '265', '266', '267', '268', '269', '275', '276', '279', '283', '284', '285', '287', '288', '293', '296', '297', '298', '299', '300', '301', '304', '305', '308', '310', '311', '313', '318', '319', '320', '323', '329', '330', '331', '332', '333', '335', '339', '340', '345', '346', '347', '352', '356', '365', '366', '369', '372', '373', '374', '375', '381', '382', '391', '397', '398', '400', '402', '405', '406', '410', '412', '413', '414', '420', '421', '422', '423', '424', '426', '428', '431', '432', '433', '434', '435', '439', '441', '442', '445', '447', '450', '451', '452', '455', '463', '465', '466', '471', '474', '476', '483', '484', '485', '490', '491', '496', '499', '501', '503', '504', '507', '509', '511', '519', '521', '525', '532', '533', '534', '536', '539', '540', '541', '542', '548', '550', '555', '557', '559', '560', '561', '563', '564', '572', '575', '576', '579', '583', '584', '586', '587', '597', '603', '609', '610', '614', '616', '621', '622', '623', '625', '631', '633', '635', '636', '642', '643', '644', '648', '650', '651', '653', '657', '658', '663', '664', '668', '669', '670', '671', '673', '684', '685', '688', '690', '692', '694', '697', '703', '705', '713', '715', '718', '722', '724', '726', '728', '729', '733', '735', '739', '750', '753', '755', '763', '765', '777', '784', '786', '787', '789', '791', '793', '794', '796', '799', '802', '803', '804', '806', '807', '810', '817', '818', '819', '820', '821', '824', '827', '830', '833', '835', '838', '839', '847', '848', '849', '851', '855', '857', '858', '860', '861', '866', '868', '869', '876', '877', '879', '880', '881', '883', '886', '887', '889', '891', '892', '895', '896', '898', '899', '900', '901', '902', '903', '904', '907', '911', '913', '914', '916', '918', '921', '922', '923', '926', '927', '931', '936', '938', '939', '940', '945', '947', '950', '951', '953', '958', '964', '965', '966', '967', '968', '974', '978', '980', '983', '984', '985', '986', '988', '990', '992', '994', '995', '998']",False,1000,True,100,dd8c8e628f,0.0,1.0,0.0
./expes/v3_2021-02-19_hi_1000-prng-1-w1-fpa10-0.4-p100,30_issda-1000,1000,first-1000,250,25,rng,num-start-1500,1500,25726,fpa-09-10-0.6-20,229.3593418598175,False,,False,0.38699993158157375,0.3800125933662972,0.3914193805498154,100,"['2', '3', '6', '10', '13', '15', '18', '23', '25', '27', '29', '30', '31', '32', '34', '36', '45', '58', '65', '72', '73', '86', '89', '94', '97', '103', '105', '111', '113', '117', '121', '124', '133', '138', '164', '168', '172', '173', '175', '178', '182', '186', '190', '191', '195', '205', '211', '215', '222', '225', '228', '233', '235', '236', '237', '238', '239', '249', '256', '262', '273', '276', '280', '288', '291', '297', '298', '302', '304', '311', '316', '320', '326', '330', '340', '341', '352', '353', '354', '355', '362', '366', '374', '376', '380', '384', '389', '391', '393', '396', '400', '403', '404', '414', '415', '424', '425', '427', '433', '437', '444', '449', '450', '457', '461', '464', '466', '470', '471', '481', '484', '486', '492', '493', '497', '500', '502', '508', '509', '512', '513', '515', '517', '518', '520', '521', '525', '527', '532', '534', '541', '552', '553', '554', '555', '562', '564', '565', '567', '568', '570', '575', '583', '584', '592', '593', '599', '602', '604', '606', '608', '615', '623', '624', '628', '630', '639', '640', '645', '651', '658', '663', '664', '666', '668', '673', '676', '680', '681', '687', '690', '691', '694', '703', '713', '720', '721', '729', '739', '742', '744', '747', '751', '756', '759', '761', '762', '773', '774', '780', '781', '783', '786', '790', '795', '797', '798', '803', '806', '808', '817', '818', '822', '824', '829', '833', '837', '841', '850', '856', '858', '861', '862', '867', '868', '869', '872', '874', '878', '881', '882', '889', '891', '903', '904', '908', '915', '918', '924', '932', '933', '939', '943', '945', '949', '954', '959', '961', '962', '964', '967', '968', '973', '975', '976', '978', '981', '991', '993', '997']",False,1000,True,100,a17b56ee71,0.0,1.0,0.0
./expes/v3_2021-02-19_hi_1000-prng-1-w1-fpa10-0.4-p100,30_issda-1000,1000,first-1000,200,20,rng,num-start-1500,1500,25726,fpa-09-10-0.6-20,260.7083218097687,False,,False,0.4254600757188307,0.41661304407765476,0.452003375648809,100,"['2', '9', '22', '25', '26', '29', '33', '37', '42', '45', '51', '58', '59', '61', '62', '70', '78', '85', '87', '94', '109', '118', '131', '140', '161', '163', '166', '169', '171', '174', '177', '178', '181', '182', '187', '189', '196', '213', '216', '218', '228', '233', '237', '242', '251', '254', '256', '258', '262', '273', '275', '280', '286', '311', '316', '317', '320', '327', '333', '350', '360', '363', '369', '370', '371', '372', '373', '376', '381', '383', '390', '395', '403', '410', '417', '425', '434', '442', '456', '457', '466', '468', '473', '477', '492', '499', '501', '502', '511', '513', '515', '517', '520', '522', '523', '525', '527', '528', '531', '535', '536', '538', '539', '544', '558', '571', '574', '576', '582', '589', '596', '603', '604', '606', '608', '621', '622', '631', '632', '639', '654', '668', '669', '671', '675', '678', '686', '689', '691', '698', '699', '701', '709', '717', '724', '733', '735', '741', '742', '744', '747', '749', '753', '754', '757', '763', '773', '778', '782', '792', '804', '809', '814', '816', '819', '823', '829', '833', '835', '841', '845', '852', '856', '870', '875', '880', '881', '884', '892', '897', '898', '902', '904', '905', '906', '914', '916', '920', '922', '923', '925', '929', '930', '931', '934', '938', '941', '943', '948', '955', '957', '959', '964', '967', '971', '973', '978', '979', '981', '985']",False,1000,True,100,a5329b8813,0.0,1.0,0.0
./expes/v3_2021-02-19_hi_1000-prng-1-w1-fpa10-0.4-p100,30_issda-1000,1000,first-1000,500,50,rng,num-start-250,250,25726,fpa-09-10-0.6-20,31.445351362228394,False,,False,0.3030780742947866,0.2883072948901987,0.3053904100269832,100,"['2', '3', '6', '9', '10', '11', '13', '15', '18', '19', '21', '22', '23', '25', '27', '28', '29', '30', '31', '32', '33', '34', '36', '37', '39', '41', '42', '43', '45', '47', '49', '58', '61', '65', '66', '67', '72', '73', '75', '77', '79', '84', '86', '87', '89', '92', '93', '94', '95', '97', '99', '102', '103', '104', '105', '106', '107', '110', '111', '112', '113', '115', '117', '118', '119', '121', '124', '129', '130', '133', '134', '137', '138', '139', '145', '146', '150', '151', '154', '158', '161', '163', '164', '165', '166', '168', '171', '172', '173', '174', '175', '176', '178', '182', '183', '184', '186', '188', '190', '191', '192', '193', '195', '199', '204', '205', '206', '211', '212', '213', '215', '218', '219', '221', '222', '223', '225', '226', '228', '229', '230', '231', '233', '235', '236', '237', '238', '239', '241', '246', '248', '249', '250', '251', '252', '253', '256', '257', '259', '260', '262', '265', '266', '273', '274', '275', '276', '280', '284', '288', '289', '291', '297', '298', '299', '301', '302', '303', '304', '306', '311', '313', '314', '315', '316', '318', '320', '321', '323', '324', '325', '326', '328', '329', '330', '334', '336', '340', '341', '343', '347', '348', '349', '350', '352', '353', '354', '355', '356', '362', '365', '366', '368', '370', '374', '376', '377', '380', '384', '388', '389', '390', '391', '393', '396', '400', '401', '403', '404', '405', '407', '409', '412', '414', '415', '417', '424', '425', '427', '432', '433', '437', '440', '443', '444', '446', '449', '450', '457', '459', '461', '462', '464', '466', '467', '469', '470', '471', '472', '481', '484', '486', '489', '492', '493', '497', '500', '501', '502', '505', '506', '508', '509', '512', '513', '514', '515', '517', '518', '519', '520', '521', '522', '523', '525', '527', '529', '532', '534', '537', '541', '546', '548', '552', '553', '554', '555', '556', '558', '559', '561', '562', '564', '565', '567', '568', '570', '575', '577', '578', '579', '580', '583', '584', '585', '588', '589', '590', '592', '593', '594', '599', '601', '602', '604', '605', '606', '608', '611', '615', '616', '617', '619', '621', '623', '624', '627', '628', '629', '630', '633', '638', '639', '640', '645', '646', '647', '651', '658', '659', '663', '664', '665', '666', '668', '673', '676', '678', '680', '681', '682', '687', '689', '690', '691', '692', '694', '695', '698', '703', '704', '705', '707', '712', '713', '720', '721', '722', '727', '729', '733', '737', '739', '740', '742', '743', '744', '747', '748', '751', '756', '759', '761', '762', '765', '769', '772', '773', '774', '778', '780', '781', '783', '786', '787', '789', '790', '795', '797', '798', '799', '801', '802', '803', '804', '805', '806', '808', '809', '812', '815', '816', '817', '818', '822', '823', '824', '826', '827', '828', '829', '831', '833', '837', '838', '840', '841', '842', '846', '848', '849', '850', '853', '855', '856', '858', '861', '862', '866', '867', '868', '869', '871', '872', '874', '878', '879', '880', '881', '882', '884', '887', '889', '891', '893', '897', '900', '903', '904', '907', '908', '909', '913', '915', '916', '918', '919', '922', '923', '924', '925', '929', '932', '933', '936', '937', '939', '940', '942', '943', '944', '945', '948', '949', '954', '955', '959', '961', '962', '964', '967', '968', '973', '975', '976', '978', '981', '983', '986', '988', '989', '990', '991', '992', '993', '994', '997', '998', '999', '1000']",False,1000,True,100,463cf047d7,0.0,1.0,0.0
./expes/v3_2021-02-19_hi_1000-prng-1-w1-fpa10-0.4-p100,30_issda-1000,1000,first-1000,250,25,rng,num-start-3750,3750,25726,fpa-09-10-0.6-20,566.8013415336609,False,,False,0.37609624161083033,0.37199172426281324,0.404723295975431,100,"['2', '5', '9', '19', '22', '25', '26', '29', '32', '33', '37', '38', '42', '45', '47', '51', '58', '59', '61', '62', '70', '78', '85', '87', '94', '96', '105', '109', '116', '118', '131', '140', '144', '148', '156', '158', '161', '163', '166', '169', '171', '174', '177', '178', '181', '182', '187', '189', '196', '213', '216', '218', '228', '231', '233', '237', '242', '251', '254', '256', '258', '262', '266', '269', '271', '273', '275', '280', '286', '293', '311', '316', '317', '320', '324', '327', '333', '336', '346', '350', '353', '360', '363', '369', '370', '371', '372', '373', '376', '381', '383', '390', '395', '403', '410', '412', '417', '425', '430', '434', '442', '456', '457', '459', '460', '466', '468', '473', '477', '485', '492', '499', '501', '502', '511', '513', '515', '517', '520', '522', '523', '525', '527', '528', '531', '535', '536', '538', '539', '544', '558', '565', '571', '572', '574', '576', '582', '589', '596', '599', '603', '604', '606', '608', '620', '621', '622', '631', '632', '637', '639', '643', '654', '668', '669', '671', '675', '677', '678', '686', '689', '691', '698', '699', '701', '704', '709', '717', '723', '724', '733', '735', '741', '742', '744', '747', '749', '753', '754', '757', '758', '761', '763', '766', '773', '774', '778', '782', '785', '792', '800', '804', '808', '809', '814', '816', '819', '823', '829', '833', '835', '841', '845', '852', '856', '859', '870', '875', '880', '881', '884', '892', '896', '897', '898', '902', '904', '905', '906', '914', '916', '920', '922', '923', '924', '925', '929', '930', '931', '934', '938', '941', '943', '948', '955', '957', '959', '961', '964', '967', '971', '973', '978', '979', '981', '982', '983', '985', '994', '995']",False,1000,True,100,fc122e2ac5,0.0,1.0,0.0
./expes/v3_2021-02-19_hi_1000-prng-1-w1-fpa10-0.4-p100,30_issda-1000,1000,first-1000,450,45,rng,num-start-3500,3500,25726,fpa-09-10-0.6-20,582.8839325904846,False,,False,0.2976699184432888,0.2939557389947154,0.303950803114834,100,"['2', '4', '5', '6', '8', '12', '14', '16', '19', '21', '22', '23', '25', '27', '28', '29', '30', '32', '33', '34', '35', '36', '37', '44', '45', '46', '47', '48', '51', '52', '53', '55', '57', '62', '63', '65', '66', '68', '69', '70', '71', '74', '79', '82', '88', '89', '91', '95', '100', '102', '105', '106', '107', '108', '111', '112', '117', '118', '122', '123', '124', '125', '126', '127', '128', '129', '130', '131', '132', '133', '134', '135', '137', '138', '140', '142', '147', '155', '156', '160', '161', '164', '168', '174', '176', '182', '183', '184', '188', '190', '192', '196', '197', '203', '204', '205', '217', '223', '224', '227', '228', '230', '231', '233', '238', '240', '242', '244', '245', '246', '251', '255', '258', '259', '265', '266', '269', '270', '271', '272', '274', '276', '277', '278', '281', '286', '287', '292', '294', '296', '298', '299', '301', '306', '308', '309', '311', '312', '318', '321', '322', '323', '324', '327', '328', '330', '331', '334', '335', '336', '337', '339', '341', '342', '345', '348', '349', '350', '353', '354', '355', '360', '361', '362', '369', '370', '373', '375', '379', '382', '383', '384', '385', '386', '387', '390', '396', '397', '399', '400', '405', '407', '410', '418', '420', '421', '424', '426', '427', '429', '430', '431', '432', '434', '436', '437', '438', '439', '441', '442', '445', '446', '447', '448', '449', '456', '462', '468', '472', '476', '478', '481', '482', '485', '486', '488', '489', '493', '494', '495', '496', '500', '502', '507', '509', '513', '515', '516', '518', '520', '523', '525', '528', '531', '532', '533', '534', '536', '538', '540', '543', '545', '547', '548', '549', '550', '554', '555', '557', '558', '562', '563', '565', '569', '573', '578', '581', '582', '583', '585', '586', '588', '589', '591', '594', '595', '599', '600', '601', '602', '603', '604', '605', '606', '607', '610', '615', '616', '619', '620', '621', '624', '626', '627', '630', '631', '633', '635', '636', '638', '641', '642', '643', '644', '648', '649', '650', '651', '652', '655', '658', '660', '663', '666', '670', '672', '676', '679', '684', '688', '689', '692', '693', '695', '696', '698', '699', '701', '707', '708', '711', '712', '713', '715', '716', '720', '724', '730', '731', '732', '733', '734', '735', '736', '737', '738', '741', '746', '750', '752', '753', '756', '760', '764', '766', '772', '775', '777', '779', '780', '788', '791', '793', '794', '796', '798', '799', '802', '806', '807', '808', '810', '811', '812', '813', '815', '820', '821', '823', '824', '826', '827', '830', '831', '832', '833', '837', '840', '844', '848', '852', '853', '854', '857', '858', '859', '862', '865', '871', '873', '875', '876', '877', '878', '879', '882', '883', '884', '885', '887', '888', '889', '891', '892', '894', '900', '901', '902', '903', '905', '907', '908', '909', '911', '912', '919', '920', '922', '926', '927', '931', '935', '938', '940', '943', '944', '945', '947', '949', '950', '952', '959', '962', '964', '966', '972', '973', '974', '978', '981', '982', '984', '987', '988', '989', '993', '995', '996', '997', '999']",False,1000,True,100,79be9dbc85,0.0,1.0,0.0
./expes/v3_2021-02-19_hi_1000-prng-1-w1-fpa10-0.4-p100,30_issda-1000,1000,first-1000,400,40,rng,num-start-500,500,25726,fpa-09-10-0.6-20,59.77549171447754,False,,False,0.3006818627119994,0.298221906517101,0.31409149992840113,100,"['2', '5', '6', '9', '17', '19', '20', '21', '22', '25', '26', '29', '32', '33', '35', '37', '38', '39', '42', '45', '47', '51', '53', '58', '59', '61', '62', '69', '70', '73', '76', '78', '79', '83', '85', '87', '89', '90', '94', '96', '97', '99', '103', '104', '105', '108', '109', '114', '116', '118', '119', '122', '125', '126', '131', '132', '135', '140', '144', '145', '148', '151', '155', '156', '158', '161', '163', '165', '166', '169', '171', '174', '175', '177', '178', '181', '182', '186', '187', '189', '196', '197', '204', '213', '214', '216', '218', '223', '225', '228', '231', '233', '234', '237', '238', '239', '242', '247', '251', '253', '254', '256', '257', '258', '260', '261', '262', '263', '266', '269', '271', '273', '275', '276', '280', '286', '292', '293', '297', '298', '304', '311', '314', '316', '317', '318', '320', '324', '327', '333', '336', '343', '346', '350', '353', '354', '360', '363', '365', '367', '369', '370', '371', '372', '373', '375', '376', '381', '382', '383', '384', '390', '394', '395', '400', '401', '402', '403', '405', '410', '412', '417', '419', '421', '423', '425', '427', '429', '430', '434', '436', '438', '442', '445', '456', '457', '459', '460', '463', '465', '466', '468', '469', '473', '475', '476', '477', '482', '485', '490', '492', '496', '498', '499', '501', '502', '503', '504', '510', '511', '513', '515', '517', '520', '521', '522', '523', '524', '525', '527', '528', '531', '532', '534', '535', '536', '538', '539', '544', '549', '558', '559', '562', '565', '571', '572', '574', '576', '582', '586', '589', '590', '596', '599', '600', '603', '604', '606', '608', '611', '620', '621', '622', '626', '629', '631', '632', '634', '637', '639', '640', '643', '651', '653', '654', '657', '658', '664', '668', '669', '671', '675', '677', '678', '680', '686', '687', '689', '691', '696', '697', '698', '699', '701', '702', '704', '707', '709', '710', '713', '716', '717', '723', '724', '726', '727', '732', '733', '734', '735', '737', '741', '742', '744', '746', '747', '749', '753', '754', '757', '758', '761', '763', '766', '769', '772', '773', '774', '778', '779', '782', '785', '792', '794', '796', '800', '804', '808', '809', '811', '814', '816', '818', '819', '820', '822', '823', '824', '826', '829', '830', '832', '833', '835', '838', '841', '845', '846', '852', '856', '857', '859', '861', '870', '871', '875', '880', '881', '884', '887', '892', '896', '897', '898', '902', '903', '904', '905', '906', '909', '911', '914', '916', '917', '920', '922', '923', '924', '925', '929', '930', '931', '934', '938', '939', '941', '943', '944', '948', '952', '955', '957', '958', '959', '961', '964', '967', '971', '973', '978', '979', '981', '982', '983', '984', '985', '987', '994', '995', '998']",False,1000,True,100,a3f50899f3,0.0,1.0,0.0
./expes/v3_2021-02-19_hi_1000-prng-1-w1-fpa10-0.4-p100,30_issda-1000,1000,first-1000,150,15,rng,num-start-1500,1500,25726,fpa-09-10-0.6-20,309.74981594085693,False,,False,0.4962232339804633,0.48205379790149216,0.5119034539783771,100,"['2', '15', '34', '40', '42', '64', '65', '71', '76', '83', '92', '94', '96', '98', '102', '104', '112', '128', '134', '143', '144', '146', '151', '154', '189', '192', '194', '196', '209', '210', '224', '228', '245', '248', '250', '257', '266', '267', '289', '295', '298', '299', '309', '311', '318', '324', '325', '328', '334', '339', '341', '342', '363', '367', '395', '401', '409', '415', '431', '445', '454', '456', '459', '484', '488', '489', '498', '502', '506', '517', '521', '524', '534', '546', '554', '557', '561', '562', '565', '566', '574', '582', '590', '598', '602', '611', '617', '618', '626', '627', '628', '634', '641', '656', '673', '685', '696', '700', '701', '717', '721', '723', '724', '728', '737', '748', '774', '776', '777', '803', '804', '818', '819', '823', '825', '830', '835', '842', '845', '848', '850', '858', '861', '863', '865', '871', '887', '889', '892', '897', '898', '912', '914', '920', '921', '924', '930', '932', '935', '938', '940', '941', '945', '946', '956', '987', '989', '990', '991', '992']",False,1000,True,100,497d70cd8e,0.0,1.0,0.0
./expes/v3_2021-02-19_hi_1000-prng-1-w1-fpa10-0.4-p100,30_issda-1000,1000,first-1000,300,30,rng,num-start-750,750,25726,fpa-09-10-0.6-20,94.57854390144348,False,,False,0.34037544609900955,0.33183351891430046,0.3609316089741189,100,"['2', '13', '14', '15', '17', '23', '24', '28', '34', '38', '40', '41', '42', '47', '60', '63', '64', '65', '71', '72', '74', '76', '81', '83', '85', '92', '94', '96', '98', '102', '104', '112', '119', '120', '121', '123', '127', '128', '134', '136', '139', '143', '144', '146', '150', '151', '154', '158', '163', '166', '174', '175', '180', '185', '189', '190', '192', '194', '195', '196', '200', '205', '209', '210', '216', '221', '224', '225', '226', '227', '228', '242', '245', '246', '248', '249', '250', '257', '266', '267', '278', '282', '283', '288', '289', '295', '298', '299', '309', '311', '318', '319', '324', '325', '328', '333', '334', '339', '341', '342', '344', '351', '359', '361', '363', '366', '367', '368', '380', '381', '395', '398', '401', '409', '415', '420', '425', '430', '431', '436', '437', '445', '447', '453', '454', '456', '459', '462', '469', '479', '482', '483', '484', '488', '489', '491', '494', '498', '499', '502', '505', '506', '516', '517', '521', '524', '534', '535', '538', '543', '546', '548', '554', '557', '558', '561', '562', '565', '566', '574', '575', '582', '583', '584', '588', '590', '594', '598', '602', '604', '605', '609', '611', '612', '617', '618', '621', '625', '626', '627', '628', '634', '636', '641', '646', '649', '650', '651', '656', '657', '663', '665', '667', '673', '674', '677', '682', '685', '689', '690', '693', '696', '697', '698', '700', '701', '708', '715', '717', '718', '721', '723', '724', '728', '733', '736', '737', '745', '748', '750', '757', '760', '767', '774', '776', '777', '781', '786', '802', '803', '804', '808', '813', '814', '818', '819', '820', '823', '825', '830', '832', '835', '836', '837', '842', '845', '846', '848', '849', '850', '851', '854', '856', '858', '859', '861', '863', '865', '866', '870', '871', '875', '876', '887', '889', '892', '896', '897', '898', '912', '914', '917', '920', '921', '922', '924', '927', '930', '932', '935', '938', '939', '940', '941', '944', '945', '946', '956', '959', '960', '970', '973', '977', '985', '987', '989', '990', '991', '992', '994']",False,1000,True,100,61e3aa7cb1,0.0,1.0,0.0
./expes/v3_2021-02-19_hi_1000-prng-1-w1-fpa10-0.4-p100,30_issda-1000,1000,first-1000,150,15,rng,num-start-2750,2750,25726,fpa-09-10-0.6-20,474.4581127166748,False,,False,0.5034067990648107,0.4686975604401178,0.5119034539783771,100,"['9', '25', '29', '37', '58', '78', '87', '94', '140', '163', '166', '169', '171', '174', '178', '181', '182', '187', '196', '213', '218', '228', '237', '242', '256', '258', '275', '286', '311', '316', '317', '320', '327', '333', '350', '360', '363', '369', '370', '371', '373', '376', '381', '390', '403', '410', '417', '425', '434', '442', '456', '457', '466', '468', '473', '477', '492', '499', '501', '502', '511', '513', '515', '517', '520', '522', '523', '525', '527', '528', '531', '538', '539', '544', '558', '571', '574', '576', '582', '596', '603', '608', '621', '622', '631', '632', '639', '654', '668', '671', '675', '678', '686', '691', '698', '701', '717', '724', '733', '741', '742', '744', '749', '753', '754', '757', '773', '782', '792', '804', '809', '816', '819', '823', '829', '835', '841', '852', '856', '870', '875', '880', '881', '884', '892', '898', '904', '905', '906', '914', '916', '922', '923', '925', '929', '930', '931', '934', '943', '948', '955', '957', '959', '964', '971', '973', '978', '979', '981', '985']",False,1000,True,100,b9141f5344,0.0,1.0,0.0
./expes/v3_2021-02-19_hi_1000-prng-1-w1-fpa10-0.4-p100,30_issda-1000,1000,first-1000,200,20,rng,num-start-1500,1500,25726,fpa-09-10-0.6-20,246.82313108444214,False,,False,0.4324843453720313,0.4148997159953327,0.43936258213145074,100,"['2', '3', '6', '10', '13', '23', '27', '30', '31', '32', '36', '45', '58', '65', '89', '97', '103', '105', '111', '121', '124', '133', '138', '168', '173', '175', '178', '191', '195', '205', '211', '215', '222', '225', '228', '233', '235', '237', '238', '239', '249', '262', '273', '276', '291', '297', '304', '311', '316', '326', '340', '341', '353', '354', '355', '362', '366', '374', '376', '380', '384', '389', '391', '393', '400', '403', '404', '414', '415', '424', '425', '427', '433', '437', '444', '449', '450', '457', '461', '470', '471', '481', '484', '492', '493', '497', '500', '502', '508', '512', '513', '515', '517', '518', '520', '521', '525', '527', '532', '534', '541', '552', '553', '554', '555', '562', '567', '568', '570', '575', '583', '584', '592', '593', '602', '604', '606', '608', '615', '623', '624', '628', '630', '639', '645', '658', '663', '666', '668', '676', '680', '681', '687', '691', '694', '703', '713', '720', '721', '729', '739', '742', '744', '747', '751', '756', '759', '761', '762', '780', '781', '783', '786', '790', '795', '797', '798', '803', '806', '808', '817', '822', '829', '833', '841', '850', '856', '858', '861', '867', '868', '869', '874', '878', '881', '891', '903', '904', '908', '915', '918', '924', '932', '933', '939', '943', '945', '949', '959', '961', '962', '964', '968', '973', '976', '978', '981', '991', '993', '997']",False,1000,True,100,5de0351c8e,0.0,1.0,0.0
./expes/v3_2021-02-19_hi_1000-prng-1-w1-fpa10-0.4-p100,30_issda-1000,1000,first-1000,150,15,rng,num-start-2000,2000,25726,fpa-09-10-0.6-20,374.3405568599701,False,,False,0.49783080035127836,0.47247912052860097,0.5139586064580135,100,"['9', '25', '29', '37', '58', '78', '87', '94', '140', '163', '166', '169', '171', '174', '178', '181', '182', '187', '196', '213', '218', '228', '237', '242', '256', '258', '275', '286', '311', '316', '317', '320', '327', '333', '350', '360', '363', '369', '370', '371', '373', '376', '381', '390', '403', '410', '417', '425', '434', '442', '456', '457', '466', '468', '473', '477', '492', '499', '501', '502', '511', '513', '515', '517', '520', '522', '523', '525', '527', '528', '531', '538', '539', '544', '558', '571', '574', '576', '582', '596', '603', '608', '621', '622', '631', '632', '639', '654', '668', '671', '675', '678', '686', '691', '698', '701', '717', '724', '733', '741', '742', '744', '749', '753', '754', '757', '773', '782', '792', '804', '809', '816', '819', '823', '829', '835', '841', '852', '856', '870', '875', '880', '881', '884', '892', '898', '904', '905', '906', '914', '916', '922', '923', '925', '929', '930', '931', '934', '943', '948', '955', '957', '959', '964', '971', '973', '978', '979', '981', '985']",False,1000,True,100,e4b44ebaaa,0.0,1.0,0.0
./expes/v3_2021-02-19_hi_1000-prng-1-w1-fpa10-0.4-p100,30_issda-1000,1000,first-1000,250,25,rng,num-start-2750,2750,25726,fpa-09-10-0.6-20,423.8059766292572,False,,False,0.38593739865822907,0.3832501476446222,0.396373986342235,100,"['2', '3', '6', '10', '13', '15', '18', '23', '25', '27', '29', '30', '31', '32', '34', '36', '45', '58', '65', '72', '73', '86', '89', '94', '97', '103', '105', '111', '113', '117', '121', '124', '133', '138', '164', '168', '172', '173', '175', '178', '182', '186', '190', '191', '195', '205', '211', '215', '222', '225', '228', '233', '235', '236', '237', '238', '239', '249', '256', '262', '273', '276', '280', '288', '291', '297', '298', '302', '304', '311', '316', '320', '326', '330', '340', '341', '352', '353', '354', '355', '362', '366', '374', '376', '380', '384', '389', '391', '393', '396', '400', '403', '404', '414', '415', '424', '425', '427', '433', '437', '444', '449', '450', '457', '461', '464', '466', '470', '471', '481', '484', '486', '492', '493', '497', '500', '502', '508', '509', '512', '513', '515', '517', '518', '520', '521', '525', '527', '532', '534', '541', '552', '553', '554', '555', '562', '564', '565', '567', '568', '570', '575', '583', '584', '592', '593', '599', '602', '604', '606', '608', '615', '623', '624', '628', '630', '639', '640', '645', '651', '658', '663', '664', '666', '668', '673', '676', '680', '681', '687', '690', '691', '694', '703', '713', '720', '721', '729', '739', '742', '744', '747', '751', '756', '759', '761', '762', '773', '774', '780', '781', '783', '786', '790', '795', '797', '798', '803', '806', '808', '817', '818', '822', '824', '829', '833', '837', '841', '850', '856', '858', '861', '862', '867', '868', '869', '872', '874', '878', '881', '882', '889', '891', '903', '904', '908', '915', '918', '924', '932', '933', '939', '943', '945', '949', '954', '959', '961', '962', '964', '967', '968', '973', '975', '976', '978', '981', '991', '993', '997']",False,1000,True,100,8306d08731,0.0,1.0,0.0
./expes/v3_2021-02-19_hi_1000-prng-1-w1-fpa10-0.4-p100,30_issda-1000,1000,first-1000,150,15,rng,num-start-3500,3500,25726,fpa-09-10-0.6-20,495.804297208786,False,,False,0.4863872134934828,0.48205379790149216,0.4977527976660773,100,"['8', '19', '21', '27', '44', '45', '48', '61', '64', '69', '84', '85', '89', '92', '93', '104', '106', '109', '126', '149', '159', '166', '169', '177', '182', '183', '189', '199', '200', '201', '204', '208', '220', '228', '235', '239', '242', '244', '254', '255', '266', '267', '269', '279', '283', '284', '285', '287', '288', '293', '296', '297', '298', '299', '308', '311', '313', '318', '320', '329', '332', '335', '340', '346', '352', '365', '366', '369', '382', '398', '406', '412', '423', '424', '434', '442', '447', '452', '463', '471', '474', '483', '485', '491', '519', '521', '532', '533', '548', '550', '561', '563', '572', '587', '597', '603', '614', '621', '631', '642', '643', '648', '650', '651', '657', '664', '688', '690', '692', '715', '718', '722', '726', '739', '750', '753', '765', '784', '799', '817', '820', '827', '833', '838', '847', '849', '860', '861', '866', '869', '876', '883', '887', '889', '902', '904', '918', '927', '931', '936', '940', '950', '958', '965', '966', '968', '978', '983', '984', '988']",False,1000,True,100,f91922fb34,0.0,1.0,0.0
./expes/v3_2021-02-19_hi_1000-prng-1-w1-fpa10-0.4-p100,30_issda-1000,1000,first-1000,400,40,rng,num-start-3000,3000,25726,fpa-09-10-0.6-20,422.0252664089203,False,,False,0.3108168606819524,0.3068330067866182,0.3126336693782038,100,"['2', '4', '5', '8', '12', '14', '16', '21', '22', '23', '28', '30', '32', '33', '34', '35', '36', '37', '44', '46', '47', '48', '51', '52', '53', '55', '57', '62', '63', '65', '66', '68', '69', '70', '71', '74', '79', '82', '88', '89', '91', '100', '105', '106', '107', '108', '111', '117', '122', '123', '124', '126', '127', '128', '129', '130', '131', '132', '133', '134', '135', '137', '138', '140', '142', '155', '156', '160', '161', '164', '168', '174', '176', '182', '183', '188', '190', '192', '196', '197', '203', '204', '205', '217', '223', '224', '227', '228', '230', '231', '233', '238', '240', '242', '244', '245', '246', '251', '255', '258', '259', '265', '266', '270', '271', '272', '274', '276', '278', '281', '286', '287', '292', '294', '296', '298', '299', '301', '306', '308', '309', '311', '312', '318', '321', '322', '323', '324', '328', '330', '331', '335', '336', '337', '339', '341', '342', '345', '348', '349', '350', '353', '354', '355', '360', '361', '362', '369', '370', '373', '375', '379', '386', '387', '390', '396', '397', '399', '400', '405', '407', '410', '418', '420', '421', '424', '426', '427', '430', '432', '434', '438', '439', '441', '442', '445', '446', '447', '448', '449', '456', '462', '468', '472', '476', '478', '481', '482', '485', '486', '488', '489', '493', '494', '495', '496', '500', '502', '507', '513', '515', '516', '518', '520', '523', '525', '528', '531', '532', '533', '534', '536', '538', '540', '543', '547', '548', '549', '550', '554', '555', '557', '558', '562', '563', '565', '569', '573', '581', '582', '583', '585', '586', '588', '589', '591', '594', '595', '599', '600', '601', '603', '604', '606', '607', '610', '615', '616', '619', '620', '621', '624', '626', '627', '630', '631', '633', '635', '636', '638', '641', '642', '643', '644', '648', '649', '650', '651', '655', '658', '660', '663', '666', '670', '672', '679', '688', '689', '692', '693', '695', '696', '698', '699', '701', '707', '711', '713', '715', '716', '724', '730', '731', '732', '733', '734', '735', '736', '737', '738', '741', '746', '753', '756', '760', '764', '766', '772', '775', '777', '780', '788', '791', '794', '796', '798', '799', '802', '806', '807', '808', '811', '813', '815', '820', '821', '823', '824', '826', '827', '830', '831', '832', '833', '837', '840', '844', '848', '852', '853', '854', '857', '858', '859', '865', '871', '875', '876', '877', '878', '879', '882', '883', '884', '885', '887', '888', '889', '891', '894', '900', '902', '903', '905', '907', '909', '911', '912', '919', '922', '926', '927', '931', '935', '938', '940', '943', '944', '945', '947', '949', '950', '952', '959', '962', '964', '966', '972', '973', '978', '981', '982', '984', '987', '988', '989', '995', '996', '997', '999']",False,1000,True,100,123da9f367,0.0,1.0,0.0
./expes/v3_2021-02-19_hi_1000-prng-1-w1-fpa10-0.4-p100,30_issda-1000,1000,first-1000,250,25,rng,num-start-3500,3500,25726,fpa-09-10-0.6-20,555.8857502937317,False,,False,0.3733202509809543,0.37039981226464325,0.3881385987215942,100,"['2', '3', '6', '10', '13', '15', '18', '23', '25', '27', '29', '30', '31', '32', '34', '36', '45', '58', '65', '72', '73', '86', '89', '94', '97', '103', '105', '111', '113', '117', '121', '124', '133', '138', '164', '168', '172', '173', '175', '178', '182', '186', '190', '191', '195', '205', '211', '215', '222', '225', '228', '233', '235', '236', '237', '238', '239', '249', '256', '262', '273', '276', '280', '288', '291', '297', '298', '302', '304', '311', '316', '320', '326', '330', '340', '341', '352', '353', '354', '355', '362', '366', '374', '376', '380', '384', '389', '391', '393', '396', '400', '403', '404', '414', '415', '424', '425', '427', '433', '437', '444', '449', '450', '457', '461', '464', '466', '470', '471', '481', '484', '486', '492', '493', '497', '500', '502', '508', '509', '512', '513', '515', '517', '518', '520', '521', '525', '527', '532', '534', '541', '552', '553', '554', '555', '562', '564', '565', '567', '568', '570', '575', '583', '584', '592', '593', '599', '602', '604', '606', '608', '615', '623', '624', '628', '630', '639', '640', '645', '651', '658', '663', '664', '666', '668', '673', '676', '680', '681', '687', '690', '691', '694', '703', '713', '720', '721', '729', '739', '742', '744', '747', '751', '756', '759', '761', '762', '773', '774', '780', '781', '783', '786', '790', '795', '797', '798', '803', '806', '808', '817', '818', '822', '824', '829', '833', '837', '841', '850', '856', '858', '861', '862', '867', '868', '869', '872', '874', '878', '881', '882', '889', '891', '903', '904', '908', '915', '918', '924', '932', '933', '939', '943', '945', '949', '954', '959', '961', '962', '964', '967', '968', '973', '975', '976', '978', '981', '991', '993', '997']",False,1000,True,100,332c6a6980,0.0,1.0,0.0
./expes/v3_2021-02-19_hi_1000-prng-1-w1-fpa10-0.4-p100,30_issda-1000,1000,first-1000,150,15,rng,num-start-3750,3750,25726,fpa-09-10-0.6-20,570.4562885761261,False,,False,0.5072409553882755,0.48012475508996366,0.516022485817539,100,"['9', '25', '29', '37', '58', '78', '87', '94', '140', '163', '166', '169', '171', '174', '178', '181', '182', '187', '196', '213', '218', '228', '237', '242', '256', '258', '275', '286', '311', '316', '317', '320', '327', '333', '350', '360', '363', '369', '370', '371', '373', '376', '381', '390', '403', '410', '417', '425', '434', '442', '456', '457', '466', '468', '473', '477', '492', '499', '501', '502', '511', '513', '515', '517', '520', '522', '523', '525', '527', '528', '531', '538', '539', '544', '558', '571', '574', '576', '582', '596', '603', '608', '621', '622', '631', '632', '639', '654', '668', '671', '675', '678', '686', '691', '698', '701', '717', '724', '733', '741', '742', '744', '749', '753', '754', '757', '773', '782', '792', '804', '809', '816', '819', '823', '829', '835', '841', '852', '856', '870', '875', '880', '881', '884', '892', '898', '904', '905', '906', '914', '916', '922', '923', '925', '929', '930', '931', '934', '943', '948', '955', '957', '959', '964', '971', '973', '978', '979', '981', '985']",False,1000,True,100,18867a0e9c,0.0,1.0,0.0
./expes/v3_2021-02-19_hi_1000-prng-1-w1-fpa10-0.4-p100,30_issda-1000,1000,first-1000,300,30,rng,num-start-4250,4250,25726,fpa-09-10-0.6-20,811.0991559028625,False,,False,0.36467209352424623,0.3546966477567187,0.37358768180024393,100,"['2', '5', '9', '19', '21', '22', '25', '26', '29', '32', '33', '35', '37', '38', '42', '45', '47', '51', '53', '58', '59', '61', '62', '70', '76', '78', '83', '85', '87', '90', '94', '96', '99', '103', '105', '108', '109', '114', '116', '118', '131', '135', '140', '144', '148', '155', '156', '158', '161', '163', '165', '166', '169', '171', '174', '175', '177', '178', '181', '182', '187', '189', '196', '213', '216', '218', '223', '228', '231', '233', '234', '237', '238', '239', '242', '247', '251', '253', '254', '256', '257', '258', '260', '262', '263', '266', '269', '271', '273', '275', '280', '286', '293', '311', '316', '317', '318', '320', '324', '327', '333', '336', '346', '350', '353', '360', '363', '369', '370', '371', '372', '373', '376', '381', '383', '390', '394', '395', '403', '410', '412', '417', '419', '425', '430', '434', '436', '442', '445', '456', '457', '459', '460', '465', '466', '468', '473', '476', '477', '485', '492', '499', '501', '502', '511', '513', '515', '517', '520', '521', '522', '523', '524', '525', '527', '528', '531', '534', '535', '536', '538', '539', '544', '549', '558', '565', '571', '572', '574', '576', '582', '589', '596', '599', '603', '604', '606', '608', '620', '621', '622', '631', '632', '637', '639', '640', '643', '651', '654', '658', '668', '669', '671', '675', '677', '678', '686', '687', '689', '691', '698', '699', '701', '702', '704', '709', '717', '723', '724', '726', '727', '732', '733', '735', '741', '742', '744', '747', '749', '753', '754', '757', '758', '761', '763', '766', '769', '773', '774', '778', '779', '782', '785', '792', '800', '804', '808', '809', '811', '814', '816', '819', '820', '823', '826', '829', '833', '835', '841', '845', '852', '856', '859', '870', '875', '880', '881', '884', '892', '896', '897', '898', '902', '903', '904', '905', '906', '914', '916', '920', '922', '923', '924', '925', '929', '930', '931', '934', '938', '939', '941', '943', '948', '955', '957', '959', '961', '964', '967', '971', '973', '978', '979', '981', '982', '983', '985', '987', '994', '995']",False,1000,True,100,4cd050cc23,0.0,1.0,0.0
./expes/v3_2021-02-19_hi_1000-prng-1-w1-fpa10-0.4-p100,30_issda-1000,1000,first-1000,500,50,rng,num-start-1250,1250,25726,fpa-09-10-0.6-20,187.89259219169617,False,,False,0.307129406956703,0.2799177001769044,0.30972724486875736,100,"['1', '2', '3', '4', '9', '10', '13', '14', '15', '16', '17', '20', '23', '24', '28', '29', '33', '34', '37', '38', '39', '40', '41', '42', '43', '44', '47', '48', '50', '52', '60', '63', '64', '65', '66', '68', '71', '72', '73', '74', '76', '81', '83', '84', '85', '86', '87', '90', '92', '94', '96', '98', '101', '102', '103', '104', '108', '112', '118', '119', '120', '121', '122', '123', '127', '128', '133', '134', '136', '137', '139', '142', '143', '144', '146', '150', '151', '152', '154', '155', '158', '159', '160', '162', '163', '164', '166', '168', '170', '171', '174', '175', '180', '183', '184', '185', '187', '189', '190', '192', '193', '194', '195', '196', '197', '200', '203', '204', '205', '207', '209', '210', '211', '213', '216', '219', '221', '222', '223', '224', '225', '226', '227', '228', '229', '242', '245', '246', '248', '249', '250', '257', '263', '264', '266', '267', '268', '277', '278', '282', '283', '286', '287', '288', '289', '295', '297', '298', '299', '301', '307', '309', '310', '311', '316', '318', '319', '320', '323', '324', '325', '326', '328', '330', '331', '333', '334', '337', '339', '341', '342', '343', '344', '346', '347', '349', '351', '352', '356', '359', '361', '363', '366', '367', '368', '370', '371', '376', '377', '378', '380', '381', '382', '385', '388', '389', '395', '398', '401', '404', '405', '407', '408', '409', '412', '413', '415', '416', '420', '425', '426', '428', '429', '430', '431', '434', '436', '437', '442', '445', '446', '447', '453', '454', '456', '457', '458', '459', '460', '462', '463', '464', '469', '470', '479', '482', '483', '484', '486', '488', '489', '490', '491', '493', '494', '498', '499', '500', '501', '502', '505', '506', '507', '508', '510', '511', '516', '517', '521', '524', '532', '534', '535', '536', '538', '539', '541', '542', '543', '546', '548', '551', '554', '556', '557', '558', '560', '561', '562', '565', '566', '570', '572', '574', '575', '578', '579', '582', '583', '584', '588', '590', '594', '597', '598', '599', '600', '602', '604', '605', '609', '611', '612', '617', '618', '619', '621', '623', '625', '626', '627', '628', '634', '636', '639', '641', '642', '643', '646', '649', '650', '651', '653', '654', '655', '656', '657', '660', '661', '663', '665', '667', '670', '672', '673', '674', '677', '679', '682', '685', '687', '689', '690', '692', '693', '694', '695', '696', '697', '698', '700', '701', '704', '706', '708', '715', '716', '717', '718', '719', '721', '723', '724', '727', '728', '730', '732', '733', '735', '736', '737', '743', '745', '747', '748', '749', '750', '753', '757', '760', '765', '767', '768', '771', '773', '774', '776', '777', '781', '786', '791', '796', '799', '802', '803', '804', '808', '809', '812', '813', '814', '817', '818', '819', '820', '823', '825', '826', '828', '829', '830', '832', '835', '836', '837', '838', '842', '843', '845', '846', '847', '848', '849', '850', '851', '854', '856', '858', '859', '861', '862', '863', '865', '866', '867', '870', '871', '872', '874', '875', '876', '878', '883', '885', '887', '889', '892', '893', '895', '896', '897', '898', '899', '906', '907', '910', '912', '914', '916', '917', '920', '921', '922', '924', '925', '927', '930', '931', '932', '935', '936', '938', '939', '940', '941', '942', '943', '944', '945', '946', '954', '956', '957', '959', '960', '961', '970', '971', '973', '977', '985', '986', '987', '989', '990', '991', '992', '994', '998', '1000']",False,1000,True,100,cd6bf3394f,0.0,1.0,0.0
./expes/v3_2021-02-19_hi_1000-prng-1-w1-fpa10-0.4-p100,30_issda-1000,1000,first-1000,50,5,rng,num-start-3500,3500,25726,fpa-09-10-0.6-20,647.6591231822968,False,,False,0.6888570991194969,0.686793840900122,0.7032036252106706,100,"['3', '10', '23', '27', '30', '32', '65', '97', '105', '121', '138', '215', '222', '235', '262', '273', '326', '389', '391', '400', '433', '444', '457', '461', '484', '500', '508', '555', '583', '606', '623', '666', '668', '703', '713', '739', '780', '781', '783', '786', '808', '822', '856', '868', '903', '915', '924', '962', '968', '993']",False,1000,True,100,85d04be23e,0.0,1.0,0.0
