expe,clients,clients_size,clients_subset,agg_size,agg_size_pc,method,days,days_size,days_total,noise_method,time,valid,valid_sum,success,score_avg,score_min,score_max,nsols,oracle,wall_hit,wall_time,pooled,pool_size,uuid,infeasible,optimal,valid_sums
./expes/v3_2021-02-19_hi_1000-prng-1-w1-fpa10-0.4-p100,30_issda-1000,1000,first-1000,400,40,rng,num-start-250,250,25726,fpa-09-10-0.6-20,16.814263105392456,False,,False,0.3109511520994898,0.298221906517101,0.32586762838856753,100,"['4', '5', '6', '8', '10', '11', '14', '19', '21', '27', '28', '33', '36', '37', '38', '42', '43', '44', '45', '46', '48', '53', '55', '57', '61', '62', '64', '69', '77', '78', '80', '81', '82', '84', '85', '88', '89', '92', '93', '96', '98', '100', '104', '106', '109', '114', '116', '117', '118', '119', '120', '122', '124', '126', '131', '140', '143', '146', '149', '153', '154', '157', '159', '161', '163', '166', '167', '169', '170', '172', '173', '174', '177', '181', '182', '183', '185', '189', '193', '196', '197', '199', '200', '201', '204', '206', '207', '208', '211', '213', '214', '216', '217', '220', '221', '224', '225', '228', '235', '238', '239', '240', '242', '244', '248', '249', '252', '254', '255', '256', '257', '260', '261', '264', '265', '266', '267', '268', '269', '275', '276', '279', '283', '284', '285', '287', '288', '293', '296', '297', '298', '299', '300', '301', '304', '305', '308', '310', '311', '313', '318', '319', '320', '323', '329', '330', '331', '332', '333', '335', '339', '340', '345', '346', '347', '352', '356', '365', '366', '369', '372', '373', '374', '375', '381', '382', '391', '397', '398', '400', '402', '405', '406', '410', '412', '413', '414', '420', '421', '422', '423', '424', '426', '428', '431', '432', '433', '434', '435', '439', '441', '442', '445', '447', '450', '451', '452', '455', '463', '465', '466', '471', '474', '476', '483', '484', '485', '490', '491', '496', '499', '501', '503', '504', '507', '509', '511', '519', '521', '525', '532', '533', '534', '536', '539', '540', '541', '542', '548', '550', '555', '557', '559', '560', '561', '563', '564', '572', '575', '576', '579', '583', '584', '586', '587', '597', '603', '609', '610', '614', '616', '621', '622', '623', '625', '631', '633', '635', '636', '642', '643', '644', '648', '650', '651', '653', '657', '658', '663', '664', '668', '669', '670', '671', '673', '684', '685', '688', '690', '692', '694', '697', '703', '705', '713', '715', '718', '722', '724', '726', '728', '729', '733', '735', '739', '750', '753', '755', '763', '765', '777', '784', '786', '787', '789', '791', '793', '794', '796', '799', '802', '803', '804', '806', '807', '810', '817', '818', '819', '820', '821', '824', '827', '830', '833', '835', '838', '839', '847', '848', '849', '851', '855', '857', '858', '860', '861', '866', '868', '869', '876', '877', '879', '880', '881', '883', '886', '887', '889', '891', '892', '895', '896', '898', '899', '900', '901', '902', '903', '904', '907', '911', '913', '914', '916', '918', '921', '922', '923', '926', '927', '931', '936', '938', '939', '940', '945', '947', '950', '951', '953', '958', '964', '965', '966', '967', '968', '974', '978', '980', '983', '984', '985', '986', '988', '990', '992', '994', '995', '998']",False,1000,True,100,ff2c588558,0.0,1.0,0.0
./expes/v3_2021-02-19_hi_1000-prng-1-w1-fpa10-0.4-p100,30_issda-1000,1000,first-1000,250,25,rng,num-start-750,750,25726,fpa-09-10-0.6-20,43.42897439002991,False,,False,0.3822342718828016,0.37679185789305647,0.404723295975431,100,"['2', '5', '9', '19', '22', '25', '26', '29', '32', '33', '37', '38', '42', '45', '47', '51', '58', '59', '61', '62', '70', '78', '85', '87', '94', '96', '105', '109', '116', '118', '131', '140', '144', '148', '156', '158', '161', '163', '166', '169', '171', '174', '177', '178', '181', '182', '187', '189', '196', '213', '216', '218', '228', '231', '233', '237', '242', '251', '254', '256', '258', '262', '266', '269', '271', '273', '275', '280', '286', '293', '311', '316', '317', '320', '324', '327', '333', '336', '346', '350', '353', '360', '363', '369', '370', '371', '372', '373', '376', '381', '383', '390', '395', '403', '410', '412', '417', '425', '430', '434', '442', '456', '457', '459', '460', '466', '468', '473', '477', '485', '492', '499', '501', '502', '511', '513', '515', '517', '520', '522', '523', '525', '527', '528', '531', '535', '536', '538', '539', '544', '558', '565', '571', '572', '574', '576', '582', '589', '596', '599', '603', '604', '606', '608', '620', '621', '622', '631', '632', '637', '639', '643', '654', '668', '669', '671', '675', '677', '678', '686', '689', '691', '698', '699', '701', '704', '709', '717', '723', '724', '733', '735', '741', '742', '744', '747', '749', '753', '754', '757', '758', '761', '763', '766', '773', '774', '778', '782', '785', '792', '800', '804', '808', '809', '814', '816', '819', '823', '829', '833', '835', '841', '845', '852', '856', '859', '870', '875', '880', '881', '884', '892', '896', '897', '898', '902', '904', '905', '906', '914', '916', '920', '922', '923', '924', '925', '929', '930', '931', '934', '938', '941', '943', '948', '955', '957', '959', '961', '964', '967', '971', '973', '978', '979', '981', '982', '983', '985', '994', '995']",False,1000,True,100,01a745a330,0.0,1.0,0.0
./expes/v3_2021-02-19_hi_1000-prng-1-w1-fpa10-0.4-p100,30_issda-1000,1000,first-1000,400,40,rng,num-start-1750,1750,25726,fpa-09-10-0.6-20,157.75384211540222,False,,False,0.3015843518983108,0.298221906517101,0.31409149992840113,100,"['2', '5', '6', '9', '17', '19', '20', '21', '22', '25', '26', '29', '32', '33', '35', '37', '38', '39', '42', '45', '47', '51', '53', '58', '59', '61', '62', '69', '70', '73', '76', '78', '79', '83', '85', '87', '89', '90', '94', '96', '97', '99', '103', '104', '105', '108', '109', '114', '116', '118', '119', '122', '125', '126', '131', '132', '135', '140', '144', '145', '148', '151', '155', '156', '158', '161', '163', '165', '166', '169', '171', '174', '175', '177', '178', '181', '182', '186', '187', '189', '196', '197', '204', '213', '214', '216', '218', '223', '225', '228', '231', '233', '234', '237', '238', '239', '242', '247', '251', '253', '254', '256', '257', '258', '260', '261', '262', '263', '266', '269', '271', '273', '275', '276', '280', '286', '292', '293', '297', '298', '304', '311', '314', '316', '317', '318', '320', '324', '327', '333', '336', '343', '346', '350', '353', '354', '360', '363', '365', '367', '369', '370', '371', '372', '373', '375', '376', '381', '382', '383', '384', '390', '394', '395', '400', '401', '402', '403', '405', '410', '412', '417', '419', '421', '423', '425', '427', '429', '430', '434', '436', '438', '442', '445', '456', '457', '459', '460', '463', '465', '466', '468', '469', '473', '475', '476', '477', '482', '485', '490', '492', '496', '498', '499', '501', '502', '503', '504', '510', '511', '513', '515', '517', '520', '521', '522', '523', '524', '525', '527', '528', '531', '532', '534', '535', '536', '538', '539', '544', '549', '558', '559', '562', '565', '571', '572', '574', '576', '582', '586', '589', '590', '596', '599', '600', '603', '604', '606', '608', '611', '620', '621', '622', '626', '629', '631', '632', '634', '637', '639', '640', '643', '651', '653', '654', '657', '658', '664', '668', '669', '671', '675', '677', '678', '680', '686', '687', '689', '691', '696', '697', '698', '699', '701', '702', '704', '707', '709', '710', '713', '716', '717', '723', '724', '726', '727', '732', '733', '734', '735', '737', '741', '742', '744', '746', '747', '749', '753', '754', '757', '758', '761', '763', '766', '769', '772', '773', '774', '778', '779', '782', '785', '792', '794', '796', '800', '804', '808', '809', '811', '814', '816', '818', '819', '820', '822', '823', '824', '826', '829', '830', '832', '833', '835', '838', '841', '845', '846', '852', '856', '857', '859', '861', '870', '871', '875', '880', '881', '884', '887', '892', '896', '897', '898', '902', '903', '904', '905', '906', '909', '911', '914', '916', '917', '920', '922', '923', '924', '925', '929', '930', '931', '934', '938', '939', '941', '943', '944', '948', '952', '955', '957', '958', '959', '961', '964', '967', '971', '973', '978', '979', '981', '982', '983', '984', '985', '987', '994', '995', '998']",False,1000,True,100,d3e983f2f1,0.0,1.0,0.0
./expes/v3_2021-02-19_hi_1000-prng-1-w1-fpa10-0.4-p100,30_issda-1000,1000,first-1000,100,10,rng,num-start-1500,1500,25726,fpa-09-10-0.6-20,111.6857213973999,False,,False,0.5826980773176789,0.5638919971037104,0.5874831274115322,100,"['14', '16', '30', '32', '37', '44', '66', '68', '100', '134', '138', '140', '155', '156', '164', '197', '223', '238', '240', '244', '265', '266', '276', '309', '345', '360', '375', '379', '396', '397', '400', '405', '407', '418', '432', '438', '447', '456', '481', '482', '485', '486', '488', '507', '520', '536', '547', '554', '558', '563', '565', '588', '591', '595', '599', '600', '606', '607', '610', '619', '621', '641', '642', '651', '655', '688', '689', '699', '732', '735', '737', '746', '760', '777', '796', '798', '799', '808', '821', '844', '854', '857', '858', '876', '877', '882', '887', '889', '900', '926', '931', '938', '943', '944', '949', '952', '959', '981', '988', '989']",False,1000,True,100,a96e063e6d,0.0,1.0,0.0
./expes/v3_2021-02-19_hi_1000-prng-1-w1-fpa10-0.4-p100,30_issda-1000,1000,first-1000,300,30,rng,num-start-2000,2000,25726,fpa-09-10-0.6-20,146.64777731895447,False,,False,0.3450744956527164,0.3408835956870482,0.34852135535811724,100,"['8', '10', '19', '21', '27', '33', '37', '38', '42', '44', '45', '46', '48', '53', '57', '61', '62', '64', '69', '77', '80', '84', '85', '89', '92', '93', '96', '100', '104', '106', '109', '117', '120', '126', '131', '140', '146', '149', '154', '157', '159', '163', '166', '169', '170', '172', '173', '174', '177', '182', '183', '189', '193', '196', '197', '199', '200', '201', '204', '206', '207', '208', '213', '214', '216', '220', '221', '224', '225', '228', '235', '238', '239', '242', '244', '248', '249', '254', '255', '256', '257', '260', '261', '266', '267', '268', '269', '275', '276', '279', '283', '284', '285', '287', '288', '293', '296', '297', '298', '299', '300', '301', '304', '308', '311', '313', '318', '320', '323', '329', '330', '331', '332', '333', '335', '340', '345', '346', '347', '352', '365', '366', '369', '372', '373', '374', '382', '391', '397', '398', '400', '402', '405', '406', '412', '413', '414', '420', '421', '423', '424', '428', '431', '432', '434', '435', '439', '441', '442', '447', '450', '452', '455', '463', '466', '471', '474', '476', '483', '484', '485', '490', '491', '503', '504', '507', '509', '511', '519', '521', '532', '533', '539', '541', '542', '548', '550', '560', '561', '563', '572', '579', '583', '584', '586', '587', '597', '603', '610', '614', '621', '622', '631', '633', '635', '636', '642', '643', '648', '650', '651', '657', '658', '663', '664', '668', '669', '670', '671', '673', '684', '685', '688', '690', '692', '694', '697', '703', '705', '715', '718', '722', '726', '735', '739', '750', '753', '755', '763', '765', '784', '786', '791', '793', '794', '799', '803', '810', '817', '818', '819', '820', '821', '824', '827', '833', '835', '838', '847', '849', '851', '855', '860', '861', '866', '869', '876', '877', '880', '883', '887', '889', '891', '892', '895', '902', '904', '911', '913', '916', '918', '921', '922', '923', '927', '931', '936', '939', '940', '945', '947', '950', '951', '953', '958', '965', '966', '967', '968', '978', '980', '983', '984', '985', '986', '988', '990', '992', '994', '995']",False,1000,True,100,2d68cf42e9,0.0,1.0,0.0
./expes/v3_2021-02-19_hi_1000-prng-1-w1-fpa10-0.4-p100,30_issda-1000,1000,first-1000,450,45,rng,num-start-1500,1500,25726,fpa-09-10-0.6-20,115.07935881614685,False,,False,0.29704090913879955,0.2883072948901987,0.29964973728105837,100,"['2', '5', '6', '9', '17', '19', '20', '21', '22', '25', '26', '29', '31', '32', '33', '35', '37', '38', '39', '42', '45', '47', '51', '53', '55', '58', '59', '61', '62', '69', '70', '73', '76', '78', '79', '83', '84', '85', '87', '89', '90', '94', '96', '97', '99', '103', '104', '105', '108', '109', '114', '115', '116', '118', '119', '122', '125', '126', '131', '132', '135', '140', '144', '145', '148', '149', '151', '155', '156', '158', '160', '161', '162', '163', '165', '166', '169', '171', '174', '175', '177', '178', '181', '182', '185', '186', '187', '189', '193', '196', '197', '204', '213', '214', '216', '218', '223', '225', '228', '231', '233', '234', '237', '238', '239', '241', '242', '247', '251', '253', '254', '255', '256', '257', '258', '260', '261', '262', '263', '264', '266', '269', '271', '273', '275', '276', '280', '281', '286', '292', '293', '294', '297', '298', '304', '311', '314', '316', '317', '318', '320', '324', '327', '333', '336', '337', '338', '339', '343', '346', '350', '353', '354', '360', '363', '365', '367', '368', '369', '370', '371', '372', '373', '375', '376', '381', '382', '383', '384', '390', '393', '394', '395', '400', '401', '402', '403', '405', '410', '412', '413', '414', '415', '417', '419', '421', '423', '425', '427', '429', '430', '434', '436', '438', '442', '445', '450', '452', '456', '457', '459', '460', '463', '465', '466', '468', '469', '473', '475', '476', '477', '478', '482', '484', '485', '490', '492', '495', '496', '498', '499', '501', '502', '503', '504', '510', '511', '513', '515', '517', '520', '521', '522', '523', '524', '525', '527', '528', '529', '531', '532', '534', '535', '536', '537', '538', '539', '544', '546', '549', '554', '558', '559', '561', '562', '565', '571', '572', '574', '576', '582', '586', '588', '589', '590', '596', '599', '600', '603', '604', '606', '608', '610', '611', '620', '621', '622', '626', '629', '631', '632', '634', '637', '639', '640', '643', '651', '653', '654', '657', '658', '664', '668', '669', '671', '675', '677', '678', '680', '683', '686', '687', '689', '691', '696', '697', '698', '699', '701', '702', '704', '707', '709', '710', '713', '716', '717', '721', '723', '724', '726', '727', '728', '731', '732', '733', '734', '735', '737', '741', '742', '744', '746', '747', '749', '753', '754', '755', '757', '758', '761', '763', '764', '766', '769', '772', '773', '774', '778', '779', '780', '782', '783', '785', '792', '794', '796', '800', '802', '804', '808', '809', '811', '814', '816', '818', '819', '820', '822', '823', '824', '826', '829', '830', '832', '833', '835', '836', '838', '840', '841', '845', '846', '852', '856', '857', '859', '861', '870', '871', '873', '875', '880', '881', '884', '887', '892', '896', '897', '898', '902', '903', '904', '905', '906', '907', '909', '911', '914', '916', '917', '920', '922', '923', '924', '925', '929', '930', '931', '934', '938', '939', '941', '943', '944', '948', '952', '955', '957', '958', '959', '960', '961', '964', '967', '971', '973', '978', '979', '981', '982', '983', '984', '985', '986', '987', '993', '994', '995', '998']",False,1000,True,100,8446091367,0.0,1.0,0.0
