expe,clients,clients_size,clients_subset,agg_size,agg_size_pc,method,days,days_size,days_total,noise_method,time,valid,valid_sum,success,score_avg,score_min,score_max,nsols,oracle,wall_hit,wall_time,pooled,pool_size,uuid,infeasible,optimal,valid_sums
./expes/v2_2021-03-23_issda-30_2000-prng-1-w1-p2,30_issda-2000,2000,first-2000,200,10,rng,num-start-2800,2800,25726,classic,1259.0605783462524,True,,False,1.0,1.0,1.0,1,"['11', '20', '37', '40', '43', '56', '101', '102', '103', '104', '106', '111', '120', '128', '132', '142', '154', '168', '175', '191', '193', '226', '227', '240', '253', '266', '282', '284', '287', '291', '309', '310', '331', '335', '350', '358', '376', '395', '401', '403', '407', '431', '435', '438', '461', '490', '496', '510', '513', '514', '515', '517', '529', '544', '548', '559', '565', '570', '594', '605', '622', '625', '630', '634', '635', '639', '647', '648', '651', '654', '678', '681', '687', '689', '713', '727', '737', '749', '763', '768', '787', '802', '823', '826', '827', '831', '837', '840', '849', '859', '860', '887', '957', '971', '978', '984', '994', '997', '1028', '1037', '1039', '1070', '1076', '1080', '1091', '1092', '1100', '1106', '1107', '1111', '1113', '1129', '1134', '1138', '1141', '1145', '1156', '1171', '1178', '1180', '1185', '1188', '1209', '1229', '1237', '1272', '1297', '1304', '1309', '1312', '1347', '1349', '1355', '1386', '1398', '1402', '1405', '1416', '1443', '1445', '1446', '1465', '1466', '1484', '1485', '1493', '1499', '1514', '1526', '1529', '1531', '1533', '1541', '1543', '1569', '1579', '1586', '1603', '1611', '1622', '1642', '1643', '1644', '1649', '1653', '1661', '1664', '1665', '1666', '1670', '1673', '1698', '1719', '1725', '1734', '1759', '1761', '1778', '1793', '1808', '1819', '1823', '1837', '1847', '1859', '1862', '1864', '1878', '1880', '1885', '1897', '1925', '1936', '1949', '1957', '1961', '1962', '1966', '1968', '1994']",True,1000,True,2,a683371ccc,0.0,0.0,1.0
./expes/v2_2021-03-23_issda-30_2000-prng-1-w1-p2,30_issda-2000,2000,first-2000,500,25,rng,num-start-4000,4000,25726,classic,1365.7195489406586,True,,False,1.0,1.0,1.0,1,"['1', '4', '9', '25', '30', '39', '44', '47', '48', '53', '56', '57', '58', '60', '77', '81', '87', '96', '99', '102', '108', '111', '117', '119', '121', '122', '123', '125', '127', '128', '129', '130', '134', '138', '141', '144', '145', '149', '150', '159', '165', '166', '168', '170', '174', '176', '177', '178', '186', '187', '192', '193', '200', '201', '208', '210', '211', '212', '213', '218', '226', '237', '240', '242', '246', '247', '250', '252', '254', '258', '261', '265', '268', '269', '273', '281', '286', '290', '296', '299', '300', '301', '305', '307', '309', '310', '311', '312', '320', '326', '331', '333', '338', '341', '343', '345', '349', '353', '361', '366', '369', '371', '374', '376', '385', '391', '392', '397', '399', '400', '403', '409', '410', '415', '419', '421', '422', '426', '428', '433', '436', '440', '447', '452', '453', '457', '458', '465', '473', '476', '478', '491', '493', '500', '508', '509', '516', '517', '531', '532', '535', '539', '543', '553', '568', '570', '571', '573', '578', '583', '589', '590', '594', '600', '611', '614', '615', '632', '635', '639', '643', '644', '648', '653', '664', '667', '668', '676', '681', '692', '697', '701', '702', '704', '705', '706', '711', '712', '716', '718', '725', '728', '729', '735', '741', '745', '746', '747', '749', '752', '757', '763', '771', '780', '791', '796', '801', '804', '808', '809', '811', '813', '815', '816', '818', '821', '823', '851', '854', '857', '859', '862', '864', '870', '876', '882', '889', '902', '903', '906', '908', '913', '916', '917', '920', '927', '929', '935', '936', '939', '946', '949', '954', '955', '963', '968', '970', '971', '972', '980', '981', '982', '984', '987', '989', '991', '994', '1000', '1002', '1010', '1012', '1014', '1017', '1018', '1027', '1028', '1030', '1036', '1040', '1041', '1046', '1049', '1056', '1058', '1059', '1061', '1062', '1072', '1073', '1076', '1079', '1082', '1087', '1089', '1090', '1091', '1093', '1095', '1098', '1099', '1108', '1110', '1113', '1115', '1122', '1123', '1124', '1126', '1127', '1129', '1138', '1140', '1141', '1143', '1146', '1148', '1151', '1156', '1159', '1160', '1161', '1170', '1174', '1177', '1182', '1184', '1188', '1192', '1194', '1195', '1200', '1202', '1207', '1210', '1218', '1221', '1231', '1234', '1240', '1242', '1247', '1248', '1249', '1250', '1252', '1253', '1255', '1256', '1257', '1258', '1265', '1268', '1279', '1285', '1292', '1300', '1303', '1304', '1309', '1317', '1318', '1326', '1331', '1334', '1338', '1342', '1344', '1347', '1349', '1353', '1357', '1361', '1369', '1370', '1385', '1394', '1396', '1397', '1398', '1399', '1414', '1415', '1418', '1419', '1424', '1426', '1428', '1432', '1437', '1447', '1458', '1459', '1468', '1479', '1481', '1485', '1486', '1488', '1494', '1498', '1513', '1516', '1517', '1523', '1535', '1536', '1537', '1551', '1553', '1554', '1557', '1565', '1566', '1574', '1581', '1582', '1590', '1591', '1592', '1596', '1598', '1603', '1607', '1615', '1617', '1619', '1627', '1633', '1635', '1637', '1638', '1641', '1646', '1651', '1652', '1654', '1656', '1662', '1670', '1672', '1676', '1678', '1682', '1684', '1692', '1693', '1694', '1698', '1703', '1709', '1710', '1721', '1722', '1732', '1739', '1747', '1759', '1760', '1769', '1770', '1784', '1785', '1786', '1788', '1790', '1791', '1792', '1793', '1795', '1796', '1799', '1809', '1810', '1811', '1817', '1821', '1829', '1831', '1839', '1843', '1844', '1852', '1854', '1861', '1863', '1864', '1869', '1873', '1878', '1880', '1890', '1892', '1901', '1912', '1913', '1920', '1927', '1929', '1930', '1932', '1935', '1938', '1940', '1941', '1942', '1944', '1947', '1948', '1950', '1952', '1956', '1957', '1959', '1962', '1971', '1989', '1990', '1994', '1996', '2000']",True,1000,True,2,0c62899e8f,0.0,0.0,1.0
./expes/v2_2021-03-23_issda-30_2000-prng-1-w1-p2,30_issda-2000,2000,first-2000,800,40,rng,num-start-400,400,25726,classic,1036.2315366268158,False,,False,0,,,0,"['4', '8', '13', '14', '16', '17', '18', '22', '23', '26', '27', '35', '36', '39', '40', '43', '45', '49', '50', '51', '53', '56', '58', '59', '61', '63', '64', '67', '71', '76', '78', '81', '82', '88', '90', '93', '95', '101', '104', '106', '107', '108', '109', '116', '117', '119', '121', '125', '128', '132', '138', '146', '147', '148', '149', '150', '151', '153', '160', '166', '169', '170', '172', '173', '175', '179', '186', '187', '191', '199', '201', '202', '208', '210', '211', '212', '218', '222', '223', '225', '231', '232', '234', '236', '238', '240', '242', '245', '250', '251', '253', '256', '258', '260', '265', '270', '272', '275', '276', '277', '279', '280', '282', '284', '289', '290', '291', '292', '293', '297', '298', '300', '301', '304', '308', '311', '318', '319', '320', '325', '330', '333', '335', '336', '344', '347', '348', '349', '351', '352', '354', '355', '361', '363', '365', '368', '369', '373', '375', '377', '380', '385', '387', '388', '390', '393', '395', '399', '401', '402', '403', '404', '405', '408', '409', '410', '411', '413', '419', '420', '421', '423', '424', '425', '428', '429', '431', '432', '433', '435', '439', '451', '452', '455', '458', '460', '463', '466', '467', '468', '469', '471', '473', '475', '478', '482', '489', '490', '492', '495', '496', '504', '507', '512', '513', '516', '517', '522', '523', '526', '529', '531', '532', '534', '536', '538', '540', '545', '546', '549', '550', '551', '555', '560', '561', '562', '566', '567', '568', '569', '570', '571', '572', '573', '574', '578', '579', '580', '584', '585', '587', '588', '594', '597', '599', '600', '601', '607', '608', '611', '614', '617', '626', '628', '630', '632', '635', '636', '637', '638', '639', '640', '641', '644', '648', '651', '658', '660', '661', '663', '669', '671', '673', '676', '677', '681', '687', '688', '689', '690', '691', '696', '697', '699', '700', '702', '704', '705', '710', '712', '714', '717', '718', '724', '725', '727', '728', '729', '730', '734', '735', '736', '737', '738', '740', '741', '742', '743', '744', '745', '746', '747', '748', '749', '751', '752', '753', '755', '761', '763', '767', '768', '775', '776', '778', '779', '781', '782', '787', '788', '789', '790', '796', '797', '800', '801', '803', '805', '807', '808', '810', '814', '818', '819', '820', '821', '825', '829', '831', '832', '834', '835', '837', '845', '848', '850', '851', '856', '858', '861', '862', '866', '867', '868', '869', '875', '879', '881', '884', '886', '888', '889', '892', '893', '898', '901', '902', '904', '909', '912', '919', '920', '928', '932', '934', '936', '939', '941', '942', '943', '944', '952', '954', '958', '962', '967', '972', '974', '976', '977', '978', '981', '985', '986', '989', '991', '994', '995', '997', '1000', '1003', '1004', '1005', '1007', '1008', '1009', '1012', '1013', '1021', '1024', '1025', '1026', '1027', '1028', '1029', '1030', '1032', '1033', '1035', '1039', '1043', '1048', '1049', '1052', '1053', '1056', '1057', '1058', '1059', '1063', '1065', '1066', '1067', '1068', '1070', '1071', '1074', '1077', '1078', '1080', '1081', '1083', '1084', '1088', '1092', '1094', '1095', '1096', '1098', '1099', '1101', '1102', '1105', '1108', '1109', '1110', '1113', '1115', '1119', '1120', '1123', '1124', '1125', '1126', '1127', '1130', '1135', '1137', '1138', '1141', '1143', '1144', '1147', '1151', '1154', '1156', '1157', '1164', '1166', '1168', '1169', '1174', '1181', '1183', '1189', '1190', '1202', '1203', '1206', '1208', '1209', '1215', '1217', '1221', '1226', '1227', '1230', '1232', '1234', '1235', '1243', '1244', '1245', '1247', '1248', '1252', '1255', '1262', '1264', '1265', '1266', '1268', '1269', '1271', '1272', '1273', '1275', '1276', '1279', '1280', '1285', '1286', '1289', '1295', '1296', '1299', '1302', '1305', '1307', '1310', '1312', '1313', '1316', '1318', '1320', '1327', '1331', '1332', '1335', '1338', '1340', '1344', '1347', '1349', '1351', '1354', '1355', '1356', '1357', '1359', '1360', '1365', '1367', '1369', '1370', '1371', '1372', '1376', '1377', '1380', '1384', '1388', '1389', '1390', '1391', '1392', '1395', '1396', '1398', '1400', '1402', '1403', '1404', '1405', '1407', '1409', '1410', '1411', '1412', '1414', '1415', '1419', '1422', '1425', '1426', '1428', '1430', '1432', '1435', '1436', '1444', '1446', '1455', '1463', '1465', '1466', '1467', '1473', '1477', '1487', '1488', '1498', '1500', '1504', '1505', '1507', '1510', '1514', '1520', '1523', '1526', '1530', '1533', '1534', '1538', '1540', '1543', '1544', '1548', '1550', '1551', '1552', '1556', '1558', '1560', '1561', '1565', '1567', '1568', '1570', '1575', '1579', '1581', '1582', '1585', '1588', '1592', '1596', '1606', '1607', '1609', '1611', '1613', '1616', '1617', '1618', '1621', '1622', '1623', '1625', '1629', '1631', '1632', '1634', '1635', '1638', '1639', '1640', '1641', '1642', '1646', '1651', '1654', '1655', '1657', '1659', '1660', '1662', '1665', '1669', '1671', '1677', '1678', '1679', '1681', '1682', '1685', '1688', '1690', '1692', '1693', '1701', '1702', '1704', '1705', '1707', '1710', '1711', '1712', '1714', '1716', '1718', '1719', '1722', '1723', '1724', '1726', '1727', '1728', '1729', '1731', '1732', '1734', '1735', '1739', '1740', '1747', '1751', '1753', '1758', '1760', '1761', '1762', '1763', '1766', '1767', '1771', '1773', '1774', '1779', '1781', '1788', '1789', '1802', '1806', '1807', '1812', '1814', '1816', '1818', '1822', '1824', '1829', '1832', '1835', '1836', '1838', '1839', '1845', '1846', '1849', '1850', '1851', '1856', '1857', '1858', '1863', '1865', '1866', '1868', '1874', '1875', '1877', '1878', '1882', '1885', '1892', '1893', '1895', '1897', '1899', '1900', '1908', '1909', '1911', '1912', '1913', '1915', '1918', '1920', '1921', '1925', '1926', '1928', '1933', '1934', '1939', '1941', '1945', '1951', '1952', '1955', '1958', '1959', '1960', '1964', '1965', '1968', '1971', '1972', '1975', '1978', '1979', '1981', '1982', '1989', '1990', '1992', '1999', '2000']",True,1000,True,2,f83a5f5fca,0.0,0.0,0.0
