expe,clients,clients_size,clients_subset,agg_size,agg_size_pc,method,days,days_size,days_total,noise_method,time,valid,valid_sum,success,score_avg,score_min,score_max,nsols,oracle,wall_hit,wall_time,pooled,pool_size,uuid,infeasible,optimal,valid_sums
./expes/v2_2021-03-23_issda-30_2000-prng-1-w1-p2,30_issda-2000,2000,first-2000,200,10,rng,num-start-2400,2400,25726,classic,1119.5945706367493,True,,True,1.0,1.0,1.0,1,"['4', '5', '12', '19', '26', '45', '46', '53', '59', '60', '61', '63', '71', '90', '115', '130', '178', '193', '205', '210', '222', '242', '248', '265', '276', '336', '346', '349', '355', '381', '389', '409', '410', '421', '430', '444', '449', '455', '465', '469', '473', '476', '478', '498', '523', '546', '552', '582', '594', '608', '622', '632', '651', '682', '705', '708', '709', '724', '731', '747', '752', '759', '768', '778', '781', '786', '799', '806', '807', '828', '829', '847', '849', '853', '865', '873', '887', '897', '899', '913', '921', '941', '942', '962', '968', '984', '986', '994', '1000', '1003', '1015', '1016', '1023', '1026', '1029', '1034', '1035', '1040', '1042', '1050', '1053', '1063', '1067', '1081', '1106', '1109', '1123', '1124', '1133', '1136', '1140', '1150', '1166', '1168', '1184', '1185', '1204', '1207', '1211', '1215', '1245', '1248', '1260', '1289', '1316', '1326', '1331', '1335', '1351', '1360', '1362', '1373', '1382', '1387', '1406', '1426', '1440', '1441', '1457', '1478', '1483', '1487', '1494', '1501', '1512', '1517', '1522', '1524', '1559', '1562', '1565', '1572', '1579', '1589', '1593', '1595', '1605', '1616', '1634', '1643', '1644', '1658', '1666', '1681', '1700', '1712', '1716', '1721', '1734', '1736', '1738', '1748', '1756', '1762', '1782', '1805', '1808', '1815', '1830', '1835', '1847', '1864', '1865', '1877', '1885', '1889', '1898', '1918', '1922', '1924', '1927', '1928', '1936', '1946', '1951', '1956', '1961', '1981', '1985', '1994']",False,1000,True,2,165d3f558c,0.0,1.0,1.0
./expes/v2_2021-03-23_issda-30_2000-prng-1-w1-p2,30_issda-2000,2000,first-2000,100,5,rng,num-start-3200,3200,25726,classic,816.884115934372,True,,True,1.0,1.0,1.0,1,"['77', '96', '99', '102', '119', '122', '123', '127', '129', '144', '149', '150', '168', '177', '186', '193', '200', '212', '242', '254', '273', '296', '309', '338', '369', '371', '385', '422', '440', '453', '458', '493', '500', '509', '590', '594', '614', '615', '632', '644', '664', '704', '741', '749', '763', '809', '813', '857', '859', '870', '876', '889', '920', '929', '954', '1014', '1017', '1040', '1049', '1076', '1089', '1098', '1108', '1122', '1129', '1141', '1148', '1156', '1159', '1170', '1177', '1182', '1192', '1194', '1200', '1248', '1268', '1285', '1292', '1309', '1334', '1394', '1397', '1432', '1459', '1494', '1551', '1592', '1598', '1627', '1672', '1682', '1694', '1759', '1793', '1864', '1892', '1941', '1942', '2000']",False,1000,True,2,ce97c62841,0.0,1.0,1.0
./expes/v2_2021-03-23_issda-30_2000-prng-1-w1-p2,30_issda-2000,2000,first-2000,500,25,rng,num-start-1600,1600,25726,classic,1100.1677083969116,True,,True,1.0,1.0,1.0,1,"['1', '3', '4', '5', '7', '19', '26', '28', '29', '30', '31', '34', '39', '45', '47', '55', '65', '68', '74', '75', '78', '80', '81', '83', '84', '85', '87', '93', '94', '96', '99', '103', '119', '126', '128', '129', '131', '142', '144', '146', '148', '152', '162', '165', '166', '167', '169', '171', '184', '187', '188', '192', '195', '201', '203', '204', '206', '207', '208', '223', '224', '236', '237', '238', '240', '241', '244', '246', '254', '255', '256', '266', '267', '268', '272', '274', '277', '284', '286', '287', '292', '300', '301', '307', '310', '315', '317', '319', '323', '325', '328', '332', '336', '340', '342', '347', '350', '359', '366', '368', '370', '374', '377', '379', '383', '386', '387', '388', '390', '391', '392', '394', '399', '407', '409', '417', '419', '422', '426', '432', '438', '441', '448', '449', '452', '453', '455', '457', '483', '489', '491', '492', '496', '498', '500', '514', '526', '531', '532', '533', '534', '553', '556', '563', '564', '565', '571', '574', '576', '578', '590', '593', '595', '597', '601', '613', '617', '618', '619', '620', '622', '631', '636', '638', '640', '645', '648', '650', '656', '665', '667', '668', '673', '677', '682', '683', '685', '687', '688', '691', '692', '693', '702', '704', '711', '718', '722', '725', '732', '734', '735', '736', '740', '752', '753', '759', '762', '763', '770', '776', '789', '795', '796', '802', '809', '813', '817', '823', '824', '826', '830', '840', '849', '850', '851', '856', '857', '859', '862', '872', '873', '874', '890', '892', '894', '906', '907', '912', '913', '915', '918', '923', '928', '938', '940', '957', '964', '966', '967', '971', '975', '976', '977', '980', '982', '986', '987', '996', '997', '998', '1003', '1009', '1011', '1013', '1020', '1032', '1034', '1041', '1042', '1048', '1067', '1068', '1069', '1072', '1075', '1081', '1083', '1085', '1091', '1095', '1102', '1107', '1108', '1113', '1115', '1121', '1122', '1124', '1129', '1132', '1144', '1147', '1149', '1150', '1157', '1163', '1164', '1166', '1167', '1176', '1179', '1180', '1188', '1195', '1203', '1204', '1208', '1209', '1218', '1222', '1223', '1233', '1234', '1236', '1237', '1241', '1242', '1245', '1246', '1250', '1252', '1254', '1255', '1267', '1271', '1272', '1281', '1284', '1286', '1291', '1297', '1298', '1299', '1301', '1306', '1312', '1314', '1320', '1321', '1325', '1330', '1333', '1339', '1343', '1345', '1347', '1353', '1357', '1364', '1369', '1378', '1380', '1384', '1385', '1390', '1391', '1392', '1394', '1395', '1396', '1400', '1401', '1408', '1411', '1415', '1429', '1431', '1433', '1435', '1437', '1438', '1442', '1445', '1448', '1453', '1455', '1459', '1466', '1470', '1471', '1472', '1474', '1486', '1490', '1493', '1495', '1496', '1497', '1499', '1505', '1514', '1519', '1533', '1535', '1546', '1548', '1552', '1553', '1561', '1572', '1582', '1597', '1604', '1606', '1608', '1616', '1618', '1623', '1625', '1628', '1635', '1638', '1639', '1640', '1645', '1646', '1649', '1651', '1657', '1660', '1663', '1664', '1669', '1671', '1674', '1683', '1685', '1690', '1691', '1696', '1698', '1699', '1700', '1701', '1708', '1712', '1716', '1717', '1721', '1723', '1726', '1730', '1731', '1732', '1734', '1740', '1742', '1744', '1749', '1752', '1756', '1765', '1773', '1777', '1783', '1785', '1786', '1790', '1792', '1793', '1796', '1811', '1813', '1824', '1827', '1832', '1834', '1840', '1841', '1844', '1848', '1849', '1853', '1860', '1861', '1864', '1870', '1872', '1876', '1878', '1879', '1880', '1881', '1882', '1884', '1888', '1889', '1890', '1891', '1892', '1911', '1913', '1918', '1919', '1922', '1939', '1940', '1945', '1946', '1953', '1969', '1973', '1974', '1978', '1980', '1982', '1983', '1988', '1996', '2000']",False,1000,True,2,ef5da7d211,0.0,1.0,1.0
./expes/v2_2021-03-23_issda-30_2000-prng-1-w1-p2,30_issda-2000,2000,first-2000,700,35,rng,num-start-3200,3200,25726,classic,1300.6239972114563,True,,False,1.0,1.0,1.0,1,"['6', '8', '9', '11', '12', '16', '21', '26', '28', '30', '31', '33', '34', '36', '39', '52', '54', '56', '57', '64', '65', '66', '67', '68', '69', '71', '73', '74', '75', '76', '77', '85', '88', '89', '90', '91', '92', '95', '98', '100', '102', '103', '104', '107', '109', '110', '113', '114', '116', '122', '123', '124', '129', '133', '134', '135', '139', '143', '144', '145', '148', '152', '154', '156', '160', '161', '164', '166', '167', '172', '181', '183', '187', '190', '194', '196', '197', '198', '199', '203', '205', '215', '217', '219', '223', '232', '237', '238', '239', '241', '243', '245', '247', '253', '256', '257', '261', '262', '267', '273', '275', '279', '285', '286', '289', '290', '294', '299', '301', '306', '307', '310', '312', '313', '314', '315', '316', '317', '321', '324', '325', '329', '334', '337', '338', '339', '340', '341', '345', '346', '348', '351', '352', '355', '357', '358', '359', '360', '361', '362', '365', '366', '367', '374', '375', '381', '382', '384', '387', '390', '391', '392', '393', '394', '397', '399', '400', '401', '410', '413', '422', '423', '426', '428', '430', '433', '434', '439', '447', '451', '454', '458', '459', '460', '469', '482', '483', '487', '489', '491', '492', '494', '495', '497', '501', '503', '505', '506', '512', '519', '522', '531', '532', '537', '538', '540', '544', '545', '547', '557', '562', '563', '568', '569', '570', '579', '581', '585', '589', '590', '593', '594', '596', '603', '607', '614', '617', '620', '621', '627', '628', '631', '632', '637', '644', '649', '650', '655', '660', '662', '665', '670', '672', '673', '680', '686', '688', '694', '695', '700', '703', '704', '708', '712', '713', '715', '716', '717', '724', '725', '728', '735', '738', '739', '740', '743', '747', '750', '752', '766', '767', '769', '771', '778', '779', '782', '783', '788', '790', '792', '795', '796', '798', '800', '803', '804', '811', '813', '814', '817', '818', '820', '821', '822', '825', '829', '830', '831', '837', '846', '849', '851', '852', '858', '861', '862', '863', '864', '866', '867', '868', '869', '874', '876', '879', '882', '887', '888', '889', '891', '892', '893', '894', '899', '900', '901', '904', '905', '906', '911', '913', '915', '916', '917', '918', '923', '925', '930', '933', '934', '936', '938', '939', '940', '941', '942', '944', '946', '948', '950', '951', '956', '959', '962', '963', '965', '972', '974', '976', '977', '978', '979', '981', '983', '984', '989', '994', '1002', '1003', '1004', '1007', '1014', '1016', '1018', '1023', '1024', '1027', '1028', '1038', '1040', '1044', '1046', '1047', '1051', '1052', '1058', '1060', '1065', '1066', '1067', '1069', '1070', '1071', '1072', '1075', '1076', '1082', '1088', '1091', '1093', '1097', '1099', '1100', '1104', '1106', '1109', '1116', '1117', '1125', '1128', '1129', '1130', '1138', '1139', '1140', '1144', '1145', '1146', '1153', '1156', '1157', '1158', '1160', '1162', '1167', '1168', '1171', '1172', '1177', '1179', '1180', '1182', '1184', '1185', '1188', '1191', '1194', '1198', '1203', '1206', '1210', '1212', '1216', '1219', '1220', '1224', '1225', '1232', '1234', '1235', '1236', '1238', '1240', '1241', '1242', '1243', '1245', '1246', '1247', '1248', '1249', '1250', '1257', '1259', '1265', '1267', '1268', '1270', '1275', '1279', '1281', '1282', '1285', '1286', '1288', '1299', '1301', '1303', '1305', '1308', '1309', '1310', '1311', '1314', '1315', '1317', '1324', '1329', '1331', '1335', '1336', '1338', '1339', '1345', '1347', '1348', '1351', '1353', '1356', '1361', '1363', '1364', '1366', '1371', '1373', '1380', '1381', '1383', '1387', '1395', '1402', '1405', '1408', '1413', '1416', '1418', '1420', '1421', '1424', '1428', '1430', '1435', '1438', '1440', '1445', '1447', '1453', '1455', '1460', '1461', '1471', '1475', '1476', '1478', '1479', '1480', '1481', '1482', '1488', '1489', '1503', '1508', '1513', '1515', '1517', '1523', '1524', '1526', '1527', '1535', '1539', '1541', '1544', '1556', '1559', '1561', '1564', '1565', '1571', '1572', '1573', '1575', '1579', '1582', '1583', '1584', '1587', '1589', '1590', '1592', '1593', '1604', '1612', '1613', '1616', '1617', '1620', '1626', '1633', '1638', '1641', '1648', '1650', '1653', '1654', '1657', '1659', '1661', '1662', '1664', '1666', '1673', '1674', '1675', '1676', '1681', '1682', '1685', '1687', '1688', '1690', '1691', '1694', '1695', '1698', '1699', '1707', '1708', '1709', '1712', '1713', '1714', '1715', '1718', '1725', '1729', '1736', '1737', '1740', '1742', '1744', '1748', '1751', '1752', '1759', '1761', '1762', '1763', '1766', '1768', '1771', '1772', '1773', '1781', '1783', '1785', '1786', '1790', '1792', '1794', '1800', '1802', '1805', '1808', '1818', '1819', '1821', '1823', '1825', '1826', '1830', '1837', '1839', '1840', '1842', '1846', '1847', '1852', '1853', '1856', '1858', '1860', '1863', '1865', '1866', '1870', '1871', '1872', '1874', '1878', '1882', '1884', '1886', '1887', '1890', '1893', '1907', '1910', '1911', '1912', '1916', '1917', '1918', '1923', '1928', '1932', '1937', '1941', '1946', '1948', '1951', '1952', '1956', '1958', '1959', '1965', '1966', '1967', '1968', '1971', '1973', '1974', '1976', '1984', '1985', '1986', '1987', '1988', '1995', '1997']",True,1000,True,2,197d197d60,0.0,0.0,1.0
