expe,clients,clients_size,clients_subset,agg_size,agg_size_pc,method,days,days_size,days_total,noise_method,time,valid,valid_sum,success,score_avg,score_min,score_max,nsols,oracle,wall_hit,wall_time,pooled,pool_size,uuid,infeasible,optimal,valid_sums
./expes/v2_2021-03-23_issda-30_2000-prng-1-w1-p2,30_issda-2000,2000,first-2000,200,10,rng,num-start-4000,4000,25726,classic,1335.0155472755432,True,,False,1.0,1.0,1.0,1,"['5', '7', '30', '62', '80', '88', '89', '142', '146', '151', '174', '190', '230', '241', '249', '259', '260', '267', '268', '269', '277', '281', '286', '291', '301', '302', '328', '337', '343', '362', '368', '374', '381', '384', '396', '399', '415', '416', '434', '439', '461', '462', '473', '480', '483', '487', '515', '519', '520', '526', '531', '537', '538', '539', '551', '565', '574', '596', '601', '604', '605', '618', '637', '643', '700', '703', '709', '719', '729', '730', '736', '746', '751', '761', '768', '799', '811', '836', '847', '869', '879', '880', '881', '882', '884', '895', '901', '902', '909', '912', '919', '924', '941', '950', '997', '1006', '1017', '1020', '1066', '1071', '1079', '1089', '1098', '1113', '1126', '1127', '1136', '1138', '1140', '1156', '1158', '1168', '1183', '1190', '1195', '1211', '1218', '1219', '1236', '1241', '1247', '1252', '1265', '1289', '1292', '1298', '1308', '1309', '1313', '1318', '1322', '1334', '1336', '1342', '1346', '1365', '1374', '1387', '1401', '1402', '1404', '1416', '1424', '1430', '1437', '1438', '1442', '1445', '1468', '1473', '1481', '1491', '1493', '1502', '1504', '1508', '1526', '1533', '1547', '1557', '1613', '1626', '1627', '1635', '1643', '1645', '1651', '1653', '1659', '1679', '1691', '1693', '1709', '1716', '1717', '1733', '1740', '1741', '1749', '1765', '1777', '1779', '1781', '1785', '1797', '1815', '1816', '1820', '1822', '1823', '1840', '1845', '1847', '1857', '1863', '1911', '1945', '1954', '1989', '1990']",True,1000,True,2,371de829e1,0.0,0.0,1.0
./expes/v2_2021-03-23_issda-30_2000-prng-1-w1-p2,30_issda-2000,2000,first-2000,700,35,rng,num-start-4000,4000,25726,classic,1327.4798984527588,True,,False,1.0,1.0,1.0,1,"['4', '8', '13', '14', '16', '18', '23', '26', '27', '35', '36', '39', '43', '45', '49', '51', '53', '56', '58', '59', '61', '63', '64', '67', '76', '78', '81', '82', '88', '90', '95', '101', '104', '106', '107', '108', '109', '116', '117', '121', '125', '128', '132', '138', '146', '147', '148', '150', '151', '153', '160', '169', '170', '172', '173', '179', '186', '187', '191', '199', '201', '202', '208', '210', '211', '212', '218', '222', '225', '231', '232', '234', '238', '240', '242', '245', '250', '251', '253', '256', '258', '260', '265', '270', '272', '276', '277', '279', '280', '282', '284', '291', '292', '293', '298', '301', '304', '311', '318', '319', '320', '325', '330', '333', '335', '336', '344', '348', '349', '351', '352', '354', '355', '361', '365', '368', '369', '373', '375', '377', '385', '387', '388', '390', '393', '399', '401', '402', '403', '404', '405', '408', '409', '410', '411', '413', '419', '420', '421', '424', '428', '429', '431', '432', '433', '435', '439', '451', '452', '455', '458', '460', '463', '466', '467', '469', '471', '473', '475', '478', '482', '489', '490', '492', '495', '496', '504', '507', '512', '513', '516', '517', '522', '523', '529', '531', '532', '536', '538', '540', '545', '546', '549', '550', '551', '555', '560', '561', '562', '566', '567', '569', '570', '571', '572', '573', '578', '579', '580', '584', '585', '594', '597', '599', '601', '607', '608', '611', '626', '628', '630', '632', '635', '636', '637', '638', '639', '640', '641', '644', '648', '651', '658', '660', '661', '663', '671', '673', '676', '677', '681', '687', '688', '689', '690', '691', '696', '697', '699', '700', '702', '704', '705', '712', '714', '717', '718', '724', '725', '727', '728', '729', '730', '735', '737', '738', '740', '741', '742', '743', '744', '745', '746', '747', '748', '749', '751', '752', '753', '755', '761', '767', '768', '775', '776', '778', '781', '782', '788', '789', '790', '796', '797', '800', '801', '803', '805', '808', '810', '814', '818', '819', '821', '829', '831', '832', '834', '835', '837', '845', '848', '850', '851', '856', '858', '861', '862', '866', '867', '868', '869', '875', '879', '881', '884', '886', '888', '892', '893', '898', '901', '902', '904', '909', '912', '919', '920', '928', '934', '936', '939', '941', '942', '943', '944', '952', '954', '958', '962', '967', '972', '974', '976', '977', '978', '981', '985', '986', '989', '991', '994', '995', '997', '1000', '1004', '1005', '1007', '1008', '1009', '1013', '1021', '1024', '1025', '1026', '1027', '1028', '1029', '1030', '1032', '1035', '1039', '1043', '1048', '1049', '1052', '1053', '1056', '1057', '1058', '1059', '1063', '1066', '1067', '1068', '1071', '1077', '1078', '1080', '1081', '1084', '1088', '1095', '1096', '1098', '1099', '1101', '1102', '1105', '1108', '1109', '1110', '1113', '1115', '1119', '1120', '1123', '1124', '1125', '1127', '1130', '1135', '1137', '1138', '1141', '1143', '1144', '1147', '1154', '1156', '1157', '1168', '1169', '1174', '1181', '1183', '1189', '1190', '1202', '1203', '1206', '1208', '1209', '1215', '1217', '1221', '1226', '1227', '1230', '1232', '1234', '1243', '1244', '1245', '1247', '1248', '1252', '1255', '1262', '1264', '1266', '1268', '1269', '1271', '1272', '1273', '1275', '1276', '1279', '1280', '1285', '1286', '1289', '1295', '1296', '1299', '1302', '1305', '1307', '1310', '1312', '1313', '1316', '1318', '1327', '1331', '1332', '1335', '1338', '1344', '1347', '1349', '1351', '1354', '1355', '1356', '1357', '1359', '1360', '1365', '1367', '1369', '1370', '1371', '1372', '1376', '1377', '1380', '1384', '1390', '1391', '1395', '1396', '1398', '1400', '1402', '1403', '1404', '1405', '1407', '1409', '1410', '1411', '1412', '1414', '1415', '1422', '1425', '1426', '1428', '1430', '1432', '1435', '1444', '1446', '1455', '1463', '1465', '1466', '1467', '1473', '1477', '1487', '1488', '1498', '1500', '1504', '1505', '1507', '1510', '1514', '1520', '1523', '1526', '1530', '1533', '1534', '1540', '1543', '1544', '1550', '1551', '1556', '1558', '1560', '1561', '1567', '1568', '1570', '1575', '1579', '1581', '1582', '1585', '1588', '1596', '1606', '1607', '1609', '1613', '1616', '1617', '1618', '1622', '1623', '1625', '1629', '1631', '1632', '1634', '1635', '1639', '1640', '1641', '1642', '1646', '1651', '1654', '1657', '1659', '1660', '1662', '1665', '1669', '1671', '1677', '1678', '1679', '1682', '1685', '1692', '1701', '1702', '1704', '1707', '1710', '1711', '1712', '1714', '1718', '1719', '1722', '1723', '1726', '1727', '1728', '1731', '1732', '1739', '1740', '1747', '1751', '1753', '1758', '1760', '1761', '1766', '1767', '1771', '1773', '1774', '1779', '1788', '1789', '1802', '1806', '1807', '1812', '1814', '1816', '1818', '1822', '1824', '1829', '1832', '1835', '1838', '1839', '1846', '1849', '1850', '1851', '1856', '1858', '1865', '1866', '1868', '1874', '1875', '1877', '1878', '1882', '1885', '1892', '1893', '1895', '1897', '1899', '1900', '1911', '1912', '1913', '1915', '1918', '1920', '1921', '1925', '1926', '1928', '1933', '1934', '1939', '1941', '1945', '1951', '1952', '1958', '1959', '1964', '1965', '1968', '1971', '1972', '1975', '1978', '1981', '1982', '1989', '1990', '1992', '2000']",True,1000,True,2,33d8132bbf,0.0,0.0,1.0
./expes/v2_2021-03-23_issda-30_2000-prng-1-w1-p2,30_issda-2000,2000,first-2000,500,25,rng,num-start-2800,2800,25726,classic,1230.707307100296,True,,False,1.0,1.0,1.0,1,"['2', '8', '11', '12', '14', '15', '17', '18', '25', '27', '31', '32', '36', '38', '40', '46', '49', '53', '54', '56', '59', '60', '61', '62', '70', '71', '74', '80', '84', '85', '89', '97', '100', '104', '106', '108', '109', '111', '113', '119', '121', '124', '125', '130', '132', '133', '135', '136', '137', '141', '142', '153', '155', '156', '161', '166', '167', '170', '171', '172', '173', '174', '176', '178', '180', '182', '189', '192', '194', '197', '203', '204', '205', '209', '212', '213', '218', '223', '226', '227', '228', '229', '230', '242', '246', '247', '249', '263', '266', '271', '272', '273', '282', '283', '284', '285', '289', '292', '298', '304', '305', '306', '322', '332', '333', '337', '345', '347', '350', '351', '354', '355', '361', '372', '382', '383', '387', '388', '394', '405', '406', '408', '409', '411', '416', '420', '428', '430', '431', '433', '438', '452', '453', '455', '456', '460', '466', '473', '474', '484', '485', '488', '498', '499', '507', '509', '515', '519', '526', '531', '538', '539', '547', '548', '550', '553', '562', '564', '567', '569', '576', '584', '595', '597', '603', '607', '615', '616', '617', '620', '630', '633', '646', '651', '659', '663', '666', '674', '675', '677', '684', '685', '687', '692', '693', '700', '709', '711', '712', '715', '724', '727', '747', '749', '750', '757', '761', '763', '764', '765', '776', '777', '782', '785', '786', '789', '791', '796', '797', '813', '816', '818', '822', '824', '825', '826', '833', '840', '843', '854', '855', '861', '864', '866', '870', '871', '878', '881', '888', '893', '900', '901', '910', '916', '920', '923', '925', '926', '929', '934', '936', '940', '946', '949', '950', '956', '958', '964', '971', '973', '974', '980', '985', '988', '1004', '1007', '1008', '1013', '1016', '1018', '1019', '1026', '1029', '1030', '1035', '1037', '1045', '1053', '1060', '1061', '1064', '1070', '1073', '1080', '1084', '1097', '1101', '1106', '1110', '1111', '1114', '1115', '1118', '1121', '1124', '1132', '1136', '1137', '1139', '1146', '1148', '1151', '1154', '1158', '1160', '1165', '1174', '1176', '1177', '1179', '1186', '1188', '1190', '1197', '1199', '1205', '1206', '1209', '1210', '1212', '1215', '1223', '1224', '1228', '1235', '1238', '1239', '1240', '1242', '1243', '1245', '1246', '1247', '1248', '1251', '1252', '1253', '1256', '1263', '1275', '1280', '1281', '1284', '1290', '1300', '1305', '1309', '1315', '1317', '1322', '1327', '1334', '1350', '1359', '1368', '1372', '1373', '1375', '1381', '1386', '1389', '1391', '1396', '1399', '1400', '1409', '1410', '1419', '1426', '1428', '1433', '1434', '1436', '1441', '1442', '1445', '1452', '1453', '1458', '1466', '1474', '1476', '1485', '1487', '1490', '1492', '1495', '1503', '1508', '1510', '1511', '1518', '1527', '1528', '1529', '1531', '1542', '1558', '1560', '1564', '1565', '1566', '1567', '1580', '1581', '1583', '1586', '1587', '1589', '1593', '1598', '1599', '1604', '1606', '1611', '1618', '1625', '1628', '1631', '1636', '1637', '1638', '1639', '1645', '1654', '1658', '1659', '1669', '1681', '1686', '1706', '1708', '1715', '1728', '1732', '1733', '1743', '1745', '1746', '1760', '1762', '1770', '1775', '1776', '1777', '1780', '1786', '1791', '1792', '1794', '1796', '1797', '1800', '1801', '1803', '1804', '1806', '1810', '1816', '1817', '1818', '1821', '1822', '1828', '1829', '1834', '1835', '1837', '1840', '1841', '1847', '1856', '1857', '1863', '1867', '1880', '1883', '1885', '1887', '1891', '1893', '1894', '1907', '1918', '1922', '1925', '1927', '1928', '1933', '1934', '1938', '1939', '1940', '1948', '1949', '1954', '1957', '1958', '1963', '1968', '1970', '1971', '1972', '1975', '1980', '1982', '1984', '1997', '1998', '2000']",True,1000,True,2,21b4f00d7a,0.0,0.0,1.0
./expes/v2_2021-03-23_issda-30_2000-prng-1-w1-p2,30_issda-2000,2000,first-2000,700,35,rng,num-start-2000,2000,25726,classic,1164.0959436893463,True,,False,1.0,1.0,1.0,1,"['1', '7', '10', '12', '14', '23', '25', '28', '29', '30', '35', '41', '45', '46', '47', '53', '57', '58', '63', '66', '67', '68', '69', '70', '71', '72', '75', '76', '77', '80', '82', '90', '91', '93', '101', '103', '105', '114', '118', '119', '125', '129', '130', '132', '134', '136', '141', '144', '147', '153', '154', '164', '165', '168', '169', '170', '171', '172', '173', '175', '177', '179', '182', '183', '184', '186', '190', '192', '195', '196', '197', '199', '200', '205', '210', '217', '218', '219', '221', '222', '223', '224', '228', '229', '230', '233', '234', '237', '239', '240', '248', '250', '255', '259', '261', '262', '263', '272', '277', '279', '281', '282', '285', '286', '288', '289', '292', '294', '299', '300', '302', '303', '304', '305', '308', '315', '317', '320', '322', '325', '328', '330', '331', '335', '341', '347', '348', '349', '350', '353', '355', '356', '357', '359', '362', '364', '365', '379', '384', '388', '389', '392', '394', '396', '398', '401', '402', '405', '408', '411', '414', '415', '417', '421', '426', '427', '429', '431', '433', '434', '438', '446', '447', '451', '456', '459', '462', '465', '470', '473', '475', '477', '480', '481', '483', '490', '497', '500', '501', '504', '507', '508', '512', '519', '520', '522', '523', '530', '535', '539', '542', '545', '546', '547', '551', '555', '562', '567', '568', '579', '583', '584', '586', '589', '590', '592', '593', '594', '595', '597', '598', '601', '605', '606', '607', '608', '612', '614', '615', '618', '619', '620', '631', '633', '634', '637', '638', '639', '642', '643', '644', '645', '646', '649', '654', '655', '656', '658', '664', '667', '670', '674', '691', '692', '694', '698', '699', '701', '703', '705', '709', '710', '711', '713', '720', '729', '731', '732', '733', '734', '738', '739', '741', '742', '746', '748', '750', '751', '754', '756', '757', '758', '759', '761', '762', '764', '768', '769', '772', '773', '776', '777', '780', '781', '786', '787', '792', '795', '798', '800', '801', '807', '808', '812', '813', '814', '821', '825', '826', '832', '834', '835', '836', '840', '844', '849', '850', '854', '856', '860', '864', '868', '871', '872', '873', '876', '880', '883', '884', '886', '890', '891', '893', '894', '895', '899', '901', '902', '903', '905', '908', '912', '914', '916', '919', '920', '928', '929', '931', '933', '935', '938', '941', '942', '948', '963', '966', '970', '972', '975', '977', '981', '987', '991', '994', '999', '1000', '1001', '1003', '1004', '1013', '1014', '1018', '1019', '1020', '1021', '1022', '1023', '1024', '1025', '1028', '1029', '1030', '1032', '1033', '1034', '1035', '1038', '1039', '1040', '1045', '1047', '1049', '1054', '1058', '1059', '1065', '1066', '1067', '1070', '1072', '1073', '1076', '1077', '1079', '1080', '1082', '1083', '1084', '1090', '1093', '1095', '1106', '1117', '1120', '1121', '1123', '1139', '1142', '1146', '1150', '1153', '1155', '1156', '1160', '1161', '1165', '1166', '1174', '1175', '1180', '1181', '1185', '1186', '1188', '1190', '1191', '1197', '1199', '1200', '1206', '1209', '1222', '1224', '1229', '1230', '1231', '1232', '1235', '1238', '1239', '1240', '1243', '1244', '1249', '1250', '1253', '1256', '1257', '1265', '1271', '1273', '1278', '1280', '1281', '1288', '1289', '1291', '1295', '1296', '1302', '1303', '1310', '1312', '1315', '1319', '1323', '1324', '1326', '1327', '1331', '1332', '1333', '1335', '1337', '1339', '1340', '1341', '1342', '1344', '1345', '1346', '1347', '1348', '1349', '1354', '1358', '1359', '1362', '1363', '1366', '1368', '1371', '1373', '1379', '1385', '1393', '1396', '1402', '1403', '1407', '1410', '1414', '1415', '1416', '1418', '1419', '1420', '1422', '1424', '1426', '1432', '1436', '1437', '1438', '1441', '1444', '1445', '1451', '1453', '1454', '1455', '1466', '1469', '1470', '1472', '1474', '1477', '1478', '1485', '1486', '1487', '1491', '1492', '1493', '1502', '1505', '1508', '1509', '1510', '1511', '1518', '1519', '1522', '1523', '1524', '1525', '1531', '1534', '1535', '1536', '1543', '1548', '1549', '1555', '1556', '1561', '1566', '1570', '1571', '1573', '1577', '1581', '1595', '1597', '1598', '1600', '1602', '1605', '1610', '1611', '1612', '1616', '1619', '1620', '1625', '1628', '1632', '1637', '1648', '1653', '1654', '1655', '1656', '1661', '1662', '1665', '1666', '1668', '1669', '1673', '1678', '1682', '1685', '1686', '1690', '1691', '1695', '1696', '1697', '1698', '1699', '1700', '1701', '1703', '1707', '1709', '1712', '1713', '1716', '1717', '1719', '1724', '1726', '1728', '1729', '1733', '1735', '1742', '1746', '1751', '1752', '1755', '1760', '1762', '1772', '1775', '1779', '1780', '1781', '1793', '1797', '1799', '1805', '1806', '1807', '1809', '1818', '1820', '1824', '1826', '1830', '1834', '1837', '1838', '1840', '1844', '1847', '1848', '1850', '1851', '1854', '1855', '1857', '1858', '1860', '1862', '1864', '1867', '1870', '1877', '1882', '1883', '1884', '1886', '1890', '1895', '1896', '1900', '1902', '1903', '1908', '1910', '1911', '1918', '1919', '1929', '1935', '1937', '1938', '1939', '1941', '1942', '1946', '1949', '1959', '1961', '1964', '1965', '1971', '1976', '1977', '1978', '1981', '1983', '1987', '1989', '1990', '1993', '1997']",True,1000,True,2,c6fdf49374,0.0,0.0,1.0
./expes/v2_2021-03-23_issda-30_2000-prng-1-w1-p2,30_issda-2000,2000,first-2000,200,10,rng,num-start-4000,4000,25726,classic,1330.7970838546753,True,,False,1.0,1.0,1.0,1,"['2', '8', '11', '14', '17', '36', '38', '49', '53', '71', '84', '85', '89', '106', '111', '113', '130', '141', '166', '172', '174', '178', '180', '182', '192', '209', '212', '226', '228', '229', '230', '249', '272', '273', '284', '285', '298', '306', '322', '332', '345', '347', '354', '382', '394', '405', '406', '408', '409', '416', '420', '430', '431', '438', '455', '460', '485', '488', '509', '547', '548', '550', '553', '576', '584', '597', '630', '666', '674', '677', '685', '693', '700', '709', '712', '749', '750', '765', '776', '777', '782', '786', '813', '816', '824', '825', '843', '861', '864', '866', '870', '878', '888', '910', '925', '926', '949', '950', '1008', '1018', '1019', '1026', '1030', '1035', '1037', '1060', '1070', '1101', '1106', '1136', '1137', '1148', '1158', '1160', '1174', '1177', '1179', '1186', '1188', '1197', '1209', '1210', '1223', '1239', '1242', '1245', '1248', '1252', '1256', '1263', '1290', '1309', '1381', '1386', '1400', '1409', '1410', '1434', '1436', '1441', '1445', '1452', '1453', '1474', '1485', '1487', '1492', '1508', '1510', '1527', '1528', '1529', '1566', '1567', '1583', '1586', '1587', '1593', '1599', '1606', '1618', '1625', '1638', '1654', '1658', '1669', '1732', '1733', '1743', '1745', '1746', '1770', '1775', '1777', '1780', '1786', '1801', '1806', '1816', '1818', '1822', '1828', '1834', '1835', '1840', '1856', '1857', '1867', '1880', '1883', '1887', '1893', '1918', '1925', '1938', '1940', '1948', '1949', '1963', '1975']",True,1000,True,2,915fc73899,0.0,0.0,1.0
./expes/v2_2021-03-23_issda-30_2000-prng-1-w1-p2,30_issda-2000,2000,first-2000,500,25,rng,num-start-1600,1600,25726,classic,1160.9970762729645,True,,False,1.0,1.0,1.0,1,"['1', '2', '4', '10', '16', '22', '32', '36', '40', '41', '43', '49', '52', '53', '57', '58', '60', '63', '65', '72', '83', '88', '92', '95', '98', '103', '105', '106', '112', '114', '122', '127', '137', '140', '141', '143', '144', '149', '153', '154', '158', '167', '171', '184', '185', '186', '191', '194', '195', '196', '199', '201', '210', '212', '218', '219', '220', '227', '229', '230', '232', '234', '235', '236', '243', '247', '249', '252', '253', '258', '264', '267', '270', '273', '277', '281', '289', '294', '300', '301', '307', '316', '325', '330', '332', '338', '345', '350', '352', '353', '358', '360', '364', '372', '374', '377', '387', '389', '395', '397', '400', '405', '407', '408', '409', '411', '415', '419', '421', '426', '429', '434', '443', '447', '455', '456', '458', '461', '464', '468', '472', '483', '484', '496', '501', '502', '505', '506', '507', '509', '510', '513', '516', '517', '522', '523', '524', '525', '526', '530', '534', '539', '540', '542', '545', '547', '555', '556', '558', '562', '564', '571', '575', '577', '578', '579', '580', '597', '601', '606', '607', '616', '620', '621', '625', '626', '629', '634', '637', '640', '644', '647', '661', '680', '683', '684', '687', '691', '696', '697', '709', '712', '714', '718', '720', '722', '724', '729', '734', '739', '746', '748', '749', '751', '754', '755', '756', '764', '772', '777', '780', '783', '784', '787', '788', '791', '792', '795', '807', '808', '813', '815', '825', '827', '831', '833', '844', '856', '858', '866', '867', '869', '871', '874', '880', '886', '896', '898', '899', '904', '905', '907', '912', '913', '917', '921', '922', '927', '929', '933', '942', '944', '956', '960', '961', '962', '963', '965', '969', '972', '974', '975', '984', '993', '994', '996', '997', '998', '1000', '1002', '1005', '1015', '1020', '1025', '1026', '1038', '1039', '1041', '1049', '1053', '1058', '1065', '1068', '1069', '1073', '1077', '1080', '1082', '1086', '1094', '1095', '1096', '1103', '1109', '1111', '1113', '1116', '1117', '1119', '1124', '1130', '1134', '1138', '1142', '1144', '1147', '1150', '1161', '1166', '1167', '1171', '1182', '1184', '1186', '1195', '1197', '1201', '1206', '1207', '1211', '1216', '1218', '1219', '1220', '1221', '1232', '1234', '1237', '1240', '1245', '1249', '1255', '1261', '1262', '1279', '1281', '1287', '1294', '1296', '1298', '1301', '1304', '1306', '1313', '1315', '1318', '1321', '1322', '1323', '1324', '1325', '1327', '1331', '1335', '1336', '1345', '1346', '1349', '1356', '1360', '1363', '1369', '1374', '1377', '1383', '1386', '1393', '1394', '1395', '1396', '1398', '1402', '1404', '1406', '1407', '1416', '1418', '1439', '1441', '1442', '1444', '1446', '1454', '1466', '1471', '1472', '1478', '1484', '1485', '1486', '1504', '1506', '1514', '1515', '1517', '1519', '1525', '1530', '1540', '1546', '1547', '1551', '1557', '1560', '1564', '1565', '1575', '1577', '1578', '1585', '1587', '1588', '1593', '1602', '1607', '1608', '1613', '1621', '1623', '1626', '1627', '1632', '1634', '1635', '1648', '1652', '1654', '1655', '1656', '1660', '1664', '1668', '1676', '1680', '1682', '1685', '1686', '1687', '1691', '1694', '1696', '1697', '1698', '1711', '1720', '1724', '1739', '1740', '1741', '1748', '1750', '1752', '1756', '1761', '1762', '1765', '1768', '1770', '1771', '1772', '1773', '1776', '1784', '1788', '1791', '1792', '1795', '1810', '1815', '1816', '1835', '1836', '1837', '1840', '1841', '1842', '1845', '1846', '1847', '1848', '1852', '1853', '1861', '1862', '1864', '1875', '1879', '1886', '1888', '1902', '1908', '1910', '1911', '1912', '1913', '1914', '1917', '1918', '1924', '1926', '1930', '1934', '1951', '1959', '1965', '1967', '1983', '1990', '1995', '2000']",True,1000,True,2,99a97a9c23,0.0,0.0,1.0
./expes/v2_2021-03-23_issda-30_2000-prng-1-w1-p2,30_issda-2000,2000,first-2000,800,40,rng,num-start-400,400,25726,classic,1033.1621162891388,False,,False,0,,,0,"['4', '8', '10', '11', '15', '16', '24', '27', '32', '37', '41', '42', '44', '46', '48', '49', '53', '56', '57', '58', '59', '61', '62', '64', '65', '67', '68', '70', '72', '73', '74', '75', '76', '87', '88', '89', '91', '93', '94', '95', '102', '103', '105', '109', '110', '113', '122', '124', '125', '126', '130', '132', '135', '137', '140', '141', '142', '147', '149', '157', '158', '159', '160', '164', '171', '176', '177', '182', '187', '189', '190', '197', '199', '200', '204', '205', '209', '211', '212', '214', '215', '219', '220', '222', '223', '230', '231', '233', '236', '242', '244', '245', '246', '248', '249', '251', '253', '254', '255', '256', '257', '260', '262', '264', '266', '267', '268', '270', '273', '275', '279', '280', '282', '284', '290', '294', '295', '300', '301', '306', '307', '309', '311', '320', '322', '327', '329', '333', '335', '347', '348', '349', '351', '352', '353', '362', '364', '366', '367', '369', '370', '372', '373', '376', '379', '380', '382', '383', '384', '388', '389', '391', '392', '393', '397', '405', '407', '408', '409', '411', '414', '422', '431', '433', '445', '446', '447', '448', '453', '455', '456', '460', '461', '466', '471', '475', '476', '480', '481', '482', '484', '487', '488', '489', '490', '491', '496', '501', '502', '507', '509', '512', '513', '514', '515', '518', '521', '523', '529', '530', '532', '537', '540', '541', '542', '543', '544', '545', '547', '548', '550', '551', '552', '554', '555', '556', '561', '563', '571', '572', '573', '583', '584', '588', '592', '595', '598', '601', '602', '603', '606', '612', '614', '615', '616', '617', '621', '623', '630', '635', '640', '641', '642', '643', '645', '646', '647', '648', '653', '656', '660', '662', '665', '667', '669', '672', '674', '678', '679', '681', '682', '684', '686', '690', '694', '695', '696', '697', '699', '700', '705', '708', '710', '718', '719', '720', '721', '722', '723', '726', '731', '736', '738', '739', '746', '749', '753', '755', '757', '758', '760', '763', '765', '767', '769', '770', '771', '772', '773', '774', '778', '779', '784', '785', '786', '791', '794', '797', '798', '799', '801', '802', '803', '807', '809', '813', '814', '816', '820', '822', '827', '835', '836', '839', '841', '846', '847', '848', '851', '854', '857', '860', '861', '862', '863', '867', '871', '873', '875', '878', '881', '884', '886', '890', '892', '894', '896', '898', '908', '911', '912', '918', '923', '924', '927', '931', '935', '936', '938', '943', '944', '951', '952', '955', '958', '959', '961', '964', '969', '970', '971', '976', '978', '981', '982', '983', '986', '987', '988', '989', '991', '996', '999', '1003', '1004', '1012', '1014', '1017', '1020', '1025', '1029', '1031', '1034', '1036', '1039', '1042', '1045', '1048', '1050', '1055', '1056', '1060', '1062', '1063', '1065', '1066', '1068', '1072', '1076', '1077', '1080', '1081', '1084', '1085', '1086', '1090', '1094', '1095', '1097', '1098', '1099', '1100', '1102', '1108', '1109', '1110', '1113', '1114', '1115', '1116', '1124', '1126', '1127', '1129', '1132', '1134', '1135', '1136', '1137', '1138', '1140', '1141', '1145', '1146', '1147', '1155', '1156', '1160', '1161', '1162', '1164', '1165', '1166', '1168', '1170', '1172', '1175', '1176', '1178', '1180', '1182', '1186', '1188', '1189', '1190', '1195', '1197', '1198', '1199', '1200', '1201', '1202', '1204', '1206', '1207', '1208', '1209', '1211', '1213', '1214', '1219', '1220', '1224', '1227', '1228', '1229', '1231', '1232', '1237', '1238', '1240', '1241', '1245', '1247', '1251', '1254', '1259', '1262', '1266', '1269', '1271', '1274', '1276', '1282', '1284', '1285', '1286', '1287', '1288', '1293', '1295', '1297', '1298', '1299', '1300', '1301', '1304', '1309', '1315', '1317', '1319', '1320', '1321', '1323', '1325', '1327', '1328', '1331', '1332', '1337', '1339', '1340', '1343', '1351', '1357', '1358', '1363', '1366', '1368', '1373', '1375', '1376', '1377', '1378', '1380', '1381', '1383', '1384', '1385', '1389', '1390', '1392', '1395', '1396', '1397', '1401', '1405', '1413', '1415', '1416', '1421', '1422', '1424', '1425', '1427', '1429', '1430', '1431', '1434', '1436', '1437', '1440', '1444', '1445', '1448', '1460', '1462', '1463', '1465', '1466', '1467', '1468', '1469', '1470', '1471', '1472', '1473', '1476', '1477', '1481', '1490', '1491', '1492', '1493', '1496', '1499', '1503', '1504', '1506', '1512', '1515', '1519', '1520', '1521', '1523', '1527', '1531', '1532', '1533', '1534', '1541', '1543', '1544', '1545', '1546', '1549', '1550', '1551', '1553', '1557', '1560', '1572', '1575', '1581', '1582', '1586', '1588', '1589', '1591', '1592', '1596', '1597', '1598', '1601', '1602', '1603', '1604', '1612', '1613', '1615', '1620', '1622', '1623', '1626', '1629', '1635', '1636', '1637', '1640', '1641', '1645', '1647', '1651', '1652', '1653', '1654', '1658', '1659', '1660', '1662', '1663', '1666', '1669', '1671', '1673', '1674', '1679', '1683', '1687', '1696', '1704', '1706', '1707', '1708', '1710', '1713', '1714', '1716', '1718', '1724', '1726', '1728', '1729', '1735', '1741', '1744', '1746', '1749', '1750', '1752', '1753', '1754', '1755', '1756', '1758', '1759', '1761', '1763', '1764', '1765', '1767', '1769', '1770', '1772', '1773', '1776', '1778', '1779', '1781', '1782', '1783', '1787', '1788', '1793', '1800', '1802', '1803', '1804', '1805', '1807', '1810', '1813', '1816', '1817', '1818', '1822', '1823', '1824', '1825', '1826', '1837', '1838', '1839', '1843', '1847', '1851', '1852', '1853', '1856', '1862', '1864', '1866', '1870', '1872', '1876', '1878', '1879', '1885', '1886', '1887', '1888', '1889', '1893', '1897', '1900', '1903', '1904', '1909', '1913', '1914', '1915', '1917', '1918', '1923', '1924', '1927', '1928', '1931', '1932', '1934', '1935', '1936', '1941', '1944', '1945', '1946', '1947', '1948', '1951', '1953', '1956', '1957', '1961', '1962', '1964', '1967', '1968', '1969', '1973', '1975', '1976', '1978', '1980', '1981', '1985', '1989', '1990', '1991', '1993', '1997']",True,1000,True,2,6be937a598,0.0,0.0,0.0
./expes/v2_2021-03-23_issda-30_2000-prng-1-w1-p2,30_issda-2000,2000,first-2000,200,10,rng,num-start-2400,2400,25726,classic,1042.1001870632172,True,,True,1.0,1.0,1.0,1,"['1', '2', '10', '20', '23', '31', '32', '35', '41', '61', '62', '74', '86', '87', '108', '122', '123', '130', '137', '144', '150', '151', '153', '171', '175', '179', '185', '186', '193', '206', '207', '221', '222', '239', '242', '261', '269', '276', '278', '291', '300', '316', '323', '364', '375', '379', '382', '384', '386', '389', '390', '391', '401', '407', '428', '430', '432', '436', '437', '438', '471', '479', '496', '498', '505', '521', '529', '553', '570', '592', '596', '603', '607', '622', '623', '638', '646', '669', '674', '682', '690', '756', '762', '769', '786', '791', '792', '808', '809', '812', '814', '821', '834', '840', '859', '860', '862', '903', '905', '915', '917', '926', '927', '928', '929', '937', '951', '953', '954', '963', '975', '991', '998', '1024', '1041', '1043', '1049', '1051', '1064', '1083', '1104', '1129', '1146', '1147', '1154', '1160', '1177', '1182', '1194', '1203', '1211', '1214', '1220', '1229', '1232', '1233', '1250', '1258', '1261', '1275', '1277', '1285', '1290', '1300', '1304', '1312', '1315', '1319', '1332', '1340', '1342', '1357', '1383', '1397', '1403', '1421', '1448', '1450', '1452', '1499', '1514', '1553', '1570', '1576', '1583', '1594', '1595', '1600', '1625', '1633', '1646', '1647', '1659', '1701', '1704', '1705', '1721', '1726', '1734', '1736', '1750', '1752', '1755', '1771', '1774', '1775', '1802', '1813', '1824', '1865', '1890', '1893', '1899', '1909', '1963', '1965', '1975', '1976', '1989', '1997']",False,1000,True,2,45967d4d84,0.0,1.0,1.0
./expes/v2_2021-03-23_issda-30_2000-prng-1-w1-p2,30_issda-2000,2000,first-2000,400,20,rng,num-start-3200,3200,25726,classic,1264.8801984786987,True,,False,1.0,1.0,1.0,1,"['2', '4', '7', '11', '19', '24', '27', '38', '45', '47', '57', '60', '66', '68', '71', '74', '76', '86', '96', '100', '107', '111', '115', '117', '121', '130', '134', '136', '148', '161', '162', '166', '183', '187', '189', '195', '209', '219', '222', '227', '231', '232', '236', '244', '260', '268', '271', '272', '274', '285', '290', '291', '299', '301', '304', '305', '306', '322', '327', '328', '331', '340', '341', '346', '347', '352', '354', '361', '364', '366', '368', '369', '370', '371', '372', '373', '379', '397', '401', '403', '404', '407', '408', '419', '420', '425', '427', '429', '442', '444', '449', '464', '487', '488', '504', '505', '511', '513', '514', '524', '525', '541', '543', '555', '558', '561', '562', '565', '571', '573', '576', '580', '592', '593', '597', '602', '604', '605', '606', '612', '618', '620', '627', '628', '634', '635', '640', '643', '647', '649', '650', '651', '668', '680', '685', '693', '694', '696', '697', '698', '705', '706', '708', '713', '717', '718', '720', '727', '728', '729', '731', '733', '735', '740', '742', '743', '745', '747', '750', '753', '762', '764', '766', '771', '773', '779', '780', '785', '798', '827', '828', '831', '832', '836', '837', '840', '848', '850', '851', '854', '858', '862', '864', '887', '890', '904', '912', '922', '928', '929', '934', '947', '948', '949', '953', '954', '961', '963', '966', '968', '972', '978', '982', '985', '986', '989', '991', '995', '1000', '1008', '1011', '1023', '1025', '1030', '1050', '1051', '1056', '1058', '1062', '1070', '1075', '1085', '1086', '1090', '1093', '1105', '1114', '1117', '1121', '1123', '1125', '1127', '1133', '1146', '1156', '1176', '1185', '1190', '1201', '1202', '1204', '1208', '1209', '1217', '1221', '1231', '1236', '1251', '1253', '1257', '1264', '1265', '1266', '1271', '1276', '1278', '1279', '1282', '1284', '1285', '1292', '1293', '1305', '1308', '1320', '1326', '1330', '1331', '1332', '1334', '1336', '1357', '1360', '1364', '1369', '1374', '1376', '1380', '1389', '1405', '1410', '1411', '1412', '1415', '1417', '1423', '1427', '1439', '1443', '1444', '1450', '1467', '1471', '1472', '1474', '1475', '1476', '1477', '1495', '1496', '1498', '1499', '1512', '1516', '1517', '1520', '1533', '1536', '1548', '1555', '1556', '1561', '1569', '1577', '1585', '1587', '1589', '1590', '1599', '1600', '1602', '1610', '1614', '1629', '1633', '1634', '1636', '1642', '1673', '1675', '1677', '1679', '1684', '1693', '1697', '1703', '1711', '1714', '1718', '1722', '1723', '1724', '1727', '1731', '1745', '1746', '1749', '1753', '1761', '1775', '1776', '1777', '1778', '1779', '1782', '1785', '1787', '1795', '1827', '1829', '1831', '1837', '1846', '1848', '1850', '1877', '1881', '1889', '1892', '1893', '1904', '1917', '1918', '1920', '1921', '1924', '1928', '1930', '1931', '1932', '1937', '1945', '1946', '1950', '1955', '1957', '1959', '1960', '1966', '1967', '1970', '1976', '1977', '1980', '1983', '1984', '1992', '1998', '1999', '2000']",True,1000,True,2,7db92f8765,0.0,0.0,1.0
