expe,clients,clients_size,clients_subset,agg_size,agg_size_pc,method,days,days_size,days_total,noise_method,time,valid,valid_sum,success,score_avg,score_min,score_max,nsols,oracle,wall_hit,wall_time,pooled,pool_size,uuid,infeasible,optimal,valid_sums
./expes/v2_2021-03-23_issda-30_2000-prng-1-w1-p2,30_issda-2000,2000,first-2000,600,30,rng,num-start-3200,3200,25726,classic,1267.7098808288574,True,,False,1.0,1.0,1.0,1,"['4', '8', '10', '11', '15', '16', '24', '27', '32', '37', '41', '42', '44', '46', '49', '53', '56', '58', '59', '64', '65', '67', '68', '70', '72', '73', '74', '75', '87', '88', '89', '91', '93', '95', '102', '103', '105', '109', '110', '113', '124', '125', '126', '130', '132', '135', '137', '140', '141', '147', '158', '159', '164', '171', '176', '177', '182', '189', '197', '199', '200', '204', '205', '209', '211', '212', '214', '215', '219', '222', '223', '233', '236', '244', '245', '246', '248', '249', '251', '253', '254', '255', '256', '257', '260', '262', '264', '266', '267', '268', '270', '273', '275', '279', '280', '284', '294', '301', '306', '309', '311', '320', '322', '327', '329', '333', '335', '347', '351', '352', '364', '366', '367', '369', '370', '376', '380', '382', '384', '391', '392', '393', '405', '407', '408', '409', '433', '445', '447', '448', '453', '455', '456', '460', '461', '466', '475', '476', '480', '482', '484', '487', '488', '489', '490', '491', '496', '501', '502', '509', '512', '515', '518', '529', '532', '537', '540', '541', '543', '547', '548', '551', '552', '554', '555', '556', '561', '571', '572', '573', '583', '584', '588', '592', '595', '598', '602', '612', '614', '615', '616', '617', '621', '623', '635', '641', '643', '645', '646', '647', '653', '656', '660', '662', '665', '667', '669', '672', '674', '678', '681', '684', '690', '695', '696', '697', '699', '700', '705', '708', '710', '718', '719', '720', '721', '723', '738', '739', '746', '749', '753', '757', '758', '763', '765', '767', '769', '770', '771', '772', '773', '774', '779', '791', '794', '797', '798', '799', '807', '809', '813', '814', '820', '822', '835', '836', '839', '841', '846', '847', '848', '851', '854', '857', '860', '862', '863', '867', '871', '873', '875', '878', '881', '884', '890', '892', '894', '896', '898', '908', '911', '924', '931', '935', '936', '943', '944', '951', '952', '955', '961', '964', '969', '970', '971', '976', '978', '986', '987', '988', '989', '991', '999', '1003', '1004', '1014', '1017', '1020', '1025', '1029', '1031', '1036', '1039', '1045', '1048', '1050', '1056', '1060', '1062', '1063', '1065', '1066', '1068', '1072', '1076', '1080', '1084', '1085', '1086', '1090', '1094', '1095', '1097', '1098', '1100', '1108', '1109', '1110', '1114', '1115', '1124', '1126', '1127', '1129', '1134', '1136', '1138', '1140', '1145', '1146', '1155', '1156', '1161', '1164', '1165', '1166', '1170', '1172', '1175', '1176', '1178', '1182', '1186', '1188', '1190', '1197', '1199', '1201', '1202', '1204', '1206', '1207', '1208', '1209', '1211', '1214', '1219', '1220', '1228', '1229', '1231', '1232', '1237', '1238', '1240', '1241', '1247', '1251', '1254', '1259', '1262', '1266', '1269', '1271', '1276', '1282', '1284', '1285', '1286', '1287', '1288', '1295', '1297', '1298', '1299', '1300', '1301', '1304', '1309', '1315', '1317', '1319', '1323', '1325', '1331', '1332', '1339', '1343', '1351', '1357', '1358', '1368', '1375', '1376', '1377', '1380', '1381', '1383', '1385', '1389', '1392', '1395', '1397', '1401', '1405', '1413', '1415', '1421', '1422', '1424', '1425', '1427', '1430', '1431', '1434', '1440', '1448', '1460', '1462', '1463', '1465', '1466', '1467', '1468', '1469', '1472', '1473', '1476', '1481', '1492', '1499', '1503', '1506', '1512', '1519', '1520', '1527', '1531', '1532', '1533', '1534', '1541', '1543', '1544', '1549', '1550', '1553', '1557', '1560', '1572', '1575', '1582', '1586', '1588', '1591', '1592', '1596', '1598', '1603', '1612', '1613', '1615', '1620', '1622', '1623', '1626', '1629', '1636', '1640', '1641', '1645', '1647', '1651', '1652', '1653', '1654', '1659', '1660', '1662', '1663', '1666', '1673', '1679', '1687', '1696', '1704', '1706', '1707', '1708', '1713', '1714', '1716', '1718', '1724', '1728', '1729', '1741', '1746', '1749', '1750', '1752', '1753', '1754', '1756', '1758', '1763', '1764', '1765', '1767', '1769', '1773', '1776', '1778', '1781', '1782', '1783', '1788', '1800', '1802', '1803', '1804', '1805', '1810', '1813', '1816', '1818', '1822', '1823', '1837', '1838', '1839', '1843', '1851', '1852', '1853', '1862', '1870', '1876', '1878', '1879', '1885', '1886', '1887', '1888', '1889', '1893', '1897', '1900', '1903', '1904', '1914', '1917', '1918', '1923', '1924', '1927', '1931', '1932', '1944', '1946', '1947', '1948', '1951', '1956', '1961', '1962', '1964', '1968', '1973', '1975', '1976', '1978', '1980', '1981', '1985', '1989', '1990', '1991', '1993', '1997']",True,1000,True,2,4689ce36c7,0.0,0.0,1.0
./expes/v2_2021-03-23_issda-30_2000-prng-1-w1-p2,30_issda-2000,2000,first-2000,600,30,rng,num-start-2000,2000,25726,classic,1159.463364124298,True,,False,1.0,1.0,1.0,1,"['1', '2', '4', '10', '16', '21', '22', '31', '32', '36', '40', '41', '43', '49', '52', '53', '57', '58', '60', '63', '65', '72', '82', '83', '88', '92', '95', '98', '103', '105', '106', '112', '114', '122', '123', '127', '128', '133', '137', '140', '141', '143', '144', '149', '153', '154', '158', '166', '167', '171', '184', '185', '186', '191', '194', '195', '196', '199', '201', '203', '210', '212', '214', '218', '219', '220', '227', '229', '230', '231', '232', '234', '235', '236', '243', '244', '245', '247', '249', '250', '252', '253', '258', '264', '267', '270', '273', '274', '277', '281', '289', '294', '300', '301', '307', '314', '316', '325', '330', '332', '338', '339', '345', '349', '350', '352', '353', '358', '360', '364', '366', '372', '374', '377', '387', '388', '389', '395', '397', '400', '403', '405', '407', '408', '409', '411', '415', '416', '419', '420', '421', '426', '429', '434', '438', '443', '444', '447', '455', '456', '458', '461', '463', '464', '468', '469', '472', '473', '480', '483', '484', '496', '498', '500', '501', '502', '505', '506', '507', '509', '510', '513', '516', '517', '519', '522', '523', '524', '525', '526', '530', '534', '539', '540', '542', '545', '547', '555', '556', '558', '560', '562', '564', '571', '575', '576', '577', '578', '579', '580', '597', '601', '606', '607', '608', '616', '617', '620', '621', '625', '626', '629', '634', '637', '640', '644', '647', '650', '652', '661', '680', '683', '684', '687', '691', '694', '696', '697', '703', '709', '712', '714', '718', '720', '722', '724', '726', '729', '734', '739', '740', '745', '746', '748', '749', '751', '754', '755', '756', '764', '771', '772', '777', '780', '783', '784', '787', '788', '791', '792', '795', '805', '807', '808', '813', '815', '825', '827', '831', '833', '844', '856', '858', '864', '866', '867', '869', '871', '873', '874', '880', '886', '893', '896', '898', '899', '904', '905', '907', '912', '913', '917', '921', '922', '925', '927', '929', '932', '933', '942', '944', '956', '960', '961', '962', '963', '965', '969', '972', '974', '975', '977', '984', '987', '992', '993', '994', '996', '997', '998', '1000', '1002', '1005', '1015', '1020', '1025', '1026', '1035', '1038', '1039', '1041', '1048', '1049', '1053', '1058', '1065', '1068', '1069', '1073', '1077', '1080', '1082', '1086', '1092', '1094', '1095', '1096', '1098', '1103', '1107', '1109', '1110', '1111', '1113', '1116', '1117', '1119', '1124', '1130', '1134', '1138', '1140', '1142', '1143', '1144', '1147', '1150', '1161', '1166', '1167', '1171', '1182', '1184', '1186', '1192', '1195', '1197', '1201', '1205', '1206', '1207', '1211', '1216', '1218', '1219', '1220', '1221', '1232', '1234', '1237', '1240', '1245', '1249', '1255', '1261', '1262', '1279', '1281', '1283', '1285', '1287', '1294', '1296', '1298', '1301', '1304', '1306', '1313', '1315', '1318', '1321', '1322', '1323', '1324', '1325', '1327', '1331', '1335', '1336', '1339', '1345', '1346', '1349', '1351', '1356', '1360', '1363', '1365', '1369', '1374', '1377', '1379', '1383', '1386', '1393', '1394', '1395', '1396', '1398', '1402', '1404', '1406', '1407', '1416', '1418', '1427', '1437', '1439', '1440', '1441', '1442', '1444', '1446', '1454', '1464', '1466', '1471', '1472', '1478', '1484', '1485', '1486', '1504', '1506', '1514', '1515', '1516', '1517', '1519', '1525', '1527', '1530', '1539', '1540', '1541', '1546', '1547', '1551', '1557', '1560', '1564', '1565', '1567', '1575', '1577', '1578', '1584', '1585', '1587', '1588', '1593', '1597', '1602', '1603', '1607', '1608', '1613', '1621', '1623', '1626', '1627', '1632', '1634', '1635', '1648', '1651', '1652', '1654', '1655', '1656', '1660', '1664', '1668', '1676', '1680', '1682', '1685', '1686', '1687', '1688', '1691', '1694', '1696', '1697', '1698', '1701', '1711', '1720', '1724', '1737', '1739', '1740', '1741', '1748', '1750', '1752', '1756', '1761', '1762', '1765', '1768', '1770', '1771', '1772', '1773', '1776', '1784', '1786', '1788', '1791', '1792', '1795', '1800', '1802', '1807', '1810', '1815', '1816', '1819', '1821', '1835', '1836', '1837', '1840', '1841', '1842', '1845', '1846', '1847', '1848', '1852', '1853', '1861', '1862', '1864', '1875', '1877', '1879', '1886', '1888', '1896', '1902', '1908', '1910', '1911', '1912', '1913', '1914', '1917', '1918', '1924', '1926', '1930', '1932', '1934', '1938', '1946', '1950', '1951', '1959', '1965', '1967', '1968', '1974', '1983', '1990', '1991', '1993', '1995', '2000']",True,1000,True,2,62a73aadfd,0.0,0.0,1.0
./expes/v2_2021-03-23_issda-30_2000-prng-1-w1-p2,30_issda-2000,2000,first-2000,400,20,rng,num-start-800,800,25726,classic,1063.1433515548706,True,,False,1.0,1.0,1.0,1,"['6', '8', '10', '19', '24', '31', '32', '35', '36', '39', '49', '59', '63', '64', '70', '75', '85', '89', '98', '113', '115', '116', '121', '122', '124', '127', '132', '135', '138', '141', '145', '151', '152', '161', '162', '168', '174', '190', '202', '204', '205', '206', '222', '223', '237', '239', '240', '249', '256', '264', '267', '288', '292', '295', '301', '302', '311', '319', '321', '322', '324', '325', '328', '331', '337', '341', '347', '349', '351', '353', '355', '368', '383', '401', '402', '421', '423', '428', '436', '438', '451', '458', '462', '463', '469', '470', '474', '475', '476', '479', '482', '490', '491', '500', '507', '511', '515', '516', '523', '524', '533', '537', '540', '558', '560', '562', '575', '587', '589', '606', '620', '626', '636', '638', '639', '642', '645', '646', '652', '653', '660', '663', '666', '677', '678', '679', '681', '683', '686', '688', '689', '691', '693', '694', '697', '704', '706', '712', '713', '725', '728', '729', '732', '738', '753', '755', '756', '763', '771', '778', '789', '793', '796', '799', '800', '804', '807', '810', '818', '823', '829', '830', '831', '836', '857', '860', '862', '867', '883', '886', '889', '900', '905', '906', '910', '912', '913', '920', '922', '923', '924', '926', '931', '933', '939', '942', '945', '947', '951', '955', '956', '957', '958', '959', '960', '970', '972', '976', '981', '983', '986', '992', '1003', '1005', '1008', '1009', '1014', '1021', '1022', '1024', '1025', '1027', '1029', '1036', '1037', '1048', '1050', '1062', '1065', '1066', '1068', '1086', '1094', '1097', '1114', '1115', '1122', '1124', '1127', '1130', '1137', '1141', '1157', '1158', '1161', '1167', '1170', '1172', '1180', '1183', '1186', '1191', '1196', '1197', '1202', '1203', '1216', '1220', '1222', '1239', '1251', '1254', '1257', '1258', '1263', '1265', '1267', '1283', '1288', '1302', '1314', '1323', '1324', '1325', '1329', '1336', '1343', '1349', '1357', '1363', '1370', '1371', '1386', '1387', '1388', '1390', '1396', '1398', '1402', '1404', '1415', '1419', '1422', '1423', '1425', '1427', '1428', '1438', '1445', '1450', '1451', '1454', '1473', '1477', '1478', '1482', '1483', '1486', '1489', '1493', '1508', '1511', '1515', '1518', '1520', '1526', '1537', '1539', '1544', '1547', '1551', '1554', '1557', '1558', '1592', '1593', '1595', '1602', '1604', '1606', '1608', '1615', '1616', '1627', '1631', '1634', '1637', '1640', '1649', '1651', '1659', '1683', '1686', '1690', '1701', '1711', '1716', '1718', '1721', '1722', '1728', '1729', '1735', '1737', '1752', '1753', '1756', '1757', '1763', '1769', '1773', '1781', '1783', '1787', '1792', '1797', '1800', '1802', '1806', '1812', '1816', '1817', '1823', '1827', '1829', '1830', '1831', '1842', '1854', '1858', '1859', '1862', '1867', '1870', '1874', '1877', '1884', '1888', '1890', '1895', '1896', '1900', '1901', '1906', '1915', '1916', '1922', '1935', '1936', '1938', '1940', '1942', '1953', '1965', '1967', '1971', '1977', '1982', '1992', '2000']",True,1000,True,2,1baab484f5,0.0,0.0,1.0
./expes/v2_2021-03-23_issda-30_2000-prng-1-w1-p2,30_issda-2000,2000,first-2000,900,45,rng,num-start-3600,3600,25726,classic,1284.6920948028564,True,,False,1.0,1.0,1.0,1,"['1', '2', '10', '11', '14', '20', '22', '23', '24', '25', '26', '28', '29', '30', '31', '32', '33', '34', '35', '37', '40', '41', '44', '46', '47', '48', '50', '51', '56', '57', '59', '61', '62', '65', '69', '72', '73', '74', '75', '77', '80', '84', '85', '86', '87', '88', '91', '92', '93', '94', '96', '97', '98', '102', '103', '104', '107', '108', '109', '120', '122', '123', '124', '127', '130', '132', '135', '137', '138', '141', '142', '144', '145', '148', '149', '150', '151', '152', '153', '154', '155', '157', '158', '159', '160', '161', '165', '170', '171', '172', '174', '175', '177', '179', '180', '181', '185', '186', '189', '191', '193', '195', '196', '197', '199', '202', '203', '205', '206', '207', '213', '215', '218', '221', '222', '223', '224', '232', '234', '235', '236', '237', '239', '242', '245', '250', '252', '253', '255', '259', '261', '264', '266', '267', '269', '270', '272', '273', '275', '276', '278', '279', '280', '281', '284', '287', '288', '289', '290', '291', '294', '296', '300', '301', '305', '316', '317', '319', '321', '323', '324', '325', '327', '328', '337', '339', '342', '347', '348', '354', '355', '360', '361', '364', '366', '367', '371', '372', '373', '375', '378', '379', '382', '384', '386', '388', '389', '390', '391', '392', '393', '398', '399', '400', '401', '403', '404', '405', '406', '407', '409', '411', '412', '415', '418', '419', '420', '424', '427', '428', '430', '431', '432', '435', '436', '437', '438', '439', '443', '447', '448', '450', '454', '459', '464', '466', '468', '471', '472', '476', '477', '479', '486', '487', '489', '491', '495', '496', '497', '498', '500', '501', '502', '503', '505', '510', '511', '514', '521', '523', '524', '525', '526', '527', '529', '530', '532', '533', '537', '546', '552', '553', '557', '558', '560', '563', '564', '565', '567', '570', '571', '573', '574', '576', '578', '580', '581', '582', '583', '586', '592', '595', '596', '601', '603', '607', '613', '617', '618', '622', '623', '624', '633', '635', '636', '637', '638', '639', '640', '646', '647', '649', '650', '654', '657', '660', '663', '669', '670', '674', '676', '677', '678', '682', '687', '690', '692', '696', '699', '700', '701', '702', '703', '704', '709', '712', '714', '719', '721', '726', '727', '728', '729', '731', '733', '736', '737', '740', '742', '745', '746', '749', '754', '756', '758', '759', '762', '765', '769', '770', '772', '773', '777', '781', '784', '786', '788', '791', '792', '795', '796', '798', '799', '800', '801', '803', '806', '808', '809', '810', '812', '814', '815', '817', '821', '823', '825', '828', '829', '830', '831', '832', '834', '836', '838', '840', '841', '842', '843', '847', '848', '852', '853', '854', '855', '859', '860', '862', '864', '874', '879', '880', '881', '883', '885', '889', '891', '895', '900', '902', '903', '905', '906', '907', '909', '911', '913', '915', '917', '923', '926', '927', '928', '929', '930', '932', '933', '934', '937', '938', '940', '947', '948', '950', '951', '953', '954', '957', '960', '961', '963', '964', '966', '967', '968', '970', '973', '974', '975', '976', '979', '982', '985', '986', '988', '989', '990', '991', '996', '998', '999', '1006', '1009', '1010', '1012', '1013', '1015', '1017', '1019', '1020', '1021', '1022', '1024', '1025', '1030', '1031', '1033', '1034', '1036', '1040', '1041', '1043', '1046', '1049', '1050', '1051', '1054', '1055', '1056', '1057', '1058', '1062', '1063', '1064', '1065', '1066', '1067', '1069', '1071', '1072', '1074', '1076', '1079', '1082', '1083', '1085', '1087', '1088', '1092', '1094', '1096', '1097', '1098', '1100', '1103', '1104', '1106', '1107', '1109', '1110', '1112', '1113', '1115', '1116', '1119', '1126', '1127', '1128', '1129', '1130', '1135', '1145', '1146', '1147', '1149', '1151', '1153', '1154', '1156', '1157', '1160', '1164', '1165', '1167', '1168', '1169', '1172', '1174', '1177', '1178', '1182', '1186', '1188', '1190', '1192', '1193', '1194', '1195', '1197', '1198', '1200', '1202', '1203', '1209', '1211', '1212', '1214', '1220', '1222', '1224', '1225', '1226', '1228', '1229', '1231', '1232', '1233', '1236', '1237', '1239', '1240', '1245', '1247', '1249', '1250', '1251', '1252', '1253', '1257', '1258', '1259', '1261', '1262', '1266', '1270', '1275', '1277', '1278', '1279', '1280', '1282', '1285', '1286', '1287', '1289', '1290', '1291', '1293', '1297', '1299', '1300', '1303', '1304', '1307', '1308', '1309', '1310', '1311', '1312', '1313', '1315', '1316', '1319', '1321', '1328', '1330', '1332', '1334', '1337', '1339', '1340', '1342', '1346', '1352', '1357', '1360', '1364', '1365', '1368', '1369', '1375', '1377', '1379', '1383', '1389', '1390', '1395', '1397', '1398', '1402', '1403', '1404', '1405', '1407', '1408', '1412', '1416', '1421', '1422', '1423', '1429', '1431', '1432', '1434', '1436', '1437', '1438', '1442', '1443', '1444', '1447', '1448', '1450', '1452', '1457', '1463', '1467', '1468', '1470', '1472', '1473', '1476', '1479', '1480', '1481', '1482', '1485', '1486', '1489', '1492', '1493', '1497', '1499', '1501', '1504', '1506', '1510', '1514', '1515', '1516', '1518', '1522', '1524', '1525', '1532', '1533', '1534', '1537', '1543', '1544', '1546', '1547', '1548', '1549', '1553', '1555', '1560', '1561', '1562', '1567', '1568', '1570', '1572', '1574', '1576', '1583', '1594', '1595', '1596', '1598', '1600', '1607', '1614', '1618', '1620', '1622', '1623', '1625', '1632', '1633', '1634', '1635', '1637', '1639', '1640', '1641', '1642', '1645', '1646', '1647', '1649', '1651', '1654', '1658', '1659', '1660', '1669', '1670', '1671', '1673', '1675', '1676', '1679', '1682', '1684', '1687', '1688', '1690', '1698', '1700', '1701', '1702', '1703', '1704', '1705', '1706', '1715', '1717', '1719', '1721', '1725', '1726', '1728', '1730', '1732', '1734', '1736', '1739', '1743', '1744', '1745', '1746', '1750', '1752', '1753', '1755', '1756', '1763', '1764', '1769', '1770', '1771', '1774', '1775', '1777', '1782', '1785', '1788', '1794', '1800', '1801', '1802', '1803', '1807', '1813', '1818', '1819', '1821', '1824', '1825', '1827', '1829', '1830', '1835', '1836', '1837', '1839', '1844', '1845', '1846', '1849', '1854', '1855', '1856', '1858', '1861', '1862', '1863', '1864', '1865', '1867', '1873', '1874', '1876', '1879', '1884', '1885', '1886', '1888', '1890', '1892', '1893', '1895', '1896', '1899', '1904', '1905', '1906', '1907', '1909', '1910', '1913', '1914', '1917', '1918', '1920', '1923', '1925', '1926', '1928', '1934', '1935', '1936', '1937', '1940', '1944', '1946', '1949', '1950', '1951', '1956', '1957', '1960', '1961', '1963', '1965', '1966', '1969', '1972', '1974', '1975', '1976', '1981', '1984', '1986', '1987', '1989', '1993', '1994', '1997']",True,1000,True,2,9a4184d173,0.0,0.0,1.0
./expes/v2_2021-03-23_issda-30_2000-prng-1-w1-p2,30_issda-2000,2000,first-2000,500,25,rng,num-start-3600,3600,25726,classic,1315.7708916664124,True,,False,1.0,1.0,1.0,1,"['4', '8', '13', '14', '16', '18', '23', '27', '35', '36', '39', '43', '45', '49', '51', '53', '56', '58', '59', '61', '63', '64', '67', '76', '78', '81', '82', '88', '90', '95', '101', '106', '107', '108', '109', '117', '121', '125', '147', '150', '153', '160', '169', '170', '172', '179', '186', '187', '191', '199', '201', '202', '210', '211', '218', '225', '231', '234', '238', '242', '256', '258', '260', '270', '276', '277', '279', '282', '284', '291', '293', '298', '301', '304', '318', '319', '330', '333', '335', '344', '348', '349', '351', '361', '365', '368', '369', '373', '375', '377', '387', '388', '390', '393', '401', '404', '408', '409', '410', '411', '413', '419', '421', '428', '429', '431', '433', '435', '439', '451', '452', '455', '458', '460', '463', '466', '467', '471', '482', '489', '492', '495', '504', '507', '512', '516', '517', '522', '523', '529', '532', '536', '538', '540', '545', '549', '550', '551', '555', '561', '562', '567', '570', '571', '573', '578', '580', '584', '585', '597', '601', '607', '608', '626', '630', '632', '635', '637', '638', '639', '640', '641', '658', '660', '661', '663', '671', '676', '681', '687', '691', '696', '699', '700', '705', '712', '717', '718', '724', '725', '729', '730', '735', '738', '740', '744', '745', '746', '747', '748', '749', '751', '753', '755', '761', '768', '776', '778', '781', '782', '788', '789', '790', '796', '797', '805', '808', '810', '819', '821', '829', '834', '835', '837', '845', '850', '851', '856', '858', '861', '867', '868', '869', '875', '879', '881', '884', '886', '888', '892', '893', '901', '902', '909', '912', '919', '920', '934', '936', '941', '942', '943', '952', '958', '962', '967', '972', '976', '977', '978', '986', '989', '995', '997', '1000', '1004', '1008', '1009', '1013', '1021', '1024', '1025', '1026', '1027', '1029', '1032', '1035', '1039', '1043', '1048', '1052', '1053', '1056', '1058', '1059', '1063', '1067', '1068', '1071', '1080', '1081', '1084', '1095', '1096', '1099', '1102', '1105', '1109', '1110', '1115', '1119', '1120', '1125', '1127', '1135', '1137', '1138', '1141', '1143', '1144', '1147', '1154', '1168', '1169', '1174', '1181', '1189', '1190', '1206', '1217', '1221', '1227', '1232', '1234', '1243', '1244', '1245', '1247', '1248', '1252', '1264', '1266', '1268', '1273', '1275', '1276', '1279', '1280', '1285', '1286', '1296', '1299', '1302', '1305', '1307', '1310', '1312', '1313', '1318', '1335', '1338', '1347', '1349', '1351', '1354', '1355', '1356', '1359', '1360', '1365', '1367', '1369', '1370', '1380', '1384', '1390', '1391', '1395', '1396', '1400', '1402', '1403', '1404', '1407', '1410', '1411', '1412', '1414', '1415', '1422', '1425', '1426', '1428', '1430', '1432', '1435', '1444', '1446', '1455', '1465', '1466', '1467', '1473', '1477', '1487', '1488', '1500', '1504', '1505', '1507', '1514', '1520', '1533', '1534', '1543', '1556', '1558', '1560', '1561', '1567', '1570', '1575', '1579', '1581', '1582', '1585', '1588', '1606', '1607', '1609', '1613', '1616', '1617', '1622', '1623', '1625', '1629', '1631', '1634', '1635', '1640', '1641', '1642', '1646', '1654', '1657', '1660', '1665', '1669', '1671', '1677', '1678', '1679', '1682', '1685', '1704', '1707', '1711', '1712', '1722', '1726', '1727', '1731', '1739', '1747', '1751', '1753', '1760', '1761', '1766', '1771', '1773', '1774', '1779', '1788', '1789', '1802', '1807', '1812', '1814', '1816', '1818', '1829', '1832', '1835', '1838', '1839', '1846', '1849', '1851', '1856', '1865', '1866', '1868', '1874', '1875', '1882', '1885', '1893', '1895', '1899', '1900', '1913', '1915', '1918', '1925', '1928', '1933', '1934', '1939', '1941', '1958', '1964', '1971', '1975', '1982', '1989', '1990', '1992', '2000']",True,1000,True,2,d73058bd0b,0.0,0.0,1.0
./expes/v2_2021-03-23_issda-30_2000-prng-1-w1-p2,30_issda-2000,2000,first-2000,1000,50,rng,num-start-2800,2800,25726,classic,1223.9790518283844,True,,False,1.0,1.0,1.0,1,"['1', '3', '7', '10', '12', '14', '22', '23', '25', '26', '27', '28', '29', '30', '32', '33', '34', '35', '36', '41', '43', '44', '45', '46', '47', '48', '53', '56', '57', '58', '61', '62', '63', '66', '67', '68', '69', '70', '71', '72', '75', '76', '77', '80', '81', '82', '85', '88', '90', '91', '93', '101', '103', '105', '108', '112', '114', '115', '118', '119', '122', '123', '125', '129', '130', '132', '133', '134', '136', '140', '141', '144', '145', '147', '148', '152', '153', '154', '164', '165', '167', '168', '169', '170', '171', '172', '173', '175', '176', '177', '178', '179', '181', '182', '183', '184', '186', '190', '192', '194', '195', '196', '197', '199', '200', '201', '205', '206', '208', '209', '210', '212', '216', '217', '218', '219', '220', '221', '222', '223', '224', '227', '228', '229', '230', '231', '233', '234', '237', '239', '240', '241', '242', '243', '245', '248', '250', '254', '255', '259', '261', '262', '263', '267', '269', '272', '277', '278', '279', '280', '281', '282', '285', '286', '287', '288', '289', '292', '294', '299', '300', '301', '302', '303', '304', '305', '307', '308', '315', '316', '317', '320', '322', '325', '327', '328', '330', '331', '332', '335', '336', '338', '340', '341', '347', '348', '349', '350', '351', '353', '355', '356', '357', '359', '362', '364', '365', '372', '373', '375', '378', '379', '384', '387', '388', '389', '392', '393', '394', '396', '398', '401', '402', '405', '407', '408', '411', '412', '414', '415', '417', '421', '425', '426', '427', '429', '431', '433', '434', '438', '446', '447', '450', '451', '453', '454', '456', '459', '462', '464', '465', '470', '473', '475', '477', '480', '481', '483', '485', '487', '490', '492', '495', '497', '500', '501', '504', '505', '506', '507', '508', '509', '512', '519', '520', '522', '523', '529', '530', '534', '535', '539', '542', '545', '546', '547', '549', '551', '555', '560', '562', '563', '564', '566', '567', '568', '576', '579', '583', '584', '586', '589', '590', '591', '592', '593', '594', '595', '597', '598', '599', '601', '605', '606', '607', '608', '611', '612', '614', '615', '617', '618', '619', '620', '623', '625', '631', '633', '634', '635', '636', '637', '638', '639', '641', '642', '643', '644', '645', '646', '648', '649', '654', '655', '656', '658', '661', '663', '664', '667', '670', '672', '673', '674', '676', '682', '684', '686', '687', '690', '691', '692', '693', '694', '698', '699', '701', '702', '703', '705', '706', '709', '710', '711', '713', '714', '720', '722', '724', '727', '729', '731', '732', '733', '734', '735', '738', '739', '741', '742', '745', '746', '748', '750', '751', '754', '756', '757', '758', '759', '761', '762', '763', '764', '768', '769', '772', '773', '776', '777', '779', '780', '781', '786', '787', '788', '791', '792', '794', '795', '798', '799', '800', '801', '807', '808', '809', '812', '813', '814', '815', '818', '820', '821', '822', '825', '826', '832', '834', '835', '836', '840', '843', '844', '849', '850', '854', '856', '859', '860', '864', '868', '869', '870', '871', '872', '873', '876', '880', '883', '884', '886', '890', '891', '893', '894', '895', '898', '899', '901', '902', '903', '905', '908', '909', '910', '911', '912', '914', '915', '916', '918', '919', '920', '922', '928', '929', '931', '933', '935', '937', '938', '941', '942', '948', '949', '959', '961', '963', '966', '967', '970', '971', '972', '975', '977', '978', '981', '987', '991', '992', '994', '995', '997', '998', '999', '1000', '1001', '1003', '1004', '1005', '1006', '1013', '1014', '1018', '1019', '1020', '1021', '1022', '1023', '1024', '1025', '1028', '1029', '1030', '1031', '1032', '1033', '1034', '1035', '1037', '1038', '1039', '1040', '1041', '1043', '1045', '1046', '1047', '1049', '1050', '1053', '1054', '1058', '1059', '1063', '1065', '1066', '1067', '1069', '1070', '1072', '1073', '1076', '1077', '1079', '1080', '1081', '1082', '1083', '1084', '1089', '1090', '1093', '1095', '1104', '1106', '1108', '1113', '1114', '1117', '1119', '1120', '1121', '1122', '1123', '1126', '1131', '1134', '1136', '1138', '1139', '1142', '1146', '1147', '1149', '1150', '1152', '1153', '1154', '1155', '1156', '1160', '1161', '1163', '1165', '1166', '1170', '1171', '1173', '1174', '1175', '1180', '1181', '1185', '1186', '1188', '1190', '1191', '1195', '1197', '1199', '1200', '1206', '1209', '1213', '1217', '1218', '1222', '1224', '1226', '1229', '1230', '1231', '1232', '1235', '1238', '1239', '1240', '1243', '1244', '1249', '1250', '1251', '1253', '1255', '1256', '1257', '1259', '1264', '1265', '1271', '1272', '1273', '1277', '1278', '1279', '1280', '1281', '1285', '1286', '1287', '1288', '1289', '1291', '1294', '1295', '1296', '1298', '1299', '1302', '1303', '1310', '1312', '1314', '1315', '1319', '1323', '1324', '1326', '1327', '1331', '1332', '1333', '1335', '1337', '1339', '1340', '1341', '1342', '1344', '1345', '1346', '1347', '1348', '1349', '1354', '1358', '1359', '1362', '1363', '1366', '1367', '1368', '1370', '1371', '1373', '1379', '1382', '1385', '1386', '1389', '1390', '1393', '1396', '1399', '1401', '1402', '1403', '1407', '1409', '1410', '1414', '1415', '1416', '1418', '1419', '1420', '1422', '1423', '1424', '1426', '1427', '1428', '1431', '1432', '1436', '1437', '1438', '1439', '1441', '1442', '1443', '1444', '1445', '1446', '1451', '1452', '1453', '1454', '1455', '1456', '1460', '1463', '1466', '1467', '1469', '1470', '1472', '1473', '1474', '1475', '1477', '1478', '1480', '1481', '1482', '1484', '1485', '1486', '1487', '1491', '1492', '1493', '1497', '1502', '1505', '1508', '1509', '1510', '1511', '1518', '1519', '1522', '1523', '1524', '1525', '1531', '1533', '1534', '1535', '1536', '1543', '1547', '1548', '1549', '1551', '1554', '1555', '1556', '1559', '1560', '1561', '1562', '1563', '1564', '1566', '1569', '1570', '1571', '1573', '1575', '1577', '1581', '1586', '1592', '1595', '1597', '1598', '1600', '1602', '1605', '1608', '1610', '1611', '1612', '1616', '1619', '1620', '1623', '1625', '1628', '1630', '1632', '1636', '1637', '1641', '1644', '1645', '1648', '1649', '1653', '1654', '1655', '1656', '1661', '1662', '1665', '1666', '1668', '1669', '1670', '1673', '1674', '1678', '1682', '1685', '1686', '1690', '1691', '1695', '1696', '1697', '1698', '1699', '1700', '1701', '1703', '1707', '1709', '1712', '1713', '1715', '1716', '1717', '1719', '1721', '1724', '1726', '1728', '1729', '1730', '1731', '1733', '1735', '1740', '1742', '1746', '1751', '1752', '1755', '1756', '1758', '1759', '1760', '1762', '1772', '1775', '1779', '1780', '1781', '1784', '1786', '1791', '1793', '1795', '1796', '1797', '1799', '1802', '1805', '1806', '1807', '1809', '1810', '1811', '1813', '1814', '1818', '1820', '1822', '1824', '1826', '1827', '1829', '1830', '1834', '1837', '1838', '1840', '1844', '1847', '1848', '1850', '1851', '1854', '1855', '1857', '1858', '1860', '1862', '1863', '1864', '1865', '1867', '1869', '1870', '1872', '1876', '1877', '1879', '1882', '1883', '1884', '1885', '1886', '1887', '1888', '1890', '1892', '1894', '1895', '1896', '1900', '1902', '1903', '1908', '1910', '1911', '1913', '1918', '1919', '1922', '1925', '1929', '1930', '1932', '1935', '1937', '1938', '1939', '1941', '1942', '1946', '1949', '1950', '1954', '1958', '1959', '1961', '1962', '1963', '1964', '1965', '1971', '1975', '1976', '1977', '1978', '1981', '1983', '1985', '1987', '1989', '1990', '1993', '1996', '1997', '1999', '2000']",True,1000,True,2,b3f17f782b,0.0,0.0,1.0
./expes/v2_2021-03-23_issda-30_2000-prng-1-w1-p2,30_issda-2000,2000,first-2000,500,25,rng,num-start-800,800,25726,classic,1063.3092539310455,True,,False,1.0,1.0,1.0,1,"['4', '8', '13', '14', '16', '18', '23', '27', '35', '36', '39', '43', '45', '49', '51', '53', '56', '58', '59', '61', '63', '64', '67', '76', '78', '81', '82', '88', '90', '95', '101', '106', '107', '108', '109', '117', '121', '125', '147', '150', '153', '160', '169', '170', '172', '179', '186', '187', '191', '199', '201', '202', '210', '211', '218', '225', '231', '234', '238', '242', '256', '258', '260', '270', '276', '277', '279', '282', '284', '291', '293', '298', '301', '304', '318', '319', '330', '333', '335', '344', '348', '349', '351', '361', '365', '368', '369', '373', '375', '377', '387', '388', '390', '393', '401', '404', '408', '409', '410', '411', '413', '419', '421', '428', '429', '431', '433', '435', '439', '451', '452', '455', '458', '460', '463', '466', '467', '471', '482', '489', '492', '495', '504', '507', '512', '516', '517', '522', '523', '529', '532', '536', '538', '540', '545', '549', '550', '551', '555', '561', '562', '567', '570', '571', '573', '578', '580', '584', '585', '597', '601', '607', '608', '626', '630', '632', '635', '637', '638', '639', '640', '641', '658', '660', '661', '663', '671', '676', '681', '687', '691', '696', '699', '700', '705', '712', '717', '718', '724', '725', '729', '730', '735', '738', '740', '744', '745', '746', '747', '748', '749', '751', '753', '755', '761', '768', '776', '778', '781', '782', '788', '789', '790', '796', '797', '805', '808', '810', '819', '821', '829', '834', '835', '837', '845', '850', '851', '856', '858', '861', '867', '868', '869', '875', '879', '881', '884', '886', '888', '892', '893', '901', '902', '909', '912', '919', '920', '934', '936', '941', '942', '943', '952', '958', '962', '967', '972', '976', '977', '978', '986', '989', '995', '997', '1000', '1004', '1008', '1009', '1013', '1021', '1024', '1025', '1026', '1027', '1029', '1032', '1035', '1039', '1043', '1048', '1052', '1053', '1056', '1058', '1059', '1063', '1067', '1068', '1071', '1080', '1081', '1084', '1095', '1096', '1099', '1102', '1105', '1109', '1110', '1115', '1119', '1120', '1125', '1127', '1135', '1137', '1138', '1141', '1143', '1144', '1147', '1154', '1168', '1169', '1174', '1181', '1189', '1190', '1206', '1217', '1221', '1227', '1232', '1234', '1243', '1244', '1245', '1247', '1248', '1252', '1264', '1266', '1268', '1273', '1275', '1276', '1279', '1280', '1285', '1286', '1296', '1299', '1302', '1305', '1307', '1310', '1312', '1313', '1318', '1335', '1338', '1347', '1349', '1351', '1354', '1355', '1356', '1359', '1360', '1365', '1367', '1369', '1370', '1380', '1384', '1390', '1391', '1395', '1396', '1400', '1402', '1403', '1404', '1407', '1410', '1411', '1412', '1414', '1415', '1422', '1425', '1426', '1428', '1430', '1432', '1435', '1444', '1446', '1455', '1465', '1466', '1467', '1473', '1477', '1487', '1488', '1500', '1504', '1505', '1507', '1514', '1520', '1533', '1534', '1543', '1556', '1558', '1560', '1561', '1567', '1570', '1575', '1579', '1581', '1582', '1585', '1588', '1606', '1607', '1609', '1613', '1616', '1617', '1622', '1623', '1625', '1629', '1631', '1634', '1635', '1640', '1641', '1642', '1646', '1654', '1657', '1660', '1665', '1669', '1671', '1677', '1678', '1679', '1682', '1685', '1704', '1707', '1711', '1712', '1722', '1726', '1727', '1731', '1739', '1747', '1751', '1753', '1760', '1761', '1766', '1771', '1773', '1774', '1779', '1788', '1789', '1802', '1807', '1812', '1814', '1816', '1818', '1829', '1832', '1835', '1838', '1839', '1846', '1849', '1851', '1856', '1865', '1866', '1868', '1874', '1875', '1882', '1885', '1893', '1895', '1899', '1900', '1913', '1915', '1918', '1925', '1928', '1933', '1934', '1939', '1941', '1958', '1964', '1971', '1975', '1982', '1989', '1990', '1992', '2000']",True,1000,True,2,b1f6aabeab,0.0,0.0,1.0
./expes/v2_2021-03-23_issda-30_2000-prng-1-w1-p2,30_issda-2000,2000,first-2000,300,15,rng,num-start-1600,1600,25726,classic,956.183531999588,True,,True,1.0,1.0,1.0,1,"['6', '15', '18', '34', '35', '47', '51', '54', '66', '69', '75', '81', '84', '89', '93', '96', '127', '128', '132', '137', '140', '145', '148', '151', '155', '159', '175', '181', '187', '188', '192', '194', '202', '204', '207', '208', '215', '219', '221', '230', '233', '234', '238', '246', '248', '249', '259', '263', '276', '279', '284', '287', '304', '314', '317', '325', '340', '349', '351', '359', '376', '384', '392', '393', '404', '409', '413', '415', '416', '425', '429', '432', '459', '461', '464', '477', '502', '503', '512', '519', '534', '535', '537', '539', '542', '549', '562', '563', '568', '576', '582', '585', '586', '593', '594', '601', '602', '606', '613', '617', '627', '632', '637', '638', '650', '651', '663', '665', '667', '671', '676', '680', '712', '731', '742', '752', '756', '757', '772', '777', '788', '796', '800', '803', '806', '812', '827', '831', '833', '844', '847', '849', '862', '867', '878', '879', '880', '881', '893', '895', '899', '902', '910', '912', '921', '922', '925', '926', '931', '934', '938', '939', '945', '949', '955', '957', '960', '962', '963', '975', '980', '983', '984', '1011', '1012', '1025', '1029', '1030', '1034', '1036', '1043', '1048', '1051', '1054', '1066', '1073', '1083', '1084', '1110', '1111', '1117', '1118', '1121', '1136', '1152', '1166', '1167', '1169', '1181', '1186', '1198', '1204', '1206', '1208', '1211', '1216', '1217', '1219', '1222', '1256', '1265', '1271', '1272', '1283', '1299', '1303', '1305', '1313', '1323', '1329', '1330', '1337', '1339', '1345', '1349', '1351', '1360', '1368', '1385', '1387', '1388', '1396', '1398', '1401', '1406', '1408', '1423', '1426', '1445', '1454', '1465', '1467', '1468', '1470', '1475', '1485', '1491', '1497', '1498', '1503', '1507', '1512', '1528', '1540', '1541', '1548', '1568', '1584', '1587', '1608', '1622', '1642', '1645', '1646', '1647', '1661', '1689', '1692', '1704', '1708', '1710', '1712', '1724', '1729', '1741', '1747', '1748', '1753', '1762', '1774', '1779', '1786', '1790', '1799', '1800', '1801', '1809', '1812', '1824', '1834', '1836', '1838', '1856', '1874', '1885', '1903', '1905', '1916', '1917', '1938', '1946', '1954', '1957', '1959', '1960', '1963', '1977', '1983', '1989', '1993']",False,1000,True,2,2b6612cdd8,0.0,1.0,1.0
./expes/v2_2021-03-23_issda-30_2000-prng-1-w1-p2,30_issda-2000,2000,first-2000,300,15,rng,num-start-4000,4000,25726,classic,1317.3478417396545,True,,False,1.0,1.0,1.0,1,"['1', '9', '25', '47', '48', '53', '56', '77', '81', '96', '99', '102', '108', '111', '119', '121', '122', '123', '125', '127', '128', '129', '134', '138', '141', '144', '145', '149', '150', '159', '166', '168', '170', '176', '177', '186', '187', '192', '193', '200', '208', '210', '212', '213', '226', '237', '240', '242', '252', '254', '258', '265', '273', '281', '296', '299', '301', '305', '309', '310', '312', '331', '333', '338', '341', '345', '361', '369', '371', '374', '385', '391', '421', '422', '426', '428', '440', '447', '453', '458', '473', '476', '478', '493', '500', '508', '509', '517', '535', '539', '543', '553', '570', '571', '578', '583', '589', '590', '594', '611', '614', '615', '632', '635', '639', '643', '644', '653', '664', '697', '701', '702', '704', '711', '712', '718', '728', '735', '741', '745', '746', '749', '752', '757', '763', '771', '780', '791', '801', '804', '808', '809', '813', '815', '816', '818', '821', '823', '851', '857', '859', '864', '870', '876', '882', '889', '903', '913', '920', '929', '935', '936', '946', '954', '955', '971', '972', '981', '984', '987', '991', '994', '1000', '1002', '1012', '1014', '1017', '1018', '1040', '1049', '1056', '1058', '1062', '1076', '1082', '1089', '1095', '1098', '1099', '1108', '1113', '1122', '1126', '1127', '1129', '1141', '1143', '1146', '1148', '1156', '1159', '1160', '1161', '1170', '1174', '1177', '1182', '1184', '1188', '1192', '1194', '1200', '1207', '1218', '1231', '1234', '1248', '1249', '1252', '1257', '1258', '1265', '1268', '1285', '1292', '1300', '1309', '1317', '1326', '1334', '1342', '1349', '1361', '1369', '1370', '1385', '1394', '1396', '1397', '1399', '1414', '1415', '1418', '1424', '1426', '1428', '1432', '1437', '1447', '1459', '1468', '1494', '1498', '1513', '1516', '1517', '1536', '1551', '1553', '1566', '1574', '1592', '1598', '1617', '1627', '1633', '1635', '1672', '1676', '1678', '1682', '1684', '1694', '1698', '1703', '1721', '1732', '1739', '1759', '1760', '1769', '1770', '1784', '1785', '1791', '1792', '1793', '1810', '1811', '1817', '1843', '1861', '1864', '1873', '1878', '1892', '1912', '1927', '1935', '1941', '1942', '1944', '1947', '1948', '1950', '1952', '1957', '1962', '1971', '2000']",True,1000,True,2,f956f3e149,0.0,0.0,1.0
./expes/v2_2021-03-23_issda-30_2000-prng-1-w1-p2,30_issda-2000,2000,first-2000,1000,50,rng,num-start-1200,1200,25726,classic,1095.768281698227,True,,False,1.0,1.0,1.0,1,"['1', '7', '10', '11', '12', '15', '16', '17', '18', '19', '20', '22', '24', '25', '32', '35', '37', '38', '40', '43', '49', '52', '54', '55', '56', '57', '59', '61', '62', '63', '64', '67', '69', '70', '73', '74', '76', '77', '80', '83', '84', '90', '94', '97', '101', '102', '103', '104', '105', '106', '107', '108', '110', '111', '113', '114', '116', '117', '118', '120', '123', '124', '128', '131', '132', '135', '138', '142', '145', '146', '147', '150', '151', '152', '154', '158', '159', '162', '163', '166', '168', '171', '174', '175', '178', '179', '180', '182', '183', '184', '189', '191', '192', '193', '196', '197', '201', '202', '203', '204', '206', '208', '210', '213', '214', '216', '217', '218', '221', '222', '225', '226', '227', '230', '232', '233', '234', '236', '238', '240', '241', '250', '251', '252', '253', '255', '256', '257', '261', '263', '264', '265', '266', '269', '272', '273', '277', '281', '282', '284', '287', '288', '289', '291', '293', '294', '295', '301', '305', '307', '308', '309', '310', '311', '314', '316', '318', '319', '322', '331', '332', '333', '334', '335', '336', '337', '338', '340', '342', '344', '346', '347', '349', '350', '353', '354', '355', '356', '357', '358', '359', '367', '372', '376', '377', '383', '386', '387', '388', '392', '393', '394', '395', '396', '401', '402', '403', '404', '405', '407', '408', '409', '411', '415', '416', '417', '418', '420', '427', '430', '431', '433', '434', '435', '437', '438', '439', '443', '444', '446', '448', '450', '452', '453', '455', '456', '457', '461', '464', '466', '467', '470', '472', '474', '475', '478', '479', '483', '484', '486', '489', '490', '496', '497', '499', '500', '507', '508', '509', '510', '511', '512', '513', '514', '515', '517', '523', '526', '527', '528', '529', '531', '532', '533', '535', '536', '538', '540', '541', '542', '543', '544', '545', '548', '549', '550', '552', '554', '559', '560', '561', '563', '565', '566', '570', '574', '577', '581', '582', '584', '585', '586', '587', '591', '592', '594', '597', '599', '601', '602', '603', '604', '605', '607', '608', '609', '613', '614', '616', '618', '619', '620', '621', '622', '623', '625', '628', '630', '631', '632', '633', '634', '635', '636', '638', '639', '642', '645', '647', '648', '650', '651', '652', '654', '655', '658', '659', '660', '662', '663', '664', '666', '667', '669', '670', '674', '675', '677', '678', '679', '681', '684', '685', '686', '687', '689', '691', '695', '696', '698', '703', '711', '712', '713', '714', '720', '721', '726', '727', '728', '729', '731', '733', '734', '737', '741', '743', '746', '748', '749', '752', '753', '754', '757', '758', '759', '762', '763', '768', '769', '770', '775', '776', '778', '781', '783', '784', '786', '787', '791', '792', '794', '796', '801', '802', '803', '805', '807', '817', '820', '823', '826', '827', '828', '829', '830', '831', '833', '834', '836', '837', '838', '840', '842', '846', '848', '849', '850', '854', '858', '859', '860', '862', '865', '866', '867', '875', '876', '877', '878', '882', '884', '887', '889', '893', '894', '895', '896', '897', '901', '904', '905', '907', '908', '912', '913', '915', '916', '920', '921', '924', '926', '927', '928', '930', '933', '935', '936', '940', '941', '942', '945', '948', '950', '952', '954', '957', '958', '959', '962', '965', '967', '969', '970', '971', '972', '973', '974', '975', '978', '981', '984', '987', '989', '990', '991', '992', '994', '996', '997', '998', '1001', '1002', '1003', '1008', '1009', '1010', '1011', '1012', '1013', '1016', '1018', '1021', '1025', '1026', '1027', '1028', '1029', '1033', '1034', '1037', '1038', '1039', '1040', '1042', '1047', '1050', '1051', '1053', '1054', '1056', '1057', '1060', '1061', '1063', '1064', '1065', '1068', '1069', '1070', '1072', '1075', '1076', '1077', '1080', '1082', '1083', '1087', '1088', '1089', '1090', '1091', '1092', '1095', '1096', '1099', '1100', '1103', '1104', '1105', '1106', '1107', '1109', '1111', '1113', '1114', '1115', '1116', '1121', '1122', '1126', '1129', '1131', '1132', '1133', '1134', '1135', '1138', '1139', '1141', '1143', '1145', '1146', '1147', '1151', '1153', '1154', '1155', '1156', '1161', '1164', '1166', '1167', '1171', '1172', '1176', '1178', '1180', '1182', '1184', '1185', '1188', '1189', '1190', '1191', '1192', '1193', '1197', '1200', '1201', '1202', '1209', '1211', '1212', '1213', '1215', '1218', '1226', '1227', '1228', '1229', '1231', '1234', '1237', '1238', '1241', '1243', '1245', '1247', '1250', '1252', '1253', '1254', '1255', '1256', '1257', '1258', '1259', '1261', '1262', '1264', '1265', '1267', '1271', '1272', '1280', '1281', '1282', '1283', '1284', '1288', '1294', '1295', '1296', '1297', '1298', '1299', '1300', '1302', '1304', '1307', '1309', '1312', '1315', '1320', '1324', '1325', '1326', '1327', '1329', '1330', '1332', '1333', '1339', '1340', '1345', '1347', '1348', '1349', '1350', '1353', '1355', '1359', '1365', '1367', '1369', '1381', '1383', '1386', '1388', '1390', '1393', '1395', '1398', '1399', '1402', '1403', '1404', '1405', '1412', '1413', '1416', '1419', '1422', '1423', '1433', '1434', '1435', '1437', '1438', '1440', '1442', '1443', '1445', '1446', '1447', '1449', '1453', '1455', '1456', '1458', '1459', '1460', '1462', '1464', '1465', '1466', '1472', '1476', '1478', '1481', '1482', '1484', '1485', '1489', '1490', '1493', '1497', '1499', '1502', '1504', '1505', '1507', '1508', '1510', '1511', '1513', '1514', '1521', '1522', '1523', '1525', '1526', '1529', '1531', '1532', '1533', '1534', '1535', '1537', '1540', '1541', '1543', '1546', '1547', '1548', '1550', '1552', '1553', '1554', '1556', '1557', '1561', '1563', '1564', '1565', '1566', '1567', '1568', '1569', '1572', '1573', '1575', '1577', '1579', '1581', '1582', '1584', '1585', '1586', '1591', '1594', '1598', '1600', '1601', '1602', '1603', '1604', '1607', '1610', '1611', '1613', '1614', '1618', '1619', '1622', '1626', '1627', '1628', '1630', '1634', '1635', '1636', '1637', '1640', '1642', '1643', '1644', '1645', '1647', '1649', '1653', '1655', '1656', '1657', '1658', '1659', '1660', '1661', '1662', '1664', '1665', '1666', '1668', '1669', '1670', '1671', '1673', '1674', '1676', '1679', '1680', '1682', '1684', '1685', '1688', '1689', '1692', '1693', '1696', '1698', '1699', '1702', '1703', '1705', '1710', '1711', '1715', '1718', '1719', '1724', '1725', '1727', '1731', '1732', '1734', '1738', '1742', '1744', '1745', '1746', '1747', '1749', '1753', '1755', '1756', '1757', '1759', '1761', '1766', '1769', '1771', '1772', '1774', '1776', '1777', '1778', '1779', '1780', '1783', '1786', '1789', '1791', '1793', '1794', '1795', '1800', '1804', '1805', '1808', '1810', '1813', '1814', '1815', '1819', '1821', '1822', '1823', '1829', '1830', '1833', '1835', '1837', '1838', '1840', '1841', '1842', '1844', '1845', '1847', '1848', '1849', '1856', '1857', '1858', '1859', '1861', '1862', '1864', '1870', '1871', '1872', '1874', '1878', '1880', '1881', '1883', '1884', '1885', '1888', '1889', '1891', '1892', '1893', '1897', '1898', '1899', '1900', '1903', '1904', '1905', '1906', '1907', '1909', '1911', '1916', '1917', '1920', '1923', '1924', '1925', '1926', '1927', '1930', '1931', '1935', '1936', '1943', '1944', '1948', '1949', '1951', '1952', '1955', '1957', '1958', '1960', '1961', '1962', '1964', '1966', '1968', '1970', '1971', '1972', '1973', '1974', '1975', '1976', '1978', '1981', '1982', '1987', '1990', '1992', '1994', '1995', '1996', '1997', '1998']",True,1000,True,2,d4fbf096fb,0.0,0.0,1.0
