expe,clients,clients_size,clients_subset,agg_size,agg_size_pc,method,days,days_size,days_total,noise_method,time,valid,valid_sum,success,score_avg,score_min,score_max,nsols,oracle,wall_hit,wall_time,pooled,pool_size,uuid,infeasible,optimal,valid_sums
./expes/v3_2021-02-24_hi_1000-prng-1-w1-fpa10-0.3-p100,30_issda-1000,1000,first-1000,150,15,rng,num-start-500,500,25726,fpa-09-10-0.3-20,51.72566056251526,False,,False,0.49697751451175437,0.4918088368947584,0.4977527976660773,100,"['5', '6', '16', '33', '34', '36', '38', '45', '46', '67', '74', '78', '82', '83', '99', '116', '123', '137', '138', '143', '147', '154', '161', '163', '165', '169', '171', '179', '181', '183', '196', '200', '212', '230', '242', '245', '246', '249', '252', '256', '269', '274', '282', '285', '291', '309', '310', '311', '322', '328', '333', '336', '340', '356', '358', '364', '370', '372', '375', '384', '385', '391', '394', '400', '415', '423', '425', '431', '432', '440', '444', '446', '447', '451', '453', '457', '459', '462', '467', '468', '474', '482', '492', '495', '502', '504', '508', '509', '514', '534', '535', '547', '550', '558', '563', '581', '586', '592', '597', '599', '616', '618', '622', '629', '633', '665', '669', '670', '674', '677', '678', '683', '690', '692', '698', '703', '730', '764', '787', '791', '792', '795', '797', '827', '831', '833', '838', '841', '844', '847', '863', '865', '876', '881', '886', '891', '919', '920', '932', '935', '943', '947', '964', '966', '969', '971', '976', '987', '993', '994']",False,1000,True,100,d37a2c92f0,0.0,1.0,0.0
./expes/v3_2021-02-24_hi_1000-prng-1-w1-fpa10-0.3-p100,30_issda-1000,1000,first-1000,450,45,rng,num-start-1000,1000,25726,fpa-09-10-0.3-20,136.1349391937256,False,,False,0.27475355398092,0.2702517334501351,0.2785289191377658,100,"['3', '8', '9', '13', '17', '18', '19', '20', '23', '24', '25', '26', '27', '28', '33', '35', '36', '37', '38', '41', '42', '43', '45', '47', '48', '50', '51', '57', '62', '64', '65', '66', '68', '69', '70', '71', '73', '74', '75', '76', '78', '80', '86', '88', '89', '91', '94', '96', '97', '98', '101', '102', '104', '105', '106', '108', '110', '111', '115', '117', '119', '120', '123', '124', '125', '127', '129', '130', '132', '138', '140', '141', '142', '143', '144', '152', '153', '156', '157', '159', '160', '163', '168', '169', '170', '171', '175', '176', '177', '180', '182', '185', '188', '190', '191', '192', '193', '194', '195', '196', '197', '199', '202', '205', '207', '208', '213', '214', '215', '216', '227', '230', '231', '232', '233', '236', '239', '247', '248', '250', '251', '252', '255', '256', '258', '259', '260', '262', '265', '267', '268', '269', '270', '271', '275', '276', '278', '279', '281', '282', '284', '286', '288', '291', '293', '297', '301', '303', '307', '309', '312', '314', '315', '316', '317', '318', '319', '323', '325', '326', '332', '333', '334', '336', '338', '340', '341', '345', '355', '356', '359', '361', '363', '366', '371', '372', '376', '378', '379', '382', '386', '389', '391', '393', '394', '396', '398', '400', '402', '403', '406', '407', '410', '412', '414', '415', '416', '417', '422', '424', '425', '426', '428', '431', '434', '436', '438', '439', '440', '441', '447', '448', '449', '450', '451', '455', '456', '458', '459', '461', '463', '464', '466', '467', '469', '470', '472', '473', '475', '476', '478', '479', '480', '481', '482', '488', '489', '490', '492', '498', '500', '501', '502', '503', '504', '506', '513', '515', '517', '518', '522', '524', '526', '527', '533', '534', '535', '537', '539', '540', '542', '543', '547', '548', '550', '551', '553', '555', '556', '558', '559', '561', '568', '569', '571', '573', '576', '583', '584', '585', '589', '590', '591', '592', '593', '595', '598', '599', '602', '603', '604', '606', '607', '608', '609', '610', '611', '612', '613', '614', '623', '624', '625', '628', '630', '633', '635', '636', '642', '643', '645', '647', '650', '651', '652', '653', '654', '656', '657', '662', '663', '665', '667', '669', '670', '673', '674', '675', '676', '678', '680', '684', '685', '688', '691', '693', '694', '698', '699', '701', '703', '704', '705', '706', '710', '712', '713', '714', '716', '723', '727', '733', '734', '735', '737', '738', '743', '746', '749', '752', '754', '756', '757', '760', '764', '770', '771', '773', '774', '775', '784', '792', '793', '794', '803', '804', '805', '807', '809', '811', '815', '821', '823', '824', '828', '831', '832', '840', '845', '846', '851', '852', '854', '855', '856', '862', '865', '866', '870', '871', '874', '877', '881', '883', '887', '890', '893', '895', '900', '901', '905', '906', '908', '912', '916', '917', '918', '919', '927', '928', '930', '937', '943', '946', '948', '951', '952', '953', '954', '956', '958', '959', '962', '968', '969', '971', '973', '977', '979', '980', '982', '985', '987', '989', '990', '991', '992', '994', '995', '997']",False,1000,True,100,0e19956d0b,0.0,1.0,0.0
./expes/v3_2021-02-24_hi_1000-prng-1-w1-fpa10-0.3-p100,30_issda-1000,1000,first-1000,250,25,rng,num-start-500,500,25726,fpa-09-10-0.3-20,53.05720591545105,False,,False,0.37001989869824653,0.36722800283166734,0.4013695978666315,100,"['8', '10', '19', '21', '27', '33', '37', '38', '42', '44', '45', '46', '48', '53', '57', '61', '64', '69', '80', '84', '85', '89', '92', '93', '100', '104', '106', '109', '117', '120', '126', '140', '146', '149', '154', '157', '159', '163', '166', '169', '173', '174', '177', '182', '183', '189', '193', '197', '199', '200', '201', '204', '206', '207', '208', '213', '214', '220', '221', '225', '228', '235', '238', '239', '242', '244', '248', '249', '254', '255', '256', '257', '260', '261', '266', '267', '268', '269', '279', '283', '284', '285', '287', '288', '293', '296', '297', '298', '299', '300', '301', '308', '311', '313', '318', '320', '323', '329', '330', '331', '332', '333', '335', '340', '346', '352', '365', '366', '369', '372', '373', '374', '382', '391', '397', '398', '406', '412', '413', '420', '421', '423', '424', '428', '432', '434', '435', '439', '442', '447', '450', '452', '455', '463', '466', '471', '474', '483', '485', '490', '491', '503', '504', '507', '511', '519', '521', '532', '533', '539', '542', '548', '550', '560', '561', '563', '572', '579', '584', '586', '587', '597', '603', '610', '614', '621', '622', '631', '633', '636', '642', '643', '648', '650', '651', '657', '663', '664', '668', '669', '670', '688', '690', '692', '694', '697', '715', '718', '722', '726', '735', '739', '750', '753', '755', '763', '765', '784', '791', '793', '794', '799', '803', '810', '817', '820', '824', '827', '833', '838', '847', '849', '851', '855', '860', '861', '866', '869', '876', '883', '887', '889', '891', '892', '902', '904', '911', '913', '916', '918', '923', '927', '931', '936', '939', '940', '950', '951', '958', '965', '966', '968', '978', '983', '984', '985', '986', '988', '990', '994']",False,1000,True,100,68df187313,0.0,1.0,0.0
./expes/v3_2021-02-24_hi_1000-prng-1-w1-fpa10-0.3-p100,30_issda-1000,1000,first-1000,450,45,rng,num-start-200,200,25726,fpa-09-10-0.3-20,21.76456308364868,False,,False,0.30299526844288727,0.2785289191377658,0.317016496197407,100,"['1', '2', '5', '6', '7', '10', '11', '12', '14', '15', '18', '21', '22', '23', '24', '27', '29', '32', '34', '38', '39', '40', '44', '45', '46', '48', '50', '53', '54', '57', '58', '60', '61', '67', '68', '73', '77', '79', '81', '82', '83', '85', '86', '89', '92', '93', '95', '96', '100', '103', '104', '106', '107', '110', '111', '112', '117', '118', '119', '121', '125', '126', '127', '128', '129', '135', '137', '140', '145', '146', '147', '148', '151', '152', '155', '157', '158', '159', '160', '162', '169', '171', '172', '174', '176', '177', '179', '183', '187', '190', '191', '195', '196', '198', '199', '200', '203', '208', '209', '211', '212', '214', '215', '217', '218', '220', '222', '224', '226', '227', '228', '229', '230', '231', '233', '234', '236', '238', '241', '242', '244', '245', '246', '248', '249', '251', '260', '262', '265', '266', '267', '268', '269', '274', '275', '276', '279', '280', '290', '291', '292', '294', '297', '298', '301', '302', '303', '304', '305', '310', '311', '312', '313', '315', '317', '318', '321', '322', '324', '325', '328', '330', '342', '343', '344', '345', '350', '353', '357', '358', '363', '371', '372', '374', '379', '383', '384', '386', '387', '393', '394', '396', '398', '401', '403', '404', '405', '406', '410', '412', '413', '414', '415', '416', '417', '418', '419', '420', '422', '423', '426', '427', '428', '429', '431', '434', '437', '438', '440', '444', '445', '447', '452', '453', '455', '456', '458', '459', '461', '465', '466', '467', '468', '472', '473', '474', '476', '478', '481', '483', '484', '486', '487', '489', '493', '494', '500', '502', '503', '504', '507', '508', '509', '511', '512', '514', '515', '516', '523', '524', '526', '527', '529', '530', '531', '536', '539', '545', '548', '549', '551', '553', '555', '567', '577', '579', '581', '586', '587', '588', '593', '595', '597', '601', '602', '604', '605', '608', '610', '612', '614', '617', '618', '619', '621', '622', '625', '626', '628', '629', '630', '632', '639', '641', '642', '644', '647', '648', '651', '654', '656', '657', '659', '660', '666', '668', '669', '670', '671', '672', '674', '675', '676', '677', '679', '682', '683', '684', '685', '696', '698', '699', '704', '706', '707', '708', '709', '711', '715', '716', '717', '721', '725', '729', '732', '736', '737', '739', '742', '743', '744', '746', '748', '749', '750', '754', '755', '756', '761', '762', '767', '768', '770', '771', '774', '777', '780', '782', '783', '784', '788', '792', '793', '799', '802', '803', '805', '806', '807', '808', '809', '810', '815', '816', '818', '824', '825', '826', '828', '832', '834', '835', '836', '837', '839', '843', '846', '847', '850', '852', '853', '856', '861', '863', '864', '866', '868', '869', '871', '875', '882', '886', '887', '889', '894', '898', '905', '906', '907', '910', '915', '918', '919', '921', '922', '925', '928', '929', '938', '941', '942', '943', '946', '948', '951', '953', '954', '958', '964', '966', '967', '971', '972', '975', '976', '977', '980', '981', '983', '986', '988', '990', '991', '992', '993', '994', '995', '996', '997', '998']",False,1000,True,100,342e38892f,0.0,1.0,0.0
./expes/v3_2021-02-24_hi_1000-prng-1-w1-fpa10-0.3-p100,30_issda-1000,1000,first-1000,100,10,rng,num-start-500,500,25726,fpa-09-10-0.3-20,61.8166561126709,False,,False,0.5882284653815644,0.5731719524419907,0.5923651558488086,100,"['6', '7', '11', '14', '15', '21', '23', '29', '46', '68', '81', '86', '89', '126', '146', '158', '159', '169', '177', '226', '228', '230', '233', '241', '244', '260', '265', '266', '290', '292', '301', '304', '310', '312', '317', '318', '325', '344', '357', '371', '383', '420', '427', '431', '434', '456', '458', '465', '466', '468', '472', '476', '481', '487', '493', '494', '502', '504', '507', '530', '536', '577', '593', '614', '617', '618', '621', '628', '642', '647', '651', '659', '674', '683', '684', '716', '717', '721', '729', '746', '762', '802', '807', '809', '810', '815', '828', '835', '853', '861', '863', '871', '875', '886', '915', '941', '972', '975', '980', '998']",False,1000,True,100,2493c8eccb,0.0,1.0,0.0
./expes/v3_2021-02-24_hi_1000-prng-1-w1-fpa10-0.3-p100,30_issda-1000,1000,first-1000,50,5,rng,num-start-900,900,25726,fpa-09-10-0.3-20,107.9127848148346,False,,False,0.6873730614300299,0.6836140014158336,0.6900062966831486,100,"['11', '72', '75', '110', '122', '126', '154', '165', '169', '229', '253', '262', '267', '270', '278', '282', '299', '311', '324', '346', '367', '370', '404', '407', '461', '478', '529', '540', '565', '610', '631', '647', '648', '668', '675', '680', '682', '701', '720', '752', '753', '774', '797', '824', '828', '892', '894', '924', '931', '963']",False,1000,True,100,f9d7226a87,0.0,1.0,0.0
./expes/v3_2021-02-24_hi_1000-prng-1-w1-fpa10-0.3-p100,30_issda-1000,1000,first-1000,350,35,rng,num-start-900,900,25726,fpa-09-10-0.3-20,129.15826797485352,False,,False,0.31708339064224306,0.3053904100269832,0.3288439447859757,100,"['3', '5', '6', '8', '16', '17', '26', '33', '34', '36', '37', '38', '45', '46', '48', '52', '55', '57', '65', '67', '68', '72', '74', '76', '78', '82', '83', '86', '92', '95', '98', '99', '102', '109', '112', '116', '119', '120', '123', '137', '138', '140', '143', '145', '147', '154', '156', '158', '161', '163', '165', '167', '169', '170', '171', '173', '179', '181', '183', '187', '191', '196', '197', '199', '200', '201', '205', '207', '212', '213', '214', '215', '226', '230', '242', '244', '245', '246', '247', '248', '249', '252', '253', '256', '261', '266', '269', '270', '273', '274', '279', '282', '284', '285', '290', '291', '293', '297', '302', '304', '309', '310', '311', '314', '316', '322', '328', '330', '331', '333', '335', '336', '337', '340', '348', '350', '352', '356', '357', '358', '359', '364', '369', '370', '372', '374', '375', '376', '383', '384', '385', '391', '392', '394', '398', '400', '402', '407', '411', '415', '419', '423', '425', '426', '431', '432', '434', '435', '437', '440', '444', '446', '447', '450', '451', '452', '453', '457', '458', '459', '462', '465', '467', '468', '470', '473', '474', '475', '478', '482', '489', '491', '492', '495', '497', '502', '504', '508', '509', '512', '514', '519', '520', '533', '534', '535', '536', '538', '547', '549', '550', '552', '553', '555', '558', '563', '564', '569', '570', '573', '578', '581', '584', '586', '589', '590', '592', '597', '599', '602', '603', '606', '608', '610', '612', '616', '617', '618', '621', '622', '623', '625', '629', '633', '634', '643', '644', '655', '659', '665', '666', '668', '669', '670', '674', '677', '678', '681', '683', '687', '690', '691', '692', '698', '701', '703', '704', '707', '712', '715', '719', '730', '736', '738', '740', '744', '752', '754', '758', '759', '762', '763', '764', '768', '770', '778', '783', '786', '787', '790', '791', '792', '794', '795', '797', '802', '806', '808', '810', '813', '817', '819', '821', '824', '827', '830', '831', '832', '833', '837', '838', '841', '844', '847', '848', '849', '850', '854', '856', '857', '863', '865', '868', '869', '872', '874', '876', '880', '881', '883', '884', '886', '891', '893', '896', '909', '910', '911', '915', '919', '920', '927', '928', '930', '932', '933', '935', '936', '937', '942', '943', '945', '947', '956', '959', '964', '966', '969', '971', '974', '976', '978', '986', '987', '988', '992', '993', '994', '998', '999']",False,1000,True,100,62f14de7ed,0.0,1.0,0.0
./expes/v3_2021-02-24_hi_1000-prng-1-w1-fpa10-0.3-p100,30_issda-1000,1000,first-1000,400,40,rng,num-start-500,500,25726,fpa-09-10-0.3-20,49.631840229034424,False,,False,0.3118346312851157,0.303950803114834,0.3155524355595466,100,"['3', '4', '5', '6', '15', '16', '23', '28', '30', '31', '32', '33', '35', '36', '37', '40', '42', '44', '45', '47', '49', '51', '54', '55', '56', '57', '63', '71', '73', '76', '80', '83', '87', '89', '92', '94', '95', '97', '103', '106', '110', '113', '115', '119', '121', '125', '129', '130', '132', '133', '134', '135', '137', '139', '141', '143', '146', '147', '150', '151', '152', '153', '154', '155', '158', '159', '161', '164', '165', '169', '171', '172', '181', '184', '187', '191', '192', '195', '196', '198', '199', '200', '208', '209', '213', '217', '219', '220', '221', '224', '229', '231', '232', '237', '240', '242', '244', '245', '250', '251', '254', '255', '258', '260', '263', '264', '265', '266', '268', '269', '270', '271', '275', '276', '278', '283', '287', '295', '297', '298', '301', '302', '303', '304', '306', '307', '309', '311', '314', '315', '316', '319', '322', '324', '325', '328', '331', '340', '341', '342', '343', '350', '352', '354', '355', '356', '360', '365', '368', '370', '373', '376', '378', '380', '381', '382', '384', '385', '386', '397', '398', '400', '403', '406', '407', '408', '416', '418', '420', '424', '427', '435', '436', '439', '440', '441', '442', '445', '446', '448', '451', '452', '453', '455', '456', '460', '461', '462', '471', '472', '473', '475', '482', '483', '486', '488', '491', '493', '494', '496', '499', '503', '509', '510', '513', '514', '530', '533', '534', '535', '536', '537', '539', '540', '541', '544', '545', '546', '547', '548', '549', '550', '557', '559', '561', '563', '564', '568', '569', '570', '574', '578', '579', '584', '585', '587', '588', '592', '593', '595', '598', '600', '603', '604', '606', '607', '609', '610', '612', '615', '618', '621', '623', '624', '626', '629', '633', '635', '636', '638', '643', '645', '646', '649', '654', '655', '657', '659', '661', '665', '666', '667', '668', '670', '671', '673', '683', '686', '687', '691', '694', '698', '701', '702', '708', '712', '715', '716', '718', '719', '721', '723', '732', '734', '736', '737', '741', '743', '745', '746', '747', '750', '751', '752', '754', '757', '758', '763', '764', '767', '769', '774', '777', '779', '781', '782', '785', '792', '793', '796', '804', '806', '807', '813', '814', '818', '821', '822', '823', '826', '827', '829', '830', '832', '840', '841', '842', '844', '845', '846', '847', '848', '852', '854', '855', '857', '858', '859', '860', '867', '870', '871', '873', '875', '883', '885', '888', '889', '890', '891', '893', '898', '899', '907', '908', '909', '910', '911', '912', '915', '917', '920', '923', '924', '926', '928', '929', '932', '933', '935', '941', '943', '944', '949', '955', '956', '958', '960', '961', '966', '973', '975', '976', '977', '982', '983', '985', '991', '994', '995']",False,1000,True,100,5e3d97020f,0.0,1.0,0.0
./expes/v3_2021-02-24_hi_1000-prng-1-w1-fpa10-0.3-p100,30_issda-1000,1000,first-1000,50,5,rng,num-start-800,800,25726,fpa-09-10-0.3-20,104.68223118782043,False,,False,0.6902812865947981,0.686793840900122,0.6998498874061678,100,"['6', '11', '21', '23', '29', '146', '158', '226', '228', '230', '233', '244', '260', '265', '266', '292', '304', '310', '318', '344', '371', '420', '427', '431', '458', '468', '476', '481', '493', '614', '617', '618', '621', '642', '647', '651', '674', '683', '684', '721', '729', '762', '802', '809', '828', '835', '875', '915', '975', '980']",False,1000,True,100,c9af481459,0.0,1.0,0.0
./expes/v3_2021-02-24_hi_1000-prng-1-w1-fpa10-0.3-p100,30_issda-1000,1000,first-1000,450,45,rng,num-start-900,900,25726,fpa-09-10-0.3-20,116.32117080688477,False,,False,0.3073277475416223,0.30251416753708427,0.31409149992840113,100,"['6', '8', '9', '10', '11', '13', '16', '19', '20', '22', '27', '28', '29', '30', '31', '35', '37', '51', '52', '53', '54', '55', '56', '60', '62', '64', '66', '68', '71', '73', '74', '75', '76', '77', '79', '80', '81', '83', '84', '86', '88', '89', '96', '97', '101', '102', '107', '109', '113', '114', '116', '120', '121', '126', '127', '128', '129', '131', '132', '133', '141', '142', '144', '146', '147', '153', '154', '155', '156', '158', '166', '167', '168', '169', '173', '174', '175', '177', '179', '184', '188', '189', '193', '194', '196', '197', '198', '201', '202', '203', '204', '206', '209', '214', '216', '217', '218', '219', '222', '224', '228', '231', '235', '236', '237', '242', '243', '245', '248', '249', '250', '255', '256', '257', '258', '259', '262', '264', '265', '266', '269', '270', '272', '273', '274', '276', '277', '280', '283', '285', '289', '291', '292', '296', '297', '301', '302', '303', '304', '309', '310', '311', '313', '315', '316', '317', '318', '320', '321', '324', '325', '326', '327', '330', '334', '337', '339', '341', '343', '344', '345', '346', '348', '356', '357', '361', '364', '365', '366', '369', '372', '373', '375', '377', '379', '382', '384', '385', '388', '389', '393', '394', '398', '401', '403', '410', '412', '413', '414', '415', '416', '417', '418', '419', '420', '425', '427', '430', '431', '433', '434', '438', '439', '441', '444', '445', '447', '449', '454', '456', '457', '460', '461', '464', '467', '471', '474', '475', '479', '484', '486', '487', '489', '492', '495', '497', '499', '504', '505', '506', '507', '508', '513', '514', '515', '517', '519', '520', '527', '528', '529', '531', '532', '535', '536', '538', '539', '540', '541', '546', '548', '550', '552', '553', '554', '556', '557', '558', '561', '563', '565', '567', '568', '569', '570', '571', '573', '578', '582', '583', '586', '589', '590', '592', '593', '594', '596', '597', '601', '605', '606', '613', '615', '619', '625', '627', '628', '632', '636', '641', '642', '648', '649', '651', '652', '655', '656', '663', '665', '666', '670', '674', '675', '678', '680', '684', '692', '693', '698', '699', '701', '702', '703', '706', '708', '717', '721', '722', '723', '725', '728', '729', '733', '739', '742', '743', '745', '747', '749', '750', '755', '757', '762', '763', '765', '766', '767', '768', '769', '770', '771', '772', '773', '774', '776', '777', '778', '779', '782', '783', '784', '785', '790', '791', '793', '797', '799', '800', '801', '802', '804', '806', '807', '811', '813', '814', '819', '821', '822', '823', '825', '827', '831', '832', '833', '835', '837', '838', '840', '841', '842', '845', '847', '849', '851', '853', '858', '860', '863', '867', '871', '875', '877', '880', '881', '885', '886', '889', '890', '895', '897', '903', '904', '910', '912', '915', '919', '920', '921', '922', '924', '928', '929', '930', '931', '932', '935', '939', '940', '943', '944', '946', '947', '949', '953', '954', '956', '959', '962', '963', '964', '965', '966', '968', '972', '975', '979', '980', '981', '983', '984', '985', '988', '991', '994', '995', '996', '997', '998', '999']",False,1000,True,100,d500178577,0.0,1.0,0.0
./expes/v3_2021-02-24_hi_1000-prng-1-w1-fpa10-0.3-p100,30_issda-1000,1000,first-1000,500,50,rng,num-start-900,900,25726,fpa-09-10-0.3-20,119.60061526298523,False,,False,0.2796748103652538,0.2757593462636023,0.30251416753708427,100,"['4', '5', '7', '13', '14', '15', '18', '21', '23', '24', '27', '29', '32', '33', '34', '35', '36', '38', '39', '40', '41', '45', '47', '51', '53', '59', '60', '63', '65', '66', '67', '68', '71', '72', '74', '77', '82', '83', '84', '85', '86', '87', '88', '89', '90', '92', '93', '95', '96', '98', '100', '103', '105', '109', '110', '111', '112', '114', '115', '117', '120', '124', '125', '128', '130', '131', '136', '139', '141', '143', '144', '145', '146', '147', '152', '153', '154', '158', '159', '161', '163', '164', '165', '168', '171', '174', '175', '177', '178', '179', '180', '181', '182', '183', '190', '192', '195', '196', '197', '198', '199', '201', '203', '204', '206', '207', '211', '213', '215', '216', '217', '223', '224', '226', '228', '230', '231', '233', '235', '237', '238', '239', '240', '241', '242', '249', '250', '251', '252', '254', '256', '261', '262', '265', '271', '273', '274', '276', '278', '281', '284', '290', '292', '293', '295', '296', '297', '298', '299', '301', '303', '304', '306', '307', '308', '309', '310', '317', '320', '321', '322', '327', '328', '329', '332', '334', '335', '346', '347', '349', '351', '352', '353', '355', '356', '357', '360', '365', '366', '367', '369', '370', '371', '373', '374', '375', '376', '377', '378', '379', '380', '381', '382', '384', '385', '386', '387', '388', '389', '390', '391', '393', '394', '396', '398', '399', '400', '401', '404', '406', '407', '411', '413', '417', '418', '420', '422', '425', '427', '428', '430', '434', '436', '437', '438', '440', '442', '443', '445', '447', '448', '451', '453', '456', '457', '460', '464', '465', '467', '468', '469', '471', '474', '483', '485', '486', '488', '489', '491', '496', '497', '500', '501', '502', '507', '509', '510', '511', '512', '513', '514', '515', '516', '517', '518', '519', '520', '523', '525', '527', '529', '530', '533', '534', '537', '538', '539', '540', '541', '542', '545', '547', '548', '553', '559', '561', '570', '571', '573', '575', '577', '578', '580', '581', '583', '587', '588', '591', '593', '594', '595', '596', '599', '600', '603', '611', '615', '616', '619', '620', '622', '625', '627', '628', '629', '633', '636', '637', '639', '640', '641', '644', '646', '648', '651', '655', '658', '660', '662', '663', '664', '666', '667', '668', '669', '670', '671', '672', '673', '674', '675', '677', '679', '680', '684', '686', '687', '690', '693', '697', '701', '702', '704', '705', '707', '708', '709', '712', '716', '718', '719', '722', '723', '726', '727', '728', '733', '735', '736', '737', '739', '743', '744', '746', '747', '751', '753', '754', '755', '759', '761', '762', '763', '766', '767', '768', '772', '774', '778', '781', '783', '785', '786', '787', '799', '800', '801', '803', '806', '808', '810', '813', '816', '824', '827', '828', '831', '833', '834', '835', '837', '839', '841', '843', '845', '846', '848', '849', '850', '851', '852', '854', '855', '856', '857', '858', '859', '860', '862', '863', '864', '865', '867', '868', '871', '873', '876', '878', '880', '881', '886', '888', '890', '897', '899', '900', '903', '904', '905', '909', '910', '912', '913', '915', '917', '919', '922', '924', '925', '926', '927', '928', '929', '930', '931', '932', '934', '935', '939', '941', '942', '943', '945', '948', '950', '951', '952', '954', '955', '956', '959', '960', '965', '968', '969', '970', '971', '973', '981', '982', '983', '986', '988', '989', '991', '992', '994', '995', '997', '999']",False,1000,True,100,dfe6c68ee7,0.0,1.0,0.0
./expes/v3_2021-02-24_hi_1000-prng-1-w1-fpa10-0.3-p100,30_issda-1000,1000,first-1000,400,40,rng,num-start-200,200,25726,fpa-09-10-0.3-20,21.43091130256653,False,,False,0.30263125868130036,0.298221906517101,0.3068330067866182,100,"['3', '4', '5', '6', '15', '16', '23', '28', '30', '31', '32', '33', '35', '36', '37', '40', '42', '44', '45', '47', '49', '51', '54', '55', '56', '57', '63', '71', '73', '76', '80', '83', '87', '89', '92', '94', '95', '97', '103', '106', '110', '113', '115', '119', '121', '125', '129', '130', '132', '133', '134', '135', '137', '139', '141', '143', '146', '147', '150', '151', '152', '153', '154', '155', '158', '159', '161', '164', '165', '169', '171', '172', '181', '184', '187', '191', '192', '195', '196', '198', '199', '200', '208', '209', '213', '217', '219', '220', '221', '224', '229', '231', '232', '237', '240', '242', '244', '245', '250', '251', '254', '255', '258', '260', '263', '264', '265', '266', '268', '269', '270', '271', '275', '276', '278', '283', '287', '295', '297', '298', '301', '302', '303', '304', '306', '307', '309', '311', '314', '315', '316', '319', '322', '324', '325', '328', '331', '340', '341', '342', '343', '350', '352', '354', '355', '356', '360', '365', '368', '370', '373', '376', '378', '380', '381', '382', '384', '385', '386', '397', '398', '400', '403', '406', '407', '408', '416', '418', '420', '424', '427', '435', '436', '439', '440', '441', '442', '445', '446', '448', '451', '452', '453', '455', '456', '460', '461', '462', '471', '472', '473', '475', '482', '483', '486', '488', '491', '493', '494', '496', '499', '503', '509', '510', '513', '514', '530', '533', '534', '535', '536', '537', '539', '540', '541', '544', '545', '546', '547', '548', '549', '550', '557', '559', '561', '563', '564', '568', '569', '570', '574', '578', '579', '584', '585', '587', '588', '592', '593', '595', '598', '600', '603', '604', '606', '607', '609', '610', '612', '615', '618', '621', '623', '624', '626', '629', '633', '635', '636', '638', '643', '645', '646', '649', '654', '655', '657', '659', '661', '665', '666', '667', '668', '670', '671', '673', '683', '686', '687', '691', '694', '698', '701', '702', '708', '712', '715', '716', '718', '719', '721', '723', '732', '734', '736', '737', '741', '743', '745', '746', '747', '750', '751', '752', '754', '757', '758', '763', '764', '767', '769', '774', '777', '779', '781', '782', '785', '792', '793', '796', '804', '806', '807', '813', '814', '818', '821', '822', '823', '826', '827', '829', '830', '832', '840', '841', '842', '844', '845', '846', '847', '848', '852', '854', '855', '857', '858', '859', '860', '867', '870', '871', '873', '875', '883', '885', '888', '889', '890', '891', '893', '898', '899', '907', '908', '909', '910', '911', '912', '915', '917', '920', '923', '924', '926', '928', '929', '932', '933', '935', '941', '943', '944', '949', '955', '956', '958', '960', '961', '966', '973', '975', '976', '977', '982', '983', '985', '991', '994', '995']",False,1000,True,100,1024981110,0.0,1.0,0.0
