expe,clients,clients_size,clients_subset,agg_size,agg_size_pc,method,days,days_size,days_total,noise_method,time,valid,valid_sum,success,score_avg,score_min,score_max,nsols,oracle,wall_hit,wall_time,pooled,pool_size,uuid,infeasible,optimal,valid_sums
./expes/v3_2021-02-24_hi_1000-prng-1-w1-fpa10-0.3-p100,30_issda-1000,1000,first-1000,450,45,rng,num-start-400,400,25726,fpa-09-10-0.3-20,28.928609371185303,False,,False,0.29125369730897904,0.2883072948901987,0.2925394000366518,100,"['1', '4', '6', '7', '8', '9', '12', '13', '14', '16', '18', '19', '20', '23', '25', '27', '28', '30', '31', '35', '36', '37', '40', '42', '43', '44', '45', '49', '50', '52', '53', '54', '55', '56', '57', '60', '61', '62', '63', '65', '66', '67', '68', '69', '71', '74', '77', '78', '81', '83', '84', '85', '86', '87', '88', '89', '90', '91', '94', '95', '96', '97', '99', '102', '103', '105', '106', '107', '109', '112', '113', '114', '115', '121', '123', '124', '125', '132', '133', '136', '137', '141', '142', '143', '145', '146', '149', '152', '153', '161', '166', '167', '168', '169', '173', '174', '175', '176', '177', '178', '181', '186', '191', '192', '194', '197', '203', '204', '205', '206', '208', '210', '211', '214', '215', '216', '217', '219', '226', '227', '228', '230', '233', '237', '242', '243', '244', '249', '250', '254', '255', '258', '260', '263', '266', '269', '270', '274', '275', '277', '281', '282', '284', '285', '288', '292', '298', '299', '302', '304', '308', '309', '310', '315', '317', '323', '326', '330', '332', '333', '337', '338', '339', '342', '343', '344', '346', '347', '350', '355', '356', '358', '362', '364', '374', '375', '379', '381', '382', '383', '388', '389', '391', '393', '395', '396', '398', '399', '407', '408', '409', '411', '412', '413', '417', '420', '422', '427', '428', '431', '432', '433', '435', '436', '439', '441', '444', '447', '450', '451', '455', '458', '460', '462', '463', '465', '467', '468', '470', '473', '475', '478', '479', '482', '486', '487', '490', '493', '494', '502', '504', '507', '508', '509', '510', '513', '515', '518', '519', '522', '523', '527', '530', '531', '532', '535', '537', '540', '542', '547', '549', '551', '553', '555', '556', '557', '558', '559', '561', '562', '566', '568', '569', '570', '573', '574', '576', '577', '579', '580', '583', '587', '588', '589', '590', '593', '594', '595', '599', '600', '603', '605', '606', '608', '612', '614', '618', '619', '620', '621', '622', '623', '624', '626', '627', '628', '632', '638', '640', '641', '642', '645', '650', '653', '655', '658', '659', '661', '664', '667', '675', '680', '684', '686', '687', '688', '691', '693', '695', '696', '698', '700', '705', '710', '711', '713', '714', '717', '718', '721', '723', '726', '727', '729', '733', '735', '737', '738', '743', '744', '745', '746', '748', '752', '754', '755', '756', '759', '764', '765', '766', '771', '779', '780', '782', '783', '784', '790', '791', '792', '793', '794', '795', '797', '799', '800', '802', '803', '806', '809', '813', '814', '816', '818', '819', '820', '823', '827', '829', '830', '835', '841', '843', '853', '854', '858', '864', '866', '867', '872', '873', '880', '881', '885', '888', '889', '890', '893', '896', '897', '898', '899', '900', '901', '902', '903', '905', '908', '909', '911', '914', '915', '917', '918', '919', '920', '921', '924', '928', '929', '932', '934', '940', '942', '943', '944', '946', '947', '954', '959', '961', '963', '964', '967', '969', '970', '974', '975', '977', '979', '982', '984', '985', '986', '988', '990', '991', '992', '999', '1000']",False,1000,True,100,1282f0aa1e,0.0,1.0,0.0
./expes/v3_2021-02-24_hi_1000-prng-1-w1-fpa10-0.3-p100,30_issda-1000,1000,first-1000,350,35,rng,num-start-400,400,25726,fpa-09-10-0.3-20,30.720240831375122,False,,False,0.3423781263181362,0.3199540732697074,0.3439280295345407,100,"['4', '8', '10', '11', '14', '19', '21', '27', '28', '33', '36', '37', '38', '42', '43', '44', '45', '46', '48', '53', '55', '57', '61', '62', '64', '69', '77', '80', '81', '82', '84', '85', '88', '89', '92', '93', '96', '100', '104', '106', '109', '116', '117', '119', '120', '126', '131', '140', '143', '146', '149', '154', '157', '159', '161', '163', '166', '169', '170', '172', '173', '174', '177', '182', '183', '189', '193', '196', '197', '199', '200', '201', '204', '206', '207', '208', '211', '213', '214', '216', '217', '220', '221', '224', '225', '228', '235', '238', '239', '242', '244', '248', '249', '254', '255', '256', '257', '260', '261', '264', '266', '267', '268', '269', '275', '276', '279', '283', '284', '285', '287', '288', '293', '296', '297', '298', '299', '300', '301', '304', '305', '308', '311', '313', '318', '320', '323', '329', '330', '331', '332', '333', '335', '339', '340', '345', '346', '347', '352', '356', '365', '366', '369', '372', '373', '374', '382', '391', '397', '398', '400', '402', '405', '406', '412', '413', '414', '420', '421', '423', '424', '428', '431', '432', '434', '435', '439', '441', '442', '447', '450', '451', '452', '455', '463', '465', '466', '471', '474', '476', '483', '484', '485', '490', '491', '501', '503', '504', '507', '509', '511', '519', '521', '532', '533', '536', '539', '540', '541', '542', '548', '550', '557', '560', '561', '563', '564', '572', '575', '576', '579', '583', '584', '586', '587', '597', '603', '609', '610', '614', '621', '622', '623', '625', '631', '633', '635', '636', '642', '643', '648', '650', '651', '657', '658', '663', '664', '668', '669', '670', '671', '673', '684', '685', '688', '690', '692', '694', '697', '703', '705', '713', '715', '718', '722', '726', '735', '739', '750', '753', '755', '763', '765', '784', '786', '787', '789', '791', '793', '794', '799', '802', '803', '804', '807', '810', '817', '818', '819', '820', '821', '824', '827', '830', '833', '835', '838', '839', '847', '848', '849', '851', '855', '858', '860', '861', '866', '869', '876', '877', '880', '883', '886', '887', '889', '891', '892', '895', '898', '899', '900', '901', '902', '904', '911', '913', '914', '916', '918', '921', '922', '923', '927', '931', '936', '938', '939', '940', '945', '947', '950', '951', '953', '958', '965', '966', '967', '968', '974', '978', '980', '983', '984', '985', '986', '988', '990', '992', '994', '995']",False,1000,True,100,a61c691bfa,0.0,1.0,0.0
./expes/v3_2021-02-24_hi_1000-prng-1-w1-fpa10-0.3-p100,30_issda-1000,1000,first-1000,200,20,rng,num-start-400,400,25726,fpa-09-10-0.3-20,28.81696605682373,False,,False,0.43569999822278715,0.4287502067166008,0.4411509038100604,100,"['3', '4', '6', '15', '31', '37', '40', '44', '45', '71', '73', '76', '80', '87', '95', '115', '121', '125', '130', '134', '135', '139', '141', '143', '146', '151', '159', '164', '169', '172', '181', '184', '187', '191', '192', '198', '200', '208', '217', '220', '231', '237', '240', '242', '244', '258', '260', '263', '266', '269', '270', '276', '283', '287', '298', '301', '302', '303', '309', '319', '322', '328', '343', '350', '352', '355', '360', '365', '368', '373', '376', '381', '384', '400', '406', '418', '424', '435', '440', '441', '442', '448', '451', '455', '456', '460', '462', '471', '475', '482', '499', '503', '509', '510', '533', '535', '536', '540', '545', '546', '549', '557', '563', '564', '568', '569', '570', '574', '578', '579', '584', '592', '595', '598', '606', '609', '610', '612', '618', '621', '624', '626', '633', '645', '646', '649', '654', '655', '657', '659', '661', '667', '668', '671', '673', '683', '687', '694', '701', '702', '708', '712', '715', '716', '719', '721', '723', '734', '737', '741', '746', '747', '751', '752', '754', '763', '767', '774', '779', '807', '813', '814', '818', '822', '823', '826', '827', '830', '840', '846', '847', '855', '858', '859', '867', '870', '871', '873', '875', '883', '889', '890', '891', '893', '899', '908', '910', '911', '912', '920', '923', '924', '929', '932', '956', '961', '973', '977', '994', '995']",False,1000,True,100,bfd0443be1,0.0,1.0,0.0
./expes/v3_2021-02-24_hi_1000-prng-1-w1-fpa10-0.3-p100,30_issda-1000,1000,first-1000,200,20,rng,num-start-700,700,25726,fpa-09-10-0.3-20,50.79914927482605,False,,False,0.4318441070411726,0.4287502067166008,0.43403152002932144,100,"['3', '5', '6', '16', '33', '34', '36', '37', '38', '45', '46', '52', '65', '67', '74', '78', '82', '83', '95', '99', '102', '112', '116', '123', '137', '138', '140', '143', '147', '154', '156', '161', '163', '165', '169', '170', '171', '179', '181', '183', '196', '200', '212', '230', '242', '245', '246', '248', '249', '252', '256', '266', '269', '274', '279', '282', '285', '291', '309', '310', '311', '322', '328', '333', '336', '340', '352', '356', '358', '359', '364', '370', '372', '375', '384', '385', '391', '394', '398', '400', '411', '415', '423', '425', '426', '431', '432', '440', '444', '446', '447', '450', '451', '452', '453', '457', '458', '459', '462', '465', '467', '468', '470', '473', '474', '482', '492', '495', '497', '502', '504', '508', '509', '512', '514', '533', '534', '535', '538', '547', '549', '550', '552', '555', '558', '563', '573', '581', '586', '592', '597', '599', '616', '617', '618', '622', '623', '629', '633', '665', '669', '670', '674', '677', '678', '683', '690', '691', '692', '698', '703', '719', '730', '744', '754', '764', '787', '791', '792', '794', '795', '797', '808', '819', '827', '831', '833', '838', '841', '844', '847', '849', '854', '863', '865', '876', '881', '883', '886', '891', '893', '915', '919', '920', '932', '933', '935', '943', '945', '947', '964', '966', '969', '971', '976', '987', '992', '993', '994', '998']",False,1000,True,100,53b6493eb7,0.0,1.0,0.0
./expes/v3_2021-02-24_hi_1000-prng-1-w1-fpa10-0.3-p100,30_issda-1000,1000,first-1000,300,30,rng,num-start-1000,1000,25726,fpa-09-10-0.3-20,93.46070122718811,False,,False,0.3469770483016356,0.3393666399307128,0.35780656153117507,100,"['2', '4', '7', '9', '12', '18', '20', '25', '27', '28', '29', '30', '31', '32', '34', '38', '39', '41', '45', '48', '53', '54', '61', '63', '74', '75', '77', '80', '85', '86', '90', '93', '94', '96', '101', '106', '116', '117', '119', '121', '128', '135', '139', '142', '146', '147', '149', '159', '160', '165', '167', '168', '172', '176', '181', '183', '184', '185', '187', '194', '197', '204', '205', '206', '210', '214', '215', '216', '218', '220', '226', '228', '229', '234', '236', '241', '246', '248', '252', '254', '259', '262', '265', '268', '269', '273', '275', '276', '278', '281', '284', '285', '287', '289', '292', '299', '318', '319', '320', '321', '331', '332', '338', '341', '344', '346', '348', '350', '353', '356', '359', '362', '363', '365', '370', '372', '373', '375', '377', '378', '381', '384', '389', '391', '394', '395', '398', '404', '411', '415', '417', '426', '428', '429', '431', '434', '438', '441', '442', '444', '446', '447', '451', '455', '456', '460', '467', '471', '472', '476', '481', '484', '486', '488', '489', '493', '495', '502', '504', '511', '513', '514', '515', '516', '520', '522', '524', '526', '527', '528', '532', '534', '540', '542', '548', '553', '555', '560', '563', '564', '569', '571', '572', '574', '577', '584', '587', '591', '595', '603', '611', '614', '616', '617', '622', '623', '624', '626', '632', '634', '637', '638', '640', '643', '653', '654', '655', '656', '657', '659', '674', '676', '677', '678', '680', '683', '685', '690', '692', '695', '696', '698', '700', '701', '702', '704', '706', '707', '708', '711', '713', '714', '718', '722', '728', '737', '739', '744', '752', '754', '757', '767', '772', '778', '779', '784', '785', '790', '791', '803', '807', '809', '812', '813', '815', '817', '818', '821', '830', '836', '839', '840', '843', '852', '863', '877', '880', '883', '886', '887', '895', '904', '907', '908', '916', '920', '923', '926', '928', '933', '934', '937', '938', '941', '943', '947', '950', '957', '958', '959', '964', '967', '970', '971', '979', '982', '986', '991', '995', '1000']",False,1000,True,100,982b7663d0,0.0,1.0,0.0
./expes/v3_2021-02-24_hi_1000-prng-1-w1-fpa10-0.3-p100,30_issda-1000,1000,first-1000,500,50,rng,num-start-200,200,25726,fpa-09-10-0.3-20,14.679071187973022,False,,False,0.2972402808806998,0.2869021746572855,0.301080484970917,100,"['1', '4', '6', '7', '8', '9', '10', '12', '13', '14', '16', '18', '19', '20', '21', '23', '25', '27', '28', '30', '31', '35', '36', '37', '40', '42', '43', '44', '45', '49', '50', '52', '53', '54', '55', '56', '57', '60', '61', '62', '63', '65', '66', '67', '68', '69', '71', '74', '77', '78', '81', '83', '84', '85', '86', '87', '88', '89', '90', '91', '94', '95', '96', '97', '99', '102', '103', '105', '106', '107', '109', '112', '113', '114', '115', '121', '123', '124', '125', '132', '133', '136', '137', '138', '139', '141', '142', '143', '145', '146', '148', '149', '151', '152', '153', '161', '166', '167', '168', '169', '173', '174', '175', '176', '177', '178', '181', '183', '184', '186', '187', '191', '192', '194', '197', '203', '204', '205', '206', '207', '208', '210', '211', '214', '215', '216', '217', '219', '222', '226', '227', '228', '230', '233', '237', '238', '242', '243', '244', '249', '250', '254', '255', '258', '260', '263', '266', '269', '270', '274', '275', '277', '280', '281', '282', '284', '285', '286', '288', '292', '298', '299', '302', '304', '308', '309', '310', '314', '315', '317', '323', '326', '329', '330', '332', '333', '337', '338', '339', '342', '343', '344', '346', '347', '349', '350', '353', '355', '356', '358', '362', '364', '366', '368', '374', '375', '379', '381', '382', '383', '388', '389', '391', '393', '395', '396', '398', '399', '405', '407', '408', '409', '411', '412', '413', '414', '417', '420', '422', '427', '428', '431', '432', '433', '435', '436', '438', '439', '441', '444', '447', '450', '451', '455', '458', '460', '462', '463', '465', '467', '468', '470', '473', '475', '478', '479', '482', '486', '487', '490', '491', '493', '494', '502', '504', '507', '508', '509', '510', '513', '515', '518', '519', '521', '522', '523', '527', '528', '530', '531', '532', '535', '536', '537', '540', '542', '547', '549', '551', '553', '555', '556', '557', '558', '559', '561', '562', '566', '568', '569', '570', '573', '574', '576', '577', '579', '580', '581', '583', '585', '587', '588', '589', '590', '593', '594', '595', '599', '600', '601', '603', '605', '606', '608', '612', '614', '616', '618', '619', '620', '621', '622', '623', '624', '626', '627', '628', '632', '638', '640', '641', '642', '645', '650', '653', '655', '658', '659', '661', '664', '665', '667', '675', '680', '684', '686', '687', '688', '691', '693', '694', '695', '696', '697', '698', '700', '701', '705', '707', '710', '711', '713', '714', '717', '718', '721', '723', '726', '727', '729', '733', '735', '737', '738', '743', '744', '745', '746', '748', '752', '754', '755', '756', '759', '762', '764', '765', '766', '767', '771', '773', '779', '780', '781', '782', '783', '784', '790', '791', '792', '793', '794', '795', '796', '797', '798', '799', '800', '802', '803', '806', '809', '813', '814', '816', '818', '819', '820', '823', '827', '829', '830', '835', '841', '843', '844', '853', '854', '858', '860', '864', '866', '867', '872', '873', '880', '881', '885', '887', '888', '889', '890', '893', '896', '897', '898', '899', '900', '901', '902', '903', '905', '908', '909', '910', '911', '914', '915', '917', '918', '919', '920', '921', '924', '925', '928', '929', '931', '932', '934', '937', '940', '942', '943', '944', '946', '947', '952', '954', '959', '961', '963', '964', '967', '969', '970', '974', '975', '977', '979', '982', '984', '985', '986', '988', '990', '991', '992', '999', '1000']",False,1000,True,100,6b0e0dfe9d,0.0,1.0,0.0
./expes/v3_2021-02-24_hi_1000-prng-1-w1-fpa10-0.3-p100,30_issda-1000,1000,first-1000,500,50,rng,num-start-500,500,25726,fpa-09-10-0.3-20,36.373719453811646,False,,False,0.27933760625544934,0.2743785239351536,0.2953749248738756,100,"['1', '5', '6', '7', '10', '12', '13', '15', '16', '17', '18', '19', '20', '21', '22', '23', '26', '29', '30', '31', '33', '35', '36', '37', '38', '39', '40', '42', '43', '44', '46', '48', '49', '54', '61', '62', '65', '66', '69', '71', '72', '74', '75', '76', '77', '78', '80', '81', '83', '85', '86', '87', '88', '89', '90', '93', '95', '97', '102', '103', '104', '107', '111', '112', '116', '118', '119', '120', '121', '125', '127', '130', '131', '133', '134', '135', '138', '139', '140', '142', '144', '145', '146', '147', '150', '153', '158', '162', '163', '164', '169', '174', '178', '180', '181', '182', '183', '184', '188', '190', '191', '192', '193', '195', '196', '201', '202', '203', '204', '205', '206', '208', '209', '210', '214', '215', '216', '218', '219', '220', '224', '225', '227', '230', '232', '234', '236', '240', '244', '245', '248', '249', '253', '256', '257', '261', '262', '263', '264', '265', '269', '273', '276', '277', '279', '280', '282', '284', '285', '287', '288', '289', '296', '298', '301', '302', '304', '309', '311', '312', '317', '318', '319', '320', '323', '325', '327', '329', '335', '337', '339', '341', '344', '345', '350', '351', '352', '355', '357', '360', '361', '363', '367', '371', '377', '378', '381', '385', '386', '387', '389', '391', '392', '393', '394', '396', '398', '400', '402', '403', '404', '405', '406', '407', '411', '415', '417', '420', '421', '422', '424', '427', '428', '430', '431', '432', '440', '442', '450', '451', '452', '453', '457', '458', '459', '462', '463', '464', '465', '466', '469', '474', '475', '476', '477', '482', '483', '484', '485', '487', '488', '491', '493', '494', '495', '496', '498', '499', '500', '503', '505', '506', '509', '510', '511', '512', '513', '515', '516', '517', '521', '522', '525', '526', '527', '529', '531', '532', '533', '535', '536', '537', '540', '542', '544', '546', '548', '549', '550', '552', '553', '555', '558', '560', '564', '565', '568', '573', '574', '576', '577', '578', '580', '583', '585', '586', '587', '589', '591', '593', '595', '597', '598', '599', '602', '605', '606', '607', '610', '611', '613', '615', '616', '617', '619', '620', '623', '624', '625', '626', '627', '629', '630', '631', '638', '639', '640', '641', '643', '645', '646', '650', '652', '655', '656', '657', '658', '660', '665', '666', '667', '669', '670', '671', '673', '676', '679', '682', '688', '689', '692', '695', '699', '701', '702', '704', '706', '708', '711', '715', '716', '717', '718', '721', '722', '724', '725', '726', '729', '732', '734', '735', '736', '738', '740', '741', '743', '746', '747', '749', '750', '751', '753', '755', '757', '758', '767', '769', '772', '773', '774', '775', '777', '785', '787', '788', '792', '797', '798', '799', '800', '807', '810', '811', '813', '816', '817', '818', '820', '821', '823', '824', '826', '827', '829', '830', '838', '840', '842', '844', '849', '850', '851', '852', '853', '858', '859', '860', '861', '863', '864', '866', '867', '868', '870', '872', '873', '875', '876', '877', '878', '885', '886', '887', '888', '889', '891', '893', '894', '901', '902', '904', '907', '909', '912', '913', '914', '915', '918', '922', '923', '927', '928', '929', '931', '932', '933', '937', '938', '940', '942', '943', '945', '946', '947', '948', '950', '952', '953', '955', '957', '959', '963', '967', '969', '970', '972', '973', '978', '981', '982', '983', '986', '987', '988', '992', '993', '995', '997', '999']",False,1000,True,100,2178ff795c,0.0,1.0,0.0
./expes/v3_2021-02-24_hi_1000-prng-1-w1-fpa10-0.3-p100,30_issda-1000,1000,first-1000,450,45,rng,num-start-800,800,25726,fpa-09-10-0.3-20,68.92130637168884,False,,False,0.28033658162270136,0.26342512767367454,0.303950803114834,100,"['6', '7', '9', '12', '14', '15', '18', '19', '22', '24', '30', '37', '38', '47', '57', '58', '60', '63', '65', '67', '68', '69', '71', '74', '78', '79', '81', '86', '90', '91', '92', '93', '95', '96', '104', '109', '110', '118', '120', '121', '126', '129', '130', '133', '134', '135', '137', '140', '141', '144', '147', '149', '150', '151', '152', '154', '155', '156', '157', '165', '166', '167', '168', '171', '172', '174', '175', '177', '179', '181', '183', '186', '187', '188', '193', '194', '195', '196', '201', '203', '205', '206', '207', '208', '209', '212', '214', '215', '217', '218', '219', '220', '221', '222', '225', '226', '231', '236', '237', '240', '241', '242', '244', '246', '248', '249', '253', '256', '260', '263', '264', '265', '266', '267', '269', '270', '271', '272', '274', '275', '277', '278', '279', '280', '281', '282', '283', '288', '289', '290', '291', '292', '294', '296', '300', '303', '305', '306', '307', '308', '309', '311', '312', '315', '316', '322', '323', '330', '331', '332', '333', '336', '337', '338', '341', '343', '344', '347', '348', '349', '351', '354', '355', '356', '358', '359', '361', '365', '367', '369', '370', '373', '374', '375', '377', '378', '382', '383', '384', '388', '390', '395', '401', '403', '407', '410', '412', '413', '414', '415', '416', '417', '418', '420', '422', '425', '426', '427', '428', '433', '434', '435', '437', '442', '444', '445', '448', '449', '456', '458', '460', '465', '466', '467', '470', '471', '477', '478', '479', '480', '481', '484', '487', '489', '490', '492', '499', '502', '503', '504', '505', '506', '508', '512', '513', '519', '520', '522', '525', '526', '527', '532', '533', '535', '537', '539', '540', '543', '546', '548', '551', '552', '554', '555', '557', '558', '559', '562', '565', '566', '567', '570', '572', '573', '575', '579', '582', '583', '586', '587', '588', '590', '592', '593', '597', '599', '602', '603', '604', '608', '615', '618', '621', '622', '626', '627', '628', '629', '630', '631', '634', '641', '644', '645', '647', '652', '654', '655', '661', '663', '664', '668', '672', '673', '674', '677', '678', '686', '689', '691', '692', '693', '694', '697', '698', '701', '703', '704', '706', '707', '709', '710', '711', '716', '719', '722', '723', '725', '726', '727', '731', '734', '735', '737', '740', '745', '748', '753', '754', '757', '760', '761', '763', '765', '767', '769', '775', '776', '777', '778', '779', '781', '787', '788', '789', '790', '791', '792', '794', '795', '797', '798', '799', '803', '804', '807', '810', '811', '812', '813', '814', '816', '820', '822', '826', '827', '829', '830', '831', '832', '833', '834', '837', '838', '844', '846', '848', '849', '850', '853', '854', '856', '857', '860', '863', '864', '865', '867', '868', '869', '873', '875', '879', '880', '881', '883', '885', '887', '889', '890', '892', '895', '896', '898', '906', '907', '909', '913', '914', '917', '921', '927', '929', '933', '935', '936', '940', '945', '946', '948', '950', '952', '953', '955', '958', '960', '966', '967', '968', '969', '973', '975', '976', '981', '990', '991', '993', '994', '997', '1000']",False,1000,True,100,f104b02241,0.0,1.0,0.0
./expes/v3_2021-02-24_hi_1000-prng-1-w1-fpa10-0.3-p100,30_issda-1000,1000,first-1000,500,50,rng,num-start-800,800,25726,fpa-09-10-0.3-20,59.91529297828674,False,,False,0.29231431945413044,0.2897151947954225,0.301080484970917,100,"['3', '4', '5', '8', '9', '10', '12', '16', '18', '20', '25', '30', '32', '35', '38', '40', '43', '44', '45', '46', '49', '50', '56', '57', '58', '61', '62', '64', '66', '67', '68', '69', '71', '73', '75', '76', '81', '84', '87', '92', '94', '95', '99', '101', '102', '103', '111', '112', '116', '119', '120', '124', '125', '126', '128', '132', '134', '135', '141', '143', '144', '146', '148', '149', '151', '153', '156', '158', '160', '161', '162', '163', '164', '165', '166', '168', '169', '171', '172', '174', '175', '176', '177', '178', '181', '184', '190', '192', '201', '211', '212', '214', '218', '219', '220', '221', '222', '225', '226', '227', '228', '229', '231', '232', '234', '235', '237', '238', '240', '241', '245', '246', '247', '249', '250', '254', '256', '257', '258', '261', '262', '263', '267', '268', '269', '270', '277', '278', '279', '280', '281', '288', '294', '295', '298', '303', '304', '310', '312', '313', '314', '318', '319', '320', '321', '323', '325', '326', '327', '330', '331', '332', '333', '337', '338', '339', '340', '341', '342', '343', '344', '345', '346', '347', '349', '351', '352', '353', '356', '357', '362', '363', '364', '365', '366', '368', '369', '370', '377', '378', '380', '382', '386', '388', '389', '391', '395', '397', '398', '399', '400', '402', '404', '405', '409', '412', '413', '415', '416', '418', '425', '428', '429', '430', '431', '432', '434', '439', '442', '443', '445', '447', '450', '451', '453', '455', '456', '457', '460', '461', '462', '463', '466', '467', '470', '471', '473', '474', '476', '478', '479', '480', '482', '485', '486', '487', '488', '491', '492', '493', '494', '496', '498', '502', '503', '504', '505', '506', '507', '509', '510', '511', '512', '513', '514', '515', '518', '519', '521', '523', '524', '525', '529', '531', '532', '533', '534', '536', '543', '545', '547', '549', '557', '558', '561', '562', '564', '565', '568', '569', '571', '574', '579', '581', '584', '585', '586', '589', '590', '592', '593', '596', '598', '599', '600', '601', '602', '605', '608', '610', '611', '613', '618', '620', '626', '627', '629', '630', '632', '633', '634', '638', '640', '642', '643', '644', '647', '650', '651', '652', '654', '657', '661', '662', '663', '664', '665', '668', '671', '672', '673', '675', '676', '679', '681', '682', '685', '686', '688', '690', '693', '694', '695', '698', '699', '701', '702', '705', '706', '708', '709', '710', '711', '712', '713', '714', '718', '719', '723', '725', '726', '727', '730', '737', '739', '741', '742', '743', '745', '747', '753', '754', '756', '758', '759', '760', '761', '762', '763', '764', '769', '770', '772', '774', '776', '777', '779', '786', '791', '793', '796', '797', '798', '801', '802', '803', '804', '808', '812', '814', '816', '817', '819', '820', '823', '824', '825', '826', '830', '831', '834', '841', '842', '843', '845', '848', '851', '856', '858', '859', '861', '862', '864', '865', '868', '869', '872', '874', '875', '876', '877', '878', '879', '882', '884', '885', '887', '888', '889', '890', '891', '892', '894', '896', '897', '899', '900', '901', '903', '905', '906', '907', '908', '909', '912', '914', '915', '916', '921', '924', '927', '929', '930', '931', '932', '934', '935', '937', '939', '942', '943', '944', '945', '948', '950', '951', '953', '954', '957', '958', '959', '961', '964', '968', '969', '970', '971', '973', '974', '975', '977', '979', '983', '984', '986', '989', '991', '994', '996', '1000']",False,1000,True,100,eb2000b34a,0.0,1.0,0.0
./expes/v3_2021-02-24_hi_1000-prng-1-w1-fpa10-0.3-p100,30_issda-1000,1000,first-1000,150,15,rng,num-start-400,400,25726,fpa-09-10-0.3-20,33.58604645729065,False,,False,0.4973186449811599,0.487884522532015,0.5017548311842369,100,"['3', '10', '13', '23', '27', '30', '31', '32', '36', '45', '65', '89', '97', '103', '105', '111', '121', '124', '138', '168', '173', '175', '178', '191', '195', '205', '215', '222', '225', '228', '233', '235', '237', '238', '239', '249', '262', '273', '291', '297', '304', '311', '316', '326', '341', '354', '376', '380', '384', '389', '391', '400', '403', '404', '414', '425', '427', '433', '444', '449', '450', '457', '461', '471', '481', '484', '492', '500', '502', '508', '512', '513', '515', '518', '520', '521', '534', '541', '553', '555', '562', '567', '570', '583', '593', '602', '604', '606', '608', '623', '630', '645', '658', '663', '666', '668', '680', '681', '687', '691', '694', '703', '713', '720', '721', '729', '739', '742', '744', '751', '756', '761', '762', '780', '781', '783', '786', '790', '795', '798', '808', '817', '822', '850', '856', '858', '861', '867', '868', '869', '874', '881', '903', '904', '915', '918', '924', '933', '939', '943', '945', '949', '959', '962', '964', '968', '976', '991', '993', '997']",False,1000,True,100,063052f4c7,0.0,1.0,0.0
./expes/v3_2021-02-24_hi_1000-prng-1-w1-fpa10-0.3-p100,30_issda-1000,1000,first-1000,50,5,rng,num-start-800,800,25726,fpa-09-10-0.3-20,80.6159348487854,False,,False,0.6935305526425366,0.686793840900122,0.6998498874061678,100,"['11', '72', '75', '110', '122', '126', '154', '165', '169', '229', '253', '262', '267', '270', '278', '282', '299', '311', '324', '346', '367', '370', '404', '407', '461', '478', '529', '540', '565', '610', '631', '647', '648', '668', '675', '680', '682', '701', '720', '752', '753', '774', '797', '824', '828', '892', '894', '924', '931', '963']",False,1000,True,100,87920084d2,0.0,1.0,0.0
./expes/v3_2021-02-24_hi_1000-prng-1-w1-fpa10-0.3-p100,30_issda-1000,1000,first-1000,450,45,rng,num-start-400,400,25726,fpa-09-10-0.3-20,28.899018049240112,False,,False,0.2850267243048984,0.2827033288000601,0.298221906517101,100,"['2', '4', '5', '6', '8', '12', '14', '16', '19', '21', '22', '23', '25', '27', '28', '29', '30', '32', '33', '34', '35', '36', '37', '44', '45', '46', '47', '48', '51', '52', '53', '55', '57', '62', '63', '65', '66', '68', '69', '70', '71', '74', '79', '82', '88', '89', '91', '95', '100', '102', '105', '106', '107', '108', '111', '112', '117', '118', '122', '123', '124', '125', '126', '127', '128', '129', '130', '131', '132', '133', '134', '135', '137', '138', '140', '142', '147', '155', '156', '160', '161', '164', '168', '174', '176', '182', '183', '184', '188', '190', '192', '196', '197', '203', '204', '205', '217', '223', '224', '227', '228', '230', '231', '233', '238', '240', '242', '244', '245', '246', '251', '255', '258', '259', '265', '266', '269', '270', '271', '272', '274', '276', '277', '278', '281', '286', '287', '292', '294', '296', '298', '299', '301', '306', '308', '309', '311', '312', '318', '321', '322', '323', '324', '327', '328', '330', '331', '334', '335', '336', '337', '339', '341', '342', '345', '348', '349', '350', '353', '354', '355', '360', '361', '362', '369', '370', '373', '375', '379', '382', '383', '384', '385', '386', '387', '390', '396', '397', '399', '400', '405', '407', '410', '418', '420', '421', '424', '426', '427', '429', '430', '431', '432', '434', '436', '437', '438', '439', '441', '442', '445', '446', '447', '448', '449', '456', '462', '468', '472', '476', '478', '481', '482', '485', '486', '488', '489', '493', '494', '495', '496', '500', '502', '507', '509', '513', '515', '516', '518', '520', '523', '525', '528', '531', '532', '533', '534', '536', '538', '540', '543', '545', '547', '548', '549', '550', '554', '555', '557', '558', '562', '563', '565', '569', '573', '578', '581', '582', '583', '585', '586', '588', '589', '591', '594', '595', '599', '600', '601', '602', '603', '604', '605', '606', '607', '610', '615', '616', '619', '620', '621', '624', '626', '627', '630', '631', '633', '635', '636', '638', '641', '642', '643', '644', '648', '649', '650', '651', '652', '655', '658', '660', '663', '666', '670', '672', '676', '679', '684', '688', '689', '692', '693', '695', '696', '698', '699', '701', '707', '708', '711', '712', '713', '715', '716', '720', '724', '730', '731', '732', '733', '734', '735', '736', '737', '738', '741', '746', '750', '752', '753', '756', '760', '764', '766', '772', '775', '777', '779', '780', '788', '791', '793', '794', '796', '798', '799', '802', '806', '807', '808', '810', '811', '812', '813', '815', '820', '821', '823', '824', '826', '827', '830', '831', '832', '833', '837', '840', '844', '848', '852', '853', '854', '857', '858', '859', '862', '865', '871', '873', '875', '876', '877', '878', '879', '882', '883', '884', '885', '887', '888', '889', '891', '892', '894', '900', '901', '902', '903', '905', '907', '908', '909', '911', '912', '919', '920', '922', '926', '927', '931', '935', '938', '940', '943', '944', '945', '947', '949', '950', '952', '959', '962', '964', '966', '972', '973', '974', '978', '981', '982', '984', '987', '988', '989', '993', '995', '996', '997', '999']",False,1000,True,100,444af12cbc,0.0,1.0,0.0
./expes/v3_2021-02-24_hi_1000-prng-1-w1-fpa10-0.3-p100,30_issda-1000,1000,first-1000,50,5,rng,num-start-300,300,25726,fpa-09-10-0.3-20,25.068342924118042,False,,False,0.6903005184257489,0.686793840900122,0.6998498874061678,100,"['29', '37', '58', '87', '94', '163', '174', '218', '258', '275', '316', '327', '370', '373', '381', '390', '403', '434', '442', '456', '477', '515', '522', '539', '558', '596', '621', '622', '654', '686', '698', '741', '754', '823', '829', '856', '870', '875', '881', '884', '892', '906', '914', '923', '930', '955', '959', '971', '973', '979']",False,1000,True,100,3051992454,0.0,1.0,0.0
./expes/v3_2021-02-24_hi_1000-prng-1-w1-fpa10-0.3-p100,30_issda-1000,1000,first-1000,300,30,rng,num-start-200,200,25726,fpa-09-10-0.3-20,15.799617528915405,False,,False,0.3358686771175198,0.33183351891430046,0.3593671797274117,100,"['2', '4', '7', '9', '12', '18', '20', '25', '27', '28', '29', '30', '31', '32', '34', '38', '39', '41', '45', '48', '53', '54', '61', '63', '74', '75', '77', '80', '85', '86', '90', '93', '94', '96', '101', '106', '116', '117', '119', '121', '128', '135', '139', '142', '146', '147', '149', '159', '160', '165', '167', '168', '172', '176', '181', '183', '184', '185', '187', '194', '197', '204', '205', '206', '210', '214', '215', '216', '218', '220', '226', '228', '229', '234', '236', '241', '246', '248', '252', '254', '259', '262', '265', '268', '269', '273', '275', '276', '278', '281', '284', '285', '287', '289', '292', '299', '318', '319', '320', '321', '331', '332', '338', '341', '344', '346', '348', '350', '353', '356', '359', '362', '363', '365', '370', '372', '373', '375', '377', '378', '381', '384', '389', '391', '394', '395', '398', '404', '411', '415', '417', '426', '428', '429', '431', '434', '438', '441', '442', '444', '446', '447', '451', '455', '456', '460', '467', '471', '472', '476', '481', '484', '486', '488', '489', '493', '495', '502', '504', '511', '513', '514', '515', '516', '520', '522', '524', '526', '527', '528', '532', '534', '540', '542', '548', '553', '555', '560', '563', '564', '569', '571', '572', '574', '577', '584', '587', '591', '595', '603', '611', '614', '616', '617', '622', '623', '624', '626', '632', '634', '637', '638', '640', '643', '653', '654', '655', '656', '657', '659', '674', '676', '677', '678', '680', '683', '685', '690', '692', '695', '696', '698', '700', '701', '702', '704', '706', '707', '708', '711', '713', '714', '718', '722', '728', '737', '739', '744', '752', '754', '757', '767', '772', '778', '779', '784', '785', '790', '791', '803', '807', '809', '812', '813', '815', '817', '818', '821', '830', '836', '839', '840', '843', '852', '863', '877', '880', '883', '886', '887', '895', '904', '907', '908', '916', '920', '923', '926', '928', '933', '934', '937', '938', '941', '943', '947', '950', '957', '958', '959', '964', '967', '970', '971', '979', '982', '986', '991', '995', '1000']",False,1000,True,100,cfe5fc99ac,0.0,1.0,0.0
./expes/v3_2021-02-24_hi_1000-prng-1-w1-fpa10-0.3-p100,30_issda-1000,1000,first-1000,400,40,rng,num-start-800,800,25726,fpa-09-10-0.3-20,57.236793756484985,False,,False,0.30018150849629927,0.2967969749108764,0.31409149992840113,100,"['3', '5', '6', '8', '16', '17', '26', '32', '33', '34', '36', '37', '38', '43', '45', '46', '48', '49', '52', '54', '55', '57', '62', '65', '67', '68', '72', '74', '76', '78', '82', '83', '86', '91', '92', '95', '98', '99', '100', '102', '109', '112', '116', '119', '120', '121', '123', '137', '138', '140', '143', '145', '147', '150', '154', '156', '157', '158', '161', '162', '163', '165', '167', '169', '170', '171', '173', '176', '179', '180', '181', '183', '187', '191', '192', '195', '196', '197', '199', '200', '201', '205', '207', '212', '213', '214', '215', '226', '230', '242', '244', '245', '246', '247', '248', '249', '252', '253', '256', '261', '266', '269', '270', '273', '274', '279', '282', '284', '285', '290', '291', '293', '297', '302', '304', '309', '310', '311', '314', '316', '319', '322', '328', '330', '331', '333', '335', '336', '337', '340', '348', '350', '352', '354', '356', '357', '358', '359', '363', '364', '369', '370', '372', '374', '375', '376', '383', '384', '385', '386', '391', '392', '394', '398', '400', '402', '407', '411', '415', '419', '423', '425', '426', '431', '432', '434', '435', '437', '440', '444', '446', '447', '450', '451', '452', '453', '456', '457', '458', '459', '462', '463', '465', '467', '468', '470', '473', '474', '475', '478', '482', '483', '489', '491', '492', '495', '497', '502', '504', '508', '509', '512', '514', '519', '520', '524', '526', '533', '534', '535', '536', '538', '547', '549', '550', '552', '553', '555', '558', '563', '564', '569', '570', '573', '578', '579', '581', '584', '586', '589', '590', '592', '593', '597', '599', '602', '603', '606', '608', '610', '612', '616', '617', '618', '619', '620', '621', '622', '623', '625', '629', '633', '634', '643', '644', '650', '654', '655', '656', '657', '659', '665', '666', '668', '669', '670', '674', '677', '678', '681', '683', '687', '690', '691', '692', '698', '701', '703', '704', '707', '709', '712', '715', '719', '724', '730', '736', '738', '740', '741', '744', '752', '754', '758', '759', '762', '763', '764', '768', '770', '778', '783', '786', '787', '790', '791', '792', '794', '795', '797', '802', '806', '808', '809', '810', '813', '817', '819', '821', '824', '825', '827', '830', '831', '832', '833', '837', '838', '841', '843', '844', '845', '847', '848', '849', '850', '854', '856', '857', '863', '865', '868', '869', '872', '874', '876', '880', '881', '883', '884', '886', '887', '891', '892', '893', '896', '903', '909', '910', '911', '915', '919', '920', '923', '927', '928', '930', '932', '933', '935', '936', '937', '942', '943', '944', '945', '947', '955', '956', '958', '959', '964', '966', '969', '971', '973', '974', '976', '978', '979', '980', '984', '986', '987', '988', '992', '993', '994', '998', '999']",False,1000,True,100,cca8216686,0.0,1.0,0.0
./expes/v3_2021-02-24_hi_1000-prng-1-w1-fpa10-0.3-p100,30_issda-1000,1000,first-1000,100,10,rng,num-start-300,300,25726,fpa-09-10-0.3-20,23.396499633789062,False,,False,0.5629383727906458,0.5616027005190473,0.5778884292296902,100,"['6', '19', '28', '52', '53', '60', '64', '66', '71', '84', '113', '120', '127', '141', '144', '146', '155', '179', '198', '202', '216', '219', '245', '255', '259', '274', '283', '285', '297', '311', '317', '326', '339', '345', '364', '369', '375', '382', '384', '394', '412', '416', '419', '420', '425', '430', '444', '486', '489', '514', '519', '520', '535', '540', '546', '553', '554', '565', '571', '573', '586', '594', '615', '655', '656', '678', '699', '701', '703', '722', '723', '733', '742', '757', '765', '771', '785', '793', '806', '811', '822', '827', '832', '833', '835', '867', '880', '881', '889', '897', '904', '919', '940', '943', '963', '968', '979', '981', '983', '984']",False,1000,True,100,1808a67724,0.0,1.0,0.0
./expes/v3_2021-02-24_hi_1000-prng-1-w1-fpa10-0.3-p100,30_issda-1000,1000,first-1000,350,35,rng,num-start-400,400,25726,fpa-09-10-0.3-20,29.55084204673767,False,,False,0.32109042921932934,0.3184837019817762,0.33333333333333337,100,"['2', '5', '6', '9', '17', '19', '20', '21', '22', '25', '26', '29', '32', '33', '35', '37', '38', '42', '45', '47', '51', '53', '58', '59', '61', '62', '70', '76', '78', '79', '83', '85', '87', '90', '94', '96', '97', '99', '103', '104', '105', '108', '109', '114', '116', '118', '119', '122', '125', '131', '135', '140', '144', '148', '155', '156', '158', '161', '163', '165', '166', '169', '171', '174', '175', '177', '178', '181', '182', '186', '187', '189', '196', '197', '204', '213', '214', '216', '218', '223', '225', '228', '231', '233', '234', '237', '238', '239', '242', '247', '251', '253', '254', '256', '257', '258', '260', '261', '262', '263', '266', '269', '271', '273', '275', '280', '286', '292', '293', '297', '311', '314', '316', '317', '318', '320', '324', '327', '333', '336', '346', '350', '353', '354', '360', '363', '369', '370', '371', '372', '373', '375', '376', '381', '382', '383', '390', '394', '395', '402', '403', '405', '410', '412', '417', '419', '421', '423', '425', '429', '430', '434', '436', '442', '445', '456', '457', '459', '460', '463', '465', '466', '468', '473', '475', '476', '477', '485', '492', '498', '499', '501', '502', '503', '511', '513', '515', '517', '520', '521', '522', '523', '524', '525', '527', '528', '531', '532', '534', '535', '536', '538', '539', '544', '549', '558', '565', '571', '572', '574', '576', '582', '586', '589', '596', '599', '603', '604', '606', '608', '620', '621', '622', '626', '629', '631', '632', '637', '639', '640', '643', '651', '653', '654', '658', '668', '669', '671', '675', '677', '678', '680', '686', '687', '689', '691', '698', '699', '701', '702', '704', '707', '709', '717', '723', '724', '726', '727', '732', '733', '734', '735', '741', '742', '744', '747', '749', '753', '754', '757', '758', '761', '763', '766', '769', '772', '773', '774', '778', '779', '782', '785', '792', '794', '800', '804', '808', '809', '811', '814', '816', '819', '820', '822', '823', '826', '829', '832', '833', '835', '841', '845', '846', '852', '856', '859', '861', '870', '875', '880', '881', '884', '892', '896', '897', '898', '902', '903', '904', '905', '906', '909', '911', '914', '916', '920', '922', '923', '924', '925', '929', '930', '931', '934', '938', '939', '941', '943', '944', '948', '952', '955', '957', '958', '959', '961', '964', '967', '971', '973', '978', '979', '981', '982', '983', '984', '985', '987', '994', '995']",False,1000,True,100,b065c48afd,0.0,1.0,0.0
./expes/v3_2021-02-24_hi_1000-prng-1-w1-fpa10-0.3-p100,30_issda-1000,1000,first-1000,400,40,rng,num-start-900,900,25726,fpa-09-10-0.3-20,89.48518896102905,False,,False,0.30066921078542047,0.2967969749108764,0.3068330067866182,100,"['3', '8', '9', '17', '18', '19', '20', '23', '24', '26', '27', '28', '33', '35', '36', '37', '38', '41', '42', '45', '47', '48', '50', '51', '57', '62', '64', '65', '66', '69', '70', '73', '74', '75', '76', '78', '80', '86', '88', '89', '91', '94', '96', '97', '98', '101', '102', '104', '106', '108', '110', '111', '115', '117', '119', '120', '123', '124', '125', '127', '129', '130', '132', '138', '140', '141', '142', '143', '144', '152', '153', '157', '159', '160', '163', '168', '170', '175', '176', '177', '180', '182', '185', '188', '191', '192', '195', '196', '197', '202', '205', '207', '208', '213', '214', '215', '216', '227', '230', '231', '232', '233', '236', '239', '247', '248', '250', '251', '252', '255', '256', '259', '260', '265', '267', '268', '269', '270', '271', '275', '276', '278', '279', '281', '282', '284', '286', '288', '291', '293', '297', '301', '303', '307', '309', '312', '314', '316', '317', '318', '319', '323', '325', '326', '332', '333', '334', '336', '338', '340', '341', '345', '355', '356', '359', '361', '363', '366', '371', '372', '376', '378', '379', '382', '386', '389', '391', '394', '396', '398', '400', '402', '403', '406', '407', '410', '412', '414', '416', '417', '422', '424', '425', '428', '431', '434', '436', '438', '439', '440', '441', '447', '448', '449', '450', '451', '455', '456', '459', '461', '463', '464', '466', '467', '469', '470', '472', '473', '475', '476', '478', '479', '480', '481', '482', '488', '489', '490', '492', '498', '501', '502', '503', '504', '506', '513', '515', '517', '518', '522', '524', '526', '527', '533', '534', '537', '539', '542', '547', '551', '553', '555', '556', '558', '559', '561', '568', '569', '571', '573', '576', '583', '584', '585', '589', '590', '591', '592', '593', '598', '599', '602', '603', '604', '606', '608', '609', '610', '611', '613', '614', '623', '624', '625', '628', '630', '633', '636', '642', '643', '650', '652', '653', '654', '656', '657', '662', '665', '669', '670', '673', '675', '676', '678', '680', '684', '685', '691', '693', '694', '698', '699', '701', '703', '704', '705', '712', '713', '723', '727', '733', '734', '735', '737', '738', '743', '746', '749', '752', '754', '756', '757', '760', '764', '770', '771', '773', '774', '775', '784', '792', '793', '794', '803', '804', '805', '807', '811', '815', '821', '823', '824', '828', '831', '832', '840', '845', '846', '852', '854', '855', '856', '862', '865', '870', '871', '874', '877', '881', '887', '890', '893', '895', '900', '901', '905', '906', '912', '917', '918', '919', '928', '937', '943', '948', '951', '952', '953', '954', '956', '958', '959', '962', '968', '969', '971', '973', '977', '979', '980', '982', '985', '987', '989', '990', '991', '992', '994', '995', '997']",False,1000,True,100,06c370037c,0.0,1.0,0.0
./expes/v3_2021-02-24_hi_1000-prng-1-w1-fpa10-0.3-p100,30_issda-1000,1000,first-1000,300,30,rng,num-start-300,300,25726,fpa-09-10-0.3-20,24.372584104537964,False,,False,0.33979436644240835,0.3378531594589925,0.356249726668474,100,"['2', '4', '6', '10', '12', '14', '19', '23', '24', '30', '33', '34', '36', '38', '48', '50', '54', '58', '59', '61', '65', '67', '68', '74', '81', '83', '92', '94', '95', '105', '110', '111', '116', '122', '130', '134', '136', '143', '145', '146', '150', '151', '152', '153', '161', '164', '166', '170', '171', '173', '174', '177', '181', '182', '183', '184', '185', '186', '187', '190', '202', '204', '210', '213', '214', '215', '221', '222', '244', '252', '253', '256', '257', '262', '263', '271', '272', '279', '281', '283', '287', '288', '296', '297', '299', '301', '302', '303', '306', '309', '314', '317', '318', '320', '322', '324', '325', '326', '334', '340', '343', '347', '349', '353', '354', '357', '359', '364', '365', '366', '367', '368', '370', '371', '372', '373', '374', '375', '377', '381', '382', '386', '387', '390', '393', '399', '414', '416', '418', '419', '424', '425', '429', '431', '432', '444', '445', '456', '461', '464', '465', '467', '474', '475', '477', '481', '482', '484', '486', '491', '493', '496', '498', '500', '504', '506', '512', '513', '515', '525', '526', '528', '531', '535', '538', '543', '545', '547', '553', '557', '559', '561', '562', '563', '573', '578', '588', '593', '595', '601', '602', '604', '609', '611', '616', '618', '626', '633', '636', '638', '639', '641', '642', '643', '646', '654', '660', '663', '665', '666', '667', '668', '680', '685', '688', '690', '695', '703', '705', '706', '708', '712', '714', '720', '722', '725', '734', '738', '739', '748', '749', '750', '756', '758', '759', '760', '767', '768', '774', '778', '781', '785', '789', '793', '794', '795', '800', '801', '805', '807', '815', '817', '818', '821', '837', '838', '839', '840', '842', '847', '849', '856', '857', '859', '861', '862', '864', '866', '873', '875', '881', '888', '889', '890', '891', '893', '894', '898', '915', '916', '919', '923', '924', '939', '941', '945', '946', '947', '952', '959', '960', '961', '962', '964', '965', '966', '969', '973', '978', '979', '980', '983', '984', '985', '989', '990', '992', '996', '999', '1000']",False,1000,True,100,80146c3dfd,0.0,1.0,0.0
./expes/v3_2021-02-24_hi_1000-prng-1-w1-fpa10-0.3-p100,30_issda-1000,1000,first-1000,500,50,rng,num-start-800,800,25726,fpa-09-10-0.3-20,58.160754680633545,False,,False,0.2757816417164859,0.27162473234566065,0.29964973728105837,100,"['1', '2', '5', '8', '11', '16', '18', '20', '21', '22', '25', '26', '27', '29', '30', '32', '33', '36', '41', '42', '44', '46', '48', '49', '52', '53', '56', '57', '61', '62', '64', '67', '69', '70', '71', '72', '75', '77', '79', '83', '84', '86', '92', '93', '96', '97', '98', '100', '101', '102', '105', '106', '107', '109', '110', '114', '115', '116', '117', '118', '122', '123', '124', '125', '126', '127', '129', '132', '134', '135', '137', '139', '141', '145', '147', '150', '151', '154', '157', '158', '163', '165', '166', '169', '170', '173', '175', '176', '177', '179', '180', '182', '183', '186', '187', '189', '194', '195', '198', '199', '200', '203', '204', '205', '206', '208', '210', '211', '213', '215', '217', '219', '222', '224', '228', '229', '231', '232', '234', '236', '237', '242', '248', '249', '250', '251', '253', '254', '255', '257', '258', '259', '261', '262', '263', '265', '267', '270', '271', '273', '274', '278', '279', '280', '281', '282', '286', '288', '289', '290', '299', '301', '303', '304', '308', '309', '310', '311', '313', '315', '317', '319', '320', '322', '324', '325', '326', '331', '340', '342', '344', '346', '347', '348', '349', '352', '355', '356', '357', '359', '360', '361', '362', '363', '365', '367', '370', '373', '374', '375', '376', '377', '378', '382', '386', '389', '390', '392', '394', '396', '398', '403', '404', '407', '408', '413', '414', '416', '417', '422', '428', '429', '432', '433', '434', '435', '436', '437', '440', '443', '447', '448', '449', '450', '452', '453', '454', '456', '457', '459', '461', '463', '464', '465', '466', '467', '471', '472', '478', '480', '481', '482', '483', '485', '486', '487', '488', '489', '492', '494', '496', '497', '498', '499', '500', '501', '503', '508', '510', '513', '518', '519', '520', '521', '524', '525', '527', '529', '533', '534', '535', '537', '539', '540', '541', '543', '546', '547', '548', '549', '552', '554', '555', '556', '557', '558', '559', '560', '562', '565', '567', '569', '570', '571', '572', '574', '575', '581', '583', '584', '586', '591', '592', '593', '596', '598', '599', '601', '603', '604', '606', '608', '609', '610', '611', '616', '617', '619', '620', '623', '625', '628', '631', '640', '641', '642', '643', '644', '647', '648', '649', '651', '652', '653', '657', '658', '659', '661', '662', '663', '664', '666', '668', '670', '673', '675', '678', '680', '682', '683', '685', '687', '689', '692', '693', '697', '698', '699', '701', '702', '703', '704', '708', '709', '714', '719', '720', '721', '722', '723', '727', '732', '733', '736', '739', '742', '743', '752', '753', '757', '758', '759', '760', '763', '764', '765', '770', '771', '773', '774', '776', '779', '780', '782', '783', '784', '788', '789', '793', '794', '797', '799', '801', '802', '804', '807', '811', '812', '813', '814', '816', '817', '818', '824', '826', '827', '828', '830', '832', '834', '838', '840', '841', '843', '844', '846', '847', '848', '849', '851', '856', '860', '862', '869', '870', '871', '874', '875', '876', '878', '881', '883', '884', '885', '886', '887', '888', '892', '893', '894', '896', '898', '900', '901', '904', '905', '908', '910', '911', '918', '919', '920', '921', '923', '924', '926', '927', '931', '932', '938', '939', '940', '943', '944', '948', '951', '954', '955', '956', '957', '959', '962', '963', '965', '966', '967', '969', '973', '975', '976', '980', '983', '984', '987', '992', '995', '996', '997', '998', '1000']",False,1000,True,100,52d51a14d1,0.0,1.0,0.0
./expes/v3_2021-02-24_hi_1000-prng-1-w1-fpa10-0.3-p100,30_issda-1000,1000,first-1000,200,20,rng,num-start-800,800,25726,fpa-09-10-0.3-20,67.68951320648193,False,,False,0.43456756033899374,0.4252562916130962,0.44474482595088916,100,"['1', '5', '10', '12', '16', '18', '21', '31', '37', '43', '44', '54', '61', '62', '65', '69', '72', '75', '76', '77', '86', '88', '90', '93', '97', '103', '104', '111', '120', '121', '131', '135', '138', '139', '146', '150', '158', '162', '163', '182', '188', '190', '191', '192', '193', '195', '196', '201', '202', '204', '214', '215', '216', '218', '219', '234', '236', '240', '248', '249', '253', '256', '261', '265', '277', '285', '296', '298', '302', '304', '311', '312', '319', '323', '335', '337', '341', '345', '378', '381', '385', '393', '396', '404', '405', '406', '407', '411', '417', '420', '430', '431', '452', '453', '458', '459', '463', '464', '465', '469', '476', '477', '482', '488', '496', '499', '512', '521', '522', '525', '526', '532', '542', '552', '565', '568', '573', '574', '577', '580', '589', '591', '597', '602', '606', '607', '610', '615', '616', '617', '625', '626', '629', '631', '638', '639', '643', '645', '650', '652', '656', '658', '660', '666', '670', '671', '679', '692', '699', '702', '704', '711', '724', '725', '726', '743', '750', '757', '758', '777', '785', '788', '792', '797', '798', '800', '813', '817', '823', '824', '830', '838', '851', '852', '853', '861', '863', '867', '868', '875', '876', '878', '886', '887', '888', '901', '907', '912', '931', '933', '945', '947', '950', '955', '963', '982', '983', '988', '995', '999']",False,1000,True,100,7658e68dbd,0.0,1.0,0.0
