expe,clients,clients_size,clients_subset,agg_size,agg_size_pc,method,days,days_size,days_total,noise_method,time,valid,valid_sum,success,score_avg,score_min,score_max,nsols,oracle,wall_hit,wall_time,pooled,pool_size,uuid,infeasible,optimal,valid_sums
./expes/v3_2021-02-24_hi_1000-prng-1-w1-fpa10-0.3-p100,30_issda-1000,1000,first-1000,150,15,rng,num-start-1000,1000,25726,fpa-09-10-0.3-20,121.95805549621582,False,,False,0.4961687732722173,0.4918088368947584,0.5037679512100752,100,"['5', '6', '16', '33', '34', '36', '38', '45', '46', '67', '74', '78', '82', '83', '99', '116', '123', '137', '138', '143', '147', '154', '161', '163', '165', '169', '171', '179', '181', '183', '196', '200', '212', '230', '242', '245', '246', '249', '252', '256', '269', '274', '282', '285', '291', '309', '310', '311', '322', '328', '333', '336', '340', '356', '358', '364', '370', '372', '375', '384', '385', '391', '394', '400', '415', '423', '425', '431', '432', '440', '444', '446', '447', '451', '453', '457', '459', '462', '467', '468', '474', '482', '492', '495', '502', '504', '508', '509', '514', '534', '535', '547', '550', '558', '563', '581', '586', '592', '597', '599', '616', '618', '622', '629', '633', '665', '669', '670', '674', '677', '678', '683', '690', '692', '698', '703', '730', '764', '787', '791', '792', '795', '797', '827', '831', '833', '838', '841', '844', '847', '863', '865', '876', '881', '886', '891', '919', '920', '932', '935', '943', '947', '964', '966', '969', '971', '976', '987', '993', '994']",False,1000,True,100,00cb8e03fa,0.0,1.0,0.0
./expes/v3_2021-02-24_hi_1000-prng-1-w1-fpa10-0.3-p100,30_issda-1000,1000,first-1000,100,10,rng,num-start-900,900,25726,fpa-09-10-0.3-20,69.37580013275146,False,,False,0.5746828974077313,0.5708331511123159,0.5899168765138363,100,"['4', '6', '7', '9', '25', '42', '45', '53', '57', '65', '83', '86', '90', '105', '114', '115', '125', '136', '137', '142', '143', '161', '173', '174', '191', '203', '205', '208', '210', '215', '230', '243', '244', '274', '288', '299', '339', '343', '347', '350', '383', '388', '389', '393', '407', '422', '432', '433', '435', '463', '475', '504', '515', '519', '553', '568', '593', '605', '612', '620', '628', '632', '691', '693', '705', '717', '721', '726', '743', '744', '746', '754', '765', '783', '792', '793', '809', '813', '829', '867', '872', '873', '888', '893', '901', '908', '909', '911', '914', '917', '918', '920', '929', '934', '942', '947', '959', '969', '975', '988']",False,1000,True,100,d06de318ef,0.0,1.0,0.0
./expes/v3_2021-02-24_hi_1000-prng-1-w1-fpa10-0.3-p100,30_issda-1000,1000,first-1000,450,45,rng,num-start-600,600,25726,fpa-09-10-0.3-20,43.57803440093994,False,,False,0.3200813751261662,0.2953749248738756,0.32438438705395767,100,"['2', '3', '6', '9', '10', '11', '13', '15', '18', '19', '22', '23', '25', '27', '28', '29', '30', '31', '32', '34', '36', '37', '39', '41', '42', '45', '47', '49', '58', '61', '65', '66', '67', '72', '73', '75', '79', '84', '86', '87', '89', '92', '94', '97', '99', '102', '103', '105', '106', '107', '111', '112', '113', '115', '117', '118', '119', '121', '124', '129', '133', '134', '137', '138', '139', '150', '151', '161', '163', '164', '165', '166', '168', '171', '172', '173', '174', '175', '176', '178', '182', '186', '188', '190', '191', '193', '195', '199', '204', '205', '206', '211', '213', '215', '218', '219', '221', '222', '223', '225', '226', '228', '229', '230', '231', '233', '235', '236', '237', '238', '239', '241', '246', '248', '249', '253', '256', '257', '259', '260', '262', '265', '266', '273', '274', '275', '276', '280', '284', '288', '289', '291', '297', '298', '299', '302', '303', '304', '306', '311', '314', '315', '316', '318', '320', '321', '323', '325', '326', '328', '329', '330', '334', '336', '340', '341', '347', '348', '349', '350', '352', '353', '354', '355', '356', '362', '365', '366', '370', '374', '376', '377', '380', '384', '388', '389', '390', '391', '393', '396', '400', '401', '403', '404', '405', '407', '409', '412', '414', '415', '417', '424', '425', '427', '432', '433', '437', '440', '443', '444', '446', '449', '450', '457', '459', '461', '462', '464', '466', '467', '469', '470', '471', '472', '481', '484', '486', '489', '492', '493', '497', '500', '501', '502', '505', '508', '509', '512', '513', '515', '517', '518', '519', '520', '521', '522', '523', '525', '527', '529', '532', '534', '537', '541', '546', '548', '552', '553', '554', '555', '556', '558', '561', '562', '564', '565', '567', '568', '570', '575', '577', '578', '579', '580', '583', '584', '585', '588', '590', '592', '593', '594', '599', '601', '602', '604', '605', '606', '608', '611', '615', '616', '619', '621', '623', '624', '627', '628', '629', '630', '633', '638', '639', '640', '645', '646', '647', '651', '658', '663', '664', '665', '666', '668', '673', '676', '678', '680', '681', '682', '687', '690', '691', '692', '694', '695', '698', '703', '704', '705', '712', '713', '720', '721', '722', '729', '733', '737', '739', '742', '743', '744', '747', '748', '751', '756', '759', '761', '762', '772', '773', '774', '778', '780', '781', '783', '786', '787', '789', '790', '795', '797', '798', '799', '801', '802', '803', '804', '805', '806', '808', '809', '816', '817', '818', '822', '823', '824', '826', '829', '831', '833', '837', '838', '840', '841', '846', '848', '849', '850', '853', '856', '858', '861', '862', '866', '867', '868', '869', '871', '872', '874', '878', '879', '880', '881', '882', '887', '889', '891', '893', '897', '900', '903', '904', '907', '908', '909', '913', '915', '918', '919', '922', '923', '924', '932', '933', '936', '937', '939', '940', '943', '945', '948', '949', '954', '955', '959', '961', '962', '964', '967', '968', '973', '975', '976', '978', '981', '983', '986', '988', '989', '991', '992', '993', '994', '997', '998', '999', '1000']",False,1000,True,100,215c4ccf64,0.0,1.0,0.0
./expes/v3_2021-02-24_hi_1000-prng-1-w1-fpa10-0.3-p100,30_issda-1000,1000,first-1000,200,20,rng,num-start-700,700,25726,fpa-09-10-0.3-20,55.96336388587952,False,,False,0.439009552851775,0.43580294371707473,0.452003375648809,100,"['2', '9', '22', '25', '26', '29', '33', '37', '42', '45', '51', '58', '59', '61', '62', '70', '78', '85', '87', '94', '109', '118', '131', '140', '161', '163', '166', '169', '171', '174', '177', '178', '181', '182', '187', '189', '196', '213', '216', '218', '228', '233', '237', '242', '251', '254', '256', '258', '262', '273', '275', '280', '286', '311', '316', '317', '320', '327', '333', '350', '360', '363', '369', '370', '371', '372', '373', '376', '381', '383', '390', '395', '403', '410', '417', '425', '434', '442', '456', '457', '466', '468', '473', '477', '492', '499', '501', '502', '511', '513', '515', '517', '520', '522', '523', '525', '527', '528', '531', '535', '536', '538', '539', '544', '558', '571', '574', '576', '582', '589', '596', '603', '604', '606', '608', '621', '622', '631', '632', '639', '654', '668', '669', '671', '675', '678', '686', '689', '691', '698', '699', '701', '709', '717', '724', '733', '735', '741', '742', '744', '747', '749', '753', '754', '757', '763', '773', '778', '782', '792', '804', '809', '814', '816', '819', '823', '829', '833', '835', '841', '845', '852', '856', '870', '875', '880', '881', '884', '892', '897', '898', '902', '904', '905', '906', '914', '916', '920', '922', '923', '925', '929', '930', '931', '934', '938', '941', '943', '948', '955', '957', '959', '964', '967', '971', '973', '978', '979', '981', '985']",False,1000,True,100,e3194e4211,0.0,1.0,0.0
./expes/v3_2021-02-24_hi_1000-prng-1-w1-fpa10-0.3-p100,30_issda-1000,1000,first-1000,150,15,rng,num-start-800,800,25726,fpa-09-10-0.3-20,76.49565148353577,False,,False,0.49831539861922713,0.4937824022653339,0.5098569186041282,100,"['2', '4', '6', '10', '14', '19', '23', '24', '30', '38', '48', '54', '59', '67', '68', '74', '105', '111', '116', '122', '130', '136', '143', '150', '161', '164', '170', '171', '181', '186', '187', '190', '202', '204', '210', '215', '221', '222', '252', '253', '256', '257', '262', '263', '271', '287', '297', '303', '306', '309', '314', '318', '322', '324', '340', '347', '353', '364', '367', '368', '370', '375', '377', '381', '386', '390', '393', '399', '414', '418', '425', '429', '444', '456', '464', '474', '477', '481', '484', '493', '525', '538', '543', '553', '557', '563', '588', '593', '601', '604', '611', '618', '633', '638', '639', '641', '665', '668', '695', '708', '714', '722', '725', '749', '758', '760', '767', '768', '774', '781', '785', '793', '795', '800', '807', '815', '817', '838', '839', '840', '861', '862', '866', '881', '889', '890', '893', '894', '898', '915', '916', '923', '939', '945', '952', '959', '962', '964', '965', '966', '973', '978', '979', '984', '985', '989', '990', '992', '996', '999']",False,1000,True,100,34b5560275,0.0,1.0,0.0
./expes/v3_2021-02-24_hi_1000-prng-1-w1-fpa10-0.3-p100,30_issda-1000,1000,first-1000,450,45,rng,num-start-700,700,25726,fpa-09-10-0.3-20,51.91021656990051,False,,False,0.2967131184098173,0.2897151947954225,0.29964973728105837,100,"['1', '4', '6', '7', '8', '9', '12', '13', '14', '16', '18', '19', '20', '23', '25', '27', '28', '30', '31', '35', '36', '37', '40', '42', '43', '44', '45', '49', '50', '52', '53', '54', '55', '56', '57', '60', '61', '62', '63', '65', '66', '67', '68', '69', '71', '74', '77', '78', '81', '83', '84', '85', '86', '87', '88', '89', '90', '91', '94', '95', '96', '97', '99', '102', '103', '105', '106', '107', '109', '112', '113', '114', '115', '121', '123', '124', '125', '132', '133', '136', '137', '141', '142', '143', '145', '146', '149', '152', '153', '161', '166', '167', '168', '169', '173', '174', '175', '176', '177', '178', '181', '186', '191', '192', '194', '197', '203', '204', '205', '206', '208', '210', '211', '214', '215', '216', '217', '219', '226', '227', '228', '230', '233', '237', '242', '243', '244', '249', '250', '254', '255', '258', '260', '263', '266', '269', '270', '274', '275', '277', '281', '282', '284', '285', '288', '292', '298', '299', '302', '304', '308', '309', '310', '315', '317', '323', '326', '330', '332', '333', '337', '338', '339', '342', '343', '344', '346', '347', '350', '355', '356', '358', '362', '364', '374', '375', '379', '381', '382', '383', '388', '389', '391', '393', '395', '396', '398', '399', '407', '408', '409', '411', '412', '413', '417', '420', '422', '427', '428', '431', '432', '433', '435', '436', '439', '441', '444', '447', '450', '451', '455', '458', '460', '462', '463', '465', '467', '468', '470', '473', '475', '478', '479', '482', '486', '487', '490', '493', '494', '502', '504', '507', '508', '509', '510', '513', '515', '518', '519', '522', '523', '527', '530', '531', '532', '535', '537', '540', '542', '547', '549', '551', '553', '555', '556', '557', '558', '559', '561', '562', '566', '568', '569', '570', '573', '574', '576', '577', '579', '580', '583', '587', '588', '589', '590', '593', '594', '595', '599', '600', '603', '605', '606', '608', '612', '614', '618', '619', '620', '621', '622', '623', '624', '626', '627', '628', '632', '638', '640', '641', '642', '645', '650', '653', '655', '658', '659', '661', '664', '667', '675', '680', '684', '686', '687', '688', '691', '693', '695', '696', '698', '700', '705', '710', '711', '713', '714', '717', '718', '721', '723', '726', '727', '729', '733', '735', '737', '738', '743', '744', '745', '746', '748', '752', '754', '755', '756', '759', '764', '765', '766', '771', '779', '780', '782', '783', '784', '790', '791', '792', '793', '794', '795', '797', '799', '800', '802', '803', '806', '809', '813', '814', '816', '818', '819', '820', '823', '827', '829', '830', '835', '841', '843', '853', '854', '858', '864', '866', '867', '872', '873', '880', '881', '885', '888', '889', '890', '893', '896', '897', '898', '899', '900', '901', '902', '903', '905', '908', '909', '911', '914', '915', '917', '918', '919', '920', '921', '924', '928', '929', '932', '934', '940', '942', '943', '944', '946', '947', '954', '959', '961', '963', '964', '967', '969', '970', '974', '975', '977', '979', '982', '984', '985', '986', '988', '990', '991', '992', '999', '1000']",False,1000,True,100,11b563f8d9,0.0,1.0,0.0
./expes/v3_2021-02-24_hi_1000-prng-1-w1-fpa10-0.3-p100,30_issda-1000,1000,first-1000,250,25,rng,num-start-1000,1000,25726,fpa-09-10-0.3-20,97.32008719444275,False,,False,0.38945478152804536,0.38487531477075443,0.3930664217821127,100,"['3', '8', '9', '17', '18', '24', '26', '27', '33', '41', '42', '45', '47', '64', '66', '69', '70', '73', '76', '78', '80', '88', '91', '94', '96', '97', '101', '102', '104', '108', '110', '111', '115', '117', '119', '123', '124', '130', '132', '138', '140', '142', '152', '157', '159', '163', '170', '175', '176', '180', '188', '192', '197', '202', '205', '207', '208', '213', '215', '216', '230', '232', '239', '251', '260', '267', '268', '269', '270', '271', '275', '281', '282', '288', '291', '293', '297', '301', '303', '307', '309', '314', '316', '319', '325', '326', '332', '333', '334', '336', '338', '340', '356', '366', '371', '376', '378', '379', '386', '389', '394', '398', '400', '402', '403', '406', '414', '417', '422', '424', '425', '431', '434', '439', '440', '441', '448', '450', '451', '456', '461', '463', '466', '467', '469', '470', '473', '475', '478', '479', '480', '481', '482', '488', '490', '492', '506', '513', '515', '517', '518', '522', '524', '526', '533', '537', '542', '555', '556', '559', '561', '568', '576', '583', '584', '585', '591', '593', '599', '603', '606', '608', '609', '610', '633', '636', '642', '650', '652', '653', '657', '662', '665', '669', '670', '673', '675', '676', '680', '684', '693', '694', '698', '701', '703', '704', '713', '723', '727', '733', '734', '735', '738', '743', '746', '749', '752', '754', '756', '764', '770', '771', '774', '784', '792', '794', '804', '811', '821', '823', '824', '831', '845', '846', '852', '854', '855', '862', '871', '874', '877', '881', '887', '890', '893', '900', '901', '905', '906', '912', '917', '918', '919', '928', '937', '943', '952', '953', '958', '959', '969', '973', '977', '979', '980', '982', '989', '992', '995', '997']",False,1000,True,100,62944a399a,0.0,1.0,0.0
./expes/v3_2021-02-24_hi_1000-prng-1-w1-fpa10-0.3-p100,30_issda-1000,1000,first-1000,400,40,rng,num-start-100,100,25726,fpa-09-10-0.3-20,7.731492519378662,False,,False,0.3121411217613743,0.298221906517101,0.3155524355595466,100,"['1', '2', '6', '7', '10', '11', '12', '14', '15', '18', '21', '22', '23', '24', '27', '29', '32', '34', '38', '39', '40', '44', '45', '46', '48', '50', '53', '54', '57', '58', '60', '61', '67', '68', '73', '79', '81', '82', '83', '85', '86', '89', '92', '93', '95', '96', '100', '103', '104', '106', '107', '110', '111', '112', '117', '118', '119', '121', '125', '126', '127', '129', '135', '137', '140', '145', '146', '147', '148', '151', '155', '157', '158', '159', '160', '162', '169', '171', '172', '176', '177', '179', '183', '187', '190', '191', '195', '196', '198', '199', '200', '203', '209', '211', '212', '214', '215', '217', '218', '222', '224', '226', '227', '228', '229', '230', '231', '233', '234', '236', '238', '241', '242', '244', '245', '246', '248', '249', '251', '260', '262', '265', '266', '267', '275', '276', '290', '291', '292', '294', '301', '302', '303', '304', '310', '312', '313', '317', '318', '321', '322', '325', '328', '330', '342', '343', '344', '350', '353', '357', '358', '363', '371', '372', '374', '379', '383', '384', '386', '393', '394', '396', '398', '401', '403', '404', '405', '406', '410', '413', '414', '415', '416', '417', '418', '419', '420', '422', '423', '426', '427', '428', '431', '434', '437', '438', '440', '444', '445', '447', '452', '453', '456', '458', '459', '465', '466', '467', '468', '472', '473', '474', '476', '478', '481', '483', '484', '487', '489', '493', '494', '500', '502', '503', '504', '507', '508', '509', '511', '512', '514', '515', '516', '523', '524', '526', '527', '529', '530', '531', '536', '539', '545', '548', '549', '551', '553', '555', '567', '577', '581', '587', '588', '593', '595', '597', '601', '604', '605', '608', '610', '612', '614', '617', '618', '619', '621', '622', '625', '626', '628', '629', '630', '639', '641', '642', '644', '647', '648', '651', '654', '656', '657', '659', '660', '666', '668', '670', '671', '672', '674', '675', '676', '677', '679', '682', '683', '684', '685', '696', '698', '699', '704', '706', '707', '708', '709', '711', '716', '717', '721', '725', '729', '732', '736', '739', '742', '743', '744', '746', '748', '750', '754', '755', '756', '761', '762', '767', '768', '770', '771', '774', '777', '780', '782', '784', '792', '793', '799', '802', '803', '806', '807', '808', '809', '810', '815', '818', '824', '826', '828', '832', '834', '835', '836', '837', '843', '846', '847', '850', '853', '861', '863', '864', '866', '868', '869', '871', '875', '882', '886', '889', '898', '905', '906', '907', '915', '918', '919', '921', '922', '925', '928', '929', '938', '941', '942', '946', '948', '953', '954', '958', '964', '966', '967', '971', '972', '975', '976', '977', '980', '983', '986', '990', '991', '992', '993', '994', '995', '998']",False,1000,True,100,635b9d4713,0.0,1.0,0.0
./expes/v3_2021-02-24_hi_1000-prng-1-w1-fpa10-0.3-p100,30_issda-1000,1000,first-1000,50,5,rng,num-start-600,600,25726,fpa-09-10-0.3-20,51.447494983673096,False,,False,0.6889515688400019,0.686793840900122,0.6932523934989971,100,"['18', '24', '45', '73', '76', '101', '102', '111', '117', '124', '152', '205', '207', '208', '267', '268', '275', '297', '319', '334', '336', '356', '398', '403', '422', '425', '434', '467', '524', '533', '542', '556', '583', '593', '599', '610', '633', '694', '746', '752', '792', '804', '823', '855', '887', '901', '917', '919', '943', '992']",False,1000,True,100,4fe25912fa,0.0,1.0,0.0
./expes/v3_2021-02-24_hi_1000-prng-1-w1-fpa10-0.3-p100,30_issda-1000,1000,first-1000,350,35,rng,num-start-1000,1000,25726,fpa-09-10-0.3-20,92.08301973342896,False,,False,0.3170769159053725,0.31409149992840113,0.3214276306388091,100,"['5', '8', '12', '14', '16', '21', '22', '23', '28', '30', '32', '33', '34', '35', '36', '37', '44', '46', '47', '51', '55', '62', '63', '65', '66', '68', '69', '70', '79', '82', '88', '91', '100', '105', '106', '107', '108', '111', '117', '122', '123', '124', '126', '128', '129', '133', '134', '135', '137', '138', '140', '142', '155', '156', '160', '164', '168', '174', '176', '182', '188', '190', '192', '196', '197', '203', '204', '205', '217', '223', '224', '227', '228', '230', '231', '233', '238', '240', '242', '244', '245', '246', '251', '258', '259', '265', '266', '270', '271', '274', '276', '278', '286', '287', '292', '294', '296', '298', '299', '301', '306', '308', '309', '311', '318', '321', '322', '323', '328', '330', '335', '336', '339', '341', '342', '345', '348', '349', '350', '353', '354', '355', '360', '361', '362', '369', '373', '375', '379', '386', '387', '396', '397', '400', '405', '407', '418', '420', '421', '424', '426', '427', '430', '432', '438', '441', '442', '445', '446', '447', '448', '449', '456', '462', '468', '472', '476', '478', '481', '482', '485', '486', '488', '489', '493', '494', '496', '502', '507', '513', '516', '518', '520', '523', '525', '531', '532', '533', '534', '536', '538', '543', '547', '548', '549', '550', '554', '555', '557', '558', '562', '563', '565', '573', '582', '583', '586', '588', '589', '591', '594', '595', '599', '600', '601', '603', '604', '606', '607', '610', '615', '616', '619', '620', '621', '624', '626', '627', '630', '631', '635', '636', '638', '641', '642', '643', '644', '648', '649', '650', '651', '655', '658', '660', '666', '670', '672', '679', '688', '689', '692', '693', '695', '696', '698', '699', '701', '707', '711', '713', '715', '716', '724', '731', '732', '733', '735', '736', '737', '738', '746', '753', '756', '760', '764', '766', '772', '777', '780', '788', '791', '796', '798', '799', '802', '806', '807', '808', '813', '820', '821', '823', '824', '826', '827', '830', '831', '832', '833', '837', '844', '848', '852', '853', '854', '857', '858', '859', '865', '871', '875', '876', '877', '879', '882', '883', '885', '887', '888', '889', '891', '894', '900', '902', '903', '905', '907', '909', '912', '919', '922', '926', '927', '931', '935', '938', '940', '943', '944', '945', '947', '949', '950', '952', '959', '962', '964', '966', '972', '973', '978', '981', '982', '984', '987', '988', '989', '995', '996', '997']",False,1000,True,100,fd775652b2,0.0,1.0,0.0
./expes/v3_2021-02-24_hi_1000-prng-1-w1-fpa10-0.3-p100,30_issda-1000,1000,first-1000,50,5,rng,num-start-300,300,25726,fpa-09-10-0.3-20,26.75942635536194,False,,False,0.6965752880082481,0.686793840900122,0.7032036252106706,100,"['39', '48', '50', '51', '60', '61', '64', '72', '75', '89', '93', '97', '121', '127', '137', '148', '155', '220', '227', '229', '247', '297', '316', '332', '375', '405', '407', '429', '430', '435', '445', '520', '549', '554', '565', '571', '580', '585', '591', '597', '600', '643', '646', '667', '841', '847', '880', '932', '971', '1000']",False,1000,True,100,23d4f4cf7e,0.0,1.0,0.0
./expes/v3_2021-02-24_hi_1000-prng-1-w1-fpa10-0.3-p100,30_issda-1000,1000,first-1000,50,5,rng,num-start-500,500,25726,fpa-09-10-0.3-20,46.41078782081604,False,,False,0.6998915662462153,0.6932523934989971,0.7032036252106706,100,"['121', '126', '174', '179', '186', '188', '201', '203', '206', '207', '222', '241', '244', '246', '260', '271', '303', '307', '333', '343', '375', '460', '470', '492', '502', '506', '520', '535', '590', '644', '678', '692', '694', '709', '734', '753', '775', '781', '807', '830', '831', '856', '887', '895', '909', '914', '921', '967', '975', '991']",False,1000,True,100,e20a9f64a3,0.0,1.0,0.0
./expes/v3_2021-02-24_hi_1000-prng-1-w1-fpa10-0.3-p100,30_issda-1000,1000,first-1000,100,10,rng,num-start-700,700,25726,fpa-09-10-0.3-20,71.75113224983215,False,,False,0.5718893925270511,0.568507026492683,0.5826582046161992,100,"['1', '5', '16', '18', '31', '37', '43', '54', '61', '65', '69', '72', '86', '88', '93', '97', '111', '146', '162', '190', '191', '195', '201', '215', '219', '236', '240', '248', '261', '285', '296', '298', '302', '311', '323', '335', '396', '406', '411', '417', '452', '458', '463', '464', '469', '476', '477', '482', '488', '512', '521', '525', '526', '532', '542', '552', '565', '574', '577', '602', '606', '610', '615', '629', '631', '639', '645', '650', '656', '666', '670', '671', '679', '702', '711', '725', '757', '777', '785', '797', '800', '813', '824', '830', '852', '861', '863', '867', '868', '876', '878', '887', '901', '912', '933', '947', '950', '955', '982', '988']",False,1000,True,100,6a454192a9,0.0,1.0,0.0
./expes/v3_2021-02-24_hi_1000-prng-1-w1-fpa10-0.3-p100,30_issda-1000,1000,first-1000,50,5,rng,num-start-800,800,25726,fpa-09-10-0.3-20,75.65792965888977,False,,False,0.6941787981573556,0.6900062966831486,0.7032036252106706,100,"['16', '31', '37', '43', '61', '65', '93', '97', '146', '162', '190', '191', '195', '248', '311', '406', '458', '463', '464', '477', '488', '521', '525', '542', '552', '574', '602', '610', '615', '629', '631', '639', '645', '650', '666', '670', '711', '757', '800', '813', '824', '830', '852', '876', '878', '887', '901', '912', '947', '988']",False,1000,True,100,bfaa077f4c,0.0,1.0,0.0
./expes/v3_2021-02-24_hi_1000-prng-1-w1-fpa10-0.3-p100,30_issda-1000,1000,first-1000,50,5,rng,num-start-600,600,25726,fpa-09-10-0.3-20,57.13583064079285,False,,False,0.6877290926548593,0.6836140014158336,0.6965332108910564,100,"['2', '12', '20', '61', '63', '77', '90', '147', '149', '167', '205', '216', '229', '234', '276', '281', '346', '348', '359', '377', '384', '391', '415', '451', '472', '486', '495', '522', '526', '542', '572', '591', '616', '640', '659', '674', '678', '683', '698', '704', '708', '818', '830', '839', '840', '863', '886', '928', '937', '941']",False,1000,True,100,073d2caae1,0.0,1.0,0.0
./expes/v3_2021-02-24_hi_1000-prng-1-w1-fpa10-0.3-p100,30_issda-1000,1000,first-1000,400,40,rng,num-start-100,100,25726,fpa-09-10-0.3-20,8.805199146270752,False,,False,0.2925031800527481,0.2883072948901987,0.3199540732697074,100,"['6', '8', '9', '10', '11', '13', '16', '19', '20', '22', '27', '28', '29', '30', '31', '35', '51', '52', '53', '54', '55', '56', '60', '62', '64', '66', '68', '71', '73', '75', '76', '77', '79', '80', '83', '84', '86', '88', '89', '96', '97', '101', '102', '107', '109', '113', '114', '116', '120', '121', '126', '127', '128', '131', '132', '133', '141', '142', '144', '146', '147', '153', '154', '155', '156', '158', '166', '168', '169', '173', '174', '175', '177', '179', '184', '188', '189', '193', '194', '196', '197', '198', '201', '202', '204', '206', '209', '216', '217', '218', '219', '224', '228', '231', '235', '237', '242', '245', '248', '249', '250', '255', '256', '257', '258', '259', '262', '265', '269', '270', '272', '273', '274', '276', '280', '283', '285', '289', '291', '292', '296', '297', '301', '302', '303', '304', '309', '311', '313', '315', '316', '317', '318', '320', '321', '324', '325', '326', '327', '330', '334', '337', '339', '341', '343', '344', '345', '346', '348', '356', '357', '364', '365', '366', '369', '373', '375', '377', '382', '384', '388', '393', '394', '398', '401', '403', '410', '412', '413', '414', '416', '417', '418', '419', '420', '425', '427', '430', '431', '433', '438', '439', '441', '444', '445', '447', '449', '454', '456', '457', '460', '461', '464', '467', '471', '474', '475', '479', '484', '486', '487', '489', '492', '495', '497', '499', '505', '506', '507', '508', '514', '515', '517', '519', '520', '527', '528', '529', '531', '532', '535', '536', '538', '539', '540', '541', '546', '548', '550', '552', '553', '554', '556', '557', '561', '563', '565', '567', '568', '569', '570', '571', '573', '578', '582', '586', '589', '590', '592', '593', '594', '596', '601', '605', '606', '613', '615', '619', '627', '628', '632', '636', '642', '648', '649', '651', '652', '655', '656', '665', '674', '675', '678', '680', '684', '693', '698', '699', '701', '702', '703', '708', '717', '721', '722', '723', '728', '729', '733', '742', '743', '747', '749', '750', '757', '762', '763', '765', '766', '767', '768', '769', '770', '771', '772', '773', '776', '777', '778', '779', '782', '784', '785', '790', '793', '797', '799', '800', '802', '804', '806', '807', '811', '814', '819', '821', '822', '823', '825', '827', '831', '832', '833', '835', '837', '840', '841', '842', '845', '847', '849', '851', '853', '858', '860', '863', '867', '871', '877', '880', '881', '885', '886', '889', '895', '897', '903', '904', '910', '912', '915', '919', '921', '922', '924', '928', '929', '930', '931', '932', '935', '939', '940', '943', '944', '946', '947', '949', '953', '954', '956', '959', '962', '963', '965', '968', '975', '979', '980', '981', '983', '984', '985', '988', '991', '994', '996', '997', '998', '999']",False,1000,True,100,6f6826a4a8,0.0,1.0,0.0
./expes/v3_2021-02-24_hi_1000-prng-1-w1-fpa10-0.3-p100,30_issda-1000,1000,first-1000,150,15,rng,num-start-800,800,25726,fpa-09-10-0.3-20,79.11479878425598,False,,False,0.49325434770366194,0.4898429062923262,0.5037679512100752,100,"['5', '6', '16', '33', '34', '36', '38', '45', '46', '67', '74', '78', '82', '83', '99', '116', '123', '137', '138', '143', '147', '154', '161', '163', '165', '169', '171', '179', '181', '183', '196', '200', '212', '230', '242', '245', '246', '249', '252', '256', '269', '274', '282', '285', '291', '309', '310', '311', '322', '328', '333', '336', '340', '356', '358', '364', '370', '372', '375', '384', '385', '391', '394', '400', '415', '423', '425', '431', '432', '440', '444', '446', '447', '451', '453', '457', '459', '462', '467', '468', '474', '482', '492', '495', '502', '504', '508', '509', '514', '534', '535', '547', '550', '558', '563', '581', '586', '592', '597', '599', '616', '618', '622', '629', '633', '665', '669', '670', '674', '677', '678', '683', '690', '692', '698', '703', '730', '764', '787', '791', '792', '795', '797', '827', '831', '833', '838', '841', '844', '847', '863', '865', '876', '881', '886', '891', '919', '920', '932', '935', '943', '947', '964', '966', '969', '971', '976', '987', '993', '994']",False,1000,True,100,d3356c6db8,0.0,1.0,0.0
./expes/v3_2021-02-24_hi_1000-prng-1-w1-fpa10-0.3-p100,30_issda-1000,1000,first-1000,500,50,rng,num-start-700,700,25726,fpa-09-10-0.3-20,47.16422653198242,False,,False,0.28994349042389667,0.28549981769735666,0.29964973728105837,100,"['6', '8', '9', '10', '11', '12', '13', '16', '19', '20', '22', '27', '28', '29', '30', '31', '32', '35', '37', '51', '52', '53', '54', '55', '56', '57', '60', '62', '64', '66', '68', '71', '73', '74', '75', '76', '77', '79', '80', '81', '83', '84', '86', '88', '89', '90', '96', '97', '101', '102', '107', '109', '113', '114', '116', '120', '121', '126', '127', '128', '129', '131', '132', '133', '135', '141', '142', '144', '146', '147', '151', '153', '154', '155', '156', '158', '161', '166', '167', '168', '169', '173', '174', '175', '177', '178', '179', '184', '188', '189', '193', '194', '196', '197', '198', '201', '202', '203', '204', '206', '209', '214', '216', '217', '218', '219', '220', '222', '224', '228', '231', '234', '235', '236', '237', '242', '243', '245', '248', '249', '250', '255', '256', '257', '258', '259', '262', '263', '264', '265', '266', '267', '269', '270', '271', '272', '273', '274', '276', '277', '280', '282', '283', '285', '289', '291', '292', '296', '297', '299', '301', '302', '303', '304', '309', '310', '311', '313', '315', '316', '317', '318', '319', '320', '321', '324', '325', '326', '327', '330', '334', '335', '337', '339', '341', '343', '344', '345', '346', '348', '356', '357', '360', '361', '364', '365', '366', '369', '372', '373', '375', '377', '379', '382', '384', '385', '388', '389', '393', '394', '396', '398', '401', '403', '404', '410', '412', '413', '414', '415', '416', '417', '418', '419', '420', '425', '427', '430', '431', '433', '434', '438', '439', '441', '444', '445', '447', '449', '452', '453', '454', '456', '457', '460', '461', '464', '467', '471', '474', '475', '479', '484', '485', '486', '487', '489', '492', '494', '495', '496', '497', '498', '499', '504', '505', '506', '507', '508', '509', '513', '514', '515', '517', '519', '520', '527', '528', '529', '530', '531', '532', '535', '536', '538', '539', '540', '541', '545', '546', '548', '550', '552', '553', '554', '556', '557', '558', '561', '563', '565', '567', '568', '569', '570', '571', '573', '577', '578', '582', '583', '586', '589', '590', '592', '593', '594', '596', '597', '599', '601', '605', '606', '613', '615', '619', '625', '627', '628', '631', '632', '636', '641', '642', '648', '649', '651', '652', '655', '656', '662', '663', '664', '665', '666', '667', '670', '674', '675', '678', '680', '684', '692', '693', '698', '699', '701', '702', '703', '706', '708', '710', '717', '721', '722', '723', '725', '727', '728', '729', '733', '739', '742', '743', '745', '747', '749', '750', '755', '756', '757', '762', '763', '765', '766', '767', '768', '769', '770', '771', '772', '773', '774', '776', '777', '778', '779', '782', '783', '784', '785', '787', '790', '791', '793', '796', '797', '799', '800', '801', '802', '804', '806', '807', '811', '813', '814', '819', '821', '822', '823', '825', '827', '829', '831', '832', '833', '834', '835', '837', '838', '840', '841', '842', '845', '847', '849', '851', '853', '858', '860', '863', '867', '869', '871', '873', '875', '877', '878', '879', '880', '881', '885', '886', '889', '890', '893', '895', '897', '900', '903', '904', '910', '912', '915', '919', '920', '921', '922', '924', '928', '929', '930', '931', '932', '935', '939', '940', '941', '943', '944', '946', '947', '949', '953', '954', '956', '959', '962', '963', '964', '965', '966', '968', '972', '974', '975', '979', '980', '981', '983', '984', '985', '988', '991', '994', '995', '996', '997', '998', '999']",False,1000,True,100,323bc0d1d8,0.0,1.0,0.0
