expe,clients,clients_size,clients_subset,agg_size,agg_size_pc,method,days,days_size,days_total,noise_method,time,valid,valid_sum,success,nsols,wall_hit,wall_time,pooled,valid_sums
./expes/v2_2021-01-07_di_4500-prng-w5-2,daily_issda-4500,4500,rng-4500,2016,44,rng,num-start-1,1,536,normal,0.6464042663574219,False,,False,2,False,5000,True,0.0
./expes/v2_2021-01-07_di_4500-prng-w5-2,daily_issda-4500,4500,rng-4500,2240,49,rng,num-start-21,21,536,normal,6.8338189125061035,False,,False,2,False,5000,True,0.0
./expes/v2_2021-01-07_di_4500-prng-w5-2,daily_issda-4500,4500,rng-4500,1120,24,rng,num-start-91,91,536,normal,29.628029108047485,False,,False,2,False,5000,True,0.0
./expes/v2_2021-01-07_di_4500-prng-w5-2,daily_issda-4500,4500,rng-4500,448,9,rng,num-start-141,141,536,normal,62.608853578567505,False,,False,2,False,5000,True,0.0
./expes/v2_2021-01-07_di_4500-prng-w5-2,daily_issda-4500,4500,rng-4500,896,19,rng,num-start-31,31,536,normal,11.755504131317139,False,,False,2,False,5000,True,0.0
./expes/v2_2021-01-07_di_4500-prng-w5-2,daily_issda-4500,4500,rng-4500,1680,37,rng,num-start-1,1,536,normal,0.5966951847076416,False,,False,2,False,5000,True,0.0
./expes/v2_2021-01-07_di_4500-prng-w5-2,daily_issda-4500,4500,rng-4500,896,19,rng,num-start-221,221,536,normal,68.51466178894043,False,,False,2,False,5000,True,0.0
./expes/v2_2021-01-07_di_4500-prng-w5-2,daily_issda-4500,4500,rng-4500,1680,37,rng,num-start-291,291,536,normal,96.70177674293518,False,,False,2,False,5000,True,0.0
./expes/v2_2021-01-07_di_4500-prng-w5-2,daily_issda-4500,4500,rng-4500,784,17,rng,num-start-241,241,536,normal,73.04318642616272,False,,False,2,False,5000,True,0.0
