expe,clients,clients_size,clients_subset,agg_size,agg_size_pc,method,days,days_size,days_total,noise_method,time,valid,valid_sum,success,nsols,wall_hit,wall_time,pooled,valid_sums
./expes/v2_2021-01-07_di_4500-prng-w5-2,daily_issda-4500,4500,rng-4500,784,17,rng,num-start-161,161,536,normal,56.07233119010925,False,,False,2,False,5000,True,0.0
./expes/v2_2021-01-07_di_4500-prng-w5-2,daily_issda-4500,4500,rng-4500,560,12,rng,num-start-131,131,536,normal,59.64951968193054,False,,False,2,False,5000,True,0.0
./expes/v2_2021-01-07_di_4500-prng-w5-2,daily_issda-4500,4500,rng-4500,2240,49,rng,num-start-181,181,536,normal,54.89356756210327,False,,False,2,False,5000,True,0.0
./expes/v2_2021-01-07_di_4500-prng-w5-2,daily_issda-4500,4500,rng-4500,1120,24,rng,num-start-231,231,536,normal,70.57237577438354,False,,False,2,False,5000,True,0.0
./expes/v2_2021-01-07_di_4500-prng-w5-2,daily_issda-4500,4500,rng-4500,2016,44,rng,num-start-91,91,536,normal,28.34358239173889,False,,False,2,False,5000,True,0.0
./expes/v2_2021-01-07_di_4500-prng-w5-2,daily_issda-4500,4500,rng-4500,2128,47,rng,num-start-171,171,536,normal,51.584214210510254,False,,False,2,False,5000,True,0.0
./expes/v2_2021-01-07_di_4500-prng-w5-2,daily_issda-4500,4500,rng-4500,1120,24,rng,num-start-211,211,536,normal,60.462952613830566,False,,False,2,False,5000,True,0.0
