expe,clients,clients_size,clients_subset,agg_size,method,days,days_size,days_total,time,valid,valid_sum,success,nsols,wall_hit,wall_time,pooled,valid_sums
./expes/v2_2020-11-05_dbh_300-prng-1,daily_base_hphc_300,300,first-300,281,rng,num-start-21,21,365,1000.8445558547974,False,,False,0,True,1000,True,0.0
./expes/v2_2020-11-05_dbh_300-prng-1,daily_base_hphc_300,300,first-300,201,rng,num-start-21,21,365,1000.7444069385529,False,,False,0,True,1000,True,0.0
./expes/v2_2020-11-05_dbh_300-prng-1,daily_base_hphc_300,300,first-300,71,rng,num-start-111,111,365,8.433627843856812,True,,True,1,False,1000,True,1.0
./expes/v2_2020-11-05_dbh_300-prng-1,daily_base_hphc_300,300,first-300,101,rng,num-start-81,81,365,1001.6951811313629,False,,False,0,True,1000,True,0.0
./expes/v2_2020-11-05_dbh_300-prng-1,daily_base_hphc_300,300,first-300,201,rng,num-start-81,81,365,1001.7946660518646,False,,False,0,True,1000,True,0.0
./expes/v2_2020-11-05_dbh_300-prng-1,daily_base_hphc_300,300,first-300,81,rng,num-start-101,101,365,38.484580755233765,True,,True,1,False,1000,True,1.0
./expes/v2_2020-11-05_dbh_300-prng-1,daily_base_hphc_300,300,first-300,201,rng,num-start-241,241,365,7.081051349639893,True,,True,1,False,1000,True,1.0
./expes/v2_2020-11-05_dbh_300-prng-1,daily_base_hphc_300,300,first-300,241,rng,num-start-201,201,365,7.069429874420166,True,,True,1,False,1000,True,1.0
./expes/v2_2020-11-05_dbh_300-prng-1,daily_base_hphc_300,300,first-300,271,rng,num-start-61,61,365,5.2032551765441895,True,,True,1,False,1000,True,1.0
./expes/v2_2020-11-05_dbh_300-prng-1,daily_base_hphc_300,300,first-300,241,rng,num-start-231,231,365,6.058028936386108,True,,True,1,False,1000,True,1.0
./expes/v2_2020-11-05_dbh_300-prng-1,daily_base_hphc_300,300,first-300,101,rng,num-start-11,11,365,1000.4015979766846,False,,False,0,True,1000,True,0.0
./expes/v2_2020-11-05_dbh_300-prng-1,daily_base_hphc_300,300,first-300,131,rng,num-start-21,21,365,1000.4515247344971,False,,False,0,True,1000,True,0.0
./expes/v2_2020-11-05_dbh_300-prng-1,daily_base_hphc_300,300,first-300,161,rng,num-start-251,251,365,8.322005033493042,True,,True,1,False,1000,True,1.0
./expes/v2_2020-11-05_dbh_300-prng-1,daily_base_hphc_300,300,first-300,221,rng,num-start-111,111,365,13.208471536636353,True,,True,1,False,1000,True,1.0
./expes/v2_2020-11-05_dbh_300-prng-1,daily_base_hphc_300,300,first-300,101,rng,num-start-91,91,365,1001.899610042572,False,,False,0,True,1000,True,0.0
./expes/v2_2020-11-05_dbh_300-prng-1,daily_base_hphc_300,300,first-300,31,rng,num-start-51,51,365,893.2410888671875,True,,True,1,False,1000,True,1.0
./expes/v2_2020-11-05_dbh_300-prng-1,daily_base_hphc_300,300,first-300,91,rng,num-start-201,201,365,6.459885120391846,True,,True,1,False,1000,True,1.0
./expes/v2_2020-11-05_dbh_300-prng-1,daily_base_hphc_300,300,first-300,111,rng,num-start-281,281,365,10.322254419326782,True,,True,1,False,1000,True,1.0
./expes/v2_2020-11-05_dbh_300-prng-1,daily_base_hphc_300,300,first-300,11,rng,num-start-261,261,365,7.201450824737549,True,,True,1,False,1000,True,1.0
./expes/v2_2020-11-05_dbh_300-prng-1,daily_base_hphc_300,300,first-300,81,rng,num-start-141,141,365,4.894582033157349,True,,True,1,False,1000,True,1.0
./expes/v2_2020-11-05_dbh_300-prng-1,daily_base_hphc_300,300,first-300,71,rng,num-start-31,31,365,1000.7352452278137,False,,False,0,True,1000,True,0.0
./expes/v2_2020-11-05_dbh_300-prng-1,daily_base_hphc_300,300,first-300,291,rng,num-start-151,151,365,3.8048832416534424,True,,True,1,False,1000,True,1.0
./expes/v2_2020-11-05_dbh_300-prng-1,daily_base_hphc_300,300,first-300,171,rng,num-start-161,161,365,5.804486036300659,True,,True,1,False,1000,True,1.0
./expes/v2_2020-11-05_dbh_300-prng-1,daily_base_hphc_300,300,first-300,231,rng,num-start-191,191,365,6.217293739318848,True,,True,1,False,1000,True,1.0
./expes/v2_2020-11-05_dbh_300-prng-1,daily_base_hphc_300,300,first-300,51,rng,num-start-101,101,365,3.3345634937286377,True,,True,1,False,1000,True,1.0
./expes/v2_2020-11-05_dbh_300-prng-1,daily_base_hphc_300,300,first-300,111,rng,num-start-21,21,365,1000.475893497467,False,,False,0,True,1000,True,0.0
./expes/v2_2020-11-05_dbh_300-prng-1,daily_base_hphc_300,300,first-300,291,rng,num-start-251,251,365,5.95708441734314,True,,True,1,False,1000,True,1.0
./expes/v2_2020-11-05_dbh_300-prng-1,daily_base_hphc_300,300,first-300,241,rng,num-start-201,201,365,6.1926186084747314,True,,True,1,False,1000,True,1.0
./expes/v2_2020-11-05_dbh_300-prng-1,daily_base_hphc_300,300,first-300,91,rng,num-start-101,101,365,39.06160092353821,True,,True,1,False,1000,True,1.0
./expes/v2_2020-11-05_dbh_300-prng-1,daily_base_hphc_300,300,first-300,171,rng,num-start-1,1,365,0.08822274208068848,False,,False,2,False,1000,True,1.0
./expes/v2_2020-11-05_dbh_300-prng-1,daily_base_hphc_300,300,first-300,111,rng,num-start-231,231,365,8.726015090942383,True,,True,1,False,1000,True,1.0
./expes/v2_2020-11-05_dbh_300-prng-1,daily_base_hphc_300,300,first-300,21,rng,num-start-31,31,365,1000.9010577201843,False,,False,0,True,1000,True,0.0
./expes/v2_2020-11-05_dbh_300-prng-1,daily_base_hphc_300,300,first-300,101,rng,num-start-11,11,365,1000.2896609306335,False,,False,0,True,1000,True,0.0
./expes/v2_2020-11-05_dbh_300-prng-1,daily_base_hphc_300,300,first-300,191,rng,num-start-131,131,365,12.883280277252197,True,,True,1,False,1000,True,1.0
./expes/v2_2020-11-05_dbh_300-prng-1,daily_base_hphc_300,300,first-300,121,rng,num-start-31,31,365,1000.6360051631927,False,,False,0,True,1000,True,0.0
./expes/v2_2020-11-05_dbh_300-prng-1,daily_base_hphc_300,300,first-300,221,rng,num-start-21,21,365,1000.493319272995,False,,False,0,True,1000,True,0.0
./expes/v2_2020-11-05_dbh_300-prng-1,daily_base_hphc_300,300,first-300,251,rng,num-start-1,1,365,0.10583829879760742,False,,False,2,False,1000,True,1.0
./expes/v2_2020-11-05_dbh_300-prng-1,daily_base_hphc_300,300,first-300,51,rng,num-start-131,131,365,4.356340408325195,True,,True,1,False,1000,True,1.0
./expes/v2_2020-11-05_dbh_300-prng-1,daily_base_hphc_300,300,first-300,251,rng,num-start-171,171,365,5.23239803314209,True,,True,1,False,1000,True,1.0
./expes/v2_2020-11-05_dbh_300-prng-1,daily_base_hphc_300,300,first-300,11,rng,num-start-231,231,365,7.106520891189575,True,,True,1,False,1000,True,1.0
./expes/v2_2020-11-05_dbh_300-prng-1,daily_base_hphc_300,300,first-300,71,rng,num-start-111,111,365,5.440503358840942,True,,True,1,False,1000,True,1.0
./expes/v2_2020-11-05_dbh_300-prng-1,daily_base_hphc_300,300,first-300,281,rng,num-start-21,21,365,1000.6442289352417,False,,False,0,True,1000,True,0.0
./expes/v2_2020-11-05_dbh_300-prng-1,daily_base_hphc_300,300,first-300,271,rng,num-start-121,121,365,3.3100101947784424,True,,True,1,False,1000,True,1.0
./expes/v2_2020-11-05_dbh_300-prng-1,daily_base_hphc_300,300,first-300,41,rng,num-start-61,61,365,1001.2855019569397,False,,False,0,True,1000,True,0.0
./expes/v2_2020-11-05_dbh_300-prng-1,daily_base_hphc_300,300,first-300,241,rng,num-start-51,51,365,1001.1632661819458,False,,False,0,True,1000,True,0.0
./expes/v2_2020-11-05_dbh_300-prng-1,daily_base_hphc_300,300,first-300,241,rng,num-start-11,11,365,1000.3495454788208,False,,False,0,True,1000,True,0.0
./expes/v2_2020-11-05_dbh_300-prng-1,daily_base_hphc_300,300,first-300,41,rng,num-start-11,11,365,1000.2571406364441,False,,False,0,True,1000,True,0.0
./expes/v2_2020-11-05_dbh_300-prng-1,daily_base_hphc_300,300,first-300,261,rng,num-start-51,51,365,1001.1135022640228,False,,False,0,True,1000,True,0.0
./expes/v2_2020-11-05_dbh_300-prng-1,daily_base_hphc_300,300,first-300,121,rng,num-start-71,71,365,1001.5756347179413,False,,False,0,True,1000,True,0.0
./expes/v2_2020-11-05_dbh_300-prng-1,daily_base_hphc_300,300,first-300,101,rng,num-start-141,141,365,4.745635747909546,True,,True,1,False,1000,True,1.0
./expes/v2_2020-11-05_dbh_300-prng-1,daily_base_hphc_300,300,first-300,11,rng,num-start-201,201,365,5.392803907394409,True,,True,1,False,1000,True,1.0
./expes/v2_2020-11-05_dbh_300-prng-1,daily_base_hphc_300,300,first-300,41,rng,num-start-121,121,365,3.824420213699341,True,,True,1,False,1000,True,1.0
./expes/v2_2020-11-05_dbh_300-prng-1,daily_base_hphc_300,300,first-300,211,rng,num-start-141,141,365,4.9877588748931885,True,,True,1,False,1000,True,1.0
./expes/v2_2020-11-05_dbh_300-prng-1,daily_base_hphc_300,300,first-300,171,rng,num-start-81,81,365,1001.7664737701416,False,,False,0,True,1000,True,0.0
./expes/v2_2020-11-05_dbh_300-prng-1,daily_base_hphc_300,300,first-300,91,rng,num-start-181,181,365,6.236836671829224,True,,True,1,False,1000,True,1.0
./expes/v2_2020-11-05_dbh_300-prng-1,daily_base_hphc_300,300,first-300,261,rng,num-start-91,91,365,4.93953013420105,True,,True,1,False,1000,True,1.0
./expes/v2_2020-11-05_dbh_300-prng-1,daily_base_hphc_300,300,first-300,251,rng,num-start-191,191,365,5.869360685348511,True,,True,1,False,1000,True,1.0
./expes/v2_2020-11-05_dbh_300-prng-1,daily_base_hphc_300,300,first-300,141,rng,num-start-41,41,365,1000.9075095653534,False,,False,0,True,1000,True,0.0
./expes/v2_2020-11-05_dbh_300-prng-1,daily_base_hphc_300,300,first-300,251,rng,num-start-121,121,365,3.4438576698303223,True,,True,1,False,1000,True,1.0
./expes/v2_2020-11-05_dbh_300-prng-1,daily_base_hphc_300,300,first-300,101,rng,num-start-141,141,365,4.813053846359253,True,,True,1,False,1000,True,1.0
./expes/v2_2020-11-05_dbh_300-prng-1,daily_base_hphc_300,300,first-300,211,rng,num-start-1,1,365,0.11390328407287598,False,,False,2,False,1000,True,1.0
./expes/v2_2020-11-05_dbh_300-prng-1,daily_base_hphc_300,300,first-300,31,rng,num-start-231,231,365,6.37556266784668,True,,True,1,False,1000,True,1.0
./expes/v2_2020-11-05_dbh_300-prng-1,daily_base_hphc_300,300,first-300,81,rng,num-start-111,111,365,8.48168420791626,True,,True,1,False,1000,True,1.0
./expes/v2_2020-11-05_dbh_300-prng-1,daily_base_hphc_300,300,first-300,241,rng,num-start-241,241,365,7.250067472457886,True,,True,1,False,1000,True,1.0
./expes/v2_2020-11-05_dbh_300-prng-1,daily_base_hphc_300,300,first-300,11,rng,num-start-171,171,365,4.648011207580566,True,,True,1,False,1000,True,1.0
./expes/v2_2020-11-05_dbh_300-prng-1,daily_base_hphc_300,300,first-300,281,rng,num-start-281,281,365,7.357111215591431,True,,True,1,False,1000,True,1.0
./expes/v2_2020-11-05_dbh_300-prng-1,daily_base_hphc_300,300,first-300,161,rng,num-start-211,211,365,7.204444885253906,True,,True,1,False,1000,True,1.0
./expes/v2_2020-11-05_dbh_300-prng-1,daily_base_hphc_300,300,first-300,81,rng,num-start-201,201,365,6.819335699081421,True,,True,1,False,1000,True,1.0
./expes/v2_2020-11-05_dbh_300-prng-1,daily_base_hphc_300,300,first-300,21,rng,num-start-141,141,365,3.8842763900756836,True,,True,1,False,1000,True,1.0
./expes/v2_2020-11-05_dbh_300-prng-1,daily_base_hphc_300,300,first-300,281,rng,num-start-201,201,365,5.197402238845825,True,,True,1,False,1000,True,1.0
./expes/v2_2020-11-05_dbh_300-prng-1,daily_base_hphc_300,300,first-300,121,rng,num-start-281,281,365,9.275487422943115,True,,True,1,False,1000,True,1.0
./expes/v2_2020-11-05_dbh_300-prng-1,daily_base_hphc_300,300,first-300,211,rng,num-start-291,291,365,9.079561471939087,True,,True,1,False,1000,True,1.0
./expes/v2_2020-11-05_dbh_300-prng-1,daily_base_hphc_300,300,first-300,71,rng,num-start-41,41,365,1000.9388391971588,False,,False,0,True,1000,True,0.0
./expes/v2_2020-11-05_dbh_300-prng-1,daily_base_hphc_300,300,first-300,141,rng,num-start-171,171,365,5.960739850997925,True,,True,1,False,1000,True,1.0
./expes/v2_2020-11-05_dbh_300-prng-1,daily_base_hphc_300,300,first-300,111,rng,num-start-101,101,365,1002.1560235023499,False,,False,0,True,1000,True,0.0
./expes/v2_2020-11-05_dbh_300-prng-1,daily_base_hphc_300,300,first-300,171,rng,num-start-31,31,365,1000.7414834499359,False,,False,0,True,1000,True,0.0
./expes/v2_2020-11-05_dbh_300-prng-1,daily_base_hphc_300,300,first-300,41,rng,num-start-231,231,365,6.282711029052734,True,,True,1,False,1000,True,1.0
./expes/v2_2020-11-05_dbh_300-prng-1,daily_base_hphc_300,300,first-300,171,rng,num-start-51,51,365,1001.2411170005798,False,,False,0,True,1000,True,0.0
./expes/v2_2020-11-05_dbh_300-prng-1,daily_base_hphc_300,300,first-300,1,rng,num-start-251,251,365,5.011555194854736,True,,True,1,False,1000,True,1.0
./expes/v2_2020-11-05_dbh_300-prng-1,daily_base_hphc_300,300,first-300,51,rng,num-start-291,291,365,7.862947702407837,True,,True,1,False,1000,True,1.0
./expes/v2_2020-11-05_dbh_300-prng-1,daily_base_hphc_300,300,first-300,1,rng,num-start-161,161,365,3.2103607654571533,True,,True,1,False,1000,True,1.0
./expes/v2_2020-11-05_dbh_300-prng-1,daily_base_hphc_300,300,first-300,271,rng,num-start-211,211,365,6.133536100387573,True,,True,1,False,1000,True,1.0
./expes/v2_2020-11-05_dbh_300-prng-1,daily_base_hphc_300,300,first-300,211,rng,num-start-81,81,365,1001.726628780365,False,,False,0,True,1000,True,0.0
./expes/v2_2020-11-05_dbh_300-prng-1,daily_base_hphc_300,300,first-300,131,rng,num-start-51,51,365,1001.1499309539795,False,,False,0,True,1000,True,0.0
./expes/v2_2020-11-05_dbh_300-prng-1,daily_base_hphc_300,300,first-300,121,rng,num-start-91,91,365,1001.8991549015045,False,,False,0,True,1000,True,0.0
./expes/v2_2020-11-05_dbh_300-prng-1,daily_base_hphc_300,300,first-300,181,rng,num-start-111,111,365,1002.6552309989929,False,,False,0,True,1000,True,0.0
./expes/v2_2020-11-05_dbh_300-prng-1,daily_base_hphc_300,300,first-300,241,rng,num-start-191,191,365,5.723473787307739,True,,True,1,False,1000,True,1.0
./expes/v2_2020-11-05_dbh_300-prng-1,daily_base_hphc_300,300,first-300,11,rng,num-start-291,291,365,7.223349094390869,True,,True,1,False,1000,True,1.0
./expes/v2_2020-11-05_dbh_300-prng-1,daily_base_hphc_300,300,first-300,141,rng,num-start-251,251,365,9.146423101425171,True,,True,1,False,1000,True,1.0
./expes/v2_2020-11-05_dbh_300-prng-1,daily_base_hphc_300,300,first-300,21,rng,num-start-141,141,365,4.146684885025024,True,,True,1,False,1000,True,1.0
./expes/v2_2020-11-05_dbh_300-prng-1,daily_base_hphc_300,300,first-300,111,rng,num-start-61,61,365,1001.3063163757324,False,,False,0,True,1000,True,0.0
./expes/v2_2020-11-05_dbh_300-prng-1,daily_base_hphc_300,300,first-300,111,rng,num-start-71,71,365,1001.5168418884277,False,,False,0,True,1000,True,0.0
./expes/v2_2020-11-05_dbh_300-prng-1,daily_base_hphc_300,300,first-300,221,rng,num-start-291,291,365,9.065507888793945,True,,True,1,False,1000,True,1.0
./expes/v2_2020-11-05_dbh_300-prng-1,daily_base_hphc_300,300,first-300,71,rng,num-start-51,51,365,1001.0876708030701,False,,False,0,True,1000,True,0.0
./expes/v2_2020-11-05_dbh_300-prng-1,daily_base_hphc_300,300,first-300,141,rng,num-start-281,281,365,8.9329993724823,True,,True,1,False,1000,True,1.0
./expes/v2_2020-11-05_dbh_300-prng-1,daily_base_hphc_300,300,first-300,281,rng,num-start-81,81,365,2.1504225730895996,True,,True,1,False,1000,True,1.0
./expes/v2_2020-11-05_dbh_300-prng-1,daily_base_hphc_300,300,first-300,31,rng,num-start-231,231,365,6.191922426223755,True,,True,1,False,1000,True,1.0
./expes/v2_2020-11-05_dbh_300-prng-1,daily_base_hphc_300,300,first-300,201,rng,num-start-51,51,365,1001.1064279079437,False,,False,0,True,1000,True,0.0
./expes/v2_2020-11-05_dbh_300-prng-1,daily_base_hphc_300,300,first-300,171,rng,num-start-1,1,365,0.0927739143371582,False,,False,2,False,1000,True,1.0
./expes/v2_2020-11-05_dbh_300-prng-1,daily_base_hphc_300,300,first-300,111,rng,num-start-1,1,365,0.22741079330444336,False,,False,2,False,1000,True,1.0
./expes/v2_2020-11-05_dbh_300-prng-1,daily_base_hphc_300,300,first-300,111,rng,num-start-21,21,365,1000.6959302425385,False,,False,0,True,1000,True,0.0
./expes/v2_2020-11-05_dbh_300-prng-1,daily_base_hphc_300,300,first-300,81,rng,num-start-91,91,365,62.51111054420471,True,,True,1,False,1000,True,1.0
./expes/v2_2020-11-05_dbh_300-prng-1,daily_base_hphc_300,300,first-300,71,rng,num-start-61,61,365,1001.276036977768,False,,False,0,True,1000,True,0.0
./expes/v2_2020-11-05_dbh_300-prng-1,daily_base_hphc_300,300,first-300,41,rng,num-start-291,291,365,7.995667219161987,True,,True,1,False,1000,True,1.0
./expes/v2_2020-11-05_dbh_300-prng-1,daily_base_hphc_300,300,first-300,241,rng,num-start-191,191,365,5.989639043807983,True,,True,1,False,1000,True,1.0
./expes/v2_2020-11-05_dbh_300-prng-1,daily_base_hphc_300,300,first-300,271,rng,num-start-21,21,365,1000.6147708892822,False,,False,0,True,1000,True,0.0
./expes/v2_2020-11-05_dbh_300-prng-1,daily_base_hphc_300,300,first-300,31,rng,num-start-51,51,365,17.824121713638306,True,,True,1,False,1000,True,1.0
./expes/v2_2020-11-05_dbh_300-prng-1,daily_base_hphc_300,300,first-300,81,rng,num-start-61,61,365,1001.2401447296143,False,,False,0,True,1000,True,0.0
./expes/v2_2020-11-05_dbh_300-prng-1,daily_base_hphc_300,300,first-300,191,rng,num-start-211,211,365,7.164234161376953,True,,True,1,False,1000,True,1.0
./expes/v2_2020-11-05_dbh_300-prng-1,daily_base_hphc_300,300,first-300,201,rng,num-start-161,161,365,5.616150140762329,True,,True,1,False,1000,True,1.0
./expes/v2_2020-11-05_dbh_300-prng-1,daily_base_hphc_300,300,first-300,51,rng,num-start-261,261,365,7.770504713058472,True,,True,1,False,1000,True,1.0
./expes/v2_2020-11-05_dbh_300-prng-1,daily_base_hphc_300,300,first-300,91,rng,num-start-71,71,365,1002.2926025390625,False,,False,0,True,1000,True,0.0
./expes/v2_2020-11-05_dbh_300-prng-1,daily_base_hphc_300,300,first-300,91,rng,num-start-131,131,365,4.439782381057739,True,,True,1,False,1000,True,1.0
./expes/v2_2020-11-05_dbh_300-prng-1,daily_base_hphc_300,300,first-300,41,rng,num-start-21,21,365,1000.670902967453,False,,False,0,True,1000,True,0.0
./expes/v2_2020-11-05_dbh_300-prng-1,daily_base_hphc_300,300,first-300,131,rng,num-start-161,161,365,5.11228609085083,True,,True,1,False,1000,True,1.0
./expes/v2_2020-11-05_dbh_300-prng-1,daily_base_hphc_300,300,first-300,171,rng,num-start-151,151,365,4.781322479248047,True,,True,1,False,1000,True,1.0
./expes/v2_2020-11-05_dbh_300-prng-1,daily_base_hphc_300,300,first-300,91,rng,num-start-201,201,365,6.888321876525879,True,,True,1,False,1000,True,1.0
./expes/v2_2020-11-05_dbh_300-prng-1,daily_base_hphc_300,300,first-300,171,rng,num-start-281,281,365,10.309120893478394,True,,True,1,False,1000,True,1.0
./expes/v2_2020-11-05_dbh_300-prng-1,daily_base_hphc_300,300,first-300,91,rng,num-start-271,271,365,9.04547905921936,True,,True,1,False,1000,True,1.0
./expes/v2_2020-11-05_dbh_300-prng-1,daily_base_hphc_300,300,first-300,101,rng,num-start-21,21,365,1000.4519221782684,False,,False,0,True,1000,True,0.0
./expes/v2_2020-11-05_dbh_300-prng-1,daily_base_hphc_300,300,first-300,111,rng,num-start-261,261,365,9.02112364768982,True,,True,1,False,1000,True,1.0
./expes/v2_2020-11-05_dbh_300-prng-1,daily_base_hphc_300,300,first-300,111,rng,num-start-121,121,365,1002.4755544662476,False,,False,0,True,1000,True,0.0
./expes/v2_2020-11-05_dbh_300-prng-1,daily_base_hphc_300,300,first-300,211,rng,num-start-11,11,365,1000.319906949997,False,,False,0,True,1000,True,0.0
./expes/v2_2020-11-05_dbh_300-prng-1,daily_base_hphc_300,300,first-300,221,rng,num-start-91,91,365,73.63592529296875,True,,True,1,False,1000,True,1.0
./expes/v2_2020-11-05_dbh_300-prng-1,daily_base_hphc_300,300,first-300,121,rng,num-start-121,121,365,10.17834997177124,True,,True,1,False,1000,True,1.0
./expes/v2_2020-11-05_dbh_300-prng-1,daily_base_hphc_300,300,first-300,61,rng,num-start-191,191,365,5.333000183105469,True,,True,1,False,1000,True,1.0
./expes/v2_2020-11-05_dbh_300-prng-1,daily_base_hphc_300,300,first-300,221,rng,num-start-31,31,365,1000.7967689037323,False,,False,0,True,1000,True,0.0
./expes/v2_2020-11-05_dbh_300-prng-1,daily_base_hphc_300,300,first-300,131,rng,num-start-21,21,365,1000.5131800174713,False,,False,0,True,1000,True,0.0
./expes/v2_2020-11-05_dbh_300-prng-1,daily_base_hphc_300,300,first-300,1,rng,num-start-201,201,365,4.0640645027160645,True,,True,1,False,1000,True,1.0
./expes/v2_2020-11-05_dbh_300-prng-1,daily_base_hphc_300,300,first-300,161,rng,num-start-291,291,365,9.92357325553894,True,,True,1,False,1000,True,1.0
./expes/v2_2020-11-05_dbh_300-prng-1,daily_base_hphc_300,300,first-300,261,rng,num-start-61,61,365,43.77150082588196,True,,True,1,False,1000,True,1.0
./expes/v2_2020-11-05_dbh_300-prng-1,daily_base_hphc_300,300,first-300,81,rng,num-start-271,271,365,9.470479011535645,True,,True,1,False,1000,True,1.0
./expes/v2_2020-11-05_dbh_300-prng-1,daily_base_hphc_300,300,first-300,121,rng,num-start-211,211,365,7.989623546600342,True,,True,1,False,1000,True,1.0
./expes/v2_2020-11-05_dbh_300-prng-1,daily_base_hphc_300,300,first-300,61,rng,num-start-261,261,365,7.583029508590698,True,,True,1,False,1000,True,1.0
./expes/v2_2020-11-05_dbh_300-prng-1,daily_base_hphc_300,300,first-300,71,rng,num-start-111,111,365,8.269707679748535,True,,True,1,False,1000,True,1.0
./expes/v2_2020-11-05_dbh_300-prng-1,daily_base_hphc_300,300,first-300,241,rng,num-start-1,1,365,0.03398299217224121,False,,False,2,False,1000,True,1.0
./expes/v2_2020-11-05_dbh_300-prng-1,daily_base_hphc_300,300,first-300,161,rng,num-start-251,251,365,8.239474058151245,True,,True,1,False,1000,True,1.0
./expes/v2_2020-11-05_dbh_300-prng-1,daily_base_hphc_300,300,first-300,121,rng,num-start-41,41,365,1000.9431343078613,False,,False,0,True,1000,True,0.0
./expes/v2_2020-11-05_dbh_300-prng-1,daily_base_hphc_300,300,first-300,231,rng,num-start-71,71,365,1001.5207958221436,False,,False,0,True,1000,True,0.0
./expes/v2_2020-11-05_dbh_300-prng-1,daily_base_hphc_300,300,first-300,291,rng,num-start-231,231,365,5.546997547149658,True,,True,1,False,1000,True,1.0
./expes/v2_2020-11-05_dbh_300-prng-1,daily_base_hphc_300,300,first-300,71,rng,num-start-51,51,365,1001.124011516571,False,,False,0,True,1000,True,0.0
./expes/v2_2020-11-05_dbh_300-prng-1,daily_base_hphc_300,300,first-300,251,rng,num-start-231,231,365,7.150020360946655,True,,True,1,False,1000,True,1.0
./expes/v2_2020-11-05_dbh_300-prng-1,daily_base_hphc_300,300,first-300,141,rng,num-start-201,201,365,7.181583404541016,True,,True,1,False,1000,True,1.0
./expes/v2_2020-11-05_dbh_300-prng-1,daily_base_hphc_300,300,first-300,181,rng,num-start-61,61,365,1001.4094126224518,False,,False,0,True,1000,True,0.0
./expes/v2_2020-11-05_dbh_300-prng-1,daily_base_hphc_300,300,first-300,261,rng,num-start-291,291,365,7.715209484100342,True,,True,1,False,1000,True,1.0
./expes/v2_2020-11-05_dbh_300-prng-1,daily_base_hphc_300,300,first-300,231,rng,num-start-111,111,365,6.753828525543213,True,,True,1,False,1000,True,1.0
./expes/v2_2020-11-05_dbh_300-prng-1,daily_base_hphc_300,300,first-300,231,rng,num-start-131,131,365,4.294141530990601,True,,True,1,False,1000,True,1.0
./expes/v2_2020-11-05_dbh_300-prng-1,daily_base_hphc_300,300,first-300,231,rng,num-start-251,251,365,6.824073553085327,True,,True,1,False,1000,True,1.0
./expes/v2_2020-11-05_dbh_300-prng-1,daily_base_hphc_300,300,first-300,71,rng,num-start-281,281,365,8.981416463851929,True,,True,1,False,1000,True,1.0
./expes/v2_2020-11-05_dbh_300-prng-1,daily_base_hphc_300,300,first-300,41,rng,num-start-71,71,365,3.475106716156006,True,,True,1,False,1000,True,1.0
./expes/v2_2020-11-05_dbh_300-prng-1,daily_base_hphc_300,300,first-300,211,rng,num-start-1,1,365,0.10846424102783203,False,,False,2,False,1000,True,1.0
./expes/v2_2020-11-05_dbh_300-prng-1,daily_base_hphc_300,300,first-300,291,rng,num-start-251,251,365,6.562808513641357,True,,True,1,False,1000,True,1.0
./expes/v2_2020-11-05_dbh_300-prng-1,daily_base_hphc_300,300,first-300,211,rng,num-start-41,41,365,1000.8615064620972,False,,False,0,True,1000,True,0.0
./expes/v2_2020-11-05_dbh_300-prng-1,daily_base_hphc_300,300,first-300,61,rng,num-start-231,231,365,7.91548752784729,True,,True,1,False,1000,True,1.0
./expes/v2_2020-11-05_dbh_300-prng-1,daily_base_hphc_300,300,first-300,221,rng,num-start-181,181,365,5.565330982208252,True,,True,1,False,1000,True,1.0
./expes/v2_2020-11-05_dbh_300-prng-1,daily_base_hphc_300,300,first-300,201,rng,num-start-41,41,365,1000.9533941745758,False,,False,0,True,1000,True,0.0
./expes/v2_2020-11-05_dbh_300-prng-1,daily_base_hphc_300,300,first-300,81,rng,num-start-81,81,365,1001.7374646663666,False,,False,0,True,1000,True,0.0
./expes/v2_2020-11-05_dbh_300-prng-1,daily_base_hphc_300,300,first-300,31,rng,num-start-61,61,365,73.91073846817017,True,,True,1,False,1000,True,1.0
./expes/v2_2020-11-05_dbh_300-prng-1,daily_base_hphc_300,300,first-300,161,rng,num-start-11,11,365,1000.3205215930939,False,,False,0,True,1000,True,0.0
./expes/v2_2020-11-05_dbh_300-prng-1,daily_base_hphc_300,300,first-300,251,rng,num-start-191,191,365,5.440287828445435,True,,True,1,False,1000,True,1.0
./expes/v2_2020-11-05_dbh_300-prng-1,daily_base_hphc_300,300,first-300,61,rng,num-start-111,111,365,5.94419002532959,True,,True,1,False,1000,True,1.0
./expes/v2_2020-11-05_dbh_300-prng-1,daily_base_hphc_300,300,first-300,201,rng,num-start-101,101,365,56.22849941253662,True,,True,1,False,1000,True,1.0
./expes/v2_2020-11-05_dbh_300-prng-1,daily_base_hphc_300,300,first-300,241,rng,num-start-51,51,365,1001.1705119609833,False,,False,0,True,1000,True,0.0
./expes/v2_2020-11-05_dbh_300-prng-1,daily_base_hphc_300,300,first-300,81,rng,num-start-201,201,365,6.966580152511597,True,,True,1,False,1000,True,1.0
./expes/v2_2020-11-05_dbh_300-prng-1,daily_base_hphc_300,300,first-300,31,rng,num-start-31,31,365,1000.8721294403076,False,,False,0,True,1000,True,0.0
./expes/v2_2020-11-05_dbh_300-prng-1,daily_base_hphc_300,300,first-300,201,rng,num-start-231,231,365,6.913698196411133,True,,True,1,False,1000,True,1.0
./expes/v2_2020-11-05_dbh_300-prng-1,daily_base_hphc_300,300,first-300,121,rng,num-start-161,161,365,5.428825378417969,True,,True,1,False,1000,True,1.0
./expes/v2_2020-11-05_dbh_300-prng-1,daily_base_hphc_300,300,first-300,51,rng,num-start-131,131,365,4.1905837059021,True,,True,1,False,1000,True,1.0
./expes/v2_2020-11-05_dbh_300-prng-1,daily_base_hphc_300,300,first-300,131,rng,num-start-241,241,365,8.690535068511963,True,,True,1,False,1000,True,1.0
./expes/v2_2020-11-05_dbh_300-prng-1,daily_base_hphc_300,300,first-300,191,rng,num-start-51,51,365,1001.1202476024628,False,,False,0,True,1000,True,0.0
./expes/v2_2020-11-05_dbh_300-prng-1,daily_base_hphc_300,300,first-300,281,rng,num-start-41,41,365,1.9260265827178955,True,,True,1,False,1000,True,1.0
./expes/v2_2020-11-05_dbh_300-prng-1,daily_base_hphc_300,300,first-300,111,rng,num-start-141,141,365,8.735727548599243,True,,True,1,False,1000,True,1.0
./expes/v2_2020-11-05_dbh_300-prng-1,daily_base_hphc_300,300,first-300,61,rng,num-start-61,61,365,1001.3601989746094,False,,False,0,True,1000,True,0.0
./expes/v2_2020-11-05_dbh_300-prng-1,daily_base_hphc_300,300,first-300,161,rng,num-start-131,131,365,16.568899393081665,True,,True,1,False,1000,True,1.0
./expes/v2_2020-11-05_dbh_300-prng-1,daily_base_hphc_300,300,first-300,41,rng,num-start-11,11,365,1000.2977032661438,False,,False,0,True,1000,True,0.0
./expes/v2_2020-11-05_dbh_300-prng-1,daily_base_hphc_300,300,first-300,291,rng,num-start-261,261,365,6.347682476043701,True,,True,1,False,1000,True,1.0
./expes/v2_2020-11-05_dbh_300-prng-1,daily_base_hphc_300,300,first-300,51,rng,num-start-271,271,365,8.383481979370117,True,,True,1,False,1000,True,1.0
./expes/v2_2020-11-05_dbh_300-prng-1,daily_base_hphc_300,300,first-300,61,rng,num-start-171,171,365,5.201173305511475,True,,True,1,False,1000,True,1.0
./expes/v2_2020-11-05_dbh_300-prng-1,daily_base_hphc_300,300,first-300,251,rng,num-start-221,221,365,6.176874399185181,True,,True,1,False,1000,True,1.0
./expes/v2_2020-11-05_dbh_300-prng-1,daily_base_hphc_300,300,first-300,281,rng,num-start-291,291,365,7.604650974273682,True,,True,1,False,1000,True,1.0
./expes/v2_2020-11-05_dbh_300-prng-1,daily_base_hphc_300,300,first-300,121,rng,num-start-181,181,365,6.761505365371704,True,,True,1,False,1000,True,1.0
./expes/v2_2020-11-05_dbh_300-prng-1,daily_base_hphc_300,300,first-300,141,rng,num-start-91,91,365,1001.9770505428314,False,,False,0,True,1000,True,0.0
./expes/v2_2020-11-05_dbh_300-prng-1,daily_base_hphc_300,300,first-300,231,rng,num-start-171,171,365,4.924129486083984,True,,True,1,False,1000,True,1.0
./expes/v2_2020-11-05_dbh_300-prng-1,daily_base_hphc_300,300,first-300,101,rng,num-start-161,161,365,5.237517356872559,True,,True,1,False,1000,True,1.0
./expes/v2_2020-11-05_dbh_300-prng-1,daily_base_hphc_300,300,first-300,291,rng,num-start-291,291,365,6.978653430938721,True,,True,1,False,1000,True,1.0
./expes/v2_2020-11-05_dbh_300-prng-1,daily_base_hphc_300,300,first-300,21,rng,num-start-211,211,365,5.678424835205078,True,,True,1,False,1000,True,1.0
./expes/v2_2020-11-05_dbh_300-prng-1,daily_base_hphc_300,300,first-300,81,rng,num-start-151,151,365,4.750777006149292,True,,True,1,False,1000,True,1.0
./expes/v2_2020-11-05_dbh_300-prng-1,daily_base_hphc_300,300,first-300,121,rng,num-start-81,81,365,1001.7955985069275,False,,False,0,True,1000,True,0.0
./expes/v2_2020-11-05_dbh_300-prng-1,daily_base_hphc_300,300,first-300,51,rng,num-start-291,291,365,8.499320268630981,True,,True,1,False,1000,True,1.0
./expes/v2_2020-11-05_dbh_300-prng-1,daily_base_hphc_300,300,first-300,161,rng,num-start-151,151,365,5.193470001220703,True,,True,1,False,1000,True,1.0
./expes/v2_2020-11-05_dbh_300-prng-1,daily_base_hphc_300,300,first-300,171,rng,num-start-91,91,365,1001.9041066169739,False,,False,0,True,1000,True,0.0
./expes/v2_2020-11-05_dbh_300-prng-1,daily_base_hphc_300,300,first-300,61,rng,num-start-201,201,365,6.324105262756348,True,,True,1,False,1000,True,1.0
./expes/v2_2020-11-05_dbh_300-prng-1,daily_base_hphc_300,300,first-300,11,rng,num-start-1,1,365,0.43764615058898926,False,,False,2,False,1000,True,1.0
./expes/v2_2020-11-05_dbh_300-prng-1,daily_base_hphc_300,300,first-300,271,rng,num-start-11,11,365,1000.3529562950134,False,,False,0,True,1000,True,0.0
./expes/v2_2020-11-05_dbh_300-prng-1,daily_base_hphc_300,300,first-300,191,rng,num-start-221,221,365,6.800276279449463,True,,True,1,False,1000,True,1.0
./expes/v2_2020-11-05_dbh_300-prng-1,daily_base_hphc_300,300,first-300,281,rng,num-start-231,231,365,5.654267072677612,True,,True,1,False,1000,True,1.0
./expes/v2_2020-11-05_dbh_300-prng-1,daily_base_hphc_300,300,first-300,81,rng,num-start-211,211,365,6.873982906341553,True,,True,1,False,1000,True,1.0
./expes/v2_2020-11-05_dbh_300-prng-1,daily_base_hphc_300,300,first-300,151,rng,num-start-71,71,365,1001.5295491218567,False,,False,0,True,1000,True,0.0
