expe,clients,clients_size,clients_subset,agg_size,method,days,days_size,days_total,time,valid,valid_sum,success,nsols,wall_hit,wall_time,pooled,valid_sums
./expes/v2_2020-11-05_dbh_300-prng-1,daily_base_hphc_300,300,first-300,221,rng,num-start-31,31,365,1001.3184716701508,False,,False,0,True,1000,True,0.0
./expes/v2_2020-11-05_dbh_300-prng-1,daily_base_hphc_300,300,first-300,101,rng,num-start-171,171,365,7.669837236404419,True,,True,1,False,1000,True,1.0
./expes/v2_2020-11-05_dbh_300-prng-1,daily_base_hphc_300,300,first-300,31,rng,num-start-41,41,365,1001.4033994674683,False,,False,0,True,1000,True,0.0
./expes/v2_2020-11-05_dbh_300-prng-1,daily_base_hphc_300,300,first-300,1,rng,num-start-31,31,365,0.9493286609649658,True,,True,1,False,1000,True,1.0
./expes/v2_2020-11-05_dbh_300-prng-1,daily_base_hphc_300,300,first-300,191,rng,num-start-221,221,365,8.773799896240234,True,,True,1,False,1000,True,1.0
./expes/v2_2020-11-05_dbh_300-prng-1,daily_base_hphc_300,300,first-300,161,rng,num-start-151,151,365,6.45887565612793,True,,True,1,False,1000,True,1.0
./expes/v2_2020-11-05_dbh_300-prng-1,daily_base_hphc_300,300,first-300,151,rng,num-start-21,21,365,1000.7089347839355,False,,False,0,True,1000,True,0.0
./expes/v2_2020-11-05_dbh_300-prng-1,daily_base_hphc_300,300,first-300,21,rng,num-start-81,81,365,3.2447214126586914,True,,True,1,False,1000,True,1.0
./expes/v2_2020-11-05_dbh_300-prng-1,daily_base_hphc_300,300,first-300,181,rng,num-start-161,161,365,6.529345750808716,True,,True,1,False,1000,True,1.0
./expes/v2_2020-11-05_dbh_300-prng-1,daily_base_hphc_300,300,first-300,81,rng,num-start-291,291,365,11.261598110198975,True,,True,1,False,1000,True,1.0
./expes/v2_2020-11-05_dbh_300-prng-1,daily_base_hphc_300,300,first-300,251,rng,num-start-261,261,365,9.866564750671387,True,,True,1,False,1000,True,1.0
./expes/v2_2020-11-05_dbh_300-prng-1,daily_base_hphc_300,300,first-300,251,rng,num-start-131,131,365,5.596419334411621,True,,True,1,False,1000,True,1.0
./expes/v2_2020-11-05_dbh_300-prng-1,daily_base_hphc_300,300,first-300,291,rng,num-start-211,211,365,7.575405836105347,True,,True,1,False,1000,True,1.0
./expes/v2_2020-11-05_dbh_300-prng-1,daily_base_hphc_300,300,first-300,51,rng,num-start-181,181,365,7.18947172164917,True,,True,1,False,1000,True,1.0
./expes/v2_2020-11-05_dbh_300-prng-1,daily_base_hphc_300,300,first-300,191,rng,num-start-61,61,365,1001.9577219486237,False,,False,0,True,1000,True,0.0
./expes/v2_2020-11-05_dbh_300-prng-1,daily_base_hphc_300,300,first-300,81,rng,num-start-281,281,365,11.57876205444336,True,,True,1,False,1000,True,1.0
./expes/v2_2020-11-05_dbh_300-prng-1,daily_base_hphc_300,300,first-300,271,rng,num-start-231,231,365,8.236533164978027,True,,True,1,False,1000,True,1.0
./expes/v2_2020-11-05_dbh_300-prng-1,daily_base_hphc_300,300,first-300,1,rng,num-start-261,261,365,7.786271810531616,True,,True,1,False,1000,True,1.0
./expes/v2_2020-11-05_dbh_300-prng-1,daily_base_hphc_300,300,first-300,51,rng,num-start-101,101,365,8.511352777481079,True,,True,1,False,1000,True,1.0
./expes/v2_2020-11-05_dbh_300-prng-1,daily_base_hphc_300,300,first-300,31,rng,num-start-51,51,365,12.972105503082275,True,,True,1,False,1000,True,1.0
./expes/v2_2020-11-05_dbh_300-prng-1,daily_base_hphc_300,300,first-300,251,rng,num-start-11,11,365,1000.4081156253815,False,,False,0,True,1000,True,0.0
./expes/v2_2020-11-05_dbh_300-prng-1,daily_base_hphc_300,300,first-300,171,rng,num-start-231,231,365,9.3008873462677,True,,True,1,False,1000,True,1.0
./expes/v2_2020-11-05_dbh_300-prng-1,daily_base_hphc_300,300,first-300,61,rng,num-start-241,241,365,9.379584074020386,True,,True,1,False,1000,True,1.0
./expes/v2_2020-11-05_dbh_300-prng-1,daily_base_hphc_300,300,first-300,191,rng,num-start-1,1,365,0.10808634757995605,False,,False,2,False,1000,True,1.0
./expes/v2_2020-11-05_dbh_300-prng-1,daily_base_hphc_300,300,first-300,101,rng,num-start-91,91,365,1002.7602689266205,False,,False,0,True,1000,True,0.0
./expes/v2_2020-11-05_dbh_300-prng-1,daily_base_hphc_300,300,first-300,101,rng,num-start-171,171,365,6.886318206787109,True,,True,1,False,1000,True,1.0
./expes/v2_2020-11-05_dbh_300-prng-1,daily_base_hphc_300,300,first-300,11,rng,num-start-141,141,365,5.261193037033081,True,,True,1,False,1000,True,1.0
./expes/v2_2020-11-05_dbh_300-prng-1,daily_base_hphc_300,300,first-300,161,rng,num-start-171,171,365,7.386665344238281,True,,True,1,False,1000,True,1.0
./expes/v2_2020-11-05_dbh_300-prng-1,daily_base_hphc_300,300,first-300,261,rng,num-start-241,241,365,9.079174041748047,True,,True,1,False,1000,True,1.0
./expes/v2_2020-11-05_dbh_300-prng-1,daily_base_hphc_300,300,first-300,31,rng,num-start-11,11,365,1000.3905260562897,False,,False,0,True,1000,True,0.0
./expes/v2_2020-11-05_dbh_300-prng-1,daily_base_hphc_300,300,first-300,151,rng,num-start-231,231,365,9.169957160949707,True,,True,1,False,1000,True,1.0
./expes/v2_2020-11-05_dbh_300-prng-1,daily_base_hphc_300,300,first-300,241,rng,num-start-151,151,365,6.279329299926758,True,,True,1,False,1000,True,1.0
./expes/v2_2020-11-05_dbh_300-prng-1,daily_base_hphc_300,300,first-300,121,rng,num-start-41,41,365,1001.3496823310852,False,,False,0,True,1000,True,0.0
./expes/v2_2020-11-05_dbh_300-prng-1,daily_base_hphc_300,300,first-300,271,rng,num-start-161,161,365,6.134145736694336,True,,True,1,False,1000,True,1.0
./expes/v2_2020-11-05_dbh_300-prng-1,daily_base_hphc_300,300,first-300,91,rng,num-start-21,21,365,1000.6959228515625,False,,False,0,True,1000,True,0.0
./expes/v2_2020-11-05_dbh_300-prng-1,daily_base_hphc_300,300,first-300,101,rng,num-start-261,261,365,11.439988136291504,True,,True,1,False,1000,True,1.0
./expes/v2_2020-11-05_dbh_300-prng-1,daily_base_hphc_300,300,first-300,241,rng,num-start-201,201,365,7.966406345367432,True,,True,1,False,1000,True,1.0
./expes/v2_2020-11-05_dbh_300-prng-1,daily_base_hphc_300,300,first-300,191,rng,num-start-11,11,365,1000.4322531223297,False,,False,0,True,1000,True,0.0
./expes/v2_2020-11-05_dbh_300-prng-1,daily_base_hphc_300,300,first-300,271,rng,num-start-131,131,365,5.316859245300293,True,,True,1,False,1000,True,1.0
./expes/v2_2020-11-05_dbh_300-prng-1,daily_base_hphc_300,300,first-300,291,rng,num-start-151,151,365,5.50433874130249,True,,True,1,False,1000,True,1.0
./expes/v2_2020-11-05_dbh_300-prng-1,daily_base_hphc_300,300,first-300,171,rng,num-start-161,161,365,7.604605674743652,True,,True,1,False,1000,True,1.0
./expes/v2_2020-11-05_dbh_300-prng-1,daily_base_hphc_300,300,first-300,91,rng,num-start-51,51,365,1001.6431262493134,False,,False,0,True,1000,True,0.0
./expes/v2_2020-11-05_dbh_300-prng-1,daily_base_hphc_300,300,first-300,1,rng,num-start-111,111,365,3.4128987789154053,True,,True,1,False,1000,True,1.0
./expes/v2_2020-11-05_dbh_300-prng-1,daily_base_hphc_300,300,first-300,41,rng,num-start-221,221,365,8.04107117652893,True,,True,1,False,1000,True,1.0
./expes/v2_2020-11-05_dbh_300-prng-1,daily_base_hphc_300,300,first-300,291,rng,num-start-41,41,365,2.0759971141815186,True,,True,1,False,1000,True,1.0
./expes/v2_2020-11-05_dbh_300-prng-1,daily_base_hphc_300,300,first-300,161,rng,num-start-21,21,365,1000.737301826477,False,,False,0,True,1000,True,0.0
./expes/v2_2020-11-05_dbh_300-prng-1,daily_base_hphc_300,300,first-300,31,rng,num-start-11,11,365,1000.3555805683136,False,,False,0,True,1000,True,0.0
./expes/v2_2020-11-05_dbh_300-prng-1,daily_base_hphc_300,300,first-300,271,rng,num-start-81,81,365,2.8797616958618164,True,,True,1,False,1000,True,1.0
./expes/v2_2020-11-05_dbh_300-prng-1,daily_base_hphc_300,300,first-300,211,rng,num-start-71,71,365,1002.2590897083282,False,,False,0,True,1000,True,0.0
./expes/v2_2020-11-05_dbh_300-prng-1,daily_base_hphc_300,300,first-300,71,rng,num-start-201,201,365,7.803162097930908,True,,True,1,False,1000,True,1.0
./expes/v2_2020-11-05_dbh_300-prng-1,daily_base_hphc_300,300,first-300,1,rng,num-start-61,61,365,1.8607640266418457,True,,True,1,False,1000,True,1.0
./expes/v2_2020-11-05_dbh_300-prng-1,daily_base_hphc_300,300,first-300,221,rng,num-start-191,191,365,7.9237220287323,True,,True,1,False,1000,True,1.0
./expes/v2_2020-11-05_dbh_300-prng-1,daily_base_hphc_300,300,first-300,91,rng,num-start-261,261,365,10.298728942871094,True,,True,1,False,1000,True,1.0
./expes/v2_2020-11-05_dbh_300-prng-1,daily_base_hphc_300,300,first-300,61,rng,num-start-251,251,365,10.34299921989441,True,,True,1,False,1000,True,1.0
./expes/v2_2020-11-05_dbh_300-prng-1,daily_base_hphc_300,300,first-300,131,rng,num-start-11,11,365,1000.4195375442505,False,,False,0,True,1000,True,0.0
./expes/v2_2020-11-05_dbh_300-prng-1,daily_base_hphc_300,300,first-300,81,rng,num-start-71,71,365,1002.3470160961151,False,,False,0,True,1000,True,0.0
./expes/v2_2020-11-05_dbh_300-prng-1,daily_base_hphc_300,300,first-300,271,rng,num-start-91,91,365,3.6684768199920654,True,,True,1,False,1000,True,1.0
./expes/v2_2020-11-05_dbh_300-prng-1,daily_base_hphc_300,300,first-300,61,rng,num-start-221,221,365,8.796451568603516,True,,True,1,False,1000,True,1.0
./expes/v2_2020-11-05_dbh_300-prng-1,daily_base_hphc_300,300,first-300,121,rng,num-start-201,201,365,9.12605357170105,True,,True,1,False,1000,True,1.0
./expes/v2_2020-11-05_dbh_300-prng-1,daily_base_hphc_300,300,first-300,61,rng,num-start-61,61,365,1001.9211068153381,False,,False,0,True,1000,True,0.0
./expes/v2_2020-11-05_dbh_300-prng-1,daily_base_hphc_300,300,first-300,131,rng,num-start-261,261,365,10.304847240447998,True,,True,1,False,1000,True,1.0
./expes/v2_2020-11-05_dbh_300-prng-1,daily_base_hphc_300,300,first-300,11,rng,num-start-181,181,365,6.909573078155518,True,,True,1,False,1000,True,1.0
./expes/v2_2020-11-05_dbh_300-prng-1,daily_base_hphc_300,300,first-300,61,rng,num-start-131,131,365,5.012208461761475,True,,True,1,False,1000,True,1.0
./expes/v2_2020-11-05_dbh_300-prng-1,daily_base_hphc_300,300,first-300,141,rng,num-start-51,51,365,1001.6054089069366,False,,False,0,True,1000,True,0.0
./expes/v2_2020-11-05_dbh_300-prng-1,daily_base_hphc_300,300,first-300,241,rng,num-start-231,231,365,8.343993663787842,True,,True,1,False,1000,True,1.0
./expes/v2_2020-11-05_dbh_300-prng-1,daily_base_hphc_300,300,first-300,181,rng,num-start-201,201,365,8.193063735961914,True,,True,1,False,1000,True,1.0
./expes/v2_2020-11-05_dbh_300-prng-1,daily_base_hphc_300,300,first-300,161,rng,num-start-11,11,365,1000.3863530158997,False,,False,0,True,1000,True,0.0
./expes/v2_2020-11-05_dbh_300-prng-1,daily_base_hphc_300,300,first-300,111,rng,num-start-261,261,365,10.820740222930908,True,,True,1,False,1000,True,1.0
./expes/v2_2020-11-05_dbh_300-prng-1,daily_base_hphc_300,300,first-300,141,rng,num-start-61,61,365,1001.9119298458099,False,,False,0,True,1000,True,0.0
./expes/v2_2020-11-05_dbh_300-prng-1,daily_base_hphc_300,300,first-300,1,rng,num-start-111,111,365,3.5074410438537598,True,,True,1,False,1000,True,1.0
./expes/v2_2020-11-05_dbh_300-prng-1,daily_base_hphc_300,300,first-300,61,rng,num-start-101,101,365,8.952481746673584,True,,True,1,False,1000,True,1.0
./expes/v2_2020-11-05_dbh_300-prng-1,daily_base_hphc_300,300,first-300,141,rng,num-start-201,201,365,7.909247636795044,True,,True,1,False,1000,True,1.0
./expes/v2_2020-11-05_dbh_300-prng-1,daily_base_hphc_300,300,first-300,211,rng,num-start-241,241,365,9.68329119682312,True,,True,1,False,1000,True,1.0
./expes/v2_2020-11-05_dbh_300-prng-1,daily_base_hphc_300,300,first-300,1,rng,num-start-231,231,365,6.809038162231445,True,,True,1,False,1000,True,1.0
./expes/v2_2020-11-05_dbh_300-prng-1,daily_base_hphc_300,300,first-300,241,rng,num-start-91,91,365,12.21359133720398,True,,True,1,False,1000,True,1.0
./expes/v2_2020-11-05_dbh_300-prng-1,daily_base_hphc_300,300,first-300,161,rng,num-start-231,231,365,9.503685235977173,True,,True,1,False,1000,True,1.0
./expes/v2_2020-11-05_dbh_300-prng-1,daily_base_hphc_300,300,first-300,61,rng,num-start-51,51,365,1001.5502331256866,False,,False,0,True,1000,True,0.0
./expes/v2_2020-11-05_dbh_300-prng-1,daily_base_hphc_300,300,first-300,261,rng,num-start-281,281,365,10.044870615005493,True,,True,1,False,1000,True,1.0
./expes/v2_2020-11-05_dbh_300-prng-1,daily_base_hphc_300,300,first-300,181,rng,num-start-291,291,365,11.658602714538574,True,,True,1,False,1000,True,1.0
./expes/v2_2020-11-05_dbh_300-prng-1,daily_base_hphc_300,300,first-300,61,rng,num-start-141,141,365,6.166279554367065,True,,True,1,False,1000,True,1.0
./expes/v2_2020-11-05_dbh_300-prng-1,daily_base_hphc_300,300,first-300,111,rng,num-start-281,281,365,10.76799726486206,True,,True,1,False,1000,True,1.0
./expes/v2_2020-11-05_dbh_300-prng-1,daily_base_hphc_300,300,first-300,141,rng,num-start-21,21,365,1000.657543182373,False,,False,0,True,1000,True,0.0
./expes/v2_2020-11-05_dbh_300-prng-1,daily_base_hphc_300,300,first-300,61,rng,num-start-141,141,365,5.914460897445679,True,,True,1,False,1000,True,1.0
./expes/v2_2020-11-05_dbh_300-prng-1,daily_base_hphc_300,300,first-300,1,rng,num-start-101,101,365,3.0656931400299072,True,,True,1,False,1000,True,1.0
./expes/v2_2020-11-05_dbh_300-prng-1,daily_base_hphc_300,300,first-300,1,rng,num-start-11,11,365,0.3284914493560791,True,,True,1,False,1000,True,1.0
./expes/v2_2020-11-05_dbh_300-prng-1,daily_base_hphc_300,300,first-300,31,rng,num-start-171,171,365,6.318753719329834,True,,True,1,False,1000,True,1.0
./expes/v2_2020-11-05_dbh_300-prng-1,daily_base_hphc_300,300,first-300,241,rng,num-start-261,261,365,9.573860883712769,True,,True,1,False,1000,True,1.0
./expes/v2_2020-11-05_dbh_300-prng-1,daily_base_hphc_300,300,first-300,1,rng,num-start-201,201,365,6.15247917175293,True,,True,1,False,1000,True,1.0
./expes/v2_2020-11-05_dbh_300-prng-1,daily_base_hphc_300,300,first-300,71,rng,num-start-121,121,365,12.7906174659729,True,,True,1,False,1000,True,1.0
./expes/v2_2020-11-05_dbh_300-prng-1,daily_base_hphc_300,300,first-300,41,rng,num-start-141,141,365,5.672590494155884,True,,True,1,False,1000,True,1.0
./expes/v2_2020-11-05_dbh_300-prng-1,daily_base_hphc_300,300,first-300,21,rng,num-start-211,211,365,8.42245101928711,True,,True,1,False,1000,True,1.0
./expes/v2_2020-11-05_dbh_300-prng-1,daily_base_hphc_300,300,first-300,121,rng,num-start-271,271,365,10.46158480644226,True,,True,1,False,1000,True,1.0
./expes/v2_2020-11-05_dbh_300-prng-1,daily_base_hphc_300,300,first-300,171,rng,num-start-11,11,365,1000.4001801013947,False,,False,0,True,1000,True,0.0
./expes/v2_2020-11-05_dbh_300-prng-1,daily_base_hphc_300,300,first-300,211,rng,num-start-51,51,365,1001.566888332367,False,,False,0,True,1000,True,0.0
./expes/v2_2020-11-05_dbh_300-prng-1,daily_base_hphc_300,300,first-300,21,rng,num-start-11,11,365,1000.5289204120636,False,,False,0,True,1000,True,0.0
./expes/v2_2020-11-05_dbh_300-prng-1,daily_base_hphc_300,300,first-300,211,rng,num-start-151,151,365,6.389041423797607,True,,True,1,False,1000,True,1.0
./expes/v2_2020-11-05_dbh_300-prng-1,daily_base_hphc_300,300,first-300,241,rng,num-start-231,231,365,8.701505422592163,True,,True,1,False,1000,True,1.0
./expes/v2_2020-11-05_dbh_300-prng-1,daily_base_hphc_300,300,first-300,221,rng,num-start-31,31,365,1001.0558285713196,False,,False,0,True,1000,True,0.0
./expes/v2_2020-11-05_dbh_300-prng-1,daily_base_hphc_300,300,first-300,171,rng,num-start-101,101,365,1003.1898667812347,False,,False,0,True,1000,True,0.0
./expes/v2_2020-11-05_dbh_300-prng-1,daily_base_hphc_300,300,first-300,151,rng,num-start-281,281,365,11.336496591567993,True,,True,1,False,1000,True,1.0
./expes/v2_2020-11-05_dbh_300-prng-1,daily_base_hphc_300,300,first-300,91,rng,num-start-111,111,365,30.134177923202515,True,,True,1,False,1000,True,1.0
./expes/v2_2020-11-05_dbh_300-prng-1,daily_base_hphc_300,300,first-300,261,rng,num-start-121,121,365,4.747087478637695,True,,True,1,False,1000,True,1.0
./expes/v2_2020-11-05_dbh_300-prng-1,daily_base_hphc_300,300,first-300,181,rng,num-start-251,251,365,9.604301691055298,True,,True,1,False,1000,True,1.0
./expes/v2_2020-11-05_dbh_300-prng-1,daily_base_hphc_300,300,first-300,111,rng,num-start-21,21,365,1000.727721452713,False,,False,0,True,1000,True,0.0
./expes/v2_2020-11-05_dbh_300-prng-1,daily_base_hphc_300,300,first-300,251,rng,num-start-191,191,365,6.820083141326904,True,,True,1,False,1000,True,1.0
./expes/v2_2020-11-05_dbh_300-prng-1,daily_base_hphc_300,300,first-300,151,rng,num-start-81,81,365,1002.6202833652496,False,,False,0,True,1000,True,0.0
./expes/v2_2020-11-05_dbh_300-prng-1,daily_base_hphc_300,300,first-300,11,rng,num-start-201,201,365,8.310511112213135,True,,True,1,False,1000,True,1.0
./expes/v2_2020-11-05_dbh_300-prng-1,daily_base_hphc_300,300,first-300,161,rng,num-start-101,101,365,1003.2319638729095,False,,False,0,True,1000,True,0.0
./expes/v2_2020-11-05_dbh_300-prng-1,daily_base_hphc_300,300,first-300,31,rng,num-start-281,281,365,10.191021919250488,True,,True,1,False,1000,True,1.0
./expes/v2_2020-11-05_dbh_300-prng-1,daily_base_hphc_300,300,first-300,121,rng,num-start-261,261,365,10.32205319404602,True,,True,1,False,1000,True,1.0
./expes/v2_2020-11-05_dbh_300-prng-1,daily_base_hphc_300,300,first-300,181,rng,num-start-71,71,365,1002.2527182102203,False,,False,0,True,1000,True,0.0
./expes/v2_2020-11-05_dbh_300-prng-1,daily_base_hphc_300,300,first-300,171,rng,num-start-171,171,365,7.5447680950164795,True,,True,1,False,1000,True,1.0
./expes/v2_2020-11-05_dbh_300-prng-1,daily_base_hphc_300,300,first-300,271,rng,num-start-161,161,365,6.317577838897705,True,,True,1,False,1000,True,1.0
./expes/v2_2020-11-05_dbh_300-prng-1,daily_base_hphc_300,300,first-300,111,rng,num-start-121,121,365,18.6445369720459,True,,True,1,False,1000,True,1.0
./expes/v2_2020-11-05_dbh_300-prng-1,daily_base_hphc_300,300,first-300,231,rng,num-start-71,71,365,1002.2971818447113,False,,False,0,True,1000,True,0.0
./expes/v2_2020-11-05_dbh_300-prng-1,daily_base_hphc_300,300,first-300,131,rng,num-start-281,281,365,11.651461839675903,True,,True,1,False,1000,True,1.0
./expes/v2_2020-11-05_dbh_300-prng-1,daily_base_hphc_300,300,first-300,11,rng,num-start-161,161,365,6.136504411697388,True,,True,1,False,1000,True,1.0
./expes/v2_2020-11-05_dbh_300-prng-1,daily_base_hphc_300,300,first-300,41,rng,num-start-61,61,365,1001.9762468338013,False,,False,0,True,1000,True,0.0
./expes/v2_2020-11-05_dbh_300-prng-1,daily_base_hphc_300,300,first-300,171,rng,num-start-11,11,365,1000.4092216491699,False,,False,0,True,1000,True,0.0
./expes/v2_2020-11-05_dbh_300-prng-1,daily_base_hphc_300,300,first-300,51,rng,num-start-31,31,365,1001.0003862380981,False,,False,0,True,1000,True,0.0
./expes/v2_2020-11-05_dbh_300-prng-1,daily_base_hphc_300,300,first-300,151,rng,num-start-1,1,365,0.1932063102722168,False,,False,2,False,1000,True,1.0
./expes/v2_2020-11-05_dbh_300-prng-1,daily_base_hphc_300,300,first-300,111,rng,num-start-291,291,365,11.893287181854248,True,,True,1,False,1000,True,1.0
./expes/v2_2020-11-05_dbh_300-prng-1,daily_base_hphc_300,300,first-300,281,rng,num-start-231,231,365,8.169240474700928,True,,True,1,False,1000,True,1.0
./expes/v2_2020-11-05_dbh_300-prng-1,daily_base_hphc_300,300,first-300,271,rng,num-start-151,151,365,5.863654851913452,True,,True,1,False,1000,True,1.0
./expes/v2_2020-11-05_dbh_300-prng-1,daily_base_hphc_300,300,first-300,71,rng,num-start-71,71,365,1002.2349259853363,False,,False,0,True,1000,True,0.0
./expes/v2_2020-11-05_dbh_300-prng-1,daily_base_hphc_300,300,first-300,251,rng,num-start-111,111,365,4.439018726348877,True,,True,1,False,1000,True,1.0
./expes/v2_2020-11-05_dbh_300-prng-1,daily_base_hphc_300,300,first-300,191,rng,num-start-291,291,365,11.149977684020996,True,,True,1,False,1000,True,1.0
./expes/v2_2020-11-05_dbh_300-prng-1,daily_base_hphc_300,300,first-300,161,rng,num-start-211,211,365,8.5469229221344,True,,True,1,False,1000,True,1.0
./expes/v2_2020-11-05_dbh_300-prng-1,daily_base_hphc_300,300,first-300,111,rng,num-start-231,231,365,9.40418529510498,True,,True,1,False,1000,True,1.0
./expes/v2_2020-11-05_dbh_300-prng-1,daily_base_hphc_300,300,first-300,131,rng,num-start-101,101,365,1003.2547965049744,False,,False,0,True,1000,True,0.0
./expes/v2_2020-11-05_dbh_300-prng-1,daily_base_hphc_300,300,first-300,171,rng,num-start-191,191,365,7.271276473999023,True,,True,1,False,1000,True,1.0
./expes/v2_2020-11-05_dbh_300-prng-1,daily_base_hphc_300,300,first-300,111,rng,num-start-41,41,365,1001.3146605491638,False,,False,0,True,1000,True,0.0
./expes/v2_2020-11-05_dbh_300-prng-1,daily_base_hphc_300,300,first-300,231,rng,num-start-231,231,365,8.623743295669556,True,,True,1,False,1000,True,1.0
./expes/v2_2020-11-05_dbh_300-prng-1,daily_base_hphc_300,300,first-300,11,rng,num-start-31,31,365,2.1916065216064453,True,,True,1,False,1000,True,1.0
./expes/v2_2020-11-05_dbh_300-prng-1,daily_base_hphc_300,300,first-300,1,rng,num-start-131,131,365,3.985862970352173,True,,True,1,False,1000,True,1.0
./expes/v2_2020-11-05_dbh_300-prng-1,daily_base_hphc_300,300,first-300,211,rng,num-start-91,91,365,1002.8276791572571,False,,False,0,True,1000,True,0.0
./expes/v2_2020-11-05_dbh_300-prng-1,daily_base_hphc_300,300,first-300,111,rng,num-start-181,181,365,7.664541006088257,True,,True,1,False,1000,True,1.0
./expes/v2_2020-11-05_dbh_300-prng-1,daily_base_hphc_300,300,first-300,121,rng,num-start-11,11,365,1000.5004608631134,False,,False,0,True,1000,True,0.0
./expes/v2_2020-11-05_dbh_300-prng-1,daily_base_hphc_300,300,first-300,231,rng,num-start-291,291,365,11.79275918006897,True,,True,1,False,1000,True,1.0
./expes/v2_2020-11-05_dbh_300-prng-1,daily_base_hphc_300,300,first-300,231,rng,num-start-61,61,365,1001.9525430202484,False,,False,0,True,1000,True,0.0
./expes/v2_2020-11-05_dbh_300-prng-1,daily_base_hphc_300,300,first-300,1,rng,num-start-121,121,365,3.7192142009735107,True,,True,1,False,1000,True,1.0
./expes/v2_2020-11-05_dbh_300-prng-1,daily_base_hphc_300,300,first-300,111,rng,num-start-141,141,365,5.834112167358398,True,,True,1,False,1000,True,1.0
./expes/v2_2020-11-05_dbh_300-prng-1,daily_base_hphc_300,300,first-300,141,rng,num-start-101,101,365,1003.1872088909149,False,,False,0,True,1000,True,0.0
./expes/v2_2020-11-05_dbh_300-prng-1,daily_base_hphc_300,300,first-300,91,rng,num-start-11,11,365,1000.4356634616852,False,,False,0,True,1000,True,0.0
./expes/v2_2020-11-05_dbh_300-prng-1,daily_base_hphc_300,300,first-300,141,rng,num-start-241,241,365,10.048101663589478,True,,True,1,False,1000,True,1.0
./expes/v2_2020-11-05_dbh_300-prng-1,daily_base_hphc_300,300,first-300,101,rng,num-start-201,201,365,7.963908433914185,True,,True,1,False,1000,True,1.0
./expes/v2_2020-11-05_dbh_300-prng-1,daily_base_hphc_300,300,first-300,91,rng,num-start-121,121,365,11.314849615097046,True,,True,1,False,1000,True,1.0
./expes/v2_2020-11-05_dbh_300-prng-1,daily_base_hphc_300,300,first-300,231,rng,num-start-241,241,365,9.959702491760254,True,,True,1,False,1000,True,1.0
./expes/v2_2020-11-05_dbh_300-prng-1,daily_base_hphc_300,300,first-300,151,rng,num-start-151,151,365,7.293875694274902,True,,True,1,False,1000,True,1.0
./expes/v2_2020-11-05_dbh_300-prng-1,daily_base_hphc_300,300,first-300,31,rng,num-start-181,181,365,7.239750146865845,True,,True,1,False,1000,True,1.0
./expes/v2_2020-11-05_dbh_300-prng-1,daily_base_hphc_300,300,first-300,51,rng,num-start-101,101,365,9.450716018676758,True,,True,1,False,1000,True,1.0
./expes/v2_2020-11-05_dbh_300-prng-1,daily_base_hphc_300,300,first-300,81,rng,num-start-41,41,365,1001.2803997993469,False,,False,0,True,1000,True,0.0
./expes/v2_2020-11-05_dbh_300-prng-1,daily_base_hphc_300,300,first-300,21,rng,num-start-171,171,365,6.4222731590271,True,,True,1,False,1000,True,1.0
./expes/v2_2020-11-05_dbh_300-prng-1,daily_base_hphc_300,300,first-300,31,rng,num-start-91,91,365,6.119747161865234,True,,True,1,False,1000,True,1.0
./expes/v2_2020-11-05_dbh_300-prng-1,daily_base_hphc_300,300,first-300,111,rng,num-start-1,1,365,1.1697158813476562,False,,False,2,False,1000,True,1.0
./expes/v2_2020-11-05_dbh_300-prng-1,daily_base_hphc_300,300,first-300,201,rng,num-start-171,171,365,6.386231422424316,True,,True,1,False,1000,True,1.0
./expes/v2_2020-11-05_dbh_300-prng-1,daily_base_hphc_300,300,first-300,101,rng,num-start-281,281,365,10.408944368362427,True,,True,1,False,1000,True,1.0
./expes/v2_2020-11-05_dbh_300-prng-1,daily_base_hphc_300,300,first-300,271,rng,num-start-11,11,365,1000.3758268356323,False,,False,0,True,1000,True,0.0
./expes/v2_2020-11-05_dbh_300-prng-1,daily_base_hphc_300,300,first-300,31,rng,num-start-191,191,365,7.24343204498291,True,,True,1,False,1000,True,1.0
./expes/v2_2020-11-05_dbh_300-prng-1,daily_base_hphc_300,300,first-300,101,rng,num-start-91,91,365,1002.7980628013611,False,,False,0,True,1000,True,0.0
./expes/v2_2020-11-05_dbh_300-prng-1,daily_base_hphc_300,300,first-300,111,rng,num-start-31,31,365,1001.0632598400116,False,,False,0,True,1000,True,0.0
./expes/v2_2020-11-05_dbh_300-prng-1,daily_base_hphc_300,300,first-300,31,rng,num-start-1,1,365,0.08581304550170898,False,,False,2,False,1000,True,1.0
./expes/v2_2020-11-05_dbh_300-prng-1,daily_base_hphc_300,300,first-300,81,rng,num-start-111,111,365,10.306100845336914,True,,True,1,False,1000,True,1.0
./expes/v2_2020-11-05_dbh_300-prng-1,daily_base_hphc_300,300,first-300,271,rng,num-start-161,161,365,6.150557518005371,True,,True,1,False,1000,True,1.0
./expes/v2_2020-11-05_dbh_300-prng-1,daily_base_hphc_300,300,first-300,261,rng,num-start-161,161,365,6.463677883148193,True,,True,1,False,1000,True,1.0
./expes/v2_2020-11-05_dbh_300-prng-1,daily_base_hphc_300,300,first-300,151,rng,num-start-251,251,365,10.258009910583496,True,,True,1,False,1000,True,1.0
./expes/v2_2020-11-05_dbh_300-prng-1,daily_base_hphc_300,300,first-300,201,rng,num-start-51,51,365,1001.6816537380219,False,,False,0,True,1000,True,0.0
./expes/v2_2020-11-05_dbh_300-prng-1,daily_base_hphc_300,300,first-300,11,rng,num-start-181,181,365,6.5120203495025635,True,,True,1,False,1000,True,1.0
./expes/v2_2020-11-05_dbh_300-prng-1,daily_base_hphc_300,300,first-300,101,rng,num-start-121,121,365,14.857656955718994,True,,True,1,False,1000,True,1.0
./expes/v2_2020-11-05_dbh_300-prng-1,daily_base_hphc_300,300,first-300,151,rng,num-start-1,1,365,0.08035039901733398,False,,False,2,False,1000,True,1.0
./expes/v2_2020-11-05_dbh_300-prng-1,daily_base_hphc_300,300,first-300,141,rng,num-start-291,291,365,11.164258241653442,True,,True,1,False,1000,True,1.0
./expes/v2_2020-11-05_dbh_300-prng-1,daily_base_hphc_300,300,first-300,141,rng,num-start-191,191,365,7.563111305236816,True,,True,1,False,1000,True,1.0
./expes/v2_2020-11-05_dbh_300-prng-1,daily_base_hphc_300,300,first-300,191,rng,num-start-221,221,365,8.844097137451172,True,,True,1,False,1000,True,1.0
./expes/v2_2020-11-05_dbh_300-prng-1,daily_base_hphc_300,300,first-300,161,rng,num-start-61,61,365,1001.9525301456451,False,,False,0,True,1000,True,0.0
./expes/v2_2020-11-05_dbh_300-prng-1,daily_base_hphc_300,300,first-300,221,rng,num-start-221,221,365,8.36034607887268,True,,True,1,False,1000,True,1.0
./expes/v2_2020-11-05_dbh_300-prng-1,daily_base_hphc_300,300,first-300,181,rng,num-start-101,101,365,1003.1281509399414,False,,False,0,True,1000,True,0.0
./expes/v2_2020-11-05_dbh_300-prng-1,daily_base_hphc_300,300,first-300,291,rng,num-start-221,221,365,8.040349960327148,True,,True,1,False,1000,True,1.0
./expes/v2_2020-11-05_dbh_300-prng-1,daily_base_hphc_300,300,first-300,181,rng,num-start-51,51,365,1001.7120115756989,False,,False,0,True,1000,True,0.0
./expes/v2_2020-11-05_dbh_300-prng-1,daily_base_hphc_300,300,first-300,251,rng,num-start-101,101,365,9.440282583236694,True,,True,1,False,1000,True,1.0
./expes/v2_2020-11-05_dbh_300-prng-1,daily_base_hphc_300,300,first-300,11,rng,num-start-101,101,365,3.8839104175567627,True,,True,1,False,1000,True,1.0
./expes/v2_2020-11-05_dbh_300-prng-1,daily_base_hphc_300,300,first-300,121,rng,num-start-291,291,365,11.705053567886353,True,,True,1,False,1000,True,1.0
./expes/v2_2020-11-05_dbh_300-prng-1,daily_base_hphc_300,300,first-300,131,rng,num-start-131,131,365,26.79456353187561,True,,True,1,False,1000,True,1.0
./expes/v2_2020-11-05_dbh_300-prng-1,daily_base_hphc_300,300,first-300,101,rng,num-start-31,31,365,1001.0651876926422,False,,False,0,True,1000,True,0.0
./expes/v2_2020-11-05_dbh_300-prng-1,daily_base_hphc_300,300,first-300,251,rng,num-start-121,121,365,4.593214273452759,True,,True,1,False,1000,True,1.0
./expes/v2_2020-11-05_dbh_300-prng-1,daily_base_hphc_300,300,first-300,141,rng,num-start-211,211,365,8.127651453018188,True,,True,1,False,1000,True,1.0
./expes/v2_2020-11-05_dbh_300-prng-1,daily_base_hphc_300,300,first-300,251,rng,num-start-271,271,365,9.63228988647461,True,,True,1,False,1000,True,1.0
./expes/v2_2020-11-05_dbh_300-prng-1,daily_base_hphc_300,300,first-300,41,rng,num-start-271,271,365,9.650347232818604,True,,True,1,False,1000,True,1.0
./expes/v2_2020-11-05_dbh_300-prng-1,daily_base_hphc_300,300,first-300,71,rng,num-start-241,241,365,9.816808938980103,True,,True,1,False,1000,True,1.0
./expes/v2_2020-11-05_dbh_300-prng-1,daily_base_hphc_300,300,first-300,261,rng,num-start-181,181,365,7.145235061645508,True,,True,1,False,1000,True,1.0
./expes/v2_2020-11-05_dbh_300-prng-1,daily_base_hphc_300,300,first-300,281,rng,num-start-81,81,365,3.0005979537963867,True,,True,1,False,1000,True,1.0
./expes/v2_2020-11-05_dbh_300-prng-1,daily_base_hphc_300,300,first-300,111,rng,num-start-241,241,365,9.587806940078735,True,,True,1,False,1000,True,1.0
./expes/v2_2020-11-05_dbh_300-prng-1,daily_base_hphc_300,300,first-300,51,rng,num-start-71,71,365,1002.2846927642822,False,,False,0,True,1000,True,0.0
./expes/v2_2020-11-05_dbh_300-prng-1,daily_base_hphc_300,300,first-300,221,rng,num-start-261,261,365,10.625001668930054,True,,True,1,False,1000,True,1.0
./expes/v2_2020-11-05_dbh_300-prng-1,daily_base_hphc_300,300,first-300,51,rng,num-start-271,271,365,10.271245002746582,True,,True,1,False,1000,True,1.0
./expes/v2_2020-11-05_dbh_300-prng-1,daily_base_hphc_300,300,first-300,111,rng,num-start-31,31,365,1001.0216028690338,False,,False,0,True,1000,True,0.0
./expes/v2_2020-11-05_dbh_300-prng-1,daily_base_hphc_300,300,first-300,151,rng,num-start-181,181,365,7.379446744918823,True,,True,1,False,1000,True,1.0
./expes/v2_2020-11-05_dbh_300-prng-1,daily_base_hphc_300,300,first-300,201,rng,num-start-251,251,365,9.304955244064331,True,,True,1,False,1000,True,1.0
./expes/v2_2020-11-05_dbh_300-prng-1,daily_base_hphc_300,300,first-300,111,rng,num-start-271,271,365,10.480631351470947,True,,True,1,False,1000,True,1.0
./expes/v2_2020-11-05_dbh_300-prng-1,daily_base_hphc_300,300,first-300,181,rng,num-start-121,121,365,30.272627592086792,True,,True,1,False,1000,True,1.0
./expes/v2_2020-11-05_dbh_300-prng-1,daily_base_hphc_300,300,first-300,191,rng,num-start-1,1,365,0.16273021697998047,False,,False,2,False,1000,True,1.0
./expes/v2_2020-11-05_dbh_300-prng-1,daily_base_hphc_300,300,first-300,31,rng,num-start-171,171,365,6.668606519699097,True,,True,1,False,1000,True,1.0
./expes/v2_2020-11-05_dbh_300-prng-1,daily_base_hphc_300,300,first-300,251,rng,num-start-91,91,365,10.718990087509155,True,,True,1,False,1000,True,1.0
./expes/v2_2020-11-05_dbh_300-prng-1,daily_base_hphc_300,300,first-300,241,rng,num-start-151,151,365,5.699127912521362,True,,True,1,False,1000,True,1.0
./expes/v2_2020-11-05_dbh_300-prng-1,daily_base_hphc_300,300,first-300,211,rng,num-start-231,231,365,8.691862344741821,True,,True,1,False,1000,True,1.0
./expes/v2_2020-11-05_dbh_300-prng-1,daily_base_hphc_300,300,first-300,71,rng,num-start-91,91,365,1002.9080271720886,False,,False,0,True,1000,True,0.0
./expes/v2_2020-11-05_dbh_300-prng-1,daily_base_hphc_300,300,first-300,211,rng,num-start-61,61,365,1001.9947786331177,False,,False,0,True,1000,True,0.0
./expes/v2_2020-11-05_dbh_300-prng-1,daily_base_hphc_300,300,first-300,201,rng,num-start-231,231,365,8.94327449798584,True,,True,1,False,1000,True,1.0
./expes/v2_2020-11-05_dbh_300-prng-1,daily_base_hphc_300,300,first-300,71,rng,num-start-41,41,365,1001.271413564682,False,,False,0,True,1000,True,0.0
./expes/v2_2020-11-05_dbh_300-prng-1,daily_base_hphc_300,300,first-300,191,rng,num-start-141,141,365,6.267174243927002,True,,True,1,False,1000,True,1.0
./expes/v2_2020-11-05_dbh_300-prng-1,daily_base_hphc_300,300,first-300,81,rng,num-start-241,241,365,9.29398775100708,True,,True,1,False,1000,True,1.0
./expes/v2_2020-11-05_dbh_300-prng-1,daily_base_hphc_300,300,first-300,31,rng,num-start-1,1,365,0.123046875,False,,False,2,False,1000,True,1.0
./expes/v2_2020-11-05_dbh_300-prng-1,daily_base_hphc_300,300,first-300,211,rng,num-start-161,161,365,6.615379095077515,True,,True,1,False,1000,True,1.0
./expes/v2_2020-11-05_dbh_300-prng-1,daily_base_hphc_300,300,first-300,71,rng,num-start-71,71,365,1002.261819601059,False,,False,0,True,1000,True,0.0
./expes/v2_2020-11-05_dbh_300-prng-1,daily_base_hphc_300,300,first-300,281,rng,num-start-281,281,365,9.874696731567383,True,,True,1,False,1000,True,1.0
./expes/v2_2020-11-05_dbh_300-prng-1,daily_base_hphc_300,300,first-300,41,rng,num-start-51,51,365,1001.5560717582703,False,,False,0,True,1000,True,0.0
./expes/v2_2020-11-05_dbh_300-prng-1,daily_base_hphc_300,300,first-300,171,rng,num-start-41,41,365,1001.3562841415405,False,,False,0,True,1000,True,0.0
./expes/v2_2020-11-05_dbh_300-prng-1,daily_base_hphc_300,300,first-300,291,rng,num-start-41,41,365,2.1756224632263184,True,,True,1,False,1000,True,1.0
./expes/v2_2020-11-05_dbh_300-prng-1,daily_base_hphc_300,300,first-300,121,rng,num-start-21,21,365,1000.7061824798584,False,,False,0,True,1000,True,0.0
./expes/v2_2020-11-05_dbh_300-prng-1,daily_base_hphc_300,300,first-300,141,rng,num-start-241,241,365,9.174724102020264,True,,True,1,False,1000,True,1.0
./expes/v2_2020-11-05_dbh_300-prng-1,daily_base_hphc_300,300,first-300,191,rng,num-start-91,91,365,1002.9224162101746,False,,False,0,True,1000,True,0.0
./expes/v2_2020-11-05_dbh_300-prng-1,daily_base_hphc_300,300,first-300,11,rng,num-start-161,161,365,5.941455125808716,True,,True,1,False,1000,True,1.0
./expes/v2_2020-11-05_dbh_300-prng-1,daily_base_hphc_300,300,first-300,121,rng,num-start-171,171,365,7.370447158813477,True,,True,1,False,1000,True,1.0
./expes/v2_2020-11-05_dbh_300-prng-1,daily_base_hphc_300,300,first-300,1,rng,num-start-41,41,365,1.315830945968628,True,,True,1,False,1000,True,1.0
./expes/v2_2020-11-05_dbh_300-prng-1,daily_base_hphc_300,300,first-300,1,rng,num-start-21,21,365,0.686608076095581,True,,True,1,False,1000,True,1.0
./expes/v2_2020-11-05_dbh_300-prng-1,daily_base_hphc_300,300,first-300,251,rng,num-start-251,251,365,9.12458848953247,True,,True,1,False,1000,True,1.0
./expes/v2_2020-11-05_dbh_300-prng-1,daily_base_hphc_300,300,first-300,201,rng,num-start-121,121,365,12.117299318313599,True,,True,1,False,1000,True,1.0
./expes/v2_2020-11-05_dbh_300-prng-1,daily_base_hphc_300,300,first-300,211,rng,num-start-1,1,365,0.13259220123291016,False,,False,2,False,1000,True,1.0
./expes/v2_2020-11-05_dbh_300-prng-1,daily_base_hphc_300,300,first-300,131,rng,num-start-191,191,365,7.898345232009888,True,,True,1,False,1000,True,1.0
./expes/v2_2020-11-05_dbh_300-prng-1,daily_base_hphc_300,300,first-300,31,rng,num-start-211,211,365,7.8509252071380615,True,,True,1,False,1000,True,1.0
./expes/v2_2020-11-05_dbh_300-prng-1,daily_base_hphc_300,300,first-300,171,rng,num-start-131,131,365,10.648645162582397,True,,True,1,False,1000,True,1.0
./expes/v2_2020-11-05_dbh_300-prng-1,daily_base_hphc_300,300,first-300,141,rng,num-start-161,161,365,6.236594915390015,True,,True,1,False,1000,True,1.0
./expes/v2_2020-11-05_dbh_300-prng-1,daily_base_hphc_300,300,first-300,251,rng,num-start-71,71,365,27.20969271659851,True,,True,1,False,1000,True,1.0
./expes/v2_2020-11-05_dbh_300-prng-1,daily_base_hphc_300,300,first-300,281,rng,num-start-1,1,365,0.697667121887207,False,,False,2,False,1000,True,1.0
./expes/v2_2020-11-05_dbh_300-prng-1,daily_base_hphc_300,300,first-300,201,rng,num-start-281,281,365,10.895057678222656,True,,True,1,False,1000,True,1.0
./expes/v2_2020-11-05_dbh_300-prng-1,daily_base_hphc_300,300,first-300,141,rng,num-start-71,71,365,1002.2684013843536,False,,False,0,True,1000,True,0.0
./expes/v2_2020-11-05_dbh_300-prng-1,daily_base_hphc_300,300,first-300,191,rng,num-start-51,51,365,1001.6886034011841,False,,False,0,True,1000,True,0.0
