expe,clients,clients_size,clients_subset,agg_size,method,days,days_size,days_total,time,valid,valid_sum,success,nsols,wall_hit,wall_time,pooled,valid_sums
./expes/v2_2020-11-05_dbh_300-prng-1,daily_base_hphc_300,300,first-300,21,rng,num-start-251,251,365,7.800946950912476,True,,True,1,False,1000,True,1.0
./expes/v2_2020-11-05_dbh_300-prng-1,daily_base_hphc_300,300,first-300,231,rng,num-start-101,101,365,6.015760898590088,True,,True,1,False,1000,True,1.0
./expes/v2_2020-11-05_dbh_300-prng-1,daily_base_hphc_300,300,first-300,271,rng,num-start-91,91,365,3.2417027950286865,True,,True,1,False,1000,True,1.0
./expes/v2_2020-11-05_dbh_300-prng-1,daily_base_hphc_300,300,first-300,21,rng,num-start-291,291,365,7.905657052993774,True,,True,1,False,1000,True,1.0
./expes/v2_2020-11-05_dbh_300-prng-1,daily_base_hphc_300,300,first-300,131,rng,num-start-161,161,365,5.688788175582886,True,,True,1,False,1000,True,1.0
./expes/v2_2020-11-05_dbh_300-prng-1,daily_base_hphc_300,300,first-300,81,rng,num-start-111,111,365,8.015992879867554,True,,True,1,False,1000,True,1.0
./expes/v2_2020-11-05_dbh_300-prng-1,daily_base_hphc_300,300,first-300,61,rng,num-start-121,121,365,4.286256551742554,True,,True,1,False,1000,True,1.0
./expes/v2_2020-11-05_dbh_300-prng-1,daily_base_hphc_300,300,first-300,151,rng,num-start-221,221,365,8.215070724487305,True,,True,1,False,1000,True,1.0
./expes/v2_2020-11-05_dbh_300-prng-1,daily_base_hphc_300,300,first-300,171,rng,num-start-11,11,365,1000.3770551681519,False,,False,0,True,1000,True,0.0
./expes/v2_2020-11-05_dbh_300-prng-1,daily_base_hphc_300,300,first-300,271,rng,num-start-181,181,365,4.699492454528809,True,,True,1,False,1000,True,1.0
./expes/v2_2020-11-05_dbh_300-prng-1,daily_base_hphc_300,300,first-300,181,rng,num-start-201,201,365,6.478813886642456,True,,True,1,False,1000,True,1.0
./expes/v2_2020-11-05_dbh_300-prng-1,daily_base_hphc_300,300,first-300,1,rng,num-start-151,151,365,3.27270770072937,True,,True,1,False,1000,True,1.0
./expes/v2_2020-11-05_dbh_300-prng-1,daily_base_hphc_300,300,first-300,221,rng,num-start-111,111,365,6.126648902893066,True,,True,1,False,1000,True,1.0
./expes/v2_2020-11-05_dbh_300-prng-1,daily_base_hphc_300,300,first-300,91,rng,num-start-31,31,365,1000.6868677139282,False,,False,0,True,1000,True,0.0
./expes/v2_2020-11-05_dbh_300-prng-1,daily_base_hphc_300,300,first-300,21,rng,num-start-151,151,365,4.266337633132935,True,,True,1,False,1000,True,1.0
./expes/v2_2020-11-05_dbh_300-prng-1,daily_base_hphc_300,300,first-300,121,rng,num-start-191,191,365,6.313313245773315,True,,True,1,False,1000,True,1.0
./expes/v2_2020-11-05_dbh_300-prng-1,daily_base_hphc_300,300,first-300,51,rng,num-start-1,1,365,0.9650378227233887,False,,False,2,False,1000,True,1.0
./expes/v2_2020-11-05_dbh_300-prng-1,daily_base_hphc_300,300,first-300,51,rng,num-start-251,251,365,7.0882604122161865,True,,True,1,False,1000,True,1.0
./expes/v2_2020-11-05_dbh_300-prng-1,daily_base_hphc_300,300,first-300,51,rng,num-start-181,181,365,4.944064617156982,True,,True,1,False,1000,True,1.0
./expes/v2_2020-11-05_dbh_300-prng-1,daily_base_hphc_300,300,first-300,121,rng,num-start-71,71,365,1001.6870002746582,False,,False,0,True,1000,True,0.0
./expes/v2_2020-11-05_dbh_300-prng-1,daily_base_hphc_300,300,first-300,141,rng,num-start-81,81,365,1001.6475281715393,False,,False,0,True,1000,True,0.0
./expes/v2_2020-11-05_dbh_300-prng-1,daily_base_hphc_300,300,first-300,11,rng,num-start-1,1,365,0.26746654510498047,False,,False,2,False,1000,True,1.0
./expes/v2_2020-11-05_dbh_300-prng-1,daily_base_hphc_300,300,first-300,71,rng,num-start-121,121,365,3.744736909866333,True,,True,1,False,1000,True,1.0
./expes/v2_2020-11-05_dbh_300-prng-1,daily_base_hphc_300,300,first-300,31,rng,num-start-31,31,365,1000.9211964607239,False,,False,0,True,1000,True,0.0
./expes/v2_2020-11-05_dbh_300-prng-1,daily_base_hphc_300,300,first-300,111,rng,num-start-51,51,365,1001.0906474590302,False,,False,0,True,1000,True,0.0
./expes/v2_2020-11-05_dbh_300-prng-1,daily_base_hphc_300,300,first-300,91,rng,num-start-71,71,365,1001.5648386478424,False,,False,0,True,1000,True,0.0
./expes/v2_2020-11-05_dbh_300-prng-1,daily_base_hphc_300,300,first-300,131,rng,num-start-81,81,365,1001.6184811592102,False,,False,0,True,1000,True,0.0
./expes/v2_2020-11-05_dbh_300-prng-1,daily_base_hphc_300,300,first-300,101,rng,num-start-141,141,365,5.161353826522827,True,,True,1,False,1000,True,1.0
./expes/v2_2020-11-05_dbh_300-prng-1,daily_base_hphc_300,300,first-300,141,rng,num-start-91,91,365,1001.8240134716034,False,,False,0,True,1000,True,0.0
./expes/v2_2020-11-05_dbh_300-prng-1,daily_base_hphc_300,300,first-300,31,rng,num-start-41,41,365,1000.938806772232,False,,False,0,True,1000,True,0.0
./expes/v2_2020-11-05_dbh_300-prng-1,daily_base_hphc_300,300,first-300,201,rng,num-start-251,251,365,7.461556434631348,True,,True,1,False,1000,True,1.0
./expes/v2_2020-11-05_dbh_300-prng-1,daily_base_hphc_300,300,first-300,201,rng,num-start-141,141,365,4.848197937011719,True,,True,1,False,1000,True,1.0
./expes/v2_2020-11-05_dbh_300-prng-1,daily_base_hphc_300,300,first-300,201,rng,num-start-161,161,365,5.358059644699097,True,,True,1,False,1000,True,1.0
./expes/v2_2020-11-05_dbh_300-prng-1,daily_base_hphc_300,300,first-300,11,rng,num-start-191,191,365,4.5649473667144775,True,,True,1,False,1000,True,1.0
./expes/v2_2020-11-05_dbh_300-prng-1,daily_base_hphc_300,300,first-300,201,rng,num-start-241,241,365,7.548301458358765,True,,True,1,False,1000,True,1.0
./expes/v2_2020-11-05_dbh_300-prng-1,daily_base_hphc_300,300,first-300,41,rng,num-start-81,81,365,4.343053102493286,True,,True,1,False,1000,True,1.0
./expes/v2_2020-11-05_dbh_300-prng-1,daily_base_hphc_300,300,first-300,161,rng,num-start-271,271,365,8.79051661491394,True,,True,1,False,1000,True,1.0
./expes/v2_2020-11-05_dbh_300-prng-1,daily_base_hphc_300,300,first-300,291,rng,num-start-281,281,365,6.677900791168213,True,,True,1,False,1000,True,1.0
./expes/v2_2020-11-05_dbh_300-prng-1,daily_base_hphc_300,300,first-300,251,rng,num-start-161,161,365,4.280470848083496,True,,True,1,False,1000,True,1.0
./expes/v2_2020-11-05_dbh_300-prng-1,daily_base_hphc_300,300,first-300,131,rng,num-start-211,211,365,6.028342962265015,True,,True,1,False,1000,True,1.0
./expes/v2_2020-11-05_dbh_300-prng-1,daily_base_hphc_300,300,first-300,231,rng,num-start-71,71,365,1001.4972724914551,False,,False,0,True,1000,True,0.0
./expes/v2_2020-11-05_dbh_300-prng-1,daily_base_hphc_300,300,first-300,61,rng,num-start-31,31,365,1000.6765689849854,False,,False,0,True,1000,True,0.0
./expes/v2_2020-11-05_dbh_300-prng-1,daily_base_hphc_300,300,first-300,221,rng,num-start-181,181,365,4.969567537307739,True,,True,1,False,1000,True,1.0
./expes/v2_2020-11-05_dbh_300-prng-1,daily_base_hphc_300,300,first-300,61,rng,num-start-101,101,365,3.2788755893707275,True,,True,1,False,1000,True,1.0
./expes/v2_2020-11-05_dbh_300-prng-1,daily_base_hphc_300,300,first-300,231,rng,num-start-161,161,365,5.112649202346802,True,,True,1,False,1000,True,1.0
./expes/v2_2020-11-05_dbh_300-prng-1,daily_base_hphc_300,300,first-300,41,rng,num-start-151,151,365,4.40216326713562,True,,True,1,False,1000,True,1.0
./expes/v2_2020-11-05_dbh_300-prng-1,daily_base_hphc_300,300,first-300,61,rng,num-start-221,221,365,6.325993776321411,True,,True,1,False,1000,True,1.0
./expes/v2_2020-11-05_dbh_300-prng-1,daily_base_hphc_300,300,first-300,261,rng,num-start-41,41,365,1000.8618748188019,False,,False,0,True,1000,True,0.0
./expes/v2_2020-11-05_dbh_300-prng-1,daily_base_hphc_300,300,first-300,281,rng,num-start-31,31,365,1004.2892417907715,False,,False,1,True,1000,True,0.0
./expes/v2_2020-11-05_dbh_300-prng-1,daily_base_hphc_300,300,first-300,11,rng,num-start-41,41,365,1.7565550804138184,True,,True,1,False,1000,True,1.0
./expes/v2_2020-11-05_dbh_300-prng-1,daily_base_hphc_300,300,first-300,281,rng,num-start-61,61,365,1.6774940490722656,True,,True,1,False,1000,True,1.0
./expes/v2_2020-11-05_dbh_300-prng-1,daily_base_hphc_300,300,first-300,251,rng,num-start-191,191,365,5.113452196121216,True,,True,1,False,1000,True,1.0
./expes/v2_2020-11-05_dbh_300-prng-1,daily_base_hphc_300,300,first-300,251,rng,num-start-171,171,365,4.21626091003418,True,,True,1,False,1000,True,1.0
./expes/v2_2020-11-05_dbh_300-prng-1,daily_base_hphc_300,300,first-300,181,rng,num-start-91,91,365,1001.9017553329468,False,,False,0,True,1000,True,0.0
./expes/v2_2020-11-05_dbh_300-prng-1,daily_base_hphc_300,300,first-300,51,rng,num-start-141,141,365,4.848489284515381,True,,True,1,False,1000,True,1.0
./expes/v2_2020-11-05_dbh_300-prng-1,daily_base_hphc_300,300,first-300,211,rng,num-start-291,291,365,9.136073112487793,True,,True,1,False,1000,True,1.0
./expes/v2_2020-11-05_dbh_300-prng-1,daily_base_hphc_300,300,first-300,81,rng,num-start-251,251,365,7.940461874008179,True,,True,1,False,1000,True,1.0
./expes/v2_2020-11-05_dbh_300-prng-1,daily_base_hphc_300,300,first-300,61,rng,num-start-151,151,365,4.833930015563965,True,,True,1,False,1000,True,1.0
./expes/v2_2020-11-05_dbh_300-prng-1,daily_base_hphc_300,300,first-300,161,rng,num-start-281,281,365,9.751689195632935,True,,True,1,False,1000,True,1.0
./expes/v2_2020-11-05_dbh_300-prng-1,daily_base_hphc_300,300,first-300,181,rng,num-start-251,251,365,9.374379873275757,True,,True,1,False,1000,True,1.0
./expes/v2_2020-11-05_dbh_300-prng-1,daily_base_hphc_300,300,first-300,111,rng,num-start-271,271,365,8.612451076507568,True,,True,1,False,1000,True,1.0
./expes/v2_2020-11-05_dbh_300-prng-1,daily_base_hphc_300,300,first-300,51,rng,num-start-201,201,365,6.197373390197754,True,,True,1,False,1000,True,1.0
./expes/v2_2020-11-05_dbh_300-prng-1,daily_base_hphc_300,300,first-300,211,rng,num-start-251,251,365,8.127204418182373,True,,True,1,False,1000,True,1.0
./expes/v2_2020-11-05_dbh_300-prng-1,daily_base_hphc_300,300,first-300,101,rng,num-start-141,141,365,4.5683417320251465,True,,True,1,False,1000,True,1.0
./expes/v2_2020-11-05_dbh_300-prng-1,daily_base_hphc_300,300,first-300,101,rng,num-start-271,271,365,9.344933271408081,True,,True,1,False,1000,True,1.0
./expes/v2_2020-11-05_dbh_300-prng-1,daily_base_hphc_300,300,first-300,141,rng,num-start-11,11,365,1000.3540167808533,False,,False,0,True,1000,True,0.0
./expes/v2_2020-11-05_dbh_300-prng-1,daily_base_hphc_300,300,first-300,261,rng,num-start-51,51,365,1001.1989698410034,False,,False,0,True,1000,True,0.0
./expes/v2_2020-11-05_dbh_300-prng-1,daily_base_hphc_300,300,first-300,291,rng,num-start-131,131,365,3.2312893867492676,True,,True,1,False,1000,True,1.0
./expes/v2_2020-11-05_dbh_300-prng-1,daily_base_hphc_300,300,first-300,281,rng,num-start-181,181,365,4.421278476715088,True,,True,1,False,1000,True,1.0
./expes/v2_2020-11-05_dbh_300-prng-1,daily_base_hphc_300,300,first-300,211,rng,num-start-181,181,365,5.849177360534668,True,,True,1,False,1000,True,1.0
./expes/v2_2020-11-05_dbh_300-prng-1,daily_base_hphc_300,300,first-300,81,rng,num-start-91,91,365,1001.8228719234467,False,,False,0,True,1000,True,0.0
./expes/v2_2020-11-05_dbh_300-prng-1,daily_base_hphc_300,300,first-300,181,rng,num-start-71,71,365,1001.5409162044525,False,,False,0,True,1000,True,0.0
./expes/v2_2020-11-05_dbh_300-prng-1,daily_base_hphc_300,300,first-300,271,rng,num-start-71,71,365,3.656062364578247,True,,True,1,False,1000,True,1.0
./expes/v2_2020-11-05_dbh_300-prng-1,daily_base_hphc_300,300,first-300,161,rng,num-start-181,181,365,5.0296471118927,True,,True,1,False,1000,True,1.0
./expes/v2_2020-11-05_dbh_300-prng-1,daily_base_hphc_300,300,first-300,31,rng,num-start-151,151,365,4.286455392837524,True,,True,1,False,1000,True,1.0
./expes/v2_2020-11-05_dbh_300-prng-1,daily_base_hphc_300,300,first-300,21,rng,num-start-41,41,365,2.1939046382904053,True,,True,1,False,1000,True,1.0
./expes/v2_2020-11-05_dbh_300-prng-1,daily_base_hphc_300,300,first-300,111,rng,num-start-231,231,365,7.752763748168945,True,,True,1,False,1000,True,1.0
./expes/v2_2020-11-05_dbh_300-prng-1,daily_base_hphc_300,300,first-300,21,rng,num-start-21,21,365,1003.5762858390808,False,,False,0,True,1000,True,0.0
./expes/v2_2020-11-05_dbh_300-prng-1,daily_base_hphc_300,300,first-300,231,rng,num-start-21,21,365,1000.5443449020386,False,,False,0,True,1000,True,0.0
./expes/v2_2020-11-05_dbh_300-prng-1,daily_base_hphc_300,300,first-300,71,rng,num-start-131,131,365,4.873080730438232,True,,True,1,False,1000,True,1.0
./expes/v2_2020-11-05_dbh_300-prng-1,daily_base_hphc_300,300,first-300,1,rng,num-start-61,61,365,1.2302160263061523,True,,True,1,False,1000,True,1.0
./expes/v2_2020-11-05_dbh_300-prng-1,daily_base_hphc_300,300,first-300,21,rng,num-start-141,141,365,3.786992073059082,True,,True,1,False,1000,True,1.0
./expes/v2_2020-11-05_dbh_300-prng-1,daily_base_hphc_300,300,first-300,181,rng,num-start-61,61,365,1001.5016174316406,False,,False,0,True,1000,True,0.0
./expes/v2_2020-11-05_dbh_300-prng-1,daily_base_hphc_300,300,first-300,121,rng,num-start-51,51,365,1001.0654475688934,False,,False,0,True,1000,True,0.0
./expes/v2_2020-11-05_dbh_300-prng-1,daily_base_hphc_300,300,first-300,151,rng,num-start-241,241,365,6.93622350692749,True,,True,1,False,1000,True,1.0
./expes/v2_2020-11-05_dbh_300-prng-1,daily_base_hphc_300,300,first-300,281,rng,num-start-41,41,365,2.4032204151153564,True,,True,1,False,1000,True,1.0
./expes/v2_2020-11-05_dbh_300-prng-1,daily_base_hphc_300,300,first-300,41,rng,num-start-131,131,365,3.6934218406677246,True,,True,1,False,1000,True,1.0
./expes/v2_2020-11-05_dbh_300-prng-1,daily_base_hphc_300,300,first-300,11,rng,num-start-101,101,365,2.7055249214172363,True,,True,1,False,1000,True,1.0
./expes/v2_2020-11-05_dbh_300-prng-1,daily_base_hphc_300,300,first-300,131,rng,num-start-31,31,365,1000.6329798698425,False,,False,0,True,1000,True,0.0
./expes/v2_2020-11-05_dbh_300-prng-1,daily_base_hphc_300,300,first-300,111,rng,num-start-151,151,365,3.964930534362793,True,,True,1,False,1000,True,1.0
./expes/v2_2020-11-05_dbh_300-prng-1,daily_base_hphc_300,300,first-300,231,rng,num-start-91,91,365,872.0398180484772,True,,True,1,False,1000,True,1.0
./expes/v2_2020-11-05_dbh_300-prng-1,daily_base_hphc_300,300,first-300,111,rng,num-start-251,251,365,8.559126853942871,True,,True,1,False,1000,True,1.0
./expes/v2_2020-11-05_dbh_300-prng-1,daily_base_hphc_300,300,first-300,91,rng,num-start-151,151,365,5.776877164840698,True,,True,1,False,1000,True,1.0
./expes/v2_2020-11-05_dbh_300-prng-1,daily_base_hphc_300,300,first-300,11,rng,num-start-91,91,365,2.3644721508026123,True,,True,1,False,1000,True,1.0
./expes/v2_2020-11-05_dbh_300-prng-1,daily_base_hphc_300,300,first-300,211,rng,num-start-251,251,365,8.094614744186401,True,,True,1,False,1000,True,1.0
./expes/v2_2020-11-05_dbh_300-prng-1,daily_base_hphc_300,300,first-300,141,rng,num-start-161,161,365,6.507089614868164,True,,True,1,False,1000,True,1.0
./expes/v2_2020-11-05_dbh_300-prng-1,daily_base_hphc_300,300,first-300,271,rng,num-start-221,221,365,6.006803274154663,True,,True,1,False,1000,True,1.0
./expes/v2_2020-11-05_dbh_300-prng-1,daily_base_hphc_300,300,first-300,31,rng,num-start-271,271,365,7.880784273147583,True,,True,1,False,1000,True,1.0
./expes/v2_2020-11-05_dbh_300-prng-1,daily_base_hphc_300,300,first-300,51,rng,num-start-11,11,365,1000.2432539463043,False,,False,0,True,1000,True,0.0
./expes/v2_2020-11-05_dbh_300-prng-1,daily_base_hphc_300,300,first-300,1,rng,num-start-51,51,365,1.0167641639709473,True,,True,1,False,1000,True,1.0
./expes/v2_2020-11-05_dbh_300-prng-1,daily_base_hphc_300,300,first-300,11,rng,num-start-131,131,365,3.3833539485931396,True,,True,1,False,1000,True,1.0
./expes/v2_2020-11-05_dbh_300-prng-1,daily_base_hphc_300,300,first-300,191,rng,num-start-191,191,365,6.343884706497192,True,,True,1,False,1000,True,1.0
./expes/v2_2020-11-05_dbh_300-prng-1,daily_base_hphc_300,300,first-300,51,rng,num-start-51,51,365,1001.1611671447754,False,,False,0,True,1000,True,0.0
./expes/v2_2020-11-05_dbh_300-prng-1,daily_base_hphc_300,300,first-300,51,rng,num-start-281,281,365,9.285655498504639,True,,True,1,False,1000,True,1.0
./expes/v2_2020-11-05_dbh_300-prng-1,daily_base_hphc_300,300,first-300,201,rng,num-start-161,161,365,5.073811292648315,True,,True,1,False,1000,True,1.0
./expes/v2_2020-11-05_dbh_300-prng-1,daily_base_hphc_300,300,first-300,231,rng,num-start-21,21,365,1000.4449546337128,False,,False,0,True,1000,True,0.0
./expes/v2_2020-11-05_dbh_300-prng-1,daily_base_hphc_300,300,first-300,281,rng,num-start-161,161,365,4.21683669090271,True,,True,1,False,1000,True,1.0
./expes/v2_2020-11-05_dbh_300-prng-1,daily_base_hphc_300,300,first-300,131,rng,num-start-281,281,365,10.36784315109253,True,,True,1,False,1000,True,1.0
./expes/v2_2020-11-05_dbh_300-prng-1,daily_base_hphc_300,300,first-300,281,rng,num-start-231,231,365,5.710024356842041,True,,True,1,False,1000,True,1.0
./expes/v2_2020-11-05_dbh_300-prng-1,daily_base_hphc_300,300,first-300,251,rng,num-start-191,191,365,5.175385475158691,True,,True,1,False,1000,True,1.0
./expes/v2_2020-11-05_dbh_300-prng-1,daily_base_hphc_300,300,first-300,271,rng,num-start-221,221,365,5.950030326843262,True,,True,1,False,1000,True,1.0
./expes/v2_2020-11-05_dbh_300-prng-1,daily_base_hphc_300,300,first-300,241,rng,num-start-281,281,365,7.593580961227417,True,,True,1,False,1000,True,1.0
./expes/v2_2020-11-05_dbh_300-prng-1,daily_base_hphc_300,300,first-300,221,rng,num-start-211,211,365,5.785387992858887,True,,True,1,False,1000,True,1.0
./expes/v2_2020-11-05_dbh_300-prng-1,daily_base_hphc_300,300,first-300,261,rng,num-start-81,81,365,5.304196119308472,True,,True,1,False,1000,True,1.0
./expes/v2_2020-11-05_dbh_300-prng-1,daily_base_hphc_300,300,first-300,1,rng,num-start-181,181,365,3.6828596591949463,True,,True,1,False,1000,True,1.0
./expes/v2_2020-11-05_dbh_300-prng-1,daily_base_hphc_300,300,first-300,101,rng,num-start-61,61,365,1001.3457362651825,False,,False,0,True,1000,True,0.0
./expes/v2_2020-11-05_dbh_300-prng-1,daily_base_hphc_300,300,first-300,281,rng,num-start-31,31,365,1001.80557513237,False,,False,0,True,1000,True,0.0
./expes/v2_2020-11-05_dbh_300-prng-1,daily_base_hphc_300,300,first-300,261,rng,num-start-1,1,365,0.1020052433013916,False,,False,2,False,1000,True,1.0
./expes/v2_2020-11-05_dbh_300-prng-1,daily_base_hphc_300,300,first-300,71,rng,num-start-91,91,365,48.13037943840027,True,,True,1,False,1000,True,1.0
./expes/v2_2020-11-05_dbh_300-prng-1,daily_base_hphc_300,300,first-300,81,rng,num-start-231,231,365,7.3478546142578125,True,,True,1,False,1000,True,1.0
./expes/v2_2020-11-05_dbh_300-prng-1,daily_base_hphc_300,300,first-300,281,rng,num-start-261,261,365,6.302734851837158,True,,True,1,False,1000,True,1.0
./expes/v2_2020-11-05_dbh_300-prng-1,daily_base_hphc_300,300,first-300,121,rng,num-start-41,41,365,1001.2154490947723,False,,False,0,True,1000,True,0.0
./expes/v2_2020-11-05_dbh_300-prng-1,daily_base_hphc_300,300,first-300,291,rng,num-start-131,131,365,3.1852030754089355,True,,True,1,False,1000,True,1.0
./expes/v2_2020-11-05_dbh_300-prng-1,daily_base_hphc_300,300,first-300,121,rng,num-start-291,291,365,9.326526165008545,True,,True,1,False,1000,True,1.0
./expes/v2_2020-11-05_dbh_300-prng-1,daily_base_hphc_300,300,first-300,241,rng,num-start-41,41,365,1001.0989179611206,False,,False,0,True,1000,True,0.0
./expes/v2_2020-11-05_dbh_300-prng-1,daily_base_hphc_300,300,first-300,41,rng,num-start-221,221,365,6.5806519985198975,True,,True,1,False,1000,True,1.0
./expes/v2_2020-11-05_dbh_300-prng-1,daily_base_hphc_300,300,first-300,181,rng,num-start-171,171,365,5.464435815811157,True,,True,1,False,1000,True,1.0
./expes/v2_2020-11-05_dbh_300-prng-1,daily_base_hphc_300,300,first-300,71,rng,num-start-171,171,365,5.222699403762817,True,,True,1,False,1000,True,1.0
./expes/v2_2020-11-05_dbh_300-prng-1,daily_base_hphc_300,300,first-300,231,rng,num-start-1,1,365,0.12090206146240234,False,,False,2,False,1000,True,1.0
./expes/v2_2020-11-05_dbh_300-prng-1,daily_base_hphc_300,300,first-300,101,rng,num-start-51,51,365,1001.1097309589386,False,,False,0,True,1000,True,0.0
./expes/v2_2020-11-05_dbh_300-prng-1,daily_base_hphc_300,300,first-300,121,rng,num-start-81,81,365,1001.7355234622955,False,,False,0,True,1000,True,0.0
./expes/v2_2020-11-05_dbh_300-prng-1,daily_base_hphc_300,300,first-300,231,rng,num-start-31,31,365,1000.760635137558,False,,False,0,True,1000,True,0.0
./expes/v2_2020-11-05_dbh_300-prng-1,daily_base_hphc_300,300,first-300,111,rng,num-start-111,111,365,36.93908429145813,True,,True,1,False,1000,True,1.0
./expes/v2_2020-11-05_dbh_300-prng-1,daily_base_hphc_300,300,first-300,161,rng,num-start-141,141,365,5.311813116073608,True,,True,1,False,1000,True,1.0
./expes/v2_2020-11-05_dbh_300-prng-1,daily_base_hphc_300,300,first-300,1,rng,num-start-191,191,365,3.905670166015625,True,,True,1,False,1000,True,1.0
./expes/v2_2020-11-05_dbh_300-prng-1,daily_base_hphc_300,300,first-300,71,rng,num-start-71,71,365,1001.4143974781036,False,,False,0,True,1000,True,0.0
./expes/v2_2020-11-05_dbh_300-prng-1,daily_base_hphc_300,300,first-300,161,rng,num-start-191,191,365,6.408147573471069,True,,True,1,False,1000,True,1.0
./expes/v2_2020-11-05_dbh_300-prng-1,daily_base_hphc_300,300,first-300,91,rng,num-start-291,291,365,9.09574031829834,True,,True,1,False,1000,True,1.0
./expes/v2_2020-11-05_dbh_300-prng-1,daily_base_hphc_300,300,first-300,141,rng,num-start-121,121,365,32.66322588920593,True,,True,1,False,1000,True,1.0
./expes/v2_2020-11-05_dbh_300-prng-1,daily_base_hphc_300,300,first-300,171,rng,num-start-131,131,365,11.583954334259033,True,,True,1,False,1000,True,1.0
./expes/v2_2020-11-05_dbh_300-prng-1,daily_base_hphc_300,300,first-300,251,rng,num-start-21,21,365,1000.567296743393,False,,False,0,True,1000,True,0.0
./expes/v2_2020-11-05_dbh_300-prng-1,daily_base_hphc_300,300,first-300,101,rng,num-start-51,51,365,1001.2459437847137,False,,False,0,True,1000,True,0.0
./expes/v2_2020-11-05_dbh_300-prng-1,daily_base_hphc_300,300,first-300,241,rng,num-start-21,21,365,1000.4631822109222,False,,False,0,True,1000,True,0.0
./expes/v2_2020-11-05_dbh_300-prng-1,daily_base_hphc_300,300,first-300,181,rng,num-start-221,221,365,9.084237813949585,True,,True,1,False,1000,True,1.0
./expes/v2_2020-11-05_dbh_300-prng-1,daily_base_hphc_300,300,first-300,171,rng,num-start-201,201,365,7.107811212539673,True,,True,1,False,1000,True,1.0
./expes/v2_2020-11-05_dbh_300-prng-1,daily_base_hphc_300,300,first-300,161,rng,num-start-201,201,365,5.975445985794067,True,,True,1,False,1000,True,1.0
./expes/v2_2020-11-05_dbh_300-prng-1,daily_base_hphc_300,300,first-300,141,rng,num-start-61,61,365,1001.3217227458954,False,,False,0,True,1000,True,0.0
./expes/v2_2020-11-05_dbh_300-prng-1,daily_base_hphc_300,300,first-300,41,rng,num-start-81,81,365,4.580192804336548,True,,True,1,False,1000,True,1.0
./expes/v2_2020-11-05_dbh_300-prng-1,daily_base_hphc_300,300,first-300,81,rng,num-start-211,211,365,5.769915819168091,True,,True,1,False,1000,True,1.0
./expes/v2_2020-11-05_dbh_300-prng-1,daily_base_hphc_300,300,first-300,291,rng,num-start-181,181,365,4.24732232093811,True,,True,1,False,1000,True,1.0
./expes/v2_2020-11-05_dbh_300-prng-1,daily_base_hphc_300,300,first-300,191,rng,num-start-161,161,365,5.2291905879974365,True,,True,1,False,1000,True,1.0
./expes/v2_2020-11-05_dbh_300-prng-1,daily_base_hphc_300,300,first-300,51,rng,num-start-211,211,365,5.614610433578491,True,,True,1,False,1000,True,1.0
./expes/v2_2020-11-05_dbh_300-prng-1,daily_base_hphc_300,300,first-300,1,rng,num-start-291,291,365,5.693853855133057,True,,True,1,False,1000,True,1.0
./expes/v2_2020-11-05_dbh_300-prng-1,daily_base_hphc_300,300,first-300,121,rng,num-start-91,91,365,1001.8046970367432,False,,False,0,True,1000,True,0.0
./expes/v2_2020-11-05_dbh_300-prng-1,daily_base_hphc_300,300,first-300,101,rng,num-start-121,121,365,36.15897464752197,True,,True,1,False,1000,True,1.0
./expes/v2_2020-11-05_dbh_300-prng-1,daily_base_hphc_300,300,first-300,51,rng,num-start-291,291,365,7.769543886184692,True,,True,1,False,1000,True,1.0
./expes/v2_2020-11-05_dbh_300-prng-1,daily_base_hphc_300,300,first-300,161,rng,num-start-1,1,365,0.8108644485473633,False,,False,2,False,1000,True,1.0
./expes/v2_2020-11-05_dbh_300-prng-1,daily_base_hphc_300,300,first-300,201,rng,num-start-1,1,365,0.08865499496459961,False,,False,2,False,1000,True,1.0
./expes/v2_2020-11-05_dbh_300-prng-1,daily_base_hphc_300,300,first-300,31,rng,num-start-181,181,365,6.571008920669556,True,,True,1,False,1000,True,1.0
./expes/v2_2020-11-05_dbh_300-prng-1,daily_base_hphc_300,300,first-300,151,rng,num-start-251,251,365,8.309783935546875,True,,True,1,False,1000,True,1.0
./expes/v2_2020-11-05_dbh_300-prng-1,daily_base_hphc_300,300,first-300,161,rng,num-start-61,61,365,1001.4025254249573,False,,False,0,True,1000,True,0.0
./expes/v2_2020-11-05_dbh_300-prng-1,daily_base_hphc_300,300,first-300,221,rng,num-start-51,51,365,1001.0889568328857,False,,False,0,True,1000,True,0.0
./expes/v2_2020-11-05_dbh_300-prng-1,daily_base_hphc_300,300,first-300,221,rng,num-start-241,241,365,7.9301793575286865,True,,True,1,False,1000,True,1.0
./expes/v2_2020-11-05_dbh_300-prng-1,daily_base_hphc_300,300,first-300,281,rng,num-start-181,181,365,4.232034921646118,True,,True,1,False,1000,True,1.0
./expes/v2_2020-11-05_dbh_300-prng-1,daily_base_hphc_300,300,first-300,271,rng,num-start-291,291,365,7.917177200317383,True,,True,1,False,1000,True,1.0
./expes/v2_2020-11-05_dbh_300-prng-1,daily_base_hphc_300,300,first-300,41,rng,num-start-71,71,365,3.9427335262298584,True,,True,1,False,1000,True,1.0
./expes/v2_2020-11-05_dbh_300-prng-1,daily_base_hphc_300,300,first-300,221,rng,num-start-111,111,365,7.947256565093994,True,,True,1,False,1000,True,1.0
./expes/v2_2020-11-05_dbh_300-prng-1,daily_base_hphc_300,300,first-300,231,rng,num-start-251,251,365,8.65320897102356,True,,True,1,False,1000,True,1.0
./expes/v2_2020-11-05_dbh_300-prng-1,daily_base_hphc_300,300,first-300,21,rng,num-start-251,251,365,6.367328643798828,True,,True,1,False,1000,True,1.0
./expes/v2_2020-11-05_dbh_300-prng-1,daily_base_hphc_300,300,first-300,181,rng,num-start-1,1,365,0.0505368709564209,False,,False,2,False,1000,True,1.0
./expes/v2_2020-11-05_dbh_300-prng-1,daily_base_hphc_300,300,first-300,291,rng,num-start-71,71,365,1.9148273468017578,True,,True,1,False,1000,True,1.0
./expes/v2_2020-11-05_dbh_300-prng-1,daily_base_hphc_300,300,first-300,221,rng,num-start-81,81,365,1001.6760501861572,False,,False,0,True,1000,True,0.0
./expes/v2_2020-11-05_dbh_300-prng-1,daily_base_hphc_300,300,first-300,261,rng,num-start-181,181,365,5.036309242248535,True,,True,1,False,1000,True,1.0
./expes/v2_2020-11-05_dbh_300-prng-1,daily_base_hphc_300,300,first-300,131,rng,num-start-131,131,365,10.913856029510498,True,,True,1,False,1000,True,1.0
./expes/v2_2020-11-05_dbh_300-prng-1,daily_base_hphc_300,300,first-300,71,rng,num-start-21,21,365,1000.5010130405426,False,,False,0,True,1000,True,0.0
./expes/v2_2020-11-05_dbh_300-prng-1,daily_base_hphc_300,300,first-300,181,rng,num-start-281,281,365,9.254581689834595,True,,True,1,False,1000,True,1.0
./expes/v2_2020-11-05_dbh_300-prng-1,daily_base_hphc_300,300,first-300,161,rng,num-start-191,191,365,5.697008371353149,True,,True,1,False,1000,True,1.0
./expes/v2_2020-11-05_dbh_300-prng-1,daily_base_hphc_300,300,first-300,181,rng,num-start-201,201,365,6.39749550819397,True,,True,1,False,1000,True,1.0
./expes/v2_2020-11-05_dbh_300-prng-1,daily_base_hphc_300,300,first-300,211,rng,num-start-11,11,365,1000.2533268928528,False,,False,0,True,1000,True,0.0
./expes/v2_2020-11-05_dbh_300-prng-1,daily_base_hphc_300,300,first-300,171,rng,num-start-121,121,365,21.043978929519653,True,,True,1,False,1000,True,1.0
./expes/v2_2020-11-05_dbh_300-prng-1,daily_base_hphc_300,300,first-300,121,rng,num-start-41,41,365,1000.9586548805237,False,,False,0,True,1000,True,0.0
./expes/v2_2020-11-05_dbh_300-prng-1,daily_base_hphc_300,300,first-300,241,rng,num-start-271,271,365,7.648220539093018,True,,True,1,False,1000,True,1.0
./expes/v2_2020-11-05_dbh_300-prng-1,daily_base_hphc_300,300,first-300,121,rng,num-start-291,291,365,8.884780168533325,True,,True,1,False,1000,True,1.0
./expes/v2_2020-11-05_dbh_300-prng-1,daily_base_hphc_300,300,first-300,161,rng,num-start-91,91,365,1001.871221780777,False,,False,0,True,1000,True,0.0
./expes/v2_2020-11-05_dbh_300-prng-1,daily_base_hphc_300,300,first-300,231,rng,num-start-51,51,365,1001.1119151115417,False,,False,0,True,1000,True,0.0
./expes/v2_2020-11-05_dbh_300-prng-1,daily_base_hphc_300,300,first-300,181,rng,num-start-111,111,365,1002.2650809288025,False,,False,0,True,1000,True,0.0
./expes/v2_2020-11-05_dbh_300-prng-1,daily_base_hphc_300,300,first-300,101,rng,num-start-141,141,365,5.054036855697632,True,,True,1,False,1000,True,1.0
./expes/v2_2020-11-05_dbh_300-prng-1,daily_base_hphc_300,300,first-300,201,rng,num-start-151,151,365,4.667850017547607,True,,True,1,False,1000,True,1.0
./expes/v2_2020-11-05_dbh_300-prng-1,daily_base_hphc_300,300,first-300,91,rng,num-start-121,121,365,10.31148910522461,True,,True,1,False,1000,True,1.0
./expes/v2_2020-11-05_dbh_300-prng-1,daily_base_hphc_300,300,first-300,161,rng,num-start-131,131,365,12.841161012649536,True,,True,1,False,1000,True,1.0
./expes/v2_2020-11-05_dbh_300-prng-1,daily_base_hphc_300,300,first-300,31,rng,num-start-231,231,365,6.177270889282227,True,,True,1,False,1000,True,1.0
./expes/v2_2020-11-05_dbh_300-prng-1,daily_base_hphc_300,300,first-300,101,rng,num-start-131,131,365,7.016051292419434,True,,True,1,False,1000,True,1.0
./expes/v2_2020-11-05_dbh_300-prng-1,daily_base_hphc_300,300,first-300,91,rng,num-start-181,181,365,5.862750291824341,True,,True,1,False,1000,True,1.0
./expes/v2_2020-11-05_dbh_300-prng-1,daily_base_hphc_300,300,first-300,81,rng,num-start-121,121,365,7.4999237060546875,True,,True,1,False,1000,True,1.0
./expes/v2_2020-11-05_dbh_300-prng-1,daily_base_hphc_300,300,first-300,131,rng,num-start-51,51,365,1001.0764446258545,False,,False,0,True,1000,True,0.0
./expes/v2_2020-11-05_dbh_300-prng-1,daily_base_hphc_300,300,first-300,121,rng,num-start-251,251,365,8.992533206939697,True,,True,1,False,1000,True,1.0
./expes/v2_2020-11-05_dbh_300-prng-1,daily_base_hphc_300,300,first-300,181,rng,num-start-231,231,365,8.271600246429443,True,,True,1,False,1000,True,1.0
./expes/v2_2020-11-05_dbh_300-prng-1,daily_base_hphc_300,300,first-300,231,rng,num-start-231,231,365,7.779278039932251,True,,True,1,False,1000,True,1.0
./expes/v2_2020-11-05_dbh_300-prng-1,daily_base_hphc_300,300,first-300,291,rng,num-start-61,61,365,1.4894311428070068,True,,True,1,False,1000,True,1.0
./expes/v2_2020-11-05_dbh_300-prng-1,daily_base_hphc_300,300,first-300,271,rng,num-start-161,161,365,4.266225814819336,True,,True,1,False,1000,True,1.0
./expes/v2_2020-11-05_dbh_300-prng-1,daily_base_hphc_300,300,first-300,161,rng,num-start-11,11,365,1000.4335315227509,False,,False,0,True,1000,True,0.0
./expes/v2_2020-11-05_dbh_300-prng-1,daily_base_hphc_300,300,first-300,21,rng,num-start-191,191,365,5.336433410644531,True,,True,1,False,1000,True,1.0
./expes/v2_2020-11-05_dbh_300-prng-1,daily_base_hphc_300,300,first-300,101,rng,num-start-81,81,365,1001.7286400794983,False,,False,0,True,1000,True,0.0
./expes/v2_2020-11-05_dbh_300-prng-1,daily_base_hphc_300,300,first-300,281,rng,num-start-131,131,365,3.519361734390259,True,,True,1,False,1000,True,1.0
./expes/v2_2020-11-05_dbh_300-prng-1,daily_base_hphc_300,300,first-300,221,rng,num-start-121,121,365,4.093026161193848,True,,True,1,False,1000,True,1.0
./expes/v2_2020-11-05_dbh_300-prng-1,daily_base_hphc_300,300,first-300,121,rng,num-start-271,271,365,9.501506567001343,True,,True,1,False,1000,True,1.0
./expes/v2_2020-11-05_dbh_300-prng-1,daily_base_hphc_300,300,first-300,201,rng,num-start-201,201,365,6.529707908630371,True,,True,1,False,1000,True,1.0
./expes/v2_2020-11-05_dbh_300-prng-1,daily_base_hphc_300,300,first-300,131,rng,num-start-251,251,365,8.570719718933105,True,,True,1,False,1000,True,1.0
./expes/v2_2020-11-05_dbh_300-prng-1,daily_base_hphc_300,300,first-300,181,rng,num-start-131,131,365,16.930458068847656,True,,True,1,False,1000,True,1.0
./expes/v2_2020-11-05_dbh_300-prng-1,daily_base_hphc_300,300,first-300,231,rng,num-start-241,241,365,7.736900806427002,True,,True,1,False,1000,True,1.0
./expes/v2_2020-11-05_dbh_300-prng-1,daily_base_hphc_300,300,first-300,51,rng,num-start-221,221,365,7.243719100952148,True,,True,1,False,1000,True,1.0
./expes/v2_2020-11-05_dbh_300-prng-1,daily_base_hphc_300,300,first-300,291,rng,num-start-241,241,365,5.856567859649658,True,,True,1,False,1000,True,1.0
./expes/v2_2020-11-05_dbh_300-prng-1,daily_base_hphc_300,300,first-300,161,rng,num-start-251,251,365,9.269287109375,True,,True,1,False,1000,True,1.0
./expes/v2_2020-11-05_dbh_300-prng-1,daily_base_hphc_300,300,first-300,31,rng,num-start-251,251,365,6.817161798477173,True,,True,1,False,1000,True,1.0
./expes/v2_2020-11-05_dbh_300-prng-1,daily_base_hphc_300,300,first-300,21,rng,num-start-121,121,365,3.2663955688476562,True,,True,1,False,1000,True,1.0
./expes/v2_2020-11-05_dbh_300-prng-1,daily_base_hphc_300,300,first-300,271,rng,num-start-221,221,365,5.883298397064209,True,,True,1,False,1000,True,1.0
./expes/v2_2020-11-05_dbh_300-prng-1,daily_base_hphc_300,300,first-300,211,rng,num-start-131,131,365,9.915005922317505,True,,True,1,False,1000,True,1.0
./expes/v2_2020-11-05_dbh_300-prng-1,daily_base_hphc_300,300,first-300,171,rng,num-start-101,101,365,1002.0965924263,False,,False,0,True,1000,True,0.0
./expes/v2_2020-11-05_dbh_300-prng-1,daily_base_hphc_300,300,first-300,251,rng,num-start-181,181,365,5.101396322250366,True,,True,1,False,1000,True,1.0
./expes/v2_2020-11-05_dbh_300-prng-1,daily_base_hphc_300,300,first-300,101,rng,num-start-201,201,365,6.774503707885742,True,,True,1,False,1000,True,1.0
./expes/v2_2020-11-05_dbh_300-prng-1,daily_base_hphc_300,300,first-300,171,rng,num-start-241,241,365,7.594546318054199,True,,True,1,False,1000,True,1.0
./expes/v2_2020-11-05_dbh_300-prng-1,daily_base_hphc_300,300,first-300,71,rng,num-start-221,221,365,6.132145404815674,True,,True,1,False,1000,True,1.0
./expes/v2_2020-11-05_dbh_300-prng-1,daily_base_hphc_300,300,first-300,41,rng,num-start-211,211,365,6.307609558105469,True,,True,1,False,1000,True,1.0
./expes/v2_2020-11-05_dbh_300-prng-1,daily_base_hphc_300,300,first-300,11,rng,num-start-241,241,365,5.7660417556762695,True,,True,1,False,1000,True,1.0
./expes/v2_2020-11-05_dbh_300-prng-1,daily_base_hphc_300,300,first-300,151,rng,num-start-181,181,365,5.719908237457275,True,,True,1,False,1000,True,1.0
./expes/v2_2020-11-05_dbh_300-prng-1,daily_base_hphc_300,300,first-300,231,rng,num-start-191,191,365,5.744604825973511,True,,True,1,False,1000,True,1.0
./expes/v2_2020-11-05_dbh_300-prng-1,daily_base_hphc_300,300,first-300,241,rng,num-start-201,201,365,6.229658126831055,True,,True,1,False,1000,True,1.0
./expes/v2_2020-11-05_dbh_300-prng-1,daily_base_hphc_300,300,first-300,271,rng,num-start-181,181,365,5.0223166942596436,True,,True,1,False,1000,True,1.0
./expes/v2_2020-11-05_dbh_300-prng-1,daily_base_hphc_300,300,first-300,281,rng,num-start-291,291,365,7.174172878265381,True,,True,1,False,1000,True,1.0
./expes/v2_2020-11-05_dbh_300-prng-1,daily_base_hphc_300,300,first-300,121,rng,num-start-261,261,365,8.60219407081604,True,,True,1,False,1000,True,1.0
./expes/v2_2020-11-05_dbh_300-prng-1,daily_base_hphc_300,300,first-300,281,rng,num-start-51,51,365,1.4244892597198486,True,,True,1,False,1000,True,1.0
./expes/v2_2020-11-05_dbh_300-prng-1,daily_base_hphc_300,300,first-300,181,rng,num-start-51,51,365,1001.0383536815643,False,,False,0,True,1000,True,0.0
./expes/v2_2020-11-05_dbh_300-prng-1,daily_base_hphc_300,300,first-300,281,rng,num-start-31,31,365,1001.8575785160065,False,,False,0,True,1000,True,0.0
./expes/v2_2020-11-05_dbh_300-prng-1,daily_base_hphc_300,300,first-300,271,rng,num-start-211,211,365,5.657341241836548,True,,True,1,False,1000,True,1.0
./expes/v2_2020-11-05_dbh_300-prng-1,daily_base_hphc_300,300,first-300,241,rng,num-start-51,51,365,1001.0740149021149,False,,False,0,True,1000,True,0.0
./expes/v2_2020-11-05_dbh_300-prng-1,daily_base_hphc_300,300,first-300,221,rng,num-start-91,91,365,1002.0062081813812,False,,False,0,True,1000,True,0.0
./expes/v2_2020-11-05_dbh_300-prng-1,daily_base_hphc_300,300,first-300,171,rng,num-start-181,181,365,4.87047266960144,True,,True,1,False,1000,True,1.0
./expes/v2_2020-11-05_dbh_300-prng-1,daily_base_hphc_300,300,first-300,71,rng,num-start-21,21,365,1000.4708273410797,False,,False,0,True,1000,True,0.0
./expes/v2_2020-11-05_dbh_300-prng-1,daily_base_hphc_300,300,first-300,181,rng,num-start-51,51,365,1001.1471858024597,False,,False,0,True,1000,True,0.0
./expes/v2_2020-11-05_dbh_300-prng-1,daily_base_hphc_300,300,first-300,21,rng,num-start-61,61,365,2.8159396648406982,True,,True,1,False,1000,True,1.0
./expes/v2_2020-11-05_dbh_300-prng-1,daily_base_hphc_300,300,first-300,151,rng,num-start-241,241,365,10.363068103790283,True,,True,1,False,1000,True,1.0
./expes/v2_2020-11-05_dbh_300-prng-1,daily_base_hphc_300,300,first-300,81,rng,num-start-221,221,365,7.645010948181152,True,,True,1,False,1000,True,1.0
./expes/v2_2020-11-05_dbh_300-prng-1,daily_base_hphc_300,300,first-300,171,rng,num-start-131,131,365,8.307746648788452,True,,True,1,False,1000,True,1.0
./expes/v2_2020-11-05_dbh_300-prng-1,daily_base_hphc_300,300,first-300,171,rng,num-start-111,111,365,1002.2394421100616,False,,False,0,True,1000,True,0.0
./expes/v2_2020-11-05_dbh_300-prng-1,daily_base_hphc_300,300,first-300,231,rng,num-start-11,11,365,1000.3088383674622,False,,False,0,True,1000,True,0.0
./expes/v2_2020-11-05_dbh_300-prng-1,daily_base_hphc_300,300,first-300,31,rng,num-start-201,201,365,5.970046520233154,True,,True,1,False,1000,True,1.0
./expes/v2_2020-11-05_dbh_300-prng-1,daily_base_hphc_300,300,first-300,101,rng,num-start-51,51,365,1001.1624433994293,False,,False,0,True,1000,True,0.0
./expes/v2_2020-11-05_dbh_300-prng-1,daily_base_hphc_300,300,first-300,181,rng,num-start-291,291,365,10.512165546417236,True,,True,1,False,1000,True,1.0
./expes/v2_2020-11-05_dbh_300-prng-1,daily_base_hphc_300,300,first-300,141,rng,num-start-181,181,365,6.632885694503784,True,,True,1,False,1000,True,1.0
./expes/v2_2020-11-05_dbh_300-prng-1,daily_base_hphc_300,300,first-300,251,rng,num-start-291,291,365,8.581628561019897,True,,True,1,False,1000,True,1.0
./expes/v2_2020-11-05_dbh_300-prng-1,daily_base_hphc_300,300,first-300,171,rng,num-start-21,21,365,1000.5892078876495,False,,False,0,True,1000,True,0.0
