expe,clients,clients_size,clients_subset,agg_size,method,days,days_size,days_total,time,valid,valid_sum,success,nsols,wall_hit,wall_time,pooled,valid_sums
./expes/v2_2020-11-04_hbh_50-prng-1,30_base_hphc_50,50,first-50,21,rng,num-start-861,861,17520,8.436579465866089,True,,True,1,False,1000,True,1.0
./expes/v2_2020-11-04_hbh_50-prng-1,30_base_hphc_50,50,first-50,31,rng,num-start-981,981,17520,9.497978448867798,True,,True,1,False,1000,True,1.0
./expes/v2_2020-11-04_hbh_50-prng-1,30_base_hphc_50,50,first-50,11,rng,num-start-941,941,17520,8.772554159164429,True,,True,1,False,1000,True,1.0
./expes/v2_2020-11-04_hbh_50-prng-1,30_base_hphc_50,50,first-50,21,rng,num-start-911,911,17520,8.825316667556763,True,,True,1,False,1000,True,1.0
./expes/v2_2020-11-04_hbh_50-prng-1,30_base_hphc_50,50,first-50,31,rng,num-start-261,261,17520,2.4538650512695312,True,,True,1,False,1000,True,1.0
./expes/v2_2020-11-04_hbh_50-prng-1,30_base_hphc_50,50,first-50,41,rng,num-start-911,911,17520,8.579357862472534,True,,True,1,False,1000,True,1.0
./expes/v2_2020-11-04_hbh_50-prng-1,30_base_hphc_50,50,first-50,1,rng,num-start-241,241,17520,2.2147130966186523,True,,True,1,False,1000,True,1.0
./expes/v2_2020-11-04_hbh_50-prng-1,30_base_hphc_50,50,first-50,11,rng,num-start-211,211,17520,2.092430353164673,True,,True,1,False,1000,True,1.0
./expes/v2_2020-11-04_hbh_50-prng-1,30_base_hphc_50,50,first-50,31,rng,num-start-531,531,17520,5.172985553741455,True,,True,1,False,1000,True,1.0
./expes/v2_2020-11-04_hbh_50-prng-1,30_base_hphc_50,50,first-50,1,rng,num-start-11,11,17520,0.10685276985168457,True,,True,1,False,1000,True,1.0
./expes/v2_2020-11-04_hbh_50-prng-1,30_base_hphc_50,50,first-50,31,rng,num-start-931,931,17520,9.094863414764404,True,,True,1,False,1000,True,1.0
