expe,clients,clients_size,clients_subset,agg_size,method,days,days_size,days_total,time,valid,valid_sum,success,nsols,wall_hit,wall_time,pooled,valid_sums
./expes/v2_2020-12-01_di_200-prng-1,daily_issda_200,200,rng-200,131,rng,num-start-151,151,536,2.851116180419922,True,,True,1,False,1000,True,1.0
./expes/v2_2020-12-01_di_200-prng-1,daily_issda_200,200,rng-200,81,rng,num-start-161,161,536,2.516829252243042,True,,True,1,False,1000,True,1.0
./expes/v2_2020-12-01_di_200-prng-1,daily_issda_200,200,rng-200,111,rng,num-start-181,181,536,2.706709861755371,True,,True,1,False,1000,True,1.0
./expes/v2_2020-12-01_di_200-prng-1,daily_issda_200,200,rng-200,1,rng,num-start-61,61,536,0.6962864398956299,True,,True,1,False,1000,True,1.0
./expes/v2_2020-12-01_di_200-prng-1,daily_issda_200,200,rng-200,31,rng,num-start-141,141,536,2.3743624687194824,True,,True,1,False,1000,True,1.0
./expes/v2_2020-12-01_di_200-prng-1,daily_issda_200,200,rng-200,91,rng,num-start-91,91,536,3.309818744659424,True,,True,1,False,1000,True,1.0
./expes/v2_2020-12-01_di_200-prng-1,daily_issda_200,200,rng-200,21,rng,num-start-291,291,536,4.361631155014038,True,,True,1,False,1000,True,1.0
./expes/v2_2020-12-01_di_200-prng-1,daily_issda_200,200,rng-200,151,rng,num-start-101,101,536,1.6648144721984863,True,,True,1,False,1000,True,1.0
./expes/v2_2020-12-01_di_200-prng-1,daily_issda_200,200,rng-200,121,rng,num-start-261,261,536,3.600379467010498,True,,True,1,False,1000,True,1.0
./expes/v2_2020-12-01_di_200-prng-1,daily_issda_200,200,rng-200,11,rng,num-start-41,41,536,0.7793796062469482,True,,True,1,False,1000,True,1.0
./expes/v2_2020-12-01_di_200-prng-1,daily_issda_200,200,rng-200,141,rng,num-start-71,71,536,2.500282049179077,True,,True,1,False,1000,True,1.0
./expes/v2_2020-12-01_di_200-prng-1,daily_issda_200,200,rng-200,41,rng,num-start-31,31,536,1000.9551184177399,False,,False,0,True,1000,True,0.0
./expes/v2_2020-12-01_di_200-prng-1,daily_issda_200,200,rng-200,101,rng,num-start-11,11,536,1000.1939640045166,False,,False,0,True,1000,True,0.0
./expes/v2_2020-12-01_di_200-prng-1,daily_issda_200,200,rng-200,191,rng,num-start-101,101,536,1.474172830581665,True,,True,1,False,1000,True,1.0
./expes/v2_2020-12-01_di_200-prng-1,daily_issda_200,200,rng-200,31,rng,num-start-81,81,536,1.2296490669250488,True,,True,1,False,1000,True,1.0
./expes/v2_2020-12-01_di_200-prng-1,daily_issda_200,200,rng-200,161,rng,num-start-161,161,536,2.509052276611328,True,,True,1,False,1000,True,1.0
./expes/v2_2020-12-01_di_200-prng-1,daily_issda_200,200,rng-200,131,rng,num-start-271,271,536,3.9831528663635254,True,,True,1,False,1000,True,1.0
./expes/v2_2020-12-01_di_200-prng-1,daily_issda_200,200,rng-200,161,rng,num-start-101,101,536,1.4736652374267578,True,,True,1,False,1000,True,1.0
./expes/v2_2020-12-01_di_200-prng-1,daily_issda_200,200,rng-200,71,rng,num-start-231,231,536,3.7947397232055664,True,,True,1,False,1000,True,1.0
./expes/v2_2020-12-01_di_200-prng-1,daily_issda_200,200,rng-200,1,rng,num-start-11,11,536,0.15040040016174316,True,,True,1,False,1000,True,1.0
./expes/v2_2020-12-01_di_200-prng-1,daily_issda_200,200,rng-200,41,rng,num-start-261,261,536,4.1596832275390625,True,,True,1,False,1000,True,1.0
./expes/v2_2020-12-01_di_200-prng-1,daily_issda_200,200,rng-200,131,rng,num-start-271,271,536,3.925359010696411,True,,True,1,False,1000,True,1.0
./expes/v2_2020-12-01_di_200-prng-1,daily_issda_200,200,rng-200,41,rng,num-start-121,121,536,1.8241820335388184,True,,True,1,False,1000,True,1.0
./expes/v2_2020-12-01_di_200-prng-1,daily_issda_200,200,rng-200,121,rng,num-start-81,81,536,2.6565427780151367,True,,True,1,False,1000,True,1.0
./expes/v2_2020-12-01_di_200-prng-1,daily_issda_200,200,rng-200,21,rng,num-start-281,281,536,4.276775121688843,True,,True,1,False,1000,True,1.0
./expes/v2_2020-12-01_di_200-prng-1,daily_issda_200,200,rng-200,101,rng,num-start-31,31,536,1000.3816196918488,False,,False,0,True,1000,True,0.0
./expes/v2_2020-12-01_di_200-prng-1,daily_issda_200,200,rng-200,181,rng,num-start-101,101,536,1.5141916275024414,True,,True,1,False,1000,True,1.0
./expes/v2_2020-12-01_di_200-prng-1,daily_issda_200,200,rng-200,71,rng,num-start-231,231,536,3.5068986415863037,True,,True,1,False,1000,True,1.0
./expes/v2_2020-12-01_di_200-prng-1,daily_issda_200,200,rng-200,151,rng,num-start-161,161,536,2.5074713230133057,True,,True,1,False,1000,True,1.0
./expes/v2_2020-12-01_di_200-prng-1,daily_issda_200,200,rng-200,161,rng,num-start-21,21,536,1000.7679524421692,False,,False,0,True,1000,True,0.0
./expes/v2_2020-12-01_di_200-prng-1,daily_issda_200,200,rng-200,51,rng,num-start-81,81,536,1.4069981575012207,True,,True,1,False,1000,True,1.0
./expes/v2_2020-12-01_di_200-prng-1,daily_issda_200,200,rng-200,81,rng,num-start-121,121,536,1.982740879058838,True,,True,1,False,1000,True,1.0
./expes/v2_2020-12-01_di_200-prng-1,daily_issda_200,200,rng-200,21,rng,num-start-281,281,536,3.8708879947662354,True,,True,1,False,1000,True,1.0
./expes/v2_2020-12-01_di_200-prng-1,daily_issda_200,200,rng-200,191,rng,num-start-181,181,536,2.5383849143981934,True,,True,1,False,1000,True,1.0
./expes/v2_2020-12-01_di_200-prng-1,daily_issda_200,200,rng-200,71,rng,num-start-191,191,536,3.0185766220092773,True,,True,1,False,1000,True,1.0
./expes/v2_2020-12-01_di_200-prng-1,daily_issda_200,200,rng-200,101,rng,num-start-181,181,536,2.8575706481933594,True,,True,1,False,1000,True,1.0
./expes/v2_2020-12-01_di_200-prng-1,daily_issda_200,200,rng-200,11,rng,num-start-121,121,536,1.8942418098449707,True,,True,1,False,1000,True,1.0
./expes/v2_2020-12-01_di_200-prng-1,daily_issda_200,200,rng-200,1,rng,num-start-111,111,536,1.2399191856384277,True,,True,1,False,1000,True,1.0
./expes/v2_2020-12-01_di_200-prng-1,daily_issda_200,200,rng-200,111,rng,num-start-261,261,536,3.567387819290161,True,,True,1,False,1000,True,1.0
./expes/v2_2020-12-01_di_200-prng-1,daily_issda_200,200,rng-200,101,rng,num-start-41,41,536,1000.4971213340759,False,,False,0,True,1000,True,0.0
./expes/v2_2020-12-01_di_200-prng-1,daily_issda_200,200,rng-200,121,rng,num-start-201,201,536,3.165977716445923,True,,True,1,False,1000,True,1.0
./expes/v2_2020-12-01_di_200-prng-1,daily_issda_200,200,rng-200,51,rng,num-start-271,271,536,4.019338130950928,True,,True,1,False,1000,True,1.0
./expes/v2_2020-12-01_di_200-prng-1,daily_issda_200,200,rng-200,191,rng,num-start-271,271,536,3.713909149169922,True,,True,1,False,1000,True,1.0
./expes/v2_2020-12-01_di_200-prng-1,daily_issda_200,200,rng-200,61,rng,num-start-41,41,536,1000.5476288795471,False,,False,0,True,1000,True,0.0
./expes/v2_2020-12-01_di_200-prng-1,daily_issda_200,200,rng-200,91,rng,num-start-141,141,536,2.326627731323242,True,,True,1,False,1000,True,1.0
./expes/v2_2020-12-01_di_200-prng-1,daily_issda_200,200,rng-200,191,rng,num-start-291,291,536,4.191769599914551,True,,True,1,False,1000,True,1.0
