expe,clients,clients_size,clients_subset,agg_size,method,days,days_size,days_total,time,valid,valid_sum,success,nsols,wall_hit,wall_time,pooled,valid_sums
./expes/v2_2020-12-01_di_200-prng-1,daily_issda_200,200,rng-200,101,rng,num-start-241,241,536,3.7638614177703857,True,,True,1,False,1000,True,1.0
./expes/v2_2020-12-01_di_200-prng-1,daily_issda_200,200,rng-200,191,rng,num-start-291,291,536,4.2965006828308105,True,,True,1,False,1000,True,1.0
./expes/v2_2020-12-01_di_200-prng-1,daily_issda_200,200,rng-200,1,rng,num-start-221,221,536,2.4624900817871094,True,,True,1,False,1000,True,1.0
./expes/v2_2020-12-01_di_200-prng-1,daily_issda_200,200,rng-200,11,rng,num-start-241,241,536,3.681946277618408,True,,True,1,False,1000,True,1.0
./expes/v2_2020-12-01_di_200-prng-1,daily_issda_200,200,rng-200,111,rng,num-start-211,211,536,3.1634573936462402,True,,True,1,False,1000,True,1.0
./expes/v2_2020-12-01_di_200-prng-1,daily_issda_200,200,rng-200,1,rng,num-start-11,11,536,0.13421201705932617,True,,True,1,False,1000,True,1.0
./expes/v2_2020-12-01_di_200-prng-1,daily_issda_200,200,rng-200,161,rng,num-start-201,201,536,3.0568108558654785,True,,True,1,False,1000,True,1.0
./expes/v2_2020-12-01_di_200-prng-1,daily_issda_200,200,rng-200,71,rng,num-start-251,251,536,3.9429404735565186,True,,True,1,False,1000,True,1.0
./expes/v2_2020-12-01_di_200-prng-1,daily_issda_200,200,rng-200,101,rng,num-start-211,211,536,2.890227794647217,True,,True,1,False,1000,True,1.0
./expes/v2_2020-12-01_di_200-prng-1,daily_issda_200,200,rng-200,1,rng,num-start-141,141,536,1.5745420455932617,True,,True,1,False,1000,True,1.0
./expes/v2_2020-12-01_di_200-prng-1,daily_issda_200,200,rng-200,171,rng,num-start-241,241,536,4.4489593505859375,True,,True,1,False,1000,True,1.0
./expes/v2_2020-12-01_di_200-prng-1,daily_issda_200,200,rng-200,41,rng,num-start-71,71,536,1.159273386001587,True,,True,1,False,1000,True,1.0
./expes/v2_2020-12-01_di_200-prng-1,daily_issda_200,200,rng-200,151,rng,num-start-31,31,536,1000.6082482337952,False,,False,0,True,1000,True,0.0
./expes/v2_2020-12-01_di_200-prng-1,daily_issda_200,200,rng-200,101,rng,num-start-121,121,536,1.89829683303833,True,,True,1,False,1000,True,1.0
./expes/v2_2020-12-01_di_200-prng-1,daily_issda_200,200,rng-200,181,rng,num-start-221,221,536,2.8385367393493652,True,,True,1,False,1000,True,1.0
./expes/v2_2020-12-01_di_200-prng-1,daily_issda_200,200,rng-200,91,rng,num-start-211,211,536,3.236342430114746,True,,True,1,False,1000,True,1.0
./expes/v2_2020-12-01_di_200-prng-1,daily_issda_200,200,rng-200,141,rng,num-start-231,231,536,3.4333865642547607,True,,True,1,False,1000,True,1.0
./expes/v2_2020-12-01_di_200-prng-1,daily_issda_200,200,rng-200,81,rng,num-start-161,161,536,2.4507875442504883,True,,True,1,False,1000,True,1.0
./expes/v2_2020-12-01_di_200-prng-1,daily_issda_200,200,rng-200,81,rng,num-start-151,151,536,2.5640077590942383,True,,True,1,False,1000,True,1.0
./expes/v2_2020-12-01_di_200-prng-1,daily_issda_200,200,rng-200,91,rng,num-start-171,171,536,2.718184232711792,True,,True,1,False,1000,True,1.0
./expes/v2_2020-12-01_di_200-prng-1,daily_issda_200,200,rng-200,141,rng,num-start-251,251,536,3.6011250019073486,True,,True,1,False,1000,True,1.0
./expes/v2_2020-12-01_di_200-prng-1,daily_issda_200,200,rng-200,11,rng,num-start-241,241,536,3.270838975906372,True,,True,1,False,1000,True,1.0
./expes/v2_2020-12-01_di_200-prng-1,daily_issda_200,200,rng-200,131,rng,num-start-61,61,536,14.489753723144531,True,,True,1,False,1000,True,1.0
./expes/v2_2020-12-01_di_200-prng-1,daily_issda_200,200,rng-200,151,rng,num-start-191,191,536,3.0138609409332275,True,,True,1,False,1000,True,1.0
./expes/v2_2020-12-01_di_200-prng-1,daily_issda_200,200,rng-200,111,rng,num-start-51,51,536,1002.5696356296539,False,,False,0,True,1000,True,0.0
./expes/v2_2020-12-01_di_200-prng-1,daily_issda_200,200,rng-200,191,rng,num-start-161,161,536,2.2211902141571045,True,,True,1,False,1000,True,1.0
./expes/v2_2020-12-01_di_200-prng-1,daily_issda_200,200,rng-200,1,rng,num-start-11,11,536,0.17250370979309082,True,,True,1,False,1000,True,1.0
./expes/v2_2020-12-01_di_200-prng-1,daily_issda_200,200,rng-200,31,rng,num-start-161,161,536,2.3555960655212402,True,,True,1,False,1000,True,1.0
./expes/v2_2020-12-01_di_200-prng-1,daily_issda_200,200,rng-200,51,rng,num-start-11,11,536,1000.222115278244,False,,False,0,True,1000,True,0.0
./expes/v2_2020-12-01_di_200-prng-1,daily_issda_200,200,rng-200,111,rng,num-start-131,131,536,2.161897897720337,True,,True,1,False,1000,True,1.0
./expes/v2_2020-12-01_di_200-prng-1,daily_issda_200,200,rng-200,61,rng,num-start-211,211,536,2.7628378868103027,True,,True,1,False,1000,True,1.0
./expes/v2_2020-12-01_di_200-prng-1,daily_issda_200,200,rng-200,81,rng,num-start-111,111,536,1.760770559310913,True,,True,1,False,1000,True,1.0
./expes/v2_2020-12-01_di_200-prng-1,daily_issda_200,200,rng-200,51,rng,num-start-131,131,536,2.076993703842163,True,,True,1,False,1000,True,1.0
./expes/v2_2020-12-01_di_200-prng-1,daily_issda_200,200,rng-200,111,rng,num-start-121,121,536,1.8767874240875244,True,,True,1,False,1000,True,1.0
./expes/v2_2020-12-01_di_200-prng-1,daily_issda_200,200,rng-200,41,rng,num-start-151,151,536,2.4348387718200684,True,,True,1,False,1000,True,1.0
./expes/v2_2020-12-01_di_200-prng-1,daily_issda_200,200,rng-200,31,rng,num-start-211,211,536,3.10306453704834,True,,True,1,False,1000,True,1.0
./expes/v2_2020-12-01_di_200-prng-1,daily_issda_200,200,rng-200,161,rng,num-start-101,101,536,1.4276669025421143,True,,True,1,False,1000,True,1.0
./expes/v2_2020-12-01_di_200-prng-1,daily_issda_200,200,rng-200,1,rng,num-start-151,151,536,1.647395133972168,True,,True,1,False,1000,True,1.0
./expes/v2_2020-12-01_di_200-prng-1,daily_issda_200,200,rng-200,161,rng,num-start-61,61,536,1.4756615161895752,True,,True,1,False,1000,True,1.0
./expes/v2_2020-12-01_di_200-prng-1,daily_issda_200,200,rng-200,181,rng,num-start-51,51,536,0.808976411819458,True,,True,1,False,1000,True,1.0
./expes/v2_2020-12-01_di_200-prng-1,daily_issda_200,200,rng-200,191,rng,num-start-81,81,536,1.1124496459960938,True,,True,1,False,1000,True,1.0
./expes/v2_2020-12-01_di_200-prng-1,daily_issda_200,200,rng-200,51,rng,num-start-281,281,536,3.9790396690368652,True,,True,1,False,1000,True,1.0
./expes/v2_2020-12-01_di_200-prng-1,daily_issda_200,200,rng-200,151,rng,num-start-21,21,536,1000.4580006599426,False,,False,0,True,1000,True,0.0
./expes/v2_2020-12-01_di_200-prng-1,daily_issda_200,200,rng-200,31,rng,num-start-231,231,536,3.0767414569854736,True,,True,1,False,1000,True,1.0
./expes/v2_2020-12-01_di_200-prng-1,daily_issda_200,200,rng-200,51,rng,num-start-111,111,536,1.8150038719177246,True,,True,1,False,1000,True,1.0
./expes/v2_2020-12-01_di_200-prng-1,daily_issda_200,200,rng-200,191,rng,num-start-131,131,536,1.884281873703003,True,,True,1,False,1000,True,1.0
./expes/v2_2020-12-01_di_200-prng-1,daily_issda_200,200,rng-200,91,rng,num-start-41,41,536,1000.5083100795746,False,,False,0,True,1000,True,0.0
./expes/v2_2020-12-01_di_200-prng-1,daily_issda_200,200,rng-200,61,rng,num-start-261,261,536,3.5350658893585205,True,,True,1,False,1000,True,1.0
./expes/v2_2020-12-01_di_200-prng-1,daily_issda_200,200,rng-200,121,rng,num-start-81,81,536,2.10974383354187,True,,True,1,False,1000,True,1.0
./expes/v2_2020-12-01_di_200-prng-1,daily_issda_200,200,rng-200,191,rng,num-start-61,61,536,0.9289510250091553,True,,True,1,False,1000,True,1.0
./expes/v2_2020-12-01_di_200-prng-1,daily_issda_200,200,rng-200,21,rng,num-start-261,261,536,3.4172286987304688,True,,True,1,False,1000,True,1.0
./expes/v2_2020-12-01_di_200-prng-1,daily_issda_200,200,rng-200,41,rng,num-start-81,81,536,1.395475149154663,True,,True,1,False,1000,True,1.0
./expes/v2_2020-12-01_di_200-prng-1,daily_issda_200,200,rng-200,181,rng,num-start-231,231,536,3.132652521133423,True,,True,1,False,1000,True,1.0
./expes/v2_2020-12-01_di_200-prng-1,daily_issda_200,200,rng-200,11,rng,num-start-231,231,536,3.2371292114257812,True,,True,1,False,1000,True,1.0
./expes/v2_2020-12-01_di_200-prng-1,daily_issda_200,200,rng-200,81,rng,num-start-1,1,536,0.4537334442138672,False,,False,2,False,1000,True,1.0
./expes/v2_2020-12-01_di_200-prng-1,daily_issda_200,200,rng-200,181,rng,num-start-171,171,536,2.4222352504730225,True,,True,1,False,1000,True,1.0
./expes/v2_2020-12-01_di_200-prng-1,daily_issda_200,200,rng-200,31,rng,num-start-231,231,536,3.3202412128448486,True,,True,1,False,1000,True,1.0
