expe,clients,clients_size,clients_subset,agg_size,method,days,days_size,days_total,time,valid,valid_sum,success,nsols,wall_hit,wall_time,pooled,valid_sums
./expes/v2_2020-12-01_di_200-prng-1,daily_issda_200,200,rng-200,81,rng,num-start-21,21,536,1000.637552022934,False,,False,0,True,1000,True,0.0
./expes/v2_2020-12-01_di_200-prng-1,daily_issda_200,200,rng-200,1,rng,num-start-211,211,536,4.858737230300903,True,,True,1,False,1000,True,1.0
./expes/v2_2020-12-01_di_200-prng-1,daily_issda_200,200,rng-200,31,rng,num-start-121,121,536,3.2651963233947754,True,,True,1,False,1000,True,1.0
./expes/v2_2020-12-01_di_200-prng-1,daily_issda_200,200,rng-200,71,rng,num-start-261,261,536,7.059079885482788,True,,True,1,False,1000,True,1.0
./expes/v2_2020-12-01_di_200-prng-1,daily_issda_200,200,rng-200,191,rng,num-start-271,271,536,6.63269567489624,True,,True,1,False,1000,True,1.0
./expes/v2_2020-12-01_di_200-prng-1,daily_issda_200,200,rng-200,11,rng,num-start-61,61,536,1.6684060096740723,True,,True,1,False,1000,True,1.0
./expes/v2_2020-12-01_di_200-prng-1,daily_issda_200,200,rng-200,61,rng,num-start-101,101,536,2.9439051151275635,True,,True,1,False,1000,True,1.0
./expes/v2_2020-12-01_di_200-prng-1,daily_issda_200,200,rng-200,21,rng,num-start-271,271,536,6.660320997238159,True,,True,1,False,1000,True,1.0
./expes/v2_2020-12-01_di_200-prng-1,daily_issda_200,200,rng-200,111,rng,num-start-221,221,536,5.94564414024353,True,,True,1,False,1000,True,1.0
./expes/v2_2020-12-01_di_200-prng-1,daily_issda_200,200,rng-200,181,rng,num-start-51,51,536,1.3786897659301758,True,,True,1,False,1000,True,1.0
./expes/v2_2020-12-01_di_200-prng-1,daily_issda_200,200,rng-200,191,rng,num-start-161,161,536,4.064253568649292,True,,True,1,False,1000,True,1.0
./expes/v2_2020-12-01_di_200-prng-1,daily_issda_200,200,rng-200,171,rng,num-start-41,41,536,2.3563926219940186,True,,True,1,False,1000,True,1.0
./expes/v2_2020-12-01_di_200-prng-1,daily_issda_200,200,rng-200,151,rng,num-start-51,51,536,4.636359930038452,True,,True,1,False,1000,True,1.0
./expes/v2_2020-12-01_di_200-prng-1,daily_issda_200,200,rng-200,181,rng,num-start-161,161,536,4.130553960800171,True,,True,1,False,1000,True,1.0
./expes/v2_2020-12-01_di_200-prng-1,daily_issda_200,200,rng-200,71,rng,num-start-21,21,536,1000.4974970817566,False,,False,0,True,1000,True,0.0
./expes/v2_2020-12-01_di_200-prng-1,daily_issda_200,200,rng-200,91,rng,num-start-181,181,536,4.897018909454346,True,,True,1,False,1000,True,1.0
./expes/v2_2020-12-01_di_200-prng-1,daily_issda_200,200,rng-200,181,rng,num-start-281,281,536,7.036720514297485,True,,True,1,False,1000,True,1.0
./expes/v2_2020-12-01_di_200-prng-1,daily_issda_200,200,rng-200,41,rng,num-start-241,241,536,6.455555200576782,True,,True,1,False,1000,True,1.0
./expes/v2_2020-12-01_di_200-prng-1,daily_issda_200,200,rng-200,51,rng,num-start-171,171,536,4.415088891983032,True,,True,1,False,1000,True,1.0
./expes/v2_2020-12-01_di_200-prng-1,daily_issda_200,200,rng-200,71,rng,num-start-101,101,536,2.8414111137390137,True,,True,1,False,1000,True,1.0
./expes/v2_2020-12-01_di_200-prng-1,daily_issda_200,200,rng-200,181,rng,num-start-171,171,536,4.305747985839844,True,,True,1,False,1000,True,1.0
./expes/v2_2020-12-01_di_200-prng-1,daily_issda_200,200,rng-200,121,rng,num-start-51,51,536,1001.1393983364105,False,,False,0,True,1000,True,0.0
./expes/v2_2020-12-01_di_200-prng-1,daily_issda_200,200,rng-200,171,rng,num-start-31,31,536,1001.076203584671,False,,False,0,True,1000,True,0.0
./expes/v2_2020-12-01_di_200-prng-1,daily_issda_200,200,rng-200,61,rng,num-start-271,271,536,7.195604562759399,True,,True,1,False,1000,True,1.0
./expes/v2_2020-12-01_di_200-prng-1,daily_issda_200,200,rng-200,191,rng,num-start-81,81,536,2.115541696548462,True,,True,1,False,1000,True,1.0
./expes/v2_2020-12-01_di_200-prng-1,daily_issda_200,200,rng-200,121,rng,num-start-111,111,536,3.0787854194641113,True,,True,1,False,1000,True,1.0
./expes/v2_2020-12-01_di_200-prng-1,daily_issda_200,200,rng-200,171,rng,num-start-291,291,536,7.172289848327637,True,,True,1,False,1000,True,1.0
./expes/v2_2020-12-01_di_200-prng-1,daily_issda_200,200,rng-200,51,rng,num-start-11,11,536,1000.2743580341339,False,,False,0,True,1000,True,0.0
./expes/v2_2020-12-01_di_200-prng-1,daily_issda_200,200,rng-200,151,rng,num-start-241,241,536,6.22698974609375,True,,True,1,False,1000,True,1.0
./expes/v2_2020-12-01_di_200-prng-1,daily_issda_200,200,rng-200,111,rng,num-start-161,161,536,4.4250264167785645,True,,True,1,False,1000,True,1.0
./expes/v2_2020-12-01_di_200-prng-1,daily_issda_200,200,rng-200,81,rng,num-start-151,151,536,4.233392953872681,True,,True,1,False,1000,True,1.0
./expes/v2_2020-12-01_di_200-prng-1,daily_issda_200,200,rng-200,11,rng,num-start-151,151,536,3.949291229248047,True,,True,1,False,1000,True,1.0
./expes/v2_2020-12-01_di_200-prng-1,daily_issda_200,200,rng-200,21,rng,num-start-181,181,536,4.885664224624634,True,,True,1,False,1000,True,1.0
./expes/v2_2020-12-01_di_200-prng-1,daily_issda_200,200,rng-200,71,rng,num-start-141,141,536,3.98927903175354,True,,True,1,False,1000,True,1.0
./expes/v2_2020-12-01_di_200-prng-1,daily_issda_200,200,rng-200,1,rng,num-start-51,51,536,1.1306226253509521,True,,True,1,False,1000,True,1.0
./expes/v2_2020-12-01_di_200-prng-1,daily_issda_200,200,rng-200,51,rng,num-start-261,261,536,6.724522113800049,True,,True,1,False,1000,True,1.0
./expes/v2_2020-12-01_di_200-prng-1,daily_issda_200,200,rng-200,151,rng,num-start-141,141,536,3.8568289279937744,True,,True,1,False,1000,True,1.0
./expes/v2_2020-12-01_di_200-prng-1,daily_issda_200,200,rng-200,131,rng,num-start-241,241,536,7.099266290664673,True,,True,1,False,1000,True,1.0
./expes/v2_2020-12-01_di_200-prng-1,daily_issda_200,200,rng-200,61,rng,num-start-91,91,536,3.1385960578918457,True,,True,1,False,1000,True,1.0
./expes/v2_2020-12-01_di_200-prng-1,daily_issda_200,200,rng-200,51,rng,num-start-261,261,536,6.766394853591919,True,,True,1,False,1000,True,1.0
./expes/v2_2020-12-01_di_200-prng-1,daily_issda_200,200,rng-200,71,rng,num-start-181,181,536,5.162261009216309,True,,True,1,False,1000,True,1.0
./expes/v2_2020-12-01_di_200-prng-1,daily_issda_200,200,rng-200,81,rng,num-start-281,281,536,7.527137994766235,True,,True,1,False,1000,True,1.0
./expes/v2_2020-12-01_di_200-prng-1,daily_issda_200,200,rng-200,41,rng,num-start-141,141,536,4.055253267288208,True,,True,1,False,1000,True,1.0
./expes/v2_2020-12-01_di_200-prng-1,daily_issda_200,200,rng-200,1,rng,num-start-241,241,536,5.637450218200684,True,,True,1,False,1000,True,1.0
./expes/v2_2020-12-01_di_200-prng-1,daily_issda_200,200,rng-200,121,rng,num-start-221,221,536,5.90995717048645,True,,True,1,False,1000,True,1.0
./expes/v2_2020-12-01_di_200-prng-1,daily_issda_200,200,rng-200,171,rng,num-start-171,171,536,4.470473051071167,True,,True,1,False,1000,True,1.0
./expes/v2_2020-12-01_di_200-prng-1,daily_issda_200,200,rng-200,141,rng,num-start-21,21,536,1000.5595932006836,False,,False,0,True,1000,True,0.0
./expes/v2_2020-12-01_di_200-prng-1,daily_issda_200,200,rng-200,71,rng,num-start-101,101,536,2.819830894470215,True,,True,1,False,1000,True,1.0
./expes/v2_2020-12-01_di_200-prng-1,daily_issda_200,200,rng-200,111,rng,num-start-121,121,536,3.322671413421631,True,,True,1,False,1000,True,1.0
./expes/v2_2020-12-01_di_200-prng-1,daily_issda_200,200,rng-200,61,rng,num-start-211,211,536,5.708715200424194,True,,True,1,False,1000,True,1.0
./expes/v2_2020-12-01_di_200-prng-1,daily_issda_200,200,rng-200,181,rng,num-start-151,151,536,3.965294122695923,True,,True,1,False,1000,True,1.0
./expes/v2_2020-12-01_di_200-prng-1,daily_issda_200,200,rng-200,141,rng,num-start-241,241,536,6.498647689819336,True,,True,1,False,1000,True,1.0
./expes/v2_2020-12-01_di_200-prng-1,daily_issda_200,200,rng-200,151,rng,num-start-121,121,536,3.4547905921936035,True,,True,1,False,1000,True,1.0
./expes/v2_2020-12-01_di_200-prng-1,daily_issda_200,200,rng-200,81,rng,num-start-141,141,536,3.7865617275238037,True,,True,1,False,1000,True,1.0
./expes/v2_2020-12-01_di_200-prng-1,daily_issda_200,200,rng-200,111,rng,num-start-141,141,536,4.0738677978515625,True,,True,1,False,1000,True,1.0
./expes/v2_2020-12-01_di_200-prng-1,daily_issda_200,200,rng-200,171,rng,num-start-131,131,536,3.4435489177703857,True,,True,1,False,1000,True,1.0
./expes/v2_2020-12-01_di_200-prng-1,daily_issda_200,200,rng-200,101,rng,num-start-31,31,536,1000.802047252655,False,,False,0,True,1000,True,0.0
./expes/v2_2020-12-01_di_200-prng-1,daily_issda_200,200,rng-200,181,rng,num-start-71,71,536,1.964430570602417,True,,True,1,False,1000,True,1.0
./expes/v2_2020-12-01_di_200-prng-1,daily_issda_200,200,rng-200,91,rng,num-start-271,271,536,6.867462158203125,True,,True,1,False,1000,True,1.0
./expes/v2_2020-12-01_di_200-prng-1,daily_issda_200,200,rng-200,141,rng,num-start-141,141,536,4.105961084365845,True,,True,1,False,1000,True,1.0
./expes/v2_2020-12-01_di_200-prng-1,daily_issda_200,200,rng-200,191,rng,num-start-141,141,536,3.5276477336883545,True,,True,1,False,1000,True,1.0
./expes/v2_2020-12-01_di_200-prng-1,daily_issda_200,200,rng-200,131,rng,num-start-281,281,536,7.677415609359741,True,,True,1,False,1000,True,1.0
./expes/v2_2020-12-01_di_200-prng-1,daily_issda_200,200,rng-200,91,rng,num-start-161,161,536,4.360252380371094,True,,True,1,False,1000,True,1.0
./expes/v2_2020-12-01_di_200-prng-1,daily_issda_200,200,rng-200,121,rng,num-start-151,151,536,4.17045259475708,True,,True,1,False,1000,True,1.0
./expes/v2_2020-12-01_di_200-prng-1,daily_issda_200,200,rng-200,151,rng,num-start-131,131,536,3.4529287815093994,True,,True,1,False,1000,True,1.0
./expes/v2_2020-12-01_di_200-prng-1,daily_issda_200,200,rng-200,81,rng,num-start-11,11,536,1000.369683265686,False,,False,0,True,1000,True,0.0
./expes/v2_2020-12-01_di_200-prng-1,daily_issda_200,200,rng-200,61,rng,num-start-171,171,536,4.887610673904419,True,,True,1,False,1000,True,1.0
./expes/v2_2020-12-01_di_200-prng-1,daily_issda_200,200,rng-200,151,rng,num-start-171,171,536,4.839718580245972,True,,True,1,False,1000,True,1.0
./expes/v2_2020-12-01_di_200-prng-1,daily_issda_200,200,rng-200,11,rng,num-start-71,71,536,1.9638803005218506,True,,True,1,False,1000,True,1.0
./expes/v2_2020-12-01_di_200-prng-1,daily_issda_200,200,rng-200,141,rng,num-start-211,211,536,5.702308893203735,True,,True,1,False,1000,True,1.0
./expes/v2_2020-12-01_di_200-prng-1,daily_issda_200,200,rng-200,171,rng,num-start-171,171,536,4.574796438217163,True,,True,1,False,1000,True,1.0
./expes/v2_2020-12-01_di_200-prng-1,daily_issda_200,200,rng-200,151,rng,num-start-211,211,536,5.613141775131226,True,,True,1,False,1000,True,1.0
./expes/v2_2020-12-01_di_200-prng-1,daily_issda_200,200,rng-200,21,rng,num-start-281,281,536,7.378789901733398,True,,True,1,False,1000,True,1.0
./expes/v2_2020-12-01_di_200-prng-1,daily_issda_200,200,rng-200,21,rng,num-start-111,111,536,2.9163992404937744,True,,True,1,False,1000,True,1.0
./expes/v2_2020-12-01_di_200-prng-1,daily_issda_200,200,rng-200,41,rng,num-start-11,11,536,1000.5532217025757,False,,False,0,True,1000,True,0.0
./expes/v2_2020-12-01_di_200-prng-1,daily_issda_200,200,rng-200,141,rng,num-start-61,61,536,7.437057971954346,True,,True,1,False,1000,True,1.0
./expes/v2_2020-12-01_di_200-prng-1,daily_issda_200,200,rng-200,51,rng,num-start-111,111,536,3.119215965270996,True,,True,1,False,1000,True,1.0
./expes/v2_2020-12-01_di_200-prng-1,daily_issda_200,200,rng-200,141,rng,num-start-101,101,536,2.865283966064453,True,,True,1,False,1000,True,1.0
./expes/v2_2020-12-01_di_200-prng-1,daily_issda_200,200,rng-200,181,rng,num-start-151,151,536,4.044528245925903,True,,True,1,False,1000,True,1.0
./expes/v2_2020-12-01_di_200-prng-1,daily_issda_200,200,rng-200,141,rng,num-start-91,91,536,2.6252996921539307,True,,True,1,False,1000,True,1.0
./expes/v2_2020-12-01_di_200-prng-1,daily_issda_200,200,rng-200,61,rng,num-start-81,81,536,4.385094404220581,True,,True,1,False,1000,True,1.0
./expes/v2_2020-12-01_di_200-prng-1,daily_issda_200,200,rng-200,171,rng,num-start-121,121,536,3.3325202465057373,True,,True,1,False,1000,True,1.0
./expes/v2_2020-12-01_di_200-prng-1,daily_issda_200,200,rng-200,131,rng,num-start-291,291,536,8.26621699333191,True,,True,1,False,1000,True,1.0
./expes/v2_2020-12-01_di_200-prng-1,daily_issda_200,200,rng-200,101,rng,num-start-241,241,536,7.283128023147583,True,,True,1,False,1000,True,1.0
./expes/v2_2020-12-01_di_200-prng-1,daily_issda_200,200,rng-200,71,rng,num-start-41,41,536,1000.9761106967926,False,,False,0,True,1000,True,0.0
./expes/v2_2020-12-01_di_200-prng-1,daily_issda_200,200,rng-200,181,rng,num-start-241,241,536,6.091532945632935,True,,True,1,False,1000,True,1.0
./expes/v2_2020-12-01_di_200-prng-1,daily_issda_200,200,rng-200,111,rng,num-start-61,61,536,27.984009981155396,True,,True,1,False,1000,True,1.0
./expes/v2_2020-12-01_di_200-prng-1,daily_issda_200,200,rng-200,111,rng,num-start-151,151,536,4.161028146743774,True,,True,1,False,1000,True,1.0
./expes/v2_2020-12-01_di_200-prng-1,daily_issda_200,200,rng-200,51,rng,num-start-181,181,536,4.8412768840789795,True,,True,1,False,1000,True,1.0
./expes/v2_2020-12-01_di_200-prng-1,daily_issda_200,200,rng-200,61,rng,num-start-21,21,536,1000.5550734996796,False,,False,0,True,1000,True,0.0
./expes/v2_2020-12-01_di_200-prng-1,daily_issda_200,200,rng-200,91,rng,num-start-81,81,536,4.163730621337891,True,,True,1,False,1000,True,1.0
./expes/v2_2020-12-01_di_200-prng-1,daily_issda_200,200,rng-200,51,rng,num-start-161,161,536,4.446704387664795,True,,True,1,False,1000,True,1.0
./expes/v2_2020-12-01_di_200-prng-1,daily_issda_200,200,rng-200,71,rng,num-start-81,81,536,4.2451863288879395,True,,True,1,False,1000,True,1.0
./expes/v2_2020-12-01_di_200-prng-1,daily_issda_200,200,rng-200,191,rng,num-start-21,21,536,1.5839216709136963,True,,True,1,False,1000,True,1.0
./expes/v2_2020-12-01_di_200-prng-1,daily_issda_200,200,rng-200,141,rng,num-start-221,221,536,5.654179334640503,True,,True,1,False,1000,True,1.0
./expes/v2_2020-12-01_di_200-prng-1,daily_issda_200,200,rng-200,121,rng,num-start-141,141,536,3.8282630443573,True,,True,1,False,1000,True,1.0
./expes/v2_2020-12-01_di_200-prng-1,daily_issda_200,200,rng-200,11,rng,num-start-151,151,536,4.02108097076416,True,,True,1,False,1000,True,1.0
./expes/v2_2020-12-01_di_200-prng-1,daily_issda_200,200,rng-200,101,rng,num-start-281,281,536,7.662328720092773,True,,True,1,False,1000,True,1.0
./expes/v2_2020-12-01_di_200-prng-1,daily_issda_200,200,rng-200,61,rng,num-start-101,101,536,2.7106218338012695,True,,True,1,False,1000,True,1.0
./expes/v2_2020-12-01_di_200-prng-1,daily_issda_200,200,rng-200,61,rng,num-start-201,201,536,5.504471778869629,True,,True,1,False,1000,True,1.0
./expes/v2_2020-12-01_di_200-prng-1,daily_issda_200,200,rng-200,101,rng,num-start-51,51,536,1001.226678609848,False,,False,0,True,1000,True,0.0
./expes/v2_2020-12-01_di_200-prng-1,daily_issda_200,200,rng-200,1,rng,num-start-251,251,536,5.970892667770386,True,,True,1,False,1000,True,1.0
./expes/v2_2020-12-01_di_200-prng-1,daily_issda_200,200,rng-200,41,rng,num-start-271,271,536,6.890435695648193,True,,True,1,False,1000,True,1.0
./expes/v2_2020-12-01_di_200-prng-1,daily_issda_200,200,rng-200,121,rng,num-start-181,181,536,4.887819051742554,True,,True,1,False,1000,True,1.0
./expes/v2_2020-12-01_di_200-prng-1,daily_issda_200,200,rng-200,191,rng,num-start-61,61,536,1.668212890625,True,,True,1,False,1000,True,1.0
./expes/v2_2020-12-01_di_200-prng-1,daily_issda_200,200,rng-200,21,rng,num-start-21,21,536,1007.5638284683228,False,,False,0,True,1000,True,0.0
