expe,clients,clients_size,clients_subset,agg_size,agg_size_pc,method,days,days_size,days_total,noise_method,time,valid,valid_sum,success,score_avg,score_min,score_max,nsols,oracle,wall_hit,wall_time,pooled,pool_size,uuid,infeasible,optimal,valid_sums
./expes/v4_2021-03-18_issda_1000-prng-1-w1-p100-ukn95_98,30_issda-1000,995,first-1000,250,25,rng,num-start-400,400,25726,ukn-95-98,42.94168949127197,False,,False,0.39617241087593313,0.2943174031015131,0.9290762304546698,100,"['2', '15', '17', '23', '24', '28', '34', '38', '40', '41', '42', '47', '60', '63', '64', '65', '71', '72', '74', '76', '83', '85', '92', '94', '96', '98', '102', '104', '112', '119', '120', '123', '127', '128', '134', '143', '144', '146', '150', '151', '154', '174', '175', '185', '189', '190', '192', '194', '195', '196', '200', '205', '209', '210', '216', '221', '224', '225', '226', '227', '228', '242', '245', '248', '249', '250', '257', '266', '267', '278', '282', '283', '289', '295', '298', '299', '309', '311', '318', '324', '325', '328', '333', '334', '339', '341', '342', '344', '359', '363', '366', '367', '368', '380', '381', '395', '401', '409', '415', '430', '431', '436', '437', '445', '447', '454', '456', '459', '462', '479', '482', '484', '488', '489', '491', '498', '499', '502', '505', '506', '516', '517', '521', '524', '534', '535', '538', '546', '548', '554', '557', '558', '561', '562', '565', '566', '574', '582', '584', '588', '590', '594', '598', '602', '604', '611', '617', '618', '621', '626', '627', '628', '634', '636', '641', '646', '650', '651', '656', '657', '663', '673', '677', '685', '689', '696', '697', '700', '701', '715', '717', '718', '721', '723', '724', '728', '736', '737', '745', '748', '750', '774', '776', '777', '786', '802', '803', '804', '808', '813', '814', '818', '819', '820', '823', '825', '830', '832', '835', '836', '837', '842', '845', '846', '848', '850', '851', '854', '856', '858', '859', '861', '863', '865', '866', '870', '871', '876', '887', '889', '892', '897', '898', '912', '914', '917', '920', '921', '924', '927', '930', '932', '935', '938', '939', '940', '941', '945', '946', '956', '959', '960', '973', '985', '987', '989', '990', '991', '992', '994']",False,1000,True,100,655947df3b,0.0,1.0,0.0
./expes/v4_2021-03-18_issda_1000-prng-1-w1-p100-ukn95_98,30_issda-1000,997,first-1000,150,15,rng,num-start-200,200,25726,ukn-95-98,21.201316356658936,False,,False,0.5073015283901912,0.49203137054139234,0.9451178700051548,100,"['2', '15', '34', '40', '42', '64', '65', '71', '76', '83', '92', '94', '96', '98', '102', '104', '112', '128', '134', '143', '144', '146', '151', '154', '189', '192', '194', '196', '209', '210', '224', '228', '245', '248', '250', '257', '266', '267', '289', '295', '298', '299', '309', '311', '318', '324', '325', '328', '334', '339', '341', '342', '363', '367', '395', '401', '409', '415', '431', '445', '454', '456', '459', '484', '488', '489', '498', '502', '506', '517', '521', '524', '534', '546', '554', '557', '561', '562', '565', '566', '574', '582', '590', '598', '602', '611', '617', '618', '626', '627', '628', '634', '641', '656', '673', '685', '696', '700', '701', '717', '721', '723', '724', '728', '737', '748', '774', '776', '777', '803', '804', '818', '819', '823', '825', '830', '835', '842', '845', '848', '850', '858', '861', '863', '865', '871', '887', '889', '892', '897', '898', '912', '914', '920', '921', '924', '930', '932', '935', '938', '940', '941', '945', '946', '956', '987', '989', '990', '991', '992']",False,1000,True,100,01320d871c,0.0,1.0,0.0
./expes/v4_2021-03-18_issda_1000-prng-1-w1-p100-ukn95_98,30_issda-1000,996,first-1000,200,20,rng,num-start-800,800,25726,ukn-95-98,94.27687883377075,False,,False,0.4530715441110707,0.3691355535863955,0.9365957375051759,100,"['2', '3', '6', '10', '13', '23', '27', '30', '31', '32', '36', '45', '58', '65', '89', '97', '103', '105', '111', '121', '124', '133', '138', '168', '173', '175', '178', '191', '195', '205', '211', '215', '222', '225', '228', '233', '235', '237', '238', '239', '249', '262', '273', '276', '291', '297', '304', '311', '316', '326', '340', '341', '353', '354', '355', '362', '366', '374', '376', '380', '384', '389', '391', '393', '400', '403', '404', '414', '415', '424', '425', '427', '433', '437', '444', '449', '450', '457', '461', '470', '471', '481', '484', '492', '493', '497', '500', '502', '508', '512', '513', '515', '517', '518', '520', '521', '525', '527', '532', '534', '541', '552', '553', '554', '555', '562', '567', '568', '570', '575', '583', '584', '592', '593', '602', '604', '606', '608', '615', '623', '624', '628', '630', '639', '645', '658', '663', '666', '668', '676', '680', '681', '687', '691', '694', '703', '713', '720', '721', '729', '739', '742', '744', '747', '751', '756', '759', '761', '762', '780', '781', '783', '786', '790', '795', '797', '798', '803', '806', '808', '817', '822', '829', '833', '841', '850', '856', '858', '861', '867', '868', '869', '874', '878', '881', '891', '903', '904', '908', '915', '918', '924', '932', '933', '939', '943', '945', '949', '959', '961', '962', '964', '968', '973', '976', '978', '981', '991', '993', '997']",False,1000,True,100,009f6a4312,0.0,1.0,0.0
./expes/v4_2021-03-18_issda_1000-prng-1-w1-p100-ukn95_98,30_issda-1000,990,first-1000,500,50,rng,num-start-900,900,25726,ukn-95-98,108.52487969398499,False,,False,0.3173350761280556,-0.0005054334414200667,0.8898479770968952,100,"['1', '4', '6', '7', '8', '9', '10', '12', '13', '14', '16', '18', '19', '20', '21', '23', '25', '27', '28', '30', '31', '35', '36', '37', '40', '42', '43', '44', '45', '49', '50', '52', '53', '54', '55', '56', '57', '60', '61', '62', '63', '65', '66', '67', '68', '69', '71', '74', '77', '78', '81', '83', '84', '85', '86', '87', '88', '89', '90', '91', '94', '95', '96', '97', '99', '102', '103', '105', '106', '107', '109', '112', '113', '114', '115', '121', '123', '124', '125', '132', '133', '136', '137', '138', '139', '141', '142', '143', '145', '146', '148', '149', '151', '152', '153', '161', '166', '167', '168', '169', '173', '174', '175', '176', '177', '178', '181', '183', '184', '186', '187', '191', '192', '194', '197', '203', '204', '205', '206', '207', '208', '210', '211', '214', '215', '216', '217', '219', '222', '226', '227', '228', '230', '233', '237', '238', '242', '243', '244', '249', '250', '254', '255', '258', '260', '263', '266', '269', '270', '274', '275', '277', '280', '281', '282', '284', '285', '286', '288', '292', '298', '299', '302', '304', '308', '309', '310', '314', '315', '317', '323', '326', '329', '330', '332', '333', '337', '338', '339', '342', '343', '344', '346', '347', '349', '350', '353', '355', '356', '358', '362', '364', '366', '368', '374', '375', '379', '381', '382', '383', '388', '389', '391', '393', '395', '396', '398', '399', '405', '407', '408', '409', '411', '412', '413', '414', '417', '420', '422', '427', '428', '431', '432', '433', '435', '436', '438', '439', '441', '444', '447', '450', '451', '455', '458', '460', '462', '463', '465', '467', '468', '470', '473', '475', '478', '479', '482', '486', '487', '490', '491', '493', '494', '502', '504', '507', '508', '509', '510', '513', '515', '518', '519', '521', '522', '523', '527', '528', '530', '531', '532', '535', '536', '537', '540', '542', '547', '549', '551', '553', '555', '556', '557', '558', '559', '561', '562', '566', '568', '569', '570', '573', '574', '576', '577', '579', '580', '581', '583', '585', '587', '588', '589', '590', '593', '594', '595', '599', '600', '601', '603', '605', '606', '608', '612', '614', '616', '618', '619', '620', '621', '622', '623', '624', '626', '627', '628', '632', '638', '640', '641', '642', '645', '650', '653', '655', '658', '659', '661', '664', '665', '667', '675', '680', '684', '686', '687', '688', '691', '693', '694', '695', '696', '697', '698', '700', '701', '705', '707', '710', '711', '713', '714', '717', '718', '721', '723', '726', '727', '729', '733', '735', '737', '738', '743', '744', '745', '746', '748', '752', '754', '755', '756', '759', '762', '764', '765', '766', '767', '771', '773', '779', '780', '781', '782', '783', '784', '790', '791', '792', '793', '794', '795', '796', '797', '798', '799', '800', '802', '803', '806', '809', '813', '814', '816', '818', '819', '820', '823', '827', '829', '830', '835', '841', '843', '844', '853', '854', '858', '860', '864', '866', '867', '872', '873', '880', '881', '885', '887', '888', '889', '890', '893', '896', '897', '898', '899', '900', '901', '902', '903', '905', '908', '909', '910', '911', '914', '915', '917', '918', '919', '920', '921', '924', '925', '928', '929', '931', '932', '934', '937', '940', '942', '943', '944', '946', '947', '952', '954', '959', '961', '963', '964', '967', '969', '970', '974', '975', '977', '979', '982', '984', '985', '986', '988', '990', '991', '992', '999', '1000']",False,1000,True,100,0bc6252a2e,0.0,1.0,0.0
