expe,clients,clients_size,clients_subset,agg_size,agg_size_pc,method,days,days_size,days_total,noise_method,time,valid,valid_sum,success,score_avg,score_min,score_max,nsols,oracle,wall_hit,wall_time,pooled,pool_size,uuid,infeasible,optimal,valid_sums
./expes/v4_2021-03-18_issda_1000-prng-1-w1-p100-ukn95_98,30_issda-1000,997,first-1000,150,15,rng,num-start-400,400,25726,ukn-95-98,27.810335636138916,False,,False,0.5127729966921326,0.4539297013347664,0.9451178700051548,100,"['8', '14', '16', '21', '30', '32', '37', '44', '46', '47', '65', '66', '68', '69', '91', '100', '107', '122', '128', '134', '138', '140', '155', '156', '164', '168', '197', '217', '223', '238', '240', '242', '244', '265', '266', '274', '276', '286', '287', '292', '301', '309', '318', '335', '339', '345', '353', '360', '375', '379', '387', '396', '397', '400', '405', '407', '418', '421', '426', '432', '438', '447', '456', '481', '482', '485', '486', '488', '494', '496', '507', '518', '520', '536', '547', '554', '555', '558', '563', '565', '583', '586', '588', '591', '595', '599', '600', '601', '606', '607', '610', '619', '620', '621', '630', '641', '642', '649', '651', '655', '672', '688', '689', '699', '713', '716', '731', '732', '735', '736', '737', '746', '760', '777', '780', '788', '796', '798', '799', '808', '820', '821', '844', '852', '854', '857', '858', '875', '876', '877', '882', '887', '889', '894', '900', '903', '919', '926', '927', '931', '938', '943', '944', '945', '949', '952', '959', '981', '988', '989']",False,1000,True,100,b7289ea771,0.0,1.0,0.0
./expes/v4_2021-03-18_issda_1000-prng-1-w1-p100-ukn95_98,30_issda-1000,993,first-1000,350,35,rng,num-start-1000,1000,25726,ukn-95-98,83.20475554466248,False,,False,0.32541585809667367,0.16418380628428875,0.9047499047498572,100,"['2', '5', '6', '9', '17', '19', '20', '21', '22', '25', '26', '29', '32', '33', '35', '37', '38', '42', '45', '47', '51', '53', '58', '59', '61', '62', '70', '76', '78', '79', '83', '85', '87', '90', '94', '96', '97', '99', '103', '104', '105', '108', '109', '114', '116', '118', '119', '122', '125', '131', '135', '140', '144', '148', '155', '156', '158', '161', '163', '165', '166', '169', '171', '174', '175', '177', '178', '181', '182', '186', '187', '189', '196', '197', '204', '213', '214', '216', '218', '223', '225', '228', '231', '233', '234', '237', '238', '239', '242', '247', '251', '253', '254', '256', '257', '258', '260', '261', '262', '263', '266', '269', '271', '273', '275', '280', '286', '292', '293', '297', '311', '314', '316', '317', '318', '320', '324', '327', '333', '336', '346', '350', '353', '354', '360', '363', '369', '370', '371', '372', '373', '375', '376', '381', '382', '383', '390', '394', '395', '402', '403', '405', '410', '412', '417', '419', '421', '423', '425', '429', '430', '434', '436', '442', '445', '456', '457', '459', '460', '463', '465', '466', '468', '473', '475', '476', '477', '485', '492', '498', '499', '501', '502', '503', '511', '513', '515', '517', '520', '521', '522', '523', '524', '525', '527', '528', '531', '532', '534', '535', '536', '538', '539', '544', '549', '558', '565', '571', '572', '574', '576', '582', '586', '589', '596', '599', '603', '604', '606', '608', '620', '621', '622', '626', '629', '631', '632', '637', '639', '640', '643', '651', '653', '654', '658', '668', '669', '671', '675', '677', '678', '680', '686', '687', '689', '691', '698', '699', '701', '702', '704', '707', '709', '717', '723', '724', '726', '727', '732', '733', '734', '735', '741', '742', '744', '747', '749', '753', '754', '757', '758', '761', '763', '766', '769', '772', '773', '774', '778', '779', '782', '785', '792', '794', '800', '804', '808', '809', '811', '814', '816', '819', '820', '822', '823', '826', '829', '832', '833', '835', '841', '845', '846', '852', '856', '859', '861', '870', '875', '880', '881', '884', '892', '896', '897', '898', '902', '903', '904', '905', '906', '909', '911', '914', '916', '920', '922', '923', '924', '925', '929', '930', '931', '934', '938', '939', '941', '943', '944', '948', '952', '955', '957', '958', '959', '961', '964', '967', '971', '973', '978', '979', '981', '982', '983', '984', '985', '987', '994', '995']",False,1000,True,100,a9c0d80fa1,0.0,1.0,0.0
./expes/v4_2021-03-18_issda_1000-prng-1-w1-p100-ukn95_98,30_issda-1000,998,first-1000,100,10,rng,num-start-200,200,25726,ukn-95-98,15.54629397392273,False,,False,0.58609047569004,0.5704029085492444,0.9552114070977611,100,"['3', '10', '23', '27', '30', '32', '65', '97', '103', '105', '121', '124', '138', '191', '195', '215', '222', '225', '228', '235', '237', '239', '262', '273', '291', '297', '304', '311', '326', '341', '354', '389', '391', '400', '403', '427', '433', '444', '449', '457', '461', '471', '484', '500', '508', '512', '513', '518', '520', '541', '555', '567', '570', '583', '602', '604', '606', '623', '645', '658', '666', '668', '687', '694', '703', '713', '729', '739', '742', '744', '761', '780', '781', '783', '786', '808', '822', '850', '856', '858', '867', '868', '881', '903', '904', '915', '918', '924', '933', '939', '945', '949', '959', '962', '964', '968', '976', '991', '993', '997']",False,1000,True,100,97ff2b4bd1,0.0,1.0,0.0
./expes/v4_2021-03-18_issda_1000-prng-1-w1-p100-ukn95_98,30_issda-1000,993,first-1000,350,35,rng,num-start-600,600,25726,ukn-95-98,42.29433226585388,False,,False,0.3411545018010699,0.16418380628428875,0.9159973118709691,100,"['4', '5', '7', '13', '14', '18', '21', '23', '24', '27', '32', '34', '35', '39', '45', '47', '51', '53', '60', '63', '65', '66', '71', '72', '74', '82', '83', '84', '86', '87', '88', '89', '92', '93', '96', '98', '100', '109', '110', '111', '112', '115', '117', '120', '124', '125', '130', '139', '141', '143', '144', '146', '152', '153', '154', '158', '159', '163', '165', '168', '171', '175', '177', '180', '183', '195', '197', '198', '199', '201', '203', '206', '207', '211', '213', '215', '216', '217', '226', '230', '231', '233', '235', '238', '240', '241', '250', '251', '252', '254', '256', '261', '265', '274', '276', '278', '281', '284', '292', '293', '296', '297', '298', '299', '303', '304', '306', '307', '308', '310', '317', '320', '322', '329', '332', '334', '346', '347', '349', '351', '352', '353', '360', '365', '366', '369', '370', '371', '373', '375', '377', '379', '380', '385', '386', '387', '388', '389', '390', '391', '393', '394', '396', '398', '400', '404', '406', '407', '411', '413', '417', '418', '420', '422', '427', '428', '430', '434', '437', '438', '442', '443', '447', '451', '453', '456', '457', '464', '465', '467', '468', '469', '471', '483', '485', '486', '497', '500', '501', '502', '507', '509', '510', '511', '514', '515', '516', '517', '518', '519', '520', '523', '527', '529', '530', '533', '534', '537', '538', '539', '540', '541', '542', '545', '553', '559', '561', '571', '578', '581', '583', '587', '588', '593', '594', '595', '596', '599', '600', '603', '611', '615', '616', '619', '620', '622', '625', '627', '628', '633', '636', '639', '640', '641', '648', '658', '660', '662', '663', '664', '666', '668', '671', '673', '674', '675', '677', '679', '680', '690', '693', '701', '707', '708', '718', '719', '722', '723', '726', '733', '735', '737', '739', '743', '744', '746', '747', '751', '759', '762', '763', '766', '767', '774', '778', '783', '785', '799', '800', '803', '806', '810', '813', '816', '824', '827', '828', '831', '833', '834', '837', '839', '841', '843', '845', '846', '850', '851', '852', '855', '856', '857', '859', '863', '864', '867', '868', '871', '873', '876', '878', '881', '888', '890', '897', '900', '903', '905', '910', '913', '917', '919', '924', '925', '926', '927', '929', '930', '931', '932', '934', '935', '941', '942', '943', '950', '951', '955', '959', '965', '969', '973', '981', '982', '986', '989', '992', '994', '997', '999']",False,1000,True,100,ff8db05c19,0.0,1.0,0.0
./expes/v4_2021-03-18_issda_1000-prng-1-w1-p100-ukn95_98,30_issda-1000,998,first-1000,100,10,rng,num-start-700,700,25726,ukn-95-98,66.60398888587952,False,,False,0.5856828112659737,0.5704029085492444,0.9552114070977611,100,"['2', '15', '42', '64', '65', '76', '83', '94', '96', '98', '102', '104', '143', '144', '146', '151', '196', '210', '224', '228', '245', '250', '257', '266', '267', '289', '311', '318', '324', '328', '334', '339', '342', '363', '367', '395', '409', '415', '431', '445', '454', '459', '484', '489', '498', '506', '517', '524', '534', '546', '557', '562', '566', '574', '582', '598', '617', '626', '627', '634', '641', '656', '685', '701', '721', '723', '728', '737', '748', '774', '777', '803', '804', '819', '823', '825', '830', '845', '848', '850', '861', '865', '871', '887', '889', '892', '912', '914', '921', '924', '930', '932', '935', '938', '940', '941', '989', '990', '991', '992']",False,1000,True,100,7630952194,0.0,1.0,0.0
./expes/v4_2021-03-18_issda_1000-prng-1-w1-p100-ukn95_98,30_issda-1000,995,first-1000,250,25,rng,num-start-300,300,25726,ukn-95-98,24.148054599761963,False,,False,0.4176686297326736,0.40407149362675265,0.9290762304546698,100,"['2', '5', '9', '19', '22', '25', '26', '29', '32', '33', '37', '38', '42', '45', '47', '51', '58', '59', '61', '62', '70', '78', '85', '87', '94', '96', '105', '109', '116', '118', '131', '140', '144', '148', '156', '158', '161', '163', '166', '169', '171', '174', '177', '178', '181', '182', '187', '189', '196', '213', '216', '218', '228', '231', '233', '237', '242', '251', '254', '256', '258', '262', '266', '269', '271', '273', '275', '280', '286', '293', '311', '316', '317', '320', '324', '327', '333', '336', '346', '350', '353', '360', '363', '369', '370', '371', '372', '373', '376', '381', '383', '390', '395', '403', '410', '412', '417', '425', '430', '434', '442', '456', '457', '459', '460', '466', '468', '473', '477', '485', '492', '499', '501', '502', '511', '513', '515', '517', '520', '522', '523', '525', '527', '528', '531', '535', '536', '538', '539', '544', '558', '565', '571', '572', '574', '576', '582', '589', '596', '599', '603', '604', '606', '608', '620', '621', '622', '631', '632', '637', '639', '643', '654', '668', '669', '671', '675', '677', '678', '686', '689', '691', '698', '699', '701', '704', '709', '717', '723', '724', '733', '735', '741', '742', '744', '747', '749', '753', '754', '757', '758', '761', '763', '766', '773', '774', '778', '782', '785', '792', '800', '804', '808', '809', '814', '816', '819', '823', '829', '833', '835', '841', '845', '852', '856', '859', '870', '875', '880', '881', '884', '892', '896', '897', '898', '902', '904', '905', '906', '914', '916', '920', '922', '923', '924', '925', '929', '930', '931', '934', '938', '941', '943', '948', '955', '957', '959', '961', '964', '967', '971', '973', '978', '979', '981', '982', '983', '985', '994', '995']",False,1000,True,100,26e4326eff,0.0,1.0,0.0
