expe,clients,clients_size,clients_subset,agg_size,agg_size_pc,method,days,days_size,days_total,noise_method,time,valid,valid_sum,success,score_avg,score_min,score_max,nsols,oracle,wall_hit,wall_time,pooled,pool_size,uuid,infeasible,optimal,valid_sums
./expes/v4_2021-03-18_issda_1000-prng-1-w1-p100-ukn95_98,30_issda-1000,997,first-1000,150,15,rng,num-start-700,700,25726,ukn-95-98,59.85026693344116,False,,False,0.5042003796015816,0.4539297013347664,0.9451178700051548,100,"['13', '14', '21', '27', '32', '35', '39', '45', '60', '65', '66', '74', '88', '89', '92', '100', '111', '117', '120', '130', '139', '141', '146', '152', '154', '163', '165', '171', '180', '197', '198', '199', '203', '207', '213', '215', '226', '233', '240', '241', '250', '254', '261', '265', '274', '292', '293', '303', '306', '308', '317', '322', '347', '351', '352', '353', '365', '366', '380', '385', '386', '387', '389', '390', '396', '400', '406', '411', '413', '418', '427', '434', '437', '456', '465', '468', '471', '486', '497', '500', '501', '507', '510', '516', '519', '520', '523', '530', '533', '542', '545', '553', '559', '571', '587', '593', '596', '599', '616', '622', '636', '639', '658', '660', '666', '673', '674', '677', '679', '680', '707', '708', '718', '719', '722', '723', '744', '747', '778', '783', '785', '816', '828', '831', '834', '850', '851', '855', '857', '864', '873', '876', '878', '881', '900', '903', '913', '919', '924', '925', '926', '930', '934', '935', '955', '969', '973', '986', '997', '999']",False,1000,True,100,39f811451d,0.0,1.0,0.0
./expes/v4_2021-03-18_issda_1000-prng-1-w1-p100-ukn95_98,30_issda-1000,995,first-1000,250,25,rng,num-start-200,200,25726,ukn-95-98,18.11656665802002,False,,False,0.39883749603493024,0.2943174031015131,0.9290762304546698,100,"['2', '5', '9', '19', '22', '25', '26', '29', '32', '33', '37', '38', '42', '45', '47', '51', '58', '59', '61', '62', '70', '78', '85', '87', '94', '96', '105', '109', '116', '118', '131', '140', '144', '148', '156', '158', '161', '163', '166', '169', '171', '174', '177', '178', '181', '182', '187', '189', '196', '213', '216', '218', '228', '231', '233', '237', '242', '251', '254', '256', '258', '262', '266', '269', '271', '273', '275', '280', '286', '293', '311', '316', '317', '320', '324', '327', '333', '336', '346', '350', '353', '360', '363', '369', '370', '371', '372', '373', '376', '381', '383', '390', '395', '403', '410', '412', '417', '425', '430', '434', '442', '456', '457', '459', '460', '466', '468', '473', '477', '485', '492', '499', '501', '502', '511', '513', '515', '517', '520', '522', '523', '525', '527', '528', '531', '535', '536', '538', '539', '544', '558', '565', '571', '572', '574', '576', '582', '589', '596', '599', '603', '604', '606', '608', '620', '621', '622', '631', '632', '637', '639', '643', '654', '668', '669', '671', '675', '677', '678', '686', '689', '691', '698', '699', '701', '704', '709', '717', '723', '724', '733', '735', '741', '742', '744', '747', '749', '753', '754', '757', '758', '761', '763', '766', '773', '774', '778', '782', '785', '792', '800', '804', '808', '809', '814', '816', '819', '823', '829', '833', '835', '841', '845', '852', '856', '859', '870', '875', '880', '881', '884', '892', '896', '897', '898', '902', '904', '905', '906', '914', '916', '920', '922', '923', '924', '925', '929', '930', '931', '934', '938', '941', '943', '948', '955', '957', '959', '961', '964', '967', '971', '973', '978', '979', '981', '982', '983', '985', '994', '995']",False,1000,True,100,2b348ea4c9,0.0,1.0,0.0
./expes/v4_2021-03-18_issda_1000-prng-1-w1-p100-ukn95_98,30_issda-1000,990,first-1000,500,50,rng,num-start-800,800,25726,ukn-95-98,65.723468542099,False,,False,0.3003780868385979,-0.0005054334414200667,0.8898479770968952,100,"['1', '3', '5', '6', '7', '10', '11', '13', '14', '16', '18', '19', '21', '23', '29', '30', '31', '32', '33', '34', '35', '38', '39', '41', '47', '52', '53', '54', '56', '59', '61', '62', '63', '64', '66', '70', '71', '76', '77', '78', '79', '80', '83', '86', '88', '90', '91', '92', '95', '96', '97', '99', '100', '103', '108', '112', '115', '117', '118', '120', '123', '127', '129', '130', '131', '132', '136', '137', '138', '139', '140', '141', '142', '143', '146', '148', '149', '150', '153', '154', '155', '156', '159', '162', '165', '167', '168', '169', '173', '174', '177', '178', '181', '183', '187', '189', '190', '191', '193', '194', '197', '198', '199', '201', '202', '203', '204', '206', '207', '215', '220', '221', '227', '229', '231', '232', '236', '238', '240', '245', '247', '249', '250', '251', '252', '256', '257', '258', '260', '261', '262', '263', '268', '271', '272', '273', '275', '276', '277', '279', '280', '281', '283', '284', '285', '287', '289', '293', '294', '297', '298', '299', '301', '307', '311', '312', '314', '320', '325', '326', '328', '332', '334', '338', '339', '341', '344', '345', '346', '349', '352', '353', '359', '366', '369', '370', '371', '372', '373', '376', '377', '380', '381', '382', '383', '384', '386', '387', '389', '390', '391', '394', '396', '398', '399', '403', '408', '410', '417', '419', '420', '421', '424', '428', '430', '432', '433', '434', '435', '436', '437', '440', '441', '442', '444', '447', '449', '451', '452', '455', '456', '457', '458', '460', '461', '463', '470', '474', '475', '476', '479', '481', '482', '483', '484', '485', '486', '487', '489', '490', '491', '492', '496', '497', '498', '499', '500', '501', '504', '507', '509', '510', '512', '513', '515', '516', '520', '526', '528', '530', '533', '535', '538', '539', '540', '541', '544', '549', '551', '552', '553', '554', '555', '556', '557', '559', '561', '565', '567', '572', '574', '575', '577', '578', '579', '583', '584', '587', '588', '590', '594', '599', '601', '603', '604', '605', '607', '609', '610', '612', '617', '618', '620', '622', '623', '625', '627', '629', '631', '632', '633', '634', '635', '636', '639', '641', '642', '644', '645', '647', '649', '650', '651', '653', '654', '655', '660', '661', '662', '664', '667', '670', '672', '673', '676', '678', '679', '683', '685', '687', '688', '690', '693', '694', '695', '696', '697', '698', '699', '701', '703', '705', '707', '708', '709', '711', '712', '713', '715', '717', '718', '719', '723', '726', '729', '730', '731', '732', '733', '734', '736', '737', '739', '740', '742', '747', '748', '750', '753', '757', '758', '761', '763', '764', '765', '769', '770', '774', '776', '777', '778', '779', '781', '782', '784', '786', '789', '793', '796', '797', '798', '799', '802', '803', '806', '807', '810', '811', '813', '815', '816', '820', '822', '823', '825', '826', '828', '829', '832', '834', '836', '837', '838', '842', '848', '849', '851', '852', '853', '855', '859', '861', '863', '865', '866', '871', '874', '876', '879', '880', '883', '885', '887', '891', '892', '893', '894', '898', '901', '902', '907', '910', '911', '914', '915', '916', '921', '922', '925', '927', '930', '931', '932', '933', '934', '935', '936', '939', '942', '944', '945', '946', '947', '950', '951', '956', '957', '960', '961', '963', '964', '967', '968', '971', '972', '973', '974', '975', '982', '986', '988', '989', '990', '993', '994', '995', '996', '998', '999', '1000']",False,1000,True,100,a38bd7ffba,0.0,1.0,0.0
./expes/v4_2021-03-18_issda_1000-prng-1-w1-p100-ukn95_98,30_issda-1000,991,first-1000,450,45,rng,num-start-200,200,25726,ukn-95-98,17.61469054222107,False,,False,0.2947135210826088,0.05131670194948623,0.894590744661054,100,"['1', '2', '3', '4', '6', '10', '12', '14', '15', '17', '19', '21', '23', '24', '25', '28', '29', '30', '33', '34', '36', '37', '38', '41', '43', '48', '50', '54', '56', '58', '59', '61', '65', '67', '68', '74', '81', '83', '92', '94', '95', '98', '105', '110', '111', '114', '116', '118', '122', '125', '130', '133', '134', '136', '137', '140', '143', '145', '146', '147', '150', '151', '152', '153', '159', '161', '163', '164', '166', '170', '171', '173', '174', '176', '177', '181', '182', '183', '184', '185', '186', '187', '190', '196', '199', '201', '202', '204', '210', '213', '214', '215', '221', '222', '225', '232', '244', '250', '252', '253', '256', '257', '258', '259', '262', '263', '267', '271', '272', '275', '278', '279', '281', '283', '286', '287', '288', '290', '293', '294', '296', '297', '299', '301', '302', '303', '304', '306', '308', '309', '310', '311', '314', '315', '317', '318', '319', '320', '322', '324', '325', '326', '327', '334', '340', '343', '345', '347', '348', '349', '353', '354', '357', '359', '360', '361', '364', '365', '366', '367', '368', '370', '371', '372', '373', '374', '375', '377', '379', '381', '382', '383', '385', '386', '387', '389', '390', '392', '393', '394', '395', '399', '402', '414', '416', '418', '419', '420', '424', '425', '426', '427', '429', '430', '431', '432', '438', '440', '443', '444', '445', '452', '455', '456', '461', '464', '465', '467', '474', '475', '476', '477', '479', '481', '482', '483', '484', '486', '487', '488', '489', '490', '491', '492', '493', '494', '495', '496', '498', '500', '502', '504', '505', '506', '509', '512', '513', '515', '525', '526', '528', '529', '531', '535', '538', '543', '545', '546', '547', '552', '553', '557', '559', '561', '562', '563', '564', '567', '573', '574', '578', '580', '588', '590', '593', '595', '597', '601', '602', '604', '605', '609', '610', '611', '616', '618', '619', '623', '624', '626', '627', '629', '630', '632', '633', '636', '637', '638', '639', '640', '641', '642', '643', '645', '646', '647', '648', '653', '654', '658', '660', '661', '663', '664', '665', '666', '667', '668', '676', '678', '679', '680', '682', '685', '687', '688', '690', '695', '699', '703', '704', '705', '706', '708', '709', '712', '714', '720', '722', '725', '726', '734', '736', '737', '738', '739', '748', '749', '750', '756', '758', '759', '760', '762', '763', '767', '768', '774', '777', '778', '779', '781', '785', '789', '793', '794', '795', '798', '800', '801', '805', '807', '815', '817', '818', '821', '827', '833', '837', '838', '839', '840', '841', '842', '847', '849', '850', '852', '856', '857', '859', '861', '862', '864', '865', '866', '873', '875', '876', '877', '880', '881', '885', '888', '889', '890', '891', '893', '894', '898', '902', '910', '913', '914', '915', '916', '917', '919', '921', '923', '924', '925', '933', '934', '936', '939', '941', '945', '946', '947', '952', '958', '959', '960', '961', '962', '964', '965', '966', '968', '969', '973', '974', '975', '977', '978', '979', '980', '981', '982', '983', '984', '985', '988', '989', '990', '992', '996', '999', '1000']",False,1000,True,100,ea63f3323d,0.0,1.0,0.0
./expes/v4_2021-03-18_issda_1000-prng-1-w1-p100-ukn95_98,30_issda-1000,997,first-1000,150,15,rng,num-start-300,300,25726,ukn-95-98,29.560102462768555,False,,False,0.5055562751569826,0.4650751657351726,0.9451178700051548,100,"['2', '15', '34', '40', '42', '64', '65', '71', '76', '83', '92', '94', '96', '98', '102', '104', '112', '128', '134', '143', '144', '146', '151', '154', '189', '192', '194', '196', '209', '210', '224', '228', '245', '248', '250', '257', '266', '267', '289', '295', '298', '299', '309', '311', '318', '324', '325', '328', '334', '339', '341', '342', '363', '367', '395', '401', '409', '415', '431', '445', '454', '456', '459', '484', '488', '489', '498', '502', '506', '517', '521', '524', '534', '546', '554', '557', '561', '562', '565', '566', '574', '582', '590', '598', '602', '611', '617', '618', '626', '627', '628', '634', '641', '656', '673', '685', '696', '700', '701', '717', '721', '723', '724', '728', '737', '748', '774', '776', '777', '803', '804', '818', '819', '823', '825', '830', '835', '842', '845', '848', '850', '858', '861', '863', '865', '871', '887', '889', '892', '897', '898', '912', '914', '920', '921', '924', '930', '932', '935', '938', '940', '941', '945', '946', '956', '987', '989', '990', '991', '992']",False,1000,True,100,c50c3a3f6e,0.0,1.0,0.0
./expes/v4_2021-03-18_issda_1000-prng-1-w1-p100-ukn95_98,30_issda-1000,997,first-1000,150,15,rng,num-start-1000,1000,25726,ukn-95-98,98.26451516151428,False,,False,0.5147439583762324,0.4539297013347664,0.9451178700051548,100,"['8', '14', '16', '21', '30', '32', '37', '44', '46', '47', '65', '66', '68', '69', '91', '100', '107', '122', '128', '134', '138', '140', '155', '156', '164', '168', '197', '217', '223', '238', '240', '242', '244', '265', '266', '274', '276', '286', '287', '292', '301', '309', '318', '335', '339', '345', '353', '360', '375', '379', '387', '396', '397', '400', '405', '407', '418', '421', '426', '432', '438', '447', '456', '481', '482', '485', '486', '488', '494', '496', '507', '518', '520', '536', '547', '554', '555', '558', '563', '565', '583', '586', '588', '591', '595', '599', '600', '601', '606', '607', '610', '619', '620', '621', '630', '641', '642', '649', '651', '655', '672', '688', '689', '699', '713', '716', '731', '732', '735', '736', '737', '746', '760', '777', '780', '788', '796', '798', '799', '808', '820', '821', '844', '852', '854', '857', '858', '875', '876', '877', '882', '887', '889', '894', '900', '903', '919', '926', '927', '931', '938', '943', '944', '945', '949', '952', '959', '981', '988', '989']",False,1000,True,100,e3637d06ca,0.0,1.0,0.0
