expe,clients,clients_size,clients_subset,agg_size,agg_size_pc,method,days,days_size,days_total,noise_method,time,valid,valid_sum,success,score_avg,score_min,score_max,nsols,oracle,wall_hit,wall_time,pooled,pool_size,uuid,infeasible,optimal,valid_sums
./expes/v4_2021-03-18_issda_1000-prng-1-w1-p100-ukn95_98,30_issda-1000,999,first-1000,50,5,rng,num-start-1000,1000,25726,ukn-95-98,149.7157518863678,False,,False,0.760300465671724,0.7370584160823811,0.9683455531083541,100,"['21', '27', '61', '69', '89', '93', '106', '109', '159', '169', '177', '199', '220', '228', '242', '267', '269', '279', '284', '297', '311', '318', '369', '382', '406', '412', '491', '533', '550', '563', '621', '643', '657', '739', '750', '784', '799', '820', '827', '847', '849', '866', '869', '876', '889', '902', '940', '950', '966', '984']",False,1000,True,100,037dd82aa9,0.0,1.0,0.0
./expes/v4_2021-03-18_issda_1000-prng-1-w1-p100-ukn95_98,30_issda-1000,999,first-1000,50,5,rng,num-start-800,800,25726,ukn-95-98,94.78120183944702,False,,False,0.696606058416601,0.6850422301425361,0.9683455531083541,100,"['1', '23', '38', '83', '91', '96', '97', '150', '198', '203', '268', '272', '280', '328', '344', '371', '383', '420', '424', '435', '482', '497', '501', '552', '553', '567', '577', '588', '601', '625', '679', '699', '703', '717', '747', '748', '753', '778', '781', '789', '813', '820', '822', '823', '825', '842', '865', '894', '933', '989']",False,1000,True,100,9ca50e2ad9,0.0,1.0,0.0
./expes/v4_2021-03-18_issda_1000-prng-1-w1-p100-ukn95_98,30_issda-1000,997,first-1000,150,15,rng,num-start-200,200,25726,ukn-95-98,15.774056196212769,False,,False,0.5085455288543652,0.4539297013347664,0.9451178700051548,100,"['13', '14', '21', '27', '32', '35', '39', '45', '60', '65', '66', '74', '88', '89', '92', '100', '111', '117', '120', '130', '139', '141', '146', '152', '154', '163', '165', '171', '180', '197', '198', '199', '203', '207', '213', '215', '226', '233', '240', '241', '250', '254', '261', '265', '274', '292', '293', '303', '306', '308', '317', '322', '347', '351', '352', '353', '365', '366', '380', '385', '386', '387', '389', '390', '396', '400', '406', '411', '413', '418', '427', '434', '437', '456', '465', '468', '471', '486', '497', '500', '501', '507', '510', '516', '519', '520', '523', '530', '533', '542', '545', '553', '559', '571', '587', '593', '596', '599', '616', '622', '636', '639', '658', '660', '666', '673', '674', '677', '679', '680', '707', '708', '718', '719', '722', '723', '744', '747', '778', '783', '785', '816', '828', '831', '834', '850', '851', '855', '857', '864', '873', '876', '878', '881', '900', '903', '913', '919', '924', '925', '926', '930', '934', '935', '955', '969', '973', '986', '997', '999']",False,1000,True,100,d0693c1109,0.0,1.0,0.0
./expes/v4_2021-03-18_issda_1000-prng-1-w1-p100-ukn95_98,30_issda-1000,991,first-1000,450,45,rng,num-start-900,900,25726,ukn-95-98,83.45977354049683,False,,False,0.3039576016812989,0.05131670194948623,0.9046537410754407,100,"['1', '2', '3', '4', '9', '10', '13', '14', '15', '16', '17', '20', '23', '24', '28', '33', '34', '37', '38', '39', '40', '41', '42', '43', '44', '47', '48', '50', '52', '60', '63', '64', '65', '66', '68', '71', '72', '73', '74', '76', '81', '83', '84', '85', '86', '87', '90', '92', '94', '96', '98', '101', '102', '103', '104', '112', '118', '119', '120', '121', '122', '123', '127', '128', '133', '134', '136', '137', '139', '142', '143', '144', '146', '150', '151', '154', '155', '158', '159', '160', '162', '163', '164', '166', '168', '170', '171', '174', '175', '180', '183', '184', '185', '187', '189', '190', '192', '193', '194', '195', '196', '197', '200', '203', '204', '205', '209', '210', '211', '213', '216', '219', '221', '224', '225', '226', '227', '228', '229', '242', '245', '246', '248', '249', '250', '257', '263', '266', '267', '277', '278', '282', '283', '286', '287', '288', '289', '295', '297', '298', '299', '301', '307', '309', '310', '311', '316', '318', '319', '320', '323', '324', '325', '328', '333', '334', '337', '339', '341', '342', '343', '344', '346', '347', '351', '352', '356', '359', '361', '363', '366', '367', '368', '370', '376', '377', '380', '381', '382', '385', '388', '395', '398', '401', '404', '405', '407', '409', '412', '413', '415', '420', '425', '426', '428', '429', '430', '431', '436', '437', '445', '446', '447', '453', '454', '456', '457', '458', '459', '460', '462', '464', '469', '470', '479', '482', '483', '484', '486', '488', '489', '490', '491', '493', '494', '498', '499', '502', '505', '506', '507', '510', '516', '517', '521', '524', '532', '534', '535', '536', '538', '541', '542', '543', '546', '548', '551', '554', '557', '558', '561', '562', '565', '566', '570', '572', '574', '575', '579', '582', '583', '584', '588', '590', '594', '598', '602', '604', '605', '609', '611', '612', '617', '618', '619', '621', '623', '625', '626', '627', '628', '634', '636', '641', '642', '643', '646', '649', '650', '651', '653', '655', '656', '657', '660', '661', '663', '665', '667', '670', '672', '673', '674', '677', '679', '682', '685', '689', '690', '692', '693', '695', '696', '697', '698', '700', '701', '704', '706', '708', '715', '716', '717', '718', '719', '721', '723', '724', '727', '728', '730', '733', '735', '736', '737', '743', '745', '747', '748', '749', '750', '753', '757', '760', '767', '768', '773', '774', '776', '777', '781', '786', '791', '799', '802', '803', '804', '808', '809', '812', '813', '814', '818', '819', '820', '823', '825', '826', '828', '829', '830', '832', '835', '836', '837', '842', '843', '845', '846', '848', '849', '850', '851', '854', '856', '858', '859', '861', '862', '863', '865', '866', '867', '870', '871', '872', '875', '876', '878', '883', '887', '889', '892', '893', '895', '896', '897', '898', '906', '907', '912', '914', '916', '917', '920', '921', '922', '924', '925', '927', '930', '931', '932', '935', '936', '938', '939', '940', '941', '942', '944', '945', '946', '956', '957', '959', '960', '961', '970', '973', '977', '985', '987', '989', '990', '991', '992', '994', '998', '1000']",False,1000,True,100,8bd5d5fcb2,0.0,1.0,0.0
