expe,clients,clients_size,clients_subset,agg_size,agg_size_pc,method,days,days_size,days_total,noise_method,time,valid,valid_sum,success,score_avg,score_min,score_max,nsols,oracle,wall_hit,wall_time,pooled,pool_size,uuid,infeasible,optimal,valid_sums
./expes/v4_2021-03-18_issda_1000-prng-1-w1-p100-ukn95_98,30_issda-1000,992,first-1000,400,40,rng,num-start-500,500,25726,ukn-95-98,40.274354457855225,False,,False,0.30591276868390943,0.1060241979720572,0.9101520513035235,100,"['2', '3', '6', '9', '10', '13', '15', '18', '19', '22', '23', '25', '27', '29', '30', '31', '32', '34', '36', '37', '39', '41', '42', '45', '47', '49', '58', '61', '65', '67', '72', '73', '75', '79', '84', '86', '87', '89', '94', '97', '99', '102', '103', '105', '107', '111', '112', '113', '117', '118', '121', '124', '129', '133', '134', '137', '138', '139', '150', '151', '161', '163', '164', '165', '168', '171', '172', '173', '174', '175', '176', '178', '182', '186', '190', '191', '193', '195', '199', '205', '206', '211', '215', '218', '219', '222', '223', '225', '226', '228', '229', '230', '231', '233', '235', '236', '237', '238', '239', '241', '249', '256', '259', '260', '262', '265', '273', '274', '275', '276', '280', '284', '288', '289', '291', '297', '298', '299', '302', '303', '304', '306', '311', '314', '316', '318', '320', '326', '329', '330', '334', '336', '340', '341', '347', '348', '349', '350', '352', '353', '354', '355', '356', '362', '366', '374', '376', '377', '380', '384', '388', '389', '390', '391', '393', '396', '400', '403', '404', '405', '407', '412', '414', '415', '417', '424', '425', '427', '432', '433', '437', '440', '443', '444', '449', '450', '457', '461', '462', '464', '466', '469', '470', '471', '472', '481', '484', '486', '492', '493', '497', '500', '501', '502', '505', '508', '509', '512', '513', '515', '517', '518', '519', '520', '521', '522', '523', '525', '527', '529', '532', '534', '537', '541', '546', '548', '552', '553', '554', '555', '558', '561', '562', '564', '565', '567', '568', '570', '575', '577', '578', '579', '580', '583', '584', '585', '588', '590', '592', '593', '594', '599', '602', '604', '605', '606', '608', '615', '619', '621', '623', '624', '627', '628', '629', '630', '638', '639', '640', '645', '646', '647', '651', '658', '663', '664', '665', '666', '668', '673', '676', '680', '681', '682', '687', '690', '691', '692', '694', '695', '703', '704', '712', '713', '720', '721', '722', '729', '733', '737', '739', '742', '743', '744', '747', '748', '751', '756', '759', '761', '762', '773', '774', '778', '780', '781', '783', '786', '787', '789', '790', '795', '797', '798', '799', '801', '802', '803', '806', '808', '816', '817', '818', '822', '823', '824', '829', '831', '833', '837', '840', '841', '848', '849', '850', '853', '856', '858', '861', '862', '867', '868', '869', '871', '872', '874', '878', '879', '880', '881', '882', '887', '889', '891', '893', '897', '900', '903', '904', '908', '909', '913', '915', '918', '919', '922', '923', '924', '932', '933', '937', '939', '940', '943', '945', '948', '949', '954', '955', '959', '961', '962', '964', '967', '968', '973', '975', '976', '978', '981', '983', '986', '989', '991', '992', '993', '997', '998', '999', '1000']",False,1000,True,100,cf4626ecc8,0.0,1.0,0.0
./expes/v4_2021-03-18_issda_1000-prng-1-w1-p100-ukn95_98,30_issda-1000,993,first-1000,350,35,rng,num-start-100,100,25726,ukn-95-98,8.246355533599854,False,,False,0.3436684947550788,0.16418380628428875,0.9159973118709691,100,"['2', '3', '6', '9', '10', '13', '15', '18', '19', '22', '23', '25', '27', '29', '30', '31', '32', '34', '36', '37', '39', '45', '49', '58', '61', '65', '72', '73', '79', '86', '89', '94', '97', '99', '102', '103', '105', '107', '111', '112', '113', '117', '121', '124', '129', '133', '134', '138', '139', '150', '161', '163', '164', '165', '168', '172', '173', '175', '176', '178', '182', '186', '190', '191', '193', '195', '199', '205', '206', '211', '215', '218', '219', '222', '223', '225', '226', '228', '229', '231', '233', '235', '236', '237', '238', '239', '249', '256', '259', '260', '262', '265', '273', '276', '280', '288', '289', '291', '297', '298', '302', '304', '306', '311', '314', '316', '318', '320', '326', '329', '330', '334', '336', '340', '341', '348', '352', '353', '354', '355', '356', '362', '366', '374', '376', '380', '384', '388', '389', '391', '393', '396', '400', '403', '404', '405', '407', '412', '414', '415', '424', '425', '427', '432', '433', '437', '440', '443', '444', '449', '450', '457', '461', '462', '464', '466', '470', '471', '472', '481', '484', '486', '492', '493', '497', '500', '502', '505', '508', '509', '512', '513', '515', '517', '518', '519', '520', '521', '522', '523', '525', '527', '529', '532', '534', '537', '541', '552', '553', '554', '555', '558', '562', '564', '565', '567', '568', '570', '575', '577', '579', '583', '584', '588', '590', '592', '593', '599', '602', '604', '605', '606', '608', '615', '621', '623', '624', '627', '628', '630', '638', '639', '640', '645', '646', '647', '651', '658', '663', '664', '665', '666', '668', '673', '676', '680', '681', '682', '687', '690', '691', '692', '694', '695', '703', '712', '713', '720', '721', '722', '729', '737', '739', '742', '744', '747', '748', '751', '756', '759', '761', '762', '773', '774', '780', '781', '783', '786', '790', '795', '797', '798', '799', '802', '803', '806', '808', '816', '817', '818', '822', '823', '824', '829', '831', '833', '837', '840', '841', '848', '850', '853', '856', '858', '861', '862', '867', '868', '869', '871', '872', '874', '878', '879', '880', '881', '882', '889', '891', '893', '897', '900', '903', '904', '908', '915', '918', '919', '922', '923', '924', '932', '933', '939', '940', '943', '945', '949', '954', '959', '961', '962', '964', '967', '968', '973', '975', '976', '978', '981', '983', '986', '989', '991', '992', '993', '997', '998', '999', '1000']",False,1000,True,100,c799fdbcb2,0.0,1.0,0.0
./expes/v4_2021-03-18_issda_1000-prng-1-w1-p100-ukn95_98,30_issda-1000,992,first-1000,400,40,rng,num-start-200,200,25726,ukn-95-98,15.043595790863037,False,,False,0.3201162509557456,0.1060241979720572,0.8995469395378823,100,"['2', '5', '6', '9', '17', '19', '20', '21', '22', '25', '26', '29', '32', '33', '35', '37', '38', '39', '42', '45', '47', '51', '53', '58', '59', '61', '62', '69', '70', '73', '76', '78', '79', '83', '85', '87', '89', '90', '94', '96', '97', '99', '103', '104', '105', '108', '109', '114', '116', '118', '119', '122', '125', '126', '131', '132', '135', '140', '144', '145', '148', '151', '155', '156', '158', '161', '163', '165', '166', '169', '171', '174', '175', '177', '178', '181', '182', '186', '187', '189', '196', '197', '204', '213', '214', '216', '218', '223', '225', '228', '231', '233', '234', '237', '238', '239', '242', '247', '251', '253', '254', '256', '257', '258', '260', '261', '262', '263', '266', '269', '271', '273', '275', '276', '280', '286', '292', '293', '297', '298', '304', '311', '314', '316', '317', '318', '320', '324', '327', '333', '336', '343', '346', '350', '353', '354', '360', '363', '365', '367', '369', '370', '371', '372', '373', '375', '376', '381', '382', '383', '384', '390', '394', '395', '400', '401', '402', '403', '405', '410', '412', '417', '419', '421', '423', '425', '427', '429', '430', '434', '436', '438', '442', '445', '456', '457', '459', '460', '463', '465', '466', '468', '469', '473', '475', '476', '477', '482', '485', '490', '492', '496', '498', '499', '501', '502', '503', '504', '510', '511', '513', '515', '517', '520', '521', '522', '523', '524', '525', '527', '528', '531', '532', '534', '535', '536', '538', '539', '544', '549', '558', '559', '562', '565', '571', '572', '574', '576', '582', '586', '589', '590', '596', '599', '600', '603', '604', '606', '608', '611', '620', '621', '622', '626', '629', '631', '632', '634', '637', '639', '640', '643', '651', '653', '654', '657', '658', '664', '668', '669', '671', '675', '677', '678', '680', '686', '687', '689', '691', '696', '697', '698', '699', '701', '702', '704', '707', '709', '710', '713', '716', '717', '723', '724', '726', '727', '732', '733', '734', '735', '737', '741', '742', '744', '746', '747', '749', '753', '754', '757', '758', '761', '763', '766', '769', '772', '773', '774', '778', '779', '782', '785', '792', '794', '796', '800', '804', '808', '809', '811', '814', '816', '818', '819', '820', '822', '823', '824', '826', '829', '830', '832', '833', '835', '838', '841', '845', '846', '852', '856', '857', '859', '861', '870', '871', '875', '880', '881', '884', '887', '892', '896', '897', '898', '902', '903', '904', '905', '906', '909', '911', '914', '916', '917', '920', '922', '923', '924', '925', '929', '930', '931', '934', '938', '939', '941', '943', '944', '948', '952', '955', '957', '958', '959', '961', '964', '967', '971', '973', '978', '979', '981', '982', '983', '984', '985', '987', '994', '995', '998']",False,1000,True,100,1992f53da0,0.0,1.0,0.0
./expes/v4_2021-03-18_issda_1000-prng-1-w1-p100-ukn95_98,30_issda-1000,995,first-1000,250,25,rng,num-start-200,200,25726,ukn-95-98,17.3504855632782,False,,False,0.3857971110106579,0.2943174031015131,0.9290762304546698,100,"['1', '7', '13', '16', '18', '19', '23', '30', '31', '38', '39', '47', '56', '59', '64', '78', '79', '83', '88', '91', '92', '96', '97', '99', '100', '103', '115', '120', '123', '127', '130', '142', '146', '148', '149', '150', '159', '162', '167', '174', '177', '187', '190', '193', '194', '197', '198', '199', '201', '202', '203', '204', '206', '215', '229', '238', '250', '251', '252', '257', '258', '261', '263', '268', '272', '273', '275', '276', '280', '297', '298', '299', '311', '312', '314', '320', '326', '328', '332', '338', '341', '344', '366', '370', '371', '376', '380', '383', '384', '386', '387', '389', '390', '399', '408', '419', '420', '421', '424', '432', '433', '434', '435', '437', '441', '452', '456', '457', '458', '461', '463', '479', '481', '482', '483', '487', '491', '496', '497', '498', '499', '500', '501', '504', '509', '510', '513', '515', '516', '528', '530', '535', '538', '541', '551', '552', '553', '567', '572', '574', '577', '584', '588', '590', '601', '603', '604', '609', '612', '617', '618', '622', '623', '625', '627', '629', '634', '635', '636', '639', '641', '644', '649', '650', '651', '661', '662', '664', '672', '673', '676', '679', '685', '687', '688', '695', '696', '697', '698', '699', '703', '712', '715', '717', '718', '723', '732', '736', '737', '739', '740', '747', '748', '753', '765', '774', '778', '781', '789', '793', '797', '802', '803', '813', '816', '820', '822', '823', '825', '826', '834', '837', '842', '848', '852', '853', '855', '865', '874', '887', '892', '894', '898', '901', '902', '911', '914', '925', '927', '932', '933', '935', '936', '939', '942', '946', '950', '956', '960', '961', '964', '971', '975', '986', '988', '989', '994', '995', '999', '1000']",False,1000,True,100,59b0147a98,0.0,1.0,0.0
./expes/v4_2021-03-18_issda_1000-prng-1-w1-p100-ukn95_98,30_issda-1000,999,first-1000,50,5,rng,num-start-300,300,25726,ukn-95-98,1020.0764644145966,False,,False,0.7132675503277349,0.6947355691445678,0.9683455531083541,65,"['29', '37', '58', '87', '94', '163', '174', '218', '258', '275', '316', '327', '370', '373', '381', '390', '403', '434', '442', '456', '477', '515', '522', '539', '558', '596', '621', '622', '654', '686', '698', '741', '754', '823', '829', '856', '870', '875', '881', '884', '892', '906', '914', '923', '930', '955', '959', '971', '973', '979']",True,1000,True,100,ce3b22e3c5,0.0,0.0,0.0
