expe,clients,clients_size,clients_subset,agg_size,agg_size_pc,method,days,days_size,days_total,noise_method,time,valid,valid_sum,success,score_avg,score_min,score_max,nsols,oracle,wall_hit,wall_time,pooled,pool_size,uuid,infeasible,optimal,valid_sums
./expes/v2_2021-04-05_issda-30_2000-prng-1-w86-p2_3d,30_issda-2000,2000,first-2000,300,15,rng,num-start-2000,2000,25726,classic,3877.6529660224915,True,,True,1.0,1.0,1.0,1,"['4', '9', '18', '37', '44', '49', '50', '52', '57', '64', '65', '66', '69', '74', '75', '84', '89', '94', '101', '116', '117', '121', '124', '139', '151', '155', '165', '170', '174', '188', '192', '197', '209', '218', '232', '236', '262', '270', '280', '288', '295', '311', '315', '322', '325', '331', '337', '341', '347', '350', '353', '356', '362', '364', '373', '377', '392', '426', '432', '435', '455', '462', '465', '468', '473', '475', '477', '484', '502', '506', '508', '511', '512', '514', '516', '519', '524', '526', '531', '537', '541', '545', '550', '560', '572', '586', '622', '632', '634', '639', '648', '653', '665', '666', '672', '691', '699', '700', '705', '719', '725', '737', '738', '740', '742', '743', '746', '751', '762', '765', '779', '790', '805', '806', '819', '823', '833', '850', '860', '867', '868', '883', '911', '912', '913', '918', '919', '929', '932', '936', '945', '953', '969', '983', '997', '998', '1001', '1002', '1004', '1021', '1026', '1029', '1033', '1040', '1041', '1043', '1045', '1049', '1053', '1055', '1056', '1061', '1062', '1070', '1072', '1076', '1077', '1087', '1115', '1130', '1142', '1143', '1147', '1148', '1152', '1163', '1177', '1191', '1198', '1205', '1208', '1211', '1212', '1216', '1240', '1241', '1242', '1243', '1261', '1262', '1263', '1274', '1277', '1278', '1279', '1286', '1301', '1308', '1335', '1338', '1342', '1350', '1354', '1356', '1372', '1374', '1378', '1382', '1396', '1398', '1402', '1408', '1417', '1433', '1445', '1447', '1451', '1454', '1463', '1465', '1469', '1481', '1483', '1487', '1494', '1497', '1505', '1508', '1513', '1516', '1521', '1526', '1532', '1545', '1548', '1556', '1563', '1569', '1584', '1600', '1607', '1615', '1618', '1622', '1627', '1631', '1632', '1637', '1639', '1646', '1657', '1666', '1669', '1670', '1681', '1690', '1703', '1711', '1712', '1718', '1739', '1749', '1760', '1762', '1767', '1768', '1784', '1791', '1792', '1794', '1796', '1804', '1807', '1809', '1811', '1827', '1831', '1840', '1843', '1846', '1848', '1850', '1857', '1859', '1860', '1861', '1867', '1876', '1877', '1882', '1885', '1895', '1909', '1914', '1917', '1922', '1927', '1933', '1942', '1945', '1955', '1956', '1958', '1961', '1964', '1965', '1966', '1970', '1988', '1989']",False,86400,True,2,50b618e7d8,0.0,1.0,1.0
./expes/v2_2021-04-05_issda-30_2000-prng-1-w86-p2_3d,30_issda-2000,2000,first-2000,500,25,rng,num-start-1000,1000,25726,classic,5269.455451488495,True,,True,1.0,1.0,1.0,1,"['4', '5', '12', '18', '19', '22', '26', '30', '35', '36', '37', '38', '43', '45', '46', '49', '53', '56', '58', '59', '60', '61', '63', '67', '71', '73', '77', '78', '81', '82', '83', '90', '94', '98', '115', '121', '129', '130', '132', '134', '143', '145', '150', '157', '168', '171', '174', '178', '188', '193', '198', '203', '205', '206', '210', '211', '214', '221', '222', '223', '225', '234', '235', '236', '237', '242', '248', '257', '258', '265', '268', '273', '276', '277', '278', '300', '302', '322', '325', '326', '327', '329', '332', '336', '342', '343', '345', '346', '348', '349', '352', '355', '363', '371', '379', '381', '385', '386', '389', '398', '409', '410', '411', '412', '421', '422', '426', '429', '430', '435', '437', '444', '446', '449', '452', '455', '458', '459', '462', '465', '469', '471', '473', '476', '478', '481', '482', '491', '495', '498', '512', '517', '519', '520', '523', '530', '546', '547', '549', '551', '552', '559', '568', '576', '577', '582', '594', '595', '597', '603', '604', '606', '607', '608', '611', '612', '622', '628', '632', '636', '639', '642', '645', '650', '651', '656', '657', '658', '660', '667', '672', '679', '681', '682', '694', '695', '697', '699', '704', '705', '706', '708', '709', '711', '724', '731', '747', '748', '752', '754', '759', '768', '775', '777', '778', '779', '781', '786', '792', '799', '802', '806', '807', '809', '814', '817', '824', '828', '829', '833', '847', '849', '853', '863', '865', '873', '874', '880', '885', '887', '892', '897', '899', '913', '921', '922', '924', '928', '932', '938', '939', '941', '942', '944', '962', '968', '971', '977', '984', '986', '993', '994', '1000', '1002', '1003', '1009', '1015', '1016', '1017', '1023', '1024', '1026', '1029', '1033', '1034', '1035', '1037', '1040', '1042', '1043', '1045', '1050', '1053', '1058', '1063', '1067', '1073', '1081', '1091', '1095', '1103', '1106', '1107', '1109', '1112', '1116', '1122', '1123', '1124', '1127', '1128', '1129', '1133', '1136', '1140', '1149', '1150', '1154', '1156', '1157', '1160', '1166', '1168', '1169', '1175', '1180', '1184', '1185', '1188', '1197', '1202', '1204', '1207', '1210', '1211', '1212', '1215', '1222', '1229', '1230', '1232', '1237', '1241', '1245', '1248', '1254', '1255', '1257', '1260', '1276', '1277', '1280', '1289', '1292', '1293', '1302', '1316', '1326', '1328', '1329', '1331', '1335', '1336', '1345', '1351', '1352', '1360', '1362', '1364', '1373', '1374', '1379', '1381', '1382', '1383', '1387', '1389', '1395', '1406', '1408', '1424', '1426', '1439', '1440', '1441', '1442', '1444', '1457', '1458', '1465', '1473', '1478', '1483', '1486', '1487', '1488', '1494', '1496', '1501', '1511', '1512', '1517', '1522', '1524', '1545', '1548', '1555', '1559', '1562', '1565', '1572', '1573', '1578', '1579', '1589', '1593', '1595', '1597', '1598', '1602', '1603', '1605', '1609', '1611', '1612', '1615', '1616', '1618', '1631', '1633', '1634', '1636', '1643', '1644', '1646', '1648', '1652', '1658', '1662', '1666', '1673', '1674', '1676', '1679', '1681', '1692', '1696', '1697', '1700', '1705', '1712', '1716', '1721', '1723', '1724', '1731', '1734', '1736', '1738', '1742', '1744', '1748', '1756', '1757', '1759', '1762', '1764', '1774', '1777', '1778', '1782', '1786', '1794', '1800', '1805', '1808', '1813', '1815', '1818', '1825', '1830', '1835', '1837', '1843', '1845', '1847', '1863', '1864', '1865', '1866', '1871', '1873', '1877', '1879', '1885', '1889', '1895', '1896', '1897', '1898', '1907', '1910', '1918', '1921', '1922', '1924', '1927', '1928', '1933', '1934', '1936', '1946', '1950', '1951', '1955', '1956', '1961', '1966', '1971', '1976', '1978', '1981', '1983', '1985', '1987', '1988', '1994', '1995', '1998', '1999']",False,86400,True,2,11d9b81afe,0.0,1.0,1.0
./expes/v2_2021-04-05_issda-30_2000-prng-1-w86-p2_3d,30_issda-2000,2000,first-2000,400,20,rng,num-start-1800,1800,25726,classic,2563.1709518432617,True,,True,1.0,1.0,1.0,1,"['1', '3', '4', '5', '7', '26', '28', '29', '30', '31', '34', '45', '47', '55', '65', '68', '75', '80', '81', '83', '93', '94', '96', '103', '119', '126', '128', '129', '131', '142', '144', '148', '152', '162', '165', '166', '169', '171', '184', '187', '188', '192', '195', '201', '203', '206', '207', '208', '224', '237', '238', '240', '241', '244', '246', '254', '255', '256', '267', '268', '272', '277', '286', '287', '292', '300', '301', '307', '315', '323', '325', '328', '332', '340', '347', '350', '359', '370', '374', '377', '379', '383', '386', '387', '388', '390', '391', '392', '394', '399', '407', '409', '417', '419', '432', '438', '441', '448', '449', '452', '453', '455', '457', '483', '489', '491', '492', '496', '498', '500', '514', '531', '533', '534', '556', '564', '565', '574', '576', '578', '590', '595', '597', '617', '618', '620', '622', '636', '638', '640', '648', '650', '656', '665', '667', '668', '677', '682', '683', '685', '687', '688', '702', '718', '722', '725', '732', '734', '735', '736', '759', '762', '776', '789', '795', '796', '802', '817', '823', '824', '830', '840', '849', '851', '856', '857', '859', '862', '872', '873', '890', '894', '906', '907', '912', '913', '915', '918', '923', '938', '957', '964', '966', '967', '975', '976', '977', '982', '987', '996', '997', '998', '1003', '1009', '1011', '1013', '1032', '1034', '1041', '1042', '1048', '1068', '1069', '1075', '1081', '1083', '1085', '1091', '1095', '1107', '1108', '1113', '1115', '1121', '1122', '1124', '1129', '1132', '1147', '1149', '1150', '1163', '1164', '1166', '1167', '1176', '1179', '1180', '1188', '1195', '1203', '1204', '1208', '1209', '1218', '1222', '1223', '1233', '1234', '1236', '1237', '1241', '1242', '1246', '1250', '1252', '1254', '1255', '1267', '1271', '1272', '1281', '1291', '1297', '1298', '1299', '1301', '1306', '1312', '1314', '1325', '1330', '1333', '1345', '1347', '1353', '1357', '1364', '1369', '1378', '1380', '1384', '1385', '1390', '1391', '1392', '1394', '1396', '1400', '1401', '1411', '1415', '1429', '1431', '1433', '1435', '1437', '1438', '1442', '1445', '1448', '1453', '1455', '1466', '1470', '1471', '1474', '1486', '1490', '1495', '1496', '1499', '1514', '1519', '1533', '1546', '1548', '1552', '1553', '1561', '1572', '1582', '1604', '1606', '1608', '1616', '1625', '1628', '1635', '1638', '1640', '1645', '1646', '1649', '1657', '1660', '1663', '1664', '1669', '1671', '1674', '1683', '1685', '1690', '1691', '1696', '1698', '1699', '1700', '1701', '1708', '1712', '1716', '1717', '1721', '1726', '1730', '1731', '1732', '1740', '1742', '1749', '1752', '1773', '1777', '1783', '1786', '1790', '1792', '1793', '1796', '1811', '1813', '1824', '1827', '1834', '1840', '1841', '1844', '1848', '1853', '1860', '1864', '1870', '1876', '1878', '1879', '1880', '1881', '1882', '1888', '1889', '1891', '1892', '1911', '1918', '1919', '1940', '1945', '1946', '1953', '1969', '1973', '1974', '1978', '1980', '1982', '1983', '1988', '1996']",False,86400,True,2,6a0c3b9b7d,0.0,1.0,1.0
./expes/v2_2021-04-05_issda-30_2000-prng-1-w86-p2_3d,30_issda-2000,2000,first-2000,900,45,rng,num-start-1800,1800,25726,classic,2355.5799560546875,True,,True,1.0,1.0,1.0,1,"['2', '4', '6', '7', '10', '12', '15', '17', '18', '20', '22', '27', '32', '37', '38', '39', '41', '42', '44', '47', '48', '53', '55', '56', '58', '61', '62', '65', '66', '70', '71', '72', '73', '75', '76', '77', '78', '79', '80', '83', '84', '85', '88', '89', '92', '95', '97', '102', '106', '109', '110', '112', '114', '118', '121', '122', '124', '126', '127', '128', '131', '136', '137', '138', '139', '142', '147', '153', '154', '156', '158', '159', '160', '161', '162', '164', '167', '168', '170', '171', '175', '176', '178', '182', '183', '185', '188', '189', '191', '192', '195', '196', '199', '202', '207', '212', '213', '214', '218', '220', '227', '230', '232', '233', '234', '235', '236', '238', '240', '242', '243', '248', '250', '251', '262', '267', '272', '273', '280', '283', '284', '285', '286', '289', '291', '295', '297', '298', '305', '306', '307', '309', '313', '314', '316', '318', '320', '321', '322', '323', '325', '326', '329', '331', '332', '333', '334', '335', '336', '338', '339', '340', '341', '343', '345', '346', '348', '349', '352', '353', '354', '355', '358', '359', '362', '363', '364', '365', '368', '370', '371', '372', '374', '377', '379', '380', '385', '391', '392', '393', '397', '399', '400', '401', '402', '405', '407', '409', '411', '412', '414', '416', '418', '421', '423', '425', '426', '427', '431', '432', '433', '434', '435', '436', '437', '440', '441', '442', '443', '448', '449', '450', '453', '455', '456', '460', '464', '469', '470', '472', '474', '475', '476', '478', '479', '484', '487', '488', '489', '494', '496', '497', '501', '503', '507', '510', '511', '512', '513', '515', '516', '519', '520', '521', '524', '525', '527', '528', '529', '530', '532', '534', '536', '537', '538', '539', '540', '550', '552', '555', '557', '562', '566', '567', '569', '571', '573', '574', '575', '580', '582', '585', '586', '589', '591', '592', '593', '594', '595', '596', '598', '599', '600', '601', '606', '607', '608', '609', '611', '612', '613', '615', '616', '620', '621', '622', '623', '625', '626', '628', '630', '632', '635', '638', '639', '640', '641', '642', '645', '646', '648', '649', '657', '658', '659', '660', '661', '662', '663', '665', '666', '669', '670', '673', '676', '677', '678', '679', '682', '689', '690', '692', '694', '695', '697', '698', '703', '705', '707', '711', '712', '714', '718', '719', '724', '729', '731', '732', '734', '736', '737', '738', '742', '743', '745', '747', '748', '750', '753', '762', '763', '770', '778', '781', '782', '784', '786', '793', '794', '795', '796', '800', '802', '803', '804', '805', '809', '811', '812', '815', '820', '821', '823', '825', '826', '827', '828', '832', '834', '839', '841', '843', '844', '845', '846', '847', '848', '850', '852', '855', '857', '861', '863', '866', '867', '868', '869', '877', '881', '883', '888', '889', '893', '895', '896', '898', '899', '900', '901', '903', '904', '906', '909', '910', '915', '917', '925', '926', '927', '930', '932', '934', '939', '940', '941', '948', '950', '952', '957', '966', '968', '970', '973', '976', '977', '978', '979', '980', '981', '982', '987', '991', '992', '997', '1002', '1004', '1005', '1008', '1012', '1013', '1015', '1016', '1017', '1019', '1021', '1022', '1023', '1030', '1037', '1038', '1040', '1042', '1043', '1044', '1046', '1047', '1048', '1050', '1055', '1063', '1064', '1066', '1067', '1072', '1074', '1077', '1078', '1079', '1080', '1082', '1084', '1085', '1087', '1091', '1095', '1097', '1100', '1101', '1103', '1107', '1108', '1109', '1110', '1113', '1115', '1117', '1118', '1119', '1121', '1122', '1126', '1128', '1132', '1134', '1144', '1147', '1149', '1150', '1152', '1158', '1162', '1164', '1166', '1167', '1168', '1171', '1173', '1174', '1176', '1180', '1186', '1192', '1193', '1194', '1197', '1199', '1203', '1205', '1206', '1211', '1216', '1218', '1220', '1223', '1224', '1225', '1227', '1228', '1229', '1230', '1231', '1232', '1233', '1237', '1239', '1241', '1243', '1246', '1248', '1249', '1250', '1256', '1260', '1261', '1265', '1266', '1269', '1270', '1271', '1272', '1274', '1275', '1277', '1280', '1281', '1283', '1284', '1285', '1286', '1288', '1292', '1294', '1295', '1296', '1300', '1301', '1305', '1311', '1313', '1314', '1316', '1318', '1322', '1323', '1325', '1326', '1328', '1335', '1336', '1338', '1340', '1341', '1342', '1346', '1349', '1353', '1354', '1356', '1367', '1369', '1370', '1373', '1376', '1379', '1380', '1383', '1384', '1385', '1386', '1387', '1388', '1393', '1395', '1398', '1400', '1402', '1405', '1409', '1414', '1415', '1420', '1421', '1425', '1427', '1429', '1430', '1431', '1436', '1438', '1441', '1443', '1444', '1447', '1448', '1451', '1453', '1456', '1457', '1461', '1462', '1466', '1467', '1470', '1472', '1473', '1474', '1478', '1483', '1485', '1498', '1499', '1500', '1502', '1506', '1508', '1510', '1512', '1513', '1523', '1524', '1526', '1527', '1528', '1529', '1530', '1533', '1537', '1539', '1545', '1546', '1548', '1549', '1553', '1554', '1557', '1566', '1568', '1571', '1573', '1577', '1578', '1580', '1582', '1585', '1586', '1588', '1591', '1594', '1597', '1601', '1603', '1604', '1606', '1607', '1611', '1612', '1613', '1616', '1617', '1619', '1620', '1626', '1631', '1634', '1635', '1636', '1638', '1640', '1641', '1642', '1643', '1644', '1645', '1648', '1653', '1654', '1657', '1659', '1665', '1669', '1671', '1675', '1676', '1677', '1681', '1687', '1690', '1691', '1692', '1694', '1695', '1698', '1700', '1702', '1703', '1704', '1708', '1709', '1710', '1711', '1714', '1716', '1718', '1719', '1720', '1722', '1725', '1727', '1729', '1730', '1731', '1735', '1736', '1737', '1738', '1747', '1751', '1753', '1754', '1757', '1758', '1759', '1761', '1765', '1766', '1767', '1770', '1771', '1773', '1777', '1781', '1782', '1784', '1790', '1791', '1792', '1795', '1796', '1798', '1800', '1801', '1803', '1804', '1805', '1807', '1809', '1814', '1816', '1817', '1821', '1822', '1823', '1824', '1825', '1827', '1828', '1830', '1832', '1833', '1835', '1837', '1838', '1842', '1843', '1845', '1846', '1848', '1850', '1851', '1852', '1853', '1854', '1858', '1859', '1861', '1862', '1865', '1866', '1867', '1868', '1870', '1871', '1873', '1875', '1876', '1878', '1880', '1882', '1885', '1887', '1889', '1890', '1893', '1894', '1896', '1900', '1901', '1902', '1903', '1905', '1906', '1909', '1911', '1914', '1915', '1916', '1918', '1919', '1920', '1921', '1922', '1924', '1925', '1927', '1928', '1930', '1932', '1934', '1935', '1942', '1945', '1946', '1947', '1948', '1949', '1951', '1953', '1955', '1956', '1957', '1959', '1965', '1966', '1967', '1968', '1970', '1972', '1976', '1977', '1979', '1984', '1986', '1988', '1989', '1990', '1991', '1994', '1995', '1997', '1998']",False,86400,True,2,af2b3ae525,0.0,1.0,1.0
./expes/v2_2021-04-05_issda-30_2000-prng-1-w86-p2_3d,30_issda-2000,2000,first-2000,200,10,rng,num-start-1800,1800,25726,classic,2916.7819714546204,True,,True,1.0,1.0,1.0,1,"['4', '5', '12', '19', '26', '45', '46', '53', '59', '60', '61', '63', '71', '90', '115', '130', '178', '193', '205', '210', '222', '242', '248', '265', '276', '336', '346', '349', '355', '381', '389', '409', '410', '421', '430', '444', '449', '455', '465', '469', '473', '476', '478', '498', '523', '546', '552', '582', '594', '608', '622', '632', '651', '682', '705', '708', '709', '724', '731', '747', '752', '759', '768', '778', '781', '786', '799', '806', '807', '828', '829', '847', '849', '853', '865', '873', '887', '897', '899', '913', '921', '941', '942', '962', '968', '984', '986', '994', '1000', '1003', '1015', '1016', '1023', '1026', '1029', '1034', '1035', '1040', '1042', '1050', '1053', '1063', '1067', '1081', '1106', '1109', '1123', '1124', '1133', '1136', '1140', '1150', '1166', '1168', '1184', '1185', '1204', '1207', '1211', '1215', '1245', '1248', '1260', '1289', '1316', '1326', '1331', '1335', '1351', '1360', '1362', '1373', '1382', '1387', '1406', '1426', '1440', '1441', '1457', '1478', '1483', '1487', '1494', '1501', '1512', '1517', '1522', '1524', '1559', '1562', '1565', '1572', '1579', '1589', '1593', '1595', '1605', '1616', '1634', '1643', '1644', '1658', '1666', '1681', '1700', '1712', '1716', '1721', '1734', '1736', '1738', '1748', '1756', '1762', '1782', '1805', '1808', '1815', '1830', '1835', '1847', '1864', '1865', '1877', '1885', '1889', '1898', '1918', '1922', '1924', '1927', '1928', '1936', '1946', '1951', '1956', '1961', '1981', '1985', '1994']",False,86400,True,2,b37d704f91,0.0,1.0,1.0
./expes/v2_2021-04-05_issda-30_2000-prng-1-w86-p2_3d,30_issda-2000,2000,first-2000,200,10,rng,num-start-600,600,25726,classic,1655.1562218666077,True,,True,1.0,1.0,1.0,1,"['4', '5', '12', '19', '26', '45', '46', '53', '59', '60', '61', '63', '71', '90', '115', '130', '178', '193', '205', '210', '222', '242', '248', '265', '276', '336', '346', '349', '355', '381', '389', '409', '410', '421', '430', '444', '449', '455', '465', '469', '473', '476', '478', '498', '523', '546', '552', '582', '594', '608', '622', '632', '651', '682', '705', '708', '709', '724', '731', '747', '752', '759', '768', '778', '781', '786', '799', '806', '807', '828', '829', '847', '849', '853', '865', '873', '887', '897', '899', '913', '921', '941', '942', '962', '968', '984', '986', '994', '1000', '1003', '1015', '1016', '1023', '1026', '1029', '1034', '1035', '1040', '1042', '1050', '1053', '1063', '1067', '1081', '1106', '1109', '1123', '1124', '1133', '1136', '1140', '1150', '1166', '1168', '1184', '1185', '1204', '1207', '1211', '1215', '1245', '1248', '1260', '1289', '1316', '1326', '1331', '1335', '1351', '1360', '1362', '1373', '1382', '1387', '1406', '1426', '1440', '1441', '1457', '1478', '1483', '1487', '1494', '1501', '1512', '1517', '1522', '1524', '1559', '1562', '1565', '1572', '1579', '1589', '1593', '1595', '1605', '1616', '1634', '1643', '1644', '1658', '1666', '1681', '1700', '1712', '1716', '1721', '1734', '1736', '1738', '1748', '1756', '1762', '1782', '1805', '1808', '1815', '1830', '1835', '1847', '1864', '1865', '1877', '1885', '1889', '1898', '1918', '1922', '1924', '1927', '1928', '1936', '1946', '1951', '1956', '1961', '1981', '1985', '1994']",False,86400,True,2,e15a2620c5,0.0,1.0,1.0
./expes/v2_2021-04-05_issda-30_2000-prng-1-w86-p2_3d,30_issda-2000,2000,first-2000,300,15,rng,num-start-800,800,25726,classic,4103.621903419495,True,,True,1.0,1.0,1.0,1,"['4', '5', '12', '19', '26', '30', '35', '37', '43', '45', '46', '49', '53', '58', '59', '60', '61', '63', '67', '71', '73', '90', '115', '130', '143', '145', '171', '178', '188', '193', '205', '210', '222', '223', '225', '234', '242', '248', '265', '276', '300', '327', '329', '336', '343', '345', '346', '349', '355', '363', '371', '379', '381', '386', '389', '409', '410', '421', '429', '430', '444', '449', '452', '455', '462', '465', '469', '471', '473', '476', '478', '498', '512', '520', '523', '530', '546', '551', '552', '559', '576', '582', '594', '595', '604', '608', '622', '632', '639', '651', '660', '679', '682', '704', '705', '706', '708', '709', '724', '731', '747', '752', '759', '768', '778', '781', '786', '792', '799', '806', '807', '814', '828', '829', '847', '849', '853', '863', '865', '873', '874', '885', '887', '897', '899', '913', '921', '924', '928', '932', '939', '941', '942', '962', '968', '971', '984', '986', '994', '1000', '1003', '1015', '1016', '1017', '1023', '1026', '1029', '1034', '1035', '1037', '1040', '1042', '1045', '1050', '1053', '1058', '1063', '1067', '1081', '1103', '1106', '1107', '1109', '1116', '1123', '1124', '1128', '1129', '1133', '1136', '1140', '1150', '1166', '1168', '1184', '1185', '1197', '1204', '1207', '1211', '1215', '1229', '1241', '1245', '1248', '1255', '1260', '1277', '1280', '1289', '1292', '1302', '1316', '1326', '1328', '1331', '1335', '1345', '1351', '1360', '1362', '1373', '1379', '1382', '1387', '1389', '1406', '1424', '1426', '1439', '1440', '1441', '1444', '1457', '1458', '1473', '1478', '1483', '1487', '1494', '1496', '1501', '1512', '1517', '1522', '1524', '1545', '1548', '1559', '1562', '1565', '1572', '1579', '1589', '1593', '1595', '1605', '1611', '1616', '1631', '1633', '1634', '1636', '1643', '1644', '1648', '1658', '1666', '1673', '1674', '1681', '1700', '1705', '1712', '1716', '1721', '1724', '1734', '1736', '1738', '1744', '1748', '1756', '1762', '1764', '1778', '1782', '1805', '1808', '1815', '1830', '1835', '1843', '1847', '1864', '1865', '1877', '1885', '1889', '1898', '1907', '1918', '1922', '1924', '1927', '1928', '1933', '1936', '1946', '1950', '1951', '1956', '1961', '1966', '1978', '1981', '1985', '1994', '1998', '1999']",False,86400,True,2,d7a8839472,0.0,1.0,1.0
./expes/v2_2021-04-05_issda-30_2000-prng-1-w86-p2_3d,30_issda-2000,2000,first-2000,100,5,rng,num-start-1600,1600,25726,classic,904.6193816661835,True,,True,1.0,1.0,1.0,1,"['3', '29', '83', '128', '129', '152', '192', '195', '203', '207', '286', '287', '292', '301', '392', '419', '448', '455', '489', '500', '514', '531', '534', '578', '622', '636', '648', '667', '677', '683', '725', '734', '789', '817', '830', '862', '890', '907', '918', '967', '977', '996', '1011', '1034', '1048', '1068', '1091', '1113', '1124', '1132', '1147', '1163', '1195', '1233', '1252', '1254', '1267', '1281', '1312', '1369', '1401', '1442', '1445', '1455', '1474', '1495', '1496', '1548', '1553', '1606', '1608', '1638', '1645', '1646', '1649', '1660', '1690', '1696', '1700', '1721', '1730', '1742', '1773', '1777', '1783', '1824', '1827', '1841', '1848', '1860', '1864', '1870', '1876', '1879', '1881', '1882', '1978', '1980', '1982', '1983']",False,86400,True,2,b4edea551c,0.0,1.0,1.0
./expes/v2_2021-04-05_issda-30_2000-prng-1-w86-p2_3d,30_issda-2000,2000,first-2000,600,30,rng,num-start-1400,1400,25726,classic,2572.1969077587128,True,,True,1.0,1.0,1.0,1,"['4', '8', '10', '11', '15', '16', '24', '27', '32', '37', '41', '42', '44', '46', '49', '53', '56', '58', '59', '64', '65', '67', '68', '70', '72', '73', '74', '75', '87', '88', '89', '91', '93', '95', '102', '103', '105', '109', '110', '113', '124', '125', '126', '130', '132', '135', '137', '140', '141', '147', '158', '159', '164', '171', '176', '177', '182', '189', '197', '199', '200', '204', '205', '209', '211', '212', '214', '215', '219', '222', '223', '233', '236', '244', '245', '246', '248', '249', '251', '253', '254', '255', '256', '257', '260', '262', '264', '266', '267', '268', '270', '273', '275', '279', '280', '284', '294', '301', '306', '309', '311', '320', '322', '327', '329', '333', '335', '347', '351', '352', '364', '366', '367', '369', '370', '376', '380', '382', '384', '391', '392', '393', '405', '407', '408', '409', '433', '445', '447', '448', '453', '455', '456', '460', '461', '466', '475', '476', '480', '482', '484', '487', '488', '489', '490', '491', '496', '501', '502', '509', '512', '515', '518', '529', '532', '537', '540', '541', '543', '547', '548', '551', '552', '554', '555', '556', '561', '571', '572', '573', '583', '584', '588', '592', '595', '598', '602', '612', '614', '615', '616', '617', '621', '623', '635', '641', '643', '645', '646', '647', '653', '656', '660', '662', '665', '667', '669', '672', '674', '678', '681', '684', '690', '695', '696', '697', '699', '700', '705', '708', '710', '718', '719', '720', '721', '723', '738', '739', '746', '749', '753', '757', '758', '763', '765', '767', '769', '770', '771', '772', '773', '774', '779', '791', '794', '797', '798', '799', '807', '809', '813', '814', '820', '822', '835', '836', '839', '841', '846', '847', '848', '851', '854', '857', '860', '862', '863', '867', '871', '873', '875', '878', '881', '884', '890', '892', '894', '896', '898', '908', '911', '924', '931', '935', '936', '943', '944', '951', '952', '955', '961', '964', '969', '970', '971', '976', '978', '986', '987', '988', '989', '991', '999', '1003', '1004', '1014', '1017', '1020', '1025', '1029', '1031', '1036', '1039', '1045', '1048', '1050', '1056', '1060', '1062', '1063', '1065', '1066', '1068', '1072', '1076', '1080', '1084', '1085', '1086', '1090', '1094', '1095', '1097', '1098', '1100', '1108', '1109', '1110', '1114', '1115', '1124', '1126', '1127', '1129', '1134', '1136', '1138', '1140', '1145', '1146', '1155', '1156', '1161', '1164', '1165', '1166', '1170', '1172', '1175', '1176', '1178', '1182', '1186', '1188', '1190', '1197', '1199', '1201', '1202', '1204', '1206', '1207', '1208', '1209', '1211', '1214', '1219', '1220', '1228', '1229', '1231', '1232', '1237', '1238', '1240', '1241', '1247', '1251', '1254', '1259', '1262', '1266', '1269', '1271', '1276', '1282', '1284', '1285', '1286', '1287', '1288', '1295', '1297', '1298', '1299', '1300', '1301', '1304', '1309', '1315', '1317', '1319', '1323', '1325', '1331', '1332', '1339', '1343', '1351', '1357', '1358', '1368', '1375', '1376', '1377', '1380', '1381', '1383', '1385', '1389', '1392', '1395', '1397', '1401', '1405', '1413', '1415', '1421', '1422', '1424', '1425', '1427', '1430', '1431', '1434', '1440', '1448', '1460', '1462', '1463', '1465', '1466', '1467', '1468', '1469', '1472', '1473', '1476', '1481', '1492', '1499', '1503', '1506', '1512', '1519', '1520', '1527', '1531', '1532', '1533', '1534', '1541', '1543', '1544', '1549', '1550', '1553', '1557', '1560', '1572', '1575', '1582', '1586', '1588', '1591', '1592', '1596', '1598', '1603', '1612', '1613', '1615', '1620', '1622', '1623', '1626', '1629', '1636', '1640', '1641', '1645', '1647', '1651', '1652', '1653', '1654', '1659', '1660', '1662', '1663', '1666', '1673', '1679', '1687', '1696', '1704', '1706', '1707', '1708', '1713', '1714', '1716', '1718', '1724', '1728', '1729', '1741', '1746', '1749', '1750', '1752', '1753', '1754', '1756', '1758', '1763', '1764', '1765', '1767', '1769', '1773', '1776', '1778', '1781', '1782', '1783', '1788', '1800', '1802', '1803', '1804', '1805', '1810', '1813', '1816', '1818', '1822', '1823', '1837', '1838', '1839', '1843', '1851', '1852', '1853', '1862', '1870', '1876', '1878', '1879', '1885', '1886', '1887', '1888', '1889', '1893', '1897', '1900', '1903', '1904', '1914', '1917', '1918', '1923', '1924', '1927', '1931', '1932', '1944', '1946', '1947', '1948', '1951', '1956', '1961', '1962', '1964', '1968', '1973', '1975', '1976', '1978', '1980', '1981', '1985', '1989', '1990', '1991', '1993', '1997']",False,86400,True,2,294d49aca5,0.0,1.0,1.0
./expes/v2_2021-04-05_issda-30_2000-prng-1-w86-p2_3d,30_issda-2000,2000,first-2000,200,10,rng,num-start-800,800,25726,classic,2011.553548336029,True,,True,1.0,1.0,1.0,1,"['3', '29', '34', '68', '80', '83', '128', '129', '142', '152', '165', '169', '184', '187', '188', '192', '195', '203', '207', '224', '237', '240', '256', '267', '286', '287', '292', '301', '307', '350', '377', '383', '388', '390', '392', '417', '419', '441', '448', '452', '455', '483', '489', '496', '498', '500', '514', '531', '533', '534', '556', '564', '565', '578', '590', '595', '597', '618', '622', '636', '648', '650', '656', '665', '667', '677', '682', '683', '687', '725', '732', '734', '762', '789', '802', '817', '830', '859', '862', '890', '907', '912', '918', '923', '967', '976', '977', '996', '997', '1003', '1009', '1011', '1034', '1041', '1048', '1068', '1069', '1075', '1091', '1107', '1108', '1113', '1121', '1122', '1124', '1129', '1132', '1147', '1163', '1179', '1188', '1195', '1203', '1204', '1208', '1222', '1233', '1236', '1252', '1254', '1255', '1267', '1281', '1291', '1312', '1314', '1345', '1353', '1369', '1391', '1392', '1400', '1401', '1433', '1435', '1442', '1445', '1448', '1455', '1474', '1495', '1496', '1499', '1548', '1552', '1553', '1606', '1608', '1625', '1628', '1635', '1638', '1645', '1646', '1649', '1660', '1663', '1669', '1683', '1690', '1691', '1696', '1699', '1700', '1716', '1721', '1726', '1730', '1731', '1740', '1742', '1773', '1777', '1783', '1793', '1796', '1824', '1827', '1834', '1840', '1841', '1848', '1860', '1864', '1870', '1876', '1878', '1879', '1881', '1882', '1889', '1891', '1892', '1911', '1946', '1974', '1978', '1980', '1982', '1983']",False,86400,True,2,2145ffe693,0.0,1.0,1.0
