expe,clients,clients_size,clients_subset,agg_size,method,days,days_size,days_total,time,valid,valid_sum,success,nsols,wall_hit,wall_time,pooled,valid_sums
./expes/v2_2020-11-04_dbh_300-prng-1,daily_base_hphc_300,300,first-300,31,rng,num-start-191,191,365,5.816590070724487,True,,True,1,False,1000,True,1.0
./expes/v2_2020-11-04_dbh_300-prng-1,daily_base_hphc_300,300,first-300,261,rng,num-start-221,221,365,6.4959776401519775,True,,True,1,False,1000,True,1.0
./expes/v2_2020-11-04_dbh_300-prng-1,daily_base_hphc_300,300,first-300,81,rng,num-start-141,141,365,4.736099004745483,True,,True,1,False,1000,True,1.0
./expes/v2_2020-11-04_dbh_300-prng-1,daily_base_hphc_300,300,first-300,41,rng,num-start-31,31,365,1000.9532823562622,False,,False,0,True,1000,True,0.0
./expes/v2_2020-11-04_dbh_300-prng-1,daily_base_hphc_300,300,first-300,11,rng,num-start-91,91,365,3.115948438644409,True,,True,1,False,1000,True,1.0
./expes/v2_2020-11-04_dbh_300-prng-1,daily_base_hphc_300,300,first-300,241,rng,num-start-211,211,365,7.14590048789978,True,,True,1,False,1000,True,1.0
./expes/v2_2020-11-04_dbh_300-prng-1,daily_base_hphc_300,300,first-300,221,rng,num-start-151,151,365,5.215665578842163,True,,True,1,False,1000,True,1.0
./expes/v2_2020-11-04_dbh_300-prng-1,daily_base_hphc_300,300,first-300,201,rng,num-start-181,181,365,6.502946853637695,True,,True,1,False,1000,True,1.0
./expes/v2_2020-11-04_dbh_300-prng-1,daily_base_hphc_300,300,first-300,261,rng,num-start-271,271,365,8.77687120437622,True,,True,1,False,1000,True,1.0
./expes/v2_2020-11-04_dbh_300-prng-1,daily_base_hphc_300,300,first-300,181,rng,num-start-111,111,365,1003.0282428264618,False,,False,0,True,1000,True,0.0
./expes/v2_2020-11-04_dbh_300-prng-1,daily_base_hphc_300,300,first-300,261,rng,num-start-181,181,365,5.705289602279663,True,,True,1,False,1000,True,1.0
./expes/v2_2020-11-04_dbh_300-prng-1,daily_base_hphc_300,300,first-300,101,rng,num-start-11,11,365,1000.3608541488647,False,,False,0,True,1000,True,0.0
./expes/v2_2020-11-04_dbh_300-prng-1,daily_base_hphc_300,300,first-300,11,rng,num-start-121,121,365,3.7827839851379395,True,,True,1,False,1000,True,1.0
./expes/v2_2020-11-04_dbh_300-prng-1,daily_base_hphc_300,300,first-300,81,rng,num-start-151,151,365,5.2728776931762695,True,,True,1,False,1000,True,1.0
./expes/v2_2020-11-04_dbh_300-prng-1,daily_base_hphc_300,300,first-300,41,rng,num-start-261,261,365,8.543643712997437,True,,True,1,False,1000,True,1.0
./expes/v2_2020-11-04_dbh_300-prng-1,daily_base_hphc_300,300,first-300,11,rng,num-start-221,221,365,7.12293553352356,True,,True,1,False,1000,True,1.0
./expes/v2_2020-11-04_dbh_300-prng-1,daily_base_hphc_300,300,first-300,251,rng,num-start-241,241,365,7.911516904830933,True,,True,1,False,1000,True,1.0
./expes/v2_2020-11-04_dbh_300-prng-1,daily_base_hphc_300,300,first-300,161,rng,num-start-71,71,365,1001.8650503158569,False,,False,0,True,1000,True,0.0
