expe,clients,clients_size,clients_subset,agg_size,agg_size_pc,method,days,days_size,days_total,noise_method,time,valid,valid_sum,success,score_avg,score_min,score_max,nsols,oracle,wall_hit,wall_time,pooled,pool_size,uuid,infeasible,optimal,valid_sums
./expes/v2_2021-04-10_issda-daily_500-prng-1-w1-p2,daily_issda-500,500,first-500,50,10,rng,num-start-100,100,536,classic,18.18994140625,True,,True,1.0,1.0,1.0,1,"['2', '5', '12', '14', '15', '16', '33', '49', '53', '61', '69', '108', '111', '118', '131', '137', '163', '195', '196', '200', '217', '222', '229', '231', '242', '250', '254', '278', '292', '303', '312', '333', '334', '352', '357', '370', '390', '391', '392', '393', '404', '411', '428', '434', '452', '458', '462', '481', '484', '497']",False,1000,True,2,ffacc1f867,0.0,1.0,1.0
./expes/v2_2021-04-10_issda-daily_500-prng-1-w1-p2,daily_issda-500,500,first-500,150,30,rng,num-start-200,200,536,classic,22.761962175369263,True,,True,1.0,1.0,1.0,1,"['5', '13', '15', '19', '26', '29', '31', '39', '44', '47', '55', '70', '82', '83', '85', '86', '87', '89', '91', '94', '98', '107', '109', '114', '117', '119', '121', '128', '129', '138', '140', '143', '156', '158', '159', '160', '164', '167', '175', '180', '182', '185', '186', '187', '188', '191', '195', '202', '205', '209', '213', '217', '221', '228', '229', '233', '234', '237', '239', '246', '250', '251', '256', '257', '258', '259', '260', '261', '262', '263', '264', '266', '269', '270', '272', '279', '286', '287', '288', '291', '295', '298', '302', '303', '304', '311', '316', '320', '327', '334', '335', '336', '338', '339', '343', '346', '349', '350', '351', '359', '362', '367', '371', '372', '375', '377', '379', '382', '387', '391', '396', '402', '405', '408', '410', '412', '415', '418', '421', '426', '428', '435', '438', '440', '441', '442', '446', '449', '452', '453', '457', '458', '461', '462', '463', '465', '466', '467', '472', '474', '478', '479', '480', '482', '486', '487', '489', '490', '491', '493']",False,1000,True,2,c7e596e0ab,0.0,1.0,1.0
