expe,clients,clients_size,clients_subset,agg_size,agg_size_pc,method,days,days_size,days_total,noise_method,time,valid,valid_sum,success,score_avg,score_min,score_max,nsols,oracle,wall_hit,wall_time,pooled,pool_size,uuid,infeasible,optimal,valid_sums
./expes/v2_2021-04-10_issda-daily_500-prng-1-w1-p2,daily_issda-500,500,first-500,100,20,rng,num-start-200,200,536,classic,30.5788996219635,True,,True,1.0,1.0,1.0,1,"['4', '11', '14', '23', '24', '31', '35', '42', '45', '46', '47', '53', '55', '75', '80', '83', '85', '89', '92', '100', '110', '114', '120', '121', '127', '128', '133', '134', '135', '140', '142', '144', '148', '149', '150', '154', '156', '157', '159', '160', '173', '176', '185', '191', '199', '203', '206', '212', '217', '221', '232', '237', '242', '243', '246', '260', '261', '266', '267', '274', '275', '281', '282', '294', '307', '311', '321', '322', '329', '332', '344', '345', '359', '361', '370', '375', '392', '400', '409', '410', '414', '417', '419', '424', '425', '431', '433', '435', '438', '444', '445', '451', '452', '466', '470', '475', '479', '483', '484', '492']",False,1000,True,2,9dab986b7b,0.0,1.0,1.0
./expes/v2_2021-04-10_issda-daily_500-prng-1-w1-p2,daily_issda-500,500,first-500,200,40,rng,num-start-450,450,536,classic,26.55839729309082,True,,True,1.0,1.0,1.0,1,"['4', '6', '7', '8', '11', '12', '15', '16', '17', '19', '22', '23', '24', '31', '32', '33', '34', '35', '40', '46', '50', '53', '54', '56', '61', '64', '67', '69', '70', '71', '78', '80', '82', '84', '91', '95', '99', '102', '109', '112', '119', '120', '121', '122', '129', '133', '135', '137', '138', '139', '143', '144', '146', '150', '151', '153', '155', '156', '159', '161', '162', '164', '168', '170', '171', '173', '174', '177', '180', '181', '185', '187', '188', '190', '193', '194', '198', '199', '200', '203', '204', '209', '211', '213', '216', '219', '221', '224', '228', '234', '236', '239', '241', '243', '244', '247', '248', '251', '254', '259', '260', '267', '268', '274', '275', '277', '278', '279', '281', '282', '283', '287', '292', '293', '294', '296', '297', '298', '300', '301', '302', '303', '304', '305', '308', '310', '311', '312', '313', '315', '316', '318', '321', '322', '324', '325', '326', '328', '330', '336', '344', '345', '347', '348', '349', '350', '354', '357', '358', '362', '366', '367', '368', '369', '373', '378', '380', '389', '390', '394', '398', '399', '400', '404', '410', '411', '416', '422', '426', '427', '429', '438', '439', '441', '442', '444', '445', '446', '447', '450', '452', '460', '463', '464', '466', '469', '470', '472', '473', '475', '476', '480', '482', '486', '489', '491', '494', '495', '498', '499']",False,1000,True,2,c65a571736,0.0,1.0,1.0
./expes/v2_2021-04-10_issda-daily_500-prng-1-w1-p2,daily_issda-500,500,first-500,450,90,rng,num-start-100,100,536,classic,16.905633687973022,True,,True,1.0,1.0,1.0,1,"['1', '2', '4', '5', '6', '7', '8', '9', '10', '11', '12', '13', '14', '15', '16', '17', '18', '19', '20', '21', '22', '23', '24', '25', '26', '29', '30', '31', '32', '33', '34', '36', '37', '38', '39', '40', '41', '42', '43', '44', '45', '46', '47', '48', '49', '51', '52', '53', '54', '56', '57', '58', '59', '60', '61', '62', '63', '64', '65', '66', '67', '68', '69', '70', '71', '72', '73', '74', '75', '76', '77', '78', '79', '80', '81', '82', '83', '84', '85', '86', '87', '88', '90', '92', '93', '94', '95', '96', '97', '98', '99', '100', '102', '103', '104', '105', '106', '107', '108', '110', '111', '112', '113', '114', '115', '116', '118', '119', '120', '121', '122', '123', '124', '125', '128', '129', '130', '131', '132', '133', '134', '135', '139', '141', '142', '143', '144', '145', '147', '148', '149', '150', '151', '152', '153', '154', '155', '156', '157', '158', '159', '160', '162', '163', '164', '165', '166', '167', '168', '169', '170', '171', '172', '173', '174', '175', '176', '177', '178', '179', '180', '181', '182', '183', '184', '185', '186', '188', '189', '190', '191', '193', '194', '195', '196', '197', '198', '199', '201', '202', '203', '204', '205', '206', '207', '208', '209', '210', '211', '213', '214', '215', '216', '217', '218', '219', '221', '223', '224', '226', '227', '228', '229', '230', '231', '232', '233', '234', '235', '236', '239', '240', '241', '242', '243', '244', '245', '246', '247', '249', '250', '251', '252', '253', '254', '255', '256', '258', '259', '260', '261', '262', '265', '266', '267', '268', '269', '270', '271', '272', '273', '274', '275', '276', '277', '278', '279', '280', '281', '282', '283', '284', '285', '286', '287', '288', '289', '290', '291', '292', '293', '294', '295', '297', '298', '299', '300', '301', '302', '303', '304', '305', '306', '307', '308', '309', '310', '311', '312', '313', '314', '315', '317', '318', '319', '320', '321', '322', '323', '324', '325', '326', '327', '328', '329', '330', '331', '332', '333', '334', '335', '336', '337', '338', '339', '340', '341', '342', '343', '344', '345', '346', '347', '348', '349', '350', '351', '352', '353', '354', '355', '358', '359', '360', '361', '362', '363', '364', '365', '366', '367', '368', '369', '370', '372', '373', '374', '375', '376', '377', '379', '380', '382', '383', '384', '386', '387', '388', '389', '391', '393', '396', '397', '398', '399', '400', '401', '402', '403', '404', '405', '406', '407', '408', '409', '410', '412', '413', '414', '415', '416', '418', '419', '420', '421', '422', '423', '424', '425', '426', '427', '428', '429', '430', '431', '432', '433', '434', '435', '436', '437', '438', '439', '440', '441', '442', '443', '444', '445', '446', '447', '448', '449', '450', '452', '453', '454', '455', '456', '457', '458', '459', '460', '461', '462', '463', '464', '465', '466', '467', '468', '469', '470', '471', '472', '473', '475', '477', '478', '479', '480', '481', '483', '484', '485', '486', '487', '488', '489', '490', '491', '492', '493', '494', '495', '496', '497', '498', '499', '500']",False,1000,True,2,b2ba6b5c62,0.0,1.0,1.0
