expe,clients,clients_size,clients_subset,agg_size,agg_size_pc,method,days,days_size,days_total,noise_method,time,valid,valid_sum,success,score_avg,score_min,score_max,nsols,oracle,wall_hit,wall_time,pooled,pool_size,uuid,infeasible,optimal,valid_sums
./expes/v2_2021-04-10_issda-daily_500-prng-1-w1-p2,daily_issda-500,500,first-500,100,20,rng,num-start-300,300,536,classic,15.193467378616333,True,,True,1.0,1.0,1.0,1,"['7', '8', '15', '16', '19', '22', '33', '34', '50', '67', '69', '70', '78', '82', '84', '99', '112', '119', '120', '122', '133', '138', '144', '155', '168', '173', '180', '188', '190', '198', '199', '200', '203', '204', '209', '216', '219', '224', '228', '241', '243', '244', '254', '260', '268', '274', '277', '278', '279', '282', '283', '293', '294', '296', '298', '300', '303', '304', '305', '310', '311', '321', '326', '328', '344', '345', '350', '357', '358', '366', '368', '369', '373', '380', '389', '398', '399', '400', '404', '411', '422', '427', '429', '438', '439', '441', '444', '445', '450', '463', '464', '466', '469', '472', '475', '476', '480', '491', '494', '495']",False,1000,True,2,5fe732f1d9,0.0,1.0,1.0
./expes/v2_2021-04-10_issda-daily_500-prng-1-w1-p2,daily_issda-500,500,first-500,450,90,rng,num-start-100,100,536,classic,10.41528034210205,True,,True,1.0,1.0,1.0,1,"['1', '2', '3', '4', '5', '6', '7', '8', '10', '11', '12', '14', '15', '16', '17', '18', '19', '20', '21', '22', '23', '24', '25', '26', '27', '28', '29', '30', '31', '32', '33', '34', '35', '36', '37', '39', '40', '41', '42', '43', '44', '45', '46', '47', '48', '49', '50', '51', '52', '53', '54', '55', '57', '58', '59', '60', '61', '62', '63', '66', '67', '68', '69', '70', '71', '72', '73', '74', '75', '77', '78', '79', '80', '81', '82', '83', '84', '85', '86', '87', '88', '89', '90', '91', '92', '93', '94', '95', '97', '98', '99', '100', '101', '102', '103', '104', '105', '106', '107', '108', '109', '110', '111', '112', '113', '114', '115', '116', '118', '119', '120', '121', '122', '123', '124', '125', '126', '127', '128', '129', '130', '131', '132', '133', '134', '135', '138', '139', '140', '141', '142', '143', '144', '145', '146', '147', '148', '149', '150', '151', '152', '153', '154', '155', '156', '157', '158', '159', '160', '161', '162', '163', '165', '166', '167', '168', '169', '170', '173', '174', '175', '176', '177', '178', '179', '180', '181', '183', '184', '185', '186', '187', '188', '189', '191', '193', '195', '196', '197', '199', '200', '201', '202', '203', '204', '205', '206', '207', '208', '209', '210', '211', '212', '213', '214', '216', '217', '218', '220', '221', '222', '223', '224', '225', '226', '227', '228', '229', '232', '233', '234', '235', '236', '237', '238', '240', '242', '243', '244', '245', '246', '248', '250', '251', '252', '253', '254', '255', '256', '258', '260', '261', '262', '263', '264', '266', '267', '268', '269', '270', '271', '272', '273', '274', '275', '276', '277', '278', '279', '280', '281', '282', '283', '284', '286', '287', '288', '290', '291', '292', '293', '294', '295', '297', '298', '299', '300', '301', '302', '303', '304', '305', '306', '307', '308', '309', '310', '311', '312', '313', '314', '315', '316', '317', '318', '319', '320', '321', '322', '323', '324', '325', '326', '327', '328', '329', '330', '331', '332', '334', '335', '336', '337', '338', '339', '342', '343', '344', '345', '346', '347', '349', '350', '351', '352', '353', '354', '355', '356', '357', '358', '359', '360', '361', '362', '363', '364', '365', '366', '367', '368', '369', '370', '371', '375', '376', '377', '378', '379', '381', '382', '383', '384', '385', '387', '388', '389', '390', '392', '393', '394', '395', '396', '397', '398', '399', '400', '401', '402', '403', '404', '405', '407', '408', '409', '410', '411', '412', '414', '415', '417', '418', '419', '420', '421', '422', '423', '424', '425', '426', '427', '428', '429', '430', '431', '432', '433', '434', '435', '437', '438', '439', '440', '441', '442', '443', '444', '445', '446', '448', '449', '450', '451', '452', '453', '454', '455', '456', '457', '458', '459', '460', '461', '462', '463', '464', '465', '466', '467', '468', '469', '470', '471', '472', '473', '474', '475', '476', '477', '478', '479', '480', '481', '482', '483', '484', '486', '487', '488', '489', '490', '492', '493', '494', '495', '496', '497', '498', '499', '500']",False,1000,True,2,970c8af5cc,0.0,1.0,1.0
./expes/v2_2021-04-10_issda-daily_500-prng-1-w1-p2,daily_issda-500,500,first-500,150,30,rng,num-start-100,100,536,classic,1003.1368350982666,False,,False,0,,,0,"['5', '13', '15', '19', '26', '29', '31', '39', '44', '47', '55', '70', '82', '83', '85', '86', '87', '89', '91', '94', '98', '107', '109', '114', '117', '119', '121', '128', '129', '138', '140', '143', '156', '158', '159', '160', '164', '167', '175', '180', '182', '185', '186', '187', '188', '191', '195', '202', '205', '209', '213', '217', '221', '228', '229', '233', '234', '237', '239', '246', '250', '251', '256', '257', '258', '259', '260', '261', '262', '263', '264', '266', '269', '270', '272', '279', '286', '287', '288', '291', '295', '298', '302', '303', '304', '311', '316', '320', '327', '334', '335', '336', '338', '339', '343', '346', '349', '350', '351', '359', '362', '367', '371', '372', '375', '377', '379', '382', '387', '391', '396', '402', '405', '408', '410', '412', '415', '418', '421', '426', '428', '435', '438', '440', '441', '442', '446', '449', '452', '453', '457', '458', '461', '462', '463', '465', '466', '467', '472', '474', '478', '479', '480', '482', '486', '487', '489', '490', '491', '493']",True,1000,True,2,63ed6b2864,0.0,0.0,0.0
