expe,clients,clients_size,clients_subset,agg_size,method,days,days_size,days_total,time,valid,valid_sum,success,nsols,wall_hit,wall_time,pooled,valid_sums
./expes/v2_2020-11-29_di_2000-prng-1,daily_issda_2000,2000,rng-2000,1,rng,num-start-191,191,536,23.223564624786377,True,,True,1,False,1000,True,1.0
./expes/v2_2020-11-29_di_2000-prng-1,daily_issda_2000,2000,rng-2000,1201,rng,num-start-191,191,536,1023.1765089035034,False,,False,0,True,1000,True,0.0
./expes/v2_2020-11-29_di_2000-prng-1,daily_issda_2000,2000,rng-2000,1,rng,num-start-181,181,536,21.09610652923584,True,,True,1,False,1000,True,1.0
./expes/v2_2020-11-29_di_2000-prng-1,daily_issda_2000,2000,rng-2000,201,rng,num-start-261,261,536,1032.9303188323975,False,,False,0,True,1000,True,0.0
./expes/v2_2020-11-29_di_2000-prng-1,daily_issda_2000,2000,rng-2000,601,rng,num-start-221,221,536,1028.1543321609497,False,,False,0,True,1000,True,0.0
./expes/v2_2020-11-29_di_2000-prng-1,daily_issda_2000,2000,rng-2000,401,rng,num-start-181,181,536,1021.8719551563263,False,,False,0,True,1000,True,0.0
./expes/v2_2020-11-29_di_2000-prng-1,daily_issda_2000,2000,rng-2000,201,rng,num-start-91,91,536,1011.1989030838013,False,,False,0,True,1000,True,0.0
./expes/v2_2020-11-29_di_2000-prng-1,daily_issda_2000,2000,rng-2000,1001,rng,num-start-241,241,536,1029.0504500865936,False,,False,0,True,1000,True,0.0
./expes/v2_2020-11-29_di_2000-prng-1,daily_issda_2000,2000,rng-2000,201,rng,num-start-241,241,536,1030.178504228592,False,,False,0,True,1000,True,0.0
./expes/v2_2020-11-29_di_2000-prng-1,daily_issda_2000,2000,rng-2000,1801,rng,num-start-211,211,536,1026.3610084056854,False,,False,0,True,1000,True,0.0
./expes/v2_2020-11-29_di_2000-prng-1,daily_issda_2000,2000,rng-2000,201,rng,num-start-251,251,536,1034.589703798294,False,,False,0,True,1000,True,0.0
./expes/v2_2020-11-29_di_2000-prng-1,daily_issda_2000,2000,rng-2000,1201,rng,num-start-11,11,536,1001.7056872844696,False,,False,0,True,1000,True,0.0
./expes/v2_2020-11-29_di_2000-prng-1,daily_issda_2000,2000,rng-2000,1601,rng,num-start-91,91,536,1011.2566819190979,False,,False,0,True,1000,True,0.0
./expes/v2_2020-11-29_di_2000-prng-1,daily_issda_2000,2000,rng-2000,1401,rng,num-start-61,61,536,1007.4964511394501,False,,False,0,True,1000,True,0.0
./expes/v2_2020-11-29_di_2000-prng-1,daily_issda_2000,2000,rng-2000,1,rng,num-start-111,111,536,13.609480619430542,True,,True,1,False,1000,True,1.0
./expes/v2_2020-11-29_di_2000-prng-1,daily_issda_2000,2000,rng-2000,1801,rng,num-start-101,101,536,1012.1416828632355,False,,False,0,True,1000,True,0.0
./expes/v2_2020-11-29_di_2000-prng-1,daily_issda_2000,2000,rng-2000,201,rng,num-start-191,191,536,1023.5107522010803,False,,False,0,True,1000,True,0.0
./expes/v2_2020-11-29_di_2000-prng-1,daily_issda_2000,2000,rng-2000,201,rng,num-start-251,251,536,1031.3865311145782,False,,False,0,True,1000,True,0.0
./expes/v2_2020-11-29_di_2000-prng-1,daily_issda_2000,2000,rng-2000,401,rng,num-start-171,171,536,1021.3107264041901,False,,False,0,True,1000,True,0.0
./expes/v2_2020-11-29_di_2000-prng-1,daily_issda_2000,2000,rng-2000,1,rng,num-start-111,111,536,13.445173263549805,True,,True,1,False,1000,True,1.0
./expes/v2_2020-11-29_di_2000-prng-1,daily_issda_2000,2000,rng-2000,1601,rng,num-start-131,131,536,1016.3711788654327,False,,False,0,True,1000,True,0.0
./expes/v2_2020-11-29_di_2000-prng-1,daily_issda_2000,2000,rng-2000,1001,rng,num-start-291,291,536,1037.052850484848,False,,False,0,True,1000,True,0.0
./expes/v2_2020-11-29_di_2000-prng-1,daily_issda_2000,2000,rng-2000,201,rng,num-start-101,101,536,1012.2780678272247,False,,False,0,True,1000,True,0.0
./expes/v2_2020-11-29_di_2000-prng-1,daily_issda_2000,2000,rng-2000,1,rng,num-start-171,171,536,21.85930061340332,True,,True,1,False,1000,True,1.0
./expes/v2_2020-11-29_di_2000-prng-1,daily_issda_2000,2000,rng-2000,1201,rng,num-start-121,121,536,1015.5503220558167,False,,False,0,True,1000,True,0.0
./expes/v2_2020-11-29_di_2000-prng-1,daily_issda_2000,2000,rng-2000,401,rng,num-start-251,251,536,1032.0033242702484,False,,False,0,True,1000,True,0.0
./expes/v2_2020-11-29_di_2000-prng-1,daily_issda_2000,2000,rng-2000,801,rng,num-start-91,91,536,1011.2149293422699,False,,False,0,True,1000,True,0.0
./expes/v2_2020-11-29_di_2000-prng-1,daily_issda_2000,2000,rng-2000,601,rng,num-start-201,201,536,1023.9883029460907,False,,False,0,True,1000,True,0.0
./expes/v2_2020-11-29_di_2000-prng-1,daily_issda_2000,2000,rng-2000,1601,rng,num-start-1,1,536,1.796428918838501,False,,False,2,False,1000,True,1.0
./expes/v2_2020-11-29_di_2000-prng-1,daily_issda_2000,2000,rng-2000,401,rng,num-start-111,111,536,1013.8035597801208,False,,False,0,True,1000,True,0.0
./expes/v2_2020-11-29_di_2000-prng-1,daily_issda_2000,2000,rng-2000,1401,rng,num-start-231,231,536,1028.0206851959229,False,,False,0,True,1000,True,0.0
./expes/v2_2020-11-29_di_2000-prng-1,daily_issda_2000,2000,rng-2000,201,rng,num-start-231,231,536,1029.8301322460175,False,,False,0,True,1000,True,0.0
./expes/v2_2020-11-29_di_2000-prng-1,daily_issda_2000,2000,rng-2000,1201,rng,num-start-291,291,536,1036.039433479309,False,,False,0,True,1000,True,0.0
./expes/v2_2020-11-29_di_2000-prng-1,daily_issda_2000,2000,rng-2000,1401,rng,num-start-291,291,536,1036.4658389091492,False,,False,0,True,1000,True,0.0
./expes/v2_2020-11-29_di_2000-prng-1,daily_issda_2000,2000,rng-2000,401,rng,num-start-1,1,536,9.406476020812988,False,,False,2,False,1000,True,1.0
./expes/v2_2020-11-29_di_2000-prng-1,daily_issda_2000,2000,rng-2000,1801,rng,num-start-261,261,536,1032.9090583324432,False,,False,0,True,1000,True,0.0
./expes/v2_2020-11-29_di_2000-prng-1,daily_issda_2000,2000,rng-2000,601,rng,num-start-91,91,536,1011.300041437149,False,,False,0,True,1000,True,0.0
./expes/v2_2020-11-29_di_2000-prng-1,daily_issda_2000,2000,rng-2000,1601,rng,num-start-41,41,536,1005.1391172409058,False,,False,0,True,1000,True,0.0
./expes/v2_2020-11-29_di_2000-prng-1,daily_issda_2000,2000,rng-2000,1201,rng,num-start-221,221,536,1028.0471000671387,False,,False,0,True,1000,True,0.0
./expes/v2_2020-11-29_di_2000-prng-1,daily_issda_2000,2000,rng-2000,1,rng,num-start-211,211,536,25.487303256988525,True,,True,1,False,1000,True,1.0
./expes/v2_2020-11-29_di_2000-prng-1,daily_issda_2000,2000,rng-2000,401,rng,num-start-271,271,536,1033.4015533924103,False,,False,0,True,1000,True,0.0
./expes/v2_2020-11-29_di_2000-prng-1,daily_issda_2000,2000,rng-2000,1401,rng,num-start-281,281,536,1038.228001832962,False,,False,0,True,1000,True,0.0
./expes/v2_2020-11-29_di_2000-prng-1,daily_issda_2000,2000,rng-2000,1801,rng,num-start-131,131,536,1016.8304796218872,False,,False,0,True,1000,True,0.0
./expes/v2_2020-11-29_di_2000-prng-1,daily_issda_2000,2000,rng-2000,601,rng,num-start-161,161,536,1021.3144164085388,False,,False,0,True,1000,True,0.0
./expes/v2_2020-11-29_di_2000-prng-1,daily_issda_2000,2000,rng-2000,601,rng,num-start-211,211,536,1025.5501916408539,False,,False,0,True,1000,True,0.0
./expes/v2_2020-11-29_di_2000-prng-1,daily_issda_2000,2000,rng-2000,801,rng,num-start-251,251,536,1030.253389596939,False,,False,0,True,1000,True,0.0
./expes/v2_2020-11-29_di_2000-prng-1,daily_issda_2000,2000,rng-2000,801,rng,num-start-251,251,536,1031.948869228363,False,,False,0,True,1000,True,0.0
./expes/v2_2020-11-29_di_2000-prng-1,daily_issda_2000,2000,rng-2000,601,rng,num-start-81,81,536,1010.6120493412018,False,,False,0,True,1000,True,0.0
./expes/v2_2020-11-29_di_2000-prng-1,daily_issda_2000,2000,rng-2000,1201,rng,num-start-151,151,536,1019.357574224472,False,,False,0,True,1000,True,0.0
./expes/v2_2020-11-29_di_2000-prng-1,daily_issda_2000,2000,rng-2000,1801,rng,num-start-51,51,536,1006.3190035820007,False,,False,0,True,1000,True,0.0
./expes/v2_2020-11-29_di_2000-prng-1,daily_issda_2000,2000,rng-2000,801,rng,num-start-251,251,536,1031.6386888027191,False,,False,0,True,1000,True,0.0
./expes/v2_2020-11-29_di_2000-prng-1,daily_issda_2000,2000,rng-2000,1001,rng,num-start-91,91,536,1011.7419822216034,False,,False,0,True,1000,True,0.0
./expes/v2_2020-11-29_di_2000-prng-1,daily_issda_2000,2000,rng-2000,1,rng,num-start-271,271,536,34.58453869819641,True,,True,1,False,1000,True,1.0
./expes/v2_2020-11-29_di_2000-prng-1,daily_issda_2000,2000,rng-2000,1201,rng,num-start-281,281,536,1036.6091516017914,False,,False,0,True,1000,True,0.0
./expes/v2_2020-11-29_di_2000-prng-1,daily_issda_2000,2000,rng-2000,1201,rng,num-start-61,61,536,1008.2026791572571,False,,False,0,True,1000,True,0.0
./expes/v2_2020-11-29_di_2000-prng-1,daily_issda_2000,2000,rng-2000,801,rng,num-start-91,91,536,1011.4860355854034,False,,False,0,True,1000,True,0.0
./expes/v2_2020-11-29_di_2000-prng-1,daily_issda_2000,2000,rng-2000,1601,rng,num-start-261,261,536,1033.3235394954681,False,,False,0,True,1000,True,0.0
./expes/v2_2020-11-29_di_2000-prng-1,daily_issda_2000,2000,rng-2000,1001,rng,num-start-21,21,536,1002.904331445694,False,,False,0,True,1000,True,0.0
./expes/v2_2020-11-29_di_2000-prng-1,daily_issda_2000,2000,rng-2000,801,rng,num-start-291,291,536,1039.3161375522614,False,,False,0,True,1000,True,0.0
./expes/v2_2020-11-29_di_2000-prng-1,daily_issda_2000,2000,rng-2000,201,rng,num-start-291,291,536,1039.8562514781952,False,,False,0,True,1000,True,0.0
./expes/v2_2020-11-29_di_2000-prng-1,daily_issda_2000,2000,rng-2000,1001,rng,num-start-51,51,536,1006.1780843734741,False,,False,0,True,1000,True,0.0
./expes/v2_2020-11-29_di_2000-prng-1,daily_issda_2000,2000,rng-2000,801,rng,num-start-31,31,536,1003.7180352210999,False,,False,0,True,1000,True,0.0
./expes/v2_2020-11-29_di_2000-prng-1,daily_issda_2000,2000,rng-2000,1,rng,num-start-111,111,536,13.922600746154785,True,,True,1,False,1000,True,1.0
./expes/v2_2020-11-29_di_2000-prng-1,daily_issda_2000,2000,rng-2000,1201,rng,num-start-271,271,536,1031.724088191986,False,,False,0,True,1000,True,0.0
./expes/v2_2020-11-29_di_2000-prng-1,daily_issda_2000,2000,rng-2000,1801,rng,num-start-31,31,536,1004.2286937236786,False,,False,0,True,1000,True,0.0
./expes/v2_2020-11-29_di_2000-prng-1,daily_issda_2000,2000,rng-2000,1401,rng,num-start-271,271,536,1032.7527465820312,False,,False,0,True,1000,True,0.0
./expes/v2_2020-11-29_di_2000-prng-1,daily_issda_2000,2000,rng-2000,801,rng,num-start-11,11,536,1001.5781507492065,False,,False,0,True,1000,True,0.0
./expes/v2_2020-11-29_di_2000-prng-1,daily_issda_2000,2000,rng-2000,801,rng,num-start-111,111,536,1015.3158519268036,False,,False,0,True,1000,True,0.0
./expes/v2_2020-11-29_di_2000-prng-1,daily_issda_2000,2000,rng-2000,1,rng,num-start-181,181,536,22.281983613967896,True,,True,1,False,1000,True,1.0
./expes/v2_2020-11-29_di_2000-prng-1,daily_issda_2000,2000,rng-2000,1801,rng,num-start-101,101,536,1012.6846313476562,False,,False,0,True,1000,True,0.0
./expes/v2_2020-11-29_di_2000-prng-1,daily_issda_2000,2000,rng-2000,201,rng,num-start-281,281,536,1035.845400094986,False,,False,0,True,1000,True,0.0
./expes/v2_2020-11-29_di_2000-prng-1,daily_issda_2000,2000,rng-2000,801,rng,num-start-101,101,536,1011.9883074760437,False,,False,0,True,1000,True,0.0
./expes/v2_2020-11-29_di_2000-prng-1,daily_issda_2000,2000,rng-2000,1201,rng,num-start-131,131,536,1015.5930495262146,False,,False,0,True,1000,True,0.0
./expes/v2_2020-11-29_di_2000-prng-1,daily_issda_2000,2000,rng-2000,201,rng,num-start-131,131,536,1017.5390949249268,False,,False,0,True,1000,True,0.0
./expes/v2_2020-11-29_di_2000-prng-1,daily_issda_2000,2000,rng-2000,1,rng,num-start-281,281,536,34.22744941711426,True,,True,1,False,1000,True,1.0
./expes/v2_2020-11-29_di_2000-prng-1,daily_issda_2000,2000,rng-2000,601,rng,num-start-1,1,536,8.74970817565918,False,,False,2,False,1000,True,1.0
./expes/v2_2020-11-29_di_2000-prng-1,daily_issda_2000,2000,rng-2000,201,rng,num-start-181,181,536,1022.6317491531372,False,,False,0,True,1000,True,0.0
./expes/v2_2020-11-29_di_2000-prng-1,daily_issda_2000,2000,rng-2000,601,rng,num-start-161,161,536,1019.6208639144897,False,,False,0,True,1000,True,0.0
./expes/v2_2020-11-29_di_2000-prng-1,daily_issda_2000,2000,rng-2000,1,rng,num-start-131,131,536,16.438225746154785,True,,True,1,False,1000,True,1.0
./expes/v2_2020-11-29_di_2000-prng-1,daily_issda_2000,2000,rng-2000,201,rng,num-start-161,161,536,1018.7325134277344,False,,False,0,True,1000,True,0.0
./expes/v2_2020-11-29_di_2000-prng-1,daily_issda_2000,2000,rng-2000,1001,rng,num-start-61,61,536,1007.121161699295,False,,False,0,True,1000,True,0.0
./expes/v2_2020-11-29_di_2000-prng-1,daily_issda_2000,2000,rng-2000,1801,rng,num-start-251,251,536,1032.5827763080597,False,,False,0,True,1000,True,0.0
./expes/v2_2020-11-29_di_2000-prng-1,daily_issda_2000,2000,rng-2000,801,rng,num-start-11,11,536,1001.5620334148407,False,,False,0,True,1000,True,0.0
./expes/v2_2020-11-29_di_2000-prng-1,daily_issda_2000,2000,rng-2000,1,rng,num-start-31,31,536,4.041969060897827,True,,True,1,False,1000,True,1.0
./expes/v2_2020-11-29_di_2000-prng-1,daily_issda_2000,2000,rng-2000,401,rng,num-start-81,81,536,1009.7036633491516,False,,False,0,True,1000,True,0.0
./expes/v2_2020-11-29_di_2000-prng-1,daily_issda_2000,2000,rng-2000,1801,rng,num-start-71,71,536,1008.9491746425629,False,,False,0,True,1000,True,0.0
./expes/v2_2020-11-29_di_2000-prng-1,daily_issda_2000,2000,rng-2000,1001,rng,num-start-161,161,536,1020.6661610603333,False,,False,0,True,1000,True,0.0
./expes/v2_2020-11-29_di_2000-prng-1,daily_issda_2000,2000,rng-2000,801,rng,num-start-231,231,536,1030.9101202487946,False,,False,0,True,1000,True,0.0
./expes/v2_2020-11-29_di_2000-prng-1,daily_issda_2000,2000,rng-2000,801,rng,num-start-261,261,536,1034.4389731884003,False,,False,0,True,1000,True,0.0
