expe,clients,clients_size,clients_subset,agg_size,method,days,days_size,days_total,time,valid,valid_sum,success,nsols,wall_hit,wall_time,pooled,valid_sums
./expes/v2_2020-11-29_di_2000-prng-1,daily_issda_2000,2000,rng-2000,1801,rng,num-start-71,71,536,1008.4097917079926,False,,False,0,True,1000,True,0.0
./expes/v2_2020-11-29_di_2000-prng-1,daily_issda_2000,2000,rng-2000,201,rng,num-start-191,191,536,1024.1754841804504,False,,False,0,True,1000,True,0.0
./expes/v2_2020-11-29_di_2000-prng-1,daily_issda_2000,2000,rng-2000,801,rng,num-start-171,171,536,1021.262779712677,False,,False,0,True,1000,True,0.0
./expes/v2_2020-11-29_di_2000-prng-1,daily_issda_2000,2000,rng-2000,201,rng,num-start-141,141,536,1017.6172664165497,False,,False,0,True,1000,True,0.0
./expes/v2_2020-11-29_di_2000-prng-1,daily_issda_2000,2000,rng-2000,1,rng,num-start-271,271,536,34.33320474624634,True,,True,1,False,1000,True,1.0
./expes/v2_2020-11-29_di_2000-prng-1,daily_issda_2000,2000,rng-2000,1601,rng,num-start-271,271,536,1034.048056602478,False,,False,0,True,1000,True,0.0
./expes/v2_2020-11-29_di_2000-prng-1,daily_issda_2000,2000,rng-2000,1801,rng,num-start-291,291,536,1037.6221132278442,False,,False,0,True,1000,True,0.0
./expes/v2_2020-11-29_di_2000-prng-1,daily_issda_2000,2000,rng-2000,1201,rng,num-start-91,91,536,1011.5414092540741,False,,False,0,True,1000,True,0.0
./expes/v2_2020-11-29_di_2000-prng-1,daily_issda_2000,2000,rng-2000,1,rng,num-start-241,241,536,30.58178162574768,True,,True,1,False,1000,True,1.0
./expes/v2_2020-11-29_di_2000-prng-1,daily_issda_2000,2000,rng-2000,601,rng,num-start-231,231,536,1029.8908302783966,False,,False,0,True,1000,True,0.0
./expes/v2_2020-11-29_di_2000-prng-1,daily_issda_2000,2000,rng-2000,1601,rng,num-start-211,211,536,1030.221860408783,False,,False,0,True,1000,True,0.0
./expes/v2_2020-11-29_di_2000-prng-1,daily_issda_2000,2000,rng-2000,1,rng,num-start-141,141,536,17.820418119430542,True,,True,1,False,1000,True,1.0
./expes/v2_2020-11-29_di_2000-prng-1,daily_issda_2000,2000,rng-2000,801,rng,num-start-101,101,536,1012.6644787788391,False,,False,0,True,1000,True,0.0
./expes/v2_2020-11-29_di_2000-prng-1,daily_issda_2000,2000,rng-2000,1201,rng,num-start-71,71,536,1009.2273271083832,False,,False,0,True,1000,True,0.0
./expes/v2_2020-11-29_di_2000-prng-1,daily_issda_2000,2000,rng-2000,1001,rng,num-start-11,11,536,1001.4899971485138,False,,False,0,True,1000,True,0.0
./expes/v2_2020-11-29_di_2000-prng-1,daily_issda_2000,2000,rng-2000,601,rng,num-start-251,251,536,1031.444911956787,False,,False,0,True,1000,True,0.0
./expes/v2_2020-11-29_di_2000-prng-1,daily_issda_2000,2000,rng-2000,1001,rng,num-start-281,281,536,1036.9684073925018,False,,False,0,True,1000,True,0.0
./expes/v2_2020-11-29_di_2000-prng-1,daily_issda_2000,2000,rng-2000,1201,rng,num-start-231,231,536,1031.093440771103,False,,False,0,True,1000,True,0.0
./expes/v2_2020-11-29_di_2000-prng-1,daily_issda_2000,2000,rng-2000,1201,rng,num-start-201,201,536,1026.3188388347626,False,,False,0,True,1000,True,0.0
./expes/v2_2020-11-29_di_2000-prng-1,daily_issda_2000,2000,rng-2000,1401,rng,num-start-1,1,536,2.4835703372955322,False,,False,2,False,1000,True,1.0
./expes/v2_2020-11-29_di_2000-prng-1,daily_issda_2000,2000,rng-2000,401,rng,num-start-291,291,536,1038.1780457496643,False,,False,0,True,1000,True,0.0
./expes/v2_2020-11-29_di_2000-prng-1,daily_issda_2000,2000,rng-2000,601,rng,num-start-11,11,536,1001.6023330688477,False,,False,0,True,1000,True,0.0
./expes/v2_2020-11-29_di_2000-prng-1,daily_issda_2000,2000,rng-2000,1201,rng,num-start-81,81,536,1010.6065471172333,False,,False,0,True,1000,True,0.0
./expes/v2_2020-11-29_di_2000-prng-1,daily_issda_2000,2000,rng-2000,1201,rng,num-start-221,221,536,1030.064127445221,False,,False,0,True,1000,True,0.0
./expes/v2_2020-11-29_di_2000-prng-1,daily_issda_2000,2000,rng-2000,1201,rng,num-start-21,21,536,1002.8611173629761,False,,False,0,True,1000,True,0.0
./expes/v2_2020-11-29_di_2000-prng-1,daily_issda_2000,2000,rng-2000,1601,rng,num-start-121,121,536,1016.082884311676,False,,False,0,True,1000,True,0.0
./expes/v2_2020-11-29_di_2000-prng-1,daily_issda_2000,2000,rng-2000,1201,rng,num-start-251,251,536,1032.8578143119812,False,,False,0,True,1000,True,0.0
./expes/v2_2020-11-29_di_2000-prng-1,daily_issda_2000,2000,rng-2000,1401,rng,num-start-71,71,536,1009.2006812095642,False,,False,0,True,1000,True,0.0
./expes/v2_2020-11-29_di_2000-prng-1,daily_issda_2000,2000,rng-2000,1201,rng,num-start-21,21,536,1002.6397190093994,False,,False,0,True,1000,True,0.0
./expes/v2_2020-11-29_di_2000-prng-1,daily_issda_2000,2000,rng-2000,801,rng,num-start-201,201,536,1025.9248836040497,False,,False,0,True,1000,True,0.0
./expes/v2_2020-11-29_di_2000-prng-1,daily_issda_2000,2000,rng-2000,1401,rng,num-start-241,241,536,1033.1838638782501,False,,False,0,True,1000,True,0.0
./expes/v2_2020-11-29_di_2000-prng-1,daily_issda_2000,2000,rng-2000,1201,rng,num-start-31,31,536,1004.1024549007416,False,,False,0,True,1000,True,0.0
./expes/v2_2020-11-29_di_2000-prng-1,daily_issda_2000,2000,rng-2000,1601,rng,num-start-261,261,536,1033.0372939109802,False,,False,0,True,1000,True,0.0
./expes/v2_2020-11-29_di_2000-prng-1,daily_issda_2000,2000,rng-2000,601,rng,num-start-281,281,536,1036.0533628463745,False,,False,0,True,1000,True,0.0
./expes/v2_2020-11-29_di_2000-prng-1,daily_issda_2000,2000,rng-2000,1001,rng,num-start-231,231,536,1032.0235385894775,False,,False,0,True,1000,True,0.0
./expes/v2_2020-11-29_di_2000-prng-1,daily_issda_2000,2000,rng-2000,1001,rng,num-start-91,91,536,1011.6787838935852,False,,False,0,True,1000,True,0.0
./expes/v2_2020-11-29_di_2000-prng-1,daily_issda_2000,2000,rng-2000,1801,rng,num-start-231,231,536,1031.3096597194672,False,,False,0,True,1000,True,0.0
./expes/v2_2020-11-29_di_2000-prng-1,daily_issda_2000,2000,rng-2000,1801,rng,num-start-191,191,536,1024.6271078586578,False,,False,0,True,1000,True,0.0
./expes/v2_2020-11-29_di_2000-prng-1,daily_issda_2000,2000,rng-2000,801,rng,num-start-141,141,536,1017.5662393569946,False,,False,0,True,1000,True,0.0
./expes/v2_2020-11-29_di_2000-prng-1,daily_issda_2000,2000,rng-2000,1801,rng,num-start-261,261,536,1035.696842432022,False,,False,0,True,1000,True,0.0
./expes/v2_2020-11-29_di_2000-prng-1,daily_issda_2000,2000,rng-2000,1,rng,num-start-241,241,536,32.23840594291687,True,,True,1,False,1000,True,1.0
./expes/v2_2020-11-29_di_2000-prng-1,daily_issda_2000,2000,rng-2000,1001,rng,num-start-211,211,536,1029.7253675460815,False,,False,0,True,1000,True,0.0
./expes/v2_2020-11-29_di_2000-prng-1,daily_issda_2000,2000,rng-2000,1401,rng,num-start-261,261,536,1036.7596461772919,False,,False,0,True,1000,True,0.0
./expes/v2_2020-11-29_di_2000-prng-1,daily_issda_2000,2000,rng-2000,1001,rng,num-start-171,171,536,1023.0459680557251,False,,False,0,True,1000,True,0.0
./expes/v2_2020-11-29_di_2000-prng-1,daily_issda_2000,2000,rng-2000,1401,rng,num-start-181,181,536,1024.267335176468,False,,False,0,True,1000,True,0.0
./expes/v2_2020-11-29_di_2000-prng-1,daily_issda_2000,2000,rng-2000,1601,rng,num-start-11,11,536,1001.4682137966156,False,,False,0,True,1000,True,0.0
./expes/v2_2020-11-29_di_2000-prng-1,daily_issda_2000,2000,rng-2000,1601,rng,num-start-251,251,536,1031.7863862514496,False,,False,0,True,1000,True,0.0
./expes/v2_2020-11-29_di_2000-prng-1,daily_issda_2000,2000,rng-2000,1001,rng,num-start-131,131,536,1016.9009172916412,False,,False,0,True,1000,True,0.0
./expes/v2_2020-11-29_di_2000-prng-1,daily_issda_2000,2000,rng-2000,601,rng,num-start-71,71,536,1009.6090941429138,False,,False,0,True,1000,True,0.0
./expes/v2_2020-11-29_di_2000-prng-1,daily_issda_2000,2000,rng-2000,601,rng,num-start-1,1,536,1.1108295917510986,False,,False,2,False,1000,True,1.0
./expes/v2_2020-11-29_di_2000-prng-1,daily_issda_2000,2000,rng-2000,801,rng,num-start-211,211,536,1028.170372247696,False,,False,0,True,1000,True,0.0
./expes/v2_2020-11-29_di_2000-prng-1,daily_issda_2000,2000,rng-2000,1,rng,num-start-251,251,536,32.435096740722656,True,,True,1,False,1000,True,1.0
./expes/v2_2020-11-29_di_2000-prng-1,daily_issda_2000,2000,rng-2000,1,rng,num-start-241,241,536,30.226550817489624,True,,True,1,False,1000,True,1.0
./expes/v2_2020-11-29_di_2000-prng-1,daily_issda_2000,2000,rng-2000,601,rng,num-start-71,71,536,1009.0210301876068,False,,False,0,True,1000,True,0.0
./expes/v2_2020-11-29_di_2000-prng-1,daily_issda_2000,2000,rng-2000,801,rng,num-start-191,191,536,1025.4867849349976,False,,False,0,True,1000,True,0.0
./expes/v2_2020-11-29_di_2000-prng-1,daily_issda_2000,2000,rng-2000,201,rng,num-start-231,231,536,1029.4866976737976,False,,False,0,True,1000,True,0.0
./expes/v2_2020-11-29_di_2000-prng-1,daily_issda_2000,2000,rng-2000,601,rng,num-start-141,141,536,1018.6393749713898,False,,False,0,True,1000,True,0.0
./expes/v2_2020-11-29_di_2000-prng-1,daily_issda_2000,2000,rng-2000,401,rng,num-start-181,181,536,1022.9048910140991,False,,False,0,True,1000,True,0.0
./expes/v2_2020-11-29_di_2000-prng-1,daily_issda_2000,2000,rng-2000,401,rng,num-start-241,241,536,1031.0466046333313,False,,False,0,True,1000,True,0.0
./expes/v2_2020-11-29_di_2000-prng-1,daily_issda_2000,2000,rng-2000,401,rng,num-start-91,91,536,1011.7501873970032,False,,False,0,True,1000,True,0.0
./expes/v2_2020-11-29_di_2000-prng-1,daily_issda_2000,2000,rng-2000,1401,rng,num-start-131,131,536,1016.7197737693787,False,,False,0,True,1000,True,0.0
./expes/v2_2020-11-29_di_2000-prng-1,daily_issda_2000,2000,rng-2000,801,rng,num-start-61,61,536,1007.7297487258911,False,,False,0,True,1000,True,0.0
./expes/v2_2020-11-29_di_2000-prng-1,daily_issda_2000,2000,rng-2000,1601,rng,num-start-241,241,536,1031.3559057712555,False,,False,0,True,1000,True,0.0
./expes/v2_2020-11-29_di_2000-prng-1,daily_issda_2000,2000,rng-2000,1201,rng,num-start-171,171,536,1020.0417234897614,False,,False,0,True,1000,True,0.0
./expes/v2_2020-11-29_di_2000-prng-1,daily_issda_2000,2000,rng-2000,801,rng,num-start-121,121,536,1016.0968263149261,False,,False,0,True,1000,True,0.0
./expes/v2_2020-11-29_di_2000-prng-1,daily_issda_2000,2000,rng-2000,201,rng,num-start-21,21,536,1002.8592164516449,False,,False,0,True,1000,True,0.0
./expes/v2_2020-11-29_di_2000-prng-1,daily_issda_2000,2000,rng-2000,1,rng,num-start-251,251,536,33.159656047821045,True,,True,1,False,1000,True,1.0
./expes/v2_2020-11-29_di_2000-prng-1,daily_issda_2000,2000,rng-2000,601,rng,num-start-91,91,536,1012.1340274810791,False,,False,0,True,1000,True,0.0
./expes/v2_2020-11-29_di_2000-prng-1,daily_issda_2000,2000,rng-2000,1201,rng,num-start-181,181,536,1021.049989938736,False,,False,0,True,1000,True,0.0
./expes/v2_2020-11-29_di_2000-prng-1,daily_issda_2000,2000,rng-2000,401,rng,num-start-201,201,536,1026.9654014110565,False,,False,0,True,1000,True,0.0
./expes/v2_2020-11-29_di_2000-prng-1,daily_issda_2000,2000,rng-2000,201,rng,num-start-161,161,536,1020.2547292709351,False,,False,0,True,1000,True,0.0
./expes/v2_2020-11-29_di_2000-prng-1,daily_issda_2000,2000,rng-2000,1601,rng,num-start-91,91,536,1011.5068049430847,False,,False,0,True,1000,True,0.0
./expes/v2_2020-11-29_di_2000-prng-1,daily_issda_2000,2000,rng-2000,1801,rng,num-start-71,71,536,1010.9881458282471,False,,False,0,True,1000,True,0.0
./expes/v2_2020-11-29_di_2000-prng-1,daily_issda_2000,2000,rng-2000,401,rng,num-start-261,261,536,1034.5217218399048,False,,False,0,True,1000,True,0.0
./expes/v2_2020-11-29_di_2000-prng-1,daily_issda_2000,2000,rng-2000,1,rng,num-start-181,181,536,24.45808744430542,True,,True,1,False,1000,True,1.0
./expes/v2_2020-11-29_di_2000-prng-1,daily_issda_2000,2000,rng-2000,801,rng,num-start-71,71,536,1008.71138048172,False,,False,0,True,1000,True,0.0
./expes/v2_2020-11-29_di_2000-prng-1,daily_issda_2000,2000,rng-2000,201,rng,num-start-211,211,536,1026.5814564228058,False,,False,0,True,1000,True,0.0
./expes/v2_2020-11-29_di_2000-prng-1,daily_issda_2000,2000,rng-2000,1601,rng,num-start-271,271,536,1034.2262840270996,False,,False,0,True,1000,True,0.0
./expes/v2_2020-11-29_di_2000-prng-1,daily_issda_2000,2000,rng-2000,1001,rng,num-start-241,241,536,1032.5979630947113,False,,False,0,True,1000,True,0.0
./expes/v2_2020-11-29_di_2000-prng-1,daily_issda_2000,2000,rng-2000,601,rng,num-start-241,241,536,1029.8704822063446,False,,False,0,True,1000,True,0.0
./expes/v2_2020-11-29_di_2000-prng-1,daily_issda_2000,2000,rng-2000,1201,rng,num-start-11,11,536,1001.50017786026,False,,False,0,True,1000,True,0.0
./expes/v2_2020-11-29_di_2000-prng-1,daily_issda_2000,2000,rng-2000,1201,rng,num-start-91,91,536,1012.1048882007599,False,,False,0,True,1000,True,0.0
./expes/v2_2020-11-29_di_2000-prng-1,daily_issda_2000,2000,rng-2000,601,rng,num-start-201,201,536,1028.1301913261414,False,,False,0,True,1000,True,0.0
./expes/v2_2020-11-29_di_2000-prng-1,daily_issda_2000,2000,rng-2000,1601,rng,num-start-31,31,536,1004.11115026474,False,,False,0,True,1000,True,0.0
