expe,clients,clients_size,clients_subset,agg_size,method,days,days_size,days_total,time,valid,valid_sum,success,nsols,wall_hit,wall_time,pooled,valid_sums
./expes/v2_2020-12-01_dh_4000-prng-1,30_issda_4000,4000,rng-4000,1,rng,num-start-10001,10001,25726,3548.0595927238464,True,,True,1,False,1000,True,1.0
./expes/v2_2020-12-01_dh_4000-prng-1,30_issda_4000,4000,rng-4000,1001,rng,num-start-12001,12001,25726,5116.5570068359375,False,,False,1,True,1000,True,0.0
./expes/v2_2020-12-01_dh_4000-prng-1,30_issda_4000,4000,rng-4000,3501,rng,num-start-3001,3001,25726,2040.0940940380096,False,,False,1,True,1000,True,0.0
./expes/v2_2020-12-01_dh_4000-prng-1,30_issda_4000,4000,rng-4000,1,rng,num-start-3001,3001,25726,1018.3359150886536,True,,True,1,False,1000,True,1.0
./expes/v2_2020-12-01_dh_4000-prng-1,30_issda_4000,4000,rng-4000,2001,rng,num-start-15001,15001,25726,6202.854589700699,False,,False,0,True,1000,True,0.0
./expes/v2_2020-12-01_dh_4000-prng-1,30_issda_4000,4000,rng-4000,2501,rng,num-start-12001,12001,25726,5147.656577825546,False,,False,1,True,1000,True,0.0
./expes/v2_2020-12-01_dh_4000-prng-1,30_issda_4000,4000,rng-4000,2001,rng,num-start-14001,14001,25726,5804.816477537155,False,,False,1,True,1000,True,0.0
./expes/v2_2020-12-01_dh_4000-prng-1,30_issda_4000,4000,rng-4000,1501,rng,num-start-4001,4001,25726,2404.383509874344,False,,False,1,True,1000,True,0.0
./expes/v2_2020-12-01_dh_4000-prng-1,30_issda_4000,4000,rng-4000,3001,rng,num-start-4001,4001,25726,2377.8993105888367,False,,False,1,True,1000,True,0.0
./expes/v2_2020-12-01_dh_4000-prng-1,30_issda_4000,4000,rng-4000,2001,rng,num-start-1,1,25726,0.5126609802246094,False,,False,2,False,1000,True,1.0
./expes/v2_2020-12-01_dh_4000-prng-1,30_issda_4000,4000,rng-4000,1001,rng,num-start-2001,2001,25726,1677.9599947929382,False,,False,1,True,1000,True,0.0
./expes/v2_2020-12-01_dh_4000-prng-1,30_issda_4000,4000,rng-4000,3501,rng,num-start-7001,7001,25726,3419.5790481567383,False,,False,1,True,1000,True,0.0
./expes/v2_2020-12-01_dh_4000-prng-1,30_issda_4000,4000,rng-4000,3501,rng,num-start-9001,9001,25726,4088.0782828330994,False,,False,1,True,1000,True,0.0
./expes/v2_2020-12-01_dh_4000-prng-1,30_issda_4000,4000,rng-4000,2001,rng,num-start-4001,4001,25726,2313.0939376354218,False,,False,1,True,1000,True,0.0
./expes/v2_2020-12-01_dh_4000-prng-1,30_issda_4000,4000,rng-4000,1001,rng,num-start-8001,8001,25726,3746.1695141792297,False,,False,1,True,1000,True,0.0
./expes/v2_2020-12-01_dh_4000-prng-1,30_issda_4000,4000,rng-4000,3501,rng,num-start-10001,10001,25726,4380.382494211197,False,,False,1,True,1000,True,0.0
./expes/v2_2020-12-01_dh_4000-prng-1,30_issda_4000,4000,rng-4000,2001,rng,num-start-10001,10001,25726,4409.2845287323,False,,False,1,True,1000,True,0.0
./expes/v2_2020-12-01_dh_4000-prng-1,30_issda_4000,4000,rng-4000,2001,rng,num-start-10001,10001,25726,4431.879856586456,False,,False,1,True,1000,True,0.0
./expes/v2_2020-12-01_dh_4000-prng-1,30_issda_4000,4000,rng-4000,3001,rng,num-start-15001,15001,25726,6007.443288564682,False,,False,1,True,1000,True,0.0
./expes/v2_2020-12-01_dh_4000-prng-1,30_issda_4000,4000,rng-4000,1,rng,num-start-1,1,25726,0.5052845478057861,False,,False,2,False,1000,True,1.0
./expes/v2_2020-12-01_dh_4000-prng-1,30_issda_4000,4000,rng-4000,3001,rng,num-start-7001,7001,25726,3350.5894327163696,False,,False,1,True,1000,True,0.0
./expes/v2_2020-12-01_dh_4000-prng-1,30_issda_4000,4000,rng-4000,2501,rng,num-start-4001,4001,25726,2364.0282583236694,False,,False,1,True,1000,True,0.0
./expes/v2_2020-12-01_dh_4000-prng-1,30_issda_4000,4000,rng-4000,1501,rng,num-start-16001,16001,25726,6530.204252481461,False,,False,1,True,1000,True,0.0
