expe,clients,clients_size,clients_subset,agg_size,agg_size_pc,method,days,days_size,days_total,noise_method,time,valid,valid_sum,success,nsols,wall_hit,wall_time,pooled,valid_sums
./expes/v2_2021-01-07_hi_4500-prng-w5-d500-1,30_issda-4500,4500,rng-4500,1904,42,rng,num-start-1501,1501,25726,normal,463.7215790748596,False,,False,2,False,5000,True,0.0
./expes/v2_2021-01-07_hi_4500-prng-w5-d500-1,30_issda-4500,4500,rng-4500,784,17,rng,num-start-14001,14001,25726,normal,4535.04855632782,False,,False,2,False,5000,True,0.0
./expes/v2_2021-01-07_hi_4500-prng-w5-d500-1,30_issda-4500,4500,rng-4500,336,7,rng,num-start-5001,5001,25726,normal,3521.981661081314,False,,False,2,False,5000,True,0.0
./expes/v2_2021-01-07_hi_4500-prng-w5-d500-1,30_issda-4500,4500,rng-4500,896,19,rng,num-start-15001,15001,25726,normal,5265.973939180374,False,,False,2,False,5000,True,0.0
./expes/v2_2021-01-07_hi_4500-prng-w5-d500-1,30_issda-4500,4500,rng-4500,1008,22,rng,num-start-501,501,25726,normal,143.15085744857788,False,,False,2,False,5000,True,0.0
./expes/v2_2021-01-07_hi_4500-prng-w5-d500-1,30_issda-4500,4500,rng-4500,672,14,rng,num-start-9501,9501,25726,normal,5395.196244478226,False,,False,2,False,5000,True,0.0
./expes/v2_2021-01-07_hi_4500-prng-w5-d500-1,30_issda-4500,4500,rng-4500,2016,44,rng,num-start-7501,7501,25726,normal,4103.768701314926,False,,False,2,False,5000,True,0.0
