expe,clients,clients_size,clients_subset,agg_size,agg_size_pc,method,days,days_size,days_total,noise_method,time,valid,valid_sum,success,score_avg,score_min,score_max,nsols,oracle,wall_hit,wall_time,pooled,pool_size,uuid,infeasible,optimal,valid_sums
./expes/v2_2021-04-10_issda-30_500-prng-1-w1-p2,30_issda-500,500,first-500,450,90,rng,num-start-400,400,25726,classic,22.53223419189453,True,,True,1.0,1.0,1.0,1,"['1', '2', '3', '4', '5', '6', '7', '8', '9', '10', '11', '12', '13', '14', '15', '16', '17', '18', '19', '20', '21', '22', '23', '24', '25', '27', '29', '31', '32', '33', '34', '35', '36', '37', '38', '39', '40', '42', '43', '44', '45', '46', '47', '48', '49', '50', '51', '52', '53', '54', '55', '56', '57', '58', '59', '60', '61', '62', '63', '64', '65', '67', '69', '70', '71', '72', '73', '75', '76', '77', '78', '79', '80', '81', '82', '83', '84', '85', '86', '87', '88', '89', '91', '92', '93', '94', '95', '96', '97', '98', '100', '102', '103', '105', '106', '107', '108', '109', '110', '111', '112', '113', '114', '115', '116', '117', '118', '119', '120', '121', '123', '124', '125', '126', '127', '128', '129', '130', '131', '133', '134', '136', '137', '138', '139', '140', '141', '142', '143', '144', '145', '146', '149', '150', '151', '152', '153', '154', '156', '157', '158', '159', '160', '161', '162', '163', '164', '165', '166', '167', '168', '170', '171', '172', '173', '174', '175', '176', '177', '178', '179', '180', '181', '182', '183', '184', '185', '187', '188', '189', '190', '191', '192', '194', '195', '196', '197', '198', '200', '201', '202', '203', '204', '205', '206', '207', '208', '209', '210', '211', '212', '213', '214', '216', '217', '219', '220', '221', '222', '223', '224', '225', '227', '228', '229', '230', '231', '232', '233', '234', '235', '236', '237', '238', '240', '241', '242', '243', '245', '246', '247', '249', '250', '251', '252', '253', '254', '255', '256', '257', '258', '259', '260', '261', '262', '263', '264', '265', '266', '267', '269', '270', '271', '272', '273', '274', '276', '277', '278', '279', '280', '281', '282', '283', '284', '285', '286', '287', '288', '289', '290', '292', '293', '294', '295', '296', '297', '300', '301', '302', '303', '304', '305', '306', '307', '308', '309', '310', '311', '312', '313', '314', '315', '316', '317', '318', '319', '320', '322', '323', '324', '325', '326', '327', '328', '329', '330', '331', '332', '333', '334', '335', '337', '338', '339', '340', '341', '342', '343', '344', '345', '346', '347', '348', '349', '350', '351', '352', '353', '354', '355', '356', '357', '359', '360', '361', '363', '364', '365', '366', '367', '368', '369', '370', '371', '372', '373', '374', '375', '376', '378', '379', '380', '381', '382', '383', '384', '385', '386', '387', '388', '389', '390', '391', '392', '393', '394', '395', '398', '399', '400', '401', '402', '403', '404', '405', '406', '407', '408', '409', '411', '412', '413', '414', '415', '416', '417', '418', '419', '420', '421', '423', '424', '425', '427', '428', '429', '431', '432', '433', '434', '435', '436', '437', '438', '439', '440', '441', '442', '444', '445', '446', '447', '448', '449', '450', '451', '452', '453', '454', '455', '457', '458', '459', '460', '461', '462', '463', '465', '466', '467', '468', '469', '470', '471', '472', '473', '474', '475', '477', '478', '480', '481', '482', '483', '484', '487', '488', '489', '490', '491', '492', '493', '494', '495', '496', '497', '498', '499', '500']",False,1000,True,2,378da1d449,0.0,1.0,1.0
./expes/v2_2021-04-10_issda-30_500-prng-1-w1-p2,30_issda-500,500,first-500,350,70,rng,num-start-100,100,25726,classic,1004.6348986625671,False,,False,0,,,0,"['1', '3', '5', '9', '10', '11', '13', '15', '16', '17', '18', '19', '20', '21', '23', '24', '26', '27', '28', '29', '30', '31', '35', '37', '38', '39', '40', '42', '43', '44', '45', '47', '48', '49', '50', '52', '53', '54', '55', '57', '58', '59', '60', '61', '63', '66', '68', '70', '72', '73', '74', '75', '76', '78', '79', '80', '81', '82', '83', '85', '86', '87', '88', '89', '91', '93', '94', '95', '97', '98', '99', '102', '107', '108', '109', '112', '113', '114', '116', '117', '119', '120', '121', '124', '126', '127', '128', '129', '130', '131', '132', '133', '135', '136', '137', '138', '140', '141', '143', '146', '147', '149', '152', '156', '157', '158', '159', '160', '162', '164', '167', '168', '169', '170', '172', '173', '175', '177', '180', '182', '183', '184', '185', '186', '187', '188', '191', '192', '195', '197', '198', '200', '201', '202', '203', '205', '206', '207', '208', '209', '210', '211', '212', '213', '214', '215', '217', '218', '219', '221', '223', '225', '226', '228', '229', '230', '232', '233', '234', '235', '237', '238', '239', '241', '242', '243', '245', '246', '248', '249', '250', '251', '252', '255', '256', '257', '258', '259', '260', '261', '262', '263', '264', '265', '266', '267', '268', '269', '270', '272', '273', '275', '277', '279', '280', '281', '283', '286', '287', '288', '291', '293', '294', '295', '298', '300', '302', '303', '304', '305', '306', '310', '311', '313', '315', '316', '317', '319', '320', '322', '326', '327', '329', '332', '334', '335', '336', '338', '339', '340', '343', '344', '345', '346', '348', '349', '350', '351', '352', '354', '355', '357', '358', '359', '361', '362', '363', '364', '366', '367', '368', '369', '371', '372', '373', '374', '375', '377', '378', '379', '381', '382', '383', '385', '386', '387', '389', '390', '391', '392', '393', '396', '397', '398', '400', '401', '402', '404', '405', '406', '407', '408', '409', '410', '411', '412', '413', '415', '416', '417', '418', '419', '420', '421', '423', '426', '428', '429', '430', '431', '435', '436', '437', '438', '440', '441', '442', '444', '446', '448', '449', '451', '452', '453', '454', '455', '456', '457', '458', '459', '460', '461', '462', '463', '465', '466', '467', '469', '470', '471', '472', '474', '476', '478', '479', '480', '481', '482', '484', '486', '487', '489', '490', '491', '492', '493', '494', '497', '498', '499']",True,1000,True,2,3028235d85,0.0,0.0,0.0
