expe,clients,clients_size,clients_subset,agg_size,method,days,days_size,days_total,time,valid,valid_sum,success,nsols,wall_hit,wall_time,pooled,valid_sums
./expes/v2_2020-11-23_di_100-prng-3,daily_issda_100,100,rng-100,71,rng,num-start-211,211,536,2.1497414112091064,True,,True,1,False,1000,True,1.0
./expes/v2_2020-11-23_di_100-prng-3,daily_issda_100,100,rng-100,11,rng,num-start-381,381,536,3.554783344268799,True,,True,1,False,1000,True,1.0
./expes/v2_2020-11-23_di_100-prng-3,daily_issda_100,100,rng-100,41,rng,num-start-491,491,536,4.495900392532349,True,,True,1,False,1000,True,1.0
./expes/v2_2020-11-23_di_100-prng-3,daily_issda_100,100,rng-100,91,rng,num-start-331,331,536,3.040966033935547,True,,True,1,False,1000,True,1.0
./expes/v2_2020-11-23_di_100-prng-3,daily_issda_100,100,rng-100,11,rng,num-start-291,291,536,2.940782308578491,True,,True,1,False,1000,True,1.0
./expes/v2_2020-11-23_di_100-prng-3,daily_issda_100,100,rng-100,11,rng,num-start-221,221,536,2.1900782585144043,True,,True,1,False,1000,True,1.0
./expes/v2_2020-11-23_di_100-prng-3,daily_issda_100,100,rng-100,41,rng,num-start-381,381,536,3.7820215225219727,True,,True,1,False,1000,True,1.0
./expes/v2_2020-11-23_di_100-prng-3,daily_issda_100,100,rng-100,41,rng,num-start-381,381,536,3.550994634628296,True,,True,1,False,1000,True,1.0
./expes/v2_2020-11-23_di_100-prng-3,daily_issda_100,100,rng-100,91,rng,num-start-331,331,536,3.094072103500366,True,,True,1,False,1000,True,1.0
./expes/v2_2020-11-23_di_100-prng-3,daily_issda_100,100,rng-100,11,rng,num-start-481,481,536,4.717185735702515,True,,True,1,False,1000,True,1.0
./expes/v2_2020-11-23_di_100-prng-3,daily_issda_100,100,rng-100,91,rng,num-start-491,491,536,4.648505449295044,True,,True,1,False,1000,True,1.0
./expes/v2_2020-11-23_di_100-prng-3,daily_issda_100,100,rng-100,51,rng,num-start-21,21,536,1002.8164682388306,False,,False,0,True,1000,True,0.0
./expes/v2_2020-11-23_di_100-prng-3,daily_issda_100,100,rng-100,51,rng,num-start-351,351,536,3.839402198791504,True,,True,1,False,1000,True,1.0
./expes/v2_2020-11-23_di_100-prng-3,daily_issda_100,100,rng-100,71,rng,num-start-131,131,536,1.5591590404510498,True,,True,1,False,1000,True,1.0
./expes/v2_2020-11-23_di_100-prng-3,daily_issda_100,100,rng-100,81,rng,num-start-41,41,536,0.6783678531646729,True,,True,1,False,1000,True,1.0
./expes/v2_2020-11-23_di_100-prng-3,daily_issda_100,100,rng-100,41,rng,num-start-451,451,536,4.737226963043213,True,,True,1,False,1000,True,1.0
./expes/v2_2020-11-23_di_100-prng-3,daily_issda_100,100,rng-100,61,rng,num-start-11,11,536,1001.0571782588959,False,,False,0,True,1000,True,0.0
./expes/v2_2020-11-23_di_100-prng-3,daily_issda_100,100,rng-100,51,rng,num-start-411,411,536,4.121104955673218,True,,True,1,False,1000,True,1.0
./expes/v2_2020-11-23_di_100-prng-3,daily_issda_100,100,rng-100,21,rng,num-start-301,301,536,3.1717629432678223,True,,True,1,False,1000,True,1.0
./expes/v2_2020-11-23_di_100-prng-3,daily_issda_100,100,rng-100,61,rng,num-start-351,351,536,3.8816449642181396,True,,True,1,False,1000,True,1.0
./expes/v2_2020-11-23_di_100-prng-3,daily_issda_100,100,rng-100,81,rng,num-start-471,471,536,5.082738399505615,True,,True,1,False,1000,True,1.0
./expes/v2_2020-11-23_di_100-prng-3,daily_issda_100,100,rng-100,1,rng,num-start-251,251,536,2.394911527633667,True,,True,1,False,1000,True,1.0
./expes/v2_2020-11-23_di_100-prng-3,daily_issda_100,100,rng-100,51,rng,num-start-121,121,536,1.3783941268920898,True,,True,1,False,1000,True,1.0
./expes/v2_2020-11-23_di_100-prng-3,daily_issda_100,100,rng-100,71,rng,num-start-81,81,536,0.9644896984100342,True,,True,1,False,1000,True,1.0
./expes/v2_2020-11-23_di_100-prng-3,daily_issda_100,100,rng-100,1,rng,num-start-101,101,536,1.0007140636444092,True,,True,1,False,1000,True,1.0
./expes/v2_2020-11-23_di_100-prng-3,daily_issda_100,100,rng-100,61,rng,num-start-151,151,536,1.6882004737854004,True,,True,1,False,1000,True,1.0
./expes/v2_2020-11-23_di_100-prng-3,daily_issda_100,100,rng-100,61,rng,num-start-181,181,536,2.0105621814727783,True,,True,1,False,1000,True,1.0
./expes/v2_2020-11-23_di_100-prng-3,daily_issda_100,100,rng-100,41,rng,num-start-101,101,536,1.1597907543182373,True,,True,1,False,1000,True,1.0
./expes/v2_2020-11-23_di_100-prng-3,daily_issda_100,100,rng-100,11,rng,num-start-431,431,536,4.349128484725952,True,,True,1,False,1000,True,1.0
./expes/v2_2020-11-23_di_100-prng-3,daily_issda_100,100,rng-100,61,rng,num-start-491,491,536,5.073782444000244,True,,True,1,False,1000,True,1.0
./expes/v2_2020-11-23_di_100-prng-3,daily_issda_100,100,rng-100,21,rng,num-start-191,191,536,2.1350295543670654,True,,True,1,False,1000,True,1.0
./expes/v2_2020-11-23_di_100-prng-3,daily_issda_100,100,rng-100,51,rng,num-start-351,351,536,3.715252637863159,True,,True,1,False,1000,True,1.0
./expes/v2_2020-11-23_di_100-prng-3,daily_issda_100,100,rng-100,1,rng,num-start-141,141,536,1.2920286655426025,True,,True,1,False,1000,True,1.0
./expes/v2_2020-11-23_di_100-prng-3,daily_issda_100,100,rng-100,61,rng,num-start-261,261,536,2.778726816177368,True,,True,1,False,1000,True,1.0
./expes/v2_2020-11-23_di_100-prng-3,daily_issda_100,100,rng-100,71,rng,num-start-341,341,536,3.6283116340637207,True,,True,1,False,1000,True,1.0
./expes/v2_2020-11-23_di_100-prng-3,daily_issda_100,100,rng-100,71,rng,num-start-391,391,536,3.856992721557617,True,,True,1,False,1000,True,1.0
./expes/v2_2020-11-23_di_100-prng-3,daily_issda_100,100,rng-100,61,rng,num-start-391,391,536,3.956505060195923,True,,True,1,False,1000,True,1.0
./expes/v2_2020-11-23_di_100-prng-3,daily_issda_100,100,rng-100,71,rng,num-start-261,261,536,2.7998392581939697,True,,True,1,False,1000,True,1.0
./expes/v2_2020-11-23_di_100-prng-3,daily_issda_100,100,rng-100,81,rng,num-start-381,381,536,3.6957857608795166,True,,True,1,False,1000,True,1.0
./expes/v2_2020-11-23_di_100-prng-3,daily_issda_100,100,rng-100,1,rng,num-start-1,1,536,0.08625245094299316,False,,False,2,False,1000,True,1.0
./expes/v2_2020-11-23_di_100-prng-3,daily_issda_100,100,rng-100,81,rng,num-start-221,221,536,2.185359477996826,True,,True,1,False,1000,True,1.0
./expes/v2_2020-11-23_di_100-prng-3,daily_issda_100,100,rng-100,71,rng,num-start-121,121,536,1.3543081283569336,True,,True,1,False,1000,True,1.0
./expes/v2_2020-11-23_di_100-prng-3,daily_issda_100,100,rng-100,51,rng,num-start-91,91,536,1.015312671661377,True,,True,1,False,1000,True,1.0
./expes/v2_2020-11-23_di_100-prng-3,daily_issda_100,100,rng-100,41,rng,num-start-401,401,536,3.844667911529541,True,,True,1,False,1000,True,1.0
./expes/v2_2020-11-23_di_100-prng-3,daily_issda_100,100,rng-100,61,rng,num-start-21,21,536,1020.9840452671051,False,,False,0,True,1000,True,0.0
./expes/v2_2020-11-23_di_100-prng-3,daily_issda_100,100,rng-100,81,rng,num-start-281,281,536,2.838733673095703,True,,True,1,False,1000,True,1.0
./expes/v2_2020-11-23_di_100-prng-3,daily_issda_100,100,rng-100,61,rng,num-start-341,341,536,3.7824132442474365,True,,True,1,False,1000,True,1.0
./expes/v2_2020-11-23_di_100-prng-3,daily_issda_100,100,rng-100,21,rng,num-start-131,131,536,1.5219883918762207,True,,True,1,False,1000,True,1.0
./expes/v2_2020-11-23_di_100-prng-3,daily_issda_100,100,rng-100,31,rng,num-start-411,411,536,4.229010343551636,True,,True,1,False,1000,True,1.0
./expes/v2_2020-11-23_di_100-prng-3,daily_issda_100,100,rng-100,91,rng,num-start-101,101,536,1.087052583694458,True,,True,1,False,1000,True,1.0
./expes/v2_2020-11-23_di_100-prng-3,daily_issda_100,100,rng-100,81,rng,num-start-331,331,536,3.381711959838867,True,,True,1,False,1000,True,1.0
./expes/v2_2020-11-23_di_100-prng-3,daily_issda_100,100,rng-100,21,rng,num-start-91,91,536,1.0219042301177979,True,,True,1,False,1000,True,1.0
./expes/v2_2020-11-23_di_100-prng-3,daily_issda_100,100,rng-100,21,rng,num-start-81,81,536,0.9203770160675049,True,,True,1,False,1000,True,1.0
./expes/v2_2020-11-23_di_100-prng-3,daily_issda_100,100,rng-100,81,rng,num-start-411,411,536,4.12073540687561,True,,True,1,False,1000,True,1.0
./expes/v2_2020-11-23_di_100-prng-3,daily_issda_100,100,rng-100,81,rng,num-start-441,441,536,4.362578392028809,True,,True,1,False,1000,True,1.0
./expes/v2_2020-11-23_di_100-prng-3,daily_issda_100,100,rng-100,51,rng,num-start-441,441,536,4.416058540344238,True,,True,1,False,1000,True,1.0
./expes/v2_2020-11-23_di_100-prng-3,daily_issda_100,100,rng-100,61,rng,num-start-451,451,536,4.610283851623535,True,,True,1,False,1000,True,1.0
./expes/v2_2020-11-23_di_100-prng-3,daily_issda_100,100,rng-100,41,rng,num-start-311,311,536,3.4808366298675537,True,,True,1,False,1000,True,1.0
./expes/v2_2020-11-23_di_100-prng-3,daily_issda_100,100,rng-100,71,rng,num-start-461,461,536,4.854854583740234,True,,True,1,False,1000,True,1.0
./expes/v2_2020-11-23_di_100-prng-3,daily_issda_100,100,rng-100,11,rng,num-start-291,291,536,2.9584202766418457,True,,True,1,False,1000,True,1.0
./expes/v2_2020-11-23_di_100-prng-3,daily_issda_100,100,rng-100,51,rng,num-start-251,251,536,2.9402668476104736,True,,True,1,False,1000,True,1.0
./expes/v2_2020-11-23_di_100-prng-3,daily_issda_100,100,rng-100,11,rng,num-start-441,441,536,4.409291982650757,True,,True,1,False,1000,True,1.0
./expes/v2_2020-11-23_di_100-prng-3,daily_issda_100,100,rng-100,21,rng,num-start-331,331,536,3.2752227783203125,True,,True,1,False,1000,True,1.0
./expes/v2_2020-11-23_di_100-prng-3,daily_issda_100,100,rng-100,91,rng,num-start-121,121,536,1.3294050693511963,True,,True,1,False,1000,True,1.0
./expes/v2_2020-11-23_di_100-prng-3,daily_issda_100,100,rng-100,21,rng,num-start-61,61,536,0.7345468997955322,True,,True,1,False,1000,True,1.0
./expes/v2_2020-11-23_di_100-prng-3,daily_issda_100,100,rng-100,21,rng,num-start-491,491,536,5.087228536605835,True,,True,1,False,1000,True,1.0
./expes/v2_2020-11-23_di_100-prng-3,daily_issda_100,100,rng-100,1,rng,num-start-251,251,536,2.318617343902588,True,,True,1,False,1000,True,1.0
./expes/v2_2020-11-23_di_100-prng-3,daily_issda_100,100,rng-100,91,rng,num-start-221,221,536,2.3604376316070557,True,,True,1,False,1000,True,1.0
./expes/v2_2020-11-23_di_100-prng-3,daily_issda_100,100,rng-100,61,rng,num-start-111,111,536,1.2265052795410156,True,,True,1,False,1000,True,1.0
./expes/v2_2020-11-23_di_100-prng-3,daily_issda_100,100,rng-100,1,rng,num-start-351,351,536,3.45815372467041,True,,True,1,False,1000,True,1.0
./expes/v2_2020-11-23_di_100-prng-3,daily_issda_100,100,rng-100,1,rng,num-start-101,101,536,0.9302880764007568,True,,True,1,False,1000,True,1.0
./expes/v2_2020-11-23_di_100-prng-3,daily_issda_100,100,rng-100,1,rng,num-start-151,151,536,1.438868522644043,True,,True,1,False,1000,True,1.0
./expes/v2_2020-11-23_di_100-prng-3,daily_issda_100,100,rng-100,81,rng,num-start-51,51,536,0.671929121017456,True,,True,1,False,1000,True,1.0
./expes/v2_2020-11-23_di_100-prng-3,daily_issda_100,100,rng-100,41,rng,num-start-321,321,536,3.2848868370056152,True,,True,1,False,1000,True,1.0
./expes/v2_2020-11-23_di_100-prng-3,daily_issda_100,100,rng-100,71,rng,num-start-61,61,536,0.7085745334625244,True,,True,1,False,1000,True,1.0
./expes/v2_2020-11-23_di_100-prng-3,daily_issda_100,100,rng-100,71,rng,num-start-221,221,536,2.2231199741363525,True,,True,1,False,1000,True,1.0
./expes/v2_2020-11-23_di_100-prng-3,daily_issda_100,100,rng-100,11,rng,num-start-271,271,536,2.8528590202331543,True,,True,1,False,1000,True,1.0
./expes/v2_2020-11-23_di_100-prng-3,daily_issda_100,100,rng-100,51,rng,num-start-151,151,536,1.6626982688903809,True,,True,1,False,1000,True,1.0
./expes/v2_2020-11-23_di_100-prng-3,daily_issda_100,100,rng-100,71,rng,num-start-291,291,536,3.2361748218536377,True,,True,1,False,1000,True,1.0
./expes/v2_2020-11-23_di_100-prng-3,daily_issda_100,100,rng-100,1,rng,num-start-281,281,536,2.560636281967163,True,,True,1,False,1000,True,1.0
./expes/v2_2020-11-23_di_100-prng-3,daily_issda_100,100,rng-100,21,rng,num-start-121,121,536,1.3279666900634766,True,,True,1,False,1000,True,1.0
./expes/v2_2020-11-23_di_100-prng-3,daily_issda_100,100,rng-100,61,rng,num-start-1,1,536,1.9159448146820068,False,,False,2,False,1000,True,1.0
./expes/v2_2020-11-23_di_100-prng-3,daily_issda_100,100,rng-100,11,rng,num-start-401,401,536,3.9705891609191895,True,,True,1,False,1000,True,1.0
./expes/v2_2020-11-23_di_100-prng-3,daily_issda_100,100,rng-100,81,rng,num-start-171,171,536,1.8893308639526367,True,,True,1,False,1000,True,1.0
./expes/v2_2020-11-23_di_100-prng-3,daily_issda_100,100,rng-100,21,rng,num-start-371,371,536,3.804035186767578,True,,True,1,False,1000,True,1.0
./expes/v2_2020-11-23_di_100-prng-3,daily_issda_100,100,rng-100,31,rng,num-start-481,481,536,4.89282751083374,True,,True,1,False,1000,True,1.0
./expes/v2_2020-11-23_di_100-prng-3,daily_issda_100,100,rng-100,81,rng,num-start-21,21,536,0.4329371452331543,True,,True,1,False,1000,True,1.0
./expes/v2_2020-11-23_di_100-prng-3,daily_issda_100,100,rng-100,21,rng,num-start-161,161,536,1.8417999744415283,True,,True,1,False,1000,True,1.0
./expes/v2_2020-11-23_di_100-prng-3,daily_issda_100,100,rng-100,61,rng,num-start-471,471,536,4.987615585327148,True,,True,1,False,1000,True,1.0
./expes/v2_2020-11-23_di_100-prng-3,daily_issda_100,100,rng-100,81,rng,num-start-411,411,536,4.144475221633911,True,,True,1,False,1000,True,1.0
./expes/v2_2020-11-23_di_100-prng-3,daily_issda_100,100,rng-100,41,rng,num-start-101,101,536,1.142751932144165,True,,True,1,False,1000,True,1.0
./expes/v2_2020-11-23_di_100-prng-3,daily_issda_100,100,rng-100,71,rng,num-start-271,271,536,2.714318037033081,True,,True,1,False,1000,True,1.0
./expes/v2_2020-11-23_di_100-prng-3,daily_issda_100,100,rng-100,11,rng,num-start-261,261,536,2.6669888496398926,True,,True,1,False,1000,True,1.0
./expes/v2_2020-11-23_di_100-prng-3,daily_issda_100,100,rng-100,31,rng,num-start-191,191,536,2.1268630027770996,True,,True,1,False,1000,True,1.0
./expes/v2_2020-11-23_di_100-prng-3,daily_issda_100,100,rng-100,91,rng,num-start-461,461,536,4.695469856262207,True,,True,1,False,1000,True,1.0
./expes/v2_2020-11-23_di_100-prng-3,daily_issda_100,100,rng-100,41,rng,num-start-461,461,536,5.1521594524383545,True,,True,1,False,1000,True,1.0
./expes/v2_2020-11-23_di_100-prng-3,daily_issda_100,100,rng-100,1,rng,num-start-21,21,536,0.19980645179748535,True,,True,1,False,1000,True,1.0
./expes/v2_2020-11-23_di_100-prng-3,daily_issda_100,100,rng-100,81,rng,num-start-1,1,536,1.4017302989959717,False,,False,2,False,1000,True,1.0
./expes/v2_2020-11-23_di_100-prng-3,daily_issda_100,100,rng-100,41,rng,num-start-281,281,536,2.8882670402526855,True,,True,1,False,1000,True,1.0
./expes/v2_2020-11-23_di_100-prng-3,daily_issda_100,100,rng-100,41,rng,num-start-51,51,536,0.6337037086486816,True,,True,1,False,1000,True,1.0
./expes/v2_2020-11-23_di_100-prng-3,daily_issda_100,100,rng-100,71,rng,num-start-481,481,536,5.073275804519653,True,,True,1,False,1000,True,1.0
./expes/v2_2020-11-23_di_100-prng-3,daily_issda_100,100,rng-100,51,rng,num-start-451,451,536,4.667782545089722,True,,True,1,False,1000,True,1.0
./expes/v2_2020-11-23_di_100-prng-3,daily_issda_100,100,rng-100,81,rng,num-start-241,241,536,2.457333564758301,True,,True,1,False,1000,True,1.0
