expe,clients,clients_size,clients_subset,agg_size,method,days,days_size,days_total,time,valid,valid_sum,success,nsols,wall_hit,wall_time,pooled,valid_sums
./expes/v2_2020-11-23_di_100-prng-3,daily_issda_100,100,rng-100,41,rng,num-start-91,91,536,1.1279280185699463,True,,True,1,False,1000,True,1.0
./expes/v2_2020-11-23_di_100-prng-3,daily_issda_100,100,rng-100,91,rng,num-start-401,401,536,3.8743200302124023,True,,True,1,False,1000,True,1.0
./expes/v2_2020-11-23_di_100-prng-3,daily_issda_100,100,rng-100,91,rng,num-start-141,141,536,1.5325920581817627,True,,True,1,False,1000,True,1.0
./expes/v2_2020-11-23_di_100-prng-3,daily_issda_100,100,rng-100,11,rng,num-start-161,161,536,1.7674329280853271,True,,True,1,False,1000,True,1.0
./expes/v2_2020-11-23_di_100-prng-3,daily_issda_100,100,rng-100,61,rng,num-start-151,151,536,1.6571285724639893,True,,True,1,False,1000,True,1.0
./expes/v2_2020-11-23_di_100-prng-3,daily_issda_100,100,rng-100,91,rng,num-start-151,151,536,1.6507408618927002,True,,True,1,False,1000,True,1.0
./expes/v2_2020-11-23_di_100-prng-3,daily_issda_100,100,rng-100,11,rng,num-start-251,251,536,2.489516019821167,True,,True,1,False,1000,True,1.0
./expes/v2_2020-11-23_di_100-prng-3,daily_issda_100,100,rng-100,21,rng,num-start-431,431,536,4.531046152114868,True,,True,1,False,1000,True,1.0
./expes/v2_2020-11-23_di_100-prng-3,daily_issda_100,100,rng-100,81,rng,num-start-451,451,536,4.509127855300903,True,,True,1,False,1000,True,1.0
./expes/v2_2020-11-23_di_100-prng-3,daily_issda_100,100,rng-100,91,rng,num-start-261,261,536,2.8979032039642334,True,,True,1,False,1000,True,1.0
./expes/v2_2020-11-23_di_100-prng-3,daily_issda_100,100,rng-100,81,rng,num-start-381,381,536,3.8693339824676514,True,,True,1,False,1000,True,1.0
./expes/v2_2020-11-23_di_100-prng-3,daily_issda_100,100,rng-100,1,rng,num-start-371,371,536,3.5381228923797607,True,,True,1,False,1000,True,1.0
./expes/v2_2020-11-23_di_100-prng-3,daily_issda_100,100,rng-100,21,rng,num-start-381,381,536,4.28782844543457,True,,True,1,False,1000,True,1.0
./expes/v2_2020-11-23_di_100-prng-3,daily_issda_100,100,rng-100,1,rng,num-start-81,81,536,0.7738945484161377,True,,True,1,False,1000,True,1.0
./expes/v2_2020-11-23_di_100-prng-3,daily_issda_100,100,rng-100,41,rng,num-start-491,491,536,4.924860715866089,True,,True,1,False,1000,True,1.0
./expes/v2_2020-11-23_di_100-prng-3,daily_issda_100,100,rng-100,51,rng,num-start-211,211,536,2.2790863513946533,True,,True,1,False,1000,True,1.0
./expes/v2_2020-11-23_di_100-prng-3,daily_issda_100,100,rng-100,91,rng,num-start-31,31,536,0.42021965980529785,True,,True,1,False,1000,True,1.0
./expes/v2_2020-11-23_di_100-prng-3,daily_issda_100,100,rng-100,71,rng,num-start-101,101,536,1.184328317642212,True,,True,1,False,1000,True,1.0
./expes/v2_2020-11-23_di_100-prng-3,daily_issda_100,100,rng-100,51,rng,num-start-161,161,536,1.8002901077270508,True,,True,1,False,1000,True,1.0
./expes/v2_2020-11-23_di_100-prng-3,daily_issda_100,100,rng-100,51,rng,num-start-51,51,536,0.6416144371032715,True,,True,1,False,1000,True,1.0
./expes/v2_2020-11-23_di_100-prng-3,daily_issda_100,100,rng-100,1,rng,num-start-251,251,536,2.353856086730957,True,,True,1,False,1000,True,1.0
./expes/v2_2020-11-23_di_100-prng-3,daily_issda_100,100,rng-100,71,rng,num-start-381,381,536,3.955716133117676,True,,True,1,False,1000,True,1.0
./expes/v2_2020-11-23_di_100-prng-3,daily_issda_100,100,rng-100,11,rng,num-start-1,1,536,0.9356536865234375,False,,False,2,False,1000,True,1.0
./expes/v2_2020-11-23_di_100-prng-3,daily_issda_100,100,rng-100,21,rng,num-start-181,181,536,2.0408382415771484,True,,True,1,False,1000,True,1.0
./expes/v2_2020-11-23_di_100-prng-3,daily_issda_100,100,rng-100,31,rng,num-start-331,331,536,3.4968700408935547,True,,True,1,False,1000,True,1.0
./expes/v2_2020-11-23_di_100-prng-3,daily_issda_100,100,rng-100,51,rng,num-start-11,11,536,1001.2557320594788,False,,False,0,True,1000,True,0.0
./expes/v2_2020-11-23_di_100-prng-3,daily_issda_100,100,rng-100,21,rng,num-start-101,101,536,1.1690340042114258,True,,True,1,False,1000,True,1.0
./expes/v2_2020-11-23_di_100-prng-3,daily_issda_100,100,rng-100,11,rng,num-start-471,471,536,5.150094270706177,True,,True,1,False,1000,True,1.0
./expes/v2_2020-11-23_di_100-prng-3,daily_issda_100,100,rng-100,11,rng,num-start-241,241,536,2.568676710128784,True,,True,1,False,1000,True,1.0
./expes/v2_2020-11-23_di_100-prng-3,daily_issda_100,100,rng-100,21,rng,num-start-31,31,536,0.5963082313537598,True,,True,1,False,1000,True,1.0
./expes/v2_2020-11-23_di_100-prng-3,daily_issda_100,100,rng-100,41,rng,num-start-41,41,536,0.890017032623291,True,,True,1,False,1000,True,1.0
./expes/v2_2020-11-23_di_100-prng-3,daily_issda_100,100,rng-100,81,rng,num-start-411,411,536,4.242103338241577,True,,True,1,False,1000,True,1.0
./expes/v2_2020-11-23_di_100-prng-3,daily_issda_100,100,rng-100,51,rng,num-start-401,401,536,4.2029969692230225,True,,True,1,False,1000,True,1.0
./expes/v2_2020-11-23_di_100-prng-3,daily_issda_100,100,rng-100,81,rng,num-start-1,1,536,2.063462734222412,False,,False,2,False,1000,True,1.0
./expes/v2_2020-11-23_di_100-prng-3,daily_issda_100,100,rng-100,1,rng,num-start-371,371,536,3.550445318222046,True,,True,1,False,1000,True,1.0
./expes/v2_2020-11-23_di_100-prng-3,daily_issda_100,100,rng-100,1,rng,num-start-471,471,536,4.539958477020264,True,,True,1,False,1000,True,1.0
./expes/v2_2020-11-23_di_100-prng-3,daily_issda_100,100,rng-100,11,rng,num-start-461,461,536,5.01704216003418,True,,True,1,False,1000,True,1.0
./expes/v2_2020-11-23_di_100-prng-3,daily_issda_100,100,rng-100,41,rng,num-start-141,141,536,1.7218194007873535,True,,True,1,False,1000,True,1.0
./expes/v2_2020-11-23_di_100-prng-3,daily_issda_100,100,rng-100,91,rng,num-start-451,451,536,4.6443190574646,True,,True,1,False,1000,True,1.0
./expes/v2_2020-11-23_di_100-prng-3,daily_issda_100,100,rng-100,91,rng,num-start-171,171,536,1.9604880809783936,True,,True,1,False,1000,True,1.0
./expes/v2_2020-11-23_di_100-prng-3,daily_issda_100,100,rng-100,71,rng,num-start-451,451,536,4.820083379745483,True,,True,1,False,1000,True,1.0
./expes/v2_2020-11-23_di_100-prng-3,daily_issda_100,100,rng-100,61,rng,num-start-271,271,536,2.9470908641815186,True,,True,1,False,1000,True,1.0
./expes/v2_2020-11-23_di_100-prng-3,daily_issda_100,100,rng-100,91,rng,num-start-271,271,536,2.83614182472229,True,,True,1,False,1000,True,1.0
./expes/v2_2020-11-23_di_100-prng-3,daily_issda_100,100,rng-100,71,rng,num-start-201,201,536,2.2718756198883057,True,,True,1,False,1000,True,1.0
./expes/v2_2020-11-23_di_100-prng-3,daily_issda_100,100,rng-100,21,rng,num-start-191,191,536,2.15043306350708,True,,True,1,False,1000,True,1.0
./expes/v2_2020-11-23_di_100-prng-3,daily_issda_100,100,rng-100,61,rng,num-start-471,471,536,5.06066370010376,True,,True,1,False,1000,True,1.0
./expes/v2_2020-11-23_di_100-prng-3,daily_issda_100,100,rng-100,1,rng,num-start-271,271,536,2.570263147354126,True,,True,1,False,1000,True,1.0
./expes/v2_2020-11-23_di_100-prng-3,daily_issda_100,100,rng-100,91,rng,num-start-281,281,536,2.9535973072052,True,,True,1,False,1000,True,1.0
./expes/v2_2020-11-23_di_100-prng-3,daily_issda_100,100,rng-100,81,rng,num-start-41,41,536,0.5509207248687744,True,,True,1,False,1000,True,1.0
./expes/v2_2020-11-23_di_100-prng-3,daily_issda_100,100,rng-100,31,rng,num-start-471,471,536,4.95573091506958,True,,True,1,False,1000,True,1.0
./expes/v2_2020-11-23_di_100-prng-3,daily_issda_100,100,rng-100,11,rng,num-start-51,51,536,0.6175916194915771,True,,True,1,False,1000,True,1.0
./expes/v2_2020-11-23_di_100-prng-3,daily_issda_100,100,rng-100,21,rng,num-start-161,161,536,1.8062381744384766,True,,True,1,False,1000,True,1.0
./expes/v2_2020-11-23_di_100-prng-3,daily_issda_100,100,rng-100,71,rng,num-start-111,111,536,1.2611346244812012,True,,True,1,False,1000,True,1.0
./expes/v2_2020-11-23_di_100-prng-3,daily_issda_100,100,rng-100,31,rng,num-start-291,291,536,3.289543390274048,True,,True,1,False,1000,True,1.0
./expes/v2_2020-11-23_di_100-prng-3,daily_issda_100,100,rng-100,1,rng,num-start-311,311,536,2.9620625972747803,True,,True,1,False,1000,True,1.0
./expes/v2_2020-11-23_di_100-prng-3,daily_issda_100,100,rng-100,51,rng,num-start-41,41,536,0.9435379505157471,True,,True,1,False,1000,True,1.0
./expes/v2_2020-11-23_di_100-prng-3,daily_issda_100,100,rng-100,1,rng,num-start-341,341,536,3.2619030475616455,True,,True,1,False,1000,True,1.0
./expes/v2_2020-11-23_di_100-prng-3,daily_issda_100,100,rng-100,1,rng,num-start-291,291,536,2.77669358253479,True,,True,1,False,1000,True,1.0
./expes/v2_2020-11-23_di_100-prng-3,daily_issda_100,100,rng-100,41,rng,num-start-241,241,536,2.5431339740753174,True,,True,1,False,1000,True,1.0
./expes/v2_2020-11-23_di_100-prng-3,daily_issda_100,100,rng-100,61,rng,num-start-421,421,536,4.342680215835571,True,,True,1,False,1000,True,1.0
./expes/v2_2020-11-23_di_100-prng-3,daily_issda_100,100,rng-100,41,rng,num-start-471,471,536,4.8948304653167725,True,,True,1,False,1000,True,1.0
./expes/v2_2020-11-23_di_100-prng-3,daily_issda_100,100,rng-100,61,rng,num-start-351,351,536,3.7574033737182617,True,,True,1,False,1000,True,1.0
./expes/v2_2020-11-23_di_100-prng-3,daily_issda_100,100,rng-100,71,rng,num-start-151,151,536,1.7159624099731445,True,,True,1,False,1000,True,1.0
./expes/v2_2020-11-23_di_100-prng-3,daily_issda_100,100,rng-100,71,rng,num-start-491,491,536,5.380038738250732,True,,True,1,False,1000,True,1.0
./expes/v2_2020-11-23_di_100-prng-3,daily_issda_100,100,rng-100,21,rng,num-start-271,271,536,2.813000202178955,True,,True,1,False,1000,True,1.0
./expes/v2_2020-11-23_di_100-prng-3,daily_issda_100,100,rng-100,91,rng,num-start-301,301,536,3.1732146739959717,True,,True,1,False,1000,True,1.0
./expes/v2_2020-11-23_di_100-prng-3,daily_issda_100,100,rng-100,91,rng,num-start-121,121,536,1.3948562145233154,True,,True,1,False,1000,True,1.0
./expes/v2_2020-11-23_di_100-prng-3,daily_issda_100,100,rng-100,31,rng,num-start-121,121,536,1.3925700187683105,True,,True,1,False,1000,True,1.0
./expes/v2_2020-11-23_di_100-prng-3,daily_issda_100,100,rng-100,51,rng,num-start-81,81,536,1.0164093971252441,True,,True,1,False,1000,True,1.0
./expes/v2_2020-11-23_di_100-prng-3,daily_issda_100,100,rng-100,41,rng,num-start-191,191,536,2.1992249488830566,True,,True,1,False,1000,True,1.0
./expes/v2_2020-11-23_di_100-prng-3,daily_issda_100,100,rng-100,31,rng,num-start-331,331,536,3.557788848876953,True,,True,1,False,1000,True,1.0
./expes/v2_2020-11-23_di_100-prng-3,daily_issda_100,100,rng-100,71,rng,num-start-61,61,536,0.7275524139404297,True,,True,1,False,1000,True,1.0
./expes/v2_2020-11-23_di_100-prng-3,daily_issda_100,100,rng-100,31,rng,num-start-331,331,536,3.5447418689727783,True,,True,1,False,1000,True,1.0
./expes/v2_2020-11-23_di_100-prng-3,daily_issda_100,100,rng-100,31,rng,num-start-311,311,536,3.337561845779419,True,,True,1,False,1000,True,1.0
./expes/v2_2020-11-23_di_100-prng-3,daily_issda_100,100,rng-100,71,rng,num-start-201,201,536,2.278827667236328,True,,True,1,False,1000,True,1.0
./expes/v2_2020-11-23_di_100-prng-3,daily_issda_100,100,rng-100,91,rng,num-start-1,1,536,0.9921915531158447,False,,False,2,False,1000,True,1.0
./expes/v2_2020-11-23_di_100-prng-3,daily_issda_100,100,rng-100,81,rng,num-start-391,391,536,4.22282338142395,True,,True,1,False,1000,True,1.0
./expes/v2_2020-11-23_di_100-prng-3,daily_issda_100,100,rng-100,31,rng,num-start-161,161,536,1.893570899963379,True,,True,1,False,1000,True,1.0
./expes/v2_2020-11-23_di_100-prng-3,daily_issda_100,100,rng-100,91,rng,num-start-51,51,536,0.6045591831207275,True,,True,1,False,1000,True,1.0
./expes/v2_2020-11-23_di_100-prng-3,daily_issda_100,100,rng-100,71,rng,num-start-11,11,536,1005.0427396297455,False,,False,0,True,1000,True,0.0
./expes/v2_2020-11-23_di_100-prng-3,daily_issda_100,100,rng-100,11,rng,num-start-451,451,536,4.593542098999023,True,,True,1,False,1000,True,1.0
./expes/v2_2020-11-23_di_100-prng-3,daily_issda_100,100,rng-100,21,rng,num-start-421,421,536,4.219433546066284,True,,True,1,False,1000,True,1.0
./expes/v2_2020-11-23_di_100-prng-3,daily_issda_100,100,rng-100,71,rng,num-start-181,181,536,2.0344796180725098,True,,True,1,False,1000,True,1.0
./expes/v2_2020-11-23_di_100-prng-3,daily_issda_100,100,rng-100,61,rng,num-start-81,81,536,1.012134313583374,True,,True,1,False,1000,True,1.0
./expes/v2_2020-11-23_di_100-prng-3,daily_issda_100,100,rng-100,91,rng,num-start-51,51,536,0.6026449203491211,True,,True,1,False,1000,True,1.0
./expes/v2_2020-11-23_di_100-prng-3,daily_issda_100,100,rng-100,41,rng,num-start-401,401,536,4.178694248199463,True,,True,1,False,1000,True,1.0
./expes/v2_2020-11-23_di_100-prng-3,daily_issda_100,100,rng-100,41,rng,num-start-71,71,536,0.8131535053253174,True,,True,1,False,1000,True,1.0
./expes/v2_2020-11-23_di_100-prng-3,daily_issda_100,100,rng-100,91,rng,num-start-81,81,536,0.8812229633331299,True,,True,1,False,1000,True,1.0
./expes/v2_2020-11-23_di_100-prng-3,daily_issda_100,100,rng-100,1,rng,num-start-251,251,536,2.333094596862793,True,,True,1,False,1000,True,1.0
./expes/v2_2020-11-23_di_100-prng-3,daily_issda_100,100,rng-100,1,rng,num-start-181,181,536,1.648867130279541,True,,True,1,False,1000,True,1.0
./expes/v2_2020-11-23_di_100-prng-3,daily_issda_100,100,rng-100,71,rng,num-start-241,241,536,2.561253070831299,True,,True,1,False,1000,True,1.0
./expes/v2_2020-11-23_di_100-prng-3,daily_issda_100,100,rng-100,21,rng,num-start-231,231,536,2.3755013942718506,True,,True,1,False,1000,True,1.0
./expes/v2_2020-11-23_di_100-prng-3,daily_issda_100,100,rng-100,91,rng,num-start-1,1,536,1.7177364826202393,False,,False,2,False,1000,True,1.0
./expes/v2_2020-11-23_di_100-prng-3,daily_issda_100,100,rng-100,61,rng,num-start-211,211,536,2.1702702045440674,True,,True,1,False,1000,True,1.0
./expes/v2_2020-11-23_di_100-prng-3,daily_issda_100,100,rng-100,61,rng,num-start-371,371,536,3.715629816055298,True,,True,1,False,1000,True,1.0
./expes/v2_2020-11-23_di_100-prng-3,daily_issda_100,100,rng-100,11,rng,num-start-301,301,536,3.2510807514190674,True,,True,1,False,1000,True,1.0
./expes/v2_2020-11-23_di_100-prng-3,daily_issda_100,100,rng-100,91,rng,num-start-21,21,536,0.32977795600891113,True,,True,1,False,1000,True,1.0
./expes/v2_2020-11-23_di_100-prng-3,daily_issda_100,100,rng-100,51,rng,num-start-301,301,536,3.385505199432373,True,,True,1,False,1000,True,1.0
./expes/v2_2020-11-23_di_100-prng-3,daily_issda_100,100,rng-100,61,rng,num-start-261,261,536,2.7563045024871826,True,,True,1,False,1000,True,1.0
./expes/v2_2020-11-23_di_100-prng-3,daily_issda_100,100,rng-100,1,rng,num-start-271,271,536,2.520631790161133,True,,True,1,False,1000,True,1.0
./expes/v2_2020-11-23_di_100-prng-3,daily_issda_100,100,rng-100,1,rng,num-start-171,171,536,1.6364185810089111,True,,True,1,False,1000,True,1.0
./expes/v2_2020-11-23_di_100-prng-3,daily_issda_100,100,rng-100,1,rng,num-start-101,101,536,1.0243828296661377,True,,True,1,False,1000,True,1.0
./expes/v2_2020-11-23_di_100-prng-3,daily_issda_100,100,rng-100,1,rng,num-start-421,421,536,3.9160075187683105,True,,True,1,False,1000,True,1.0
./expes/v2_2020-11-23_di_100-prng-3,daily_issda_100,100,rng-100,1,rng,num-start-131,131,536,1.2478654384613037,True,,True,1,False,1000,True,1.0
./expes/v2_2020-11-23_di_100-prng-3,daily_issda_100,100,rng-100,41,rng,num-start-141,141,536,1.5884778499603271,True,,True,1,False,1000,True,1.0
./expes/v2_2020-11-23_di_100-prng-3,daily_issda_100,100,rng-100,91,rng,num-start-251,251,536,2.508164882659912,True,,True,1,False,1000,True,1.0
./expes/v2_2020-11-23_di_100-prng-3,daily_issda_100,100,rng-100,1,rng,num-start-331,331,536,3.1489908695220947,True,,True,1,False,1000,True,1.0
./expes/v2_2020-11-23_di_100-prng-3,daily_issda_100,100,rng-100,61,rng,num-start-301,301,536,3.3278567790985107,True,,True,1,False,1000,True,1.0
./expes/v2_2020-11-23_di_100-prng-3,daily_issda_100,100,rng-100,61,rng,num-start-71,71,536,0.8500356674194336,True,,True,1,False,1000,True,1.0
./expes/v2_2020-11-23_di_100-prng-3,daily_issda_100,100,rng-100,51,rng,num-start-301,301,536,3.401431083679199,True,,True,1,False,1000,True,1.0
./expes/v2_2020-11-23_di_100-prng-3,daily_issda_100,100,rng-100,91,rng,num-start-431,431,536,4.345361709594727,True,,True,1,False,1000,True,1.0
./expes/v2_2020-11-23_di_100-prng-3,daily_issda_100,100,rng-100,11,rng,num-start-481,481,536,4.855085849761963,True,,True,1,False,1000,True,1.0
./expes/v2_2020-11-23_di_100-prng-3,daily_issda_100,100,rng-100,1,rng,num-start-321,321,536,3.1301863193511963,True,,True,1,False,1000,True,1.0
./expes/v2_2020-11-23_di_100-prng-3,daily_issda_100,100,rng-100,61,rng,num-start-181,181,536,2.071876287460327,True,,True,1,False,1000,True,1.0
./expes/v2_2020-11-23_di_100-prng-3,daily_issda_100,100,rng-100,91,rng,num-start-91,91,536,1.0791871547698975,True,,True,1,False,1000,True,1.0
./expes/v2_2020-11-23_di_100-prng-3,daily_issda_100,100,rng-100,11,rng,num-start-481,481,536,4.9242775440216064,True,,True,1,False,1000,True,1.0
./expes/v2_2020-11-23_di_100-prng-3,daily_issda_100,100,rng-100,51,rng,num-start-491,491,536,5.237804412841797,True,,True,1,False,1000,True,1.0
./expes/v2_2020-11-23_di_100-prng-3,daily_issda_100,100,rng-100,31,rng,num-start-201,201,536,2.4073004722595215,True,,True,1,False,1000,True,1.0
./expes/v2_2020-11-23_di_100-prng-3,daily_issda_100,100,rng-100,91,rng,num-start-271,271,536,2.777827262878418,True,,True,1,False,1000,True,1.0
./expes/v2_2020-11-23_di_100-prng-3,daily_issda_100,100,rng-100,51,rng,num-start-21,21,536,1001.961051940918,False,,False,0,True,1000,True,0.0
./expes/v2_2020-11-23_di_100-prng-3,daily_issda_100,100,rng-100,81,rng,num-start-111,111,536,1.2456567287445068,True,,True,1,False,1000,True,1.0
./expes/v2_2020-11-23_di_100-prng-3,daily_issda_100,100,rng-100,91,rng,num-start-401,401,536,4.09771203994751,True,,True,1,False,1000,True,1.0
./expes/v2_2020-11-23_di_100-prng-3,daily_issda_100,100,rng-100,61,rng,num-start-91,91,536,1.06646728515625,True,,True,1,False,1000,True,1.0
./expes/v2_2020-11-23_di_100-prng-3,daily_issda_100,100,rng-100,91,rng,num-start-381,381,536,3.8493292331695557,True,,True,1,False,1000,True,1.0
./expes/v2_2020-11-23_di_100-prng-3,daily_issda_100,100,rng-100,91,rng,num-start-381,381,536,3.7499845027923584,True,,True,1,False,1000,True,1.0
./expes/v2_2020-11-23_di_100-prng-3,daily_issda_100,100,rng-100,21,rng,num-start-241,241,536,2.6463496685028076,True,,True,1,False,1000,True,1.0
