expe,clients,clients_size,clients_subset,agg_size,method,days,days_size,days_total,time,valid,valid_sum,success,nsols,wall_hit,wall_time,pooled,valid_sums
./expes/v2_2020-11-23_di_100-prng-3,daily_issda_100,100,rng-100,91,rng,num-start-201,201,536,2.8532776832580566,True,,True,1,False,1000,True,1.0
./expes/v2_2020-11-23_di_100-prng-3,daily_issda_100,100,rng-100,31,rng,num-start-101,101,536,1.4617409706115723,True,,True,1,False,1000,True,1.0
./expes/v2_2020-11-23_di_100-prng-3,daily_issda_100,100,rng-100,1,rng,num-start-181,181,536,2.0839385986328125,True,,True,1,False,1000,True,1.0
./expes/v2_2020-11-23_di_100-prng-3,daily_issda_100,100,rng-100,71,rng,num-start-281,281,536,3.673701524734497,True,,True,1,False,1000,True,1.0
./expes/v2_2020-11-23_di_100-prng-3,daily_issda_100,100,rng-100,31,rng,num-start-251,251,536,3.1992788314819336,True,,True,1,False,1000,True,1.0
./expes/v2_2020-11-23_di_100-prng-3,daily_issda_100,100,rng-100,31,rng,num-start-311,311,536,4.0388031005859375,True,,True,1,False,1000,True,1.0
./expes/v2_2020-11-23_di_100-prng-3,daily_issda_100,100,rng-100,11,rng,num-start-361,361,536,4.589088439941406,True,,True,1,False,1000,True,1.0
./expes/v2_2020-11-23_di_100-prng-3,daily_issda_100,100,rng-100,41,rng,num-start-371,371,536,4.953711271286011,True,,True,1,False,1000,True,1.0
./expes/v2_2020-11-23_di_100-prng-3,daily_issda_100,100,rng-100,11,rng,num-start-191,191,536,2.530971050262451,True,,True,1,False,1000,True,1.0
./expes/v2_2020-11-23_di_100-prng-3,daily_issda_100,100,rng-100,61,rng,num-start-251,251,536,3.572293281555176,True,,True,1,False,1000,True,1.0
./expes/v2_2020-11-23_di_100-prng-3,daily_issda_100,100,rng-100,21,rng,num-start-51,51,536,0.8263657093048096,True,,True,1,False,1000,True,1.0
./expes/v2_2020-11-23_di_100-prng-3,daily_issda_100,100,rng-100,31,rng,num-start-141,141,536,1.9559524059295654,True,,True,1,False,1000,True,1.0
./expes/v2_2020-11-23_di_100-prng-3,daily_issda_100,100,rng-100,11,rng,num-start-481,481,536,6.21108603477478,True,,True,1,False,1000,True,1.0
./expes/v2_2020-11-23_di_100-prng-3,daily_issda_100,100,rng-100,61,rng,num-start-311,311,536,4.109105110168457,True,,True,1,False,1000,True,1.0
./expes/v2_2020-11-23_di_100-prng-3,daily_issda_100,100,rng-100,81,rng,num-start-361,361,536,4.659214496612549,True,,True,1,False,1000,True,1.0
./expes/v2_2020-11-23_di_100-prng-3,daily_issda_100,100,rng-100,61,rng,num-start-101,101,536,1.4174561500549316,True,,True,1,False,1000,True,1.0
./expes/v2_2020-11-23_di_100-prng-3,daily_issda_100,100,rng-100,21,rng,num-start-51,51,536,0.7272129058837891,True,,True,1,False,1000,True,1.0
./expes/v2_2020-11-23_di_100-prng-3,daily_issda_100,100,rng-100,71,rng,num-start-41,41,536,0.994290828704834,True,,True,1,False,1000,True,1.0
./expes/v2_2020-11-23_di_100-prng-3,daily_issda_100,100,rng-100,61,rng,num-start-221,221,536,2.974825143814087,True,,True,1,False,1000,True,1.0
./expes/v2_2020-11-23_di_100-prng-3,daily_issda_100,100,rng-100,61,rng,num-start-101,101,536,1.4312334060668945,True,,True,1,False,1000,True,1.0
./expes/v2_2020-11-23_di_100-prng-3,daily_issda_100,100,rng-100,41,rng,num-start-461,461,536,5.961623668670654,True,,True,1,False,1000,True,1.0
./expes/v2_2020-11-23_di_100-prng-3,daily_issda_100,100,rng-100,81,rng,num-start-81,81,536,1.1463508605957031,True,,True,1,False,1000,True,1.0
./expes/v2_2020-11-23_di_100-prng-3,daily_issda_100,100,rng-100,61,rng,num-start-131,131,536,1.8769400119781494,True,,True,1,False,1000,True,1.0
./expes/v2_2020-11-23_di_100-prng-3,daily_issda_100,100,rng-100,31,rng,num-start-161,161,536,2.180802822113037,True,,True,1,False,1000,True,1.0
./expes/v2_2020-11-23_di_100-prng-3,daily_issda_100,100,rng-100,21,rng,num-start-311,311,536,4.224815368652344,True,,True,1,False,1000,True,1.0
./expes/v2_2020-11-23_di_100-prng-3,daily_issda_100,100,rng-100,21,rng,num-start-291,291,536,3.7345314025878906,True,,True,1,False,1000,True,1.0
./expes/v2_2020-11-23_di_100-prng-3,daily_issda_100,100,rng-100,91,rng,num-start-281,281,536,3.5221104621887207,True,,True,1,False,1000,True,1.0
./expes/v2_2020-11-23_di_100-prng-3,daily_issda_100,100,rng-100,1,rng,num-start-111,111,536,1.2909770011901855,True,,True,1,False,1000,True,1.0
./expes/v2_2020-11-23_di_100-prng-3,daily_issda_100,100,rng-100,81,rng,num-start-411,411,536,5.236682891845703,True,,True,1,False,1000,True,1.0
./expes/v2_2020-11-23_di_100-prng-3,daily_issda_100,100,rng-100,41,rng,num-start-231,231,536,3.1034224033355713,True,,True,1,False,1000,True,1.0
./expes/v2_2020-11-23_di_100-prng-3,daily_issda_100,100,rng-100,51,rng,num-start-361,361,536,4.720206260681152,True,,True,1,False,1000,True,1.0
./expes/v2_2020-11-23_di_100-prng-3,daily_issda_100,100,rng-100,81,rng,num-start-31,31,536,1.1682047843933105,True,,True,1,False,1000,True,1.0
./expes/v2_2020-11-23_di_100-prng-3,daily_issda_100,100,rng-100,41,rng,num-start-371,371,536,4.802783966064453,True,,True,1,False,1000,True,1.0
./expes/v2_2020-11-23_di_100-prng-3,daily_issda_100,100,rng-100,91,rng,num-start-431,431,536,5.347578763961792,True,,True,1,False,1000,True,1.0
./expes/v2_2020-11-23_di_100-prng-3,daily_issda_100,100,rng-100,51,rng,num-start-301,301,536,4.0392842292785645,True,,True,1,False,1000,True,1.0
./expes/v2_2020-11-23_di_100-prng-3,daily_issda_100,100,rng-100,71,rng,num-start-411,411,536,5.501933336257935,True,,True,1,False,1000,True,1.0
./expes/v2_2020-11-23_di_100-prng-3,daily_issda_100,100,rng-100,11,rng,num-start-451,451,536,5.916304588317871,True,,True,1,False,1000,True,1.0
./expes/v2_2020-11-23_di_100-prng-3,daily_issda_100,100,rng-100,91,rng,num-start-111,111,536,1.4766418933868408,True,,True,1,False,1000,True,1.0
./expes/v2_2020-11-23_di_100-prng-3,daily_issda_100,100,rng-100,11,rng,num-start-301,301,536,3.8300745487213135,True,,True,1,False,1000,True,1.0
./expes/v2_2020-11-23_di_100-prng-3,daily_issda_100,100,rng-100,71,rng,num-start-331,331,536,4.481834888458252,True,,True,1,False,1000,True,1.0
./expes/v2_2020-11-23_di_100-prng-3,daily_issda_100,100,rng-100,21,rng,num-start-471,471,536,5.986971616744995,True,,True,1,False,1000,True,1.0
./expes/v2_2020-11-23_di_100-prng-3,daily_issda_100,100,rng-100,81,rng,num-start-61,61,536,0.9664976596832275,True,,True,1,False,1000,True,1.0
./expes/v2_2020-11-23_di_100-prng-3,daily_issda_100,100,rng-100,51,rng,num-start-161,161,536,2.3019540309906006,True,,True,1,False,1000,True,1.0
./expes/v2_2020-11-23_di_100-prng-3,daily_issda_100,100,rng-100,11,rng,num-start-361,361,536,4.588879823684692,True,,True,1,False,1000,True,1.0
./expes/v2_2020-11-23_di_100-prng-3,daily_issda_100,100,rng-100,11,rng,num-start-111,111,536,1.5472874641418457,True,,True,1,False,1000,True,1.0
./expes/v2_2020-11-23_di_100-prng-3,daily_issda_100,100,rng-100,1,rng,num-start-41,41,536,0.5238518714904785,True,,True,1,False,1000,True,1.0
./expes/v2_2020-11-23_di_100-prng-3,daily_issda_100,100,rng-100,1,rng,num-start-341,341,536,3.984447479248047,True,,True,1,False,1000,True,1.0
./expes/v2_2020-11-23_di_100-prng-3,daily_issda_100,100,rng-100,41,rng,num-start-41,41,536,1.2383215427398682,True,,True,1,False,1000,True,1.0
./expes/v2_2020-11-23_di_100-prng-3,daily_issda_100,100,rng-100,51,rng,num-start-411,411,536,5.563394069671631,True,,True,1,False,1000,True,1.0
./expes/v2_2020-11-23_di_100-prng-3,daily_issda_100,100,rng-100,31,rng,num-start-281,281,536,3.6358063220977783,True,,True,1,False,1000,True,1.0
./expes/v2_2020-11-23_di_100-prng-3,daily_issda_100,100,rng-100,71,rng,num-start-481,481,536,6.124034404754639,True,,True,1,False,1000,True,1.0
./expes/v2_2020-11-23_di_100-prng-3,daily_issda_100,100,rng-100,51,rng,num-start-461,461,536,5.9380035400390625,True,,True,1,False,1000,True,1.0
./expes/v2_2020-11-23_di_100-prng-3,daily_issda_100,100,rng-100,71,rng,num-start-351,351,536,4.546334266662598,True,,True,1,False,1000,True,1.0
./expes/v2_2020-11-23_di_100-prng-3,daily_issda_100,100,rng-100,81,rng,num-start-411,411,536,5.238152980804443,True,,True,1,False,1000,True,1.0
./expes/v2_2020-11-23_di_100-prng-3,daily_issda_100,100,rng-100,51,rng,num-start-471,471,536,6.004575729370117,True,,True,1,False,1000,True,1.0
./expes/v2_2020-11-23_di_100-prng-3,daily_issda_100,100,rng-100,31,rng,num-start-141,141,536,2.028592109680176,True,,True,1,False,1000,True,1.0
./expes/v2_2020-11-23_di_100-prng-3,daily_issda_100,100,rng-100,71,rng,num-start-21,21,536,1001.5698654651642,False,,False,0,True,1000,True,0.0
./expes/v2_2020-11-23_di_100-prng-3,daily_issda_100,100,rng-100,41,rng,num-start-61,61,536,0.9004936218261719,True,,True,1,False,1000,True,1.0
./expes/v2_2020-11-23_di_100-prng-3,daily_issda_100,100,rng-100,81,rng,num-start-241,241,536,3.1580803394317627,True,,True,1,False,1000,True,1.0
./expes/v2_2020-11-23_di_100-prng-3,daily_issda_100,100,rng-100,1,rng,num-start-101,101,536,1.1980061531066895,True,,True,1,False,1000,True,1.0
./expes/v2_2020-11-23_di_100-prng-3,daily_issda_100,100,rng-100,1,rng,num-start-251,251,536,2.895322799682617,True,,True,1,False,1000,True,1.0
./expes/v2_2020-11-23_di_100-prng-3,daily_issda_100,100,rng-100,1,rng,num-start-251,251,536,2.879436731338501,True,,True,1,False,1000,True,1.0
./expes/v2_2020-11-23_di_100-prng-3,daily_issda_100,100,rng-100,71,rng,num-start-381,381,536,4.854551792144775,True,,True,1,False,1000,True,1.0
./expes/v2_2020-11-23_di_100-prng-3,daily_issda_100,100,rng-100,21,rng,num-start-11,11,536,1000.1561043262482,False,,False,0,True,1000,True,0.0
./expes/v2_2020-11-23_di_100-prng-3,daily_issda_100,100,rng-100,81,rng,num-start-331,331,536,4.156793832778931,True,,True,1,False,1000,True,1.0
./expes/v2_2020-11-23_di_100-prng-3,daily_issda_100,100,rng-100,41,rng,num-start-61,61,536,0.8820583820343018,True,,True,1,False,1000,True,1.0
./expes/v2_2020-11-23_di_100-prng-3,daily_issda_100,100,rng-100,21,rng,num-start-491,491,536,6.132772207260132,True,,True,1,False,1000,True,1.0
./expes/v2_2020-11-23_di_100-prng-3,daily_issda_100,100,rng-100,11,rng,num-start-131,131,536,1.8000755310058594,True,,True,1,False,1000,True,1.0
./expes/v2_2020-11-23_di_100-prng-3,daily_issda_100,100,rng-100,71,rng,num-start-211,211,536,2.7177000045776367,True,,True,1,False,1000,True,1.0
./expes/v2_2020-11-23_di_100-prng-3,daily_issda_100,100,rng-100,61,rng,num-start-241,241,536,3.1871981620788574,True,,True,1,False,1000,True,1.0
./expes/v2_2020-11-23_di_100-prng-3,daily_issda_100,100,rng-100,71,rng,num-start-481,481,536,6.044047594070435,True,,True,1,False,1000,True,1.0
./expes/v2_2020-11-23_di_100-prng-3,daily_issda_100,100,rng-100,81,rng,num-start-421,421,536,5.23641037940979,True,,True,1,False,1000,True,1.0
./expes/v2_2020-11-23_di_100-prng-3,daily_issda_100,100,rng-100,61,rng,num-start-21,21,536,1002.4013032913208,False,,False,0,True,1000,True,0.0
./expes/v2_2020-11-23_di_100-prng-3,daily_issda_100,100,rng-100,61,rng,num-start-441,441,536,5.575671434402466,True,,True,1,False,1000,True,1.0
./expes/v2_2020-11-23_di_100-prng-3,daily_issda_100,100,rng-100,71,rng,num-start-421,421,536,5.25239372253418,True,,True,1,False,1000,True,1.0
./expes/v2_2020-11-23_di_100-prng-3,daily_issda_100,100,rng-100,11,rng,num-start-391,391,536,4.904275894165039,True,,True,1,False,1000,True,1.0
./expes/v2_2020-11-23_di_100-prng-3,daily_issda_100,100,rng-100,91,rng,num-start-421,421,536,5.226968765258789,True,,True,1,False,1000,True,1.0
./expes/v2_2020-11-23_di_100-prng-3,daily_issda_100,100,rng-100,71,rng,num-start-261,261,536,3.483107328414917,True,,True,1,False,1000,True,1.0
./expes/v2_2020-11-23_di_100-prng-3,daily_issda_100,100,rng-100,31,rng,num-start-1,1,536,0.4591386318206787,False,,False,2,False,1000,True,1.0
