expe,clients,clients_size,clients_subset,agg_size,method,days,days_size,days_total,time,valid,valid_sum,success,nsols,wall_hit,wall_time,pooled,valid_sums
./expes/v2_2020-11-29_di_4000-prng-1,daily_issda_4000,4000,rng-4000,2001,rng,num-start-251,251,536,1061.6630563735962,False,,False,0,True,1000,True,0.0
./expes/v2_2020-11-29_di_4000-prng-1,daily_issda_4000,4000,rng-4000,2001,rng,num-start-21,21,536,1005.1811327934265,False,,False,0,True,1000,True,0.0
./expes/v2_2020-11-29_di_4000-prng-1,daily_issda_4000,4000,rng-4000,3001,rng,num-start-241,241,536,1074.7698059082031,False,,False,0,True,1000,True,0.0
./expes/v2_2020-11-29_di_4000-prng-1,daily_issda_4000,4000,rng-4000,3001,rng,num-start-11,11,536,1002.8196032047272,False,,False,0,True,1000,True,0.0
./expes/v2_2020-11-29_di_4000-prng-1,daily_issda_4000,4000,rng-4000,3001,rng,num-start-271,271,536,1067.819675207138,False,,False,0,True,1000,True,0.0
./expes/v2_2020-11-29_di_4000-prng-1,daily_issda_4000,4000,rng-4000,1,rng,num-start-241,241,536,63.56791591644287,True,,True,1,False,1000,True,1.0
./expes/v2_2020-11-29_di_4000-prng-1,daily_issda_4000,4000,rng-4000,3001,rng,num-start-81,81,536,1020.5943031311035,False,,False,0,True,1000,True,0.0
./expes/v2_2020-11-29_di_4000-prng-1,daily_issda_4000,4000,rng-4000,501,rng,num-start-81,81,536,1020.3208801746368,False,,False,0,True,1000,True,0.0
./expes/v2_2020-11-29_di_4000-prng-1,daily_issda_4000,4000,rng-4000,1001,rng,num-start-11,11,536,1002.8461494445801,False,,False,0,True,1000,True,0.0
./expes/v2_2020-11-29_di_4000-prng-1,daily_issda_4000,4000,rng-4000,3501,rng,num-start-81,81,536,1021.0003454685211,False,,False,0,True,1000,True,0.0
./expes/v2_2020-11-29_di_4000-prng-1,daily_issda_4000,4000,rng-4000,3001,rng,num-start-201,201,536,1055.7595763206482,False,,False,0,True,1000,True,0.0
./expes/v2_2020-11-29_di_4000-prng-1,daily_issda_4000,4000,rng-4000,2001,rng,num-start-231,231,536,1058.0563638210297,False,,False,0,True,1000,True,0.0
./expes/v2_2020-11-29_di_4000-prng-1,daily_issda_4000,4000,rng-4000,3001,rng,num-start-281,281,536,1074.1355211734772,False,,False,0,True,1000,True,0.0
./expes/v2_2020-11-29_di_4000-prng-1,daily_issda_4000,4000,rng-4000,2501,rng,num-start-161,161,536,1041.1050107479095,False,,False,0,True,1000,True,0.0
./expes/v2_2020-11-29_di_4000-prng-1,daily_issda_4000,4000,rng-4000,3001,rng,num-start-91,91,536,1023.4853301048279,False,,False,0,True,1000,True,0.0
./expes/v2_2020-11-29_di_4000-prng-1,daily_issda_4000,4000,rng-4000,1501,rng,num-start-231,231,536,1055.2068464756012,False,,False,0,True,1000,True,0.0
./expes/v2_2020-11-29_di_4000-prng-1,daily_issda_4000,4000,rng-4000,501,rng,num-start-31,31,536,1007.8524916172028,False,,False,0,True,1000,True,0.0
./expes/v2_2020-11-29_di_4000-prng-1,daily_issda_4000,4000,rng-4000,1001,rng,num-start-1,1,536,20.892961978912354,False,,False,2,False,1000,True,1.0
./expes/v2_2020-11-29_di_4000-prng-1,daily_issda_4000,4000,rng-4000,3001,rng,num-start-71,71,536,1018.5172672271729,False,,False,0,True,1000,True,0.0
./expes/v2_2020-11-29_di_4000-prng-1,daily_issda_4000,4000,rng-4000,2501,rng,num-start-171,171,536,1044.4244611263275,False,,False,0,True,1000,True,0.0
./expes/v2_2020-11-29_di_4000-prng-1,daily_issda_4000,4000,rng-4000,3501,rng,num-start-171,171,536,1039.4654030799866,False,,False,0,True,1000,True,0.0
./expes/v2_2020-11-29_di_4000-prng-1,daily_issda_4000,4000,rng-4000,1,rng,num-start-221,221,536,57.007477045059204,True,,True,1,False,1000,True,1.0
./expes/v2_2020-11-29_di_4000-prng-1,daily_issda_4000,4000,rng-4000,501,rng,num-start-231,231,536,1056.9804503917694,False,,False,0,True,1000,True,0.0
./expes/v2_2020-11-29_di_4000-prng-1,daily_issda_4000,4000,rng-4000,501,rng,num-start-71,71,536,1017.2642896175385,False,,False,0,True,1000,True,0.0
./expes/v2_2020-11-29_di_4000-prng-1,daily_issda_4000,4000,rng-4000,3001,rng,num-start-61,61,536,1016.4353995323181,False,,False,0,True,1000,True,0.0
./expes/v2_2020-11-29_di_4000-prng-1,daily_issda_4000,4000,rng-4000,501,rng,num-start-91,91,536,1022.7342140674591,False,,False,0,True,1000,True,0.0
./expes/v2_2020-11-29_di_4000-prng-1,daily_issda_4000,4000,rng-4000,2501,rng,num-start-121,121,536,1031.416621685028,False,,False,0,True,1000,True,0.0
./expes/v2_2020-11-29_di_4000-prng-1,daily_issda_4000,4000,rng-4000,1001,rng,num-start-71,71,536,1017.9670186042786,False,,False,0,True,1000,True,0.0
./expes/v2_2020-11-29_di_4000-prng-1,daily_issda_4000,4000,rng-4000,1001,rng,num-start-251,251,536,1061.7377669811249,False,,False,0,True,1000,True,0.0
./expes/v2_2020-11-29_di_4000-prng-1,daily_issda_4000,4000,rng-4000,1501,rng,num-start-1,1,536,5.4018330574035645,False,,False,2,False,1000,True,1.0
./expes/v2_2020-11-29_di_4000-prng-1,daily_issda_4000,4000,rng-4000,3001,rng,num-start-81,81,536,1021.9062559604645,False,,False,0,True,1000,True,0.0
./expes/v2_2020-11-29_di_4000-prng-1,daily_issda_4000,4000,rng-4000,1501,rng,num-start-61,61,536,1014.9059572219849,False,,False,0,True,1000,True,0.0
./expes/v2_2020-11-29_di_4000-prng-1,daily_issda_4000,4000,rng-4000,3501,rng,num-start-291,291,536,1073.0320975780487,False,,False,0,True,1000,True,0.0
./expes/v2_2020-11-29_di_4000-prng-1,daily_issda_4000,4000,rng-4000,1501,rng,num-start-71,71,536,1018.1888089179993,False,,False,0,True,1000,True,0.0
./expes/v2_2020-11-29_di_4000-prng-1,daily_issda_4000,4000,rng-4000,2501,rng,num-start-261,261,536,1063.6280822753906,False,,False,0,True,1000,True,0.0
./expes/v2_2020-11-29_di_4000-prng-1,daily_issda_4000,4000,rng-4000,1,rng,num-start-81,81,536,19.41207003593445,True,,True,1,False,1000,True,1.0
./expes/v2_2020-11-29_di_4000-prng-1,daily_issda_4000,4000,rng-4000,2501,rng,num-start-291,291,536,1070.8625161647797,False,,False,0,True,1000,True,0.0
./expes/v2_2020-11-29_di_4000-prng-1,daily_issda_4000,4000,rng-4000,1501,rng,num-start-111,111,536,1027.8899250030518,False,,False,0,True,1000,True,0.0
./expes/v2_2020-11-29_di_4000-prng-1,daily_issda_4000,4000,rng-4000,2001,rng,num-start-231,231,536,1060.4504108428955,False,,False,0,True,1000,True,0.0
./expes/v2_2020-11-29_di_4000-prng-1,daily_issda_4000,4000,rng-4000,2501,rng,num-start-71,71,536,1018.5003042221069,False,,False,0,True,1000,True,0.0
./expes/v2_2020-11-29_di_4000-prng-1,daily_issda_4000,4000,rng-4000,1,rng,num-start-51,51,536,13.54649806022644,True,,True,1,False,1000,True,1.0
./expes/v2_2020-11-29_di_4000-prng-1,daily_issda_4000,4000,rng-4000,501,rng,num-start-161,161,536,1042.0648093223572,False,,False,0,True,1000,True,0.0
./expes/v2_2020-11-29_di_4000-prng-1,daily_issda_4000,4000,rng-4000,2001,rng,num-start-181,181,536,1048.8798851966858,False,,False,0,True,1000,True,0.0
./expes/v2_2020-11-29_di_4000-prng-1,daily_issda_4000,4000,rng-4000,2501,rng,num-start-171,171,536,1042.3008716106415,False,,False,0,True,1000,True,0.0
./expes/v2_2020-11-29_di_4000-prng-1,daily_issda_4000,4000,rng-4000,2501,rng,num-start-81,81,536,1019.0603060722351,False,,False,0,True,1000,True,0.0
./expes/v2_2020-11-29_di_4000-prng-1,daily_issda_4000,4000,rng-4000,1001,rng,num-start-281,281,536,1072.2037391662598,False,,False,0,True,1000,True,0.0
./expes/v2_2020-11-29_di_4000-prng-1,daily_issda_4000,4000,rng-4000,2501,rng,num-start-211,211,536,1055.4647636413574,False,,False,0,True,1000,True,0.0
./expes/v2_2020-11-29_di_4000-prng-1,daily_issda_4000,4000,rng-4000,3501,rng,num-start-281,281,536,1070.793271780014,False,,False,0,True,1000,True,0.0
./expes/v2_2020-11-29_di_4000-prng-1,daily_issda_4000,4000,rng-4000,3501,rng,num-start-231,231,536,1061.1125466823578,False,,False,0,True,1000,True,0.0
./expes/v2_2020-11-29_di_4000-prng-1,daily_issda_4000,4000,rng-4000,1501,rng,num-start-1,1,536,9.312972784042358,False,,False,2,False,1000,True,1.0
./expes/v2_2020-11-29_di_4000-prng-1,daily_issda_4000,4000,rng-4000,1001,rng,num-start-1,1,536,5.625123023986816,False,,False,2,False,1000,True,1.0
./expes/v2_2020-11-29_di_4000-prng-1,daily_issda_4000,4000,rng-4000,3001,rng,num-start-141,141,536,1038.219045639038,False,,False,0,True,1000,True,0.0
./expes/v2_2020-11-29_di_4000-prng-1,daily_issda_4000,4000,rng-4000,3001,rng,num-start-181,181,536,1047.8213787078857,False,,False,0,True,1000,True,0.0
./expes/v2_2020-11-29_di_4000-prng-1,daily_issda_4000,4000,rng-4000,1001,rng,num-start-201,201,536,1050.147977590561,False,,False,0,True,1000,True,0.0
./expes/v2_2020-11-29_di_4000-prng-1,daily_issda_4000,4000,rng-4000,1501,rng,num-start-181,181,536,1046.8383750915527,False,,False,0,True,1000,True,0.0
./expes/v2_2020-11-29_di_4000-prng-1,daily_issda_4000,4000,rng-4000,3501,rng,num-start-81,81,536,1019.9531626701355,False,,False,0,True,1000,True,0.0
./expes/v2_2020-11-29_di_4000-prng-1,daily_issda_4000,4000,rng-4000,1001,rng,num-start-11,11,536,1002.9627339839935,False,,False,0,True,1000,True,0.0
./expes/v2_2020-11-29_di_4000-prng-1,daily_issda_4000,4000,rng-4000,1,rng,num-start-211,211,536,57.159863233566284,True,,True,1,False,1000,True,1.0
./expes/v2_2020-11-29_di_4000-prng-1,daily_issda_4000,4000,rng-4000,2001,rng,num-start-261,261,536,1064.8431513309479,False,,False,0,True,1000,True,0.0
./expes/v2_2020-11-29_di_4000-prng-1,daily_issda_4000,4000,rng-4000,3501,rng,num-start-61,61,536,1016.1570162773132,False,,False,0,True,1000,True,0.0
./expes/v2_2020-11-29_di_4000-prng-1,daily_issda_4000,4000,rng-4000,2001,rng,num-start-111,111,536,1026.5276908874512,False,,False,0,True,1000,True,0.0
./expes/v2_2020-11-29_di_4000-prng-1,daily_issda_4000,4000,rng-4000,2001,rng,num-start-21,21,536,1005.3923172950745,False,,False,0,True,1000,True,0.0
./expes/v2_2020-11-29_di_4000-prng-1,daily_issda_4000,4000,rng-4000,2001,rng,num-start-201,201,536,1050.5819232463837,False,,False,0,True,1000,True,0.0
./expes/v2_2020-11-29_di_4000-prng-1,daily_issda_4000,4000,rng-4000,3001,rng,num-start-281,281,536,1070.2691926956177,False,,False,0,True,1000,True,0.0
./expes/v2_2020-11-29_di_4000-prng-1,daily_issda_4000,4000,rng-4000,1001,rng,num-start-81,81,536,1020.8345847129822,False,,False,0,True,1000,True,0.0
./expes/v2_2020-11-29_di_4000-prng-1,daily_issda_4000,4000,rng-4000,1,rng,num-start-31,31,536,8.21023178100586,True,,True,1,False,1000,True,1.0
./expes/v2_2020-11-29_di_4000-prng-1,daily_issda_4000,4000,rng-4000,501,rng,num-start-141,141,536,1036.3765184879303,False,,False,0,True,1000,True,0.0
./expes/v2_2020-11-29_di_4000-prng-1,daily_issda_4000,4000,rng-4000,501,rng,num-start-71,71,536,1017.7001857757568,False,,False,0,True,1000,True,0.0
