expe,clients,clients_size,clients_subset,agg_size,method,days,days_size,days_total,time,valid,valid_sum,success,nsols,wall_hit,wall_time,pooled,valid_sums
./expes/v2_2020-11-29_di_4000-prng-1,daily_issda_4000,4000,rng-4000,1001,rng,num-start-251,251,536,1062.1120390892029,False,,False,0,True,1000,True,0.0
./expes/v2_2020-11-29_di_4000-prng-1,daily_issda_4000,4000,rng-4000,501,rng,num-start-21,21,536,1005.3113102912903,False,,False,0,True,1000,True,0.0
./expes/v2_2020-11-29_di_4000-prng-1,daily_issda_4000,4000,rng-4000,3001,rng,num-start-121,121,536,1030.4426743984222,False,,False,0,True,1000,True,0.0
./expes/v2_2020-11-29_di_4000-prng-1,daily_issda_4000,4000,rng-4000,501,rng,num-start-241,241,536,1060.8116126060486,False,,False,0,True,1000,True,0.0
./expes/v2_2020-11-29_di_4000-prng-1,daily_issda_4000,4000,rng-4000,1001,rng,num-start-21,21,536,1005.2067475318909,False,,False,0,True,1000,True,0.0
./expes/v2_2020-11-29_di_4000-prng-1,daily_issda_4000,4000,rng-4000,2001,rng,num-start-251,251,536,1066.0675327777863,False,,False,0,True,1000,True,0.0
./expes/v2_2020-11-29_di_4000-prng-1,daily_issda_4000,4000,rng-4000,1,rng,num-start-91,91,536,24.43407893180847,True,,True,1,False,1000,True,1.0
./expes/v2_2020-11-29_di_4000-prng-1,daily_issda_4000,4000,rng-4000,2501,rng,num-start-1,1,536,13.913426637649536,False,,False,2,False,1000,True,0.0
./expes/v2_2020-11-29_di_4000-prng-1,daily_issda_4000,4000,rng-4000,1001,rng,num-start-281,281,536,1070.7503583431244,False,,False,0,True,1000,True,0.0
./expes/v2_2020-11-29_di_4000-prng-1,daily_issda_4000,4000,rng-4000,1,rng,num-start-171,171,536,41.886332750320435,True,,True,1,False,1000,True,1.0
./expes/v2_2020-11-29_di_4000-prng-1,daily_issda_4000,4000,rng-4000,3501,rng,num-start-61,61,536,1015.4487226009369,False,,False,0,True,1000,True,0.0
./expes/v2_2020-11-29_di_4000-prng-1,daily_issda_4000,4000,rng-4000,1001,rng,num-start-201,201,536,1047.7200736999512,False,,False,0,True,1000,True,0.0
./expes/v2_2020-11-29_di_4000-prng-1,daily_issda_4000,4000,rng-4000,3001,rng,num-start-131,131,536,1032.33451962471,False,,False,0,True,1000,True,0.0
./expes/v2_2020-11-29_di_4000-prng-1,daily_issda_4000,4000,rng-4000,501,rng,num-start-61,61,536,1014.9955394268036,False,,False,0,True,1000,True,0.0
./expes/v2_2020-11-29_di_4000-prng-1,daily_issda_4000,4000,rng-4000,2001,rng,num-start-281,281,536,1070.6139605045319,False,,False,0,True,1000,True,0.0
./expes/v2_2020-11-29_di_4000-prng-1,daily_issda_4000,4000,rng-4000,1501,rng,num-start-51,51,536,1013.4195194244385,False,,False,0,True,1000,True,0.0
./expes/v2_2020-11-29_di_4000-prng-1,daily_issda_4000,4000,rng-4000,1001,rng,num-start-1,1,536,18.53037118911743,False,,False,2,False,1000,True,1.0
./expes/v2_2020-11-29_di_4000-prng-1,daily_issda_4000,4000,rng-4000,1501,rng,num-start-271,271,536,1067.7119693756104,False,,False,0,True,1000,True,0.0
./expes/v2_2020-11-29_di_4000-prng-1,daily_issda_4000,4000,rng-4000,1001,rng,num-start-31,31,536,1007.5416793823242,False,,False,0,True,1000,True,0.0
./expes/v2_2020-11-29_di_4000-prng-1,daily_issda_4000,4000,rng-4000,1,rng,num-start-81,81,536,21.37869429588318,True,,True,1,False,1000,True,1.0
./expes/v2_2020-11-29_di_4000-prng-1,daily_issda_4000,4000,rng-4000,2001,rng,num-start-91,91,536,1024.040874004364,False,,False,0,True,1000,True,0.0
./expes/v2_2020-11-29_di_4000-prng-1,daily_issda_4000,4000,rng-4000,501,rng,num-start-131,131,536,1031.9511613845825,False,,False,0,True,1000,True,0.0
./expes/v2_2020-11-29_di_4000-prng-1,daily_issda_4000,4000,rng-4000,1,rng,num-start-41,41,536,10.203845977783203,True,,True,1,False,1000,True,1.0
./expes/v2_2020-11-29_di_4000-prng-1,daily_issda_4000,4000,rng-4000,501,rng,num-start-121,121,536,1029.5898959636688,False,,False,0,True,1000,True,0.0
./expes/v2_2020-11-29_di_4000-prng-1,daily_issda_4000,4000,rng-4000,2001,rng,num-start-281,281,536,1072.4739587306976,False,,False,0,True,1000,True,0.0
./expes/v2_2020-11-29_di_4000-prng-1,daily_issda_4000,4000,rng-4000,501,rng,num-start-131,131,536,1063.4790532588959,False,,False,0,True,1000,True,0.0
./expes/v2_2020-11-29_di_4000-prng-1,daily_issda_4000,4000,rng-4000,3501,rng,num-start-41,41,536,1010.9278490543365,False,,False,0,True,1000,True,0.0
./expes/v2_2020-11-29_di_4000-prng-1,daily_issda_4000,4000,rng-4000,3001,rng,num-start-51,51,536,1012.8667867183685,False,,False,0,True,1000,True,0.0
./expes/v2_2020-11-29_di_4000-prng-1,daily_issda_4000,4000,rng-4000,1,rng,num-start-161,161,536,43.49838948249817,True,,True,1,False,1000,True,1.0
./expes/v2_2020-11-29_di_4000-prng-1,daily_issda_4000,4000,rng-4000,2501,rng,num-start-131,131,536,1035.6343491077423,False,,False,0,True,1000,True,0.0
./expes/v2_2020-11-29_di_4000-prng-1,daily_issda_4000,4000,rng-4000,2501,rng,num-start-211,211,536,1056.0844085216522,False,,False,0,True,1000,True,0.0
./expes/v2_2020-11-29_di_4000-prng-1,daily_issda_4000,4000,rng-4000,1001,rng,num-start-11,11,536,1003.2077157497406,False,,False,0,True,1000,True,0.0
./expes/v2_2020-11-29_di_4000-prng-1,daily_issda_4000,4000,rng-4000,1001,rng,num-start-161,161,536,1039.1970975399017,False,,False,0,True,1000,True,0.0
./expes/v2_2020-11-29_di_4000-prng-1,daily_issda_4000,4000,rng-4000,1501,rng,num-start-1,1,536,5.901204586029053,False,,False,2,False,1000,True,1.0
./expes/v2_2020-11-29_di_4000-prng-1,daily_issda_4000,4000,rng-4000,501,rng,num-start-71,71,536,1018.4787275791168,False,,False,0,True,1000,True,0.0
./expes/v2_2020-11-29_di_4000-prng-1,daily_issda_4000,4000,rng-4000,2501,rng,num-start-181,181,536,1048.8071506023407,False,,False,0,True,1000,True,0.0
./expes/v2_2020-11-29_di_4000-prng-1,daily_issda_4000,4000,rng-4000,3501,rng,num-start-51,51,536,1013.1975486278534,False,,False,0,True,1000,True,0.0
./expes/v2_2020-11-29_di_4000-prng-1,daily_issda_4000,4000,rng-4000,3501,rng,num-start-1,1,536,1.8301517963409424,False,,False,2,False,1000,True,1.0
./expes/v2_2020-11-29_di_4000-prng-1,daily_issda_4000,4000,rng-4000,3501,rng,num-start-41,41,536,1010.3115038871765,False,,False,0,True,1000,True,0.0
./expes/v2_2020-11-29_di_4000-prng-1,daily_issda_4000,4000,rng-4000,1501,rng,num-start-131,131,536,1032.921419620514,False,,False,0,True,1000,True,0.0
./expes/v2_2020-11-29_di_4000-prng-1,daily_issda_4000,4000,rng-4000,2001,rng,num-start-251,251,536,1066.5254518985748,False,,False,0,True,1000,True,0.0
./expes/v2_2020-11-29_di_4000-prng-1,daily_issda_4000,4000,rng-4000,1,rng,num-start-61,61,536,15.815392017364502,True,,True,1,False,1000,True,1.0
./expes/v2_2020-11-29_di_4000-prng-1,daily_issda_4000,4000,rng-4000,501,rng,num-start-111,111,536,1029.3130598068237,False,,False,0,True,1000,True,0.0
./expes/v2_2020-11-29_di_4000-prng-1,daily_issda_4000,4000,rng-4000,1001,rng,num-start-211,211,536,1053.8258788585663,False,,False,0,True,1000,True,0.0
./expes/v2_2020-11-29_di_4000-prng-1,daily_issda_4000,4000,rng-4000,1501,rng,num-start-41,41,536,1010.1523575782776,False,,False,0,True,1000,True,0.0
./expes/v2_2020-11-29_di_4000-prng-1,daily_issda_4000,4000,rng-4000,1,rng,num-start-191,191,536,53.570053577423096,True,,True,1,False,1000,True,1.0
./expes/v2_2020-11-29_di_4000-prng-1,daily_issda_4000,4000,rng-4000,3001,rng,num-start-101,101,536,1026.227292060852,False,,False,0,True,1000,True,0.0
./expes/v2_2020-11-29_di_4000-prng-1,daily_issda_4000,4000,rng-4000,2501,rng,num-start-1,1,536,5.134243726730347,False,,False,2,False,1000,True,1.0
./expes/v2_2020-11-29_di_4000-prng-1,daily_issda_4000,4000,rng-4000,1,rng,num-start-141,141,536,36.59788942337036,True,,True,1,False,1000,True,1.0
./expes/v2_2020-11-29_di_4000-prng-1,daily_issda_4000,4000,rng-4000,3501,rng,num-start-151,151,536,1036.7707719802856,False,,False,0,True,1000,True,0.0
./expes/v2_2020-11-29_di_4000-prng-1,daily_issda_4000,4000,rng-4000,1001,rng,num-start-151,151,536,1040.7954828739166,False,,False,0,True,1000,True,0.0
./expes/v2_2020-11-29_di_4000-prng-1,daily_issda_4000,4000,rng-4000,3001,rng,num-start-81,81,536,1019.7882220745087,False,,False,0,True,1000,True,0.0
./expes/v2_2020-11-29_di_4000-prng-1,daily_issda_4000,4000,rng-4000,2001,rng,num-start-21,21,536,1005.3960316181183,False,,False,0,True,1000,True,0.0
./expes/v2_2020-11-29_di_4000-prng-1,daily_issda_4000,4000,rng-4000,1,rng,num-start-191,191,536,49.05934000015259,True,,True,1,False,1000,True,1.0
./expes/v2_2020-11-29_di_4000-prng-1,daily_issda_4000,4000,rng-4000,2001,rng,num-start-121,121,536,1030.9510235786438,False,,False,0,True,1000,True,0.0
./expes/v2_2020-11-29_di_4000-prng-1,daily_issda_4000,4000,rng-4000,3501,rng,num-start-231,231,536,1062.9327881336212,False,,False,0,True,1000,True,0.0
./expes/v2_2020-11-29_di_4000-prng-1,daily_issda_4000,4000,rng-4000,3501,rng,num-start-51,51,536,1012.782000541687,False,,False,0,True,1000,True,0.0
./expes/v2_2020-11-29_di_4000-prng-1,daily_issda_4000,4000,rng-4000,3501,rng,num-start-61,61,536,1015.2761251926422,False,,False,0,True,1000,True,0.0
./expes/v2_2020-11-29_di_4000-prng-1,daily_issda_4000,4000,rng-4000,1,rng,num-start-261,261,536,71.05563306808472,True,,True,1,False,1000,True,1.0
./expes/v2_2020-11-29_di_4000-prng-1,daily_issda_4000,4000,rng-4000,1,rng,num-start-191,191,536,54.60210847854614,True,,True,1,False,1000,True,1.0
./expes/v2_2020-11-29_di_4000-prng-1,daily_issda_4000,4000,rng-4000,1,rng,num-start-231,231,536,57.73554039001465,True,,True,1,False,1000,True,1.0
./expes/v2_2020-11-29_di_4000-prng-1,daily_issda_4000,4000,rng-4000,3001,rng,num-start-111,111,536,1028.6326093673706,False,,False,0,True,1000,True,0.0
./expes/v2_2020-11-29_di_4000-prng-1,daily_issda_4000,4000,rng-4000,2001,rng,num-start-141,141,536,1035.9667134284973,False,,False,0,True,1000,True,0.0
./expes/v2_2020-11-29_di_4000-prng-1,daily_issda_4000,4000,rng-4000,2001,rng,num-start-121,121,536,1030.2800688743591,False,,False,0,True,1000,True,0.0
./expes/v2_2020-11-29_di_4000-prng-1,daily_issda_4000,4000,rng-4000,1,rng,num-start-221,221,536,58.02414917945862,True,,True,1,False,1000,True,1.0
./expes/v2_2020-11-29_di_4000-prng-1,daily_issda_4000,4000,rng-4000,3501,rng,num-start-61,61,536,1015.7360100746155,False,,False,0,True,1000,True,0.0
./expes/v2_2020-11-29_di_4000-prng-1,daily_issda_4000,4000,rng-4000,2501,rng,num-start-271,271,536,1069.4912812709808,False,,False,0,True,1000,True,0.0
./expes/v2_2020-11-29_di_4000-prng-1,daily_issda_4000,4000,rng-4000,3501,rng,num-start-21,21,536,1005.8163664340973,False,,False,0,True,1000,True,0.0
./expes/v2_2020-11-29_di_4000-prng-1,daily_issda_4000,4000,rng-4000,1001,rng,num-start-71,71,536,1018.884354352951,False,,False,0,True,1000,True,0.0
./expes/v2_2020-11-29_di_4000-prng-1,daily_issda_4000,4000,rng-4000,1501,rng,num-start-11,11,536,1002.7375268936157,False,,False,0,True,1000,True,0.0
./expes/v2_2020-11-29_di_4000-prng-1,daily_issda_4000,4000,rng-4000,2501,rng,num-start-291,291,536,1077.509910583496,False,,False,0,True,1000,True,0.0
./expes/v2_2020-11-29_di_4000-prng-1,daily_issda_4000,4000,rng-4000,1,rng,num-start-141,141,536,35.36476755142212,True,,True,1,False,1000,True,1.0
./expes/v2_2020-11-29_di_4000-prng-1,daily_issda_4000,4000,rng-4000,2501,rng,num-start-211,211,536,1052.7206480503082,False,,False,0,True,1000,True,0.0
./expes/v2_2020-11-29_di_4000-prng-1,daily_issda_4000,4000,rng-4000,1501,rng,num-start-121,121,536,1029.9490058422089,False,,False,0,True,1000,True,0.0
./expes/v2_2020-11-29_di_4000-prng-1,daily_issda_4000,4000,rng-4000,3501,rng,num-start-161,161,536,1041.7444469928741,False,,False,0,True,1000,True,0.0
./expes/v2_2020-11-29_di_4000-prng-1,daily_issda_4000,4000,rng-4000,2001,rng,num-start-291,291,536,1073.1674590110779,False,,False,0,True,1000,True,0.0
./expes/v2_2020-11-29_di_4000-prng-1,daily_issda_4000,4000,rng-4000,1,rng,num-start-121,121,536,28.945998907089233,True,,True,1,False,1000,True,1.0
./expes/v2_2020-11-29_di_4000-prng-1,daily_issda_4000,4000,rng-4000,2001,rng,num-start-281,281,536,1068.6896924972534,False,,False,0,True,1000,True,0.0
