expe,clients,clients_size,clients_subset,agg_size,method,days,days_size,days_total,time,valid,valid_sum,success,nsols,wall_hit,wall_time,pooled,valid_sums
./expes/v2_2020-11-29_di_4000-prng-1,daily_issda_4000,4000,rng-4000,2001,rng,num-start-171,171,536,1066.8366839885712,False,,False,0,True,1000,True,0.0
./expes/v2_2020-11-29_di_4000-prng-1,daily_issda_4000,4000,rng-4000,501,rng,num-start-171,171,536,1068.4232847690582,False,,False,0,True,1000,True,0.0
./expes/v2_2020-11-29_di_4000-prng-1,daily_issda_4000,4000,rng-4000,2501,rng,num-start-51,51,536,1029.6784703731537,False,,False,0,True,1000,True,0.0
./expes/v2_2020-11-29_di_4000-prng-1,daily_issda_4000,4000,rng-4000,3501,rng,num-start-51,51,536,1020.1911118030548,False,,False,0,True,1000,True,0.0
./expes/v2_2020-11-29_di_4000-prng-1,daily_issda_4000,4000,rng-4000,1501,rng,num-start-151,151,536,1062.4553270339966,False,,False,0,True,1000,True,0.0
./expes/v2_2020-11-29_di_4000-prng-1,daily_issda_4000,4000,rng-4000,2501,rng,num-start-41,41,536,1016.8028526306152,False,,False,0,True,1000,True,0.0
./expes/v2_2020-11-29_di_4000-prng-1,daily_issda_4000,4000,rng-4000,3001,rng,num-start-81,81,536,1033.067531824112,False,,False,0,True,1000,True,0.0
./expes/v2_2020-11-29_di_4000-prng-1,daily_issda_4000,4000,rng-4000,1501,rng,num-start-61,61,536,1024.65576338768,False,,False,0,True,1000,True,0.0
./expes/v2_2020-11-29_di_4000-prng-1,daily_issda_4000,4000,rng-4000,1501,rng,num-start-81,81,536,1032.3323397636414,False,,False,0,True,1000,True,0.0
./expes/v2_2020-11-29_di_4000-prng-1,daily_issda_4000,4000,rng-4000,3001,rng,num-start-201,201,536,1082.322818994522,False,,False,0,True,1000,True,0.0
./expes/v2_2020-11-29_di_4000-prng-1,daily_issda_4000,4000,rng-4000,501,rng,num-start-171,171,536,1069.2672402858734,False,,False,0,True,1000,True,0.0
./expes/v2_2020-11-29_di_4000-prng-1,daily_issda_4000,4000,rng-4000,1501,rng,num-start-171,171,536,1069.2978563308716,False,,False,0,True,1000,True,0.0
./expes/v2_2020-11-29_di_4000-prng-1,daily_issda_4000,4000,rng-4000,2501,rng,num-start-51,51,536,1020.9026355743408,False,,False,0,True,1000,True,0.0
./expes/v2_2020-11-29_di_4000-prng-1,daily_issda_4000,4000,rng-4000,2501,rng,num-start-141,141,536,1056.1775608062744,False,,False,0,True,1000,True,0.0
./expes/v2_2020-11-29_di_4000-prng-1,daily_issda_4000,4000,rng-4000,2001,rng,num-start-151,151,536,1061.359342098236,False,,False,0,True,1000,True,0.0
./expes/v2_2020-11-29_di_4000-prng-1,daily_issda_4000,4000,rng-4000,3001,rng,num-start-141,141,536,1058.2479884624481,False,,False,0,True,1000,True,0.0
./expes/v2_2020-11-29_di_4000-prng-1,daily_issda_4000,4000,rng-4000,1501,rng,num-start-191,191,536,1076.9296875,False,,False,0,True,1000,True,0.0
./expes/v2_2020-11-29_di_4000-prng-1,daily_issda_4000,4000,rng-4000,2001,rng,num-start-121,121,536,1048.8515601158142,False,,False,0,True,1000,True,0.0
./expes/v2_2020-11-29_di_4000-prng-1,daily_issda_4000,4000,rng-4000,1,rng,num-start-221,221,536,90.57148218154907,True,,True,1,False,1000,True,1.0
./expes/v2_2020-11-29_di_4000-prng-1,daily_issda_4000,4000,rng-4000,501,rng,num-start-211,211,536,1087.1347060203552,False,,False,0,True,1000,True,0.0
./expes/v2_2020-11-29_di_4000-prng-1,daily_issda_4000,4000,rng-4000,3001,rng,num-start-41,41,536,1016.8468387126923,False,,False,0,True,1000,True,0.0
./expes/v2_2020-11-29_di_4000-prng-1,daily_issda_4000,4000,rng-4000,2001,rng,num-start-101,101,536,1040.4077370166779,False,,False,0,True,1000,True,0.0
./expes/v2_2020-11-29_di_4000-prng-1,daily_issda_4000,4000,rng-4000,2501,rng,num-start-271,271,536,1109.4427478313446,False,,False,0,True,1000,True,0.0
./expes/v2_2020-11-29_di_4000-prng-1,daily_issda_4000,4000,rng-4000,2501,rng,num-start-101,101,536,1042.3332750797272,False,,False,0,True,1000,True,0.0
./expes/v2_2020-11-29_di_4000-prng-1,daily_issda_4000,4000,rng-4000,2501,rng,num-start-41,41,536,1016.4327790737152,False,,False,0,True,1000,True,0.0
./expes/v2_2020-11-29_di_4000-prng-1,daily_issda_4000,4000,rng-4000,2501,rng,num-start-61,61,536,1025.0958065986633,False,,False,0,True,1000,True,0.0
./expes/v2_2020-11-29_di_4000-prng-1,daily_issda_4000,4000,rng-4000,1501,rng,num-start-101,101,536,1041.8132429122925,False,,False,0,True,1000,True,0.0
./expes/v2_2020-11-29_di_4000-prng-1,daily_issda_4000,4000,rng-4000,1001,rng,num-start-31,31,536,1015.3866486549377,False,,False,0,True,1000,True,0.0
./expes/v2_2020-11-29_di_4000-prng-1,daily_issda_4000,4000,rng-4000,2001,rng,num-start-211,211,536,1085.5781834125519,False,,False,0,True,1000,True,0.0
./expes/v2_2020-11-29_di_4000-prng-1,daily_issda_4000,4000,rng-4000,3501,rng,num-start-51,51,536,1020.5227150917053,False,,False,0,True,1000,True,0.0
./expes/v2_2020-11-29_di_4000-prng-1,daily_issda_4000,4000,rng-4000,3501,rng,num-start-151,151,536,1060.7075164318085,False,,False,0,True,1000,True,0.0
./expes/v2_2020-11-29_di_4000-prng-1,daily_issda_4000,4000,rng-4000,1001,rng,num-start-201,201,536,1082.571538925171,False,,False,0,True,1000,True,0.0
./expes/v2_2020-11-29_di_4000-prng-1,daily_issda_4000,4000,rng-4000,501,rng,num-start-81,81,536,1033.543595790863,False,,False,0,True,1000,True,0.0
./expes/v2_2020-11-29_di_4000-prng-1,daily_issda_4000,4000,rng-4000,2001,rng,num-start-21,21,536,1008.8219909667969,False,,False,0,True,1000,True,0.0
./expes/v2_2020-11-29_di_4000-prng-1,daily_issda_4000,4000,rng-4000,3001,rng,num-start-261,261,536,1105.8504784107208,False,,False,0,True,1000,True,0.0
./expes/v2_2020-11-29_di_4000-prng-1,daily_issda_4000,4000,rng-4000,3501,rng,num-start-1,1,536,12.533949851989746,False,,False,2,False,1000,True,1.0
./expes/v2_2020-11-29_di_4000-prng-1,daily_issda_4000,4000,rng-4000,1501,rng,num-start-21,21,536,1008.4565408229828,False,,False,0,True,1000,True,0.0
./expes/v2_2020-11-29_di_4000-prng-1,daily_issda_4000,4000,rng-4000,501,rng,num-start-271,271,536,1108.1073186397552,False,,False,0,True,1000,True,0.0
./expes/v2_2020-11-29_di_4000-prng-1,daily_issda_4000,4000,rng-4000,2501,rng,num-start-191,191,536,1079.6163902282715,False,,False,0,True,1000,True,0.0
./expes/v2_2020-11-29_di_4000-prng-1,daily_issda_4000,4000,rng-4000,501,rng,num-start-31,31,536,1012.6217608451843,False,,False,0,True,1000,True,0.0
./expes/v2_2020-11-29_di_4000-prng-1,daily_issda_4000,4000,rng-4000,501,rng,num-start-21,21,536,1008.1754586696625,False,,False,0,True,1000,True,0.0
./expes/v2_2020-11-29_di_4000-prng-1,daily_issda_4000,4000,rng-4000,1,rng,num-start-191,191,536,80.6760025024414,True,,True,1,False,1000,True,1.0
./expes/v2_2020-11-29_di_4000-prng-1,daily_issda_4000,4000,rng-4000,501,rng,num-start-281,281,536,1115.131647348404,False,,False,0,True,1000,True,0.0
./expes/v2_2020-11-29_di_4000-prng-1,daily_issda_4000,4000,rng-4000,1501,rng,num-start-251,251,536,1101.042481660843,False,,False,0,True,1000,True,0.0
./expes/v2_2020-11-29_di_4000-prng-1,daily_issda_4000,4000,rng-4000,3001,rng,num-start-51,51,536,1020.1466863155365,False,,False,0,True,1000,True,0.0
./expes/v2_2020-11-29_di_4000-prng-1,daily_issda_4000,4000,rng-4000,1,rng,num-start-41,41,536,16.858620405197144,True,,True,1,False,1000,True,1.0
./expes/v2_2020-11-29_di_4000-prng-1,daily_issda_4000,4000,rng-4000,3001,rng,num-start-201,201,536,1083.5441567897797,False,,False,0,True,1000,True,0.0
./expes/v2_2020-11-29_di_4000-prng-1,daily_issda_4000,4000,rng-4000,1001,rng,num-start-131,131,536,1052.552084684372,False,,False,0,True,1000,True,0.0
./expes/v2_2020-11-29_di_4000-prng-1,daily_issda_4000,4000,rng-4000,1501,rng,num-start-121,121,536,1049.4621336460114,False,,False,0,True,1000,True,0.0
./expes/v2_2020-11-29_di_4000-prng-1,daily_issda_4000,4000,rng-4000,1,rng,num-start-51,51,536,20.869173288345337,True,,True,1,False,1000,True,1.0
./expes/v2_2020-11-29_di_4000-prng-1,daily_issda_4000,4000,rng-4000,1501,rng,num-start-101,101,536,1041.0333116054535,False,,False,0,True,1000,True,0.0
./expes/v2_2020-11-29_di_4000-prng-1,daily_issda_4000,4000,rng-4000,2001,rng,num-start-51,51,536,1020.128039598465,False,,False,0,True,1000,True,0.0
./expes/v2_2020-11-29_di_4000-prng-1,daily_issda_4000,4000,rng-4000,1,rng,num-start-261,261,536,104.3677237033844,True,,True,1,False,1000,True,1.0
./expes/v2_2020-11-29_di_4000-prng-1,daily_issda_4000,4000,rng-4000,3501,rng,num-start-291,291,536,1118.2466261386871,False,,False,0,True,1000,True,0.0
./expes/v2_2020-11-29_di_4000-prng-1,daily_issda_4000,4000,rng-4000,2501,rng,num-start-21,21,536,1008.3740379810333,False,,False,0,True,1000,True,0.0
./expes/v2_2020-11-29_di_4000-prng-1,daily_issda_4000,4000,rng-4000,3001,rng,num-start-151,151,536,1060.4594883918762,False,,False,0,True,1000,True,0.0
./expes/v2_2020-11-29_di_4000-prng-1,daily_issda_4000,4000,rng-4000,1501,rng,num-start-11,11,536,1004.4534986019135,False,,False,0,True,1000,True,0.0
./expes/v2_2020-11-29_di_4000-prng-1,daily_issda_4000,4000,rng-4000,3001,rng,num-start-281,281,536,1114.8234989643097,False,,False,0,True,1000,True,0.0
./expes/v2_2020-11-29_di_4000-prng-1,daily_issda_4000,4000,rng-4000,1,rng,num-start-201,201,536,81.43254494667053,True,,True,1,False,1000,True,1.0
./expes/v2_2020-11-29_di_4000-prng-1,daily_issda_4000,4000,rng-4000,3001,rng,num-start-81,81,536,1031.6250324249268,False,,False,0,True,1000,True,0.0
./expes/v2_2020-11-29_di_4000-prng-1,daily_issda_4000,4000,rng-4000,3001,rng,num-start-31,31,536,1012.947624206543,False,,False,0,True,1000,True,0.0
./expes/v2_2020-11-29_di_4000-prng-1,daily_issda_4000,4000,rng-4000,501,rng,num-start-211,211,536,1084.767878293991,False,,False,0,True,1000,True,0.0
./expes/v2_2020-11-29_di_4000-prng-1,daily_issda_4000,4000,rng-4000,501,rng,num-start-41,41,536,1016.4952125549316,False,,False,0,True,1000,True,0.0
./expes/v2_2020-11-29_di_4000-prng-1,daily_issda_4000,4000,rng-4000,1,rng,num-start-171,171,536,73.71419882774353,True,,True,1,False,1000,True,1.0
./expes/v2_2020-11-29_di_4000-prng-1,daily_issda_4000,4000,rng-4000,3001,rng,num-start-71,71,536,1028.5907537937164,False,,False,0,True,1000,True,0.0
