expe,clients,clients_size,clients_subset,agg_size,agg_size_pc,method,days,days_size,days_total,noise_method,time,valid,valid_sum,success,nsols,wall_hit,wall_time,pooled,valid_sums
./expes/v2_2021-01-07_di_4500-prng-w5-1,issda-4500,4500,rng-4500,672,14,rng,num-start-291,291,536,normal,116.01518154144287,False,,False,2,False,5000,True,0.0
./expes/v2_2021-01-07_di_4500-prng-w5-1,issda-4500,4500,rng-4500,224,4,rng,num-start-111,111,536,normal,44.00599646568298,False,,False,2,False,5000,True,0.0
./expes/v2_2021-01-07_di_4500-prng-w5-1,issda-4500,4500,rng-4500,336,7,rng,num-start-221,221,536,normal,89.76167273521423,False,,False,2,False,5000,True,0.0
./expes/v2_2021-01-07_di_4500-prng-w5-1,issda-4500,4500,rng-4500,1792,39,rng,num-start-41,41,536,normal,16.149500131607056,False,,False,2,False,5000,True,0.0
./expes/v2_2021-01-07_di_4500-prng-w5-1,issda-4500,4500,rng-4500,112,2,rng,num-start-241,241,536,normal,105.63320231437683,False,,False,2,False,5000,True,0.0
./expes/v2_2021-01-07_di_4500-prng-w5-1,issda-4500,4500,rng-4500,896,19,rng,num-start-11,11,536,normal,5.210761547088623,False,,False,2,False,5000,True,0.0
./expes/v2_2021-01-07_di_4500-prng-w5-1,issda-4500,4500,rng-4500,784,17,rng,num-start-261,261,536,normal,102.21375226974487,False,,False,2,False,5000,True,0.0
