expe,clients,clients_size,clients_subset,agg_size,agg_size_pc,method,days,days_size,days_total,noise_method,time,valid,valid_sum,success,nsols,wall_hit,wall_time,pooled,valid_sums
./expes/v2_2021-01-07_di_4500-prng-w5-1,issda-4500,4500,rng-4500,2016,44,rng,num-start-151,151,536,normal,45.99184441566467,False,,False,2,False,5000,True,0.0
./expes/v2_2021-01-07_di_4500-prng-w5-1,issda-4500,4500,rng-4500,1456,32,rng,num-start-291,291,536,normal,87.49473118782043,False,,False,2,False,5000,True,0.0
./expes/v2_2021-01-07_di_4500-prng-w5-1,issda-4500,4500,rng-4500,560,12,rng,num-start-31,31,536,normal,9.868379831314087,False,,False,2,False,5000,True,0.0
./expes/v2_2021-01-07_di_4500-prng-w5-1,issda-4500,4500,rng-4500,224,4,rng,num-start-271,271,536,normal,83.15347862243652,False,,False,2,False,5000,True,0.0
./expes/v2_2021-01-07_di_4500-prng-w5-1,issda-4500,4500,rng-4500,2016,44,rng,num-start-261,261,536,normal,79.41145420074463,False,,False,2,False,5000,True,0.0
./expes/v2_2021-01-07_di_4500-prng-w5-1,issda-4500,4500,rng-4500,224,4,rng,num-start-101,101,536,normal,35.81385660171509,False,,False,2,False,5000,True,0.0
./expes/v2_2021-01-07_di_4500-prng-w5-1,issda-4500,4500,rng-4500,1344,29,rng,num-start-251,251,536,normal,82.57143878936768,False,,False,2,False,5000,True,0.0
