expe,clients,clients_size,clients_subset,agg_size,method,days,days_size,days_total,time,valid,valid_sum,success,nsols,wall_hit,wall_time,pooled,valid_sums
./expes/v2_2020-12-03_dh_250-prng-1,30_issda_250,250,rng-250,31,rng,num-start-741,741,25726,13.032207012176514,True,,True,1,False,1000,True,1.0
./expes/v2_2020-12-03_dh_250-prng-1,30_issda_250,250,rng-250,241,rng,num-start-201,201,25726,3.3719820976257324,True,,True,1,False,1000,True,1.0
./expes/v2_2020-12-03_dh_250-prng-1,30_issda_250,250,rng-250,71,rng,num-start-781,781,25726,15.782135486602783,True,,True,1,False,1000,True,1.0
./expes/v2_2020-12-03_dh_250-prng-1,30_issda_250,250,rng-250,241,rng,num-start-781,781,25726,11.620246887207031,True,,True,1,False,1000,True,1.0
./expes/v2_2020-12-03_dh_250-prng-1,30_issda_250,250,rng-250,21,rng,num-start-881,881,25726,19.032084941864014,True,,True,1,False,1000,True,1.0
./expes/v2_2020-12-03_dh_250-prng-1,30_issda_250,250,rng-250,81,rng,num-start-571,571,25726,12.528270483016968,True,,True,1,False,1000,True,1.0
./expes/v2_2020-12-03_dh_250-prng-1,30_issda_250,250,rng-250,71,rng,num-start-431,431,25726,9.555352449417114,True,,True,1,False,1000,True,1.0
./expes/v2_2020-12-03_dh_250-prng-1,30_issda_250,250,rng-250,51,rng,num-start-311,311,25726,6.640484809875488,True,,True,1,False,1000,True,1.0
./expes/v2_2020-12-03_dh_250-prng-1,30_issda_250,250,rng-250,221,rng,num-start-551,551,25726,10.757830381393433,True,,True,1,False,1000,True,1.0
./expes/v2_2020-12-03_dh_250-prng-1,30_issda_250,250,rng-250,231,rng,num-start-731,731,25726,13.311217069625854,True,,True,1,False,1000,True,1.0
./expes/v2_2020-12-03_dh_250-prng-1,30_issda_250,250,rng-250,31,rng,num-start-741,741,25726,14.545878410339355,True,,True,1,False,1000,True,1.0
./expes/v2_2020-12-03_dh_250-prng-1,30_issda_250,250,rng-250,61,rng,num-start-811,811,25726,18.40208649635315,True,,True,1,False,1000,True,1.0
./expes/v2_2020-12-03_dh_250-prng-1,30_issda_250,250,rng-250,171,rng,num-start-891,891,25726,21.245627641677856,True,,True,1,False,1000,True,1.0
./expes/v2_2020-12-03_dh_250-prng-1,30_issda_250,250,rng-250,111,rng,num-start-971,971,25726,24.20570397377014,True,,True,1,False,1000,True,1.0
./expes/v2_2020-12-03_dh_250-prng-1,30_issda_250,250,rng-250,41,rng,num-start-381,381,25726,9.687467098236084,True,,True,1,False,1000,True,1.0
./expes/v2_2020-12-03_dh_250-prng-1,30_issda_250,250,rng-250,181,rng,num-start-361,361,25726,6.46441912651062,True,,True,1,False,1000,True,1.0
./expes/v2_2020-12-03_dh_250-prng-1,30_issda_250,250,rng-250,191,rng,num-start-471,471,25726,10.597888708114624,True,,True,1,False,1000,True,1.0
./expes/v2_2020-12-03_dh_250-prng-1,30_issda_250,250,rng-250,31,rng,num-start-41,41,25726,2.155399799346924,True,,True,1,False,1000,True,1.0
./expes/v2_2020-12-03_dh_250-prng-1,30_issda_250,250,rng-250,31,rng,num-start-61,61,25726,1.4674134254455566,True,,True,1,False,1000,True,1.0
./expes/v2_2020-12-03_dh_250-prng-1,30_issda_250,250,rng-250,121,rng,num-start-31,31,25726,1000.5193736553192,False,,False,0,True,1000,True,0.0
./expes/v2_2020-12-03_dh_250-prng-1,30_issda_250,250,rng-250,241,rng,num-start-611,611,25726,9.652302742004395,True,,True,1,False,1000,True,1.0
./expes/v2_2020-12-03_dh_250-prng-1,30_issda_250,250,rng-250,131,rng,num-start-541,541,25726,12.191454887390137,True,,True,1,False,1000,True,1.0
./expes/v2_2020-12-03_dh_250-prng-1,30_issda_250,250,rng-250,41,rng,num-start-211,211,25726,5.1098010540008545,True,,True,1,False,1000,True,1.0
./expes/v2_2020-12-03_dh_250-prng-1,30_issda_250,250,rng-250,241,rng,num-start-211,211,25726,4.041438102722168,True,,True,1,False,1000,True,1.0
./expes/v2_2020-12-03_dh_250-prng-1,30_issda_250,250,rng-250,81,rng,num-start-71,71,25726,1001.6220026016235,False,,False,0,True,1000,True,0.0
./expes/v2_2020-12-03_dh_250-prng-1,30_issda_250,250,rng-250,21,rng,num-start-741,741,25726,15.989328145980835,True,,True,1,False,1000,True,1.0
./expes/v2_2020-12-03_dh_250-prng-1,30_issda_250,250,rng-250,201,rng,num-start-941,941,25726,23.15036106109619,True,,True,1,False,1000,True,1.0
./expes/v2_2020-12-03_dh_250-prng-1,30_issda_250,250,rng-250,181,rng,num-start-401,401,25726,9.803681135177612,True,,True,1,False,1000,True,1.0
./expes/v2_2020-12-03_dh_250-prng-1,30_issda_250,250,rng-250,141,rng,num-start-771,771,25726,17.063450574874878,True,,True,1,False,1000,True,1.0
./expes/v2_2020-12-03_dh_250-prng-1,30_issda_250,250,rng-250,21,rng,num-start-271,271,25726,6.062821865081787,True,,True,1,False,1000,True,1.0
./expes/v2_2020-12-03_dh_250-prng-1,30_issda_250,250,rng-250,241,rng,num-start-181,181,25726,3.490154266357422,True,,True,1,False,1000,True,1.0
./expes/v2_2020-12-03_dh_250-prng-1,30_issda_250,250,rng-250,211,rng,num-start-841,841,25726,17.021854639053345,True,,True,1,False,1000,True,1.0
./expes/v2_2020-12-03_dh_250-prng-1,30_issda_250,250,rng-250,21,rng,num-start-301,301,25726,6.218844890594482,True,,True,1,False,1000,True,1.0
./expes/v2_2020-12-03_dh_250-prng-1,30_issda_250,250,rng-250,101,rng,num-start-181,181,25726,3.839775323867798,True,,True,1,False,1000,True,1.0
./expes/v2_2020-12-03_dh_250-prng-1,30_issda_250,250,rng-250,11,rng,num-start-531,531,25726,10.030273199081421,True,,True,1,False,1000,True,1.0
./expes/v2_2020-12-03_dh_250-prng-1,30_issda_250,250,rng-250,221,rng,num-start-951,951,25726,19.79603409767151,True,,True,1,False,1000,True,1.0
./expes/v2_2020-12-03_dh_250-prng-1,30_issda_250,250,rng-250,131,rng,num-start-331,331,25726,7.637850761413574,True,,True,1,False,1000,True,1.0
./expes/v2_2020-12-03_dh_250-prng-1,30_issda_250,250,rng-250,141,rng,num-start-341,341,25726,7.880840063095093,True,,True,1,False,1000,True,1.0
./expes/v2_2020-12-03_dh_250-prng-1,30_issda_250,250,rng-250,91,rng,num-start-571,571,25726,11.805349111557007,True,,True,1,False,1000,True,1.0
./expes/v2_2020-12-03_dh_250-prng-1,30_issda_250,250,rng-250,201,rng,num-start-811,811,25726,15.889134645462036,True,,True,1,False,1000,True,1.0
./expes/v2_2020-12-03_dh_250-prng-1,30_issda_250,250,rng-250,51,rng,num-start-621,621,25726,13.09413456916809,True,,True,1,False,1000,True,1.0
./expes/v2_2020-12-03_dh_250-prng-1,30_issda_250,250,rng-250,191,rng,num-start-61,61,25726,1000.9814548492432,False,,False,0,True,1000,True,0.0
./expes/v2_2020-12-03_dh_250-prng-1,30_issda_250,250,rng-250,211,rng,num-start-301,301,25726,6.428558826446533,True,,True,1,False,1000,True,1.0
./expes/v2_2020-12-03_dh_250-prng-1,30_issda_250,250,rng-250,211,rng,num-start-441,441,25726,9.662960767745972,True,,True,1,False,1000,True,1.0
./expes/v2_2020-12-03_dh_250-prng-1,30_issda_250,250,rng-250,11,rng,num-start-761,761,25726,14.629762411117554,True,,True,1,False,1000,True,1.0
./expes/v2_2020-12-03_dh_250-prng-1,30_issda_250,250,rng-250,191,rng,num-start-871,871,25726,20.669994831085205,True,,True,1,False,1000,True,1.0
./expes/v2_2020-12-03_dh_250-prng-1,30_issda_250,250,rng-250,201,rng,num-start-631,631,25726,14.207615613937378,True,,True,1,False,1000,True,1.0
./expes/v2_2020-12-03_dh_250-prng-1,30_issda_250,250,rng-250,221,rng,num-start-691,691,25726,15.476840019226074,True,,True,1,False,1000,True,1.0
./expes/v2_2020-12-03_dh_250-prng-1,30_issda_250,250,rng-250,161,rng,num-start-381,381,25726,9.61701774597168,True,,True,1,False,1000,True,1.0
./expes/v2_2020-12-03_dh_250-prng-1,30_issda_250,250,rng-250,231,rng,num-start-251,251,25726,5.883662462234497,True,,True,1,False,1000,True,1.0
./expes/v2_2020-12-03_dh_250-prng-1,30_issda_250,250,rng-250,181,rng,num-start-131,131,25726,3.3923113346099854,True,,True,1,False,1000,True,1.0
./expes/v2_2020-12-03_dh_250-prng-1,30_issda_250,250,rng-250,51,rng,num-start-601,601,25726,15.078417301177979,True,,True,1,False,1000,True,1.0
./expes/v2_2020-12-03_dh_250-prng-1,30_issda_250,250,rng-250,191,rng,num-start-101,101,25726,2.470726490020752,True,,True,1,False,1000,True,1.0
./expes/v2_2020-12-03_dh_250-prng-1,30_issda_250,250,rng-250,161,rng,num-start-661,661,25726,12.643067836761475,True,,True,1,False,1000,True,1.0
./expes/v2_2020-12-03_dh_250-prng-1,30_issda_250,250,rng-250,121,rng,num-start-51,51,25726,1000.9248254299164,False,,False,0,True,1000,True,0.0
./expes/v2_2020-12-03_dh_250-prng-1,30_issda_250,250,rng-250,101,rng,num-start-21,21,25726,1000.4321782588959,False,,False,0,True,1000,True,0.0
./expes/v2_2020-12-03_dh_250-prng-1,30_issda_250,250,rng-250,21,rng,num-start-911,911,25726,22.082077741622925,True,,True,1,False,1000,True,1.0
./expes/v2_2020-12-03_dh_250-prng-1,30_issda_250,250,rng-250,81,rng,num-start-101,101,25726,5.77155327796936,True,,True,1,False,1000,True,1.0
