expe,clients,clients_size,clients_subset,agg_size,method,days,days_size,days_total,time,valid,valid_sum,success,nsols,wall_hit,wall_time,pooled,valid_sums
./expes/v2_2020-11-09_3bh_100-prng-1,30_base_hphc_100,100,first-100,71,rng,num-start-931,931,17520,18.002739191055298,True,,True,1,False,1000,True,1.0
./expes/v2_2020-11-09_3bh_100-prng-1,30_base_hphc_100,100,first-100,21,rng,num-start-641,641,17520,12.209100008010864,True,,True,1,False,1000,True,1.0
./expes/v2_2020-11-09_3bh_100-prng-1,30_base_hphc_100,100,first-100,61,rng,num-start-881,881,17520,17.229036808013916,True,,True,1,False,1000,True,1.0
./expes/v2_2020-11-09_3bh_100-prng-1,30_base_hphc_100,100,first-100,61,rng,num-start-151,151,17520,3.0416665077209473,True,,True,1,False,1000,True,1.0
./expes/v2_2020-11-09_3bh_100-prng-1,30_base_hphc_100,100,first-100,11,rng,num-start-911,911,17520,17.180747509002686,True,,True,1,False,1000,True,1.0
./expes/v2_2020-11-09_3bh_100-prng-1,30_base_hphc_100,100,first-100,71,rng,num-start-671,671,17520,13.034255504608154,True,,True,1,False,1000,True,1.0
./expes/v2_2020-11-09_3bh_100-prng-1,30_base_hphc_100,100,first-100,11,rng,num-start-511,511,17520,9.585872650146484,True,,True,1,False,1000,True,1.0
./expes/v2_2020-11-09_3bh_100-prng-1,30_base_hphc_100,100,first-100,1,rng,num-start-391,391,17520,6.859034299850464,True,,True,1,False,1000,True,1.0
./expes/v2_2020-11-09_3bh_100-prng-1,30_base_hphc_100,100,first-100,1,rng,num-start-701,701,17520,12.364570379257202,True,,True,1,False,1000,True,1.0
./expes/v2_2020-11-09_3bh_100-prng-1,30_base_hphc_100,100,first-100,51,rng,num-start-61,61,17520,1.2520701885223389,True,,True,1,False,1000,True,1.0
./expes/v2_2020-11-09_3bh_100-prng-1,30_base_hphc_100,100,first-100,11,rng,num-start-651,651,17520,12.04464316368103,True,,True,1,False,1000,True,1.0
./expes/v2_2020-11-09_3bh_100-prng-1,30_base_hphc_100,100,first-100,71,rng,num-start-341,341,17520,6.4367852210998535,True,,True,1,False,1000,True,1.0
./expes/v2_2020-11-09_3bh_100-prng-1,30_base_hphc_100,100,first-100,31,rng,num-start-221,221,17520,4.29583740234375,True,,True,1,False,1000,True,1.0
./expes/v2_2020-11-09_3bh_100-prng-1,30_base_hphc_100,100,first-100,21,rng,num-start-591,591,17520,11.120967388153076,True,,True,1,False,1000,True,1.0
./expes/v2_2020-11-09_3bh_100-prng-1,30_base_hphc_100,100,first-100,61,rng,num-start-591,591,17520,11.430928468704224,True,,True,1,False,1000,True,1.0
./expes/v2_2020-11-09_3bh_100-prng-1,30_base_hphc_100,100,first-100,21,rng,num-start-981,981,17520,19.449625492095947,True,,True,1,False,1000,True,1.0
./expes/v2_2020-11-09_3bh_100-prng-1,30_base_hphc_100,100,first-100,71,rng,num-start-401,401,17520,7.564481019973755,True,,True,1,False,1000,True,1.0
./expes/v2_2020-11-09_3bh_100-prng-1,30_base_hphc_100,100,first-100,71,rng,num-start-751,751,17520,14.635578393936157,True,,True,1,False,1000,True,1.0
./expes/v2_2020-11-09_3bh_100-prng-1,30_base_hphc_100,100,first-100,21,rng,num-start-321,321,17520,6.095452547073364,True,,True,1,False,1000,True,1.0
./expes/v2_2020-11-09_3bh_100-prng-1,30_base_hphc_100,100,first-100,41,rng,num-start-941,941,17520,17.961777687072754,True,,True,1,False,1000,True,1.0
./expes/v2_2020-11-09_3bh_100-prng-1,30_base_hphc_100,100,first-100,81,rng,num-start-501,501,17520,9.800706148147583,True,,True,1,False,1000,True,1.0
./expes/v2_2020-11-09_3bh_100-prng-1,30_base_hphc_100,100,first-100,81,rng,num-start-641,641,17520,11.976080417633057,True,,True,1,False,1000,True,1.0
./expes/v2_2020-11-09_3bh_100-prng-1,30_base_hphc_100,100,first-100,1,rng,num-start-811,811,17520,14.31912612915039,True,,True,1,False,1000,True,1.0
./expes/v2_2020-11-09_3bh_100-prng-1,30_base_hphc_100,100,first-100,61,rng,num-start-631,631,17520,11.859483242034912,True,,True,1,False,1000,True,1.0
./expes/v2_2020-11-09_3bh_100-prng-1,30_base_hphc_100,100,first-100,81,rng,num-start-91,91,17520,1.775026798248291,True,,True,1,False,1000,True,1.0
./expes/v2_2020-11-09_3bh_100-prng-1,30_base_hphc_100,100,first-100,31,rng,num-start-961,961,17520,18.62219786643982,True,,True,1,False,1000,True,1.0
./expes/v2_2020-11-09_3bh_100-prng-1,30_base_hphc_100,100,first-100,41,rng,num-start-921,921,17520,17.492169618606567,True,,True,1,False,1000,True,1.0
./expes/v2_2020-11-09_3bh_100-prng-1,30_base_hphc_100,100,first-100,1,rng,num-start-341,341,17520,6.023118495941162,True,,True,1,False,1000,True,1.0
./expes/v2_2020-11-09_3bh_100-prng-1,30_base_hphc_100,100,first-100,91,rng,num-start-321,321,17520,5.681483268737793,True,,True,1,False,1000,True,1.0
./expes/v2_2020-11-09_3bh_100-prng-1,30_base_hphc_100,100,first-100,1,rng,num-start-801,801,17520,14.065843343734741,True,,True,1,False,1000,True,1.0
./expes/v2_2020-11-09_3bh_100-prng-1,30_base_hphc_100,100,first-100,81,rng,num-start-451,451,17520,8.526215314865112,True,,True,1,False,1000,True,1.0
./expes/v2_2020-11-09_3bh_100-prng-1,30_base_hphc_100,100,first-100,1,rng,num-start-431,431,17520,7.598586320877075,True,,True,1,False,1000,True,1.0
./expes/v2_2020-11-09_3bh_100-prng-1,30_base_hphc_100,100,first-100,1,rng,num-start-381,381,17520,6.749408721923828,True,,True,1,False,1000,True,1.0
./expes/v2_2020-11-09_3bh_100-prng-1,30_base_hphc_100,100,first-100,1,rng,num-start-861,861,17520,15.11071515083313,True,,True,1,False,1000,True,1.0
./expes/v2_2020-11-09_3bh_100-prng-1,30_base_hphc_100,100,first-100,81,rng,num-start-421,421,17520,7.868506908416748,True,,True,1,False,1000,True,1.0
./expes/v2_2020-11-09_3bh_100-prng-1,30_base_hphc_100,100,first-100,41,rng,num-start-71,71,17520,1.4957242012023926,True,,True,1,False,1000,True,1.0
./expes/v2_2020-11-09_3bh_100-prng-1,30_base_hphc_100,100,first-100,71,rng,num-start-261,261,17520,5.087737798690796,True,,True,1,False,1000,True,1.0
./expes/v2_2020-11-09_3bh_100-prng-1,30_base_hphc_100,100,first-100,71,rng,num-start-681,681,17520,13.006330251693726,True,,True,1,False,1000,True,1.0
./expes/v2_2020-11-09_3bh_100-prng-1,30_base_hphc_100,100,first-100,61,rng,num-start-421,421,17520,7.861449480056763,True,,True,1,False,1000,True,1.0
./expes/v2_2020-11-09_3bh_100-prng-1,30_base_hphc_100,100,first-100,31,rng,num-start-541,541,17520,10.220149993896484,True,,True,1,False,1000,True,1.0
./expes/v2_2020-11-09_3bh_100-prng-1,30_base_hphc_100,100,first-100,91,rng,num-start-31,31,17520,0.677757978439331,True,,True,1,False,1000,True,1.0
./expes/v2_2020-11-09_3bh_100-prng-1,30_base_hphc_100,100,first-100,71,rng,num-start-541,541,17520,10.12300992012024,True,,True,1,False,1000,True,1.0
./expes/v2_2020-11-09_3bh_100-prng-1,30_base_hphc_100,100,first-100,11,rng,num-start-421,421,17520,7.867520093917847,True,,True,1,False,1000,True,1.0
./expes/v2_2020-11-09_3bh_100-prng-1,30_base_hphc_100,100,first-100,1,rng,num-start-641,641,17520,11.30725383758545,True,,True,1,False,1000,True,1.0
./expes/v2_2020-11-09_3bh_100-prng-1,30_base_hphc_100,100,first-100,81,rng,num-start-251,251,17520,4.810983896255493,True,,True,1,False,1000,True,1.0
./expes/v2_2020-11-09_3bh_100-prng-1,30_base_hphc_100,100,first-100,71,rng,num-start-791,791,17520,14.993187665939331,True,,True,1,False,1000,True,1.0
./expes/v2_2020-11-09_3bh_100-prng-1,30_base_hphc_100,100,first-100,31,rng,num-start-61,61,17520,1.245131015777588,True,,True,1,False,1000,True,1.0
./expes/v2_2020-11-09_3bh_100-prng-1,30_base_hphc_100,100,first-100,31,rng,num-start-91,91,17520,1.7861855030059814,True,,True,1,False,1000,True,1.0
./expes/v2_2020-11-09_3bh_100-prng-1,30_base_hphc_100,100,first-100,1,rng,num-start-511,511,17520,9.014909505844116,True,,True,1,False,1000,True,1.0
./expes/v2_2020-11-09_3bh_100-prng-1,30_base_hphc_100,100,first-100,21,rng,num-start-831,831,17520,15.679121971130371,True,,True,1,False,1000,True,1.0
./expes/v2_2020-11-09_3bh_100-prng-1,30_base_hphc_100,100,first-100,71,rng,num-start-521,521,17520,9.824574708938599,True,,True,1,False,1000,True,1.0
./expes/v2_2020-11-09_3bh_100-prng-1,30_base_hphc_100,100,first-100,51,rng,num-start-451,451,17520,8.477304935455322,True,,True,1,False,1000,True,1.0
./expes/v2_2020-11-09_3bh_100-prng-1,30_base_hphc_100,100,first-100,21,rng,num-start-221,221,17520,4.327637195587158,True,,True,1,False,1000,True,1.0
./expes/v2_2020-11-09_3bh_100-prng-1,30_base_hphc_100,100,first-100,1,rng,num-start-991,991,17520,17.402244091033936,True,,True,1,False,1000,True,1.0
./expes/v2_2020-11-09_3bh_100-prng-1,30_base_hphc_100,100,first-100,11,rng,num-start-671,671,17520,12.507857322692871,True,,True,1,False,1000,True,1.0
./expes/v2_2020-11-09_3bh_100-prng-1,30_base_hphc_100,100,first-100,31,rng,num-start-731,731,17520,14.035983324050903,True,,True,1,False,1000,True,1.0
./expes/v2_2020-11-09_3bh_100-prng-1,30_base_hphc_100,100,first-100,71,rng,num-start-51,51,17520,1.105259895324707,True,,True,1,False,1000,True,1.0
./expes/v2_2020-11-09_3bh_100-prng-1,30_base_hphc_100,100,first-100,11,rng,num-start-551,551,17520,10.317418575286865,True,,True,1,False,1000,True,1.0
./expes/v2_2020-11-09_3bh_100-prng-1,30_base_hphc_100,100,first-100,41,rng,num-start-911,911,17520,17.54718518257141,True,,True,1,False,1000,True,1.0
./expes/v2_2020-11-09_3bh_100-prng-1,30_base_hphc_100,100,first-100,81,rng,num-start-451,451,17520,8.524068832397461,True,,True,1,False,1000,True,1.0
./expes/v2_2020-11-09_3bh_100-prng-1,30_base_hphc_100,100,first-100,1,rng,num-start-961,961,17520,16.9132137298584,True,,True,1,False,1000,True,1.0
./expes/v2_2020-11-09_3bh_100-prng-1,30_base_hphc_100,100,first-100,21,rng,num-start-61,61,17520,1.3240740299224854,True,,True,1,False,1000,True,1.0
./expes/v2_2020-11-09_3bh_100-prng-1,30_base_hphc_100,100,first-100,31,rng,num-start-871,871,17520,16.933998107910156,True,,True,1,False,1000,True,1.0
./expes/v2_2020-11-09_3bh_100-prng-1,30_base_hphc_100,100,first-100,51,rng,num-start-771,771,17520,14.933818817138672,True,,True,1,False,1000,True,1.0
./expes/v2_2020-11-09_3bh_100-prng-1,30_base_hphc_100,100,first-100,1,rng,num-start-361,361,17520,6.311490058898926,True,,True,1,False,1000,True,1.0
./expes/v2_2020-11-09_3bh_100-prng-1,30_base_hphc_100,100,first-100,81,rng,num-start-231,231,17520,4.444535732269287,True,,True,1,False,1000,True,1.0
./expes/v2_2020-11-09_3bh_100-prng-1,30_base_hphc_100,100,first-100,51,rng,num-start-231,231,17520,4.581886053085327,True,,True,1,False,1000,True,1.0
./expes/v2_2020-11-09_3bh_100-prng-1,30_base_hphc_100,100,first-100,61,rng,num-start-641,641,17520,12.11665153503418,True,,True,1,False,1000,True,1.0
./expes/v2_2020-11-09_3bh_100-prng-1,30_base_hphc_100,100,first-100,31,rng,num-start-71,71,17520,1.4340150356292725,True,,True,1,False,1000,True,1.0
./expes/v2_2020-11-09_3bh_100-prng-1,30_base_hphc_100,100,first-100,71,rng,num-start-611,611,17520,11.77243161201477,True,,True,1,False,1000,True,1.0
./expes/v2_2020-11-09_3bh_100-prng-1,30_base_hphc_100,100,first-100,31,rng,num-start-561,561,17520,10.552803993225098,True,,True,1,False,1000,True,1.0
./expes/v2_2020-11-09_3bh_100-prng-1,30_base_hphc_100,100,first-100,91,rng,num-start-261,261,17520,4.813145637512207,True,,True,1,False,1000,True,1.0
./expes/v2_2020-11-09_3bh_100-prng-1,30_base_hphc_100,100,first-100,31,rng,num-start-261,261,17520,5.089829921722412,True,,True,1,False,1000,True,1.0
./expes/v2_2020-11-09_3bh_100-prng-1,30_base_hphc_100,100,first-100,1,rng,num-start-591,591,17520,10.40925931930542,True,,True,1,False,1000,True,1.0
./expes/v2_2020-11-09_3bh_100-prng-1,30_base_hphc_100,100,first-100,31,rng,num-start-391,391,17520,7.506254434585571,True,,True,1,False,1000,True,1.0
./expes/v2_2020-11-09_3bh_100-prng-1,30_base_hphc_100,100,first-100,61,rng,num-start-661,661,17520,12.942054510116577,True,,True,1,False,1000,True,1.0
./expes/v2_2020-11-09_3bh_100-prng-1,30_base_hphc_100,100,first-100,71,rng,num-start-141,141,17520,2.7475802898406982,True,,True,1,False,1000,True,1.0
./expes/v2_2020-11-09_3bh_100-prng-1,30_base_hphc_100,100,first-100,21,rng,num-start-931,931,17520,17.848637580871582,True,,True,1,False,1000,True,1.0
./expes/v2_2020-11-09_3bh_100-prng-1,30_base_hphc_100,100,first-100,51,rng,num-start-771,771,17520,14.740183353424072,True,,True,1,False,1000,True,1.0
./expes/v2_2020-11-09_3bh_100-prng-1,30_base_hphc_100,100,first-100,81,rng,num-start-761,761,17520,14.293324947357178,True,,True,1,False,1000,True,1.0
./expes/v2_2020-11-09_3bh_100-prng-1,30_base_hphc_100,100,first-100,61,rng,num-start-321,321,17520,6.0877532958984375,True,,True,1,False,1000,True,1.0
./expes/v2_2020-11-09_3bh_100-prng-1,30_base_hphc_100,100,first-100,1,rng,num-start-381,381,17520,6.776580810546875,True,,True,1,False,1000,True,1.0
./expes/v2_2020-11-09_3bh_100-prng-1,30_base_hphc_100,100,first-100,81,rng,num-start-931,931,17520,17.501208543777466,True,,True,1,False,1000,True,1.0
./expes/v2_2020-11-09_3bh_100-prng-1,30_base_hphc_100,100,first-100,21,rng,num-start-221,221,17520,4.33286190032959,True,,True,1,False,1000,True,1.0
./expes/v2_2020-11-09_3bh_100-prng-1,30_base_hphc_100,100,first-100,11,rng,num-start-501,501,17520,9.368097305297852,True,,True,1,False,1000,True,1.0
./expes/v2_2020-11-09_3bh_100-prng-1,30_base_hphc_100,100,first-100,11,rng,num-start-41,41,17520,0.8450124263763428,True,,True,1,False,1000,True,1.0
./expes/v2_2020-11-09_3bh_100-prng-1,30_base_hphc_100,100,first-100,51,rng,num-start-691,691,17520,13.03327202796936,True,,True,1,False,1000,True,1.0
./expes/v2_2020-11-09_3bh_100-prng-1,30_base_hphc_100,100,first-100,41,rng,num-start-21,21,17520,1005.2169971466064,False,,False,0,True,1000,True,0.0
./expes/v2_2020-11-09_3bh_100-prng-1,30_base_hphc_100,100,first-100,81,rng,num-start-651,651,17520,12.282995223999023,True,,True,1,False,1000,True,1.0
./expes/v2_2020-11-09_3bh_100-prng-1,30_base_hphc_100,100,first-100,1,rng,num-start-101,101,17520,1.8176369667053223,True,,True,1,False,1000,True,1.0
./expes/v2_2020-11-09_3bh_100-prng-1,30_base_hphc_100,100,first-100,91,rng,num-start-471,471,17520,8.336822748184204,True,,True,1,False,1000,True,1.0
./expes/v2_2020-11-09_3bh_100-prng-1,30_base_hphc_100,100,first-100,1,rng,num-start-861,861,17520,15.117148160934448,True,,True,1,False,1000,True,1.0
./expes/v2_2020-11-09_3bh_100-prng-1,30_base_hphc_100,100,first-100,1,rng,num-start-211,211,17520,3.75319504737854,True,,True,1,False,1000,True,1.0
./expes/v2_2020-11-09_3bh_100-prng-1,30_base_hphc_100,100,first-100,61,rng,num-start-141,141,17520,2.851525068283081,True,,True,1,False,1000,True,1.0
./expes/v2_2020-11-09_3bh_100-prng-1,30_base_hphc_100,100,first-100,1,rng,num-start-21,21,17520,0.3724677562713623,True,,True,1,False,1000,True,1.0
./expes/v2_2020-11-09_3bh_100-prng-1,30_base_hphc_100,100,first-100,81,rng,num-start-511,511,17520,9.70125436782837,True,,True,1,False,1000,True,1.0
./expes/v2_2020-11-09_3bh_100-prng-1,30_base_hphc_100,100,first-100,21,rng,num-start-571,571,17520,10.818224430084229,True,,True,1,False,1000,True,1.0
./expes/v2_2020-11-09_3bh_100-prng-1,30_base_hphc_100,100,first-100,31,rng,num-start-481,481,17520,9.099878549575806,True,,True,1,False,1000,True,1.0
./expes/v2_2020-11-09_3bh_100-prng-1,30_base_hphc_100,100,first-100,81,rng,num-start-621,621,17520,11.62567925453186,True,,True,1,False,1000,True,1.0
./expes/v2_2020-11-09_3bh_100-prng-1,30_base_hphc_100,100,first-100,51,rng,num-start-961,961,17520,18.484912872314453,True,,True,1,False,1000,True,1.0
./expes/v2_2020-11-09_3bh_100-prng-1,30_base_hphc_100,100,first-100,81,rng,num-start-221,221,17520,4.364504337310791,True,,True,1,False,1000,True,1.0
./expes/v2_2020-11-09_3bh_100-prng-1,30_base_hphc_100,100,first-100,1,rng,num-start-101,101,17520,1.8238482475280762,True,,True,1,False,1000,True,1.0
./expes/v2_2020-11-09_3bh_100-prng-1,30_base_hphc_100,100,first-100,91,rng,num-start-701,701,17520,12.780215501785278,True,,True,1,False,1000,True,1.0
./expes/v2_2020-11-09_3bh_100-prng-1,30_base_hphc_100,100,first-100,11,rng,num-start-161,161,17520,3.2594082355499268,True,,True,1,False,1000,True,1.0
./expes/v2_2020-11-09_3bh_100-prng-1,30_base_hphc_100,100,first-100,81,rng,num-start-191,191,17520,3.640284299850464,True,,True,1,False,1000,True,1.0
./expes/v2_2020-11-09_3bh_100-prng-1,30_base_hphc_100,100,first-100,81,rng,num-start-291,291,17520,5.614086389541626,True,,True,1,False,1000,True,1.0
./expes/v2_2020-11-09_3bh_100-prng-1,30_base_hphc_100,100,first-100,11,rng,num-start-151,151,17520,3.0067691802978516,True,,True,1,False,1000,True,1.0
./expes/v2_2020-11-09_3bh_100-prng-1,30_base_hphc_100,100,first-100,1,rng,num-start-451,451,17520,7.947412490844727,True,,True,1,False,1000,True,1.0
./expes/v2_2020-11-09_3bh_100-prng-1,30_base_hphc_100,100,first-100,1,rng,num-start-361,361,17520,6.352718353271484,True,,True,1,False,1000,True,1.0
./expes/v2_2020-11-09_3bh_100-prng-1,30_base_hphc_100,100,first-100,61,rng,num-start-321,321,17520,6.108493328094482,True,,True,1,False,1000,True,1.0
./expes/v2_2020-11-09_3bh_100-prng-1,30_base_hphc_100,100,first-100,51,rng,num-start-461,461,17520,8.66968297958374,True,,True,1,False,1000,True,1.0
./expes/v2_2020-11-09_3bh_100-prng-1,30_base_hphc_100,100,first-100,81,rng,num-start-31,31,17520,0.6986343860626221,True,,True,1,False,1000,True,1.0
./expes/v2_2020-11-09_3bh_100-prng-1,30_base_hphc_100,100,first-100,61,rng,num-start-881,881,17520,16.977954387664795,True,,True,1,False,1000,True,1.0
./expes/v2_2020-11-09_3bh_100-prng-1,30_base_hphc_100,100,first-100,1,rng,num-start-141,141,17520,2.5234568119049072,True,,True,1,False,1000,True,1.0
./expes/v2_2020-11-09_3bh_100-prng-1,30_base_hphc_100,100,first-100,61,rng,num-start-341,341,17520,6.561752080917358,True,,True,1,False,1000,True,1.0
./expes/v2_2020-11-09_3bh_100-prng-1,30_base_hphc_100,100,first-100,71,rng,num-start-841,841,17520,16.10253095626831,True,,True,1,False,1000,True,1.0
./expes/v2_2020-11-09_3bh_100-prng-1,30_base_hphc_100,100,first-100,11,rng,num-start-311,311,17520,5.88606333732605,True,,True,1,False,1000,True,1.0
./expes/v2_2020-11-09_3bh_100-prng-1,30_base_hphc_100,100,first-100,1,rng,num-start-361,361,17520,6.319465398788452,True,,True,1,False,1000,True,1.0
./expes/v2_2020-11-09_3bh_100-prng-1,30_base_hphc_100,100,first-100,51,rng,num-start-551,551,17520,10.531681299209595,True,,True,1,False,1000,True,1.0
./expes/v2_2020-11-09_3bh_100-prng-1,30_base_hphc_100,100,first-100,21,rng,num-start-791,791,17520,15.095303297042847,True,,True,1,False,1000,True,1.0
./expes/v2_2020-11-09_3bh_100-prng-1,30_base_hphc_100,100,first-100,21,rng,num-start-991,991,17520,18.579614877700806,True,,True,1,False,1000,True,1.0
./expes/v2_2020-11-09_3bh_100-prng-1,30_base_hphc_100,100,first-100,91,rng,num-start-521,521,17520,9.500701427459717,True,,True,1,False,1000,True,1.0
./expes/v2_2020-11-09_3bh_100-prng-1,30_base_hphc_100,100,first-100,21,rng,num-start-571,571,17520,11.090669870376587,True,,True,1,False,1000,True,1.0
./expes/v2_2020-11-09_3bh_100-prng-1,30_base_hphc_100,100,first-100,81,rng,num-start-881,881,17520,16.616070985794067,True,,True,1,False,1000,True,1.0
./expes/v2_2020-11-09_3bh_100-prng-1,30_base_hphc_100,100,first-100,11,rng,num-start-851,851,17520,15.939165830612183,True,,True,1,False,1000,True,1.0
./expes/v2_2020-11-09_3bh_100-prng-1,30_base_hphc_100,100,first-100,1,rng,num-start-141,141,17520,2.5153536796569824,True,,True,1,False,1000,True,1.0
./expes/v2_2020-11-09_3bh_100-prng-1,30_base_hphc_100,100,first-100,81,rng,num-start-761,761,17520,14.430813312530518,True,,True,1,False,1000,True,1.0
./expes/v2_2020-11-09_3bh_100-prng-1,30_base_hphc_100,100,first-100,91,rng,num-start-421,421,17520,7.541017770767212,True,,True,1,False,1000,True,1.0
./expes/v2_2020-11-09_3bh_100-prng-1,30_base_hphc_100,100,first-100,1,rng,num-start-261,261,17520,4.604879856109619,True,,True,1,False,1000,True,1.0
./expes/v2_2020-11-09_3bh_100-prng-1,30_base_hphc_100,100,first-100,81,rng,num-start-171,171,17520,3.416926145553589,True,,True,1,False,1000,True,1.0
./expes/v2_2020-11-09_3bh_100-prng-1,30_base_hphc_100,100,first-100,1,rng,num-start-361,361,17520,6.412407636642456,True,,True,1,False,1000,True,1.0
./expes/v2_2020-11-09_3bh_100-prng-1,30_base_hphc_100,100,first-100,31,rng,num-start-681,681,17520,13.14787769317627,True,,True,1,False,1000,True,1.0
./expes/v2_2020-11-09_3bh_100-prng-1,30_base_hphc_100,100,first-100,31,rng,num-start-941,941,17520,17.96045708656311,True,,True,1,False,1000,True,1.0
./expes/v2_2020-11-09_3bh_100-prng-1,30_base_hphc_100,100,first-100,51,rng,num-start-371,371,17520,7.001999378204346,True,,True,1,False,1000,True,1.0
./expes/v2_2020-11-09_3bh_100-prng-1,30_base_hphc_100,100,first-100,21,rng,num-start-701,701,17520,13.250996828079224,True,,True,1,False,1000,True,1.0
./expes/v2_2020-11-09_3bh_100-prng-1,30_base_hphc_100,100,first-100,41,rng,num-start-961,961,17520,18.331376552581787,True,,True,1,False,1000,True,1.0
./expes/v2_2020-11-09_3bh_100-prng-1,30_base_hphc_100,100,first-100,21,rng,num-start-491,491,17520,9.303581237792969,True,,True,1,False,1000,True,1.0
./expes/v2_2020-11-09_3bh_100-prng-1,30_base_hphc_100,100,first-100,21,rng,num-start-451,451,17520,8.57005524635315,True,,True,1,False,1000,True,1.0
./expes/v2_2020-11-09_3bh_100-prng-1,30_base_hphc_100,100,first-100,61,rng,num-start-531,531,17520,10.473309516906738,True,,True,1,False,1000,True,1.0
./expes/v2_2020-11-09_3bh_100-prng-1,30_base_hphc_100,100,first-100,61,rng,num-start-431,431,17520,8.452595949172974,True,,True,1,False,1000,True,1.0
./expes/v2_2020-11-09_3bh_100-prng-1,30_base_hphc_100,100,first-100,61,rng,num-start-361,361,17520,6.8634209632873535,True,,True,1,False,1000,True,1.0
./expes/v2_2020-11-09_3bh_100-prng-1,30_base_hphc_100,100,first-100,11,rng,num-start-481,481,17520,9.140083312988281,True,,True,1,False,1000,True,1.0
./expes/v2_2020-11-09_3bh_100-prng-1,30_base_hphc_100,100,first-100,81,rng,num-start-681,681,17520,12.971113443374634,True,,True,1,False,1000,True,1.0
./expes/v2_2020-11-09_3bh_100-prng-1,30_base_hphc_100,100,first-100,61,rng,num-start-311,311,17520,6.023196220397949,True,,True,1,False,1000,True,1.0
./expes/v2_2020-11-09_3bh_100-prng-1,30_base_hphc_100,100,first-100,11,rng,num-start-481,481,17520,9.066957235336304,True,,True,1,False,1000,True,1.0
./expes/v2_2020-11-09_3bh_100-prng-1,30_base_hphc_100,100,first-100,71,rng,num-start-601,601,17520,11.40415072441101,True,,True,1,False,1000,True,1.0
./expes/v2_2020-11-09_3bh_100-prng-1,30_base_hphc_100,100,first-100,21,rng,num-start-131,131,17520,2.6297173500061035,True,,True,1,False,1000,True,1.0
./expes/v2_2020-11-09_3bh_100-prng-1,30_base_hphc_100,100,first-100,1,rng,num-start-371,371,17520,6.528608798980713,True,,True,1,False,1000,True,1.0
./expes/v2_2020-11-09_3bh_100-prng-1,30_base_hphc_100,100,first-100,71,rng,num-start-711,711,17520,13.568155527114868,True,,True,1,False,1000,True,1.0
./expes/v2_2020-11-09_3bh_100-prng-1,30_base_hphc_100,100,first-100,21,rng,num-start-671,671,17520,12.771338939666748,True,,True,1,False,1000,True,1.0
./expes/v2_2020-11-09_3bh_100-prng-1,30_base_hphc_100,100,first-100,81,rng,num-start-991,991,17520,18.705904245376587,True,,True,1,False,1000,True,1.0
./expes/v2_2020-11-09_3bh_100-prng-1,30_base_hphc_100,100,first-100,1,rng,num-start-671,671,17520,11.837611675262451,True,,True,1,False,1000,True,1.0
./expes/v2_2020-11-09_3bh_100-prng-1,30_base_hphc_100,100,first-100,41,rng,num-start-181,181,17520,3.6086065769195557,True,,True,1,False,1000,True,1.0
./expes/v2_2020-11-09_3bh_100-prng-1,30_base_hphc_100,100,first-100,81,rng,num-start-491,491,17520,9.365425109863281,True,,True,1,False,1000,True,1.0
./expes/v2_2020-11-09_3bh_100-prng-1,30_base_hphc_100,100,first-100,61,rng,num-start-911,911,17520,17.38717818260193,True,,True,1,False,1000,True,1.0
./expes/v2_2020-11-09_3bh_100-prng-1,30_base_hphc_100,100,first-100,31,rng,num-start-101,101,17520,2.003084659576416,True,,True,1,False,1000,True,1.0
./expes/v2_2020-11-09_3bh_100-prng-1,30_base_hphc_100,100,first-100,91,rng,num-start-711,711,17520,13.041640281677246,True,,True,1,False,1000,True,1.0
./expes/v2_2020-11-09_3bh_100-prng-1,30_base_hphc_100,100,first-100,21,rng,num-start-511,511,17520,9.814373016357422,True,,True,1,False,1000,True,1.0
./expes/v2_2020-11-09_3bh_100-prng-1,30_base_hphc_100,100,first-100,51,rng,num-start-681,681,17520,13.330938339233398,True,,True,1,False,1000,True,1.0
./expes/v2_2020-11-09_3bh_100-prng-1,30_base_hphc_100,100,first-100,1,rng,num-start-421,421,17520,7.461773157119751,True,,True,1,False,1000,True,1.0
./expes/v2_2020-11-09_3bh_100-prng-1,30_base_hphc_100,100,first-100,11,rng,num-start-961,961,17520,17.595141172409058,True,,True,1,False,1000,True,1.0
./expes/v2_2020-11-09_3bh_100-prng-1,30_base_hphc_100,100,first-100,61,rng,num-start-441,441,17520,8.318469762802124,True,,True,1,False,1000,True,1.0
./expes/v2_2020-11-09_3bh_100-prng-1,30_base_hphc_100,100,first-100,11,rng,num-start-281,281,17520,5.40420389175415,True,,True,1,False,1000,True,1.0
./expes/v2_2020-11-09_3bh_100-prng-1,30_base_hphc_100,100,first-100,71,rng,num-start-271,271,17520,5.296585321426392,True,,True,1,False,1000,True,1.0
./expes/v2_2020-11-09_3bh_100-prng-1,30_base_hphc_100,100,first-100,41,rng,num-start-191,191,17520,3.8466646671295166,True,,True,1,False,1000,True,1.0
./expes/v2_2020-11-09_3bh_100-prng-1,30_base_hphc_100,100,first-100,11,rng,num-start-281,281,17520,5.342233419418335,True,,True,1,False,1000,True,1.0
./expes/v2_2020-11-09_3bh_100-prng-1,30_base_hphc_100,100,first-100,11,rng,num-start-741,741,17520,13.843781471252441,True,,True,1,False,1000,True,1.0
./expes/v2_2020-11-09_3bh_100-prng-1,30_base_hphc_100,100,first-100,1,rng,num-start-441,441,17520,7.808101415634155,True,,True,1,False,1000,True,1.0
./expes/v2_2020-11-09_3bh_100-prng-1,30_base_hphc_100,100,first-100,51,rng,num-start-381,381,17520,7.222635746002197,True,,True,1,False,1000,True,1.0
./expes/v2_2020-11-09_3bh_100-prng-1,30_base_hphc_100,100,first-100,21,rng,num-start-801,801,17520,15.291896343231201,True,,True,1,False,1000,True,1.0
./expes/v2_2020-11-09_3bh_100-prng-1,30_base_hphc_100,100,first-100,81,rng,num-start-571,571,17520,10.928903579711914,True,,True,1,False,1000,True,1.0
./expes/v2_2020-11-09_3bh_100-prng-1,30_base_hphc_100,100,first-100,81,rng,num-start-31,31,17520,1.0802597999572754,True,,True,1,False,1000,True,1.0
./expes/v2_2020-11-09_3bh_100-prng-1,30_base_hphc_100,100,first-100,31,rng,num-start-201,201,17520,4.0283403396606445,True,,True,1,False,1000,True,1.0
./expes/v2_2020-11-09_3bh_100-prng-1,30_base_hphc_100,100,first-100,81,rng,num-start-631,631,17520,11.844779014587402,True,,True,1,False,1000,True,1.0
./expes/v2_2020-11-09_3bh_100-prng-1,30_base_hphc_100,100,first-100,51,rng,num-start-941,941,17520,18.42932415008545,True,,True,1,False,1000,True,1.0
./expes/v2_2020-11-09_3bh_100-prng-1,30_base_hphc_100,100,first-100,81,rng,num-start-771,771,17520,14.717409610748291,True,,True,1,False,1000,True,1.0
./expes/v2_2020-11-09_3bh_100-prng-1,30_base_hphc_100,100,first-100,81,rng,num-start-921,921,17520,17.7357337474823,True,,True,1,False,1000,True,1.0
./expes/v2_2020-11-09_3bh_100-prng-1,30_base_hphc_100,100,first-100,11,rng,num-start-21,21,17520,0.8085081577301025,True,,True,1,False,1000,True,1.0
./expes/v2_2020-11-09_3bh_100-prng-1,30_base_hphc_100,100,first-100,81,rng,num-start-891,891,17520,16.867332220077515,True,,True,1,False,1000,True,1.0
./expes/v2_2020-11-09_3bh_100-prng-1,30_base_hphc_100,100,first-100,81,rng,num-start-601,601,17520,11.23555874824524,True,,True,1,False,1000,True,1.0
./expes/v2_2020-11-09_3bh_100-prng-1,30_base_hphc_100,100,first-100,71,rng,num-start-841,841,17520,16.79739546775818,True,,True,1,False,1000,True,1.0
./expes/v2_2020-11-09_3bh_100-prng-1,30_base_hphc_100,100,first-100,41,rng,num-start-211,211,17520,4.141361474990845,True,,True,1,False,1000,True,1.0
./expes/v2_2020-11-09_3bh_100-prng-1,30_base_hphc_100,100,first-100,21,rng,num-start-921,921,17520,17.558749675750732,True,,True,1,False,1000,True,1.0
./expes/v2_2020-11-09_3bh_100-prng-1,30_base_hphc_100,100,first-100,91,rng,num-start-101,101,17520,1.9030988216400146,True,,True,1,False,1000,True,1.0
./expes/v2_2020-11-09_3bh_100-prng-1,30_base_hphc_100,100,first-100,81,rng,num-start-411,411,17520,7.799320936203003,True,,True,1,False,1000,True,1.0
./expes/v2_2020-11-09_3bh_100-prng-1,30_base_hphc_100,100,first-100,41,rng,num-start-971,971,17520,18.93182110786438,True,,True,1,False,1000,True,1.0
./expes/v2_2020-11-09_3bh_100-prng-1,30_base_hphc_100,100,first-100,31,rng,num-start-201,201,17520,3.9621989727020264,True,,True,1,False,1000,True,1.0
./expes/v2_2020-11-09_3bh_100-prng-1,30_base_hphc_100,100,first-100,51,rng,num-start-241,241,17520,4.669188022613525,True,,True,1,False,1000,True,1.0
./expes/v2_2020-11-09_3bh_100-prng-1,30_base_hphc_100,100,first-100,1,rng,num-start-761,761,17520,13.456674337387085,True,,True,1,False,1000,True,1.0
./expes/v2_2020-11-09_3bh_100-prng-1,30_base_hphc_100,100,first-100,11,rng,num-start-901,901,17520,16.632262229919434,True,,True,1,False,1000,True,1.0
./expes/v2_2020-11-09_3bh_100-prng-1,30_base_hphc_100,100,first-100,41,rng,num-start-711,711,17520,13.623418807983398,True,,True,1,False,1000,True,1.0
./expes/v2_2020-11-09_3bh_100-prng-1,30_base_hphc_100,100,first-100,51,rng,num-start-91,91,17520,1.8120343685150146,True,,True,1,False,1000,True,1.0
./expes/v2_2020-11-09_3bh_100-prng-1,30_base_hphc_100,100,first-100,71,rng,num-start-571,571,17520,10.782308340072632,True,,True,1,False,1000,True,1.0
./expes/v2_2020-11-09_3bh_100-prng-1,30_base_hphc_100,100,first-100,21,rng,num-start-291,291,17520,5.565404176712036,True,,True,1,False,1000,True,1.0
./expes/v2_2020-11-09_3bh_100-prng-1,30_base_hphc_100,100,first-100,31,rng,num-start-631,631,17520,12.129546165466309,True,,True,1,False,1000,True,1.0
./expes/v2_2020-11-09_3bh_100-prng-1,30_base_hphc_100,100,first-100,31,rng,num-start-701,701,17520,13.508250951766968,True,,True,1,False,1000,True,1.0
./expes/v2_2020-11-09_3bh_100-prng-1,30_base_hphc_100,100,first-100,81,rng,num-start-121,121,17520,2.4087400436401367,True,,True,1,False,1000,True,1.0
./expes/v2_2020-11-09_3bh_100-prng-1,30_base_hphc_100,100,first-100,81,rng,num-start-721,721,17520,13.688398122787476,True,,True,1,False,1000,True,1.0
./expes/v2_2020-11-09_3bh_100-prng-1,30_base_hphc_100,100,first-100,61,rng,num-start-681,681,17520,13.098729848861694,True,,True,1,False,1000,True,1.0
./expes/v2_2020-11-09_3bh_100-prng-1,30_base_hphc_100,100,first-100,81,rng,num-start-891,891,17520,16.815765857696533,True,,True,1,False,1000,True,1.0
./expes/v2_2020-11-09_3bh_100-prng-1,30_base_hphc_100,100,first-100,31,rng,num-start-981,981,17520,19.145187616348267,True,,True,1,False,1000,True,1.0
./expes/v2_2020-11-09_3bh_100-prng-1,30_base_hphc_100,100,first-100,41,rng,num-start-951,951,17520,18.421342611312866,True,,True,1,False,1000,True,1.0
./expes/v2_2020-11-09_3bh_100-prng-1,30_base_hphc_100,100,first-100,11,rng,num-start-281,281,17520,5.369552373886108,True,,True,1,False,1000,True,1.0
./expes/v2_2020-11-09_3bh_100-prng-1,30_base_hphc_100,100,first-100,91,rng,num-start-231,231,17520,4.427120685577393,True,,True,1,False,1000,True,1.0
./expes/v2_2020-11-09_3bh_100-prng-1,30_base_hphc_100,100,first-100,81,rng,num-start-471,471,17520,9.013737916946411,True,,True,1,False,1000,True,1.0
./expes/v2_2020-11-09_3bh_100-prng-1,30_base_hphc_100,100,first-100,31,rng,num-start-511,511,17520,9.725753784179688,True,,True,1,False,1000,True,1.0
./expes/v2_2020-11-09_3bh_100-prng-1,30_base_hphc_100,100,first-100,31,rng,num-start-831,831,17520,16.04913640022278,True,,True,1,False,1000,True,1.0
./expes/v2_2020-11-09_3bh_100-prng-1,30_base_hphc_100,100,first-100,71,rng,num-start-201,201,17520,3.929219961166382,True,,True,1,False,1000,True,1.0
./expes/v2_2020-11-09_3bh_100-prng-1,30_base_hphc_100,100,first-100,41,rng,num-start-701,701,17520,13.446675300598145,True,,True,1,False,1000,True,1.0
./expes/v2_2020-11-09_3bh_100-prng-1,30_base_hphc_100,100,first-100,81,rng,num-start-71,71,17520,1.4374470710754395,True,,True,1,False,1000,True,1.0
./expes/v2_2020-11-09_3bh_100-prng-1,30_base_hphc_100,100,first-100,91,rng,num-start-961,961,17520,17.13049578666687,True,,True,1,False,1000,True,1.0
./expes/v2_2020-11-09_3bh_100-prng-1,30_base_hphc_100,100,first-100,91,rng,num-start-791,791,17520,14.431692600250244,True,,True,1,False,1000,True,1.0
./expes/v2_2020-11-09_3bh_100-prng-1,30_base_hphc_100,100,first-100,91,rng,num-start-761,761,17520,13.959587812423706,True,,True,1,False,1000,True,1.0
./expes/v2_2020-11-09_3bh_100-prng-1,30_base_hphc_100,100,first-100,41,rng,num-start-41,41,17520,1.3510863780975342,True,,True,1,False,1000,True,1.0
./expes/v2_2020-11-09_3bh_100-prng-1,30_base_hphc_100,100,first-100,71,rng,num-start-91,91,17520,1.8670730590820312,True,,True,1,False,1000,True,1.0
./expes/v2_2020-11-09_3bh_100-prng-1,30_base_hphc_100,100,first-100,41,rng,num-start-991,991,17520,18.9150652885437,True,,True,1,False,1000,True,1.0
./expes/v2_2020-11-09_3bh_100-prng-1,30_base_hphc_100,100,first-100,1,rng,num-start-831,831,17520,14.725041151046753,True,,True,1,False,1000,True,1.0
./expes/v2_2020-11-09_3bh_100-prng-1,30_base_hphc_100,100,first-100,81,rng,num-start-831,831,17520,15.989002466201782,True,,True,1,False,1000,True,1.0
./expes/v2_2020-11-09_3bh_100-prng-1,30_base_hphc_100,100,first-100,31,rng,num-start-351,351,17520,6.619977712631226,True,,True,1,False,1000,True,1.0
