expe,clients,clients_size,clients_subset,agg_size,agg_size_pc,method,days,days_size,days_total,noise_method,time,valid,valid_sum,success,score_avg,score_min,score_max,nsols,oracle,wall_hit,wall_time,pooled,pool_size,uuid,optimal,valid_sums
./expes/v3_2021-02-05_di_300-prng-1-w1-p2,daily_issda-300,300,first-300,63,21,rng,num-start-191,191,536,classic,7.430226564407349,True,,True,1.0,1.0,1.0,1,"Index(['3', '8', '17', '18', '19', '23', '34', '37', '39', '42', '50', '58',
       '69', '72', '77', '81', '83', '90', '100', '106', '115', '121', '123',
       '128', '135', '143', '146', '155', '156', '161', '167', '168', '182',
       '185', '186', '188', '192', '193', '196', '197', '212', '216', '220',
       '224', '226', '231', '234', '237', '241', '248', '251', '252', '255',
       '257', '267', '274', '275', '282', '291', '293', '296', '299', '300'],
      dtype='object')",False,1000,True,2,0d6e58d027,1.0,1.0
./expes/v3_2021-02-05_di_300-prng-1-w1-p2,daily_issda-300,300,first-300,21,7,rng,num-start-21,21,536,classic,1003.5629024505615,False,,False,0,,,0,"Index(['1', '12', '19', '42', '49', '75', '99', '102', '134', '140', '164',
       '192', '212', '241', '249', '251', '276', '277', '284', '289', '294'],
      dtype='object')",True,1000,True,2,a9c7a664cf,0.0,0.0
./expes/v3_2021-02-05_di_300-prng-1-w1-p2,daily_issda-300,300,first-300,35,11,rng,num-start-271,271,536,classic,9.338773250579834,True,,True,1.0,1.0,1.0,1,"Index(['21', '32', '38', '49', '51', '52', '72', '76', '105', '112', '129',
       '133', '134', '145', '156', '159', '162', '170', '182', '184', '198',
       '208', '216', '223', '227', '242', '245', '249', '259', '262', '267',
       '273', '283', '287', '299'],
      dtype='object')",False,1000,True,2,68e2039c5a,1.0,1.0
./expes/v3_2021-02-05_di_300-prng-1-w1-p2,daily_issda-300,300,first-300,35,11,rng,num-start-231,231,536,classic,8.356711626052856,True,,True,1.0,1.0,1.0,1,"Index(['11', '14', '31', '35', '45', '47', '53', '55', '80', '85', '89', '92',
       '100', '110', '114', '121', '128', '134', '135', '140', '142', '149',
       '156', '159', '173', '185', '191', '199', '203', '206', '246', '260',
       '267', '275', '282'],
      dtype='object')",False,1000,True,2,50316ece7e,1.0,1.0
./expes/v3_2021-02-05_di_300-prng-1-w1-p2,daily_issda-300,300,first-300,35,11,rng,num-start-161,161,536,classic,5.832038640975952,True,,True,1.0,1.0,1.0,1,"Index(['9', '12', '23', '37', '38', '51', '56', '59', '62', '76', '103', '104',
       '134', '138', '149', '154', '160', '167', '168', '178', '199', '202',
       '203', '211', '213', '217', '226', '234', '262', '267', '271', '278',
       '292', '297', '300'],
      dtype='object')",False,1000,True,2,1188b30ecc,1.0,1.0
./expes/v3_2021-02-05_di_300-prng-1-w1-p2,daily_issda-300,300,first-300,35,11,rng,num-start-251,251,536,classic,8.356116533279419,True,,True,1.0,1.0,1.0,1,"Index(['8', '16', '37', '44', '61', '65', '67', '70', '72', '76', '96', '110',
       '116', '119', '120', '132', '133', '135', '142', '149', '151', '161',
       '178', '183', '187', '220', '221', '224', '230', '231', '250', '273',
       '282', '284', '289'],
      dtype='object')",False,1000,True,2,00597d0dc2,1.0,1.0
./expes/v3_2021-02-05_di_300-prng-1-w1-p2,daily_issda-300,300,first-300,63,21,rng,num-start-231,231,536,classic,8.044853448867798,True,,True,1.0,1.0,1.0,1,"Index(['11', '16', '20', '23', '30', '33', '44', '45', '46', '50', '56', '59',
       '65', '70', '71', '73', '76', '82', '99', '100', '107', '108', '117',
       '120', '121', '127', '133', '137', '147', '161', '174', '183', '190',
       '193', '194', '195', '198', '200', '206', '207', '209', '219', '228',
       '233', '234', '236', '243', '249', '250', '251', '254', '255', '258',
       '260', '265', '267', '273', '277', '286', '294', '297', '298', '300'],
      dtype='object')",False,1000,True,2,870ccff7f4,1.0,1.0
./expes/v3_2021-02-05_di_300-prng-1-w1-p2,daily_issda-300,300,first-300,91,30,rng,num-start-31,31,536,classic,1000.9531173706055,False,,False,0,,,0,"Index(['4', '10', '11', '14', '22', '23', '24', '31', '32', '35', '42', '43',
       '45', '46', '47', '52', '53', '55', '63', '75', '79', '80', '83', '85',
       '89', '91', '92', '95', '100', '101', '102', '104', '110', '114', '118',
       '120', '121', '122', '127', '128', '133', '134', '135', '140', '142',
       '143', '144', '147', '148', '149', '150', '154', '156', '157', '159',
       '160', '165', '166', '168', '170', '173', '176', '183', '185', '191',
       '199', '203', '206', '211', '212', '217', '221', '224', '226', '232',
       '236', '237', '242', '243', '246', '260', '261', '266', '267', '274',
       '275', '281', '282', '286', '294', '299'],
      dtype='object')",True,1000,True,2,39d1de096e,0.0,0.0
./expes/v3_2021-02-05_di_300-prng-1-w1-p2,daily_issda-300,300,first-300,56,18,rng,num-start-141,141,536,classic,5.093637943267822,True,,True,1.0,1.0,1.0,1,"Index(['2', '3', '4', '5', '9', '13', '21', '23', '27', '29', '33', '42', '43',
       '45', '53', '57', '58', '63', '68', '69', '71', '72', '81', '87', '96',
       '102', '103', '104', '105', '108', '115', '122', '137', '144', '150',
       '170', '172', '174', '175', '192', '194', '195', '197', '204', '211',
       '216', '217', '218', '232', '238', '252', '258', '260', '277', '284',
       '297'],
      dtype='object')",False,1000,True,2,64ec218b18,1.0,1.0
./expes/v3_2021-02-05_di_300-prng-1-w1-p2,daily_issda-300,300,first-300,112,37,rng,num-start-231,231,536,classic,8.175212621688843,True,,True,1.0,1.0,1.0,1,"Index(['2', '4', '5', '9', '12', '13', '14', '21', '23', '24',
       ...
       '269', '271', '278', '280', '281', '292', '293', '296', '297', '300'],
      dtype='object', length=112)",False,1000,True,2,997abcec08,1.0,1.0
./expes/v3_2021-02-05_di_300-prng-1-w1-p2,daily_issda-300,300,first-300,91,30,rng,num-start-11,11,536,classic,1000.3836722373962,False,,False,0,,,0,"Index(['3', '4', '5', '6', '7', '8', '11', '12', '15', '17', '23', '24', '25',
       '34', '37', '41', '43', '45', '48', '52', '54', '59', '60', '63', '73',
       '74', '76', '79', '80', '85', '89', '92', '113', '114', '115', '117',
       '119', '121', '122', '123', '125', '126', '130', '131', '133', '138',
       '145', '146', '151', '152', '155', '156', '159', '163', '164', '172',
       '179', '186', '190', '192', '199', '202', '205', '208', '210', '214',
       '216', '217', '228', '229', '233', '234', '236', '238', '241', '244',
       '245', '247', '251', '252', '254', '256', '262', '265', '268', '270',
       '277', '278', '289', '297', '299'],
      dtype='object')",True,1000,True,2,7f4295e520,0.0,0.0
./expes/v3_2021-02-05_di_300-prng-1-w1-p2,daily_issda-300,300,first-300,28,9,rng,num-start-121,121,536,classic,4.155735492706299,True,,True,1.0,1.0,1.0,1,"Index(['20', '25', '30', '31', '32', '36', '38', '45', '47', '49', '64', '78',
       '110', '115', '124', '166', '188', '203', '215', '218', '223', '260',
       '275', '283', '290', '296', '299', '300'],
      dtype='object')",False,1000,True,2,853f687587,1.0,1.0
./expes/v3_2021-02-05_di_300-prng-1-w1-p2,daily_issda-300,300,first-300,21,7,rng,num-start-191,191,536,classic,7.167155504226685,True,,True,1.0,1.0,1.0,1,"Index(['15', '19', '29', '44', '47', '82', '87', '109', '129', '138', '158',
       '185', '187', '191', '202', '221', '228', '258', '261', '279', '298'],
      dtype='object')",False,1000,True,2,ebecbb05d8,1.0,1.0
./expes/v3_2021-02-05_di_300-prng-1-w1-p2,daily_issda-300,300,first-300,21,7,rng,num-start-101,101,536,classic,3.559952735900879,True,,True,1.0,1.0,1.0,1,"Index(['12', '23', '56', '62', '76', '103', '104', '134', '138', '149', '160',
       '167', '168', '178', '202', '211', '262', '267', '271', '292', '300'],
      dtype='object')",False,1000,True,2,cf456afe19,1.0,1.0
./expes/v3_2021-02-05_di_300-prng-1-w1-p2,daily_issda-300,300,first-300,63,21,rng,num-start-261,261,536,classic,8.689458847045898,True,,True,1.0,1.0,1.0,1,"Index(['7', '8', '15', '16', '19', '22', '33', '34', '50', '54', '64', '67',
       '69', '70', '78', '82', '84', '99', '109', '112', '119', '120', '122',
       '133', '137', '138', '144', '146', '155', '168', '173', '180', '188',
       '190', '198', '199', '200', '203', '204', '209', '216', '219', '224',
       '228', '241', '243', '244', '247', '254', '260', '268', '274', '277',
       '278', '279', '282', '283', '292', '293', '294', '296', '298', '300'],
      dtype='object')",False,1000,True,2,2a7c76bbe8,1.0,1.0
./expes/v3_2021-02-05_di_300-prng-1-w1-p2,daily_issda-300,300,first-300,112,37,rng,num-start-141,141,536,classic,5.943211793899536,True,,True,1.0,1.0,1.0,1,"Index(['4', '5', '10', '11', '14', '22', '23', '24', '29', '31',
       ...
       '266', '267', '274', '275', '281', '282', '286', '293', '294', '299'],
      dtype='object', length=112)",False,1000,True,2,7979aa3791,1.0,1.0
./expes/v3_2021-02-05_di_300-prng-1-w1-p2,daily_issda-300,300,first-300,49,16,rng,num-start-221,221,536,classic,7.308157682418823,True,,True,1.0,1.0,1.0,1,"Index(['3', '4', '6', '11', '12', '15', '23', '43', '45', '73', '79', '80',
       '89', '113', '114', '115', '117', '121', '122', '130', '133', '145',
       '146', '151', '152', '155', '156', '159', '163', '172', '179', '186',
       '192', '210', '214', '216', '217', '229', '234', '236', '238', '241',
       '247', '251', '254', '265', '268', '289', '297'],
      dtype='object')",False,1000,True,2,debad03626,1.0,1.0
./expes/v3_2021-02-05_di_300-prng-1-w1-p2,daily_issda-300,300,first-300,126,42,rng,num-start-151,151,536,classic,5.683582782745361,True,,True,1.0,1.0,1.0,1,"Index(['3', '5', '10', '11', '14', '15', '26', '27', '28', '30',
       ...
       '284', '285', '286', '287', '289', '291', '293', '295', '296', '297'],
      dtype='object', length=126)",False,1000,True,2,92734ae7ad,1.0,1.0
./expes/v3_2021-02-05_di_300-prng-1-w1-p2,daily_issda-300,300,first-300,49,16,rng,num-start-1,1,536,classic,0.6075098514556885,False,,False,0.4958367308037117,0.4958367308037117,0.4958367308037117,2,"Index(['3', '10', '14', '26', '27', '32', '36', '42', '57', '64', '71', '72',
       '73', '78', '90', '101', '108', '123', '128', '130', '143', '149',
       '156', '159', '163', '170', '173', '182', '188', '191', '192', '197',
       '206', '208', '210', '213', '215', '222', '243', '245', '257', '260',
       '268', '273', '277', '283', '287', '293', '297'],
      dtype='object')",False,1000,True,2,e4a5a438eb,1.0,1.0
./expes/v3_2021-02-05_di_300-prng-1-w1-p2,daily_issda-300,300,first-300,35,11,rng,num-start-221,221,536,classic,7.206589937210083,True,,True,1.0,1.0,1.0,1,"Index(['11', '16', '23', '33', '44', '46', '50', '59', '65', '71', '99', '108',
       '117', '120', '127', '133', '137', '190', '193', '194', '195', '198',
       '200', '206', '207', '209', '233', '236', '243', '249', '250', '254',
       '260', '267', '294'],
      dtype='object')",False,1000,True,2,d9cade2e40,1.0,1.0
./expes/v3_2021-02-05_di_300-prng-1-w1-p2,daily_issda-300,300,first-300,105,35,rng,num-start-121,121,536,classic,9.353339672088623,True,,True,1.0,1.0,1.0,1,"Index(['1', '6', '10', '11', '13', '15', '18', '22', '35', '36',
       ...
       '268', '270', '272', '274', '283', '287', '292', '293', '297', '299'],
      dtype='object', length=105)",False,1000,True,2,a334b9bf41,1.0,1.0
./expes/v3_2021-02-05_di_300-prng-1-w1-p2,daily_issda-300,300,first-300,112,37,rng,num-start-81,81,536,classic,1002.3521609306335,False,,False,0,,,0,"Index(['1', '3', '5', '6', '8', '9', '11', '16', '19', '22',
       ...
       '271', '276', '283', '284', '287', '289', '290', '295', '296', '299'],
      dtype='object', length=112)",True,1000,True,2,cd2171810d,0.0,0.0
./expes/v3_2021-02-05_di_300-prng-1-w1-p2,daily_issda-300,300,first-300,70,23,rng,num-start-1,1,536,classic,1.9435007572174072,False,,False,0.42459124697854417,0.4216850680337598,0.4274974259233285,2,"Index(['20', '24', '25', '26', '30', '31', '32', '33', '36', '38', '42', '45',
       '47', '49', '50', '53', '61', '64', '69', '74', '78', '85', '93', '97',
       '106', '110', '114', '115', '124', '125', '128', '148', '149', '154',
       '158', '161', '166', '176', '186', '188', '191', '203', '204', '215',
       '218', '219', '223', '230', '233', '239', '254', '255', '260', '263',
       '269', '273', '275', '277', '281', '283', '286', '287', '289', '290',
       '293', '295', '296', '298', '299', '300'],
      dtype='object')",False,1000,True,2,45931d8026,1.0,1.0
./expes/v3_2021-02-05_di_300-prng-1-w1-p2,daily_issda-300,300,first-300,105,35,rng,num-start-91,91,536,classic,1002.7263479232788,True,,False,1.0,1.0,1.0,1,"Index(['1', '2', '3', '4', '5', '9', '10', '13', '14', '18',
       ...
       '276', '277', '284', '285', '287', '290', '294', '295', '297', '300'],
      dtype='object', length=105)",True,1000,True,2,3e31eb3f7f,0.0,1.0
./expes/v3_2021-02-05_di_300-prng-1-w1-p2,daily_issda-300,300,first-300,63,21,rng,num-start-181,181,536,classic,6.503634214401245,True,,True,1.0,1.0,1.0,1,"Index(['2', '8', '16', '23', '37', '38', '44', '61', '65', '67', '68', '70',
       '72', '73', '76', '82', '91', '92', '96', '100', '104', '110', '116',
       '119', '120', '121', '130', '132', '133', '135', '142', '144', '149',
       '151', '161', '178', '183', '187', '188', '191', '200', '203', '218',
       '220', '221', '224', '226', '228', '230', '231', '236', '238', '250',
       '252', '255', '268', '273', '275', '282', '284', '289', '290', '296'],
      dtype='object')",False,1000,True,2,82e504fec3,1.0,1.0
./expes/v3_2021-02-05_di_300-prng-1-w1-p2,daily_issda-300,300,first-300,126,42,rng,num-start-11,11,536,classic,1000.3748197555542,False,,False,0,,,0,"Index(['1', '6', '10', '11', '13', '15', '17', '18', '22', '28',
       ...
       '274', '280', '283', '284', '287', '288', '292', '293', '297', '299'],
      dtype='object', length=126)",True,1000,True,2,447d9d54f1,0.0,0.0
./expes/v3_2021-02-05_di_300-prng-1-w1-p2,daily_issda-300,300,first-300,119,39,rng,num-start-221,221,536,classic,7.416040658950806,True,,True,1.0,1.0,1.0,1,"Index(['1', '2', '3', '4', '5', '7', '9', '10', '13', '14',
       ...
       '276', '277', '284', '285', '287', '290', '294', '295', '297', '300'],
      dtype='object', length=119)",False,1000,True,2,05c623f3b1,1.0,1.0
./expes/v3_2021-02-05_di_300-prng-1-w1-p2,daily_issda-300,300,first-300,70,23,rng,num-start-1,1,536,classic,2.329393148422241,False,,False,0.3880666246111218,0.3771357561870037,0.3989974930352399,2,"Index(['6', '15', '36', '38', '43', '46', '48', '49', '53', '55', '58', '59',
       '61', '63', '77', '83', '85', '87', '93', '100', '105', '112', '115',
       '121', '127', '131', '132', '134', '135', '139', '141', '143', '144',
       '145', '150', '156', '159', '162', '173', '184', '185', '187', '196',
       '198', '202', '204', '207', '211', '214', '218', '224', '225', '231',
       '232', '234', '236', '239', '243', '246', '249', '250', '251', '257',
       '264', '265', '270', '274', '283', '297', '299'],
      dtype='object')",False,1000,True,2,40556c0d5d,1.0,1.0
./expes/v3_2021-02-05_di_300-prng-1-w1-p2,daily_issda-300,300,first-300,91,30,rng,num-start-121,121,536,classic,4.367079496383667,True,,True,1.0,1.0,1.0,1,"Index(['1', '7', '9', '10', '12', '15', '19', '24', '28', '40', '42', '44',
       '46', '48', '49', '50', '60', '62', '64', '65', '71', '75', '87', '89',
       '95', '97', '99', '100', '101', '102', '103', '108', '115', '126',
       '129', '131', '132', '134', '136', '137', '138', '140', '149', '150',
       '156', '157', '160', '164', '169', '171', '172', '183', '185', '186',
       '192', '194', '195', '200', '204', '210', '211', '212', '216', '217',
       '218', '219', '221', '226', '228', '229', '232', '241', '242', '248',
       '249', '250', '251', '257', '258', '264', '265', '268', '269', '271',
       '276', '277', '284', '286', '289', '294', '295'],
      dtype='object')",False,1000,True,2,fde4ebbdcb,1.0,1.0
./expes/v3_2021-02-05_di_300-prng-1-w1-p2,daily_issda-300,300,first-300,56,18,rng,num-start-221,221,536,classic,6.91921854019165,True,,True,1.0,1.0,1.0,1,"Index(['3', '4', '6', '7', '8', '11', '12', '15', '23', '34', '43', '45', '73',
       '79', '80', '85', '89', '113', '114', '115', '117', '121', '122', '130',
       '133', '145', '146', '151', '152', '155', '156', '159', '163', '172',
       '179', '186', '192', '210', '214', '216', '217', '228', '229', '233',
       '234', '236', '238', '241', '247', '251', '252', '254', '265', '268',
       '289', '297'],
      dtype='object')",False,1000,True,2,50faefe875,1.0,1.0
./expes/v3_2021-02-05_di_300-prng-1-w1-p2,daily_issda-300,300,first-300,119,39,rng,num-start-201,201,536,classic,7.890094995498657,True,,True,1.0,1.0,1.0,1,"Index(['2', '3', '8', '16', '17', '19', '20', '22', '23', '36',
       ...
       '282', '284', '285', '287', '289', '290', '292', '296', '298', '299'],
      dtype='object', length=119)",False,1000,True,2,d78ae9de04,1.0,1.0
./expes/v3_2021-02-05_di_300-prng-1-w1-p2,daily_issda-300,300,first-300,112,37,rng,num-start-231,231,536,classic,7.996767520904541,True,,True,1.0,1.0,1.0,1,"Index(['1', '4', '7', '9', '10', '12', '15', '16', '19', '24',
       ...
       '271', '276', '277', '284', '286', '287', '289', '292', '294', '295'],
      dtype='object', length=112)",False,1000,True,2,b2e59366ec,1.0,1.0
./expes/v3_2021-02-05_di_300-prng-1-w1-p2,daily_issda-300,300,first-300,77,25,rng,num-start-281,281,536,classic,9.64871096611023,True,,True,1.0,1.0,1.0,1,"Index(['1', '2', '3', '5', '7', '10', '12', '15', '24', '27', '30', '34', '37',
       '53', '58', '61', '65', '68', '72', '75', '81', '82', '85', '86', '91',
       '93', '94', '95', '101', '102', '105', '108', '111', '126', '127',
       '128', '131', '132', '136', '144', '149', '153', '155', '157', '159',
       '161', '162', '170', '174', '177', '182', '184', '185', '188', '191',
       '193', '195', '197', '200', '207', '209', '213', '215', '228', '232',
       '237', '239', '241', '242', '247', '263', '272', '277', '279', '282',
       '294', '297'],
      dtype='object')",False,1000,True,2,1c6fc0353e,1.0,1.0
./expes/v3_2021-02-05_di_300-prng-1-w1-p2,daily_issda-300,300,first-300,105,35,rng,num-start-201,201,536,classic,7.524955987930298,True,,True,1.0,1.0,1.0,1,"Index(['1', '2', '3', '4', '5', '9', '10', '13', '14', '18',
       ...
       '276', '277', '284', '285', '287', '290', '294', '295', '297', '300'],
      dtype='object', length=105)",False,1000,True,2,96e154a887,1.0,1.0
./expes/v3_2021-02-05_di_300-prng-1-w1-p2,daily_issda-300,300,first-300,98,32,rng,num-start-291,291,536,classic,9.99500823020935,True,,True,1.0,1.0,1.0,1,"Index(['5', '11', '13', '15', '17', '19', '21', '26', '29', '30', '31', '35',
       '39', '43', '44', '47', '55', '59', '66', '70', '81', '82', '83', '85',
       '86', '87', '89', '91', '94', '95', '98', '107', '108', '109', '114',
       '117', '119', '121', '126', '128', '129', '131', '137', '138', '140',
       '143', '156', '158', '159', '160', '164', '167', '175', '180', '182',
       '185', '186', '187', '188', '191', '192', '195', '202', '205', '209',
       '213', '217', '221', '228', '229', '233', '234', '237', '239', '246',
       '250', '251', '256', '257', '258', '259', '260', '261', '262', '263',
       '264', '266', '268', '269', '270', '272', '279', '286', '287', '288',
       '291', '295', '298'],
      dtype='object')",False,1000,True,2,72036069c2,1.0,1.0
./expes/v3_2021-02-05_di_300-prng-1-w1-p2,daily_issda-300,300,first-300,21,7,rng,num-start-191,191,536,classic,6.623194217681885,True,,True,1.0,1.0,1.0,1,"Index(['7', '15', '27', '53', '58', '81', '94', '111', '127', '128', '131',
       '144', '184', '191', '195', '209', '239', '241', '272', '279', '294'],
      dtype='object')",False,1000,True,2,d0a4816874,1.0,1.0
./expes/v3_2021-02-05_di_300-prng-1-w1-p2,daily_issda-300,300,first-300,14,4,rng,num-start-281,281,536,classic,8.493606567382812,True,,True,1.0,1.0,1.0,1,"Index(['63', '93', '94', '101', '102', '123', '136', '152', '172', '230',
       '235', '246', '251', '253'],
      dtype='object')",False,1000,True,2,5edfb5aa07,1.0,1.0
./expes/v3_2021-02-05_di_300-prng-1-w1-p2,daily_issda-300,300,first-300,35,11,rng,num-start-161,161,536,classic,5.654202461242676,True,,True,1.0,1.0,1.0,1,"Index(['3', '8', '17', '18', '23', '39', '69', '72', '83', '90', '106', '123',
       '128', '135', '143', '146', '156', '168', '182', '185', '186', '193',
       '196', '216', '220', '226', '234', '237', '248', '251', '252', '267',
       '293', '296', '299'],
      dtype='object')",False,1000,True,2,4f21a4eab0,1.0,1.0
./expes/v3_2021-02-05_di_300-prng-1-w1-p2,daily_issda-300,300,first-300,21,7,rng,num-start-141,141,536,classic,4.89622688293457,True,,True,1.0,1.0,1.0,1,"Index(['1', '12', '19', '42', '49', '75', '99', '102', '134', '140', '164',
       '192', '212', '241', '249', '251', '276', '277', '284', '289', '294'],
      dtype='object')",False,1000,True,2,bad6bad9c6,1.0,1.0
./expes/v3_2021-02-05_di_300-prng-1-w1-p2,daily_issda-300,300,first-300,56,18,rng,num-start-1,1,536,classic,1.07725191116333,False,,False,0.4731395828696446,0.4699656097482935,0.4763135559909957,2,"Index(['4', '52', '59', '61', '63', '68', '75', '83', '87', '90', '93', '94',
       '98', '101', '102', '103', '104', '106', '111', '113', '121', '122',
       '123', '130', '136', '139', '140', '145', '152', '154', '156', '167',
       '172', '176', '178', '188', '208', '209', '224', '230', '235', '245',
       '246', '251', '253', '254', '257', '260', '263', '268', '270', '276',
       '283', '291', '294', '295'],
      dtype='object')",False,1000,True,2,a2ca2e2bc8,1.0,1.0
./expes/v3_2021-02-05_di_300-prng-1-w1-p2,daily_issda-300,300,first-300,84,28,rng,num-start-221,221,536,classic,8.036541938781738,True,,True,1.0,1.0,1.0,1,"Index(['7', '11', '16', '18', '20', '23', '30', '33', '37', '44', '45', '46',
       '50', '56', '59', '65', '70', '71', '73', '76', '77', '82', '90', '99',
       '100', '102', '107', '108', '113', '117', '120', '121', '125', '127',
       '131', '133', '137', '146', '147', '152', '153', '159', '161', '174',
       '176', '177', '183', '190', '193', '194', '195', '198', '200', '203',
       '206', '207', '209', '214', '217', '219', '228', '233', '234', '236',
       '243', '249', '250', '251', '254', '255', '258', '260', '262', '265',
       '267', '271', '273', '277', '280', '286', '294', '297', '298', '300'],
      dtype='object')",False,1000,True,2,44bc666d87,1.0,1.0
./expes/v3_2021-02-05_di_300-prng-1-w1-p2,daily_issda-300,300,first-300,119,39,rng,num-start-11,11,536,classic,1000.3616144657135,False,,False,0,,,0,"Index(['4', '5', '10', '11', '14', '19', '21', '22', '23', '24',
       ...
       '271', '274', '275', '280', '281', '282', '286', '293', '294', '299'],
      dtype='object', length=119)",True,1000,True,2,224003c6f9,0.0,0.0
./expes/v3_2021-02-05_di_300-prng-1-w1-p2,daily_issda-300,300,first-300,105,35,rng,num-start-111,111,536,classic,28.768547773361206,True,,True,1.0,1.0,1.0,1,"Index(['1', '8', '9', '14', '17', '20', '21', '24', '32', '33',
       ...
       '277', '279', '281', '283', '287', '291', '294', '295', '297', '299'],
      dtype='object', length=105)",False,1000,True,2,f083a40d08,1.0,1.0
./expes/v3_2021-02-05_di_300-prng-1-w1-p2,daily_issda-300,300,first-300,140,46,rng,num-start-241,241,536,classic,8.436314105987549,True,,True,1.0,1.0,1.0,1,"Index(['1', '7', '8', '9', '12', '14', '17', '19', '20', '21',
       ...
       '281', '283', '287', '288', '291', '292', '294', '295', '297', '299'],
      dtype='object', length=140)",False,1000,True,2,ff1faf4cb3,1.0,1.0
./expes/v3_2021-02-05_di_300-prng-1-w1-p2,daily_issda-300,300,first-300,7,2,rng,num-start-241,241,536,classic,7.1530234813690186,True,,True,1.0,1.0,1.0,1,"Index(['23', '44', '65', '99', '117', '190', '193'], dtype='object')",False,1000,True,2,739ccdfb3b,1.0,1.0
./expes/v3_2021-02-05_di_300-prng-1-w1-p2,daily_issda-300,300,first-300,21,7,rng,num-start-261,261,536,classic,8.536693334579468,True,,True,1.0,1.0,1.0,1,"Index(['6', '9', '19', '29', '60', '76', '81', '106', '107', '118', '123',
       '135', '144', '174', '177', '182', '183', '189', '201', '239', '267'],
      dtype='object')",False,1000,True,2,494e471c60,1.0,1.0
./expes/v3_2021-02-05_di_300-prng-1-w1-p2,daily_issda-300,300,first-300,126,42,rng,num-start-91,91,536,classic,1002.5642895698547,False,,False,0,,,0,"Index(['3', '4', '5', '6', '10', '24', '30', '34', '40', '41',
       ...
       '283', '285', '286', '287', '290', '291', '293', '294', '295', '297'],
      dtype='object', length=126)",True,1000,True,2,00e4a142ac,0.0,0.0
./expes/v3_2021-02-05_di_300-prng-1-w1-p2,daily_issda-300,300,first-300,91,30,rng,num-start-251,251,536,classic,8.870652198791504,True,,True,1.0,1.0,1.0,1,"Index(['1', '3', '5', '6', '8', '9', '11', '16', '19', '22', '27', '31', '33',
       '35', '36', '38', '43', '44', '45', '47', '49', '52', '56', '60', '61',
       '68', '69', '73', '75', '81', '91', '95', '96', '97', '98', '101',
       '102', '108', '109', '110', '118', '120', '124', '127', '131', '133',
       '139', '143', '148', '149', '151', '156', '160', '162', '168', '169',
       '171', '173', '193', '197', '198', '202', '203', '204', '206', '209',
       '210', '215', '216', '226', '227', '229', '230', '232', '235', '238',
       '239', '241', '244', '250', '256', '261', '263', '266', '271', '276',
       '283', '287', '289', '290', '296'],
      dtype='object')",False,1000,True,2,db25294279,1.0,1.0
./expes/v3_2021-02-05_di_300-prng-1-w1-p2,daily_issda-300,300,first-300,28,9,rng,num-start-261,261,536,classic,8.595177412033081,True,,True,1.0,1.0,1.0,1,"Index(['2', '5', '12', '14', '15', '16', '33', '49', '53', '61', '69', '108',
       '111', '118', '131', '137', '163', '195', '196', '200', '222', '229',
       '231', '242', '250', '254', '278', '292'],
      dtype='object')",False,1000,True,2,fe42847674,1.0,1.0
./expes/v3_2021-02-05_di_300-prng-1-w1-p2,daily_issda-300,300,first-300,7,2,rng,num-start-21,21,536,classic,0.9101710319519043,True,,True,1.0,1.0,1.0,1,"Index(['6', '74', '138', '180', '196', '243', '271'], dtype='object')",False,1000,True,2,5d57a2a1c6,1.0,1.0
./expes/v3_2021-02-05_di_300-prng-1-w1-p2,daily_issda-300,300,first-300,112,37,rng,num-start-231,231,536,classic,8.308605194091797,True,,True,1.0,1.0,1.0,1,"Index(['2', '3', '8', '17', '18', '19', '23', '26', '33', '34',
       ...
       '276', '278', '279', '282', '287', '291', '293', '296', '299', '300'],
      dtype='object', length=112)",False,1000,True,2,812d185717,1.0,1.0
./expes/v3_2021-02-05_di_300-prng-1-w1-p2,daily_issda-300,300,first-300,7,2,rng,num-start-111,111,536,classic,3.865438461303711,True,,True,1.0,1.0,1.0,1,"Index(['25', '38', '49', '78', '166', '203', '275'], dtype='object')",False,1000,True,2,abdf06b930,1.0,1.0
./expes/v3_2021-02-05_di_300-prng-1-w1-p2,daily_issda-300,300,first-300,14,4,rng,num-start-11,11,536,classic,1001.1991317272186,False,,False,0,,,0,"Index(['15', '27', '58', '81', '127', '128', '131', '184', '191', '195', '239',
       '241', '272', '279'],
      dtype='object')",True,1000,True,2,f0c7c6798c,0.0,0.0
./expes/v3_2021-02-05_di_300-prng-1-w1-p2,daily_issda-300,300,first-300,112,37,rng,num-start-91,91,536,classic,1002.6189517974854,False,,False,0,,,0,"Index(['1', '3', '5', '6', '8', '9', '11', '16', '19', '22',
       ...
       '271', '276', '283', '284', '287', '289', '290', '295', '296', '299'],
      dtype='object', length=112)",True,1000,True,2,524cecd276,0.0,0.0
./expes/v3_2021-02-05_di_300-prng-1-w1-p2,daily_issda-300,300,first-300,35,11,rng,num-start-71,71,536,classic,4.7237794399261475,True,,True,1.0,1.0,1.0,1,"Index(['2', '5', '12', '14', '15', '16', '33', '49', '53', '61', '69', '108',
       '111', '114', '118', '120', '131', '137', '163', '177', '195', '196',
       '200', '217', '222', '225', '229', '231', '242', '250', '254', '271',
       '278', '284', '292'],
      dtype='object')",False,1000,True,2,098ce044d2,1.0,1.0
./expes/v3_2021-02-05_di_300-prng-1-w1-p2,daily_issda-300,300,first-300,98,32,rng,num-start-261,261,536,classic,8.843334674835205,True,,True,1.0,1.0,1.0,1,"Index(['5', '11', '13', '15', '17', '19', '21', '26', '29', '30', '31', '35',
       '39', '43', '44', '47', '55', '59', '66', '70', '81', '82', '83', '85',
       '86', '87', '89', '91', '94', '95', '98', '107', '108', '109', '114',
       '117', '119', '121', '126', '128', '129', '131', '137', '138', '140',
       '143', '156', '158', '159', '160', '164', '167', '175', '180', '182',
       '185', '186', '187', '188', '191', '192', '195', '202', '205', '209',
       '213', '217', '221', '228', '229', '233', '234', '237', '239', '246',
       '250', '251', '256', '257', '258', '259', '260', '261', '262', '263',
       '264', '266', '268', '269', '270', '272', '279', '286', '287', '288',
       '291', '295', '298'],
      dtype='object')",False,1000,True,2,ea44be354b,1.0,1.0
./expes/v3_2021-02-05_di_300-prng-1-w1-p2,daily_issda-300,300,first-300,140,46,rng,num-start-231,231,536,classic,8.277331829071045,True,,True,1.0,1.0,1.0,1,"Index(['1', '3', '5', '6', '8', '9', '10', '11', '16', '18',
       ...
       '283', '284', '287', '289', '290', '293', '295', '296', '299', '300'],
      dtype='object', length=140)",False,1000,True,2,af560e4d76,1.0,1.0
./expes/v3_2021-02-05_di_300-prng-1-w1-p2,daily_issda-300,300,first-300,49,16,rng,num-start-251,251,536,classic,7.809632062911987,True,,True,1.0,1.0,1.0,1,"Index(['1', '3', '7', '12', '15', '27', '34', '37', '53', '58', '65', '68',
       '72', '75', '81', '82', '85', '86', '94', '101', '102', '105', '108',
       '111', '127', '128', '131', '136', '144', '149', '153', '155', '161',
       '170', '184', '185', '191', '195', '197', '200', '209', '213', '228',
       '239', '241', '272', '277', '279', '294'],
      dtype='object')",False,1000,True,2,af7ffae633,1.0,1.0
./expes/v3_2021-02-05_di_300-prng-1-w1-p2,daily_issda-300,300,first-300,63,21,rng,num-start-151,151,536,classic,5.284286260604858,True,,True,1.0,1.0,1.0,1,"Index(['3', '8', '17', '18', '19', '23', '34', '37', '39', '42', '50', '58',
       '69', '72', '77', '81', '83', '90', '100', '106', '115', '121', '123',
       '128', '135', '143', '146', '155', '156', '161', '167', '168', '182',
       '185', '186', '188', '192', '193', '196', '197', '212', '216', '220',
       '224', '226', '231', '234', '237', '241', '248', '251', '252', '255',
       '257', '267', '274', '275', '282', '291', '293', '296', '299', '300'],
      dtype='object')",False,1000,True,2,9de77ba2bd,1.0,1.0
./expes/v3_2021-02-05_di_300-prng-1-w1-p2,daily_issda-300,300,first-300,98,32,rng,num-start-41,41,536,classic,1001.2052948474884,False,,False,0,,,0,"Index(['1', '2', '3', '5', '7', '10', '12', '15', '19', '24', '27', '30', '34',
       '37', '41', '47', '48', '53', '56', '58', '61', '65', '68', '72', '75',
       '76', '77', '81', '82', '83', '85', '86', '91', '93', '94', '95', '101',
       '102', '105', '107', '108', '111', '126', '127', '128', '129', '131',
       '132', '136', '142', '144', '149', '152', '153', '155', '157', '159',
       '160', '161', '162', '163', '170', '174', '175', '177', '182', '184',
       '185', '186', '188', '189', '191', '193', '195', '197', '200', '207',
       '209', '213', '215', '222', '228', '232', '237', '239', '241', '242',
       '247', '248', '263', '269', '272', '277', '279', '280', '282', '294',
       '297'],
      dtype='object')",True,1000,True,2,71045ce3d3,0.0,0.0
./expes/v3_2021-02-05_di_300-prng-1-w1-p2,daily_issda-300,300,first-300,49,16,rng,num-start-31,31,536,classic,1000.9839918613434,False,,False,0,,,0,"Index(['4', '11', '14', '31', '35', '45', '46', '47', '53', '55', '80', '85',
       '89', '92', '100', '110', '114', '121', '127', '128', '134', '135',
       '140', '142', '144', '148', '149', '150', '154', '156', '159', '160',
       '173', '185', '191', '199', '203', '206', '212', '217', '243', '246',
       '260', '261', '267', '275', '281', '282', '294'],
      dtype='object')",True,1000,True,2,13e45b9515,0.0,0.0
./expes/v3_2021-02-05_di_300-prng-1-w1-p2,daily_issda-300,300,first-300,126,42,rng,num-start-161,161,536,classic,6.389826059341431,True,,True,1.0,1.0,1.0,1,"Index(['2', '3', '8', '16', '17', '19', '20', '22', '23', '24',
       ...
       '282', '284', '285', '287', '289', '290', '292', '296', '298', '299'],
      dtype='object', length=126)",False,1000,True,2,8fc7de9054,1.0,1.0
./expes/v3_2021-02-05_di_300-prng-1-w1-p2,daily_issda-300,300,first-300,91,30,rng,num-start-151,151,536,classic,5.652585506439209,True,,True,1.0,1.0,1.0,1,"Index(['12', '20', '21', '24', '25', '26', '30', '31', '32', '33', '34', '36',
       '38', '40', '42', '45', '47', '48', '49', '50', '53', '61', '64', '69',
       '74', '78', '85', '93', '97', '106', '110', '114', '115', '124', '125',
       '128', '139', '146', '148', '149', '154', '158', '159', '161', '166',
       '175', '176', '178', '180', '182', '186', '188', '191', '198', '203',
       '204', '215', '216', '218', '219', '223', '229', '230', '233', '234',
       '237', '239', '243', '251', '254', '255', '260', '263', '269', '273',
       '275', '277', '281', '283', '286', '287', '289', '290', '293', '294',
       '295', '296', '297', '298', '299', '300'],
      dtype='object')",False,1000,True,2,e54a4f459b,1.0,1.0
./expes/v3_2021-02-05_di_300-prng-1-w1-p2,daily_issda-300,300,first-300,28,9,rng,num-start-41,41,536,classic,943.9710953235626,True,,True,1.0,1.0,1.0,1,"Index(['3', '6', '11', '12', '15', '73', '79', '113', '114', '115', '117',
       '122', '130', '133', '146', '152', '155', '159', '172', '186', '210',
       '214', '216', '229', '234', '238', '241', '247'],
      dtype='object')",False,1000,True,2,c858629153,1.0,1.0
./expes/v3_2021-02-05_di_300-prng-1-w1-p2,daily_issda-300,300,first-300,140,46,rng,num-start-191,191,536,classic,6.91450572013855,True,,True,1.0,1.0,1.0,1,"Index(['1', '2', '3', '5', '7', '8', '9', '12', '13', '14',
       ...
       '281', '282', '283', '284', '285', '288', '292', '296', '297', '300'],
      dtype='object', length=140)",False,1000,True,2,be9db19340,1.0,1.0
./expes/v3_2021-02-05_di_300-prng-1-w1-p2,daily_issda-300,300,first-300,112,37,rng,num-start-251,251,536,classic,9.33681344985962,True,,True,1.0,1.0,1.0,1,"Index(['1', '2', '3', '5', '7', '10', '12', '15', '17', '19',
       ...
       '269', '272', '274', '277', '279', '280', '282', '289', '294', '297'],
      dtype='object', length=112)",False,1000,True,2,9678ba2617,1.0,1.0
./expes/v3_2021-02-05_di_300-prng-1-w1-p2,daily_issda-300,300,first-300,63,21,rng,num-start-51,51,536,classic,1001.527827501297,False,,False,0,,,0,"Index(['13', '15', '19', '29', '44', '47', '70', '82', '83', '85', '86', '87',
       '89', '91', '94', '109', '114', '119', '121', '128', '129', '138',
       '143', '156', '158', '159', '164', '167', '180', '182', '185', '186',
       '187', '191', '195', '202', '205', '213', '217', '221', '228', '229',
       '233', '234', '237', '239', '246', '250', '251', '256', '257', '258',
       '261', '262', '264', '269', '270', '272', '279', '286', '287', '291',
       '298'],
      dtype='object')",True,1000,True,2,48032d164a,0.0,0.0
./expes/v3_2021-02-05_di_300-prng-1-w1-p2,daily_issda-300,300,first-300,77,25,rng,num-start-101,101,536,classic,9.357340812683105,True,,True,1.0,1.0,1.0,1,"Index(['7', '8', '11', '15', '16', '19', '22', '23', '24', '33', '34', '35',
       '46', '50', '54', '61', '64', '67', '69', '70', '78', '82', '84', '99',
       '109', '112', '119', '120', '122', '133', '137', '138', '143', '144',
       '146', '151', '155', '168', '170', '173', '177', '180', '188', '190',
       '194', '198', '199', '200', '203', '204', '209', '211', '213', '216',
       '219', '224', '228', '241', '243', '244', '247', '248', '254', '260',
       '268', '274', '277', '278', '279', '282', '283', '292', '293', '294',
       '296', '298', '300'],
      dtype='object')",False,1000,True,2,ce3a9fc32e,1.0,1.0
./expes/v3_2021-02-05_di_300-prng-1-w1-p2,daily_issda-300,300,first-300,84,28,rng,num-start-101,101,536,classic,16.724934577941895,True,,True,1.0,1.0,1.0,1,"Index(['6', '10', '11', '15', '35', '36', '38', '43', '46', '48', '49', '53',
       '55', '58', '59', '61', '63', '74', '77', '83', '85', '87', '93', '100',
       '105', '112', '115', '121', '127', '131', '132', '134', '135', '137',
       '139', '141', '143', '144', '145', '150', '156', '159', '162', '173',
       '178', '183', '184', '185', '187', '189', '196', '198', '202', '204',
       '207', '208', '211', '214', '217', '218', '224', '225', '226', '231',
       '232', '234', '236', '239', '242', '243', '246', '249', '250', '251',
       '257', '264', '265', '270', '274', '283', '292', '293', '297', '299'],
      dtype='object')",False,1000,True,2,af2f1b99de,1.0,1.0
./expes/v3_2021-02-05_di_300-prng-1-w1-p2,daily_issda-300,300,first-300,49,16,rng,num-start-21,21,536,classic,1000.6616950035095,False,,False,0,,,0,"Index(['3', '4', '6', '11', '12', '15', '23', '43', '45', '73', '79', '80',
       '89', '113', '114', '115', '117', '121', '122', '130', '133', '145',
       '146', '151', '152', '155', '156', '159', '163', '172', '179', '186',
       '192', '210', '214', '216', '217', '229', '234', '236', '238', '241',
       '247', '251', '254', '265', '268', '289', '297'],
      dtype='object')",True,1000,True,2,0fdbdb3bdc,0.0,0.0
./expes/v3_2021-02-05_di_300-prng-1-w1-p2,daily_issda-300,300,first-300,91,30,rng,num-start-191,191,536,classic,6.71729302406311,True,,True,1.0,1.0,1.0,1,"Index(['1', '2', '3', '4', '5', '9', '10', '13', '18', '21', '22', '23', '27',
       '28', '29', '33', '36', '42', '43', '44', '45', '48', '53', '57', '58',
       '63', '68', '69', '71', '72', '75', '77', '81', '83', '87', '89', '96',
       '99', '102', '103', '104', '105', '108', '110', '114', '115', '122',
       '137', '138', '139', '144', '150', '167', '169', '170', '172', '174',
       '175', '178', '188', '192', '194', '195', '197', '204', '206', '207',
       '211', '216', '217', '218', '222', '228', '232', '238', '252', '255',
       '257', '258', '259', '260', '268', '276', '277', '284', '285', '290',
       '294', '295', '297', '300'],
      dtype='object')",False,1000,True,2,b1a76b02f0,1.0,1.0
./expes/v3_2021-02-05_di_300-prng-1-w1-p2,daily_issda-300,300,first-300,7,2,rng,num-start-251,251,536,classic,8.058501482009888,True,,True,1.0,1.0,1.0,1,"Index(['15', '27', '128', '131', '184', '239', '272'], dtype='object')",False,1000,True,2,0c6ca4adba,1.0,1.0
./expes/v3_2021-02-05_di_300-prng-1-w1-p2,daily_issda-300,300,first-300,126,42,rng,num-start-31,31,536,classic,1000.9441635608673,False,,False,0,,,0,"Index(['1', '4', '5', '6', '10', '13', '14', '15', '16', '17',
       ...
       '270', '271', '277', '278', '280', '282', '285', '286', '294', '296'],
      dtype='object', length=126)",True,1000,True,2,29c507167b,0.0,0.0
./expes/v3_2021-02-05_di_300-prng-1-w1-p2,daily_issda-300,300,first-300,77,25,rng,num-start-51,51,536,classic,1001.5164592266083,False,,False,0,,,0,"Index(['6', '10', '15', '35', '36', '38', '43', '46', '48', '49', '53', '55',
       '58', '59', '61', '63', '74', '77', '83', '85', '87', '93', '100',
       '105', '112', '115', '121', '127', '131', '132', '134', '135', '137',
       '139', '141', '143', '144', '145', '150', '156', '159', '162', '173',
       '184', '185', '187', '196', '198', '202', '204', '207', '211', '214',
       '218', '224', '225', '226', '231', '232', '234', '236', '239', '243',
       '246', '249', '250', '251', '257', '264', '265', '270', '274', '283',
       '292', '293', '297', '299'],
      dtype='object')",True,1000,True,2,32acdf271d,0.0,0.0
./expes/v3_2021-02-05_di_300-prng-1-w1-p2,daily_issda-300,300,first-300,70,23,rng,num-start-271,271,536,classic,9.304967880249023,True,,True,1.0,1.0,1.0,1,"Index(['3', '8', '17', '18', '19', '23', '34', '37', '39', '42', '50', '58',
       '69', '72', '77', '81', '83', '86', '90', '98', '100', '106', '115',
       '121', '123', '128', '135', '143', '146', '155', '156', '161', '167',
       '168', '179', '182', '185', '186', '188', '192', '193', '196', '197',
       '212', '213', '216', '220', '222', '224', '226', '227', '229', '231',
       '234', '237', '241', '248', '251', '252', '255', '257', '267', '274',
       '275', '282', '291', '293', '296', '299', '300'],
      dtype='object')",False,1000,True,2,441f057b0b,1.0,1.0
./expes/v3_2021-02-05_di_300-prng-1-w1-p2,daily_issda-300,300,first-300,77,25,rng,num-start-241,241,536,classic,8.884955644607544,True,,True,1.0,1.0,1.0,1,"Index(['2', '5', '12', '14', '15', '16', '18', '23', '33', '45', '49', '52',
       '53', '56', '61', '62', '69', '84', '87', '88', '89', '96', '98', '108',
       '111', '113', '114', '118', '119', '120', '125', '131', '137', '146',
       '149', '152', '156', '158', '163', '171', '177', '188', '190', '192',
       '195', '196', '200', '202', '207', '213', '214', '217', '222', '225',
       '229', '231', '236', '241', '242', '246', '250', '251', '254', '256',
       '257', '258', '259', '260', '261', '267', '271', '278', '281', '284',
       '285', '292', '297'],
      dtype='object')",False,1000,True,2,a5420876ea,1.0,1.0
./expes/v3_2021-02-05_di_300-prng-1-w1-p2,daily_issda-300,300,first-300,56,18,rng,num-start-191,191,536,classic,6.738203525543213,True,,True,1.0,1.0,1.0,1,"Index(['1', '8', '21', '32', '33', '38', '42', '47', '48', '49', '51', '52',
       '72', '73', '76', '98', '105', '112', '114', '123', '125', '129', '133',
       '134', '145', '156', '159', '162', '164', '167', '170', '171', '182',
       '184', '198', '205', '208', '216', '223', '227', '230', '242', '245',
       '249', '253', '259', '261', '262', '267', '273', '279', '281', '283',
       '287', '291', '299'],
      dtype='object')",False,1000,True,2,7db82710d1,1.0,1.0
./expes/v3_2021-02-05_di_300-prng-1-w1-p2,daily_issda-300,300,first-300,7,2,rng,num-start-51,51,536,classic,1.7753527164459229,True,,True,1.0,1.0,1.0,1,"Index(['15', '27', '128', '131', '184', '239', '272'], dtype='object')",False,1000,True,2,6e4866ed8c,1.0,1.0
./expes/v3_2021-02-05_di_300-prng-1-w1-p2,daily_issda-300,300,first-300,84,28,rng,num-start-271,271,536,classic,10.041873216629028,True,,True,1.0,1.0,1.0,1,"Index(['1', '8', '17', '20', '21', '32', '33', '36', '38', '42', '46', '47',
       '48', '49', '51', '52', '56', '64', '67', '72', '73', '76', '77', '95',
       '96', '97', '98', '105', '111', '112', '114', '121', '123', '124',
       '125', '129', '133', '134', '142', '145', '148', '149', '150', '155',
       '156', '159', '162', '163', '164', '167', '170', '171', '182', '184',
       '198', '201', '205', '208', '216', '223', '227', '228', '230', '242',
       '244', '245', '249', '251', '253', '259', '261', '262', '267', '268',
       '269', '273', '277', '279', '281', '283', '287', '291', '295', '299'],
      dtype='object')",False,1000,True,2,ddd6f7cd35,1.0,1.0
./expes/v3_2021-02-05_di_300-prng-1-w1-p2,daily_issda-300,300,first-300,56,18,rng,num-start-171,171,536,classic,6.2370898723602295,True,,True,1.0,1.0,1.0,1,"Index(['8', '16', '37', '38', '44', '61', '65', '67', '68', '70', '72', '76',
       '91', '92', '96', '100', '104', '110', '116', '119', '120', '121',
       '130', '132', '133', '135', '142', '144', '149', '151', '161', '178',
       '183', '187', '188', '191', '203', '220', '221', '224', '226', '228',
       '230', '231', '236', '238', '250', '252', '268', '273', '275', '282',
       '284', '289', '290', '296'],
      dtype='object')",False,1000,True,2,a6e7ae5b52,1.0,1.0
./expes/v3_2021-02-05_di_300-prng-1-w1-p2,daily_issda-300,300,first-300,14,4,rng,num-start-191,191,536,classic,6.807729721069336,True,,True,1.0,1.0,1.0,1,"Index(['7', '34', '67', '99', '120', '122', '133', '190', '241', '243', '277',
       '279', '283', '298'],
      dtype='object')",False,1000,True,2,8df650197f,1.0,1.0
./expes/v3_2021-02-05_di_300-prng-1-w1-p2,daily_issda-300,300,first-300,119,39,rng,num-start-231,231,536,classic,7.950838088989258,True,,True,1.0,1.0,1.0,1,"Index(['2', '4', '5', '9', '12', '13', '14', '21', '23', '24',
       ...
       '271', '278', '280', '281', '288', '292', '293', '296', '297', '300'],
      dtype='object', length=119)",False,1000,True,2,56b019948d,1.0,1.0
./expes/v3_2021-02-05_di_300-prng-1-w1-p2,daily_issda-300,300,first-300,91,30,rng,num-start-121,121,536,classic,10.713430166244507,True,,True,1.0,1.0,1.0,1,"Index(['2', '4', '9', '12', '14', '23', '24', '35', '37', '38', '39', '40',
       '44', '47', '51', '52', '54', '56', '59', '62', '66', '69', '71', '76',
       '82', '88', '90', '94', '99', '103', '104', '107', '108', '120', '126',
       '134', '135', '138', '141', '146', '149', '151', '154', '155', '158',
       '160', '167', '168', '178', '189', '193', '199', '200', '202', '203',
       '207', '209', '211', '213', '216', '217', '220', '224', '225', '226',
       '231', '232', '233', '234', '235', '237', '238', '239', '240', '244',
       '246', '253', '257', '258', '259', '262', '267', '271', '278', '280',
       '281', '292', '293', '296', '297', '300'],
      dtype='object')",False,1000,True,2,514246c0a0,1.0,1.0
./expes/v3_2021-02-05_di_300-prng-1-w1-p2,daily_issda-300,300,first-300,49,16,rng,num-start-31,31,536,classic,1001.0005927085876,False,,False,0,,,0,"Index(['11', '16', '20', '23', '30', '33', '44', '45', '46', '50', '56', '59',
       '65', '71', '73', '99', '100', '107', '108', '117', '120', '121', '127',
       '133', '137', '174', '190', '193', '194', '195', '198', '200', '206',
       '207', '209', '233', '236', '243', '249', '250', '251', '254', '255',
       '260', '265', '267', '277', '294', '298'],
      dtype='object')",True,1000,True,2,18bd3e3e4c,0.0,0.0
./expes/v3_2021-02-05_di_300-prng-1-w1-p2,daily_issda-300,300,first-300,35,11,rng,num-start-91,91,536,classic,4.9808220863342285,True,,True,1.0,1.0,1.0,1,"Index(['1', '3', '7', '15', '27', '37', '53', '58', '65', '68', '72', '81',
       '82', '85', '86', '94', '108', '111', '127', '128', '131', '144', '149',
       '161', '184', '191', '195', '200', '209', '228', '239', '241', '272',
       '279', '294'],
      dtype='object')",False,1000,True,2,c851f1a39e,1.0,1.0
./expes/v3_2021-02-05_di_300-prng-1-w1-p2,daily_issda-300,300,first-300,70,23,rng,num-start-231,231,536,classic,8.38008165359497,True,,True,1.0,1.0,1.0,1,"Index(['1', '3', '8', '9', '16', '19', '22', '27', '31', '33', '35', '36',
       '38', '43', '44', '45', '47', '49', '56', '61', '73', '81', '95', '96',
       '98', '101', '102', '108', '110', '118', '120', '124', '131', '139',
       '143', '148', '149', '151', '156', '160', '162', '168', '171', '173',
       '193', '198', '203', '204', '206', '209', '210', '215', '226', '229',
       '232', '235', '238', '239', '241', '244', '256', '261', '263', '266',
       '271', '276', '283', '287', '289', '290'],
      dtype='object')",False,1000,True,2,f04022177e,1.0,1.0
./expes/v3_2021-02-05_di_300-prng-1-w1-p2,daily_issda-300,300,first-300,49,16,rng,num-start-221,221,536,classic,7.547898292541504,True,,True,1.0,1.0,1.0,1,"Index(['1', '3', '7', '12', '15', '27', '34', '37', '53', '58', '65', '68',
       '72', '75', '81', '82', '85', '86', '94', '101', '102', '105', '108',
       '111', '127', '128', '131', '136', '144', '149', '153', '155', '161',
       '170', '184', '185', '191', '195', '197', '200', '209', '213', '228',
       '239', '241', '272', '277', '279', '294'],
      dtype='object')",False,1000,True,2,595ce87164,1.0,1.0
./expes/v3_2021-02-05_di_300-prng-1-w1-p2,daily_issda-300,300,first-300,35,11,rng,num-start-251,251,536,classic,8.60197114944458,True,,True,1.0,1.0,1.0,1,"Index(['3', '8', '16', '19', '22', '31', '33', '44', '47', '49', '73', '81',
       '95', '96', '98', '101', '120', '124', '151', '156', '168', '203',
       '226', '229', '232', '238', '239', '244', '256', '261', '263', '266',
       '271', '276', '287'],
      dtype='object')",False,1000,True,2,ddb80087cd,1.0,1.0
./expes/v3_2021-02-05_di_300-prng-1-w1-p2,daily_issda-300,300,first-300,35,11,rng,num-start-281,281,536,classic,9.549428939819336,True,,True,1.0,1.0,1.0,1,"Index(['11', '14', '31', '35', '45', '47', '53', '55', '80', '85', '89', '92',
       '100', '110', '114', '121', '128', '134', '135', '140', '142', '149',
       '156', '159', '173', '185', '191', '199', '203', '206', '246', '260',
       '267', '275', '282'],
      dtype='object')",False,1000,True,2,5c5392dca6,1.0,1.0
./expes/v3_2021-02-05_di_300-prng-1-w1-p2,daily_issda-300,300,first-300,98,32,rng,num-start-31,31,536,classic,1000.9637243747711,False,,False,0,,,0,"Index(['3', '4', '5', '6', '7', '8', '11', '12', '15', '16', '17', '20', '23',
       '24', '25', '31', '34', '37', '41', '43', '45', '48', '52', '54', '59',
       '60', '63', '73', '74', '76', '79', '80', '85', '89', '92', '102',
       '113', '114', '115', '117', '119', '121', '122', '123', '125', '126',
       '130', '131', '133', '134', '138', '145', '146', '151', '152', '155',
       '156', '159', '163', '164', '172', '179', '186', '190', '192', '199',
       '202', '205', '208', '209', '210', '214', '216', '217', '228', '229',
       '233', '234', '236', '238', '239', '241', '244', '245', '247', '251',
       '252', '254', '256', '262', '265', '268', '270', '277', '278', '289',
       '297', '299'],
      dtype='object')",True,1000,True,2,8913db82b1,0.0,0.0
./expes/v3_2021-02-05_di_300-prng-1-w1-p2,daily_issda-300,300,first-300,77,25,rng,num-start-181,181,536,classic,6.623967409133911,True,,True,1.0,1.0,1.0,1,"Index(['1', '7', '9', '12', '15', '19', '24', '28', '40', '42', '46', '48',
       '49', '50', '60', '62', '65', '71', '75', '87', '95', '97', '99', '100',
       '101', '102', '103', '108', '115', '126', '129', '134', '136', '138',
       '140', '149', '150', '156', '157', '160', '164', '171', '172', '183',
       '185', '186', '192', '194', '195', '200', '204', '210', '212', '217',
       '218', '221', '226', '228', '229', '241', '248', '249', '250', '251',
       '257', '258', '264', '268', '269', '271', '276', '277', '284', '286',
       '289', '294', '295'],
      dtype='object')",False,1000,True,2,31e07d52da,1.0,1.0
./expes/v3_2021-02-05_di_300-prng-1-w1-p2,daily_issda-300,300,first-300,77,25,rng,num-start-151,151,536,classic,5.546343564987183,True,,True,1.0,1.0,1.0,1,"Index(['2', '3', '4', '5', '9', '13', '18', '21', '22', '23', '27', '28', '29',
       '33', '36', '42', '43', '44', '45', '48', '53', '57', '58', '63', '68',
       '69', '71', '72', '75', '77', '81', '83', '87', '89', '96', '99', '102',
       '103', '104', '105', '108', '115', '122', '137', '138', '139', '144',
       '150', '170', '172', '174', '175', '192', '194', '195', '197', '204',
       '207', '211', '216', '217', '218', '232', '238', '252', '255', '257',
       '258', '259', '260', '276', '277', '284', '285', '294', '295', '297'],
      dtype='object')",False,1000,True,2,e1c623eb21,1.0,1.0
./expes/v3_2021-02-05_di_300-prng-1-w1-p2,daily_issda-300,300,first-300,126,42,rng,num-start-141,141,536,classic,5.432197093963623,True,,True,1.0,1.0,1.0,1,"Index(['4', '5', '10', '11', '14', '19', '21', '22', '23', '24',
       ...
       '271', '274', '275', '280', '281', '282', '286', '293', '294', '299'],
      dtype='object', length=126)",False,1000,True,2,f16620e396,1.0,1.0
./expes/v3_2021-02-05_di_300-prng-1-w1-p2,daily_issda-300,300,first-300,77,25,rng,num-start-181,181,536,classic,6.780396461486816,True,,True,1.0,1.0,1.0,1,"Index(['3', '5', '10', '14', '26', '27', '28', '30', '32', '33', '36', '42',
       '49', '57', '60', '64', '67', '71', '72', '73', '78', '88', '90', '99',
       '101', '102', '108', '110', '123', '128', '129', '130', '133', '137',
       '140', '142', '143', '149', '156', '158', '159', '163', '164', '170',
       '171', '172', '173', '179', '182', '185', '188', '191', '192', '197',
       '206', '208', '210', '213', '215', '222', '240', '243', '245', '257',
       '260', '268', '270', '273', '277', '283', '284', '285', '286', '287',
       '293', '295', '297'],
      dtype='object')",False,1000,True,2,d3c7b4bdfb,1.0,1.0
./expes/v3_2021-02-05_di_300-prng-1-w1-p2,daily_issda-300,300,first-300,35,11,rng,num-start-11,11,536,classic,1000.4375185966492,False,,False,0,,,0,"Index(['6', '9', '19', '29', '41', '60', '76', '81', '106', '107', '115',
       '118', '119', '123', '135', '144', '157', '161', '174', '177', '182',
       '183', '185', '189', '201', '215', '216', '234', '237', '239', '251',
       '262', '267', '290', '296'],
      dtype='object')",True,1000,True,2,072a16779c,0.0,0.0
./expes/v3_2021-02-05_di_300-prng-1-w1-p2,daily_issda-300,300,first-300,133,44,rng,num-start-131,131,536,classic,10.50525164604187,True,,True,1.0,1.0,1.0,1,"Index(['4', '5', '10', '11', '14', '17', '19', '21', '22', '23',
       ...
       '271', '274', '275', '280', '281', '282', '286', '293', '294', '299'],
      dtype='object', length=133)",False,1000,True,2,7e1ac7b7c0,1.0,1.0
./expes/v3_2021-02-05_di_300-prng-1-w1-p2,daily_issda-300,300,first-300,98,32,rng,num-start-271,271,536,classic,9.883505582809448,True,,True,1.0,1.0,1.0,1,"Index(['3', '8', '17', '18', '19', '23', '33', '34', '37', '39', '41', '42',
       '50', '58', '62', '69', '72', '74', '77', '81', '82', '83', '85', '86',
       '90', '91', '92', '98', '100', '106', '115', '121', '123', '124', '125',
       '126', '128', '135', '137', '140', '141', '143', '146', '155', '156',
       '161', '164', '167', '168', '170', '178', '179', '182', '185', '186',
       '188', '192', '193', '196', '197', '200', '206', '208', '212', '213',
       '216', '220', '222', '223', '224', '226', '227', '229', '230', '231',
       '234', '237', '241', '246', '248', '251', '252', '254', '255', '256',
       '257', '267', '268', '269', '274', '275', '279', '282', '291', '293',
       '296', '299', '300'],
      dtype='object')",False,1000,True,2,c6c0d4b8cd,1.0,1.0
./expes/v3_2021-02-05_di_300-prng-1-w1-p2,daily_issda-300,300,first-300,98,32,rng,num-start-191,191,536,classic,7.593379259109497,True,,True,1.0,1.0,1.0,1,"Index(['1', '2', '3', '4', '5', '9', '10', '13', '14', '18', '21', '22', '23',
       '27', '28', '29', '33', '36', '42', '43', '44', '45', '46', '48', '53',
       '57', '58', '63', '68', '69', '71', '72', '75', '77', '81', '83', '87',
       '89', '96', '99', '102', '103', '104', '105', '108', '110', '114',
       '115', '122', '137', '138', '139', '144', '146', '150', '158', '167',
       '169', '170', '172', '174', '175', '178', '188', '192', '194', '195',
       '196', '197', '204', '206', '207', '211', '216', '217', '218', '222',
       '228', '232', '238', '252', '255', '257', '258', '259', '260', '265',
       '268', '276', '277', '284', '285', '287', '290', '294', '295', '297',
       '300'],
      dtype='object')",False,1000,True,2,d24dc1c2d7,1.0,1.0
./expes/v3_2021-02-05_di_300-prng-1-w1-p2,daily_issda-300,300,first-300,112,37,rng,num-start-1,1,536,classic,1.7028758525848389,False,,False,0.32559292321215016,0.32063377951324257,0.33055206691105776,2,"Index(['3', '4', '5', '6', '7', '8', '11', '12', '15', '16',
       ...
       '258', '262', '265', '268', '270', '277', '278', '289', '297', '299'],
      dtype='object', length=112)",False,1000,True,2,7839ca5cd5,1.0,1.0
./expes/v3_2021-02-05_di_300-prng-1-w1-p2,daily_issda-300,300,first-300,14,4,rng,num-start-71,71,536,classic,2.6425607204437256,True,,True,1.0,1.0,1.0,1,"Index(['11', '31', '35', '47', '53', '80', '114', '121', '149', '156', '203',
       '206', '246', '282'],
      dtype='object')",False,1000,True,2,aff5cf748f,1.0,1.0
./expes/v3_2021-02-05_di_300-prng-1-w1-p2,daily_issda-300,300,first-300,21,7,rng,num-start-141,141,536,classic,5.119393825531006,True,,True,1.0,1.0,1.0,1,"Index(['12', '23', '56', '62', '76', '103', '104', '134', '138', '149', '160',
       '167', '168', '178', '202', '211', '262', '267', '271', '292', '300'],
      dtype='object')",False,1000,True,2,43cfd2f6bf,1.0,1.0
./expes/v3_2021-02-05_di_300-prng-1-w1-p2,daily_issda-300,300,first-300,63,21,rng,num-start-181,181,536,classic,6.48952841758728,True,,True,1.0,1.0,1.0,1,"Index(['6', '9', '10', '19', '25', '29', '34', '38', '41', '52', '60', '72',
       '76', '78', '81', '89', '92', '101', '106', '107', '115', '118', '119',
       '123', '135', '144', '147', '152', '157', '161', '162', '174', '177',
       '182', '183', '185', '189', '201', '203', '206', '208', '215', '216',
       '225', '231', '234', '237', '239', '240', '251', '252', '254', '257',
       '258', '262', '267', '272', '274', '279', '285', '290', '292', '296'],
      dtype='object')",False,1000,True,2,658a2b7a68,1.0,1.0
./expes/v3_2021-02-05_di_300-prng-1-w1-p2,daily_issda-300,300,first-300,112,37,rng,num-start-191,191,536,classic,7.597561359405518,True,,True,1.0,1.0,1.0,1,"Index(['2', '5', '6', '8', '9', '10', '16', '19', '22', '23',
       ...
       '266', '267', '272', '274', '279', '281', '285', '290', '292', '296'],
      dtype='object', length=112)",False,1000,True,2,1663a04d0b,1.0,1.0
./expes/v3_2021-02-05_di_300-prng-1-w1-p2,daily_issda-300,300,first-300,133,44,rng,num-start-1,1,536,classic,0.6660256385803223,False,,False,0.28466775501090347,0.28233004296955533,0.2870054670522516,2,"Index(['1', '2', '3', '5', '7', '10', '12', '15', '17', '19',
       ...
       '273', '274', '277', '279', '280', '281', '282', '289', '294', '297'],
      dtype='object', length=133)",False,1000,True,2,7ec720fd60,1.0,1.0
./expes/v3_2021-02-05_di_300-prng-1-w1-p2,daily_issda-300,300,first-300,56,18,rng,num-start-251,251,536,classic,9.049067974090576,True,,True,1.0,1.0,1.0,1,"Index(['2', '5', '12', '14', '15', '16', '18', '33', '49', '52', '53', '61',
       '62', '69', '96', '98', '108', '111', '113', '114', '118', '119', '120',
       '131', '137', '146', '149', '152', '156', '163', '171', '177', '195',
       '196', '200', '202', '214', '217', '222', '225', '229', '231', '236',
       '242', '246', '250', '254', '256', '257', '259', '260', '271', '278',
       '284', '285', '292'],
      dtype='object')",False,1000,True,2,ae34d54650,1.0,1.0
./expes/v3_2021-02-05_di_300-prng-1-w1-p2,daily_issda-300,300,first-300,21,7,rng,num-start-101,101,536,classic,3.756330728530884,True,,True,1.0,1.0,1.0,1,"Index(['8', '17', '18', '23', '39', '72', '83', '106', '128', '143', '168',
       '185', '216', '220', '237', '248', '251', '252', '267', '293', '296'],
      dtype='object')",False,1000,True,2,e6ac80750a,1.0,1.0
./expes/v3_2021-02-05_di_300-prng-1-w1-p2,daily_issda-300,300,first-300,42,14,rng,num-start-111,111,536,classic,4.217528820037842,True,,True,1.0,1.0,1.0,1,"Index(['6', '15', '36', '38', '43', '49', '55', '58', '61', '63', '77', '83',
       '85', '93', '105', '115', '127', '131', '134', '135', '139', '141',
       '150', '156', '162', '173', '184', '185', '187', '196', '202', '204',
       '207', '225', '231', '239', '250', '265', '270', '283', '297', '299'],
      dtype='object')",False,1000,True,2,59fe238ee7,1.0,1.0
./expes/v3_2021-02-05_di_300-prng-1-w1-p2,daily_issda-300,300,first-300,63,21,rng,num-start-31,31,536,classic,1000.9416372776031,False,,False,0,,,0,"Index(['4', '46', '52', '59', '61', '63', '68', '75', '83', '87', '90', '93',
       '94', '98', '101', '102', '103', '104', '106', '111', '113', '121',
       '122', '123', '130', '133', '136', '139', '140', '145', '152', '154',
       '156', '167', '172', '174', '176', '178', '188', '208', '209', '224',
       '230', '235', '241', '245', '246', '251', '252', '253', '254', '257',
       '260', '263', '268', '270', '274', '276', '279', '283', '291', '294',
       '295'],
      dtype='object')",True,1000,True,2,74d740ab0b,0.0,0.0
./expes/v3_2021-02-05_di_300-prng-1-w1-p2,daily_issda-300,300,first-300,119,39,rng,num-start-181,181,536,classic,6.579051494598389,True,,True,1.0,1.0,1.0,1,"Index(['1', '8', '9', '12', '14', '17', '19', '20', '21', '24',
       ...
       '277', '279', '281', '283', '287', '291', '294', '295', '297', '299'],
      dtype='object', length=119)",False,1000,True,2,1491109bbf,1.0,1.0
./expes/v3_2021-02-05_di_300-prng-1-w1-p2,daily_issda-300,300,first-300,42,14,rng,num-start-231,231,536,classic,7.55949068069458,True,,True,1.0,1.0,1.0,1,"Index(['3', '4', '6', '11', '12', '15', '23', '43', '45', '73', '79', '89',
       '113', '114', '115', '117', '122', '130', '133', '145', '146', '151',
       '152', '155', '159', '172', '179', '186', '210', '214', '216', '217',
       '229', '234', '238', '241', '247', '254', '265', '268', '289', '297'],
      dtype='object')",False,1000,True,2,17f32e8ae5,1.0,1.0
./expes/v3_2021-02-05_di_300-prng-1-w1-p2,daily_issda-300,300,first-300,14,4,rng,num-start-41,41,536,classic,2.6077880859375,True,,True,1.0,1.0,1.0,1,"Index(['47', '49', '73', '95', '96', '98', '156', '229', '232', '239', '244',
       '261', '263', '287'],
      dtype='object')",False,1000,True,2,c5e69dd0e4,1.0,1.0
./expes/v3_2021-02-05_di_300-prng-1-w1-p2,daily_issda-300,300,first-300,7,2,rng,num-start-231,231,536,classic,7.195567607879639,True,,True,1.0,1.0,1.0,1,"Index(['1', '19', '42', '75', '134', '249', '294'], dtype='object')",False,1000,True,2,3dfe45060f,1.0,1.0
./expes/v3_2021-02-05_di_300-prng-1-w1-p2,daily_issda-300,300,first-300,112,37,rng,num-start-151,151,536,classic,5.678017616271973,True,,True,1.0,1.0,1.0,1,"Index(['2', '4', '5', '9', '12', '13', '14', '21', '23', '24',
       ...
       '269', '271', '278', '280', '281', '292', '293', '296', '297', '300'],
      dtype='object', length=112)",False,1000,True,2,330bd36af2,1.0,1.0
./expes/v3_2021-02-05_di_300-prng-1-w1-p2,daily_issda-300,300,first-300,133,44,rng,num-start-21,21,536,classic,1000.6403577327728,False,,False,0,,,0,"Index(['1', '7', '8', '9', '12', '14', '17', '19', '20', '21',
       ...
       '279', '281', '283', '287', '291', '292', '294', '295', '297', '299'],
      dtype='object', length=133)",True,1000,True,2,1a8f41ebfe,0.0,0.0
./expes/v3_2021-02-05_di_300-prng-1-w1-p2,daily_issda-300,300,first-300,98,32,rng,num-start-181,181,536,classic,6.639801979064941,True,,True,1.0,1.0,1.0,1,"Index(['1', '8', '9', '17', '20', '21', '32', '33', '36', '38', '42', '43',
       '46', '47', '48', '49', '51', '52', '56', '60', '64', '67', '72', '73',
       '76', '77', '88', '95', '96', '97', '98', '105', '111', '112', '113',
       '114', '121', '123', '124', '125', '129', '133', '134', '139', '141',
       '142', '145', '148', '149', '150', '155', '156', '159', '162', '163',
       '164', '167', '170', '171', '172', '182', '183', '184', '191', '198',
       '201', '205', '208', '215', '216', '223', '227', '228', '230', '231',
       '242', '244', '245', '249', '250', '251', '253', '259', '261', '262',
       '267', '268', '269', '273', '277', '279', '281', '283', '287', '291',
       '295', '297', '299'],
      dtype='object')",False,1000,True,2,75e53a0a1b,1.0,1.0
./expes/v3_2021-02-05_di_300-prng-1-w1-p2,daily_issda-300,300,first-300,70,23,rng,num-start-291,291,536,classic,9.921539306640625,True,,True,1.0,1.0,1.0,1,"Index(['1', '8', '21', '32', '33', '38', '42', '47', '48', '49', '51', '52',
       '56', '64', '72', '73', '76', '95', '97', '98', '105', '112', '114',
       '123', '124', '125', '129', '133', '134', '145', '148', '149', '150',
       '155', '156', '159', '162', '163', '164', '167', '170', '171', '182',
       '184', '198', '205', '208', '216', '223', '227', '228', '230', '242',
       '245', '249', '251', '253', '259', '261', '262', '267', '273', '277',
       '279', '281', '283', '287', '291', '295', '299'],
      dtype='object')",False,1000,True,2,b91bc90082,1.0,1.0
./expes/v3_2021-02-05_di_300-prng-1-w1-p2,daily_issda-300,300,first-300,21,7,rng,num-start-221,221,536,classic,7.4246132373809814,True,,True,1.0,1.0,1.0,1,"Index(['4', '21', '27', '42', '57', '68', '71', '81', '87', '96', '122', '137',
       '172', '174', '192', '195', '217', '232', '238', '258', '284'],
      dtype='object')",False,1000,True,2,f17723898c,1.0,1.0
./expes/v3_2021-02-05_di_300-prng-1-w1-p2,daily_issda-300,300,first-300,14,4,rng,num-start-191,191,536,classic,7.101949214935303,True,,True,1.0,1.0,1.0,1,"Index(['21', '72', '112', '133', '156', '184', '198', '208', '216', '245',
       '249', '259', '262', '299'],
      dtype='object')",False,1000,True,2,bc87b8bd0a,1.0,1.0
./expes/v3_2021-02-05_di_300-prng-1-w1-p2,daily_issda-300,300,first-300,140,46,rng,num-start-171,171,536,classic,6.3486247062683105,True,,True,1.0,1.0,1.0,1,"Index(['2', '4', '5', '9', '12', '13', '14', '17', '21', '23',
       ...
       '278', '280', '281', '284', '288', '292', '293', '296', '297', '300'],
      dtype='object', length=140)",False,1000,True,2,4f2fae8073,1.0,1.0
./expes/v3_2021-02-05_di_300-prng-1-w1-p2,daily_issda-300,300,first-300,77,25,rng,num-start-21,21,536,classic,1000.8294808864594,False,,False,0,,,0,"Index(['1', '6', '10', '14', '15', '16', '17', '23', '27', '31', '32', '39',
       '43', '45', '47', '58', '59', '70', '74', '75', '84', '88', '92', '99',
       '103', '105', '108', '114', '115', '117', '121', '130', '134', '138',
       '141', '159', '161', '172', '173', '174', '180', '183', '186', '187',
       '189', '191', '192', '196', '197', '198', '199', '206', '208', '215',
       '217', '219', '221', '226', '228', '236', '241', '243', '245', '248',
       '257', '260', '261', '262', '263', '266', '271', '277', '278', '285',
       '286', '294', '296'],
      dtype='object')",True,1000,True,2,8fcf7a13c6,0.0,0.0
./expes/v3_2021-02-05_di_300-prng-1-w1-p2,daily_issda-300,300,first-300,84,28,rng,num-start-211,211,536,classic,7.7731053829193115,True,,True,1.0,1.0,1.0,1,"Index(['4', '11', '14', '23', '24', '31', '32', '35', '42', '45', '46', '47',
       '52', '53', '55', '63', '75', '80', '83', '85', '89', '91', '92', '95',
       '100', '101', '102', '104', '110', '114', '118', '120', '121', '122',
       '127', '128', '133', '134', '135', '140', '142', '143', '144', '148',
       '149', '150', '154', '156', '157', '159', '160', '165', '166', '170',
       '173', '176', '183', '185', '191', '199', '203', '206', '212', '217',
       '221', '224', '226', '232', '236', '237', '242', '243', '246', '260',
       '261', '266', '267', '274', '275', '281', '282', '286', '294', '299'],
      dtype='object')",False,1000,True,2,b3f9dba564,1.0,1.0
./expes/v3_2021-02-05_di_300-prng-1-w1-p2,daily_issda-300,300,first-300,119,39,rng,num-start-231,231,536,classic,8.553573369979858,True,,True,1.0,1.0,1.0,1,"Index(['4', '5', '10', '11', '14', '19', '21', '22', '23', '24',
       ...
       '271', '274', '275', '280', '281', '282', '286', '293', '294', '299'],
      dtype='object', length=119)",False,1000,True,2,3bf800ff75,1.0,1.0
./expes/v3_2021-02-05_di_300-prng-1-w1-p2,daily_issda-300,300,first-300,35,11,rng,num-start-241,241,536,classic,8.125196695327759,True,,True,1.0,1.0,1.0,1,"Index(['3', '8', '17', '18', '23', '39', '69', '72', '83', '90', '106', '123',
       '128', '135', '143', '146', '156', '168', '182', '185', '186', '193',
       '196', '216', '220', '226', '234', '237', '248', '251', '252', '267',
       '293', '296', '299'],
      dtype='object')",False,1000,True,2,c7359f7ff6,1.0,1.0
./expes/v3_2021-02-05_di_300-prng-1-w1-p2,daily_issda-300,300,first-300,91,30,rng,num-start-291,291,536,classic,10.139487981796265,True,,True,1.0,1.0,1.0,1,"Index(['3', '4', '5', '6', '7', '8', '11', '12', '15', '17', '23', '24', '25',
       '34', '37', '41', '43', '45', '48', '52', '54', '59', '60', '63', '73',
       '74', '76', '79', '80', '85', '89', '92', '113', '114', '115', '117',
       '119', '121', '122', '123', '125', '126', '130', '131', '133', '138',
       '145', '146', '151', '152', '155', '156', '159', '163', '164', '172',
       '179', '186', '190', '192', '199', '202', '205', '208', '210', '214',
       '216', '217', '228', '229', '233', '234', '236', '238', '241', '244',
       '245', '247', '251', '252', '254', '256', '262', '265', '268', '270',
       '277', '278', '289', '297', '299'],
      dtype='object')",False,1000,True,2,bd7228106c,1.0,1.0
./expes/v3_2021-02-05_di_300-prng-1-w1-p2,daily_issda-300,300,first-300,28,9,rng,num-start-211,211,536,classic,7.1947314739227295,True,,True,1.0,1.0,1.0,1,"Index(['3', '6', '11', '12', '15', '73', '79', '113', '114', '115', '117',
       '122', '130', '133', '146', '152', '155', '159', '172', '186', '210',
       '214', '216', '229', '234', '238', '241', '247'],
      dtype='object')",False,1000,True,2,c00c236817,1.0,1.0
./expes/v3_2021-02-05_di_300-prng-1-w1-p2,daily_issda-300,300,first-300,7,2,rng,num-start-81,81,536,classic,2.8026678562164307,True,,True,1.0,1.0,1.0,1,"Index(['29', '44', '47', '87', '129', '158', '185'], dtype='object')",False,1000,True,2,917d4626b0,1.0,1.0
./expes/v3_2021-02-05_di_300-prng-1-w1-p2,daily_issda-300,300,first-300,70,23,rng,num-start-61,61,536,classic,1001.8265295028687,False,,False,0,,,0,"Index(['1', '3', '8', '9', '16', '19', '22', '27', '31', '33', '35', '36',
       '38', '43', '44', '45', '47', '49', '56', '61', '73', '81', '95', '96',
       '98', '101', '102', '108', '110', '118', '120', '124', '131', '139',
       '143', '148', '149', '151', '156', '160', '162', '168', '171', '173',
       '193', '198', '203', '204', '206', '209', '210', '215', '226', '229',
       '232', '235', '238', '239', '241', '244', '256', '261', '263', '266',
       '271', '276', '283', '287', '289', '290'],
      dtype='object')",True,1000,True,2,ba6bb9f154,0.0,0.0
./expes/v3_2021-02-05_di_300-prng-1-w1-p2,daily_issda-300,300,first-300,98,32,rng,num-start-151,151,536,classic,6.14566445350647,True,,True,1.0,1.0,1.0,1,"Index(['1', '7', '9', '10', '12', '15', '19', '24', '28', '40', '42', '44',
       '46', '48', '49', '50', '60', '62', '64', '65', '71', '73', '75', '87',
       '89', '95', '97', '99', '100', '101', '102', '103', '108', '115', '126',
       '129', '131', '132', '134', '136', '137', '138', '140', '149', '150',
       '156', '157', '160', '164', '166', '169', '171', '172', '183', '185',
       '186', '192', '194', '195', '200', '204', '210', '211', '212', '216',
       '217', '218', '219', '221', '226', '228', '229', '232', '240', '241',
       '242', '244', '246', '248', '249', '250', '251', '252', '255', '257',
       '258', '264', '265', '268', '269', '271', '276', '277', '284', '286',
       '289', '294', '295'],
      dtype='object')",False,1000,True,2,cf2f864242,1.0,1.0
./expes/v3_2021-02-05_di_300-prng-1-w1-p2,daily_issda-300,300,first-300,126,42,rng,num-start-61,61,536,classic,1001.8565154075623,False,,False,0,,,0,"Index(['1', '2', '3', '4', '5', '7', '8', '9', '10', '13',
       ...
       '276', '277', '284', '285', '287', '290', '294', '295', '297', '300'],
      dtype='object', length=126)",True,1000,True,2,36d18a74c8,0.0,0.0
./expes/v3_2021-02-05_di_300-prng-1-w1-p2,daily_issda-300,300,first-300,70,23,rng,num-start-111,111,536,classic,7.359652042388916,True,,True,1.0,1.0,1.0,1,"Index(['1', '6', '10', '15', '16', '17', '27', '31', '32', '39', '43', '45',
       '47', '58', '59', '70', '74', '75', '84', '88', '92', '99', '103',
       '108', '115', '117', '121', '130', '134', '138', '141', '159', '161',
       '172', '173', '174', '180', '183', '186', '187', '189', '191', '192',
       '196', '197', '198', '206', '208', '215', '217', '221', '226', '228',
       '236', '241', '243', '245', '248', '257', '260', '261', '262', '263',
       '271', '277', '278', '285', '286', '294', '296'],
      dtype='object')",False,1000,True,2,1d69d7f386,1.0,1.0
./expes/v3_2021-02-05_di_300-prng-1-w1-p2,daily_issda-300,300,first-300,70,23,rng,num-start-141,141,536,classic,5.4795286655426025,True,,True,1.0,1.0,1.0,1,"Index(['1', '6', '10', '15', '16', '17', '27', '31', '32', '39', '43', '45',
       '47', '58', '59', '70', '74', '75', '84', '88', '92', '99', '103',
       '108', '115', '117', '121', '130', '134', '138', '141', '159', '161',
       '172', '173', '174', '180', '183', '186', '187', '189', '191', '192',
       '196', '197', '198', '206', '208', '215', '217', '221', '226', '228',
       '236', '241', '243', '245', '248', '257', '260', '261', '262', '263',
       '271', '277', '278', '285', '286', '294', '296'],
      dtype='object')",False,1000,True,2,af808e4060,1.0,1.0
./expes/v3_2021-02-05_di_300-prng-1-w1-p2,daily_issda-300,300,first-300,112,37,rng,num-start-21,21,536,classic,1000.6448738574982,False,,False,0,,,0,"Index(['7', '9', '11', '14', '16', '18', '20', '23', '30', '33',
       ...
       '273', '277', '280', '286', '289', '292', '294', '297', '298', '300'],
      dtype='object', length=112)",True,1000,True,2,3ac4361e9e,0.0,0.0
./expes/v3_2021-02-05_di_300-prng-1-w1-p2,daily_issda-300,300,first-300,21,7,rng,num-start-221,221,536,classic,7.536014080047607,True,,True,1.0,1.0,1.0,1,"Index(['21', '49', '51', '72', '76', '112', '129', '133', '145', '156', '159',
       '184', '198', '208', '216', '245', '249', '259', '262', '273', '299'],
      dtype='object')",False,1000,True,2,cdd7e8b3d0,1.0,1.0
./expes/v3_2021-02-05_di_300-prng-1-w1-p2,daily_issda-300,300,first-300,42,14,rng,num-start-41,41,536,classic,1001.2961785793304,False,,False,0,,,0,"Index(['3', '8', '16', '19', '22', '31', '33', '43', '44', '47', '49', '73',
       '81', '95', '96', '98', '101', '120', '124', '131', '143', '151', '156',
       '162', '168', '203', '209', '226', '229', '232', '235', '238', '239',
       '244', '256', '261', '263', '266', '271', '276', '283', '287'],
      dtype='object')",True,1000,True,2,3a99ee3c83,0.0,0.0
./expes/v3_2021-02-05_di_300-prng-1-w1-p2,daily_issda-300,300,first-300,140,46,rng,num-start-211,211,536,classic,7.7208898067474365,True,,True,1.0,1.0,1.0,1,"Index(['1', '2', '4', '5', '6', '10', '13', '14', '15', '16',
       ...
       '278', '280', '282', '285', '286', '287', '292', '294', '296', '298'],
      dtype='object', length=140)",False,1000,True,2,1378f33bf3,1.0,1.0
./expes/v3_2021-02-05_di_300-prng-1-w1-p2,daily_issda-300,300,first-300,91,30,rng,num-start-81,81,536,classic,1002.4398558139801,False,,False,0,,,0,"Index(['1', '7', '9', '10', '12', '15', '19', '24', '28', '40', '42', '44',
       '46', '48', '49', '50', '60', '62', '64', '65', '71', '75', '87', '89',
       '95', '97', '99', '100', '101', '102', '103', '108', '115', '126',
       '129', '131', '132', '134', '136', '137', '138', '140', '149', '150',
       '156', '157', '160', '164', '169', '171', '172', '183', '185', '186',
       '192', '194', '195', '200', '204', '210', '211', '212', '216', '217',
       '218', '219', '221', '226', '228', '229', '232', '241', '242', '248',
       '249', '250', '251', '257', '258', '264', '265', '268', '269', '271',
       '276', '277', '284', '286', '289', '294', '295'],
      dtype='object')",True,1000,True,2,c493ddc1ad,0.0,0.0
./expes/v3_2021-02-05_di_300-prng-1-w1-p2,daily_issda-300,300,first-300,84,28,rng,num-start-61,61,536,classic,1001.8538987636566,False,,False,0,,,0,"Index(['2', '3', '4', '5', '9', '10', '13', '18', '21', '22', '23', '27', '28',
       '29', '33', '36', '42', '43', '44', '45', '48', '53', '57', '58', '63',
       '68', '69', '71', '72', '75', '77', '81', '83', '87', '89', '96', '99',
       '102', '103', '104', '105', '108', '115', '122', '137', '138', '139',
       '144', '150', '170', '172', '174', '175', '178', '188', '192', '194',
       '195', '197', '204', '206', '207', '211', '216', '217', '218', '232',
       '238', '252', '255', '257', '258', '259', '260', '268', '276', '277',
       '284', '285', '290', '294', '295', '297', '300'],
      dtype='object')",True,1000,True,2,48acec2d15,0.0,0.0
./expes/v3_2021-02-05_di_300-prng-1-w1-p2,daily_issda-300,300,first-300,119,39,rng,num-start-271,271,536,classic,10.002211809158325,True,,True,1.0,1.0,1.0,1,"Index(['1', '4', '7', '8', '9', '10', '12', '15', '16', '19',
       ...
       '271', '276', '277', '284', '286', '287', '289', '292', '294', '295'],
      dtype='object', length=119)",False,1000,True,2,c255ae236a,1.0,1.0
./expes/v3_2021-02-05_di_300-prng-1-w1-p2,daily_issda-300,300,first-300,21,7,rng,num-start-11,11,536,classic,1000.4914252758026,False,,False,0,,,0,"Index(['14', '32', '57', '71', '72', '90', '128', '130', '143', '149', '156',
       '163', '188', '197', '206', '213', '215', '257', '268', '277', '283'],
      dtype='object')",True,1000,True,2,4ed45fd360,0.0,0.0
./expes/v3_2021-02-05_di_300-prng-1-w1-p2,daily_issda-300,300,first-300,21,7,rng,num-start-101,101,536,classic,3.6083381175994873,True,,True,1.0,1.0,1.0,1,"Index(['6', '9', '19', '29', '60', '76', '81', '106', '107', '118', '123',
       '135', '144', '174', '177', '182', '183', '189', '201', '239', '267'],
      dtype='object')",False,1000,True,2,9a165d9b90,1.0,1.0
./expes/v3_2021-02-05_di_300-prng-1-w1-p2,daily_issda-300,300,first-300,70,23,rng,num-start-251,251,536,classic,8.7649564743042,True,,True,1.0,1.0,1.0,1,"Index(['1', '2', '3', '5', '7', '10', '12', '15', '27', '30', '34', '37', '53',
       '58', '65', '68', '72', '75', '81', '82', '85', '86', '91', '94', '95',
       '101', '102', '105', '108', '111', '127', '128', '131', '132', '136',
       '144', '149', '153', '155', '157', '159', '161', '162', '170', '174',
       '182', '184', '185', '188', '191', '193', '195', '197', '200', '207',
       '209', '213', '215', '228', '232', '239', '241', '242', '247', '272',
       '277', '279', '282', '294', '297'],
      dtype='object')",False,1000,True,2,f3b58db99f,1.0,1.0
./expes/v3_2021-02-05_di_300-prng-1-w1-p2,daily_issda-300,300,first-300,77,25,rng,num-start-231,231,536,classic,8.378269672393799,True,,True,1.0,1.0,1.0,1,"Index(['6', '9', '10', '19', '25', '29', '34', '38', '41', '52', '60', '72',
       '73', '76', '78', '81', '85', '89', '92', '101', '106', '107', '115',
       '118', '119', '121', '123', '135', '140', '144', '147', '152', '157',
       '159', '160', '161', '162', '163', '173', '174', '177', '182', '183',
       '185', '189', '199', '200', '201', '203', '206', '208', '215', '216',
       '225', '227', '231', '234', '237', '239', '240', '243', '244', '251',
       '252', '253', '254', '257', '258', '262', '267', '272', '274', '279',
       '285', '290', '292', '296'],
      dtype='object')",False,1000,True,2,a3dad378ff,1.0,1.0
./expes/v3_2021-02-05_di_300-prng-1-w1-p2,daily_issda-300,300,first-300,119,39,rng,num-start-141,141,536,classic,6.46971869468689,True,,True,1.0,1.0,1.0,1,"Index(['3', '4', '5', '10', '30', '34', '40', '41', '45', '46',
       ...
       '281', '283', '285', '286', '287', '291', '293', '294', '295', '297'],
      dtype='object', length=119)",False,1000,True,2,255198e27a,1.0,1.0
./expes/v3_2021-02-05_di_300-prng-1-w1-p2,daily_issda-300,300,first-300,35,11,rng,num-start-261,261,536,classic,8.916377782821655,True,,True,1.0,1.0,1.0,1,"Index(['9', '12', '23', '37', '38', '51', '56', '59', '62', '76', '103', '104',
       '134', '138', '149', '154', '160', '167', '168', '178', '199', '202',
       '203', '211', '213', '217', '226', '234', '262', '267', '271', '278',
       '292', '297', '300'],
      dtype='object')",False,1000,True,2,a90e3fcdc7,1.0,1.0
./expes/v3_2021-02-05_di_300-prng-1-w1-p2,daily_issda-300,300,first-300,42,14,rng,num-start-151,151,536,classic,5.529954195022583,True,,True,1.0,1.0,1.0,1,"Index(['4', '11', '14', '31', '35', '45', '46', '47', '53', '55', '80', '85',
       '89', '92', '100', '110', '114', '121', '127', '128', '134', '135',
       '140', '142', '144', '149', '154', '156', '159', '173', '185', '191',
       '199', '203', '206', '243', '246', '260', '267', '275', '281', '282'],
      dtype='object')",False,1000,True,2,408723ea6e,1.0,1.0
./expes/v3_2021-02-05_di_300-prng-1-w1-p2,daily_issda-300,300,first-300,77,25,rng,num-start-161,161,536,classic,6.04848837852478,True,,True,1.0,1.0,1.0,1,"Index(['2', '5', '12', '14', '15', '16', '18', '23', '33', '45', '49', '52',
       '53', '56', '61', '62', '69', '84', '87', '88', '89', '96', '98', '108',
       '111', '113', '114', '118', '119', '120', '125', '131', '137', '146',
       '149', '152', '156', '158', '163', '171', '177', '188', '190', '192',
       '195', '196', '200', '202', '207', '213', '214', '217', '222', '225',
       '229', '231', '236', '241', '242', '246', '250', '251', '254', '256',
       '257', '258', '259', '260', '261', '267', '271', '278', '281', '284',
       '285', '292', '297'],
      dtype='object')",False,1000,True,2,0b7e7ef6a2,1.0,1.0
./expes/v3_2021-02-05_di_300-prng-1-w1-p2,daily_issda-300,300,first-300,21,7,rng,num-start-201,201,536,classic,7.042271375656128,True,,True,1.0,1.0,1.0,1,"Index(['8', '17', '18', '23', '39', '72', '83', '106', '128', '143', '168',
       '185', '216', '220', '237', '248', '251', '252', '267', '293', '296'],
      dtype='object')",False,1000,True,2,0f69b28ce3,1.0,1.0
./expes/v3_2021-02-05_di_300-prng-1-w1-p2,daily_issda-300,300,first-300,91,30,rng,num-start-71,71,536,classic,1002.1002836227417,False,,False,0,,,0,"Index(['1', '2', '3', '4', '5', '9', '10', '13', '18', '21', '22', '23', '27',
       '28', '29', '33', '36', '42', '43', '44', '45', '48', '53', '57', '58',
       '63', '68', '69', '71', '72', '75', '77', '81', '83', '87', '89', '96',
       '99', '102', '103', '104', '105', '108', '110', '114', '115', '122',
       '137', '138', '139', '144', '150', '167', '169', '170', '172', '174',
       '175', '178', '188', '192', '194', '195', '197', '204', '206', '207',
       '211', '216', '217', '218', '222', '228', '232', '238', '252', '255',
       '257', '258', '259', '260', '268', '276', '277', '284', '285', '290',
       '294', '295', '297', '300'],
      dtype='object')",True,1000,True,2,d9b019d56a,0.0,0.0
./expes/v3_2021-02-05_di_300-prng-1-w1-p2,daily_issda-300,300,first-300,77,25,rng,num-start-11,11,536,classic,1000.3393490314484,False,,False,0,,,0,"Index(['1', '6', '10', '14', '15', '16', '17', '23', '27', '31', '32', '39',
       '43', '45', '47', '58', '59', '70', '74', '75', '84', '88', '92', '99',
       '103', '105', '108', '114', '115', '117', '121', '130', '134', '138',
       '141', '159', '161', '172', '173', '174', '180', '183', '186', '187',
       '189', '191', '192', '196', '197', '198', '199', '206', '208', '215',
       '217', '219', '221', '226', '228', '236', '241', '243', '245', '248',
       '257', '260', '261', '262', '263', '266', '271', '277', '278', '285',
       '286', '294', '296'],
      dtype='object')",True,1000,True,2,516ed30ca7,0.0,0.0
./expes/v3_2021-02-05_di_300-prng-1-w1-p2,daily_issda-300,300,first-300,98,32,rng,num-start-291,291,536,classic,10.347343921661377,True,,True,1.0,1.0,1.0,1,"Index(['4', '7', '8', '11', '15', '16', '17', '19', '22', '23', '24', '33',
       '34', '35', '40', '46', '50', '53', '54', '56', '61', '64', '67', '69',
       '70', '71', '78', '80', '82', '84', '99', '102', '109', '112', '119',
       '120', '121', '122', '133', '135', '137', '138', '143', '144', '146',
       '150', '151', '155', '159', '161', '168', '170', '173', '174', '177',
       '180', '185', '188', '190', '193', '194', '198', '199', '200', '203',
       '204', '209', '211', '213', '216', '219', '224', '228', '236', '241',
       '243', '244', '247', '248', '254', '259', '260', '267', '268', '274',
       '275', '277', '278', '279', '282', '283', '287', '292', '293', '294',
       '296', '298', '300'],
      dtype='object')",False,1000,True,2,620b01c757,1.0,1.0
./expes/v3_2021-02-05_di_300-prng-1-w1-p2,daily_issda-300,300,first-300,77,25,rng,num-start-111,111,536,classic,8.182214498519897,True,,True,1.0,1.0,1.0,1,"Index(['2', '4', '9', '12', '14', '23', '37', '38', '47', '51', '54', '56',
       '59', '62', '66', '69', '71', '76', '82', '88', '94', '99', '103',
       '104', '107', '120', '126', '134', '135', '138', '146', '149', '151',
       '154', '155', '158', '160', '167', '168', '178', '189', '193', '199',
       '200', '202', '203', '207', '209', '211', '213', '217', '220', '225',
       '226', '231', '232', '233', '234', '235', '237', '239', '244', '246',
       '253', '257', '258', '262', '267', '271', '278', '280', '281', '292',
       '293', '296', '297', '300'],
      dtype='object')",False,1000,True,2,fb60c04f9b,1.0,1.0
./expes/v3_2021-02-05_di_300-prng-1-w1-p2,daily_issda-300,300,first-300,21,7,rng,num-start-51,51,536,classic,3.2638206481933594,True,,True,1.0,1.0,1.0,1,"Index(['8', '16', '37', '44', '65', '67', '72', '76', '96', '110', '116',
       '119', '133', '135', '142', '149', '151', '221', '224', '231', '273'],
      dtype='object')",False,1000,True,2,dfe18500b8,1.0,1.0
./expes/v3_2021-02-05_di_300-prng-1-w1-p2,daily_issda-300,300,first-300,77,25,rng,num-start-21,21,536,classic,1000.6279566287994,False,,False,0,,,0,"Index(['5', '13', '15', '19', '29', '39', '44', '47', '55', '70', '82', '83',
       '85', '86', '87', '89', '91', '94', '98', '107', '109', '114', '119',
       '121', '128', '129', '138', '143', '156', '158', '159', '160', '164',
       '167', '175', '180', '182', '185', '186', '187', '188', '191', '195',
       '202', '205', '209', '213', '217', '221', '228', '229', '233', '234',
       '237', '239', '246', '250', '251', '256', '257', '258', '259', '260',
       '261', '262', '263', '264', '266', '269', '270', '272', '279', '286',
       '287', '288', '291', '298'],
      dtype='object')",True,1000,True,2,72956a2082,0.0,0.0
./expes/v3_2021-02-05_di_300-prng-1-w1-p2,daily_issda-300,300,first-300,7,2,rng,num-start-271,271,536,classic,8.523570775985718,True,,True,1.0,1.0,1.0,1,"Index(['6', '9', '19', '81', '107', '123', '267'], dtype='object')",False,1000,True,2,6ba39ffa0d,1.0,1.0
./expes/v3_2021-02-05_di_300-prng-1-w1-p2,daily_issda-300,300,first-300,42,14,rng,num-start-1,1,536,classic,1.7343318462371826,False,,False,0.5231092901262601,0.5231092901262601,0.5231092901262601,2,"Index(['20', '24', '25', '26', '30', '31', '32', '36', '38', '45', '47', '49',
       '61', '64', '69', '74', '78', '93', '110', '114', '115', '124', '149',
       '158', '166', '188', '203', '204', '215', '218', '223', '260', '275',
       '277', '283', '286', '287', '290', '293', '296', '299', '300'],
      dtype='object')",False,1000,True,2,a9abab4186,1.0,1.0
./expes/v3_2021-02-05_di_300-prng-1-w1-p2,daily_issda-300,300,first-300,140,46,rng,num-start-51,51,536,classic,1001.5128266811371,False,,False,0,,,0,"Index(['1', '2', '3', '5', '7', '10', '12', '15', '17', '18',
       ...
       '274', '277', '279', '280', '281', '282', '287', '289', '294', '297'],
      dtype='object', length=140)",True,1000,True,2,5c5a137647,0.0,0.0
./expes/v3_2021-02-05_di_300-prng-1-w1-p2,daily_issda-300,300,first-300,98,32,rng,num-start-151,151,536,classic,5.751476287841797,True,,True,1.0,1.0,1.0,1,"Index(['1', '6', '10', '11', '13', '15', '18', '22', '35', '36', '38', '43',
       '46', '48', '49', '51', '53', '55', '58', '59', '61', '63', '74', '77',
       '83', '85', '87', '93', '97', '99', '100', '105', '112', '115', '121',
       '127', '131', '132', '134', '135', '137', '139', '141', '143', '144',
       '145', '150', '155', '156', '159', '160', '162', '173', '178', '183',
       '184', '185', '187', '189', '196', '198', '199', '202', '204', '207',
       '208', '211', '214', '217', '218', '224', '225', '226', '231', '232',
       '234', '236', '239', '241', '242', '243', '246', '249', '250', '251',
       '257', '260', '264', '265', '270', '272', '274', '283', '287', '292',
       '293', '297', '299'],
      dtype='object')",False,1000,True,2,5b7a294b7c,1.0,1.0
./expes/v3_2021-02-05_di_300-prng-1-w1-p2,daily_issda-300,300,first-300,63,21,rng,num-start-71,71,536,classic,6.340275049209595,True,,True,1.0,1.0,1.0,1,"Index(['6', '9', '10', '19', '25', '29', '34', '38', '41', '52', '60', '72',
       '76', '78', '81', '89', '92', '101', '106', '107', '115', '118', '119',
       '123', '135', '144', '147', '152', '157', '161', '162', '174', '177',
       '182', '183', '185', '189', '201', '203', '206', '208', '215', '216',
       '225', '231', '234', '237', '239', '240', '251', '252', '254', '257',
       '258', '262', '267', '272', '274', '279', '285', '290', '292', '296'],
      dtype='object')",False,1000,True,2,b7c6ff39c8,1.0,1.0
./expes/v3_2021-02-05_di_300-prng-1-w1-p2,daily_issda-300,300,first-300,14,4,rng,num-start-131,131,536,classic,4.425432205200195,True,,True,1.0,1.0,1.0,1,"Index(['6', '9', '19', '29', '60', '76', '81', '107', '123', '174', '183',
       '189', '239', '267'],
      dtype='object')",False,1000,True,2,ea797a2d0a,1.0,1.0
./expes/v3_2021-02-05_di_300-prng-1-w1-p2,daily_issda-300,300,first-300,84,28,rng,num-start-111,111,536,classic,10.028043985366821,True,,True,1.0,1.0,1.0,1,"Index(['4', '11', '14', '23', '24', '31', '32', '35', '42', '45', '46', '47',
       '52', '53', '55', '63', '75', '80', '83', '85', '89', '91', '92', '95',
       '100', '101', '102', '104', '110', '114', '118', '120', '121', '122',
       '127', '128', '133', '134', '135', '140', '142', '143', '144', '148',
       '149', '150', '154', '156', '157', '159', '160', '165', '166', '170',
       '173', '176', '183', '185', '191', '199', '203', '206', '212', '217',
       '221', '224', '226', '232', '236', '237', '242', '243', '246', '260',
       '261', '266', '267', '274', '275', '281', '282', '286', '294', '299'],
      dtype='object')",False,1000,True,2,5d40131a5b,1.0,1.0
./expes/v3_2021-02-05_di_300-prng-1-w1-p2,daily_issda-300,300,first-300,133,44,rng,num-start-141,141,536,classic,10.338812589645386,True,,True,1.0,1.0,1.0,1,"Index(['3', '7', '12', '20', '21', '24', '25', '26', '28', '30',
       ...
       '289', '290', '293', '294', '295', '296', '297', '298', '299', '300'],
      dtype='object', length=133)",False,1000,True,2,cdd8b08dc5,1.0,1.0
./expes/v3_2021-02-05_di_300-prng-1-w1-p2,daily_issda-300,300,first-300,56,18,rng,num-start-81,81,536,classic,7.861393928527832,True,,True,1.0,1.0,1.0,1,"Index(['3', '4', '6', '7', '8', '11', '12', '15', '23', '34', '43', '45', '73',
       '79', '80', '85', '89', '113', '114', '115', '117', '121', '122', '130',
       '133', '145', '146', '151', '152', '155', '156', '159', '163', '172',
       '179', '186', '192', '210', '214', '216', '217', '228', '229', '233',
       '234', '236', '238', '241', '247', '251', '252', '254', '265', '268',
       '289', '297'],
      dtype='object')",False,1000,True,2,0df35ac060,1.0,1.0
./expes/v3_2021-02-05_di_300-prng-1-w1-p2,daily_issda-300,300,first-300,21,7,rng,num-start-221,221,536,classic,7.299877643585205,True,,True,1.0,1.0,1.0,1,"Index(['7', '15', '27', '53', '58', '81', '94', '111', '127', '128', '131',
       '144', '184', '191', '195', '209', '239', '241', '272', '279', '294'],
      dtype='object')",False,1000,True,2,2dba329947,1.0,1.0
./expes/v3_2021-02-05_di_300-prng-1-w1-p2,daily_issda-300,300,first-300,63,21,rng,num-start-31,31,536,classic,1000.9100193977356,False,,False,0,,,0,"Index(['3', '8', '17', '18', '19', '23', '34', '37', '39', '42', '50', '58',
       '69', '72', '77', '81', '83', '90', '100', '106', '115', '121', '123',
       '128', '135', '143', '146', '155', '156', '161', '167', '168', '182',
       '185', '186', '188', '192', '193', '196', '197', '212', '216', '220',
       '224', '226', '231', '234', '237', '241', '248', '251', '252', '255',
       '257', '267', '274', '275', '282', '291', '293', '296', '299', '300'],
      dtype='object')",True,1000,True,2,11b7ae8ba0,0.0,0.0
