expe,clients,clients_size,clients_subset,agg_size,agg_size_pc,method,days,days_size,days_total,noise_method,time,valid,valid_sum,success,score_avg,score_min,score_max,nsols,oracle,wall_hit,wall_time,pooled,pool_size,uuid,optimal,valid_sums
./expes/v3_2021-02-05_di_300-prng-1-w1-p2,daily_issda-300,300,first-300,14,4,rng,num-start-181,181,536,classic,6.128034830093384,True,,True,1.0,1.0,1.0,1,"Index(['8', '17', '18', '83', '106', '143', '220', '237', '248', '251', '252',
       '267', '293', '296'],
      dtype='object')",False,1000,True,2,7210831afc,1.0,1.0
./expes/v3_2021-02-05_di_300-prng-1-w1-p2,daily_issda-300,300,first-300,42,14,rng,num-start-31,31,536,classic,1000.950216293335,False,,False,0,,,0,"Index(['8', '16', '37', '44', '61', '65', '67', '70', '72', '76', '91', '92',
       '96', '104', '110', '116', '119', '120', '132', '133', '135', '142',
       '149', '151', '161', '178', '183', '187', '220', '221', '224', '226',
       '228', '230', '231', '250', '268', '273', '275', '282', '284', '289'],
      dtype='object')",True,1000,True,2,4eeff7b072,0.0,0.0
./expes/v3_2021-02-05_di_300-prng-1-w1-p2,daily_issda-300,300,first-300,126,42,rng,num-start-41,41,536,classic,1001.2800147533417,False,,False,0,,,0,"Index(['2', '5', '6', '8', '9', '10', '16', '19', '22', '23',
       ...
       '267', '272', '274', '279', '281', '285', '290', '292', '295', '296'],
      dtype='object', length=126)",True,1000,True,2,20e0e6ca32,0.0,0.0
./expes/v3_2021-02-05_di_300-prng-1-w1-p2,daily_issda-300,300,first-300,91,30,rng,num-start-181,181,536,classic,6.8703014850616455,True,,True,1.0,1.0,1.0,1,"Index(['12', '20', '21', '24', '25', '26', '30', '31', '32', '33', '34', '36',
       '38', '40', '42', '45', '47', '48', '49', '50', '53', '61', '64', '69',
       '74', '78', '85', '93', '97', '106', '110', '114', '115', '124', '125',
       '128', '139', '146', '148', '149', '154', '158', '159', '161', '166',
       '175', '176', '178', '180', '182', '186', '188', '191', '198', '203',
       '204', '215', '216', '218', '219', '223', '229', '230', '233', '234',
       '237', '239', '243', '251', '254', '255', '260', '263', '269', '273',
       '275', '277', '281', '283', '286', '287', '289', '290', '293', '294',
       '295', '296', '297', '298', '299', '300'],
      dtype='object')",False,1000,True,2,5dfd4e7f1c,1.0,1.0
./expes/v3_2021-02-05_di_300-prng-1-w1-p2,daily_issda-300,300,first-300,14,4,rng,num-start-1,1,536,classic,1.919541835784912,False,,False,0.7051160876902057,0.7051160876902057,0.7051160876902057,2,"Index(['1', '12', '19', '42', '75', '102', '134', '140', '164', '192', '241',
       '249', '251', '294'],
      dtype='object')",False,1000,True,2,ad12fb045b,1.0,1.0
./expes/v3_2021-02-05_di_300-prng-1-w1-p2,daily_issda-300,300,first-300,105,35,rng,num-start-221,221,536,classic,7.921857833862305,True,,True,1.0,1.0,1.0,1,"Index(['3', '4', '5', '10', '41', '45', '46', '48', '52', '59',
       ...
       '281', '283', '285', '286', '287', '291', '293', '294', '295', '297'],
      dtype='object', length=105)",False,1000,True,2,0ca13a98f5,1.0,1.0
./expes/v3_2021-02-05_di_300-prng-1-w1-p2,daily_issda-300,300,first-300,119,39,rng,num-start-231,231,536,classic,8.111571550369263,True,,True,1.0,1.0,1.0,1,"Index(['2', '3', '8', '16', '17', '19', '20', '22', '23', '36',
       ...
       '282', '284', '285', '287', '289', '290', '292', '296', '298', '299'],
      dtype='object', length=119)",False,1000,True,2,13656106af,1.0,1.0
./expes/v3_2021-02-05_di_300-prng-1-w1-p2,daily_issda-300,300,first-300,21,7,rng,num-start-251,251,536,classic,8.461528778076172,True,,True,1.0,1.0,1.0,1,"Index(['16', '23', '44', '46', '65', '71', '99', '108', '117', '127', '190',
       '193', '200', '206', '207', '233', '236', '250', '254', '260', '294'],
      dtype='object')",False,1000,True,2,b11e8985b4,1.0,1.0
./expes/v3_2021-02-05_di_300-prng-1-w1-p2,daily_issda-300,300,first-300,49,16,rng,num-start-271,271,536,classic,9.058063268661499,True,,True,1.0,1.0,1.0,1,"Index(['2', '5', '12', '14', '15', '16', '33', '49', '52', '53', '61', '62',
       '69', '96', '98', '108', '111', '113', '114', '118', '119', '120',
       '131', '137', '149', '152', '163', '171', '177', '195', '196', '200',
       '214', '217', '222', '225', '229', '231', '236', '242', '250', '254',
       '257', '260', '271', '278', '284', '285', '292'],
      dtype='object')",False,1000,True,2,bb7b462d5f,1.0,1.0
./expes/v3_2021-02-05_di_300-prng-1-w1-p2,daily_issda-300,300,first-300,105,35,rng,num-start-61,61,536,classic,1001.8690476417542,False,,False,0,,,0,"Index(['1', '3', '5', '11', '13', '15', '17', '19', '21', '23',
       ...
       '269', '270', '272', '279', '286', '287', '288', '291', '295', '298'],
      dtype='object', length=105)",True,1000,True,2,d8341efa8e,0.0,0.0
./expes/v3_2021-02-05_di_300-prng-1-w1-p2,daily_issda-300,300,first-300,126,42,rng,num-start-1,1,536,classic,0.7351257801055908,False,,False,0.2964655810043709,0.2917117530251716,0.30121940898357025,2,"Index(['2', '4', '5', '9', '12', '13', '14', '21', '23', '24',
       ...
       '271', '278', '280', '281', '288', '292', '293', '296', '297', '300'],
      dtype='object', length=126)",False,1000,True,2,540bd5487e,1.0,1.0
./expes/v3_2021-02-05_di_300-prng-1-w1-p2,daily_issda-300,300,first-300,98,32,rng,num-start-231,231,536,classic,8.116174936294556,True,,True,1.0,1.0,1.0,1,"Index(['2', '8', '16', '19', '20', '22', '23', '36', '37', '38', '40', '44',
       '48', '58', '61', '63', '65', '67', '68', '70', '71', '72', '73', '76',
       '82', '85', '86', '91', '92', '94', '96', '99', '100', '104', '109',
       '110', '116', '119', '120', '121', '122', '129', '130', '132', '133',
       '135', '138', '142', '144', '149', '151', '152', '155', '160', '161',
       '175', '176', '178', '180', '183', '184', '187', '188', '191', '192',
       '200', '203', '209', '212', '218', '220', '221', '224', '226', '228',
       '230', '231', '236', '238', '241', '250', '252', '255', '267', '268',
       '270', '273', '275', '279', '282', '284', '285', '289', '290', '292',
       '296', '298', '299'],
      dtype='object')",False,1000,True,2,26821d5104,1.0,1.0
./expes/v3_2021-02-05_di_300-prng-1-w1-p2,daily_issda-300,300,first-300,133,44,rng,num-start-41,41,536,classic,1001.2189762592316,False,,False,0,,,0,"Index(['2', '3', '8', '16', '17', '19', '20', '22', '23', '24',
       ...
       '282', '284', '285', '287', '289', '290', '292', '296', '298', '299'],
      dtype='object', length=133)",True,1000,True,2,530d24f166,0.0,0.0
./expes/v3_2021-02-05_di_300-prng-1-w1-p2,daily_issda-300,300,first-300,70,23,rng,num-start-131,131,536,classic,5.311318635940552,True,,True,1.0,1.0,1.0,1,"Index(['20', '24', '25', '26', '30', '31', '32', '33', '36', '38', '42', '45',
       '47', '49', '50', '53', '61', '64', '69', '74', '78', '85', '93', '97',
       '106', '110', '114', '115', '124', '125', '128', '148', '149', '154',
       '158', '161', '166', '176', '186', '188', '191', '203', '204', '215',
       '218', '219', '223', '230', '233', '239', '254', '255', '260', '263',
       '269', '273', '275', '277', '281', '283', '286', '287', '289', '290',
       '293', '295', '296', '298', '299', '300'],
      dtype='object')",False,1000,True,2,f699c19eb4,1.0,1.0
./expes/v3_2021-02-05_di_300-prng-1-w1-p2,daily_issda-300,300,first-300,14,4,rng,num-start-31,31,536,classic,1.7477118968963623,True,,True,1.0,1.0,1.0,1,"Index(['63', '93', '94', '101', '102', '123', '136', '152', '172', '230',
       '235', '246', '251', '253'],
      dtype='object')",False,1000,True,2,6bbdbe1ae7,1.0,1.0
./expes/v3_2021-02-05_di_300-prng-1-w1-p2,daily_issda-300,300,first-300,105,35,rng,num-start-21,21,536,classic,1000.6621623039246,False,,False,0,,,0,"Index(['4', '5', '10', '11', '14', '22', '23', '24', '31', '32',
       ...
       '266', '267', '274', '275', '281', '282', '286', '293', '294', '299'],
      dtype='object', length=105)",True,1000,True,2,d585c6d6e9,0.0,0.0
./expes/v3_2021-02-05_di_300-prng-1-w1-p2,daily_issda-300,300,first-300,14,4,rng,num-start-11,11,536,classic,1000.3891851902008,False,,False,0,,,0,"Index(['63', '93', '94', '101', '102', '123', '136', '152', '172', '230',
       '235', '246', '251', '253'],
      dtype='object')",True,1000,True,2,28d08f064e,0.0,0.0
./expes/v3_2021-02-05_di_300-prng-1-w1-p2,daily_issda-300,300,first-300,140,46,rng,num-start-11,11,536,classic,1000.351772069931,False,,False,0,,,0,"Index(['4', '5', '10', '11', '14', '17', '19', '21', '22', '23',
       ...
       '274', '275', '280', '281', '282', '286', '290', '293', '294', '299'],
      dtype='object', length=140)",True,1000,True,2,c4b042b3a8,0.0,0.0
./expes/v3_2021-02-05_di_300-prng-1-w1-p2,daily_issda-300,300,first-300,126,42,rng,num-start-101,101,536,classic,1003.0205752849579,True,,False,1.0,1.0,1.0,1,"Index(['2', '3', '8', '16', '17', '19', '20', '22', '23', '24',
       ...
       '282', '284', '285', '287', '289', '290', '292', '296', '298', '299'],
      dtype='object', length=126)",True,1000,True,2,73384c4176,0.0,1.0
./expes/v3_2021-02-05_di_300-prng-1-w1-p2,daily_issda-300,300,first-300,63,21,rng,num-start-291,291,536,classic,9.958570718765259,True,,True,1.0,1.0,1.0,1,"Index(['13', '15', '19', '29', '44', '47', '70', '82', '83', '85', '86', '87',
       '89', '91', '94', '109', '114', '119', '121', '128', '129', '138',
       '143', '156', '158', '159', '164', '167', '180', '182', '185', '186',
       '187', '191', '195', '202', '205', '213', '217', '221', '228', '229',
       '233', '234', '237', '239', '246', '250', '251', '256', '257', '258',
       '261', '262', '264', '269', '270', '272', '279', '286', '287', '291',
       '298'],
      dtype='object')",False,1000,True,2,787712db5b,1.0,1.0
./expes/v3_2021-02-05_di_300-prng-1-w1-p2,daily_issda-300,300,first-300,98,32,rng,num-start-61,61,536,classic,1001.8551905155182,False,,False,0,,,0,"Index(['2', '8', '16', '19', '20', '22', '23', '36', '37', '38', '40', '44',
       '48', '58', '61', '63', '65', '67', '68', '70', '71', '72', '73', '76',
       '82', '85', '86', '91', '92', '94', '96', '99', '100', '104', '109',
       '110', '116', '119', '120', '121', '122', '129', '130', '132', '133',
       '135', '138', '142', '144', '149', '151', '152', '155', '160', '161',
       '175', '176', '178', '180', '183', '184', '187', '188', '191', '192',
       '200', '203', '209', '212', '218', '220', '221', '224', '226', '228',
       '230', '231', '236', '238', '241', '250', '252', '255', '267', '268',
       '270', '273', '275', '279', '282', '284', '285', '289', '290', '292',
       '296', '298', '299'],
      dtype='object')",True,1000,True,2,eff6925ed1,0.0,0.0
./expes/v3_2021-02-05_di_300-prng-1-w1-p2,daily_issda-300,300,first-300,21,7,rng,num-start-41,41,536,classic,2.5952329635620117,True,,True,1.0,1.0,1.0,1,"Index(['38', '55', '61', '77', '115', '127', '131', '134', '135', '139', '150',
       '156', '162', '184', '185', '202', '204', '231', '239', '265', '270'],
      dtype='object')",False,1000,True,2,2815de0489,1.0,1.0
./expes/v3_2021-02-05_di_300-prng-1-w1-p2,daily_issda-300,300,first-300,35,11,rng,num-start-171,171,536,classic,6.604559659957886,True,,True,1.0,1.0,1.0,1,"Index(['11', '14', '31', '35', '45', '47', '53', '55', '80', '85', '89', '92',
       '100', '110', '114', '121', '128', '134', '135', '140', '142', '149',
       '156', '159', '173', '185', '191', '199', '203', '206', '246', '260',
       '267', '275', '282'],
      dtype='object')",False,1000,True,2,cd5b8208e5,1.0,1.0
./expes/v3_2021-02-05_di_300-prng-1-w1-p2,daily_issda-300,300,first-300,42,14,rng,num-start-241,241,536,classic,7.97148871421814,True,,True,1.0,1.0,1.0,1,"Index(['3', '4', '21', '23', '27', '29', '33', '42', '45', '53', '57', '68',
       '71', '72', '81', '87', '96', '103', '105', '108', '115', '122', '137',
       '144', '150', '172', '174', '175', '192', '194', '195', '197', '204',
       '211', '216', '217', '232', '238', '252', '258', '260', '284'],
      dtype='object')",False,1000,True,2,eb4355099d,1.0,1.0
./expes/v3_2021-02-05_di_300-prng-1-w1-p2,daily_issda-300,300,first-300,126,42,rng,num-start-241,241,536,classic,8.295933723449707,True,,True,1.0,1.0,1.0,1,"Index(['3', '4', '5', '6', '10', '24', '30', '34', '40', '41',
       ...
       '283', '285', '286', '287', '290', '291', '293', '294', '295', '297'],
      dtype='object', length=126)",False,1000,True,2,fa0e544465,1.0,1.0
./expes/v3_2021-02-05_di_300-prng-1-w1-p2,daily_issda-300,300,first-300,140,46,rng,num-start-41,41,536,classic,1001.2352938652039,False,,False,0,,,0,"Index(['3', '4', '5', '6', '7', '8', '11', '12', '15', '16',
       ...
       '270', '273', '274', '277', '278', '284', '289', '294', '297', '299'],
      dtype='object', length=140)",True,1000,True,2,65c3ff5f8d,0.0,0.0
./expes/v3_2021-02-05_di_300-prng-1-w1-p2,daily_issda-300,300,first-300,63,21,rng,num-start-281,281,536,classic,9.92646050453186,True,,True,1.0,1.0,1.0,1,"Index(['1', '8', '21', '32', '33', '38', '42', '47', '48', '49', '51', '52',
       '56', '64', '72', '73', '76', '98', '105', '112', '114', '123', '125',
       '129', '133', '134', '145', '148', '150', '155', '156', '159', '162',
       '164', '167', '170', '171', '182', '184', '198', '205', '208', '216',
       '223', '227', '230', '242', '245', '249', '251', '253', '259', '261',
       '262', '267', '273', '277', '279', '281', '283', '287', '291', '299'],
      dtype='object')",False,1000,True,2,4981c20c3d,1.0,1.0
./expes/v3_2021-02-05_di_300-prng-1-w1-p2,daily_issda-300,300,first-300,105,35,rng,num-start-211,211,536,classic,7.307597637176514,True,,True,1.0,1.0,1.0,1,"Index(['7', '11', '14', '16', '18', '20', '23', '30', '33', '36',
       ...
       '273', '277', '280', '286', '289', '292', '294', '297', '298', '300'],
      dtype='object', length=105)",False,1000,True,2,f0c12818e9,1.0,1.0
./expes/v3_2021-02-05_di_300-prng-1-w1-p2,daily_issda-300,300,first-300,112,37,rng,num-start-191,191,536,classic,7.315880060195923,True,,True,1.0,1.0,1.0,1,"Index(['1', '2', '3', '5', '7', '12', '14', '15', '16', '17',
       ...
       '281', '282', '283', '284', '285', '288', '292', '296', '297', '300'],
      dtype='object', length=112)",False,1000,True,2,2641c5a110,1.0,1.0
./expes/v3_2021-02-05_di_300-prng-1-w1-p2,daily_issda-300,300,first-300,21,7,rng,num-start-201,201,536,classic,7.383420705795288,True,,True,1.0,1.0,1.0,1,"Index(['11', '31', '35', '47', '53', '55', '80', '89', '114', '121', '135',
       '142', '149', '156', '185', '203', '206', '246', '267', '275', '282'],
      dtype='object')",False,1000,True,2,c61e1eeb4b,1.0,1.0
./expes/v3_2021-02-05_di_300-prng-1-w1-p2,daily_issda-300,300,first-300,119,39,rng,num-start-291,291,536,classic,10.92385482788086,True,,True,1.0,1.0,1.0,1,"Index(['1', '2', '3', '5', '7', '8', '9', '12', '14', '15',
       ...
       '281', '282', '283', '284', '285', '288', '292', '296', '297', '300'],
      dtype='object', length=119)",False,1000,True,2,3435260f27,1.0,1.0
./expes/v3_2021-02-05_di_300-prng-1-w1-p2,daily_issda-300,300,first-300,84,28,rng,num-start-271,271,536,classic,9.253871440887451,True,,True,1.0,1.0,1.0,1,"Index(['2', '4', '9', '12', '14', '23', '24', '35', '37', '38', '40', '47',
       '51', '52', '54', '56', '59', '62', '66', '69', '71', '76', '82', '88',
       '94', '99', '103', '104', '107', '108', '120', '126', '134', '135',
       '138', '146', '149', '151', '154', '155', '158', '160', '167', '168',
       '178', '189', '193', '199', '200', '202', '203', '207', '209', '211',
       '213', '216', '217', '220', '225', '226', '231', '232', '233', '234',
       '235', '237', '238', '239', '244', '246', '253', '257', '258', '262',
       '267', '271', '278', '280', '281', '292', '293', '296', '297', '300'],
      dtype='object')",False,1000,True,2,577c8ac8f3,1.0,1.0
./expes/v3_2021-02-05_di_300-prng-1-w1-p2,daily_issda-300,300,first-300,98,32,rng,num-start-221,221,536,classic,7.8947155475616455,True,,True,1.0,1.0,1.0,1,"Index(['3', '8', '17', '18', '19', '23', '33', '34', '37', '39', '41', '42',
       '50', '58', '62', '69', '72', '74', '77', '81', '82', '83', '85', '86',
       '90', '91', '92', '98', '100', '106', '115', '121', '123', '124', '125',
       '126', '128', '135', '137', '140', '141', '143', '146', '155', '156',
       '161', '164', '167', '168', '170', '178', '179', '182', '185', '186',
       '188', '192', '193', '196', '197', '200', '206', '208', '212', '213',
       '216', '220', '222', '223', '224', '226', '227', '229', '230', '231',
       '234', '237', '241', '246', '248', '251', '252', '254', '255', '256',
       '257', '267', '268', '269', '274', '275', '279', '282', '291', '293',
       '296', '299', '300'],
      dtype='object')",False,1000,True,2,20bb8c6145,1.0,1.0
./expes/v3_2021-02-05_di_300-prng-1-w1-p2,daily_issda-300,300,first-300,42,14,rng,num-start-11,11,536,classic,1000.3815114498138,False,,False,0,,,0,"Index(['4', '59', '61', '63', '87', '90', '93', '94', '101', '102', '103',
       '104', '111', '113', '121', '122', '123', '130', '136', '139', '140',
       '152', '154', '156', '167', '172', '176', '178', '188', '208', '230',
       '235', '246', '251', '253', '260', '268', '270', '276', '283', '294',
       '295'],
      dtype='object')",True,1000,True,2,30caba13c2,0.0,0.0
./expes/v3_2021-02-05_di_300-prng-1-w1-p2,daily_issda-300,300,first-300,112,37,rng,num-start-241,241,536,classic,8.19938349723816,True,,True,1.0,1.0,1.0,1,"Index(['1', '8', '9', '12', '14', '17', '19', '20', '21', '24',
       ...
       '277', '279', '281', '283', '287', '291', '294', '295', '297', '299'],
      dtype='object', length=112)",False,1000,True,2,c7f1c24427,1.0,1.0
./expes/v3_2021-02-05_di_300-prng-1-w1-p2,daily_issda-300,300,first-300,133,44,rng,num-start-231,231,536,classic,8.32319164276123,True,,True,1.0,1.0,1.0,1,"Index(['3', '4', '5', '6', '7', '8', '11', '12', '15', '16',
       ...
       '268', '270', '274', '277', '278', '284', '289', '294', '297', '299'],
      dtype='object', length=133)",False,1000,True,2,7d06a61947,1.0,1.0
./expes/v3_2021-02-05_di_300-prng-1-w1-p2,daily_issda-300,300,first-300,140,46,rng,num-start-181,181,536,classic,7.004258155822754,True,,True,1.0,1.0,1.0,1,"Index(['1', '2', '3', '4', '5', '7', '8', '9', '10', '13',
       ...
       '277', '284', '285', '287', '288', '290', '294', '295', '297', '300'],
      dtype='object', length=140)",False,1000,True,2,e75dfe433c,1.0,1.0
./expes/v3_2021-02-05_di_300-prng-1-w1-p2,daily_issda-300,300,first-300,21,7,rng,num-start-201,201,536,classic,7.215713024139404,True,,True,1.0,1.0,1.0,1,"Index(['6', '9', '19', '29', '60', '76', '81', '106', '107', '118', '123',
       '135', '144', '174', '177', '182', '183', '189', '201', '239', '267'],
      dtype='object')",False,1000,True,2,db1df4e5c7,1.0,1.0
./expes/v3_2021-02-05_di_300-prng-1-w1-p2,daily_issda-300,300,first-300,98,32,rng,num-start-181,181,536,classic,6.590059995651245,True,,True,1.0,1.0,1.0,1,"Index(['1', '3', '5', '6', '8', '9', '11', '16', '19', '22', '27', '31', '33',
       '35', '36', '38', '39', '43', '44', '45', '47', '49', '52', '56', '60',
       '61', '68', '69', '73', '75', '81', '91', '95', '96', '97', '98', '101',
       '102', '107', '108', '109', '110', '118', '120', '124', '125', '127',
       '131', '133', '139', '143', '148', '149', '151', '152', '156', '160',
       '162', '168', '169', '171', '173', '189', '191', '193', '197', '198',
       '202', '203', '204', '206', '209', '210', '215', '216', '226', '227',
       '229', '230', '232', '235', '238', '239', '241', '244', '250', '256',
       '261', '263', '266', '271', '276', '283', '287', '289', '290', '296',
       '299'],
      dtype='object')",False,1000,True,2,23a93887d8,1.0,1.0
./expes/v3_2021-02-05_di_300-prng-1-w1-p2,daily_issda-300,300,first-300,119,39,rng,num-start-281,281,536,classic,9.739634990692139,True,,True,1.0,1.0,1.0,1,"Index(['1', '6', '10', '11', '13', '15', '17', '18', '22', '35',
       ...
       '274', '280', '283', '284', '287', '288', '292', '293', '297', '299'],
      dtype='object', length=119)",False,1000,True,2,72b3fe17a0,1.0,1.0
./expes/v3_2021-02-05_di_300-prng-1-w1-p2,daily_issda-300,300,first-300,105,35,rng,num-start-111,111,536,classic,26.38166046142578,True,,True,1.0,1.0,1.0,1,"Index(['3', '5', '10', '11', '14', '26', '27', '28', '30', '32',
       ...
       '279', '283', '284', '285', '286', '287', '289', '293', '295', '297'],
      dtype='object', length=105)",False,1000,True,2,85ea05b70a,1.0,1.0
./expes/v3_2021-02-05_di_300-prng-1-w1-p2,daily_issda-300,300,first-300,21,7,rng,num-start-251,251,536,classic,8.3267183303833,True,,True,1.0,1.0,1.0,1,"Index(['7', '15', '27', '53', '58', '81', '94', '111', '127', '128', '131',
       '144', '184', '191', '195', '209', '239', '241', '272', '279', '294'],
      dtype='object')",False,1000,True,2,a8f162ee2e,1.0,1.0
./expes/v3_2021-02-05_di_300-prng-1-w1-p2,daily_issda-300,300,first-300,91,30,rng,num-start-141,141,536,classic,5.321710824966431,True,,True,1.0,1.0,1.0,1,"Index(['7', '11', '14', '16', '18', '20', '23', '30', '33', '37', '44', '45',
       '46', '50', '56', '59', '60', '65', '70', '71', '73', '76', '77', '82',
       '83', '86', '88', '90', '99', '100', '102', '104', '107', '108', '113',
       '117', '120', '121', '125', '127', '131', '133', '137', '146', '147',
       '152', '153', '154', '159', '161', '174', '176', '177', '183', '190',
       '193', '194', '195', '198', '200', '203', '206', '207', '209', '214',
       '217', '219', '228', '233', '234', '236', '243', '249', '250', '251',
       '254', '255', '258', '260', '262', '265', '267', '271', '273', '277',
       '280', '286', '294', '297', '298', '300'],
      dtype='object')",False,1000,True,2,42359fa404,1.0,1.0
./expes/v3_2021-02-05_di_300-prng-1-w1-p2,daily_issda-300,300,first-300,84,28,rng,num-start-41,41,536,classic,1001.2630093097687,False,,False,0,,,0,"Index(['1', '7', '9', '12', '15', '19', '24', '28', '40', '42', '44', '46',
       '48', '49', '50', '60', '62', '65', '71', '75', '87', '89', '95', '97',
       '99', '100', '101', '102', '103', '108', '115', '126', '129', '134',
       '136', '137', '138', '140', '149', '150', '156', '157', '160', '164',
       '171', '172', '183', '185', '186', '192', '194', '195', '200', '204',
       '210', '212', '217', '218', '219', '221', '226', '228', '229', '232',
       '241', '242', '248', '249', '250', '251', '257', '258', '264', '265',
       '268', '269', '271', '276', '277', '284', '286', '289', '294', '295'],
      dtype='object')",True,1000,True,2,c2cd3a0fe4,0.0,0.0
./expes/v3_2021-02-05_di_300-prng-1-w1-p2,daily_issda-300,300,first-300,98,32,rng,num-start-11,11,536,classic,1000.4165997505188,False,,False,0,,,0,"Index(['3', '4', '5', '10', '41', '45', '46', '48', '52', '59', '61', '63',
       '65', '67', '68', '69', '74', '75', '76', '78', '83', '84', '87', '90',
       '93', '94', '98', '101', '102', '103', '104', '105', '106', '111',
       '113', '121', '122', '123', '128', '130', '132', '133', '136', '139',
       '140', '145', '152', '154', '155', '156', '167', '172', '174', '176',
       '178', '181', '185', '188', '198', '202', '204', '205', '208', '209',
       '214', '217', '219', '223', '224', '230', '235', '241', '245', '246',
       '251', '252', '253', '254', '257', '260', '263', '264', '268', '270',
       '273', '274', '276', '278', '279', '281', '283', '285', '287', '291',
       '293', '294', '295', '297'],
      dtype='object')",True,1000,True,2,ec15e6bb76,0.0,0.0
./expes/v3_2021-02-05_di_300-prng-1-w1-p2,daily_issda-300,300,first-300,70,23,rng,num-start-161,161,536,classic,5.694338083267212,True,,True,1.0,1.0,1.0,1,"Index(['2', '8', '16', '23', '37', '38', '44', '61', '65', '67', '68', '70',
       '71', '72', '73', '76', '82', '91', '92', '96', '100', '104', '110',
       '116', '119', '120', '121', '122', '129', '130', '132', '133', '135',
       '142', '144', '149', '151', '161', '178', '180', '183', '187', '188',
       '191', '192', '200', '203', '212', '218', '220', '221', '224', '226',
       '228', '230', '231', '236', '238', '250', '252', '255', '267', '268',
       '273', '275', '282', '284', '289', '290', '296'],
      dtype='object')",False,1000,True,2,0d16a0d84b,1.0,1.0
./expes/v3_2021-02-05_di_300-prng-1-w1-p2,daily_issda-300,300,first-300,119,39,rng,num-start-171,171,536,classic,6.448026418685913,True,,True,1.0,1.0,1.0,1,"Index(['2', '3', '8', '17', '18', '19', '23', '26', '33', '34',
       ...
       '276', '278', '279', '282', '287', '291', '293', '296', '299', '300'],
      dtype='object', length=119)",False,1000,True,2,629ab5cde9,1.0,1.0
./expes/v3_2021-02-05_di_300-prng-1-w1-p2,daily_issda-300,300,first-300,133,44,rng,num-start-221,221,536,classic,8.353538274765015,True,,True,1.0,1.0,1.0,1,"Index(['3', '5', '6', '10', '11', '14', '15', '26', '27', '28',
       ...
       '284', '285', '286', '287', '289', '291', '293', '295', '296', '297'],
      dtype='object', length=133)",False,1000,True,2,fe96a8a991,1.0,1.0
./expes/v3_2021-02-05_di_300-prng-1-w1-p2,daily_issda-300,300,first-300,133,44,rng,num-start-271,271,536,classic,9.35389494895935,True,,True,1.0,1.0,1.0,1,"Index(['2', '3', '5', '6', '8', '9', '10', '16', '19', '22',
       ...
       '274', '279', '281', '285', '290', '292', '293', '295', '296', '298'],
      dtype='object', length=133)",False,1000,True,2,32ebe1a4b1,1.0,1.0
./expes/v3_2021-02-05_di_300-prng-1-w1-p2,daily_issda-300,300,first-300,112,37,rng,num-start-71,71,536,classic,1002.1283621788025,False,,False,0,,,0,"Index(['1', '3', '5', '11', '13', '15', '16', '17', '19', '21',
       ...
       '270', '272', '279', '283', '286', '287', '288', '291', '295', '298'],
      dtype='object', length=112)",True,1000,True,2,e53f6cb664,0.0,0.0
./expes/v3_2021-02-05_di_300-prng-1-w1-p2,daily_issda-300,300,first-300,105,35,rng,num-start-251,251,536,classic,9.001254558563232,True,,True,1.0,1.0,1.0,1,"Index(['1', '3', '5', '6', '8', '9', '11', '16', '19', '22',
       ...
       '266', '271', '276', '283', '287', '289', '290', '295', '296', '299'],
      dtype='object', length=105)",False,1000,True,2,a64da21fd0,1.0,1.0
./expes/v3_2021-02-05_di_300-prng-1-w1-p2,daily_issda-300,300,first-300,14,4,rng,num-start-221,221,536,classic,7.2909746170043945,True,,True,1.0,1.0,1.0,1,"Index(['3', '6', '114', '117', '122', '133', '146', '152', '186', '210', '214',
       '229', '241', '247'],
      dtype='object')",False,1000,True,2,2c035f185d,1.0,1.0
./expes/v3_2021-02-05_di_300-prng-1-w1-p2,daily_issda-300,300,first-300,21,7,rng,num-start-51,51,536,classic,3.5234076976776123,True,,True,1.0,1.0,1.0,1,"Index(['21', '49', '51', '72', '76', '112', '129', '133', '145', '156', '159',
       '184', '198', '208', '216', '245', '249', '259', '262', '273', '299'],
      dtype='object')",False,1000,True,2,30524718de,1.0,1.0
./expes/v3_2021-02-05_di_300-prng-1-w1-p2,daily_issda-300,300,first-300,126,42,rng,num-start-211,211,536,classic,7.233006238937378,True,,True,1.0,1.0,1.0,1,"Index(['3', '4', '5', '6', '7', '8', '11', '12', '15', '16',
       ...
       '265', '268', '270', '274', '277', '278', '289', '294', '297', '299'],
      dtype='object', length=126)",False,1000,True,2,4470ac7ad2,1.0,1.0
./expes/v3_2021-02-05_di_300-prng-1-w1-p2,daily_issda-300,300,first-300,84,28,rng,num-start-151,151,536,classic,5.7312211990356445,True,,True,1.0,1.0,1.0,1,"Index(['6', '10', '11', '15', '35', '36', '38', '43', '46', '48', '49', '53',
       '55', '58', '59', '61', '63', '74', '77', '83', '85', '87', '93', '100',
       '105', '112', '115', '121', '127', '131', '132', '134', '135', '137',
       '139', '141', '143', '144', '145', '150', '156', '159', '162', '173',
       '178', '183', '184', '185', '187', '189', '196', '198', '202', '204',
       '207', '208', '211', '214', '217', '218', '224', '225', '226', '231',
       '232', '234', '236', '239', '242', '243', '246', '249', '250', '251',
       '257', '264', '265', '270', '274', '283', '292', '293', '297', '299'],
      dtype='object')",False,1000,True,2,cda577a3e5,1.0,1.0
./expes/v3_2021-02-05_di_300-prng-1-w1-p2,daily_issda-300,300,first-300,63,21,rng,num-start-1,1,536,classic,1.7836041450500488,False,,False,0.4276167097403376,0.41593054886784275,0.43930287061283246,2,"Index(['3', '8', '17', '18', '19', '23', '34', '37', '39', '42', '50', '58',
       '69', '72', '77', '81', '83', '90', '100', '106', '115', '121', '123',
       '128', '135', '143', '146', '155', '156', '161', '167', '168', '182',
       '185', '186', '188', '192', '193', '196', '197', '212', '216', '220',
       '224', '226', '231', '234', '237', '241', '248', '251', '252', '255',
       '257', '267', '274', '275', '282', '291', '293', '296', '299', '300'],
      dtype='object')",False,1000,True,2,b9a902aa0f,1.0,1.0
./expes/v3_2021-02-05_di_300-prng-1-w1-p2,daily_issda-300,300,first-300,119,39,rng,num-start-111,111,536,classic,42.90196204185486,True,,True,1.0,1.0,1.0,1,"Index(['1', '2', '3', '5', '7', '10', '12', '15', '17', '19',
       ...
       '269', '272', '274', '277', '279', '280', '282', '289', '294', '297'],
      dtype='object', length=119)",False,1000,True,2,576451eb44,1.0,1.0
./expes/v3_2021-02-05_di_300-prng-1-w1-p2,daily_issda-300,300,first-300,49,16,rng,num-start-111,111,536,classic,6.293893337249756,True,,True,1.0,1.0,1.0,1,"Index(['9', '12', '23', '37', '38', '51', '54', '56', '59', '62', '69', '71',
       '76', '82', '99', '103', '104', '107', '120', '134', '138', '149',
       '154', '160', '167', '168', '178', '199', '200', '202', '203', '209',
       '211', '213', '217', '226', '234', '253', '258', '262', '267', '271',
       '278', '280', '292', '293', '296', '297', '300'],
      dtype='object')",False,1000,True,2,9bbc659d3e,1.0,1.0
./expes/v3_2021-02-05_di_300-prng-1-w1-p2,daily_issda-300,300,first-300,21,7,rng,num-start-251,251,536,classic,8.165314435958862,True,,True,1.0,1.0,1.0,1,"Index(['1', '12', '19', '42', '49', '75', '99', '102', '134', '140', '164',
       '192', '212', '241', '249', '251', '276', '277', '284', '289', '294'],
      dtype='object')",False,1000,True,2,75a4ab2f1a,1.0,1.0
./expes/v3_2021-02-05_di_300-prng-1-w1-p2,daily_issda-300,300,first-300,42,14,rng,num-start-131,131,536,classic,4.7087929248809814,True,,True,1.0,1.0,1.0,1,"Index(['1', '12', '15', '19', '24', '42', '46', '48', '49', '50', '75', '99',
       '100', '101', '102', '103', '129', '134', '136', '140', '150', '164',
       '172', '185', '186', '192', '210', '212', '218', '228', '241', '249',
       '250', '251', '258', '264', '276', '277', '284', '289', '294', '295'],
      dtype='object')",False,1000,True,2,da182fc967,1.0,1.0
./expes/v3_2021-02-05_di_300-prng-1-w1-p2,daily_issda-300,300,first-300,105,35,rng,num-start-221,221,536,classic,7.737826108932495,True,,True,1.0,1.0,1.0,1,"Index(['4', '5', '10', '11', '14', '22', '23', '24', '31', '32',
       ...
       '266', '267', '274', '275', '281', '282', '286', '293', '294', '299'],
      dtype='object', length=105)",False,1000,True,2,654c73f41a,1.0,1.0
./expes/v3_2021-02-05_di_300-prng-1-w1-p2,daily_issda-300,300,first-300,119,39,rng,num-start-281,281,536,classic,10.979578971862793,True,,True,1.0,1.0,1.0,1,"Index(['1', '3', '5', '11', '13', '15', '16', '17', '19', '21',
       ...
       '270', '272', '279', '283', '286', '287', '288', '291', '295', '298'],
      dtype='object', length=119)",False,1000,True,2,5026d6ee01,1.0,1.0
./expes/v3_2021-02-05_di_300-prng-1-w1-p2,daily_issda-300,300,first-300,14,4,rng,num-start-171,171,536,classic,6.343138694763184,True,,True,1.0,1.0,1.0,1,"Index(['23', '56', '62', '76', '103', '134', '149', '178', '202', '211', '262',
       '267', '271', '300'],
      dtype='object')",False,1000,True,2,c2cebd1e9a,1.0,1.0
./expes/v3_2021-02-05_di_300-prng-1-w1-p2,daily_issda-300,300,first-300,140,46,rng,num-start-41,41,536,classic,1001.2526109218597,False,,False,0,,,0,"Index(['1', '4', '7', '8', '9', '10', '11', '12', '15', '16',
       ...
       '277', '283', '284', '286', '287', '289', '292', '294', '295', '297'],
      dtype='object', length=140)",True,1000,True,2,8a300d4e38,0.0,0.0
./expes/v3_2021-02-05_di_300-prng-1-w1-p2,daily_issda-300,300,first-300,105,35,rng,num-start-201,201,536,classic,7.467207193374634,True,,True,1.0,1.0,1.0,1,"Index(['1', '2', '3', '5', '7', '12', '14', '15', '16', '18',
       ...
       '276', '277', '278', '281', '284', '285', '288', '292', '296', '297'],
      dtype='object', length=105)",False,1000,True,2,02bb33dcec,1.0,1.0
./expes/v3_2021-02-05_di_300-prng-1-w1-p2,daily_issda-300,300,first-300,35,11,rng,num-start-51,51,536,classic,945.9938776493073,True,,True,1.0,1.0,1.0,1,"Index(['21', '32', '38', '49', '51', '52', '72', '76', '105', '112', '129',
       '133', '134', '145', '156', '159', '162', '170', '182', '184', '198',
       '208', '216', '223', '227', '242', '245', '249', '259', '262', '267',
       '273', '283', '287', '299'],
      dtype='object')",False,1000,True,2,5afa48785f,1.0,1.0
./expes/v3_2021-02-05_di_300-prng-1-w1-p2,daily_issda-300,300,first-300,49,16,rng,num-start-121,121,536,classic,4.240106582641602,True,,True,1.0,1.0,1.0,1,"Index(['4', '11', '14', '31', '35', '45', '46', '47', '53', '55', '80', '85',
       '89', '92', '100', '110', '114', '121', '127', '128', '134', '135',
       '140', '142', '144', '148', '149', '150', '154', '156', '159', '160',
       '173', '185', '191', '199', '203', '206', '212', '217', '243', '246',
       '260', '261', '267', '275', '281', '282', '294'],
      dtype='object')",False,1000,True,2,ad0d7c6203,1.0,1.0
./expes/v3_2021-02-05_di_300-prng-1-w1-p2,daily_issda-300,300,first-300,126,42,rng,num-start-51,51,536,classic,1001.5604581832886,False,,False,0,,,0,"Index(['2', '3', '8', '13', '17', '18', '19', '23', '26', '33',
       ...
       '278', '279', '282', '287', '291', '293', '295', '296', '299', '300'],
      dtype='object', length=126)",True,1000,True,2,a4997c51a4,0.0,0.0
./expes/v3_2021-02-05_di_300-prng-1-w1-p2,daily_issda-300,300,first-300,21,7,rng,num-start-131,131,536,classic,4.939510345458984,True,,True,1.0,1.0,1.0,1,"Index(['15', '19', '29', '44', '47', '82', '87', '109', '129', '138', '158',
       '185', '187', '191', '202', '221', '228', '258', '261', '279', '298'],
      dtype='object')",False,1000,True,2,ec735273c3,1.0,1.0
./expes/v3_2021-02-05_di_300-prng-1-w1-p2,daily_issda-300,300,first-300,35,11,rng,num-start-71,71,536,classic,4.382012605667114,True,,True,1.0,1.0,1.0,1,"Index(['3', '6', '11', '12', '15', '45', '73', '79', '89', '113', '114', '115',
       '117', '122', '130', '133', '146', '152', '155', '159', '172', '179',
       '186', '210', '214', '216', '217', '229', '234', '238', '241', '247',
       '254', '265', '289'],
      dtype='object')",False,1000,True,2,38de545362,1.0,1.0
./expes/v3_2021-02-05_di_300-prng-1-w1-p2,daily_issda-300,300,first-300,112,37,rng,num-start-141,141,536,classic,9.438887596130371,True,,True,1.0,1.0,1.0,1,"Index(['1', '2', '3', '5', '7', '10', '12', '15', '17', '19',
       ...
       '269', '272', '274', '277', '279', '280', '282', '289', '294', '297'],
      dtype='object', length=112)",False,1000,True,2,de96a8a385,1.0,1.0
./expes/v3_2021-02-05_di_300-prng-1-w1-p2,daily_issda-300,300,first-300,126,42,rng,num-start-271,271,536,classic,9.5384361743927,True,,True,1.0,1.0,1.0,1,"Index(['3', '5', '10', '11', '14', '15', '26', '27', '28', '30',
       ...
       '284', '285', '286', '287', '289', '291', '293', '295', '296', '297'],
      dtype='object', length=126)",False,1000,True,2,2767941407,1.0,1.0
./expes/v3_2021-02-05_di_300-prng-1-w1-p2,daily_issda-300,300,first-300,49,16,rng,num-start-231,231,536,classic,7.40030312538147,True,,True,1.0,1.0,1.0,1,"Index(['7', '8', '16', '19', '22', '33', '34', '50', '67', '69', '70', '78',
       '82', '99', '112', '119', '120', '122', '133', '138', '155', '180',
       '188', '190', '198', '199', '200', '203', '204', '209', '216', '219',
       '224', '228', '241', '243', '244', '254', '260', '268', '274', '277',
       '279', '282', '283', '294', '296', '298', '300'],
      dtype='object')",False,1000,True,2,4ca1d78623,1.0,1.0
./expes/v3_2021-02-05_di_300-prng-1-w1-p2,daily_issda-300,300,first-300,91,30,rng,num-start-1,1,536,classic,1.861668586730957,False,,False,0.340619526604213,0.340619526604213,0.340619526604213,2,"Index(['7', '11', '14', '16', '18', '20', '23', '30', '33', '37', '44', '45',
       '46', '50', '56', '59', '60', '65', '70', '71', '73', '76', '77', '82',
       '83', '86', '88', '90', '99', '100', '102', '104', '107', '108', '113',
       '117', '120', '121', '125', '127', '131', '133', '137', '146', '147',
       '152', '153', '154', '159', '161', '174', '176', '177', '183', '190',
       '193', '194', '195', '198', '200', '203', '206', '207', '209', '214',
       '217', '219', '228', '233', '234', '236', '243', '249', '250', '251',
       '254', '255', '258', '260', '262', '265', '267', '271', '273', '277',
       '280', '286', '294', '297', '298', '300'],
      dtype='object')",False,1000,True,2,5c9563ce5d,1.0,1.0
./expes/v3_2021-02-05_di_300-prng-1-w1-p2,daily_issda-300,300,first-300,140,46,rng,num-start-111,111,536,classic,38.466127157211304,True,,True,1.0,1.0,1.0,1,"Index(['2', '3', '8', '16', '17', '18', '19', '20', '22', '23',
       ...
       '284', '285', '287', '289', '290', '292', '296', '298', '299', '300'],
      dtype='object', length=140)",False,1000,True,2,4adbefcee5,1.0,1.0
./expes/v3_2021-02-05_di_300-prng-1-w1-p2,daily_issda-300,300,first-300,14,4,rng,num-start-251,251,536,classic,8.330770492553711,True,,True,1.0,1.0,1.0,1,"Index(['4', '21', '42', '71', '87', '96', '137', '172', '174', '192', '195',
       '238', '258', '284'],
      dtype='object')",False,1000,True,2,a716db6b54,1.0,1.0
./expes/v3_2021-02-05_di_300-prng-1-w1-p2,daily_issda-300,300,first-300,35,11,rng,num-start-111,111,536,classic,4.048797369003296,True,,True,1.0,1.0,1.0,1,"Index(['4', '61', '63', '87', '90', '93', '94', '101', '102', '103', '104',
       '111', '113', '121', '122', '123', '130', '136', '152', '154', '167',
       '172', '176', '178', '188', '208', '230', '235', '246', '251', '253',
       '260', '268', '276', '295'],
      dtype='object')",False,1000,True,2,80003cc084,1.0,1.0
./expes/v3_2021-02-05_di_300-prng-1-w1-p2,daily_issda-300,300,first-300,133,44,rng,num-start-11,11,536,classic,1000.3649659156799,False,,False,0,,,0,"Index(['2', '4', '5', '9', '12', '13', '14', '21', '23', '24',
       ...
       '271', '278', '280', '281', '288', '292', '293', '296', '297', '300'],
      dtype='object', length=133)",True,1000,True,2,c079b9ba39,0.0,0.0
./expes/v3_2021-02-05_di_300-prng-1-w1-p2,daily_issda-300,300,first-300,56,18,rng,num-start-261,261,536,classic,9.77130389213562,True,,True,1.0,1.0,1.0,1,"Index(['13', '15', '19', '29', '44', '47', '70', '82', '83', '85', '87', '89',
       '91', '94', '109', '119', '121', '128', '129', '138', '143', '158',
       '164', '167', '180', '182', '185', '186', '187', '191', '195', '202',
       '205', '213', '217', '221', '228', '229', '233', '237', '239', '251',
       '256', '257', '258', '261', '262', '264', '269', '270', '272', '279',
       '286', '287', '291', '298'],
      dtype='object')",False,1000,True,2,a01c688dd6,1.0,1.0
./expes/v3_2021-02-05_di_300-prng-1-w1-p2,daily_issda-300,300,first-300,63,21,rng,num-start-181,181,536,classic,7.0868144035339355,True,,True,1.0,1.0,1.0,1,"Index(['6', '15', '36', '38', '43', '46', '48', '49', '53', '55', '58', '59',
       '61', '63', '77', '83', '85', '87', '93', '100', '105', '112', '115',
       '127', '131', '134', '135', '139', '141', '143', '144', '145', '150',
       '156', '159', '162', '173', '184', '185', '187', '196', '198', '202',
       '204', '207', '211', '218', '225', '231', '232', '234', '239', '246',
       '249', '250', '257', '264', '265', '270', '274', '283', '297', '299'],
      dtype='object')",False,1000,True,2,3bcf7146ae,1.0,1.0
./expes/v3_2021-02-05_di_300-prng-1-w1-p2,daily_issda-300,300,first-300,63,21,rng,num-start-221,221,536,classic,7.723623752593994,True,,True,1.0,1.0,1.0,1,"Index(['3', '10', '14', '26', '27', '30', '32', '33', '36', '42', '57', '60',
       '64', '67', '71', '72', '73', '78', '90', '99', '101', '108', '110',
       '123', '128', '129', '130', '137', '142', '143', '149', '156', '159',
       '163', '170', '173', '182', '185', '188', '191', '192', '197', '206',
       '208', '210', '213', '215', '222', '243', '245', '257', '260', '268',
       '270', '273', '277', '283', '284', '285', '286', '287', '293', '297'],
      dtype='object')",False,1000,True,2,c3483b4ad4,1.0,1.0
./expes/v3_2021-02-05_di_300-prng-1-w1-p2,daily_issda-300,300,first-300,105,35,rng,num-start-151,151,536,classic,6.272627115249634,True,,True,1.0,1.0,1.0,1,"Index(['3', '4', '5', '6', '7', '8', '11', '12', '15', '16',
       ...
       '258', '262', '265', '268', '270', '277', '278', '289', '297', '299'],
      dtype='object', length=105)",False,1000,True,2,e5412e0a94,1.0,1.0
./expes/v3_2021-02-05_di_300-prng-1-w1-p2,daily_issda-300,300,first-300,56,18,rng,num-start-51,51,536,classic,1001.548965215683,False,,False,0,,,0,"Index(['1', '6', '10', '16', '27', '31', '32', '39', '43', '45', '47', '58',
       '70', '74', '75', '84', '88', '99', '103', '108', '115', '117', '134',
       '138', '141', '161', '173', '174', '180', '183', '186', '189', '192',
       '196', '197', '198', '206', '208', '215', '217', '226', '228', '236',
       '241', '243', '245', '248', '260', '261', '263', '271', '277', '278',
       '285', '286', '296'],
      dtype='object')",True,1000,True,2,58f262c308,0.0,0.0
./expes/v3_2021-02-05_di_300-prng-1-w1-p2,daily_issda-300,300,first-300,105,35,rng,num-start-1,1,536,classic,1.6995389461517334,False,,False,0.28466775501090347,0.28233004296955533,0.2870054670522516,2,"Index(['1', '2', '3', '5', '7', '10', '12', '15', '17', '19',
       ...
       '263', '269', '272', '274', '277', '279', '280', '282', '294', '297'],
      dtype='object', length=105)",False,1000,True,2,586603b037,1.0,1.0
./expes/v3_2021-02-05_di_300-prng-1-w1-p2,daily_issda-300,300,first-300,70,23,rng,num-start-291,291,536,classic,9.79809856414795,True,,True,1.0,1.0,1.0,1,"Index(['4', '41', '46', '48', '52', '59', '61', '63', '68', '75', '76', '78',
       '83', '87', '90', '93', '94', '98', '101', '102', '103', '104', '105',
       '106', '111', '113', '121', '122', '123', '128', '130', '133', '136',
       '139', '140', '145', '152', '154', '156', '167', '172', '174', '176',
       '178', '181', '188', '208', '209', '224', '230', '235', '241', '245',
       '246', '251', '252', '253', '254', '257', '260', '263', '268', '270',
       '274', '276', '279', '283', '291', '294', '295'],
      dtype='object')",False,1000,True,2,e085fda28c,1.0,1.0
./expes/v3_2021-02-05_di_300-prng-1-w1-p2,daily_issda-300,300,first-300,28,9,rng,num-start-21,21,536,classic,1000.7289192676544,False,,False,0,,,0,"Index(['21', '38', '49', '51', '52', '72', '76', '112', '129', '133', '145',
       '156', '159', '170', '182', '184', '198', '208', '216', '223', '242',
       '245', '249', '259', '262', '273', '287', '299'],
      dtype='object')",True,1000,True,2,897883a3de,0.0,0.0
./expes/v3_2021-02-05_di_300-prng-1-w1-p2,daily_issda-300,300,first-300,119,39,rng,num-start-51,51,536,classic,1001.5919346809387,False,,False,0,,,0,"Index(['2', '5', '6', '8', '9', '10', '16', '19', '22', '23',
       ...
       '266', '267', '272', '274', '279', '281', '285', '290', '292', '296'],
      dtype='object', length=119)",True,1000,True,2,3dde742c5b,0.0,0.0
./expes/v3_2021-02-05_di_300-prng-1-w1-p2,daily_issda-300,300,first-300,105,35,rng,num-start-91,91,536,classic,1002.6795642375946,False,,False,0,,,0,"Index(['2', '3', '8', '16', '19', '20', '22', '23', '36', '37',
       ...
       '282', '284', '285', '287', '289', '290', '292', '296', '298', '299'],
      dtype='object', length=105)",True,1000,True,2,f598371ac8,0.0,0.0
./expes/v3_2021-02-05_di_300-prng-1-w1-p2,daily_issda-300,300,first-300,133,44,rng,num-start-11,11,536,classic,1000.3510148525238,False,,False,0,,,0,"Index(['3', '5', '6', '10', '11', '14', '15', '26', '27', '28',
       ...
       '284', '285', '286', '287', '289', '291', '293', '295', '296', '297'],
      dtype='object', length=133)",True,1000,True,2,0a0de9857a,0.0,0.0
./expes/v3_2021-02-05_di_300-prng-1-w1-p2,daily_issda-300,300,first-300,133,44,rng,num-start-271,271,536,classic,9.355811834335327,True,,True,1.0,1.0,1.0,1,"Index(['2', '4', '5', '9', '12', '13', '14', '21', '23', '24',
       ...
       '271', '278', '280', '281', '288', '292', '293', '296', '297', '300'],
      dtype='object', length=133)",False,1000,True,2,46b15cbb0e,1.0,1.0
./expes/v3_2021-02-05_di_300-prng-1-w1-p2,daily_issda-300,300,first-300,140,46,rng,num-start-121,121,536,classic,35.668830156326294,True,,True,1.0,1.0,1.0,1,"Index(['2', '4', '5', '9', '12', '13', '14', '17', '21', '23',
       ...
       '278', '280', '281', '284', '288', '292', '293', '296', '297', '300'],
      dtype='object', length=140)",False,1000,True,2,8c0e666bc6,1.0,1.0
./expes/v3_2021-02-05_di_300-prng-1-w1-p2,daily_issda-300,300,first-300,77,25,rng,num-start-251,251,536,classic,8.801715612411499,True,,True,1.0,1.0,1.0,1,"Index(['7', '8', '11', '15', '16', '19', '22', '23', '24', '33', '34', '35',
       '46', '50', '54', '61', '64', '67', '69', '70', '78', '82', '84', '99',
       '109', '112', '119', '120', '122', '133', '137', '138', '143', '144',
       '146', '151', '155', '168', '170', '173', '177', '180', '188', '190',
       '194', '198', '199', '200', '203', '204', '209', '211', '213', '216',
       '219', '224', '228', '241', '243', '244', '247', '248', '254', '260',
       '268', '274', '277', '278', '279', '282', '283', '292', '293', '294',
       '296', '298', '300'],
      dtype='object')",False,1000,True,2,f1ef983d67,1.0,1.0
./expes/v3_2021-02-05_di_300-prng-1-w1-p2,daily_issda-300,300,first-300,126,42,rng,num-start-151,151,536,classic,6.231505393981934,True,,True,1.0,1.0,1.0,1,"Index(['3', '7', '12', '20', '21', '24', '25', '26', '28', '30',
       ...
       '289', '290', '293', '294', '295', '296', '297', '298', '299', '300'],
      dtype='object', length=126)",False,1000,True,2,3b02fab49d,1.0,1.0
./expes/v3_2021-02-05_di_300-prng-1-w1-p2,daily_issda-300,300,first-300,7,2,rng,num-start-31,31,536,classic,1.2135255336761475,True,,True,1.0,1.0,1.0,1,"Index(['117', '146', '186', '214', '229', '241', '247'], dtype='object')",False,1000,True,2,3fcfa6a1e8,1.0,1.0
./expes/v3_2021-02-05_di_300-prng-1-w1-p2,daily_issda-300,300,first-300,84,28,rng,num-start-181,181,536,classic,7.09992527961731,True,,True,1.0,1.0,1.0,1,"Index(['1', '3', '6', '8', '9', '11', '16', '19', '22', '27', '31', '33', '35',
       '36', '38', '43', '44', '45', '47', '49', '52', '56', '60', '61', '68',
       '69', '73', '81', '91', '95', '96', '97', '98', '101', '102', '108',
       '109', '110', '118', '120', '124', '127', '131', '139', '143', '148',
       '149', '151', '156', '160', '162', '168', '171', '173', '193', '197',
       '198', '203', '204', '206', '209', '210', '215', '216', '226', '229',
       '230', '232', '235', '238', '239', '241', '244', '250', '256', '261',
       '263', '266', '271', '276', '283', '287', '289', '290'],
      dtype='object')",False,1000,True,2,a2e3ecec8c,1.0,1.0
./expes/v3_2021-02-05_di_300-prng-1-w1-p2,daily_issda-300,300,first-300,105,35,rng,num-start-41,41,536,classic,1001.2210001945496,False,,False,0,,,0,"Index(['7', '11', '14', '16', '18', '20', '23', '30', '33', '36',
       ...
       '273', '277', '280', '286', '289', '292', '294', '297', '298', '300'],
      dtype='object', length=105)",True,1000,True,2,3bb29c38ff,0.0,0.0
./expes/v3_2021-02-05_di_300-prng-1-w1-p2,daily_issda-300,300,first-300,105,35,rng,num-start-41,41,536,classic,1001.4439573287964,False,,False,0,,,0,"Index(['1', '3', '5', '11', '13', '15', '17', '19', '21', '23',
       ...
       '269', '270', '272', '279', '286', '287', '288', '291', '295', '298'],
      dtype='object', length=105)",True,1000,True,2,064a930886,0.0,0.0
./expes/v3_2021-02-05_di_300-prng-1-w1-p2,daily_issda-300,300,first-300,49,16,rng,num-start-231,231,536,classic,8.16016697883606,True,,True,1.0,1.0,1.0,1,"Index(['8', '16', '37', '44', '61', '65', '67', '70', '72', '76', '91', '92',
       '96', '104', '110', '116', '119', '120', '130', '132', '133', '135',
       '142', '144', '149', '151', '161', '178', '183', '187', '191', '203',
       '220', '221', '224', '226', '228', '230', '231', '236', '250', '252',
       '268', '273', '275', '282', '284', '289', '296'],
      dtype='object')",False,1000,True,2,b2ab8e5091,1.0,1.0
./expes/v3_2021-02-05_di_300-prng-1-w1-p2,daily_issda-300,300,first-300,91,30,rng,num-start-101,101,536,classic,8.621763706207275,True,,True,1.0,1.0,1.0,1,"Index(['5', '13', '15', '17', '19', '26', '29', '30', '31', '35', '39', '43',
       '44', '47', '55', '59', '70', '82', '83', '85', '86', '87', '89', '91',
       '94', '98', '107', '108', '109', '114', '117', '119', '121', '126',
       '128', '129', '137', '138', '140', '143', '156', '158', '159', '160',
       '164', '167', '175', '180', '182', '185', '186', '187', '188', '191',
       '195', '202', '205', '209', '213', '217', '221', '228', '229', '233',
       '234', '237', '239', '246', '250', '251', '256', '257', '258', '259',
       '260', '261', '262', '263', '264', '266', '268', '269', '270', '272',
       '279', '286', '287', '288', '291', '295', '298'],
      dtype='object')",False,1000,True,2,a083388deb,1.0,1.0
./expes/v3_2021-02-05_di_300-prng-1-w1-p2,daily_issda-300,300,first-300,7,2,rng,num-start-231,231,536,classic,7.88933801651001,True,,True,1.0,1.0,1.0,1,"Index(['6', '74', '138', '180', '196', '243', '271'], dtype='object')",False,1000,True,2,6ef0dfa210,1.0,1.0
./expes/v3_2021-02-05_di_300-prng-1-w1-p2,daily_issda-300,300,first-300,112,37,rng,num-start-201,201,536,classic,8.052171230316162,True,,True,1.0,1.0,1.0,1,"Index(['1', '2', '3', '4', '5', '9', '10', '13', '14', '16',
       ...
       '276', '277', '284', '285', '287', '290', '294', '295', '297', '300'],
      dtype='object', length=112)",False,1000,True,2,3d81bda0ee,1.0,1.0
./expes/v3_2021-02-05_di_300-prng-1-w1-p2,daily_issda-300,300,first-300,35,11,rng,num-start-241,241,536,classic,9.454581499099731,True,,True,1.0,1.0,1.0,1,"Index(['6', '9', '19', '29', '41', '60', '76', '81', '106', '107', '115',
       '118', '119', '123', '135', '144', '157', '161', '174', '177', '182',
       '183', '185', '189', '201', '215', '216', '234', '237', '239', '251',
       '262', '267', '290', '296'],
      dtype='object')",False,1000,True,2,027856b022,1.0,1.0
./expes/v3_2021-02-05_di_300-prng-1-w1-p2,daily_issda-300,300,first-300,119,39,rng,num-start-151,151,536,classic,5.78513240814209,True,,True,1.0,1.0,1.0,1,"Index(['1', '8', '9', '12', '14', '17', '19', '20', '21', '24',
       ...
       '277', '279', '281', '283', '287', '291', '294', '295', '297', '299'],
      dtype='object', length=119)",False,1000,True,2,fb971bba94,1.0,1.0
./expes/v3_2021-02-05_di_300-prng-1-w1-p2,daily_issda-300,300,first-300,21,7,rng,num-start-241,241,536,classic,7.977479457855225,True,,True,1.0,1.0,1.0,1,"Index(['12', '23', '56', '62', '76', '103', '104', '134', '138', '149', '160',
       '167', '168', '178', '202', '211', '262', '267', '271', '292', '300'],
      dtype='object')",False,1000,True,2,a847e2fda9,1.0,1.0
./expes/v3_2021-02-05_di_300-prng-1-w1-p2,daily_issda-300,300,first-300,7,2,rng,num-start-31,31,536,classic,1.9696402549743652,True,,True,1.0,1.0,1.0,1,"Index(['90', '149', '156', '188', '213', '268', '277'], dtype='object')",False,1000,True,2,00ad599a16,1.0,1.0
./expes/v3_2021-02-05_di_300-prng-1-w1-p2,daily_issda-300,300,first-300,7,2,rng,num-start-31,31,536,classic,2.816937208175659,True,,True,1.0,1.0,1.0,1,"Index(['38', '55', '127', '131', '139', '150', '270'], dtype='object')",False,1000,True,2,01676e1586,1.0,1.0
./expes/v3_2021-02-05_di_300-prng-1-w1-p2,daily_issda-300,300,first-300,119,39,rng,num-start-81,81,536,classic,1002.4501826763153,False,,False,0,,,0,"Index(['3', '7', '12', '20', '21', '24', '25', '26', '30', '31',
       ...
       '289', '290', '293', '294', '295', '296', '297', '298', '299', '300'],
      dtype='object', length=119)",True,1000,True,2,796e4c203f,0.0,0.0
./expes/v3_2021-02-05_di_300-prng-1-w1-p2,daily_issda-300,300,first-300,133,44,rng,num-start-231,231,536,classic,8.809775114059448,True,,True,1.0,1.0,1.0,1,"Index(['4', '5', '10', '11', '14', '17', '19', '21', '22', '23',
       ...
       '271', '274', '275', '280', '281', '282', '286', '293', '294', '299'],
      dtype='object', length=133)",False,1000,True,2,96f7f4d8d2,1.0,1.0
./expes/v3_2021-02-05_di_300-prng-1-w1-p2,daily_issda-300,300,first-300,49,16,rng,num-start-1,1,536,classic,1.913088083267212,False,,False,0.4958803831943141,0.4892460815447508,0.5025146848438774,2,"Index(['1', '12', '15', '19', '24', '42', '46', '48', '49', '50', '62', '75',
       '99', '100', '101', '102', '103', '126', '129', '134', '136', '140',
       '150', '156', '164', '172', '183', '185', '186', '192', '210', '212',
       '218', '221', '228', '241', '249', '250', '251', '257', '258', '264',
       '269', '276', '277', '284', '289', '294', '295'],
      dtype='object')",False,1000,True,2,3b0114d179,1.0,1.0
./expes/v3_2021-02-05_di_300-prng-1-w1-p2,daily_issda-300,300,first-300,126,42,rng,num-start-141,141,536,classic,5.429330825805664,True,,True,1.0,1.0,1.0,1,"Index(['1', '3', '5', '11', '13', '15', '16', '17', '19', '21',
       ...
       '272', '279', '283', '286', '287', '288', '291', '295', '298', '300'],
      dtype='object', length=126)",False,1000,True,2,aa160e5716,1.0,1.0
./expes/v3_2021-02-05_di_300-prng-1-w1-p2,daily_issda-300,300,first-300,70,23,rng,num-start-101,101,536,classic,6.607391834259033,True,,True,1.0,1.0,1.0,1,"Index(['2', '8', '16', '23', '37', '38', '44', '61', '65', '67', '68', '70',
       '71', '72', '73', '76', '82', '91', '92', '96', '100', '104', '110',
       '116', '119', '120', '121', '122', '129', '130', '132', '133', '135',
       '142', '144', '149', '151', '161', '178', '180', '183', '187', '188',
       '191', '192', '200', '203', '212', '218', '220', '221', '224', '226',
       '228', '230', '231', '236', '238', '250', '252', '255', '267', '268',
       '273', '275', '282', '284', '289', '290', '296'],
      dtype='object')",False,1000,True,2,8bba61e67a,1.0,1.0
./expes/v3_2021-02-05_di_300-prng-1-w1-p2,daily_issda-300,300,first-300,49,16,rng,num-start-211,211,536,classic,7.57157039642334,True,,True,1.0,1.0,1.0,1,"Index(['3', '8', '17', '18', '23', '34', '39', '69', '72', '81', '83', '90',
       '100', '106', '121', '123', '128', '135', '143', '146', '156', '161',
       '167', '168', '182', '185', '186', '188', '193', '196', '216', '220',
       '224', '226', '231', '234', '237', '241', '248', '251', '252', '257',
       '267', '275', '282', '293', '296', '299', '300'],
      dtype='object')",False,1000,True,2,f5137192a8,1.0,1.0
./expes/v3_2021-02-05_di_300-prng-1-w1-p2,daily_issda-300,300,first-300,133,44,rng,num-start-151,151,536,classic,7.139385223388672,True,,True,1.0,1.0,1.0,1,"Index(['1', '2', '4', '5', '6', '10', '13', '14', '15', '16',
       ...
       '270', '271', '277', '278', '280', '282', '285', '286', '294', '296'],
      dtype='object', length=133)",False,1000,True,2,84afb3422c,1.0,1.0
./expes/v3_2021-02-05_di_300-prng-1-w1-p2,daily_issda-300,300,first-300,49,16,rng,num-start-1,1,536,classic,2.053770065307617,False,,False,0.4731395828696446,0.4699656097482935,0.4763135559909957,2,"Index(['8', '16', '37', '44', '61', '65', '67', '70', '72', '76', '91', '92',
       '96', '104', '110', '116', '119', '120', '130', '132', '133', '135',
       '142', '144', '149', '151', '161', '178', '183', '187', '191', '203',
       '220', '221', '224', '226', '228', '230', '231', '236', '250', '252',
       '268', '273', '275', '282', '284', '289', '296'],
      dtype='object')",False,1000,True,2,c469d32f49,1.0,1.0
./expes/v3_2021-02-05_di_300-prng-1-w1-p2,daily_issda-300,300,first-300,84,28,rng,num-start-161,161,536,classic,6.82041335105896,True,,True,1.0,1.0,1.0,1,"Index(['4', '41', '45', '46', '48', '52', '59', '61', '63', '65', '67', '68',
       '69', '74', '75', '76', '78', '83', '87', '90', '93', '94', '98', '101',
       '102', '103', '104', '105', '106', '111', '113', '121', '122', '123',
       '128', '130', '133', '136', '139', '140', '145', '152', '154', '155',
       '156', '167', '172', '174', '176', '178', '181', '185', '188', '198',
       '202', '204', '205', '208', '209', '214', '224', '230', '235', '241',
       '245', '246', '251', '252', '253', '254', '257', '260', '263', '268',
       '270', '273', '274', '276', '279', '283', '291', '294', '295', '297'],
      dtype='object')",False,1000,True,2,7b200dc1da,1.0,1.0
./expes/v3_2021-02-05_di_300-prng-1-w1-p2,daily_issda-300,300,first-300,42,14,rng,num-start-91,91,536,classic,3.321337938308716,True,,True,1.0,1.0,1.0,1,"Index(['7', '8', '16', '19', '22', '33', '34', '50', '67', '69', '70', '78',
       '82', '99', '112', '119', '120', '122', '133', '138', '155', '188',
       '190', '199', '200', '203', '204', '216', '219', '224', '228', '241',
       '243', '244', '254', '268', '277', '279', '282', '283', '296', '298'],
      dtype='object')",False,1000,True,2,fcd4e80ccf,1.0,1.0
./expes/v3_2021-02-05_di_300-prng-1-w1-p2,daily_issda-300,300,first-300,98,32,rng,num-start-251,251,536,classic,9.799338340759277,True,,True,1.0,1.0,1.0,1,"Index(['3', '4', '5', '10', '41', '45', '46', '48', '52', '59', '61', '63',
       '65', '67', '68', '69', '74', '75', '76', '78', '83', '84', '87', '90',
       '93', '94', '98', '101', '102', '103', '104', '105', '106', '111',
       '113', '121', '122', '123', '128', '130', '132', '133', '136', '139',
       '140', '145', '152', '154', '155', '156', '167', '172', '174', '176',
       '178', '181', '185', '188', '198', '202', '204', '205', '208', '209',
       '214', '217', '219', '223', '224', '230', '235', '241', '245', '246',
       '251', '252', '253', '254', '257', '260', '263', '264', '268', '270',
       '273', '274', '276', '278', '279', '281', '283', '285', '287', '291',
       '293', '294', '295', '297'],
      dtype='object')",False,1000,True,2,71ab6957ed,1.0,1.0
./expes/v3_2021-02-05_di_300-prng-1-w1-p2,daily_issda-300,300,first-300,35,11,rng,num-start-141,141,536,classic,5.208805322647095,True,,True,1.0,1.0,1.0,1,"Index(['2', '5', '12', '14', '15', '16', '33', '49', '53', '61', '69', '108',
       '111', '114', '118', '120', '131', '137', '163', '177', '195', '196',
       '200', '217', '222', '225', '229', '231', '242', '250', '254', '271',
       '278', '284', '292'],
      dtype='object')",False,1000,True,2,be159cb01c,1.0,1.0
./expes/v3_2021-02-05_di_300-prng-1-w1-p2,daily_issda-300,300,first-300,112,37,rng,num-start-131,131,536,classic,9.295417547225952,True,,True,1.0,1.0,1.0,1,"Index(['7', '9', '11', '14', '16', '18', '20', '23', '30', '33',
       ...
       '273', '277', '280', '286', '289', '292', '294', '297', '298', '300'],
      dtype='object', length=112)",False,1000,True,2,8d9cde770b,1.0,1.0
./expes/v3_2021-02-05_di_300-prng-1-w1-p2,daily_issda-300,300,first-300,105,35,rng,num-start-91,91,536,classic,1002.767276763916,False,,False,0,,,0,"Index(['5', '6', '8', '9', '10', '16', '19', '22', '23', '25',
       ...
       '262', '267', '272', '274', '279', '281', '285', '290', '292', '296'],
      dtype='object', length=105)",True,1000,True,2,872e2727a9,0.0,0.0
./expes/v3_2021-02-05_di_300-prng-1-w1-p2,daily_issda-300,300,first-300,21,7,rng,num-start-81,81,536,classic,2.9447038173675537,True,,True,1.0,1.0,1.0,1,"Index(['38', '55', '61', '77', '115', '127', '131', '134', '135', '139', '150',
       '156', '162', '184', '185', '202', '204', '231', '239', '265', '270'],
      dtype='object')",False,1000,True,2,a2a5ee9344,1.0,1.0
./expes/v3_2021-02-05_di_300-prng-1-w1-p2,daily_issda-300,300,first-300,140,46,rng,num-start-41,41,536,classic,1001.2483315467834,False,,False,0,,,0,"Index(['1', '2', '3', '4', '5', '7', '8', '9', '10', '13',
       ...
       '277', '284', '285', '287', '288', '290', '294', '295', '297', '300'],
      dtype='object', length=140)",True,1000,True,2,6a2b4363e6,0.0,0.0
./expes/v3_2021-02-05_di_300-prng-1-w1-p2,daily_issda-300,300,first-300,91,30,rng,num-start-131,131,536,classic,5.1223320960998535,True,,True,1.0,1.0,1.0,1,"Index(['1', '2', '3', '4', '5', '9', '10', '13', '18', '21', '22', '23', '27',
       '28', '29', '33', '36', '42', '43', '44', '45', '48', '53', '57', '58',
       '63', '68', '69', '71', '72', '75', '77', '81', '83', '87', '89', '96',
       '99', '102', '103', '104', '105', '108', '110', '114', '115', '122',
       '137', '138', '139', '144', '150', '167', '169', '170', '172', '174',
       '175', '178', '188', '192', '194', '195', '197', '204', '206', '207',
       '211', '216', '217', '218', '222', '228', '232', '238', '252', '255',
       '257', '258', '259', '260', '268', '276', '277', '284', '285', '290',
       '294', '295', '297', '300'],
      dtype='object')",False,1000,True,2,5634fd3635,1.0,1.0
./expes/v3_2021-02-05_di_300-prng-1-w1-p2,daily_issda-300,300,first-300,14,4,rng,num-start-261,261,536,classic,8.752579927444458,True,,True,1.0,1.0,1.0,1,"Index(['3', '6', '114', '117', '122', '133', '146', '152', '186', '210', '214',
       '229', '241', '247'],
      dtype='object')",False,1000,True,2,a985fa6c4d,1.0,1.0
./expes/v3_2021-02-05_di_300-prng-1-w1-p2,daily_issda-300,300,first-300,21,7,rng,num-start-101,101,536,classic,3.621147632598877,True,,True,1.0,1.0,1.0,1,"Index(['2', '15', '33', '49', '53', '61', '69', '108', '118', '131', '137',
       '163', '195', '200', '222', '229', '231', '242', '250', '254', '292'],
      dtype='object')",False,1000,True,2,81875cc0e0,1.0,1.0
./expes/v3_2021-02-05_di_300-prng-1-w1-p2,daily_issda-300,300,first-300,70,23,rng,num-start-241,241,536,classic,8.35296630859375,True,,True,1.0,1.0,1.0,1,"Index(['2', '3', '4', '5', '9', '13', '21', '22', '23', '27', '28', '29', '33',
       '36', '42', '43', '44', '45', '48', '53', '57', '58', '63', '68', '69',
       '71', '72', '75', '81', '87', '89', '96', '99', '102', '103', '104',
       '105', '108', '115', '122', '137', '139', '144', '150', '170', '172',
       '174', '175', '192', '194', '195', '197', '204', '211', '216', '217',
       '218', '232', '238', '252', '255', '257', '258', '260', '276', '277',
       '284', '285', '294', '297'],
      dtype='object')",False,1000,True,2,a81055a6e2,1.0,1.0
./expes/v3_2021-02-05_di_300-prng-1-w1-p2,daily_issda-300,300,first-300,112,37,rng,num-start-91,91,536,classic,1002.8884906768799,False,,False,0,,,0,"Index(['7', '9', '11', '14', '16', '18', '20', '23', '30', '33',
       ...
       '273', '277', '280', '286', '289', '292', '294', '297', '298', '300'],
      dtype='object', length=112)",True,1000,True,2,6559d89433,0.0,0.0
./expes/v3_2021-02-05_di_300-prng-1-w1-p2,daily_issda-300,300,first-300,133,44,rng,num-start-161,161,536,classic,6.282421350479126,True,,True,1.0,1.0,1.0,1,"Index(['2', '4', '5', '9', '12', '13', '14', '21', '23', '24',
       ...
       '271', '278', '280', '281', '288', '292', '293', '296', '297', '300'],
      dtype='object', length=133)",False,1000,True,2,bd4af4016c,1.0,1.0
./expes/v3_2021-02-05_di_300-prng-1-w1-p2,daily_issda-300,300,first-300,56,18,rng,num-start-201,201,536,classic,7.634298801422119,True,,True,1.0,1.0,1.0,1,"Index(['6', '9', '10', '19', '25', '29', '34', '38', '41', '52', '60', '72',
       '76', '78', '81', '89', '101', '106', '107', '115', '118', '119', '123',
       '135', '144', '147', '157', '161', '162', '174', '177', '182', '183',
       '185', '189', '201', '203', '208', '215', '216', '225', '231', '234',
       '237', '239', '240', '251', '252', '254', '262', '267', '272', '274',
       '290', '292', '296'],
      dtype='object')",False,1000,True,2,96b1de3e14,1.0,1.0
./expes/v3_2021-02-05_di_300-prng-1-w1-p2,daily_issda-300,300,first-300,49,16,rng,num-start-171,171,536,classic,6.0888166427612305,True,,True,1.0,1.0,1.0,1,"Index(['3', '4', '6', '11', '12', '15', '23', '43', '45', '73', '79', '80',
       '89', '113', '114', '115', '117', '121', '122', '130', '133', '145',
       '146', '151', '152', '155', '156', '159', '163', '172', '179', '186',
       '192', '210', '214', '216', '217', '229', '234', '236', '238', '241',
       '247', '251', '254', '265', '268', '289', '297'],
      dtype='object')",False,1000,True,2,9c6528bdd8,1.0,1.0
./expes/v3_2021-02-05_di_300-prng-1-w1-p2,daily_issda-300,300,first-300,56,18,rng,num-start-251,251,536,classic,8.522964000701904,True,,True,1.0,1.0,1.0,1,"Index(['13', '15', '19', '29', '44', '47', '70', '82', '83', '85', '87', '89',
       '91', '94', '109', '119', '121', '128', '129', '138', '143', '158',
       '164', '167', '180', '182', '185', '186', '187', '191', '195', '202',
       '205', '213', '217', '221', '228', '229', '233', '237', '239', '251',
       '256', '257', '258', '261', '262', '264', '269', '270', '272', '279',
       '286', '287', '291', '298'],
      dtype='object')",False,1000,True,2,4279e13b28,1.0,1.0
./expes/v3_2021-02-05_di_300-prng-1-w1-p2,daily_issda-300,300,first-300,105,35,rng,num-start-221,221,536,classic,8.154671907424927,True,,True,1.0,1.0,1.0,1,"Index(['1', '2', '3', '4', '5', '9', '10', '13', '14', '18',
       ...
       '276', '277', '284', '285', '287', '290', '294', '295', '297', '300'],
      dtype='object', length=105)",False,1000,True,2,70c839e0b4,1.0,1.0
./expes/v3_2021-02-05_di_300-prng-1-w1-p2,daily_issda-300,300,first-300,140,46,rng,num-start-51,51,536,classic,1001.5645878314972,False,,False,0,,,0,"Index(['1', '3', '5', '6', '8', '9', '10', '11', '16', '18',
       ...
       '283', '284', '287', '289', '290', '293', '295', '296', '299', '300'],
      dtype='object', length=140)",True,1000,True,2,b200bf5e0c,0.0,0.0
./expes/v3_2021-02-05_di_300-prng-1-w1-p2,daily_issda-300,300,first-300,140,46,rng,num-start-181,181,536,classic,6.805887937545776,True,,True,1.0,1.0,1.0,1,"Index(['1', '3', '5', '6', '8', '9', '10', '11', '16', '18',
       ...
       '283', '284', '287', '289', '290', '293', '295', '296', '299', '300'],
      dtype='object', length=140)",False,1000,True,2,841a9ca3af,1.0,1.0
./expes/v3_2021-02-05_di_300-prng-1-w1-p2,daily_issda-300,300,first-300,21,7,rng,num-start-241,241,536,classic,7.9450154304504395,True,,True,1.0,1.0,1.0,1,"Index(['14', '32', '57', '71', '72', '90', '128', '130', '143', '149', '156',
       '163', '188', '197', '206', '213', '215', '257', '268', '277', '283'],
      dtype='object')",False,1000,True,2,9a63db0f60,1.0,1.0
./expes/v3_2021-02-05_di_300-prng-1-w1-p2,daily_issda-300,300,first-300,14,4,rng,num-start-201,201,536,classic,7.031451225280762,True,,True,1.0,1.0,1.0,1,"Index(['16', '37', '65', '67', '76', '96', '110', '116', '119', '133', '149',
       '151', '221', '273'],
      dtype='object')",False,1000,True,2,d2bd1d19c1,1.0,1.0
./expes/v3_2021-02-05_di_300-prng-1-w1-p2,daily_issda-300,300,first-300,105,35,rng,num-start-51,51,536,classic,1001.5428321361542,False,,False,0,,,0,"Index(['1', '2', '3', '5', '7', '10', '12', '15', '17', '19',
       ...
       '263', '269', '272', '274', '277', '279', '280', '282', '294', '297'],
      dtype='object', length=105)",True,1000,True,2,e43a8f0ead,0.0,0.0
./expes/v3_2021-02-05_di_300-prng-1-w1-p2,daily_issda-300,300,first-300,112,37,rng,num-start-291,291,536,classic,10.066094160079956,True,,True,1.0,1.0,1.0,1,"Index(['1', '8', '9', '12', '14', '17', '19', '20', '21', '24',
       ...
       '277', '279', '281', '283', '287', '291', '294', '295', '297', '299'],
      dtype='object', length=112)",False,1000,True,2,1a02ad9fcd,1.0,1.0
./expes/v3_2021-02-05_di_300-prng-1-w1-p2,daily_issda-300,300,first-300,14,4,rng,num-start-131,131,536,classic,4.517632722854614,True,,True,1.0,1.0,1.0,1,"Index(['20', '25', '30', '38', '45', '49', '78', '110', '166', '188', '203',
       '260', '275', '299'],
      dtype='object')",False,1000,True,2,d9e275c804,1.0,1.0
./expes/v3_2021-02-05_di_300-prng-1-w1-p2,daily_issda-300,300,first-300,91,30,rng,num-start-111,111,536,classic,4.293281078338623,True,,True,1.0,1.0,1.0,1,"Index(['1', '7', '9', '10', '12', '15', '19', '24', '28', '40', '42', '44',
       '46', '48', '49', '50', '60', '62', '64', '65', '71', '75', '87', '89',
       '95', '97', '99', '100', '101', '102', '103', '108', '115', '126',
       '129', '131', '132', '134', '136', '137', '138', '140', '149', '150',
       '156', '157', '160', '164', '169', '171', '172', '183', '185', '186',
       '192', '194', '195', '200', '204', '210', '211', '212', '216', '217',
       '218', '219', '221', '226', '228', '229', '232', '241', '242', '248',
       '249', '250', '251', '257', '258', '264', '265', '268', '269', '271',
       '276', '277', '284', '286', '289', '294', '295'],
      dtype='object')",False,1000,True,2,7f66a888b7,1.0,1.0
./expes/v3_2021-02-05_di_300-prng-1-w1-p2,daily_issda-300,300,first-300,126,42,rng,num-start-121,121,536,classic,10.235506534576416,True,,True,1.0,1.0,1.0,1,"Index(['2', '7', '9', '11', '14', '16', '17', '18', '20', '23',
       ...
       '273', '277', '280', '286', '289', '292', '294', '297', '298', '300'],
      dtype='object', length=126)",False,1000,True,2,63f3196dcb,1.0,1.0
./expes/v3_2021-02-05_di_300-prng-1-w1-p2,daily_issda-300,300,first-300,56,18,rng,num-start-121,121,536,classic,4.457325458526611,True,,True,1.0,1.0,1.0,1,"Index(['13', '15', '19', '29', '44', '47', '70', '82', '83', '85', '87', '89',
       '91', '94', '109', '119', '121', '128', '129', '138', '143', '158',
       '164', '167', '180', '182', '185', '186', '187', '191', '195', '202',
       '205', '213', '217', '221', '228', '229', '233', '237', '239', '251',
       '256', '257', '258', '261', '262', '264', '269', '270', '272', '279',
       '286', '287', '291', '298'],
      dtype='object')",False,1000,True,2,a243a811a0,1.0,1.0
./expes/v3_2021-02-05_di_300-prng-1-w1-p2,daily_issda-300,300,first-300,7,2,rng,num-start-71,71,536,classic,2.5499863624572754,True,,True,1.0,1.0,1.0,1,"Index(['67', '76', '96', '116', '119', '133', '149'], dtype='object')",False,1000,True,2,8783b23c1a,1.0,1.0
./expes/v3_2021-02-05_di_300-prng-1-w1-p2,daily_issda-300,300,first-300,14,4,rng,num-start-281,281,536,classic,9.299728155136108,True,,True,1.0,1.0,1.0,1,"Index(['14', '57', '90', '128', '130', '143', '149', '156', '188', '197',
       '213', '215', '268', '277'],
      dtype='object')",False,1000,True,2,b1c35843da,1.0,1.0
./expes/v3_2021-02-05_di_300-prng-1-w1-p2,daily_issda-300,300,first-300,77,25,rng,num-start-231,231,536,classic,8.307605743408203,True,,True,1.0,1.0,1.0,1,"Index(['6', '10', '15', '35', '36', '38', '43', '46', '48', '49', '53', '55',
       '58', '59', '61', '63', '74', '77', '83', '85', '87', '93', '100',
       '105', '112', '115', '121', '127', '131', '132', '134', '135', '137',
       '139', '141', '143', '144', '145', '150', '156', '159', '162', '173',
       '184', '185', '187', '196', '198', '202', '204', '207', '211', '214',
       '218', '224', '225', '226', '231', '232', '234', '236', '239', '243',
       '246', '249', '250', '251', '257', '264', '265', '270', '274', '283',
       '292', '293', '297', '299'],
      dtype='object')",False,1000,True,2,17f7f15382,1.0,1.0
./expes/v3_2021-02-05_di_300-prng-1-w1-p2,daily_issda-300,300,first-300,119,39,rng,num-start-51,51,536,classic,1001.5474865436554,False,,False,0,,,0,"Index(['1', '3', '5', '11', '13', '15', '16', '17', '19', '21',
       ...
       '270', '272', '279', '283', '286', '287', '288', '291', '295', '298'],
      dtype='object', length=119)",True,1000,True,2,a531da4e1c,0.0,0.0
./expes/v3_2021-02-05_di_300-prng-1-w1-p2,daily_issda-300,300,first-300,63,21,rng,num-start-111,111,536,classic,7.587142705917358,True,,True,1.0,1.0,1.0,1,"Index(['1', '2', '3', '7', '10', '12', '15', '27', '30', '34', '37', '53',
       '58', '65', '68', '72', '75', '81', '82', '85', '86', '91', '94', '95',
       '101', '102', '105', '108', '111', '127', '128', '131', '132', '136',
       '144', '149', '153', '155', '157', '159', '161', '162', '170', '174',
       '182', '184', '185', '191', '195', '197', '200', '207', '209', '213',
       '228', '239', '241', '242', '247', '272', '277', '279', '294'],
      dtype='object')",False,1000,True,2,611bfafe50,1.0,1.0
./expes/v3_2021-02-05_di_300-prng-1-w1-p2,daily_issda-300,300,first-300,112,37,rng,num-start-21,21,536,classic,1000.690601348877,False,,False,0,,,0,"Index(['1', '2', '3', '5', '7', '12', '14', '15', '16', '17',
       ...
       '281', '282', '283', '284', '285', '288', '292', '296', '297', '300'],
      dtype='object', length=112)",True,1000,True,2,f2566ced54,0.0,0.0
./expes/v3_2021-02-05_di_300-prng-1-w1-p2,daily_issda-300,300,first-300,77,25,rng,num-start-221,221,536,classic,7.930564641952515,True,,True,1.0,1.0,1.0,1,"Index(['6', '9', '10', '19', '25', '29', '34', '38', '41', '52', '60', '72',
       '73', '76', '78', '81', '85', '89', '92', '101', '106', '107', '115',
       '118', '119', '121', '123', '135', '140', '144', '147', '152', '157',
       '159', '160', '161', '162', '163', '173', '174', '177', '182', '183',
       '185', '189', '199', '200', '201', '203', '206', '208', '215', '216',
       '225', '227', '231', '234', '237', '239', '240', '243', '244', '251',
       '252', '253', '254', '257', '258', '262', '267', '272', '274', '279',
       '285', '290', '292', '296'],
      dtype='object')",False,1000,True,2,34a37c2c81,1.0,1.0
./expes/v3_2021-02-05_di_300-prng-1-w1-p2,daily_issda-300,300,first-300,91,30,rng,num-start-101,101,536,classic,25.435166358947754,True,,True,1.0,1.0,1.0,1,"Index(['3', '5', '10', '11', '14', '26', '27', '28', '30', '32', '33', '36',
       '39', '42', '48', '49', '57', '60', '64', '67', '71', '72', '73', '78',
       '83', '88', '90', '94', '99', '101', '102', '108', '109', '110', '123',
       '128', '129', '130', '133', '137', '140', '142', '143', '149', '156',
       '157', '158', '159', '162', '163', '164', '170', '171', '172', '173',
       '179', '182', '185', '188', '191', '192', '197', '201', '206', '207',
       '208', '210', '213', '215', '222', '240', '243', '245', '249', '257',
       '260', '268', '269', '270', '273', '275', '277', '283', '284', '285',
       '286', '287', '289', '293', '295', '297'],
      dtype='object')",False,1000,True,2,0d0c1f82b8,1.0,1.0
./expes/v3_2021-02-05_di_300-prng-1-w1-p2,daily_issda-300,300,first-300,49,16,rng,num-start-131,131,536,classic,4.732666492462158,True,,True,1.0,1.0,1.0,1,"Index(['3', '8', '17', '18', '23', '34', '39', '69', '72', '81', '83', '90',
       '100', '106', '121', '123', '128', '135', '143', '146', '156', '161',
       '167', '168', '182', '185', '186', '188', '193', '196', '216', '220',
       '224', '226', '231', '234', '237', '241', '248', '251', '252', '257',
       '267', '275', '282', '293', '296', '299', '300'],
      dtype='object')",False,1000,True,2,2cd2c5da54,1.0,1.0
./expes/v3_2021-02-05_di_300-prng-1-w1-p2,daily_issda-300,300,first-300,35,11,rng,num-start-81,81,536,classic,4.974380731582642,True,,True,1.0,1.0,1.0,1,"Index(['2', '5', '12', '14', '15', '16', '33', '49', '53', '61', '69', '108',
       '111', '114', '118', '120', '131', '137', '163', '177', '195', '196',
       '200', '217', '222', '225', '229', '231', '242', '250', '254', '271',
       '278', '284', '292'],
      dtype='object')",False,1000,True,2,275f52dbbb,1.0,1.0
./expes/v3_2021-02-05_di_300-prng-1-w1-p2,daily_issda-300,300,first-300,126,42,rng,num-start-181,181,536,classic,6.696234464645386,True,,True,1.0,1.0,1.0,1,"Index(['1', '3', '5', '6', '8', '9', '11', '16', '19', '20',
       ...
       '271', '276', '283', '284', '287', '289', '290', '295', '296', '299'],
      dtype='object', length=126)",False,1000,True,2,0141f923f6,1.0,1.0
./expes/v3_2021-02-05_di_300-prng-1-w1-p2,daily_issda-300,300,first-300,140,46,rng,num-start-121,121,536,classic,11.854418277740479,True,,True,1.0,1.0,1.0,1,"Index(['2', '7', '9', '11', '14', '16', '17', '18', '20', '23',
       ...
       '273', '277', '280', '286', '289', '292', '294', '297', '298', '300'],
      dtype='object', length=140)",False,1000,True,2,ae54c507f6,1.0,1.0
./expes/v3_2021-02-05_di_300-prng-1-w1-p2,daily_issda-300,300,first-300,133,44,rng,num-start-11,11,536,classic,1000.3511073589325,False,,False,0,,,0,"Index(['1', '2', '4', '5', '6', '10', '13', '14', '15', '16',
       ...
       '270', '271', '277', '278', '280', '282', '285', '286', '294', '296'],
      dtype='object', length=133)",True,1000,True,2,a7a1ef27e8,0.0,0.0
./expes/v3_2021-02-05_di_300-prng-1-w1-p2,daily_issda-300,300,first-300,126,42,rng,num-start-161,161,536,classic,6.3106489181518555,True,,True,1.0,1.0,1.0,1,"Index(['1', '8', '9', '12', '14', '17', '19', '20', '21', '24',
       ...
       '279', '281', '283', '287', '291', '292', '294', '295', '297', '299'],
      dtype='object', length=126)",False,1000,True,2,f4b952967a,1.0,1.0
./expes/v3_2021-02-05_di_300-prng-1-w1-p2,daily_issda-300,300,first-300,140,46,rng,num-start-211,211,536,classic,7.551625967025757,True,,True,1.0,1.0,1.0,1,"Index(['1', '3', '7', '12', '14', '20', '21', '24', '25', '26',
       ...
       '290', '291', '293', '294', '295', '296', '297', '298', '299', '300'],
      dtype='object', length=140)",False,1000,True,2,3bdead25ac,1.0,1.0
./expes/v3_2021-02-05_di_300-prng-1-w1-p2,daily_issda-300,300,first-300,133,44,rng,num-start-241,241,536,classic,8.448361873626709,True,,True,1.0,1.0,1.0,1,"Index(['3', '4', '5', '6', '10', '24', '30', '34', '40', '41',
       ...
       '283', '285', '286', '287', '290', '291', '293', '294', '295', '297'],
      dtype='object', length=133)",False,1000,True,2,90b163711c,1.0,1.0
./expes/v3_2021-02-05_di_300-prng-1-w1-p2,daily_issda-300,300,first-300,63,21,rng,num-start-141,141,536,classic,5.2898664474487305,True,,True,1.0,1.0,1.0,1,"Index(['3', '8', '17', '18', '19', '23', '34', '37', '39', '42', '50', '58',
       '69', '72', '77', '81', '83', '90', '100', '106', '115', '121', '123',
       '128', '135', '143', '146', '155', '156', '161', '167', '168', '182',
       '185', '186', '188', '192', '193', '196', '197', '212', '216', '220',
       '224', '226', '231', '234', '237', '241', '248', '251', '252', '255',
       '257', '267', '274', '275', '282', '291', '293', '296', '299', '300'],
      dtype='object')",False,1000,True,2,2b5de81398,1.0,1.0
./expes/v3_2021-02-05_di_300-prng-1-w1-p2,daily_issda-300,300,first-300,42,14,rng,num-start-101,101,536,classic,4.041881084442139,True,,True,1.0,1.0,1.0,1,"Index(['3', '8', '17', '18', '23', '39', '69', '72', '83', '90', '100', '106',
       '121', '123', '128', '135', '143', '146', '156', '161', '168', '182',
       '185', '186', '188', '193', '196', '216', '220', '226', '231', '234',
       '237', '248', '251', '252', '267', '275', '282', '293', '296', '299'],
      dtype='object')",False,1000,True,2,d10dfb91b0,1.0,1.0
./expes/v3_2021-02-05_di_300-prng-1-w1-p2,daily_issda-300,300,first-300,14,4,rng,num-start-11,11,536,classic,1001.2709338665009,False,,False,0,,,0,"Index(['4', '21', '42', '71', '87', '96', '137', '172', '174', '192', '195',
       '238', '258', '284'],
      dtype='object')",True,1000,True,2,d7d1836396,0.0,0.0
