expe,clients,clients_size,clients_subset,agg_size,agg_size_pc,method,days,days_size,days_total,noise_method,time,valid,valid_sum,success,score_avg,score_min,score_max,nsols,oracle,wall_hit,wall_time,pooled,pool_size,uuid,optimal,valid_sums
./expes/v3_2021-02-09_hi_2000-prng-1-w5-p100,30_issda-2000,2000,first-2000,50,2,rng,num-start-131,131,25726,classic,5010.371443748474,False,,False,0,,,0,"Index(['41', '63', '90', '130', '175', '184', '199', '233', '259', '281',
       '394', '396', '429', '465', '480', '507', '530', '547', '759', '769',
       '777', '792', '800', '821', '825', '835', '929', '941', '972', '994',
       '999', '1014', '1038', '1066', '1174', '1271', '1315', '1358', '1436',
       '1444', '1487', '1555', '1662', '1668', '1699', '1701', '1838', '1848',
       '1867', '1971'],
      dtype='object')",True,5000,True,100,da7cbc8719,0.0,0.0
./expes/v3_2021-02-09_hi_2000-prng-1-w5-p100,30_issda-2000,2000,first-2000,650,32,rng,num-start-9800,9800,25726,classic,5816.114787578583,True,,False,1.0,1.0,1.0,1,"Index(['4', '7', '9', '10', '11', '18', '22', '24', '33', '36',
       ...
       '1970', '1971', '1973', '1980', '1981', '1985', '1988', '1989', '1992',
       '1995'],
      dtype='object', length=650)",True,5000,True,100,b0f0c240dc,0.0,1.0
./expes/v3_2021-02-09_hi_2000-prng-1-w5-p100,30_issda-2000,2000,first-2000,900,45,rng,num-start-4800,4800,25726,classic,4033.678483247757,True,,True,1.0,1.0,1.0,1,"Index(['1', '2', '4', '6', '8', '10', '16', '21', '22', '25',
       ...
       '1977', '1980', '1983', '1984', '1990', '1991', '1992', '1993', '1995',
       '2000'],
      dtype='object', length=900)",False,5000,True,100,39187c8235,1.0,1.0
./expes/v3_2021-02-09_hi_2000-prng-1-w5-p100,30_issda-2000,2000,first-2000,250,12,rng,num-start-241,241,25726,classic,5018.810956001282,False,,False,0,,,0,"Index(['4', '9', '18', '44', '49', '50', '52', '57', '64', '66',
       ...
       '1933', '1942', '1945', '1955', '1956', '1958', '1961', '1964', '1970',
       '1989'],
      dtype='object', length=250)",True,5000,True,100,17fd1c19ad,0.0,0.0
./expes/v3_2021-02-09_hi_2000-prng-1-w5-p100,30_issda-2000,2000,first-2000,800,40,rng,num-start-11300,11300,25726,classic,5873.1564245224,True,,False,1.0,1.0,1.0,1,"Index(['4', '7', '9', '10', '11', '18', '19', '22', '24', '33',
       ...
       '1980', '1981', '1983', '1985', '1986', '1988', '1989', '1990', '1992',
       '1995'],
      dtype='object', length=800)",True,5000,True,100,de82d67cd5,0.0,1.0
./expes/v3_2021-02-09_hi_2000-prng-1-w5-p100,30_issda-2000,2000,first-2000,400,20,rng,num-start-11,11,25726,classic,5001.25936460495,False,,False,0,,,0,"Index(['1', '12', '13', '19', '21', '23', '27', '29', '35', '42',
       ...
       '1950', '1952', '1953', '1959', '1971', '1981', '1983', '1988', '1995',
       '1996'],
      dtype='object', length=400)",True,5000,True,100,b27ee570ec,0.0,0.0
./expes/v3_2021-02-09_hi_2000-prng-1-w5-p100,30_issda-2000,2000,first-2000,300,15,rng,num-start-14800,14800,25726,classic,6175.070392370224,True,,False,1.0,1.0,1.0,1,"Index(['1', '9', '25', '47', '48', '53', '56', '77', '81', '96',
       ...
       '1942', '1944', '1947', '1948', '1950', '1952', '1957', '1962', '1971',
       '2000'],
      dtype='object', length=300)",True,5000,True,100,5abb287bb7,0.0,1.0
./expes/v3_2021-02-09_hi_2000-prng-1-w5-p100,30_issda-2000,2000,first-2000,950,47,rng,num-start-800,800,25726,classic,5065.407136678696,False,,False,0,,,0,"Index(['2', '3', '4', '5', '7', '8', '9', '11', '12', '14',
       ...
       '1982', '1983', '1985', '1987', '1988', '1989', '1990', '1991', '1993',
       '1996'],
      dtype='object', length=950)",True,5000,True,100,37c169e166,0.0,0.0
./expes/v3_2021-02-09_hi_2000-prng-1-w5-p100,30_issda-2000,2000,first-2000,800,40,rng,num-start-61,61,25726,classic,5005.027647733688,False,,False,0,,,0,"Index(['2', '4', '6', '7', '10', '12', '15', '17', '18', '20',
       ...
       '1979', '1984', '1986', '1988', '1989', '1991', '1994', '1995', '1997',
       '1998'],
      dtype='object', length=800)",True,5000,True,100,1f3eb99149,0.0,0.0
./expes/v3_2021-02-09_hi_2000-prng-1-w5-p100,30_issda-2000,2000,first-2000,650,32,rng,num-start-8800,8800,25726,classic,5700.98272395134,True,,False,1.0,1.0,1.0,1,"Index(['7', '11', '15', '16', '17', '20', '22', '24', '25', '32',
       ...
       '1975', '1976', '1982', '1987', '1990', '1992', '1994', '1996', '1997',
       '1998'],
      dtype='object', length=650)",True,5000,True,100,b4e6df23f2,0.0,1.0
./expes/v3_2021-02-09_hi_2000-prng-1-w5-p100,30_issda-2000,2000,first-2000,250,12,rng,num-start-1300,1300,25726,classic,1099.8383467197418,True,,True,1.0,1.0,1.0,1,"Index(['4', '9', '18', '44', '49', '50', '52', '57', '64', '66',
       ...
       '1933', '1942', '1945', '1955', '1956', '1958', '1961', '1964', '1970',
       '1989'],
      dtype='object', length=250)",False,5000,True,100,5541383457,1.0,1.0
./expes/v3_2021-02-09_hi_2000-prng-1-w5-p100,30_issda-2000,2000,first-2000,600,30,rng,num-start-7800,7800,25726,classic,5625.75044465065,True,,False,1.0,1.0,1.0,1,"Index(['1', '2', '4', '10', '16', '21', '22', '31', '32', '36',
       ...
       '1965', '1967', '1968', '1974', '1983', '1990', '1991', '1993', '1995',
       '2000'],
      dtype='object', length=600)",True,5000,True,100,1c1485b18e,0.0,1.0
./expes/v3_2021-02-09_hi_2000-prng-1-w5-p100,30_issda-2000,2000,first-2000,450,22,rng,num-start-141,141,25726,classic,5010.917450428009,False,,False,0,,,0,"Index(['7', '10', '14', '25', '28', '35', '41', '46', '47', '53',
       ...
       '1961', '1964', '1971', '1977', '1978', '1981', '1983', '1987', '1993',
       '1997'],
      dtype='object', length=450)",True,5000,True,100,2f82746a26,0.0,0.0
./expes/v3_2021-02-09_hi_2000-prng-1-w5-p100,30_issda-2000,2000,first-2000,50,2,rng,num-start-211,211,25726,classic,301.84304690361023,True,,True,1.0,1.0,1.0,1,"Index(['30', '62', '146', '174', '259', '267', '286', '301', '302', '381',
       '384', '439', '462', '473', '526', '531', '538', '565', '596', '604',
       '884', '895', '924', '1089', '1247', '1313', '1336', '1365', '1401',
       '1402', '1404', '1504', '1526', '1626', '1627', '1643', '1651', '1659',
       '1693', '1709', '1716', '1733', '1740', '1781', '1785', '1797', '1820',
       '1823', '1863', '1945'],
      dtype='object')",False,5000,True,100,6a53ed2d69,1.0,1.0
./expes/v3_2021-02-09_hi_2000-prng-1-w5-p100,30_issda-2000,2000,first-2000,650,32,rng,num-start-181,181,25726,classic,5014.094833135605,False,,False,0,,,0,"Index(['6', '8', '10', '16', '17', '19', '24', '25', '31', '32',
       ...
       '1971', '1977', '1980', '1981', '1982', '1983', '1984', '1987', '1992',
       '2000'],
      dtype='object', length=650)",True,5000,True,100,48a120a45a,0.0,0.0
./expes/v3_2021-02-09_hi_2000-prng-1-w5-p100,30_issda-2000,2000,first-2000,650,32,rng,num-start-111,111,25726,classic,5009.235927581787,False,,False,0,,,0,"Index(['2', '7', '8', '11', '12', '14', '15', '17', '18', '20',
       ...
       '1975', '1976', '1980', '1982', '1984', '1985', '1988', '1997', '1998',
       '2000'],
      dtype='object', length=650)",True,5000,True,100,b27b773fff,0.0,0.0
./expes/v3_2021-02-09_hi_2000-prng-1-w5-p100,30_issda-2000,2000,first-2000,150,7,rng,num-start-3300,3300,25726,classic,1184.6728811264038,True,,True,1.0,1.0,1.0,1,"Index(['8', '11', '14', '17', '36', '49', '71', '84', '85', '89',
       ...
       '1883', '1887', '1893', '1918', '1925', '1938', '1948', '1949', '1963',
       '1975'],
      dtype='object', length=150)",False,5000,True,100,8c5969c780,1.0,1.0
./expes/v3_2021-02-09_hi_2000-prng-1-w5-p100,30_issda-2000,2000,first-2000,800,40,rng,num-start-2300,2300,25726,classic,1931.7080526351929,True,,True,1.0,1.0,1.0,1,"Index(['1', '7', '10', '12', '14', '22', '23', '25', '28', '29',
       ...
       '1977', '1978', '1981', '1983', '1987', '1989', '1990', '1993', '1997',
       '1999'],
      dtype='object', length=800)",False,5000,True,100,60fad2c280,1.0,1.0
./expes/v3_2021-02-09_hi_2000-prng-1-w5-p100,30_issda-2000,2000,first-2000,150,7,rng,num-start-211,211,25726,classic,5018.3559737205505,False,,False,0,,,0,"Index(['6', '15', '34', '35', '47', '54', '89', '93', '137', '145',
       ...
       '1838', '1856', '1874', '1885', '1916', '1954', '1959', '1960', '1977',
       '1983'],
      dtype='object', length=150)",True,5000,True,100,8c8c997393,0.0,0.0
./expes/v3_2021-02-09_hi_2000-prng-1-w5-p100,30_issda-2000,2000,first-2000,600,30,rng,num-start-3800,3800,25726,classic,5316.475743770599,True,,False,1.0,1.0,1.0,1,"Index(['7', '10', '14', '25', '28', '30', '35', '41', '46', '47',
       ...
       '1976', '1977', '1978', '1981', '1983', '1987', '1989', '1990', '1993',
       '1997'],
      dtype='object', length=600)",True,5000,True,100,ab27d8c4ee,0.0,1.0
./expes/v3_2021-02-09_hi_2000-prng-1-w5-p100,30_issda-2000,2000,first-2000,450,22,rng,num-start-81,81,25726,classic,5006.626890182495,False,,False,0,,,0,"Index(['7', '10', '14', '25', '28', '35', '41', '46', '47', '53',
       ...
       '1961', '1964', '1971', '1977', '1978', '1981', '1983', '1987', '1993',
       '1997'],
      dtype='object', length=450)",True,5000,True,100,ffee87fcf3,0.0,0.0
./expes/v3_2021-02-09_hi_2000-prng-1-w5-p100,30_issda-2000,2000,first-2000,800,40,rng,num-start-91,91,25726,classic,5007.29424905777,False,,False,0,,,0,"Index(['2', '4', '6', '7', '10', '12', '15', '17', '18', '20',
       ...
       '1979', '1984', '1986', '1988', '1989', '1991', '1994', '1995', '1997',
       '1998'],
      dtype='object', length=800)",True,5000,True,100,b0a672de7b,0.0,0.0
./expes/v3_2021-02-09_hi_2000-prng-1-w5-p100,30_issda-2000,2000,first-2000,900,45,rng,num-start-8300,8300,25726,classic,5660.221451759338,True,,False,1.0,1.0,1.0,1,"Index(['2', '4', '6', '7', '10', '12', '15', '17', '18', '20',
       ...
       '1984', '1986', '1988', '1989', '1990', '1991', '1994', '1995', '1997',
       '1998'],
      dtype='object', length=900)",True,5000,True,100,a32f61e7bb,0.0,1.0
./expes/v3_2021-02-09_hi_2000-prng-1-w5-p100,30_issda-2000,2000,first-2000,650,32,rng,num-start-3800,3800,25726,classic,3182.2417566776276,True,,True,1.0,1.0,1.0,1,"Index(['2', '7', '8', '11', '12', '14', '15', '17', '18', '20',
       ...
       '1975', '1976', '1980', '1982', '1984', '1985', '1988', '1997', '1998',
       '2000'],
      dtype='object', length=650)",False,5000,True,100,7b9eed1057,1.0,1.0
./expes/v3_2021-02-09_hi_2000-prng-1-w5-p100,30_issda-2000,2000,first-2000,600,30,rng,num-start-6300,6300,25726,classic,3303.621831893921,True,,True,1.0,1.0,1.0,1,"Index(['4', '7', '10', '12', '15', '20', '22', '27', '38', '41',
       ...
       '1970', '1972', '1976', '1977', '1979', '1984', '1986', '1988', '1989',
       '1995'],
      dtype='object', length=600)",False,5000,True,100,c242163a8d,1.0,1.0
./expes/v3_2021-02-09_hi_2000-prng-1-w5-p100,30_issda-2000,2000,first-2000,500,25,rng,num-start-31,31,25726,classic,5002.9745445251465,False,,False,0,,,0,"Index(['2', '4', '7', '11', '19', '24', '27', '28', '34', '38',
       ...
       '1970', '1976', '1977', '1980', '1983', '1984', '1992', '1998', '1999',
       '2000'],
      dtype='object', length=500)",True,5000,True,100,76973db00e,0.0,0.0
./expes/v3_2021-02-09_hi_2000-prng-1-w5-p100,30_issda-2000,2000,first-2000,400,20,rng,num-start-241,241,25726,classic,5020.458896398544,False,,False,0,,,0,"Index(['4', '8', '14', '16', '18', '23', '35', '36', '39', '49',
       ...
       '1939', '1941', '1958', '1964', '1971', '1975', '1982', '1990', '1992',
       '2000'],
      dtype='object', length=400)",True,5000,True,100,e9d6b7cdff,0.0,0.0
./expes/v3_2021-02-09_hi_2000-prng-1-w5-p100,30_issda-2000,2000,first-2000,800,40,rng,num-start-7800,7800,25726,classic,5619.833508729935,True,,False,1.0,1.0,1.0,1,"Index(['2', '7', '8', '11', '12', '14', '15', '17', '18', '20',
       ...
       '1985', '1986', '1988', '1991', '1992', '1994', '1995', '1997', '1998',
       '2000'],
      dtype='object', length=800)",True,5000,True,100,1eaff772e4,0.0,1.0
./expes/v3_2021-02-09_hi_2000-prng-1-w5-p100,30_issda-2000,2000,first-2000,900,45,rng,num-start-1300,1300,25726,classic,5098.09498167038,True,,False,1.0,1.0,1.0,1,"Index(['2', '7', '8', '11', '12', '14', '15', '17', '18', '19',
       ...
       '1985', '1986', '1988', '1991', '1992', '1994', '1995', '1997', '1998',
       '2000'],
      dtype='object', length=900)",True,5000,True,100,0980d29da3,0.0,1.0
./expes/v3_2021-02-09_hi_2000-prng-1-w5-p100,30_issda-2000,2000,first-2000,550,27,rng,num-start-221,221,25726,classic,5017.389585733414,False,,False,0,,,0,"Index(['7', '10', '14', '25', '28', '30', '35', '41', '46', '47',
       ...
       '1971', '1976', '1977', '1978', '1981', '1983', '1987', '1990', '1993',
       '1997'],
      dtype='object', length=550)",True,5000,True,100,d7dcc07815,0.0,0.0
./expes/v3_2021-02-09_hi_2000-prng-1-w5-p100,30_issda-2000,2000,first-2000,950,47,rng,num-start-31,31,25726,classic,5002.690677881241,False,,False,0,,,0,"Index(['7', '10', '11', '12', '15', '16', '17', '18', '19', '20',
       ...
       '1981', '1982', '1987', '1990', '1992', '1994', '1995', '1996', '1997',
       '1998'],
      dtype='object', length=950)",True,5000,True,100,8437484de0,0.0,0.0
./expes/v3_2021-02-09_hi_2000-prng-1-w5-p100,30_issda-2000,2000,first-2000,1000,50,rng,num-start-4800,4800,25726,classic,3389.5515837669373,True,,True,1.0,1.0,1.0,1,"Index(['1', '2', '3', '5', '7', '8', '9', '10', '12', '13',
       ...
       '1985', '1986', '1987', '1988', '1989', '1990', '1991', '1993', '1995',
       '1996'],
      dtype='object', length=1000)",False,5000,True,100,b98813beac,1.0,1.0
./expes/v3_2021-02-09_hi_2000-prng-1-w5-p100,30_issda-2000,2000,first-2000,200,10,rng,num-start-8800,8800,25726,classic,3768.534909725189,True,,True,1.0,1.0,1.0,1,"Index(['7', '25', '28', '35', '41', '53', '63', '69', '70', '77',
       ...
       '1867', '1870', '1910', '1918', '1938', '1946', '1971', '1977', '1993',
       '1997'],
      dtype='object', length=200)",False,5000,True,100,0dade5d7fb,1.0,1.0
./expes/v3_2021-02-09_hi_2000-prng-1-w5-p100,30_issda-2000,2000,first-2000,800,40,rng,num-start-4300,4300,25726,classic,3049.8120908737183,True,,True,1.0,1.0,1.0,1,"Index(['12', '13', '14', '18', '19', '23', '27', '30', '34', '36',
       ...
       '1981', '1982', '1983', '1985', '1986', '1987', '1993', '1994', '1998',
       '1999'],
      dtype='object', length=800)",False,5000,True,100,cf6b7f91b6,1.0,1.0
./expes/v3_2021-02-09_hi_2000-prng-1-w5-p100,30_issda-2000,2000,first-2000,600,30,rng,num-start-10300,10300,25726,classic,5811.671960353851,True,,False,1.0,1.0,1.0,1,"Index(['4', '7', '9', '10', '11', '18', '22', '24', '33', '36',
       ...
       '1968', '1970', '1971', '1973', '1980', '1985', '1988', '1989', '1992',
       '1995'],
      dtype='object', length=600)",True,5000,True,100,7c3307124c,0.0,1.0
./expes/v3_2021-02-09_hi_2000-prng-1-w5-p100,30_issda-2000,2000,first-2000,400,20,rng,num-start-11,11,25726,classic,5001.376373767853,False,,False,0,,,0,"Index(['1', '4', '9', '25', '47', '48', '53', '56', '57', '58',
       ...
       '1950', '1952', '1956', '1957', '1959', '1962', '1971', '1990', '1996',
       '2000'],
      dtype='object', length=400)",True,5000,True,100,37d389d9f8,0.0,0.0
./expes/v3_2021-02-09_hi_2000-prng-1-w5-p100,30_issda-2000,2000,first-2000,1000,50,rng,num-start-15300,15300,25726,classic,6194.239255189896,True,,False,1.0,1.0,1.0,1,"Index(['4', '5', '8', '9', '13', '14', '15', '16', '17', '18',
       ...
       '1979', '1980', '1981', '1982', '1987', '1989', '1990', '1992', '1999',
       '2000'],
      dtype='object', length=1000)",True,5000,True,100,5d6b5ad987,0.0,1.0
./expes/v3_2021-02-09_hi_2000-prng-1-w5-p100,30_issda-2000,2000,first-2000,250,12,rng,num-start-121,121,25726,classic,5012.254802465439,False,,False,0,,,0,"Index(['6', '19', '24', '31', '32', '35', '36', '39', '64', '75',
       ...
       '1922', '1935', '1936', '1938', '1942', '1965', '1967', '1977', '1982',
       '2000'],
      dtype='object', length=250)",True,5000,True,100,e7676acf24,0.0,0.0
./expes/v3_2021-02-09_hi_2000-prng-1-w5-p100,30_issda-2000,2000,first-2000,150,7,rng,num-start-81,81,25726,classic,5006.589287519455,False,,False,0,,,0,"Index(['15', '41', '53', '88', '89', '95', '121', '127', '137', '167',
       ...
       '1880', '1900', '1915', '1930', '1932', '1935', '1956', '1966', '1968',
       '1976'],
      dtype='object', length=150)",True,5000,True,100,80655d9df2,0.0,0.0
./expes/v3_2021-02-09_hi_2000-prng-1-w5-p100,30_issda-2000,2000,first-2000,150,7,rng,num-start-6800,6800,25726,classic,5096.752970933914,True,,True,1.0,1.0,1.0,1,"Index(['5', '30', '62', '89', '146', '151', '174', '241', '259', '267',
       ...
       '1820', '1822', '1823', '1840', '1847', '1863', '1911', '1945', '1954',
       '1990'],
      dtype='object', length=150)",False,5000,True,100,d5003ffecc,1.0,1.0
./expes/v3_2021-02-09_hi_2000-prng-1-w5-p100,30_issda-2000,2000,first-2000,700,35,rng,num-start-9300,9300,25726,classic,5707.6654551029205,True,,False,1.0,1.0,1.0,1,"Index(['4', '6', '7', '10', '12', '15', '18', '20', '22', '27',
       ...
       '1972', '1976', '1977', '1979', '1984', '1986', '1988', '1989', '1995',
       '1998'],
      dtype='object', length=700)",True,5000,True,100,ae3e9fc033,0.0,1.0
./expes/v3_2021-02-09_hi_2000-prng-1-w5-p100,30_issda-2000,2000,first-2000,600,30,rng,num-start-15300,15300,25726,classic,6172.150594234467,True,,False,1.0,1.0,1.0,1,"Index(['2', '4', '6', '7', '11', '19', '21', '24', '27', '28',
       ...
       '1976', '1977', '1980', '1983', '1984', '1992', '1993', '1998', '1999',
       '2000'],
      dtype='object', length=600)",True,5000,True,100,11cf8ab6fc,0.0,1.0
./expes/v3_2021-02-09_hi_2000-prng-1-w5-p100,30_issda-2000,2000,first-2000,550,27,rng,num-start-12300,12300,25726,classic,5954.518702983856,True,,False,1.0,1.0,1.0,1,"Index(['1', '3', '4', '5', '7', '17', '19', '26', '28', '29',
       ...
       '1969', '1973', '1974', '1978', '1980', '1982', '1983', '1988', '1996',
       '2000'],
      dtype='object', length=550)",True,5000,True,100,b98771a27e,0.0,1.0
./expes/v3_2021-02-09_hi_2000-prng-1-w5-p100,30_issda-2000,2000,first-2000,200,10,rng,num-start-81,81,25726,classic,5006.632306098938,False,,False,0,,,0,"Index(['1', '2', '10', '20', '23', '31', '32', '35', '41', '61',
       ...
       '1890', '1893', '1899', '1909', '1963', '1965', '1975', '1976', '1989',
       '1997'],
      dtype='object', length=200)",True,5000,True,100,500dbf866b,0.0,0.0
./expes/v3_2021-02-09_hi_2000-prng-1-w5-p100,30_issda-2000,2000,first-2000,50,2,rng,num-start-271,271,25726,classic,258.2581584453583,True,,True,1.0,1.0,1.0,1,"Index(['83', '152', '195', '203', '207', '286', '287', '301', '448', '514',
       '531', '578', '622', '636', '677', '725', '734', '789', '830', '862',
       '967', '977', '996', '1034', '1048', '1091', '1147', '1195', '1233',
       '1267', '1401', '1445', '1495', '1548', '1553', '1606', '1638', '1660',
       '1700', '1730', '1742', '1824', '1827', '1841', '1848', '1860', '1864',
       '1881', '1978', '1983'],
      dtype='object')",False,5000,True,100,eddf5b096a,1.0,1.0
./expes/v3_2021-02-09_hi_2000-prng-1-w5-p100,30_issda-2000,2000,first-2000,400,20,rng,num-start-141,141,25726,classic,5011.262631177902,False,,False,0,,,0,"Index(['1', '10', '13', '26', '31', '35', '38', '42', '45', '59',
       ...
       '1950', '1971', '1976', '1977', '1978', '1979', '1987', '1989', '1997',
       '2000'],
      dtype='object', length=400)",True,5000,True,100,ed854ac7b5,0.0,0.0
./expes/v3_2021-02-09_hi_2000-prng-1-w5-p100,30_issda-2000,2000,first-2000,900,45,rng,num-start-3300,3300,25726,classic,3341.3918635845184,True,,True,1.0,1.0,1.0,1,"Index(['1', '2', '4', '6', '8', '10', '16', '21', '22', '25',
       ...
       '1977', '1980', '1983', '1984', '1990', '1991', '1992', '1993', '1995',
       '2000'],
      dtype='object', length=900)",False,5000,True,100,3b7b339847,1.0,1.0
./expes/v3_2021-02-09_hi_2000-prng-1-w5-p100,30_issda-2000,2000,first-2000,900,45,rng,num-start-281,281,25726,classic,5025.217470169067,False,,False,0,,,0,"Index(['1', '3', '4', '12', '13', '14', '16', '18', '19', '23',
       ...
       '1981', '1982', '1983', '1985', '1986', '1987', '1993', '1994', '1998',
       '1999'],
      dtype='object', length=900)",True,5000,True,100,84def07421,0.0,0.0
./expes/v3_2021-02-09_hi_2000-prng-1-w5-p100,30_issda-2000,2000,first-2000,550,27,rng,num-start-121,121,25726,classic,5009.80366230011,False,,False,0,,,0,"Index(['5', '7', '8', '9', '11', '12', '20', '27', '30', '32',
       ...
       '1951', '1954', '1963', '1965', '1970', '1982', '1983', '1987', '1989',
       '1990'],
      dtype='object', length=550)",True,5000,True,100,2b111309a6,0.0,0.0
./expes/v3_2021-02-09_hi_2000-prng-1-w5-p100,30_issda-2000,2000,first-2000,150,7,rng,num-start-13300,13300,25726,classic,6031.166341781616,True,,False,1.0,1.0,1.0,1,"Index(['25', '28', '41', '53', '63', '69', '77', '90', '119', '130',
       ...
       '1851', '1860', '1867', '1870', '1910', '1938', '1946', '1971', '1993',
       '1997'],
      dtype='object', length=150)",True,5000,True,100,91a9aaae7f,0.0,1.0
./expes/v3_2021-02-09_hi_2000-prng-1-w5-p100,30_issda-2000,2000,first-2000,250,12,rng,num-start-1,1,25726,classic,4.864297151565552,False,,False,0.5306876665260364,0.5234356740392865,0.5340509102089172,100,"Index(['1', '2', '10', '20', '23', '31', '32', '35', '41', '61',
       ...
       '1909', '1926', '1946', '1963', '1965', '1972', '1975', '1976', '1989',
       '1997'],
      dtype='object', length=250)",False,5000,True,100,a3f4f2583a,1.0,1.0
./expes/v3_2021-02-09_hi_2000-prng-1-w5-p100,30_issda-2000,2000,first-2000,200,10,rng,num-start-1800,1800,25726,classic,973.0768775939941,True,,True,1.0,1.0,1.0,1,"Index(['1', '4', '22', '40', '43', '52', '57', '58', '65', '72',
       ...
       '1879', '1888', '1914', '1918', '1924', '1926', '1930', '1934', '1959',
       '1995'],
      dtype='object', length=200)",False,5000,True,100,7b67773ccc,1.0,1.0
./expes/v3_2021-02-09_hi_2000-prng-1-w5-p100,30_issda-2000,2000,first-2000,200,10,rng,num-start-241,241,25726,classic,5020.22732758522,False,,False,0,,,0,"Index(['3', '29', '34', '68', '80', '83', '128', '129', '142', '152',
       ...
       '1889', '1891', '1892', '1911', '1946', '1974', '1978', '1980', '1982',
       '1983'],
      dtype='object', length=200)",True,5000,True,100,2ab3216dde,0.0,0.0
./expes/v3_2021-02-09_hi_2000-prng-1-w5-p100,30_issda-2000,2000,first-2000,800,40,rng,num-start-251,251,25726,classic,5020.233478069305,False,,False,0,,,0,"Index(['2', '4', '5', '9', '12', '16', '18', '19', '21', '22',
       ...
       '1988', '1990', '1992', '1993', '1994', '1995', '1997', '1998', '1999',
       '2000'],
      dtype='object', length=800)",True,5000,True,100,5ddb91c658,0.0,0.0
./expes/v3_2021-02-09_hi_2000-prng-1-w5-p100,30_issda-2000,2000,first-2000,800,40,rng,num-start-91,91,25726,classic,5007.173498868942,False,,False,0,,,0,"Index(['1', '7', '10', '12', '14', '22', '23', '25', '28', '29',
       ...
       '1977', '1978', '1981', '1983', '1987', '1989', '1990', '1993', '1997',
       '1999'],
      dtype='object', length=800)",True,5000,True,100,8ba888afcc,0.0,0.0
./expes/v3_2021-02-09_hi_2000-prng-1-w5-p100,30_issda-2000,2000,first-2000,100,5,rng,num-start-13300,13300,25726,classic,3867.9808917045593,True,,True,1.0,1.0,1.0,1,"Index(['4', '23', '39', '63', '106', '121', '125', '153', '170', '172', '179',
       '187', '231', '277', '293', '298', '333', '335', '351', '393', '409',
       '431', '458', '467', '536', '551', '562', '641', '691', '696', '717',
       '730', '744', '753', '768', '782', '788', '790', '821', '829', '858',
       '867', '868', '902', '909', '943', '962', '972', '977', '989', '1039',
       '1043', '1052', '1084', '1105', '1109', '1137', '1144', '1181', '1221',
       '1232', '1245', '1248', '1273', '1279', '1313', '1318', '1347', '1354',
       '1355', '1356', '1360', '1365', '1369', '1396', '1407', '1414', '1415',
       '1428', '1488', '1613', '1635', '1660', '1671', '1677', '1678', '1679',
       '1726', '1771', '1774', '1807', '1814', '1856', '1874', '1882', '1928',
       '1939', '1982', '1990', '2000'],
      dtype='object')",False,5000,True,100,59acfdc2b2,1.0,1.0
./expes/v3_2021-02-09_hi_2000-prng-1-w5-p100,30_issda-2000,2000,first-2000,350,17,rng,num-start-271,271,25726,classic,5021.185610294342,False,,False,0,,,0,"Index(['3', '4', '26', '28', '29', '34', '45', '47', '55', '65',
       ...
       '1940', '1946', '1953', '1969', '1974', '1978', '1980', '1982', '1983',
       '1988'],
      dtype='object', length=350)",True,5000,True,100,27d6ad7861,0.0,0.0
./expes/v3_2021-02-09_hi_2000-prng-1-w5-p100,30_issda-2000,2000,first-2000,300,15,rng,num-start-21,21,25726,classic,5001.76850438118,False,,False,0,,,0,"Index(['1', '2', '10', '20', '23', '31', '32', '34', '35', '37',
       ...
       '1940', '1946', '1963', '1965', '1972', '1975', '1976', '1989', '1993',
       '1997'],
      dtype='object', length=300)",True,5000,True,100,cac61a79a0,0.0,0.0
./expes/v3_2021-02-09_hi_2000-prng-1-w5-p100,30_issda-2000,2000,first-2000,450,22,rng,num-start-6300,6300,25726,classic,5053.057381868362,True,,True,1.0,1.0,1.0,1,"Index(['1', '4', '9', '25', '30', '39', '44', '47', '48', '53',
       ...
       '1952', '1956', '1957', '1959', '1962', '1971', '1989', '1990', '1996',
       '2000'],
      dtype='object', length=450)",False,5000,True,100,1b4aeff11a,1.0,1.0
./expes/v3_2021-02-09_hi_2000-prng-1-w5-p100,30_issda-2000,2000,first-2000,500,25,rng,num-start-171,171,25726,classic,5013.5123200416565,False,,False,0,,,0,"Index(['11', '15', '16', '17', '20', '22', '25', '32', '37', '40',
       ...
       '1975', '1976', '1982', '1987', '1990', '1992', '1994', '1996', '1997',
       '1998'],
      dtype='object', length=500)",True,5000,True,100,6b9b616d7a,0.0,0.0
./expes/v3_2021-02-09_hi_2000-prng-1-w5-p100,30_issda-2000,2000,first-2000,850,42,rng,num-start-9300,9300,25726,classic,5784.096639871597,True,,False,1.0,1.0,1.0,1,"Index(['5', '6', '9', '11', '14', '15', '18', '26', '27', '31',
       ...
       '1980', '1981', '1983', '1984', '1987', '1989', '1991', '1993', '1995',
       '1999'],
      dtype='object', length=850)",True,5000,True,100,0b85c39069,0.0,1.0
./expes/v3_2021-02-09_hi_2000-prng-1-w5-p100,30_issda-2000,2000,first-2000,850,42,rng,num-start-91,91,25726,classic,5007.72970199585,False,,False,0,,,0,"Index(['1', '2', '10', '11', '14', '20', '22', '23', '24', '25',
       ...
       '1974', '1975', '1976', '1981', '1984', '1986', '1987', '1989', '1993',
       '1997'],
      dtype='object', length=850)",True,5000,True,100,bcb61dc350,0.0,0.0
./expes/v3_2021-02-09_hi_2000-prng-1-w5-p100,30_issda-2000,2000,first-2000,650,32,rng,num-start-121,121,25726,classic,5009.739787817001,False,,False,0,,,0,"Index(['2', '7', '8', '11', '12', '14', '15', '17', '18', '20',
       ...
       '1975', '1976', '1980', '1982', '1984', '1985', '1988', '1997', '1998',
       '2000'],
      dtype='object', length=650)",True,5000,True,100,c43c0fd4b8,0.0,0.0
./expes/v3_2021-02-09_hi_2000-prng-1-w5-p100,30_issda-2000,2000,first-2000,500,25,rng,num-start-14300,14300,25726,classic,6104.236193656921,True,,False,1.0,1.0,1.0,1,"Index(['5', '7', '8', '9', '11', '12', '20', '27', '30', '32',
       ...
       '1949', '1951', '1954', '1963', '1965', '1970', '1982', '1987', '1989',
       '1990'],
      dtype='object', length=500)",True,5000,True,100,228a5701bf,0.0,1.0
./expes/v3_2021-02-09_hi_2000-prng-1-w5-p100,30_issda-2000,2000,first-2000,550,27,rng,num-start-281,281,25726,classic,5021.980889081955,False,,False,0,,,0,"Index(['4', '9', '10', '11', '18', '24', '33', '36', '37', '40',
       ...
       '1966', '1968', '1970', '1971', '1973', '1985', '1988', '1989', '1992',
       '1995'],
      dtype='object', length=550)",True,5000,True,100,916d545c4a,0.0,0.0
./expes/v3_2021-02-09_hi_2000-prng-1-w5-p100,30_issda-2000,2000,first-2000,600,30,rng,num-start-8300,8300,25726,classic,5662.747308731079,True,,False,1.0,1.0,1.0,1,"Index(['1', '4', '9', '24', '25', '30', '35', '38', '39', '40',
       ...
       '1962', '1968', '1971', '1982', '1989', '1990', '1991', '1994', '1996',
       '2000'],
      dtype='object', length=600)",True,5000,True,100,77493925ac,0.0,1.0
./expes/v3_2021-02-09_hi_2000-prng-1-w5-p100,30_issda-2000,2000,first-2000,50,2,rng,num-start-10300,10300,25726,classic,2313.6087515354156,True,,True,1.0,1.0,1.0,1,"Index(['5', '19', '46', '53', '59', '63', '130', '193', '210', '242', '276',
       '430', '444', '469', '523', '546', '651', '778', '781', '799', '887',
       '913', '921', '968', '1000', '1015', '1109', '1166', '1211', '1245',
       '1331', '1335', '1406', '1426', '1478', '1559', '1562', '1565', '1572',
       '1616', '1643', '1644', '1712', '1736', '1805', '1830', '1847', '1924',
       '1936', '1985'],
      dtype='object')",False,5000,True,100,55dbcdecbe,1.0,1.0
./expes/v3_2021-02-09_hi_2000-prng-1-w5-p100,30_issda-2000,2000,first-2000,500,25,rng,num-start-12800,12800,25726,classic,6018.058161020279,True,,False,1.0,1.0,1.0,1,"Index(['7', '10', '14', '25', '28', '35', '41', '46', '47', '53',
       ...
       '1961', '1964', '1971', '1977', '1978', '1981', '1983', '1987', '1993',
       '1997'],
      dtype='object', length=500)",True,5000,True,100,e6962f38ed,0.0,1.0
./expes/v3_2021-02-09_hi_2000-prng-1-w5-p100,30_issda-2000,2000,first-2000,400,20,rng,num-start-8800,8800,25726,classic,5755.701036930084,True,,False,1.0,1.0,1.0,1,"Index(['7', '15', '20', '22', '27', '38', '41', '53', '55', '65',
       ...
       '1959', '1966', '1968', '1970', '1972', '1976', '1979', '1984', '1988',
       '1989'],
      dtype='object', length=400)",True,5000,True,100,b76f456e03,0.0,1.0
./expes/v3_2021-02-09_hi_2000-prng-1-w5-p100,30_issda-2000,2000,first-2000,700,35,rng,num-start-8300,8300,25726,classic,5662.544923782349,True,,False,1.0,1.0,1.0,1,"Index(['1', '7', '10', '12', '14', '23', '25', '28', '29', '30',
       ...
       '1976', '1977', '1978', '1981', '1983', '1987', '1989', '1990', '1993',
       '1997'],
      dtype='object', length=700)",True,5000,True,100,35a976c2b9,0.0,1.0
./expes/v3_2021-02-09_hi_2000-prng-1-w5-p100,30_issda-2000,2000,first-2000,600,30,rng,num-start-151,151,25726,classic,5014.486324310303,False,,False,0,,,0,"Index(['4', '7', '10', '12', '15', '20', '22', '27', '38', '41',
       ...
       '1970', '1972', '1976', '1977', '1979', '1984', '1986', '1988', '1989',
       '1995'],
      dtype='object', length=600)",True,5000,True,100,53408c0942,0.0,0.0
./expes/v3_2021-02-09_hi_2000-prng-1-w5-p100,30_issda-2000,2000,first-2000,250,12,rng,num-start-281,281,25726,classic,5021.616284608841,False,,False,0,,,0,"Index(['1', '13', '26', '31', '35', '38', '45', '59', '62', '76',
       ...
       '1927', '1941', '1949', '1976', '1977', '1978', '1987', '1989', '1997',
       '2000'],
      dtype='object', length=250)",True,5000,True,100,1a27acb951,0.0,0.0
./expes/v3_2021-02-09_hi_2000-prng-1-w5-p100,30_issda-2000,2000,first-2000,700,35,rng,num-start-261,261,25726,classic,5020.649714231491,False,,False,0,,,0,"Index(['6', '8', '10', '16', '17', '19', '24', '25', '31', '32',
       ...
       '1971', '1977', '1980', '1981', '1982', '1983', '1984', '1987', '1992',
       '2000'],
      dtype='object', length=700)",True,5000,True,100,da19b06553,0.0,0.0
./expes/v3_2021-02-09_hi_2000-prng-1-w5-p100,30_issda-2000,2000,first-2000,300,15,rng,num-start-15300,15300,25726,classic,6252.3896725177765,True,,False,1.0,1.0,1.0,1,"Index(['15', '24', '27', '32', '42', '44', '46', '56', '59', '64',
       ...
       '1961', '1962', '1964', '1968', '1973', '1975', '1976', '1978', '1990',
       '1993'],
      dtype='object', length=300)",True,5000,True,100,370a4a7fd4,0.0,1.0
./expes/v3_2021-02-09_hi_2000-prng-1-w5-p100,30_issda-2000,2000,first-2000,300,15,rng,num-start-161,161,25726,classic,5012.325504541397,False,,False,0,,,0,"Index(['5', '7', '9', '12', '30', '62', '66', '69', '74', '79',
       ...
       '1887', '1911', '1922', '1945', '1949', '1954', '1982', '1987', '1989',
       '1990'],
      dtype='object', length=300)",True,5000,True,100,39145e1564,0.0,0.0
./expes/v3_2021-02-09_hi_2000-prng-1-w5-p100,30_issda-2000,2000,first-2000,400,20,rng,num-start-121,121,25726,classic,5009.229808807373,False,,False,0,,,0,"Index(['1', '3', '4', '5', '7', '26', '28', '29', '30', '31',
       ...
       '1953', '1969', '1973', '1974', '1978', '1980', '1982', '1983', '1988',
       '1996'],
      dtype='object', length=400)",True,5000,True,100,5e8d7c502a,0.0,0.0
./expes/v3_2021-02-09_hi_2000-prng-1-w5-p100,30_issda-2000,2000,first-2000,650,32,rng,num-start-14800,14800,25726,classic,6157.369210720062,True,,False,1.0,1.0,1.0,1,"Index(['12', '13', '14', '18', '19', '23', '27', '30', '36', '38',
       ...
       '1968', '1980', '1981', '1985', '1986', '1987', '1993', '1994', '1998',
       '1999'],
      dtype='object', length=650)",True,5000,True,100,716f8fd112,0.0,1.0
./expes/v3_2021-02-09_hi_2000-prng-1-w5-p100,30_issda-2000,2000,first-2000,900,45,rng,num-start-141,141,25726,classic,5011.5181567668915,False,,False,0,,,0,"Index(['7', '10', '11', '12', '15', '16', '17', '19', '20', '22',
       ...
       '1981', '1982', '1987', '1990', '1992', '1994', '1995', '1996', '1997',
       '1998'],
      dtype='object', length=900)",True,5000,True,100,13cfa8ab53,0.0,0.0
./expes/v3_2021-02-09_hi_2000-prng-1-w5-p100,30_issda-2000,2000,first-2000,450,22,rng,num-start-15300,15300,25726,classic,6230.725858211517,True,,False,1.0,1.0,1.0,1,"Index(['4', '9', '10', '11', '18', '33', '37', '40', '41', '44',
       ...
       '1958', '1961', '1964', '1965', '1966', '1968', '1970', '1973', '1988',
       '1989'],
      dtype='object', length=450)",True,5000,True,100,7759b46ea8,0.0,1.0
./expes/v3_2021-02-09_hi_2000-prng-1-w5-p100,30_issda-2000,2000,first-2000,550,27,rng,num-start-9300,9300,25726,classic,5759.191201925278,True,,False,1.0,1.0,1.0,1,"Index(['12', '13', '14', '18', '23', '27', '30', '36', '38', '43',
       ...
       '1961', '1962', '1968', '1980', '1981', '1985', '1987', '1993', '1994',
       '1999'],
      dtype='object', length=550)",True,5000,True,100,7220ba82be,0.0,1.0
./expes/v3_2021-02-09_hi_2000-prng-1-w5-p100,30_issda-2000,2000,first-2000,250,12,rng,num-start-9300,9300,25726,classic,4647.1726043224335,True,,True,1.0,1.0,1.0,1,"Index(['15', '20', '38', '41', '53', '65', '73', '76', '84', '88',
       ...
       '1930', '1932', '1935', '1956', '1966', '1968', '1970', '1976', '1979',
       '1988'],
      dtype='object', length=250)",False,5000,True,100,8ffcfab030,1.0,1.0
./expes/v3_2021-02-09_hi_2000-prng-1-w5-p100,30_issda-2000,2000,first-2000,850,42,rng,num-start-1800,1800,25726,classic,1782.4455077648163,True,,True,1.0,1.0,1.0,1,"Index(['2', '4', '5', '8', '9', '12', '16', '18', '19', '21',
       ...
       '1990', '1992', '1993', '1994', '1995', '1996', '1997', '1998', '1999',
       '2000'],
      dtype='object', length=850)",False,5000,True,100,5ce81a1337,1.0,1.0
./expes/v3_2021-02-09_hi_2000-prng-1-w5-p100,30_issda-2000,2000,first-2000,950,47,rng,num-start-11800,11800,25726,classic,5942.488027095795,True,,False,1.0,1.0,1.0,1,"Index(['4', '8', '13', '14', '16', '17', '18', '20', '21', '22',
       ...
       '1978', '1979', '1981', '1982', '1987', '1989', '1990', '1992', '1999',
       '2000'],
      dtype='object', length=950)",True,5000,True,100,3742734418,0.0,1.0
./expes/v3_2021-02-09_hi_2000-prng-1-w5-p100,30_issda-2000,2000,first-2000,400,20,rng,num-start-14300,14300,25726,classic,6117.5708792209625,True,,False,1.0,1.0,1.0,1,"Index(['1', '2', '10', '20', '23', '24', '26', '30', '31', '32',
       ...
       '1961', '1963', '1965', '1972', '1974', '1975', '1976', '1989', '1993',
       '1997'],
      dtype='object', length=400)",True,5000,True,100,ae43a0bd78,0.0,1.0
./expes/v3_2021-02-09_hi_2000-prng-1-w5-p100,30_issda-2000,2000,first-2000,750,37,rng,num-start-13300,13300,25726,classic,6056.120077848434,True,,False,1.0,1.0,1.0,1,"Index(['5', '6', '14', '15', '18', '26', '27', '31', '34', '35',
       ...
       '1980', '1981', '1983', '1984', '1987', '1989', '1991', '1993', '1995',
       '1999'],
      dtype='object', length=750)",True,5000,True,100,02df5c844c,0.0,1.0
./expes/v3_2021-02-09_hi_2000-prng-1-w5-p100,30_issda-2000,2000,first-2000,150,7,rng,num-start-12300,12300,25726,classic,4847.410515785217,True,,True,1.0,1.0,1.0,1,"Index(['13', '14', '162', '179', '182', '190', '208', '236', '242', '252',
       ...
       '1827', '1842', '1865', '1869', '1891', '1910', '1934', '1950', '1981',
       '1999'],
      dtype='object', length=150)",False,5000,True,100,a5d576ef76,1.0,1.0
./expes/v3_2021-02-09_hi_2000-prng-1-w5-p100,30_issda-2000,2000,first-2000,250,12,rng,num-start-8800,8800,25726,classic,4108.720801591873,True,,True,1.0,1.0,1.0,1,"Index(['1', '2', '10', '20', '23', '31', '32', '35', '41', '61',
       ...
       '1909', '1926', '1946', '1963', '1965', '1972', '1975', '1976', '1989',
       '1997'],
      dtype='object', length=250)",False,5000,True,100,7386450bca,1.0,1.0
./expes/v3_2021-02-09_hi_2000-prng-1-w5-p100,30_issda-2000,2000,first-2000,400,20,rng,num-start-221,221,25726,classic,5017.4408531188965,False,,False,0,,,0,"Index(['6', '9', '11', '16', '31', '33', '34', '52', '66', '67',
       ...
       '1956', '1971', '1974', '1976', '1984', '1986', '1987', '1988', '1995',
       '1997'],
      dtype='object', length=400)",True,5000,True,100,2af3e043e3,0.0,0.0
./expes/v3_2021-02-09_hi_2000-prng-1-w5-p100,30_issda-2000,2000,first-2000,500,25,rng,num-start-800,800,25726,classic,5062.896664381027,True,,False,1.0,1.0,1.0,1,"Index(['4', '8', '10', '15', '16', '24', '27', '32', '37', '41',
       ...
       '1973', '1975', '1976', '1978', '1985', '1989', '1990', '1991', '1993',
       '1997'],
      dtype='object', length=500)",True,5000,True,100,a3c31838dc,0.0,1.0
./expes/v3_2021-02-09_hi_2000-prng-1-w5-p100,30_issda-2000,2000,first-2000,950,47,rng,num-start-14800,14800,25726,classic,6155.110317707062,True,,False,1.0,1.0,1.0,1,"Index(['1', '2', '10', '11', '14', '20', '22', '23', '24', '25',
       ...
       '1975', '1976', '1981', '1984', '1986', '1987', '1989', '1993', '1994',
       '1997'],
      dtype='object', length=950)",True,5000,True,100,711beff34d,0.0,1.0
./expes/v3_2021-02-09_hi_2000-prng-1-w5-p100,30_issda-2000,2000,first-2000,450,22,rng,num-start-4300,4300,25726,classic,3139.351320743561,True,,True,1.0,1.0,1.0,1,"Index(['1', '4', '9', '25', '30', '39', '44', '47', '48', '53',
       ...
       '1952', '1956', '1957', '1959', '1962', '1971', '1989', '1990', '1996',
       '2000'],
      dtype='object', length=450)",False,5000,True,100,97276748e8,1.0,1.0
./expes/v3_2021-02-09_hi_2000-prng-1-w5-p100,30_issda-2000,2000,first-2000,400,20,rng,num-start-161,161,25726,classic,5012.676223754883,False,,False,0,,,0,"Index(['1', '4', '9', '25', '47', '48', '53', '56', '57', '58',
       ...
       '1950', '1952', '1956', '1957', '1959', '1962', '1971', '1990', '1996',
       '2000'],
      dtype='object', length=400)",True,5000,True,100,9c81a3f7ee,0.0,0.0
./expes/v3_2021-02-09_hi_2000-prng-1-w5-p100,30_issda-2000,2000,first-2000,250,12,rng,num-start-12800,12800,25726,classic,4504.67813873291,True,,True,1.0,1.0,1.0,1,"Index(['3', '29', '34', '45', '47', '55', '68', '75', '80', '83',
       ...
       '1918', '1919', '1946', '1969', '1974', '1978', '1980', '1982', '1983',
       '1988'],
      dtype='object', length=250)",False,5000,True,100,d3f7217475,1.0,1.0
./expes/v3_2021-02-09_hi_2000-prng-1-w5-p100,30_issda-2000,2000,first-2000,500,25,rng,num-start-2300,2300,25726,classic,1909.1793565750122,True,,True,1.0,1.0,1.0,1,"Index(['12', '13', '14', '18', '23', '27', '30', '36', '38', '43',
       ...
       '1951', '1961', '1962', '1980', '1981', '1985', '1987', '1993', '1994',
       '1999'],
      dtype='object', length=500)",False,5000,True,100,f6cd49393c,1.0,1.0
./expes/v3_2021-02-09_hi_2000-prng-1-w5-p100,30_issda-2000,2000,first-2000,50,2,rng,num-start-1800,1800,25726,classic,414.0212469100952,True,,True,1.0,1.0,1.0,1,"Index(['27', '32', '64', '88', '132', '135', '268', '309', '311', '327', '393',
       '475', '480', '488', '532', '617', '758', '799', '814', '961', '964',
       '971', '976', '1072', '1108', '1115', '1126', '1129', '1190', '1211',
       '1214', '1237', '1241', '1282', '1301', '1309', '1376', '1469', '1519',
       '1553', '1592', '1598', '1714', '1716', '1764', '1778', '1862', '1876',
       '1897', '1961'],
      dtype='object')",False,5000,True,100,cd05e8be7a,1.0,1.0
./expes/v3_2021-02-09_hi_2000-prng-1-w5-p100,30_issda-2000,2000,first-2000,100,5,rng,num-start-10300,10300,25726,classic,5805.125425815582,True,,False,1.0,1.0,1.0,1,"Index(['14', '208', '236', '242', '252', '270', '298', '329', '347', '358',
       '372', '375', '389', '402', '406', '411', '413', '414', '424', '443',
       '452', '481', '487', '491', '520', '542', '543', '553', '558', '577',
       '606', '613', '621', '665', '686', '702', '709', '749', '831', '832',
       '834', '895', '920', '939', '978', '983', '984', '1003', '1012', '1016',
       '1026', '1040', '1052', '1070', '1079', '1102', '1131', '1164', '1174',
       '1176', '1179', '1206', '1216', '1229', '1287', '1293', '1326', '1355',
       '1383', '1388', '1401', '1406', '1417', '1444', '1452', '1467', '1490',
       '1505', '1549', '1562', '1581', '1613', '1625', '1627', '1652', '1660',
       '1662', '1691', '1712', '1774', '1789', '1817', '1827', '1842', '1869',
       '1891', '1934', '1950', '1981', '1999'],
      dtype='object')",True,5000,True,100,f97e9d353f,0.0,1.0
./expes/v3_2021-02-09_hi_2000-prng-1-w5-p100,30_issda-2000,2000,first-2000,450,22,rng,num-start-4800,4800,25726,classic,2938.0912680625916,True,,True,1.0,1.0,1.0,1,"Index(['2', '8', '11', '12', '14', '15', '17', '18', '25', '27',
       ...
       '1963', '1968', '1970', '1972', '1975', '1980', '1982', '1984', '1998',
       '2000'],
      dtype='object', length=450)",False,5000,True,100,13635cea17,1.0,1.0
./expes/v3_2021-02-09_hi_2000-prng-1-w5-p100,30_issda-2000,2000,first-2000,350,17,rng,num-start-141,141,25726,classic,5011.097537517548,False,,False,0,,,0,"Index(['6', '9', '11', '16', '31', '52', '66', '67', '68', '71',
       ...
       '1951', '1952', '1971', '1974', '1976', '1984', '1986', '1987', '1988',
       '1995'],
      dtype='object', length=350)",True,5000,True,100,ca50eba5f9,0.0,0.0
./expes/v3_2021-02-09_hi_2000-prng-1-w5-p100,30_issda-2000,2000,first-2000,400,20,rng,num-start-8800,8800,25726,classic,4375.312078952789,True,,True,1.0,1.0,1.0,1,"Index(['4', '5', '12', '18', '19', '26', '30', '35', '36', '37',
       ...
       '1966', '1971', '1978', '1981', '1983', '1985', '1994', '1995', '1998',
       '1999'],
      dtype='object', length=400)",False,5000,True,100,40b1a76fa3,1.0,1.0
./expes/v3_2021-02-09_hi_2000-prng-1-w5-p100,30_issda-2000,2000,first-2000,500,25,rng,num-start-191,191,25726,classic,5014.8259370327,False,,False,0,,,0,"Index(['5', '6', '15', '18', '26', '34', '35', '37', '39', '45',
       ...
       '1974', '1977', '1978', '1979', '1981', '1983', '1984', '1987', '1989',
       '1993'],
      dtype='object', length=500)",True,5000,True,100,eb83622e80,0.0,0.0
./expes/v3_2021-02-09_hi_2000-prng-1-w5-p100,30_issda-2000,2000,first-2000,550,27,rng,num-start-6800,6800,25726,classic,4841.046675205231,True,,True,1.0,1.0,1.0,1,"Index(['1', '2', '4', '10', '16', '22', '31', '32', '36', '40',
       ...
       '1951', '1959', '1965', '1967', '1983', '1990', '1991', '1993', '1995',
       '2000'],
      dtype='object', length=550)",False,5000,True,100,3cfd58b1a3,1.0,1.0
./expes/v3_2021-02-09_hi_2000-prng-1-w5-p100,30_issda-2000,2000,first-2000,800,40,rng,num-start-3300,3300,25726,classic,2748.450207710266,True,,True,1.0,1.0,1.0,1,"Index(['1', '7', '10', '12', '14', '22', '23', '25', '28', '29',
       ...
       '1977', '1978', '1981', '1983', '1987', '1989', '1990', '1993', '1997',
       '1999'],
      dtype='object', length=800)",False,5000,True,100,ce31b2827c,1.0,1.0
./expes/v3_2021-02-09_hi_2000-prng-1-w5-p100,30_issda-2000,2000,first-2000,500,25,rng,num-start-13300,13300,25726,classic,6022.1569130420685,True,,False,1.0,1.0,1.0,1,"Index(['1', '3', '9', '12', '13', '19', '21', '23', '27', '29',
       ...
       '1976', '1979', '1981', '1983', '1985', '1988', '1989', '1991', '1995',
       '1996'],
      dtype='object', length=500)",True,5000,True,100,6fd3c5789c,0.0,1.0
./expes/v3_2021-02-09_hi_2000-prng-1-w5-p100,30_issda-2000,2000,first-2000,550,27,rng,num-start-201,201,25726,classic,5016.4497146606445,False,,False,0,,,0,"Index(['1', '3', '4', '5', '7', '17', '19', '26', '28', '29',
       ...
       '1969', '1973', '1974', '1978', '1980', '1982', '1983', '1988', '1996',
       '2000'],
      dtype='object', length=550)",True,5000,True,100,9c13280e21,0.0,0.0
./expes/v3_2021-02-09_hi_2000-prng-1-w5-p100,30_issda-2000,2000,first-2000,850,42,rng,num-start-11,11,25726,classic,5001.015331745148,False,,False,0,,,0,"Index(['7', '11', '12', '15', '16', '17', '20', '22', '24', '25',
       ...
       '1981', '1982', '1987', '1990', '1992', '1994', '1995', '1996', '1997',
       '1998'],
      dtype='object', length=850)",True,5000,True,100,43a13982f9,0.0,0.0
./expes/v3_2021-02-09_hi_2000-prng-1-w5-p100,30_issda-2000,2000,first-2000,800,40,rng,num-start-51,51,25726,classic,5004.19562458992,False,,False,0,,,0,"Index(['1', '2', '4', '6', '7', '11', '13', '19', '21', '24',
       ...
       '1980', '1983', '1984', '1990', '1992', '1993', '1994', '1998', '1999',
       '2000'],
      dtype='object', length=800)",True,5000,True,100,9ee5e8199d,0.0,0.0
./expes/v3_2021-02-09_hi_2000-prng-1-w5-p100,30_issda-2000,2000,first-2000,850,42,rng,num-start-5300,5300,25726,classic,3655.7927072048187,True,,True,1.0,1.0,1.0,1,"Index(['2', '4', '5', '8', '9', '12', '16', '18', '19', '21',
       ...
       '1990', '1992', '1993', '1994', '1995', '1996', '1997', '1998', '1999',
       '2000'],
      dtype='object', length=850)",False,5000,True,100,a4d0924104,1.0,1.0
./expes/v3_2021-02-09_hi_2000-prng-1-w5-p100,30_issda-2000,2000,first-2000,900,45,rng,num-start-121,121,25726,classic,5009.3975045681,False,,False,0,,,0,"Index(['1', '3', '4', '12', '13', '14', '16', '18', '19', '23',
       ...
       '1981', '1982', '1983', '1985', '1986', '1987', '1993', '1994', '1998',
       '1999'],
      dtype='object', length=900)",True,5000,True,100,57966a9fef,0.0,0.0
./expes/v3_2021-02-09_hi_2000-prng-1-w5-p100,30_issda-2000,2000,first-2000,700,35,rng,num-start-231,231,25726,classic,5020.670518398285,False,,False,0,,,0,"Index(['7', '11', '15', '16', '17', '20', '22', '24', '25', '32',
       ...
       '1975', '1976', '1982', '1987', '1990', '1992', '1994', '1996', '1997',
       '1998'],
      dtype='object', length=700)",True,5000,True,100,eb3d885587,0.0,0.0
./expes/v3_2021-02-09_hi_2000-prng-1-w5-p100,30_issda-2000,2000,first-2000,750,37,rng,num-start-4800,4800,25726,classic,4621.208687543869,True,,True,1.0,1.0,1.0,1,"Index(['7', '11', '12', '15', '16', '17', '20', '22', '24', '25',
       ...
       '1975', '1976', '1982', '1987', '1990', '1992', '1994', '1996', '1997',
       '1998'],
      dtype='object', length=750)",False,5000,True,100,4bd523dc67,1.0,1.0
