expe,clients,clients_size,clients_subset,agg_size,agg_size_pc,method,days,days_size,days_total,noise_method,time,valid,valid_sum,success,score_avg,score_min,score_max,nsols,oracle,wall_hit,wall_time,pooled,pool_size,uuid,optimal,valid_sums
./expes/v3_2021-02-09_hi_2000-prng-1-w5-p100,30_issda-2000,2000,first-2000,350,17,rng,num-start-271,271,25726,classic,5053.577800750732,False,,False,0,,,0,"Index(['4', '7', '11', '19', '24', '27', '38', '45', '47', '57',
       ...
       '1966', '1967', '1970', '1977', '1980', '1984', '1992', '1998', '1999',
       '2000'],
      dtype='object', length=350)",True,5000,True,100,290dedf7d1,0.0,0.0
./expes/v3_2021-02-09_hi_2000-prng-1-w5-p100,30_issda-2000,2000,first-2000,250,12,rng,num-start-8800,8800,25726,classic,3761.1160006523132,True,,True,1.0,1.0,1.0,1,"Index(['4', '7', '11', '19', '27', '38', '45', '47', '60', '66',
       ...
       '1955', '1957', '1967', '1970', '1977', '1980', '1984', '1992', '1998',
       '1999'],
      dtype='object', length=250)",False,5000,True,100,b737584201,1.0,1.0
