expe,clients,clients_size,clients_subset,agg_size,method,days,days_size,days_total,time,valid,valid_sum,success,nsols,wall_hit,wall_time,pooled,valid_sums
./expes/v2_2020-12-01_dh_3000-prng-1,30_issda_2000,2000,rng-2000,1501,rng,num-start-9001,9001,25726,2208.801859855652,False,,False,1,True,1000,True,0.0
./expes/v2_2020-12-01_dh_3000-prng-1,30_issda_2000,2000,rng-2000,1,rng,num-start-8001,8001,25726,1098.852142572403,True,,True,1,False,1000,True,1.0
./expes/v2_2020-12-01_dh_3000-prng-1,30_issda_2000,2000,rng-2000,1001,rng,num-start-8001,8001,25726,2065.4193773269653,False,,False,1,True,1000,True,0.0
./expes/v2_2020-12-01_dh_3000-prng-1,30_issda_2000,2000,rng-2000,1,rng,num-start-12001,12001,25726,1601.5122900009155,True,,True,1,False,1000,True,1.0
./expes/v2_2020-12-01_dh_3000-prng-1,30_issda_2000,2000,rng-2000,501,rng,num-start-1001,1001,25726,620.4922454357147,True,,False,2,False,1000,True,1.0
./expes/v2_2020-12-01_dh_3000-prng-1,30_issda_2000,2000,rng-2000,1,rng,num-start-14001,14001,25726,1856.1438705921173,True,,True,1,False,1000,True,1.0
./expes/v2_2020-12-01_dh_3000-prng-1,30_issda_2000,2000,rng-2000,501,rng,num-start-8001,8001,25726,2058.835466861725,False,,False,1,True,1000,True,0.0
./expes/v2_2020-12-01_dh_3000-prng-1,30_issda_2000,2000,rng-2000,501,rng,num-start-2001,2001,25726,1262.300950050354,False,,False,1,True,1000,True,0.0
./expes/v2_2020-12-01_dh_3000-prng-1,30_issda_2000,2000,rng-2000,501,rng,num-start-1,1,25726,0.23911023139953613,False,,False,2,False,1000,True,1.0
./expes/v2_2020-12-01_dh_3000-prng-1,30_issda_2000,2000,rng-2000,1,rng,num-start-13001,13001,25726,1728.8566799163818,True,,True,1,False,1000,True,1.0
./expes/v2_2020-12-01_dh_3000-prng-1,30_issda_2000,2000,rng-2000,1501,rng,num-start-13001,13001,25726,2725.5311558246613,False,,False,1,True,1000,True,0.0
./expes/v2_2020-12-01_dh_3000-prng-1,30_issda_2000,2000,rng-2000,1501,rng,num-start-4001,4001,25726,1529.0249786376953,False,,False,1,True,1000,True,0.0
./expes/v2_2020-12-01_dh_3000-prng-1,30_issda_2000,2000,rng-2000,1001,rng,num-start-4001,4001,25726,1531.3069746494293,False,,False,1,True,1000,True,0.0
./expes/v2_2020-12-01_dh_3000-prng-1,30_issda_2000,2000,rng-2000,1501,rng,num-start-4001,4001,25726,1522.7888300418854,False,,False,1,True,1000,True,0.0
./expes/v2_2020-12-01_dh_3000-prng-1,30_issda_2000,2000,rng-2000,1,rng,num-start-6001,6001,25726,807.0085589885712,True,,True,1,False,1000,True,1.0
./expes/v2_2020-12-01_dh_3000-prng-1,30_issda_2000,2000,rng-2000,1,rng,num-start-4001,4001,25726,534.4816944599152,True,,True,1,False,1000,True,1.0
./expes/v2_2020-12-01_dh_3000-prng-1,30_issda_2000,2000,rng-2000,1001,rng,num-start-14001,14001,25726,2858.801524877548,False,,False,1,True,1000,True,0.0
./expes/v2_2020-12-01_dh_3000-prng-1,30_issda_2000,2000,rng-2000,1001,rng,num-start-16001,16001,25726,3119.7932612895966,False,,False,1,True,1000,True,0.0
./expes/v2_2020-12-01_dh_3000-prng-1,30_issda_2000,2000,rng-2000,1501,rng,num-start-10001,10001,25726,2338.451632976532,False,,False,1,True,1000,True,0.0
./expes/v2_2020-12-01_dh_3000-prng-1,30_issda_2000,2000,rng-2000,501,rng,num-start-16001,16001,25726,3151.651686668396,False,,False,1,True,1000,True,0.0
./expes/v2_2020-12-01_dh_3000-prng-1,30_issda_2000,2000,rng-2000,1501,rng,num-start-1,1,25726,1.1174793243408203,False,,False,2,False,1000,True,1.0
./expes/v2_2020-12-01_dh_3000-prng-1,30_issda_2000,2000,rng-2000,1,rng,num-start-12001,12001,25726,1591.3708636760712,True,,True,1,False,1000,True,1.0
./expes/v2_2020-12-01_dh_3000-prng-1,30_issda_2000,2000,rng-2000,501,rng,num-start-8001,8001,25726,2061.860901117325,False,,False,1,True,1000,True,0.0
