expe,clients,clients_size,clients_subset,agg_size,method,days,days_size,days_total,time,valid,valid_sum,success,nsols,wall_hit,wall_time,pooled,valid_sums
./expes/v2_2020-12-01_dh_3000-prng-1,30_issda_2000,2000,rng-2000,1001,rng,num-start-2001,2001,25726,1256.7903878688812,False,,False,1,True,1000,True,0.0
./expes/v2_2020-12-01_dh_3000-prng-1,30_issda_2000,2000,rng-2000,1,rng,num-start-1,1,25726,0.17041659355163574,False,,False,2,False,1000,True,1.0
./expes/v2_2020-12-01_dh_3000-prng-1,30_issda_2000,2000,rng-2000,1501,rng,num-start-1,1,25726,0.28132081031799316,False,,False,2,False,1000,True,1.0
./expes/v2_2020-12-01_dh_3000-prng-1,30_issda_2000,2000,rng-2000,1,rng,num-start-1,1,25726,0.30658936500549316,True,,False,2,False,1000,True,1.0
./expes/v2_2020-12-01_dh_3000-prng-1,30_issda_2000,2000,rng-2000,1001,rng,num-start-9001,9001,25726,2213.449805021286,False,,False,1,True,1000,True,0.0
./expes/v2_2020-12-01_dh_3000-prng-1,30_issda_2000,2000,rng-2000,1,rng,num-start-1001,1001,25726,130.53561329841614,True,,True,1,False,1000,True,1.0
./expes/v2_2020-12-01_dh_3000-prng-1,30_issda_2000,2000,rng-2000,1001,rng,num-start-14001,14001,25726,2807.8845267295837,False,,False,1,True,1000,True,0.0
./expes/v2_2020-12-01_dh_3000-prng-1,30_issda_2000,2000,rng-2000,1,rng,num-start-10001,10001,25726,1288.239410161972,True,,True,1,False,1000,True,1.0
./expes/v2_2020-12-01_dh_3000-prng-1,30_issda_2000,2000,rng-2000,1501,rng,num-start-8001,8001,25726,2025.7177855968475,False,,False,1,True,1000,True,0.0
./expes/v2_2020-12-01_dh_3000-prng-1,30_issda_2000,2000,rng-2000,1501,rng,num-start-13001,13001,25726,2679.138904094696,False,,False,1,True,1000,True,0.0
./expes/v2_2020-12-01_dh_3000-prng-1,30_issda_2000,2000,rng-2000,1,rng,num-start-1001,1001,25726,135.73020195960999,True,,True,1,False,1000,True,1.0
./expes/v2_2020-12-01_dh_3000-prng-1,30_issda_2000,2000,rng-2000,501,rng,num-start-15001,15001,25726,2933.010345697403,False,,False,1,True,1000,True,0.0
./expes/v2_2020-12-01_dh_3000-prng-1,30_issda_2000,2000,rng-2000,1001,rng,num-start-1,1,25726,0.21996569633483887,False,,False,2,False,1000,True,1.0
./expes/v2_2020-12-01_dh_3000-prng-1,30_issda_2000,2000,rng-2000,1,rng,num-start-10001,10001,25726,1299.2328202724457,True,,True,1,False,1000,True,1.0
./expes/v2_2020-12-01_dh_3000-prng-1,30_issda_2000,2000,rng-2000,1501,rng,num-start-1001,1001,25726,997.4564917087555,True,,True,1,False,1000,True,1.0
./expes/v2_2020-12-01_dh_3000-prng-1,30_issda_2000,2000,rng-2000,1001,rng,num-start-1,1,25726,0.29099225997924805,False,,False,2,False,1000,True,1.0
./expes/v2_2020-12-01_dh_3000-prng-1,30_issda_2000,2000,rng-2000,1501,rng,num-start-2001,2001,25726,1257.8386137485504,False,,False,1,True,1000,True,0.0
./expes/v2_2020-12-01_dh_3000-prng-1,30_issda_2000,2000,rng-2000,1501,rng,num-start-14001,14001,25726,2813.957474708557,False,,False,1,True,1000,True,0.0
./expes/v2_2020-12-01_dh_3000-prng-1,30_issda_2000,2000,rng-2000,1501,rng,num-start-3001,3001,25726,1390.5074632167816,False,,False,1,True,1000,True,0.0
./expes/v2_2020-12-01_dh_3000-prng-1,30_issda_2000,2000,rng-2000,1001,rng,num-start-15001,15001,25726,2927.4870727062225,False,,False,1,True,1000,True,0.0
./expes/v2_2020-12-01_dh_3000-prng-1,30_issda_2000,2000,rng-2000,1,rng,num-start-11001,11001,25726,1418.2886390686035,True,,True,1,False,1000,True,1.0
./expes/v2_2020-12-01_dh_3000-prng-1,30_issda_2000,2000,rng-2000,1001,rng,num-start-14001,14001,25726,2831.6430966854095,False,,False,1,True,1000,True,0.0
./expes/v2_2020-12-01_dh_3000-prng-1,30_issda_2000,2000,rng-2000,501,rng,num-start-7001,7001,25726,1895.9126160144806,False,,False,1,True,1000,True,0.0
./expes/v2_2020-12-01_dh_3000-prng-1,30_issda_2000,2000,rng-2000,1001,rng,num-start-9001,9001,25726,2162.5954308509827,False,,False,1,True,1000,True,0.0
./expes/v2_2020-12-01_dh_3000-prng-1,30_issda_2000,2000,rng-2000,501,rng,num-start-10001,10001,25726,2324.016370534897,False,,False,1,True,1000,True,0.0
