,expe,clients,clients_size,clients_subset,agg_size,agg_size_pc,method,days,days_size,days_total,noise_method,time,valid,valid_sum,success,score_avg,score_min,score_max,nsols,oracle,wall_hit,wall_time,pooled,pool_size,optimal,valid_sums,uuid
0,./expes/v3_2021-01-29_di_300-prng-1-w1-p100,daily_issda-300,300,first-300,77,25,rng,num-start-91,91,536,classic,1001.8202815055848,False,,False,0.0,,,0,"Index(['1', '6', '10', '14', '15', '16', '17', '23', '27', '31', '32', '39',
       '43', '45', '47', '58', '59', '70', '74', '75', '84', '88', '92', '99',
       '103', '105', '108', '114', '115', '117', '121', '130', '134', '138',
       '141', '159', '161', '172', '173', '174', '180', '183', '186', '187',
       '189', '191', '192', '196', '197', '198', '199', '206', '208', '215',
       '217', '219', '221', '226', '228', '236', '241', '243', '245', '248',
       '257', '260', '261', '262', '263', '266', '271', '277', '278', '285',
       '286', '294', '296'],
      dtype='object')",True,1000,True,100,0.0,0.0,8c980a826b
1,./expes/v3_2021-01-29_di_300-prng-1-w1-p100,daily_issda-300,300,first-300,119,39,rng,num-start-21,21,536,classic,1000.4866726398468,False,,False,0.0,,,0,"Index(['3', '4', '5', '10', '30', '34', '40', '41', '45', '46',
       ...
       '281', '283', '285', '286', '287', '291', '293', '294', '295', '297'],
      dtype='object', length=119)",True,1000,True,100,0.0,0.0,cb68f55b30
2,./expes/v3_2021-01-29_di_300-prng-1-w1-p100,daily_issda-300,300,first-300,133,44,rng,num-start-201,201,536,classic,6.580842018127441,True,,True,1.0,1.0,1.0,1,"Index(['1', '2', '3', '5', '7', '8', '9', '12', '13', '14',
       ...
       '281', '282', '283', '284', '285', '288', '292', '296', '297', '300'],
      dtype='object', length=133)",False,1000,True,100,1.0,1.0,e538253378
3,./expes/v3_2021-01-29_di_300-prng-1-w1-p100,daily_issda-300,300,first-300,98,32,rng,num-start-91,91,536,classic,1001.8063824176788,False,,False,0.0,,,0,"Index(['3', '4', '5', '10', '41', '45', '46', '48', '52', '59', '61', '63',
       '65', '67', '68', '69', '74', '75', '76', '78', '83', '84', '87', '90',
       '93', '94', '98', '101', '102', '103', '104', '105', '106', '111',
       '113', '121', '122', '123', '128', '130', '132', '133', '136', '139',
       '140', '145', '152', '154', '155', '156', '167', '172', '174', '176',
       '178', '181', '185', '188', '198', '202', '204', '205', '208', '209',
       '214', '217', '219', '223', '224', '230', '235', '241', '245', '246',
       '251', '252', '253', '254', '257', '260', '263', '264', '268', '270',
       '273', '274', '276', '278', '279', '281', '283', '285', '287', '291',
       '293', '294', '295', '297'],
      dtype='object')",True,1000,True,100,0.0,0.0,73f55895a4
4,./expes/v3_2021-01-29_di_300-prng-1-w1-p100,daily_issda-300,300,first-300,119,39,rng,num-start-241,241,536,classic,6.022693872451782,True,,True,1.0,1.0,1.0,1,"Index(['1', '2', '3', '5', '7', '10', '12', '15', '17', '19',
       ...
       '269', '272', '274', '277', '279', '280', '282', '289', '294', '297'],
      dtype='object', length=119)",False,1000,True,100,1.0,1.0,8f8cb6d947
5,./expes/v3_2021-01-29_di_300-prng-1-w1-p100,daily_issda-300,300,first-300,56,18,rng,num-start-31,31,536,classic,1000.6828010082244,False,,False,0.0,,,0,"Index(['7', '8', '15', '16', '19', '22', '33', '34', '50', '67', '69', '70',
       '78', '82', '84', '99', '112', '119', '120', '122', '133', '138', '144',
       '155', '168', '173', '180', '188', '190', '198', '199', '200', '203',
       '204', '209', '216', '219', '224', '228', '241', '243', '244', '254',
       '260', '268', '274', '277', '278', '279', '282', '283', '293', '294',
       '296', '298', '300'],
      dtype='object')",True,1000,True,100,0.0,0.0,3ffe13b364
6,./expes/v3_2021-01-29_di_300-prng-1-w1-p100,daily_issda-300,300,first-300,21,7,rng,num-start-191,191,536,classic,5.538378953933716,True,,True,1.0,1.0,1.0,1,"Index(['21', '49', '51', '72', '76', '112', '129', '133', '145', '156', '159',
       '184', '198', '208', '216', '245', '249', '259', '262', '273', '299'],
      dtype='object')",False,1000,True,100,1.0,1.0,78790b4b19
7,./expes/v3_2021-01-29_di_300-prng-1-w1-p100,daily_issda-300,300,first-300,7,2,rng,num-start-111,111,536,classic,3.055630683898926,True,,True,1.0,1.0,1.0,1,"Index(['90', '149', '156', '188', '213', '268', '277'], dtype='object')",False,1000,True,100,1.0,1.0,1a846da092
8,./expes/v3_2021-01-29_di_300-prng-1-w1-p100,daily_issda-300,300,first-300,7,2,rng,num-start-291,291,536,classic,6.158560037612915,True,,True,1.0,1.0,1.0,1,"Index(['15', '27', '128', '131', '184', '239', '272'], dtype='object')",False,1000,True,100,1.0,1.0,9850ba8cfb
9,./expes/v3_2021-01-29_di_300-prng-1-w1-p100,daily_issda-300,300,first-300,63,21,rng,num-start-221,221,536,classic,5.410468816757202,True,,True,1.0,1.0,1.0,1,"Index(['2', '4', '9', '12', '14', '23', '37', '38', '47', '51', '54', '56',
       '59', '62', '69', '71', '76', '82', '94', '99', '103', '104', '107',
       '120', '126', '134', '138', '149', '154', '160', '167', '168', '178',
       '189', '199', '200', '202', '203', '209', '211', '213', '217', '220',
       '226', '233', '234', '235', '239', '246', '253', '257', '258', '262',
       '267', '271', '278', '280', '281', '292', '293', '296', '297', '300'],
      dtype='object')",False,1000,True,100,1.0,1.0,3944012c5b
10,./expes/v3_2021-01-29_di_300-prng-1-w1-p100,daily_issda-300,300,first-300,49,16,rng,num-start-141,141,536,classic,3.706363201141357,True,,True,1.0,1.0,1.0,1,"Index(['3', '4', '6', '11', '12', '15', '23', '43', '45', '73', '79', '80',
       '89', '113', '114', '115', '117', '121', '122', '130', '133', '145',
       '146', '151', '152', '155', '156', '159', '163', '172', '179', '186',
       '192', '210', '214', '216', '217', '229', '234', '236', '238', '241',
       '247', '251', '254', '265', '268', '289', '297'],
      dtype='object')",False,1000,True,100,1.0,1.0,feca3de429
11,./expes/v3_2021-01-29_di_300-prng-1-w1-p100,daily_issda-300,300,first-300,126,42,rng,num-start-131,131,536,classic,3.779237985610962,True,,True,1.0,1.0,1.0,1,"Index(['1', '4', '7', '8', '9', '10', '12', '15', '16', '19',
       ...
       '276', '277', '283', '284', '286', '287', '289', '292', '294', '295'],
      dtype='object', length=126)",False,1000,True,100,1.0,1.0,28b92e176a
12,./expes/v3_2021-01-29_di_300-prng-1-w1-p100,daily_issda-300,300,first-300,98,32,rng,num-start-101,101,536,classic,64.93168091773987,True,,True,1.0,1.0,1.0,1,"Index(['4', '10', '11', '14', '22', '23', '24', '31', '32', '35', '40', '42',
       '43', '45', '46', '47', '52', '53', '55', '63', '70', '75', '79', '80',
       '83', '85', '89', '91', '92', '95', '99', '100', '101', '102', '104',
       '110', '114', '118', '120', '121', '122', '127', '128', '129', '133',
       '134', '135', '140', '142', '143', '144', '147', '148', '149', '150',
       '151', '154', '156', '157', '159', '160', '165', '166', '168', '170',
       '173', '176', '183', '185', '191', '196', '199', '203', '206', '211',
       '212', '217', '221', '224', '226', '228', '232', '236', '237', '242',
       '243', '246', '260', '261', '266', '267', '274', '275', '281', '282',
       '286', '294', '299'],
      dtype='object')",False,1000,True,100,1.0,1.0,3c13010194
13,./expes/v3_2021-01-29_di_300-prng-1-w1-p100,daily_issda-300,300,first-300,21,7,rng,num-start-91,91,536,classic,2.282353162765503,True,,True,1.0,1.0,1.0,1,"Index(['12', '23', '56', '62', '76', '103', '104', '134', '138', '149', '160',
       '167', '168', '178', '202', '211', '262', '267', '271', '292', '300'],
      dtype='object')",False,1000,True,100,1.0,1.0,05159053c9
14,./expes/v3_2021-01-29_di_300-prng-1-w1-p100,daily_issda-300,300,first-300,84,28,rng,num-start-151,151,536,classic,4.269137859344482,True,,True,1.0,1.0,1.0,1,"Index(['4', '7', '8', '11', '15', '16', '19', '22', '23', '24', '33', '34',
       '35', '40', '46', '50', '54', '56', '61', '64', '67', '69', '70', '78',
       '82', '84', '99', '109', '112', '119', '120', '121', '122', '133',
       '137', '138', '143', '144', '146', '151', '155', '159', '168', '170',
       '173', '177', '180', '188', '190', '194', '198', '199', '200', '203',
       '204', '209', '211', '213', '216', '219', '224', '228', '241', '243',
       '244', '247', '248', '254', '259', '260', '268', '274', '275', '277',
       '278', '279', '282', '283', '292', '293', '294', '296', '298', '300'],
      dtype='object')",False,1000,True,100,1.0,1.0,fa11abae68
15,./expes/v3_2021-01-29_di_300-prng-1-w1-p100,daily_issda-300,300,first-300,133,44,rng,num-start-11,11,536,classic,1000.3716557025908,False,,False,0.0,,,0,"Index(['3', '7', '12', '20', '21', '24', '25', '26', '28', '30',
       ...
       '289', '290', '293', '294', '295', '296', '297', '298', '299', '300'],
      dtype='object', length=133)",True,1000,True,100,0.0,0.0,70ca256cd9
16,./expes/v3_2021-01-29_di_300-prng-1-w1-p100,daily_issda-300,300,first-300,133,44,rng,num-start-21,21,536,classic,1000.486795425415,False,,False,0.0,,,0,"Index(['2', '4', '5', '9', '12', '13', '14', '21', '23', '24',
       ...
       '271', '278', '280', '281', '288', '292', '293', '296', '297', '300'],
      dtype='object', length=133)",True,1000,True,100,0.0,0.0,7fba7a90b1
17,./expes/v3_2021-01-29_di_300-prng-1-w1-p100,daily_issda-300,300,first-300,140,46,rng,num-start-191,191,536,classic,5.869951486587524,True,,True,1.0,1.0,1.0,1,"Index(['1', '3', '7', '12', '14', '20', '21', '24', '25', '26',
       ...
       '290', '291', '293', '294', '295', '296', '297', '298', '299', '300'],
      dtype='object', length=140)",False,1000,True,100,1.0,1.0,14e5536b4e
18,./expes/v3_2021-01-29_di_300-prng-1-w1-p100,daily_issda-300,300,first-300,91,30,rng,num-start-111,111,536,classic,6.161866426467896,True,,True,1.0,1.0,1.0,1,"Index(['4', '10', '41', '45', '46', '48', '52', '59', '61', '63', '65', '67',
       '68', '69', '74', '75', '76', '78', '83', '84', '87', '90', '93', '94',
       '98', '101', '102', '103', '104', '105', '106', '111', '113', '121',
       '122', '123', '128', '130', '133', '136', '139', '140', '145', '152',
       '154', '155', '156', '167', '172', '174', '176', '178', '181', '185',
       '188', '198', '202', '204', '205', '208', '209', '214', '217', '219',
       '223', '224', '230', '235', '241', '245', '246', '251', '252', '253',
       '254', '257', '260', '263', '268', '270', '273', '274', '276', '278',
       '279', '283', '291', '293', '294', '295', '297'],
      dtype='object')",False,1000,True,100,1.0,1.0,52d8f928a9
19,./expes/v3_2021-01-29_di_300-prng-1-w1-p100,daily_issda-300,300,first-300,98,32,rng,num-start-21,21,536,classic,1000.4634499549866,False,,False,0.0,,,0,"Index(['1', '8', '9', '17', '20', '21', '32', '33', '36', '38', '42', '43',
       '46', '47', '48', '49', '51', '52', '56', '60', '64', '67', '72', '73',
       '76', '77', '88', '95', '96', '97', '98', '105', '111', '112', '113',
       '114', '121', '123', '124', '125', '129', '133', '134', '139', '141',
       '142', '145', '148', '149', '150', '155', '156', '159', '162', '163',
       '164', '167', '170', '171', '172', '182', '183', '184', '191', '198',
       '201', '205', '208', '215', '216', '223', '227', '228', '230', '231',
       '242', '244', '245', '249', '250', '251', '253', '259', '261', '262',
       '267', '268', '269', '273', '277', '279', '281', '283', '287', '291',
       '295', '297', '299'],
      dtype='object')",True,1000,True,100,0.0,0.0,c3bf98cdc8
20,./expes/v3_2021-01-29_di_300-prng-1-w1-p100,daily_issda-300,300,first-300,98,32,rng,num-start-251,251,536,classic,6.462548494338989,True,,True,1.0,1.0,1.0,1,"Index(['1', '8', '9', '17', '20', '21', '32', '33', '36', '38', '42', '43',
       '46', '47', '48', '49', '51', '52', '56', '60', '64', '67', '72', '73',
       '76', '77', '88', '95', '96', '97', '98', '105', '111', '112', '113',
       '114', '121', '123', '124', '125', '129', '133', '134', '139', '141',
       '142', '145', '148', '149', '150', '155', '156', '159', '162', '163',
       '164', '167', '170', '171', '172', '182', '183', '184', '191', '198',
       '201', '205', '208', '215', '216', '223', '227', '228', '230', '231',
       '242', '244', '245', '249', '250', '251', '253', '259', '261', '262',
       '267', '268', '269', '273', '277', '279', '281', '283', '287', '291',
       '295', '297', '299'],
      dtype='object')",False,1000,True,100,1.0,1.0,a5690877eb
21,./expes/v3_2021-01-29_di_300-prng-1-w1-p100,daily_issda-300,300,first-300,126,42,rng,num-start-231,231,536,classic,6.545983791351318,True,,True,1.0,1.0,1.0,1,"Index(['1', '3', '5', '6', '8', '9', '11', '16', '19', '20',
       ...
       '271', '276', '283', '284', '287', '289', '290', '295', '296', '299'],
      dtype='object', length=126)",False,1000,True,100,1.0,1.0,f0e3c5d029
22,./expes/v3_2021-01-29_di_300-prng-1-w1-p100,daily_issda-300,300,first-300,77,25,rng,num-start-71,71,536,classic,1001.3586432933809,False,,False,0.0,,,0,"Index(['1', '6', '10', '14', '15', '16', '17', '23', '27', '31', '32', '39',
       '43', '45', '47', '58', '59', '70', '74', '75', '84', '88', '92', '99',
       '103', '105', '108', '114', '115', '117', '121', '130', '134', '138',
       '141', '159', '161', '172', '173', '174', '180', '183', '186', '187',
       '189', '191', '192', '196', '197', '198', '199', '206', '208', '215',
       '217', '219', '221', '226', '228', '236', '241', '243', '245', '248',
       '257', '260', '261', '262', '263', '266', '271', '277', '278', '285',
       '286', '294', '296'],
      dtype='object')",True,1000,True,100,0.0,0.0,d758727fbf
23,./expes/v3_2021-01-29_di_300-prng-1-w1-p100,daily_issda-300,300,first-300,42,14,rng,num-start-111,111,536,classic,3.106903553009033,True,,True,1.0,1.0,1.0,1,"Index(['3', '8', '16', '19', '22', '31', '33', '43', '44', '47', '49', '73',
       '81', '95', '96', '98', '101', '120', '124', '131', '143', '151', '156',
       '162', '168', '203', '209', '226', '229', '232', '235', '238', '239',
       '244', '256', '261', '263', '266', '271', '276', '283', '287'],
      dtype='object')",False,1000,True,100,1.0,1.0,cb4861a055
24,./expes/v3_2021-01-29_di_300-prng-1-w1-p100,daily_issda-300,300,first-300,91,30,rng,num-start-51,51,536,classic,1001.0769057273864,False,,False,0.0,,,0,"Index(['1', '2', '3', '5', '7', '10', '12', '15', '19', '24', '27', '30', '34',
       '37', '47', '53', '56', '58', '61', '65', '68', '72', '75', '76', '81',
       '82', '85', '86', '91', '93', '94', '95', '101', '102', '105', '107',
       '108', '111', '126', '127', '128', '129', '131', '132', '136', '142',
       '144', '149', '152', '153', '155', '157', '159', '161', '162', '170',
       '174', '175', '177', '182', '184', '185', '186', '188', '189', '191',
       '193', '195', '197', '200', '207', '209', '213', '215', '222', '228',
       '232', '237', '239', '241', '242', '247', '263', '269', '272', '277',
       '279', '280', '282', '294', '297'],
      dtype='object')",True,1000,True,100,0.0,0.0,09319e928a
25,./expes/v3_2021-01-29_di_300-prng-1-w1-p100,daily_issda-300,300,first-300,105,35,rng,num-start-231,231,536,classic,6.147535800933838,True,,True,1.0,1.0,1.0,1,"Index(['4', '6', '7', '8', '11', '15', '16', '17', '19', '22',
       ...
       '282', '283', '287', '292', '293', '294', '296', '297', '298', '300'],
      dtype='object', length=105)",False,1000,True,100,1.0,1.0,3e120b6412
26,./expes/v3_2021-01-29_di_300-prng-1-w1-p100,daily_issda-300,300,first-300,56,18,rng,num-start-121,121,536,classic,3.517964124679565,True,,True,1.0,1.0,1.0,1,"Index(['11', '16', '20', '23', '30', '33', '44', '45', '46', '50', '56', '59',
       '65', '71', '73', '76', '99', '100', '107', '108', '117', '120', '121',
       '127', '133', '137', '147', '174', '190', '193', '194', '195', '198',
       '200', '206', '207', '209', '228', '233', '234', '236', '243', '249',
       '250', '251', '254', '255', '260', '265', '267', '277', '286', '294',
       '297', '298', '300'],
      dtype='object')",False,1000,True,100,1.0,1.0,720785bd4c
27,./expes/v3_2021-01-29_di_300-prng-1-w1-p100,daily_issda-300,300,first-300,77,25,rng,num-start-141,141,536,classic,3.993837594985962,True,,True,1.0,1.0,1.0,1,"Index(['7', '11', '16', '20', '23', '30', '33', '37', '44', '45', '46', '50',
       '56', '59', '65', '70', '71', '73', '76', '77', '82', '99', '100',
       '102', '107', '108', '113', '117', '120', '121', '125', '127', '133',
       '137', '146', '147', '152', '159', '161', '174', '176', '177', '183',
       '190', '193', '194', '195', '198', '200', '206', '207', '209', '219',
       '228', '233', '234', '236', '243', '249', '250', '251', '254', '255',
       '258', '260', '262', '265', '267', '271', '273', '277', '280', '286',
       '294', '297', '298', '300'],
      dtype='object')",False,1000,True,100,1.0,1.0,a2994e8cfa
28,./expes/v3_2021-01-29_di_300-prng-1-w1-p100,daily_issda-300,300,first-300,7,2,rng,num-start-161,161,536,classic,4.0094826221466064,True,,True,1.0,1.0,1.0,1,"Index(['6', '74', '138', '180', '196', '243', '271'], dtype='object')",False,1000,True,100,1.0,1.0,123f375124
29,./expes/v3_2021-01-29_di_300-prng-1-w1-p100,daily_issda-300,300,first-300,42,14,rng,num-start-51,51,536,classic,1001.0511300563812,False,,False,0.0,,,0,"Index(['1', '12', '15', '19', '24', '42', '46', '48', '49', '50', '75', '99',
       '100', '101', '102', '103', '129', '134', '136', '140', '150', '164',
       '172', '185', '186', '192', '210', '212', '218', '228', '241', '249',
       '250', '251', '258', '264', '276', '277', '284', '289', '294', '295'],
      dtype='object')",True,1000,True,100,0.0,0.0,967457b681
30,./expes/v3_2021-01-29_di_300-prng-1-w1-p100,daily_issda-300,300,first-300,105,35,rng,num-start-221,221,536,classic,6.655714750289917,True,,True,1.0,1.0,1.0,1,"Index(['12', '20', '21', '24', '25', '26', '30', '31', '32', '33',
       ...
       '289', '290', '293', '294', '295', '296', '297', '298', '299', '300'],
      dtype='object', length=105)",False,1000,True,100,1.0,1.0,6cde506026
31,./expes/v3_2021-01-29_di_300-prng-1-w1-p100,daily_issda-300,300,first-300,112,37,rng,num-start-91,91,536,classic,1001.8197236061096,False,,False,0.0,,,0,"Index(['1', '3', '5', '11', '13', '15', '16', '17', '19', '21',
       ...
       '270', '272', '279', '283', '286', '287', '288', '291', '295', '298'],
      dtype='object', length=112)",True,1000,True,100,0.0,0.0,cb71cecc3c
32,./expes/v3_2021-01-29_di_300-prng-1-w1-p100,daily_issda-300,300,first-300,35,11,rng,num-start-141,141,536,classic,3.785843849182129,True,,True,1.0,1.0,1.0,1,"Index(['20', '24', '25', '26', '30', '31', '32', '36', '38', '45', '47', '49',
       '64', '69', '78', '110', '114', '115', '124', '149', '166', '188',
       '203', '204', '215', '218', '223', '260', '275', '283', '286', '290',
       '296', '299', '300'],
      dtype='object')",False,1000,True,100,1.0,1.0,bcd1ddc141
33,./expes/v3_2021-01-29_di_300-prng-1-w1-p100,daily_issda-300,300,first-300,42,14,rng,num-start-111,111,536,classic,3.0177230834960938,True,,True,1.0,1.0,1.0,1,"Index(['1', '12', '15', '19', '24', '42', '46', '48', '49', '50', '75', '99',
       '100', '101', '102', '103', '129', '134', '136', '140', '150', '164',
       '172', '185', '186', '192', '210', '212', '218', '228', '241', '249',
       '250', '251', '258', '264', '276', '277', '284', '289', '294', '295'],
      dtype='object')",False,1000,True,100,1.0,1.0,a4a8aa6e65
34,./expes/v3_2021-01-29_di_300-prng-1-w1-p100,daily_issda-300,300,first-300,91,30,rng,num-start-201,201,536,classic,5.779577016830444,True,,True,1.0,1.0,1.0,1,"Index(['4', '10', '11', '14', '22', '23', '24', '31', '32', '35', '42', '43',
       '45', '46', '47', '52', '53', '55', '63', '75', '79', '80', '83', '85',
       '89', '91', '92', '95', '100', '101', '102', '104', '110', '114', '118',
       '120', '121', '122', '127', '128', '133', '134', '135', '140', '142',
       '143', '144', '147', '148', '149', '150', '154', '156', '157', '159',
       '160', '165', '166', '168', '170', '173', '176', '183', '185', '191',
       '199', '203', '206', '211', '212', '217', '221', '224', '226', '232',
       '236', '237', '242', '243', '246', '260', '261', '266', '267', '274',
       '275', '281', '282', '286', '294', '299'],
      dtype='object')",False,1000,True,100,1.0,1.0,2ceeae8daa
35,./expes/v3_2021-01-29_di_300-prng-1-w1-p100,daily_issda-300,300,first-300,98,32,rng,num-start-11,11,536,classic,1000.2960569858552,False,,False,0.0,,,0,"Index(['3', '4', '5', '10', '41', '45', '46', '48', '52', '59', '61', '63',
       '65', '67', '68', '69', '74', '75', '76', '78', '83', '84', '87', '90',
       '93', '94', '98', '101', '102', '103', '104', '105', '106', '111',
       '113', '121', '122', '123', '128', '130', '132', '133', '136', '139',
       '140', '145', '152', '154', '155', '156', '167', '172', '174', '176',
       '178', '181', '185', '188', '198', '202', '204', '205', '208', '209',
       '214', '217', '219', '223', '224', '230', '235', '241', '245', '246',
       '251', '252', '253', '254', '257', '260', '263', '264', '268', '270',
       '273', '274', '276', '278', '279', '281', '283', '285', '287', '291',
       '293', '294', '295', '297'],
      dtype='object')",True,1000,True,100,0.0,0.0,506abbf543
36,./expes/v3_2021-01-29_di_300-prng-1-w1-p100,daily_issda-300,300,first-300,126,42,rng,num-start-121,121,536,classic,6.333811044692993,True,,True,1.0,1.0,1.0,1,"Index(['2', '5', '6', '8', '9', '10', '16', '19', '22', '23',
       ...
       '267', '272', '274', '279', '281', '285', '290', '292', '295', '296'],
      dtype='object', length=126)",False,1000,True,100,1.0,1.0,97eaeca9e8
37,./expes/v3_2021-01-29_di_300-prng-1-w1-p100,daily_issda-300,300,first-300,77,25,rng,num-start-151,151,536,classic,4.750503301620483,True,,True,1.0,1.0,1.0,1,"Index(['5', '13', '15', '19', '29', '39', '44', '47', '55', '70', '82', '83',
       '85', '86', '87', '89', '91', '94', '98', '107', '109', '114', '119',
       '121', '128', '129', '138', '143', '156', '158', '159', '160', '164',
       '167', '175', '180', '182', '185', '186', '187', '188', '191', '195',
       '202', '205', '209', '213', '217', '221', '228', '229', '233', '234',
       '237', '239', '246', '250', '251', '256', '257', '258', '259', '260',
       '261', '262', '263', '264', '266', '269', '270', '272', '279', '286',
       '287', '288', '291', '298'],
      dtype='object')",False,1000,True,100,1.0,1.0,8a114cfb2c
38,./expes/v3_2021-01-29_di_300-prng-1-w1-p100,daily_issda-300,300,first-300,133,44,rng,num-start-231,231,536,classic,6.670776605606079,True,,True,1.0,1.0,1.0,1,"Index(['2', '3', '8', '16', '17', '19', '20', '22', '23', '24',
       ...
       '282', '284', '285', '287', '289', '290', '292', '296', '298', '299'],
      dtype='object', length=133)",False,1000,True,100,1.0,1.0,e8779b1165
39,./expes/v3_2021-01-29_di_300-prng-1-w1-p100,daily_issda-300,300,first-300,140,46,rng,num-start-271,271,536,classic,7.448807954788208,True,,True,1.0,1.0,1.0,1,"Index(['1', '2', '3', '5', '7', '8', '9', '12', '13', '14',
       ...
       '281', '282', '283', '284', '285', '288', '292', '296', '297', '300'],
      dtype='object', length=140)",False,1000,True,100,1.0,1.0,d26d99e73c
40,./expes/v3_2021-01-29_di_300-prng-1-w1-p100,daily_issda-300,300,first-300,14,4,rng,num-start-231,231,536,classic,4.8661651611328125,True,,True,1.0,1.0,1.0,1,"Index(['14', '57', '90', '128', '130', '143', '149', '156', '188', '197',
       '213', '215', '268', '277'],
      dtype='object')",False,1000,True,100,1.0,1.0,3489f468a4
41,./expes/v3_2021-01-29_di_300-prng-1-w1-p100,daily_issda-300,300,first-300,21,7,rng,num-start-181,181,536,classic,4.684749603271484,True,,True,1.0,1.0,1.0,1,"Index(['1', '6', '31', '74', '75', '84', '108', '117', '138', '141', '174',
       '180', '189', '192', '196', '226', '236', '243', '248', '271', '286'],
      dtype='object')",False,1000,True,100,1.0,1.0,ec4ec0a36b
42,./expes/v3_2021-01-29_di_300-prng-1-w1-p100,daily_issda-300,300,first-300,98,32,rng,num-start-271,271,536,classic,7.4115893840789795,True,,True,1.0,1.0,1.0,1,"Index(['1', '8', '9', '17', '20', '21', '32', '33', '36', '38', '42', '43',
       '46', '47', '48', '49', '51', '52', '56', '60', '64', '67', '72', '73',
       '76', '77', '88', '95', '96', '97', '98', '105', '111', '112', '113',
       '114', '121', '123', '124', '125', '129', '133', '134', '139', '141',
       '142', '145', '148', '149', '150', '155', '156', '159', '162', '163',
       '164', '167', '170', '171', '172', '182', '183', '184', '191', '198',
       '201', '205', '208', '215', '216', '223', '227', '228', '230', '231',
       '242', '244', '245', '249', '250', '251', '253', '259', '261', '262',
       '267', '268', '269', '273', '277', '279', '281', '283', '287', '291',
       '295', '297', '299'],
      dtype='object')",False,1000,True,100,1.0,1.0,f7f2841364
43,./expes/v3_2021-01-29_di_300-prng-1-w1-p100,daily_issda-300,300,first-300,126,42,rng,num-start-41,41,536,classic,1000.8236384391784,False,,False,0.0,,,0,"Index(['1', '2', '3', '5', '7', '10', '12', '15', '17', '19',
       ...
       '272', '273', '274', '277', '279', '280', '282', '289', '294', '297'],
      dtype='object', length=126)",True,1000,True,100,0.0,0.0,242ce2b7f4
44,./expes/v3_2021-01-29_di_300-prng-1-w1-p100,daily_issda-300,300,first-300,70,23,rng,num-start-121,121,536,classic,3.66000771522522,True,,True,1.0,1.0,1.0,1,"Index(['2', '8', '16', '23', '37', '38', '44', '61', '65', '67', '68', '70',
       '71', '72', '73', '76', '82', '91', '92', '96', '100', '104', '110',
       '116', '119', '120', '121', '122', '129', '130', '132', '133', '135',
       '142', '144', '149', '151', '161', '178', '180', '183', '187', '188',
       '191', '192', '200', '203', '212', '218', '220', '221', '224', '226',
       '228', '230', '231', '236', '238', '250', '252', '255', '267', '268',
       '273', '275', '282', '284', '289', '290', '296'],
      dtype='object')",False,1000,True,100,1.0,1.0,df56a5920e
45,./expes/v3_2021-01-29_di_300-prng-1-w1-p100,daily_issda-300,300,first-300,98,32,rng,num-start-221,221,536,classic,6.164268493652344,True,,True,1.0,1.0,1.0,1,"Index(['1', '7', '9', '10', '12', '15', '19', '24', '28', '40', '42', '44',
       '46', '48', '49', '50', '60', '62', '64', '65', '71', '73', '75', '87',
       '89', '95', '97', '99', '100', '101', '102', '103', '108', '115', '126',
       '129', '131', '132', '134', '136', '137', '138', '140', '149', '150',
       '156', '157', '160', '164', '166', '169', '171', '172', '183', '185',
       '186', '192', '194', '195', '200', '204', '210', '211', '212', '216',
       '217', '218', '219', '221', '226', '228', '229', '232', '240', '241',
       '242', '244', '246', '248', '249', '250', '251', '252', '255', '257',
       '258', '264', '265', '268', '269', '271', '276', '277', '284', '286',
       '289', '294', '295'],
      dtype='object')",False,1000,True,100,1.0,1.0,6fbc5a4933
46,./expes/v3_2021-01-29_di_300-prng-1-w1-p100,daily_issda-300,300,first-300,7,2,rng,num-start-111,111,536,classic,2.7249319553375244,True,,True,1.0,1.0,1.0,1,"Index(['38', '55', '127', '131', '139', '150', '270'], dtype='object')",False,1000,True,100,1.0,1.0,56024816be
47,./expes/v3_2021-01-29_di_300-prng-1-w1-p100,daily_issda-300,300,first-300,14,4,rng,num-start-61,61,536,classic,1.5065219402313232,True,,True,1.0,1.0,1.0,1,"Index(['21', '72', '112', '133', '156', '184', '198', '208', '216', '245',
       '249', '259', '262', '299'],
      dtype='object')",False,1000,True,100,1.0,1.0,5d78d28d63
48,./expes/v3_2021-01-29_di_300-prng-1-w1-p100,daily_issda-300,300,first-300,56,18,rng,num-start-21,21,536,classic,1000.4142580032347,False,,False,0.0,,,0,"Index(['7', '8', '15', '16', '19', '22', '33', '34', '50', '67', '69', '70',
       '78', '82', '84', '99', '112', '119', '120', '122', '133', '138', '144',
       '155', '168', '173', '180', '188', '190', '198', '199', '200', '203',
       '204', '209', '216', '219', '224', '228', '241', '243', '244', '254',
       '260', '268', '274', '277', '278', '279', '282', '283', '293', '294',
       '296', '298', '300'],
      dtype='object')",True,1000,True,100,0.0,0.0,189c9fbdeb
49,./expes/v3_2021-01-29_di_300-prng-1-w1-p100,daily_issda-300,300,first-300,42,14,rng,num-start-191,191,536,classic,4.905519008636475,True,,True,1.0,1.0,1.0,1,"Index(['2', '5', '12', '14', '15', '16', '33', '49', '52', '53', '61', '69',
       '108', '111', '113', '114', '118', '119', '120', '131', '137', '149',
       '163', '177', '195', '196', '200', '214', '217', '222', '225', '229',
       '231', '236', '242', '250', '254', '271', '278', '284', '285', '292'],
      dtype='object')",False,1000,True,100,1.0,1.0,6146eb8976
50,./expes/v3_2021-01-29_di_300-prng-1-w1-p100,daily_issda-300,300,first-300,98,32,rng,num-start-171,171,536,classic,5.030236005783081,True,,True,1.0,1.0,1.0,1,"Index(['3', '4', '5', '6', '7', '8', '11', '12', '15', '16', '17', '20', '23',
       '24', '25', '31', '34', '37', '41', '43', '45', '48', '52', '54', '59',
       '60', '63', '73', '74', '76', '79', '80', '85', '89', '92', '102',
       '113', '114', '115', '117', '119', '121', '122', '123', '125', '126',
       '130', '131', '133', '134', '138', '145', '146', '151', '152', '155',
       '156', '159', '163', '164', '172', '179', '186', '190', '192', '199',
       '202', '205', '208', '209', '210', '214', '216', '217', '228', '229',
       '233', '234', '236', '238', '239', '241', '244', '245', '247', '251',
       '252', '254', '256', '262', '265', '268', '270', '277', '278', '289',
       '297', '299'],
      dtype='object')",False,1000,True,100,1.0,1.0,dcaed3c15e
51,./expes/v3_2021-01-29_di_300-prng-1-w1-p100,daily_issda-300,300,first-300,14,4,rng,num-start-101,101,536,classic,2.363231897354126,True,,True,1.0,1.0,1.0,1,"Index(['8', '17', '18', '83', '106', '143', '220', '237', '248', '251', '252',
       '267', '293', '296'],
      dtype='object')",False,1000,True,100,1.0,1.0,eff318e074
52,./expes/v3_2021-01-29_di_300-prng-1-w1-p100,daily_issda-300,300,first-300,105,35,rng,num-start-91,91,536,classic,59.81309509277344,True,,True,1.0,1.0,1.0,1,"Index(['5', '6', '8', '9', '10', '16', '19', '22', '23', '25',
       ...
       '262', '267', '272', '274', '279', '281', '285', '290', '292', '296'],
      dtype='object', length=105)",False,1000,True,100,1.0,1.0,5a3e19cbe7
53,./expes/v3_2021-01-29_di_300-prng-1-w1-p100,daily_issda-300,300,first-300,35,11,rng,num-start-1,1,536,classic,287.0061421394348,False,,True,0.5415994026099342,0.5161470136760733,0.5829711718858506,10000,"Index(['4', '21', '23', '27', '33', '42', '45', '53', '57', '68', '71', '81',
       '87', '96', '105', '108', '115', '122', '137', '144', '150', '172',
       '174', '175', '192', '195', '197', '204', '216', '217', '232', '238',
       '258', '260', '284'],
      dtype='object')",False,1000,True,100,1.0,1.0,52bf8d546e
54,./expes/v3_2021-01-29_di_300-prng-1-w1-p100,daily_issda-300,300,first-300,56,18,rng,num-start-261,261,536,classic,6.360596179962158,True,,True,1.0,1.0,1.0,1,"Index(['2', '5', '12', '14', '15', '16', '18', '33', '49', '52', '53', '61',
       '62', '69', '96', '98', '108', '111', '113', '114', '118', '119', '120',
       '131', '137', '146', '149', '152', '156', '163', '171', '177', '195',
       '196', '200', '202', '214', '217', '222', '225', '229', '231', '236',
       '242', '246', '250', '254', '256', '257', '259', '260', '271', '278',
       '284', '285', '292'],
      dtype='object')",False,1000,True,100,1.0,1.0,67aacf0d18
55,./expes/v3_2021-01-29_di_300-prng-1-w1-p100,daily_issda-300,300,first-300,70,23,rng,num-start-281,281,536,classic,7.114762306213379,True,,True,1.0,1.0,1.0,1,"Index(['1', '2', '3', '5', '7', '10', '12', '15', '27', '30', '34', '37', '53',
       '58', '65', '68', '72', '75', '81', '82', '85', '86', '91', '94', '95',
       '101', '102', '105', '108', '111', '127', '128', '131', '132', '136',
       '144', '149', '153', '155', '157', '159', '161', '162', '170', '174',
       '182', '184', '185', '188', '191', '193', '195', '197', '200', '207',
       '209', '213', '215', '228', '232', '239', '241', '242', '247', '272',
       '277', '279', '282', '294', '297'],
      dtype='object')",False,1000,True,100,1.0,1.0,7629bb49b4
56,./expes/v3_2021-01-29_di_300-prng-1-w1-p100,daily_issda-300,300,first-300,91,30,rng,num-start-151,151,536,classic,4.783755779266357,True,,True,1.0,1.0,1.0,1,"Index(['12', '20', '21', '24', '25', '26', '30', '31', '32', '33', '34', '36',
       '38', '40', '42', '45', '47', '48', '49', '50', '53', '61', '64', '69',
       '74', '78', '85', '93', '97', '106', '110', '114', '115', '124', '125',
       '128', '139', '146', '148', '149', '154', '158', '159', '161', '166',
       '175', '176', '178', '180', '182', '186', '188', '191', '198', '203',
       '204', '215', '216', '218', '219', '223', '229', '230', '233', '234',
       '237', '239', '243', '251', '254', '255', '260', '263', '269', '273',
       '275', '277', '281', '283', '286', '287', '289', '290', '293', '294',
       '295', '296', '297', '298', '299', '300'],
      dtype='object')",False,1000,True,100,1.0,1.0,6d0007a068
57,./expes/v3_2021-01-29_di_300-prng-1-w1-p100,daily_issda-300,300,first-300,35,11,rng,num-start-291,291,536,classic,8.51488971710205,True,,True,1.0,1.0,1.0,1,"Index(['21', '32', '38', '49', '51', '52', '72', '76', '105', '112', '129',
       '133', '134', '145', '156', '159', '162', '170', '182', '184', '198',
       '208', '216', '223', '227', '242', '245', '249', '259', '262', '267',
       '273', '283', '287', '299'],
      dtype='object')",False,1000,True,100,1.0,1.0,44987dd3be
58,./expes/v3_2021-01-29_di_300-prng-1-w1-p100,daily_issda-300,300,first-300,126,42,rng,num-start-61,61,536,classic,1001.2655808925628,False,,False,0.0,,,0,"Index(['3', '4', '5', '6', '10', '24', '30', '34', '40', '41',
       ...
       '283', '285', '286', '287', '290', '291', '293', '294', '295', '297'],
      dtype='object', length=126)",True,1000,True,100,0.0,0.0,871bbf3ea6
59,./expes/v3_2021-01-29_di_300-prng-1-w1-p100,daily_issda-300,300,first-300,49,16,rng,num-start-21,21,536,classic,1000.5375075340272,False,,False,0.0,,,0,"Index(['3', '10', '14', '26', '27', '32', '36', '42', '57', '64', '71', '72',
       '73', '78', '90', '101', '108', '123', '128', '130', '143', '149',
       '156', '159', '163', '170', '173', '182', '188', '191', '192', '197',
       '206', '208', '210', '213', '215', '222', '243', '245', '257', '260',
       '268', '273', '277', '283', '287', '293', '297'],
      dtype='object')",True,1000,True,100,0.0,0.0,1685c15762
60,./expes/v3_2021-01-29_di_300-prng-1-w1-p100,daily_issda-300,300,first-300,126,42,rng,num-start-191,191,536,classic,6.346410751342773,True,,True,1.0,1.0,1.0,1,"Index(['1', '2', '3', '5', '7', '10', '12', '15', '17', '19',
       ...
       '272', '273', '274', '277', '279', '280', '282', '289', '294', '297'],
      dtype='object', length=126)",False,1000,True,100,1.0,1.0,8995d4e43b
61,./expes/v3_2021-01-29_di_300-prng-1-w1-p100,daily_issda-300,300,first-300,84,28,rng,num-start-31,31,536,classic,1000.6326315402983,False,,False,0.0,,,0,"Index(['4', '7', '8', '11', '15', '16', '19', '22', '23', '24', '33', '34',
       '35', '40', '46', '50', '54', '56', '61', '64', '67', '69', '70', '78',
       '82', '84', '99', '109', '112', '119', '120', '121', '122', '133',
       '137', '138', '143', '144', '146', '151', '155', '159', '168', '170',
       '173', '177', '180', '188', '190', '194', '198', '199', '200', '203',
       '204', '209', '211', '213', '216', '219', '224', '228', '241', '243',
       '244', '247', '248', '254', '259', '260', '268', '274', '275', '277',
       '278', '279', '282', '283', '292', '293', '294', '296', '298', '300'],
      dtype='object')",True,1000,True,100,0.0,0.0,3e5653a156
62,./expes/v3_2021-01-29_di_300-prng-1-w1-p100,daily_issda-300,300,first-300,63,21,rng,num-start-231,231,536,classic,5.7541584968566895,True,,True,1.0,1.0,1.0,1,"Index(['7', '8', '15', '16', '19', '22', '33', '34', '50', '54', '64', '67',
       '69', '70', '78', '82', '84', '99', '109', '112', '119', '120', '122',
       '133', '137', '138', '144', '146', '155', '168', '173', '180', '188',
       '190', '198', '199', '200', '203', '204', '209', '216', '219', '224',
       '228', '241', '243', '244', '247', '254', '260', '268', '274', '277',
       '278', '279', '282', '283', '292', '293', '294', '296', '298', '300'],
      dtype='object')",False,1000,True,100,1.0,1.0,947d0e19fc
63,./expes/v3_2021-01-29_di_300-prng-1-w1-p100,daily_issda-300,300,first-300,140,46,rng,num-start-101,101,536,classic,1001.9807341098784,False,,False,0.0,,,0,"Index(['1', '2', '3', '5', '7', '8', '9', '12', '13', '14',
       ...
       '281', '282', '283', '284', '285', '288', '292', '296', '297', '300'],
      dtype='object', length=140)",True,1000,True,100,0.0,0.0,084f23b97e
64,./expes/v3_2021-01-29_di_300-prng-1-w1-p100,daily_issda-300,300,first-300,119,39,rng,num-start-101,101,536,classic,22.929734468460083,True,,True,1.0,1.0,1.0,1,"Index(['4', '5', '10', '11', '14', '19', '21', '22', '23', '24',
       ...
       '271', '274', '275', '280', '281', '282', '286', '293', '294', '299'],
      dtype='object', length=119)",False,1000,True,100,1.0,1.0,24dc897cae
65,./expes/v3_2021-01-29_di_300-prng-1-w1-p100,daily_issda-300,300,first-300,56,18,rng,num-start-251,251,536,classic,6.793914794921875,True,,True,1.0,1.0,1.0,1,"Index(['4', '9', '12', '23', '37', '38', '51', '54', '56', '59', '62', '69',
       '71', '76', '82', '99', '103', '104', '107', '120', '134', '138', '149',
       '154', '160', '167', '168', '178', '189', '199', '200', '202', '203',
       '209', '211', '213', '217', '226', '233', '234', '235', '246', '253',
       '257', '258', '262', '267', '271', '278', '280', '281', '292', '293',
       '296', '297', '300'],
      dtype='object')",False,1000,True,100,1.0,1.0,b49d696911
66,./expes/v3_2021-01-29_di_300-prng-1-w1-p100,daily_issda-300,300,first-300,28,9,rng,num-start-11,11,536,classic,1000.3648314476012,False,,False,0.0,,,0,"Index(['2', '5', '12', '14', '15', '16', '33', '49', '53', '61', '69', '108',
       '111', '118', '131', '137', '163', '195', '196', '200', '222', '229',
       '231', '242', '250', '254', '278', '292'],
      dtype='object')",True,1000,True,100,0.0,0.0,f547359f8d
67,./expes/v3_2021-01-29_di_300-prng-1-w1-p100,daily_issda-300,300,first-300,77,25,rng,num-start-101,101,536,classic,5.256622076034546,True,,True,1.0,1.0,1.0,1,"Index(['7', '11', '16', '20', '23', '30', '33', '37', '44', '45', '46', '50',
       '56', '59', '65', '70', '71', '73', '76', '77', '82', '99', '100',
       '102', '107', '108', '113', '117', '120', '121', '125', '127', '133',
       '137', '146', '147', '152', '159', '161', '174', '176', '177', '183',
       '190', '193', '194', '195', '198', '200', '206', '207', '209', '219',
       '228', '233', '234', '236', '243', '249', '250', '251', '254', '255',
       '258', '260', '262', '265', '267', '271', '273', '277', '280', '286',
       '294', '297', '298', '300'],
      dtype='object')",False,1000,True,100,1.0,1.0,4843620aca
68,./expes/v3_2021-01-29_di_300-prng-1-w1-p100,daily_issda-300,300,first-300,63,21,rng,num-start-221,221,536,classic,5.779839515686035,True,,True,1.0,1.0,1.0,1,"Index(['1', '7', '9', '12', '15', '19', '24', '42', '46', '48', '49', '50',
       '60', '62', '71', '75', '87', '97', '99', '100', '101', '102', '103',
       '108', '115', '126', '129', '134', '136', '138', '140', '150', '156',
       '160', '164', '171', '172', '183', '185', '186', '192', '195', '210',
       '212', '218', '221', '228', '241', '248', '249', '250', '251', '257',
       '258', '264', '268', '269', '276', '277', '284', '289', '294', '295'],
      dtype='object')",False,1000,True,100,1.0,1.0,9dfc5d8b41
69,./expes/v3_2021-01-29_di_300-prng-1-w1-p100,daily_issda-300,300,first-300,91,30,rng,num-start-71,71,536,classic,1001.4444763660432,False,,False,0.0,,,0,"Index(['2', '4', '9', '12', '14', '23', '24', '35', '37', '38', '39', '40',
       '44', '47', '51', '52', '54', '56', '59', '62', '66', '69', '71', '76',
       '82', '88', '90', '94', '99', '103', '104', '107', '108', '120', '126',
       '134', '135', '138', '141', '146', '149', '151', '154', '155', '158',
       '160', '167', '168', '178', '189', '193', '199', '200', '202', '203',
       '207', '209', '211', '213', '216', '217', '220', '224', '225', '226',
       '231', '232', '233', '234', '235', '237', '238', '239', '240', '244',
       '246', '253', '257', '258', '259', '262', '267', '271', '278', '280',
       '281', '292', '293', '296', '297', '300'],
      dtype='object')",True,1000,True,100,0.0,0.0,45532809a8
70,./expes/v3_2021-01-29_di_300-prng-1-w1-p100,daily_issda-300,300,first-300,14,4,rng,num-start-151,151,536,classic,4.160532236099243,True,,True,1.0,1.0,1.0,1,"Index(['38', '55', '61', '127', '131', '135', '139', '150', '156', '202',
       '204', '231', '239', '270'],
      dtype='object')",False,1000,True,100,1.0,1.0,7b97addc6f
71,./expes/v3_2021-01-29_di_300-prng-1-w1-p100,daily_issda-300,300,first-300,77,25,rng,num-start-121,121,536,classic,6.362448692321777,True,,True,1.0,1.0,1.0,1,"Index(['1', '6', '10', '14', '15', '16', '17', '23', '27', '31', '32', '39',
       '43', '45', '47', '58', '59', '70', '74', '75', '84', '88', '92', '99',
       '103', '105', '108', '114', '115', '117', '121', '130', '134', '138',
       '141', '159', '161', '172', '173', '174', '180', '183', '186', '187',
       '189', '191', '192', '196', '197', '198', '199', '206', '208', '215',
       '217', '219', '221', '226', '228', '236', '241', '243', '245', '248',
       '257', '260', '261', '262', '263', '266', '271', '277', '278', '285',
       '286', '294', '296'],
      dtype='object')",False,1000,True,100,1.0,1.0,d0a3b8f51e
72,./expes/v3_2021-01-29_di_300-prng-1-w1-p100,daily_issda-300,300,first-300,70,23,rng,num-start-261,261,536,classic,6.484577894210815,True,,True,1.0,1.0,1.0,1,"Index(['1', '2', '3', '5', '7', '10', '12', '15', '27', '30', '34', '37', '53',
       '58', '65', '68', '72', '75', '81', '82', '85', '86', '91', '94', '95',
       '101', '102', '105', '108', '111', '127', '128', '131', '132', '136',
       '144', '149', '153', '155', '157', '159', '161', '162', '170', '174',
       '182', '184', '185', '188', '191', '193', '195', '197', '200', '207',
       '209', '213', '215', '228', '232', '239', '241', '242', '247', '272',
       '277', '279', '282', '294', '297'],
      dtype='object')",False,1000,True,100,1.0,1.0,59b87ecece
73,./expes/v3_2021-01-29_di_300-prng-1-w1-p100,daily_issda-300,300,first-300,70,23,rng,num-start-131,131,536,classic,3.773120164871216,True,,True,1.0,1.0,1.0,1,"Index(['2', '4', '9', '12', '14', '23', '37', '38', '47', '51', '54', '56',
       '59', '62', '66', '69', '71', '76', '82', '94', '99', '103', '104',
       '107', '120', '126', '134', '135', '138', '146', '149', '154', '160',
       '167', '168', '178', '189', '193', '199', '200', '202', '203', '209',
       '211', '213', '217', '220', '226', '231', '232', '233', '234', '235',
       '239', '244', '246', '253', '257', '258', '262', '267', '271', '278',
       '280', '281', '292', '293', '296', '297', '300'],
      dtype='object')",False,1000,True,100,1.0,1.0,2e7b7a466a
74,./expes/v3_2021-01-29_di_300-prng-1-w1-p100,daily_issda-300,300,first-300,77,25,rng,num-start-181,181,536,classic,5.140527963638306,True,,True,1.0,1.0,1.0,1,"Index(['6', '9', '10', '19', '25', '29', '34', '38', '41', '52', '60', '72',
       '73', '76', '78', '81', '85', '89', '92', '101', '106', '107', '115',
       '118', '119', '121', '123', '135', '140', '144', '147', '152', '157',
       '159', '160', '161', '162', '163', '173', '174', '177', '182', '183',
       '185', '189', '199', '200', '201', '203', '206', '208', '215', '216',
       '225', '227', '231', '234', '237', '239', '240', '243', '244', '251',
       '252', '253', '254', '257', '258', '262', '267', '272', '274', '279',
       '285', '290', '292', '296'],
      dtype='object')",False,1000,True,100,1.0,1.0,f10422b2a0
75,./expes/v3_2021-01-29_di_300-prng-1-w1-p100,daily_issda-300,300,first-300,28,9,rng,num-start-21,21,536,classic,1002.4802646636964,False,,False,0.0,,,0,"Index(['7', '15', '27', '37', '53', '58', '65', '68', '72', '81', '82', '94',
       '111', '127', '128', '131', '144', '184', '191', '195', '200', '209',
       '228', '239', '241', '272', '279', '294'],
      dtype='object')",True,1000,True,100,0.0,0.0,9fdd74a55d
76,./expes/v3_2021-01-29_di_300-prng-1-w1-p100,daily_issda-300,300,first-300,49,16,rng,num-start-161,161,536,classic,4.89692497253418,True,,True,1.0,1.0,1.0,1,"Index(['1', '12', '15', '19', '24', '42', '46', '48', '49', '50', '62', '75',
       '99', '100', '101', '102', '103', '126', '129', '134', '136', '140',
       '150', '156', '164', '172', '183', '185', '186', '192', '210', '212',
       '218', '221', '228', '241', '249', '250', '251', '257', '258', '264',
       '269', '276', '277', '284', '289', '294', '295'],
      dtype='object')",False,1000,True,100,1.0,1.0,f3c1c51f0b
77,./expes/v3_2021-01-29_di_300-prng-1-w1-p100,daily_issda-300,300,first-300,112,37,rng,num-start-261,261,536,classic,7.020564556121826,True,,True,1.0,1.0,1.0,1,"Index(['1', '3', '5', '6', '8', '9', '11', '16', '19', '22',
       ...
       '271', '276', '283', '284', '287', '289', '290', '295', '296', '299'],
      dtype='object', length=112)",False,1000,True,100,1.0,1.0,acc8509dca
78,./expes/v3_2021-01-29_di_300-prng-1-w1-p100,daily_issda-300,300,first-300,7,2,rng,num-start-221,221,536,classic,4.623357057571411,True,,True,1.0,1.0,1.0,1,"Index(['38', '55', '127', '131', '139', '150', '270'], dtype='object')",False,1000,True,100,1.0,1.0,c4b8492bb4
79,./expes/v3_2021-01-29_di_300-prng-1-w1-p100,daily_issda-300,300,first-300,56,18,rng,num-start-211,211,536,classic,4.6158952713012695,True,,True,1.0,1.0,1.0,1,"Index(['3', '4', '6', '7', '8', '11', '12', '15', '23', '34', '43', '45', '73',
       '79', '80', '85', '89', '113', '114', '115', '117', '121', '122', '130',
       '133', '145', '146', '151', '152', '155', '156', '159', '163', '172',
       '179', '186', '192', '210', '214', '216', '217', '228', '229', '233',
       '234', '236', '238', '241', '247', '251', '252', '254', '265', '268',
       '289', '297'],
      dtype='object')",False,1000,True,100,1.0,1.0,b590ebcc1e
80,./expes/v3_2021-01-29_di_300-prng-1-w1-p100,daily_issda-300,300,first-300,126,42,rng,num-start-31,31,536,classic,1000.6019616127014,False,,False,0.0,,,0,"Index(['1', '3', '5', '11', '13', '15', '16', '17', '19', '21',
       ...
       '272', '279', '283', '286', '287', '288', '291', '295', '298', '300'],
      dtype='object', length=126)",True,1000,True,100,0.0,0.0,f217fbc0c7
81,./expes/v3_2021-01-29_di_300-prng-1-w1-p100,daily_issda-300,300,first-300,49,16,rng,num-start-271,271,536,classic,6.649047136306763,True,,True,1.0,1.0,1.0,1,"Index(['3', '4', '6', '11', '12', '15', '23', '43', '45', '73', '79', '80',
       '89', '113', '114', '115', '117', '121', '122', '130', '133', '145',
       '146', '151', '152', '155', '156', '159', '163', '172', '179', '186',
       '192', '210', '214', '216', '217', '229', '234', '236', '238', '241',
       '247', '251', '254', '265', '268', '289', '297'],
      dtype='object')",False,1000,True,100,1.0,1.0,41d911c202
82,./expes/v3_2021-01-29_di_300-prng-1-w1-p100,daily_issda-300,300,first-300,28,9,rng,num-start-261,261,536,classic,5.990386486053467,True,,True,1.0,1.0,1.0,1,"Index(['1', '6', '31', '39', '45', '74', '75', '84', '103', '108', '117',
       '138', '141', '173', '174', '180', '189', '192', '196', '208', '226',
       '236', '243', '248', '263', '271', '286', '296'],
      dtype='object')",False,1000,True,100,1.0,1.0,03b98f2db4
83,./expes/v3_2021-01-29_di_300-prng-1-w1-p100,daily_issda-300,300,first-300,105,35,rng,num-start-221,221,536,classic,5.608877420425415,True,,True,1.0,1.0,1.0,1,"Index(['2', '4', '5', '9', '12', '14', '21', '23', '24', '35',
       ...
       '267', '271', '278', '280', '281', '292', '293', '296', '297', '300'],
      dtype='object', length=105)",False,1000,True,100,1.0,1.0,e1f2550f39
84,./expes/v3_2021-01-29_di_300-prng-1-w1-p100,daily_issda-300,300,first-300,84,28,rng,num-start-261,261,536,classic,6.749017953872681,True,,True,1.0,1.0,1.0,1,"Index(['3', '4', '5', '6', '7', '8', '11', '12', '15', '17', '23', '24', '25',
       '34', '37', '41', '43', '45', '48', '52', '59', '63', '73', '74', '79',
       '80', '85', '89', '92', '113', '114', '115', '117', '119', '121', '122',
       '123', '125', '130', '131', '133', '145', '146', '151', '152', '155',
       '156', '159', '163', '164', '172', '179', '186', '190', '192', '202',
       '205', '208', '210', '214', '216', '217', '228', '229', '233', '234',
       '236', '238', '241', '244', '245', '247', '251', '252', '254', '256',
       '262', '265', '268', '277', '278', '289', '297', '299'],
      dtype='object')",False,1000,True,100,1.0,1.0,4970fa035c
85,./expes/v3_2021-01-29_di_300-prng-1-w1-p100,daily_issda-300,300,first-300,63,21,rng,num-start-251,251,536,classic,6.151721954345703,True,,True,1.0,1.0,1.0,1,"Index(['2', '3', '4', '5', '9', '13', '21', '23', '27', '29', '33', '36', '42',
       '43', '44', '45', '53', '57', '58', '63', '68', '69', '71', '72', '81',
       '87', '96', '99', '102', '103', '104', '105', '108', '115', '122',
       '137', '144', '150', '170', '172', '174', '175', '192', '194', '195',
       '197', '204', '211', '216', '217', '218', '232', '238', '252', '255',
       '257', '258', '260', '276', '277', '284', '294', '297'],
      dtype='object')",False,1000,True,100,1.0,1.0,419d5ea2d0
86,./expes/v3_2021-01-29_di_300-prng-1-w1-p100,daily_issda-300,300,first-300,126,42,rng,num-start-211,211,536,classic,6.076642751693726,True,,True,1.0,1.0,1.0,1,"Index(['3', '4', '5', '6', '7', '8', '11', '12', '15', '16',
       ...
       '265', '268', '270', '274', '277', '278', '289', '294', '297', '299'],
      dtype='object', length=126)",False,1000,True,100,1.0,1.0,e22046ce00
87,./expes/v3_2021-01-29_di_300-prng-1-w1-p100,daily_issda-300,300,first-300,70,23,rng,num-start-51,51,536,classic,1001.0945944786072,False,,False,0.0,,,0,"Index(['6', '9', '10', '19', '25', '29', '34', '38', '41', '52', '60', '72',
       '76', '78', '81', '85', '89', '92', '101', '106', '107', '115', '118',
       '119', '121', '123', '135', '144', '147', '152', '157', '159', '160',
       '161', '162', '163', '174', '177', '182', '183', '185', '189', '199',
       '201', '203', '206', '208', '215', '216', '225', '231', '234', '237',
       '239', '240', '244', '251', '252', '254', '257', '258', '262', '267',
       '272', '274', '279', '285', '290', '292', '296'],
      dtype='object')",True,1000,True,100,0.0,0.0,8676093264
88,./expes/v3_2021-01-29_di_300-prng-1-w1-p100,daily_issda-300,300,first-300,112,37,rng,num-start-231,231,536,classic,7.349880218505859,True,,True,1.0,1.0,1.0,1,"Index(['7', '12', '20', '21', '24', '25', '26', '30', '31', '32',
       ...
       '289', '290', '293', '294', '295', '296', '297', '298', '299', '300'],
      dtype='object', length=112)",False,1000,True,100,1.0,1.0,23d27fd568
89,./expes/v3_2021-01-29_di_300-prng-1-w1-p100,daily_issda-300,300,first-300,105,35,rng,num-start-171,171,536,classic,5.233592748641968,True,,True,1.0,1.0,1.0,1,"Index(['4', '6', '7', '8', '11', '15', '16', '17', '19', '22',
       ...
       '282', '283', '287', '292', '293', '294', '296', '297', '298', '300'],
      dtype='object', length=105)",False,1000,True,100,1.0,1.0,ad2853484d
90,./expes/v3_2021-01-29_di_300-prng-1-w1-p100,daily_issda-300,300,first-300,35,11,rng,num-start-11,11,536,classic,1000.3888671398164,False,,False,0.0,,,0,"Index(['1', '3', '7', '15', '27', '37', '53', '58', '65', '68', '72', '81',
       '82', '85', '86', '94', '108', '111', '127', '128', '131', '144', '149',
       '161', '184', '191', '195', '200', '209', '228', '239', '241', '272',
       '279', '294'],
      dtype='object')",True,1000,True,100,0.0,0.0,bcc1726d87
91,./expes/v3_2021-01-29_di_300-prng-1-w1-p100,daily_issda-300,300,first-300,126,42,rng,num-start-31,31,536,classic,1000.7145142555236,False,,False,0.0,,,0,"Index(['3', '4', '5', '6', '7', '8', '11', '12', '15', '16',
       ...
       '265', '268', '270', '274', '277', '278', '289', '294', '297', '299'],
      dtype='object', length=126)",True,1000,True,100,0.0,0.0,eeab40b536
92,./expes/v3_2021-01-29_di_300-prng-1-w1-p100,daily_issda-300,300,first-300,84,28,rng,num-start-131,131,536,classic,5.7507164478302,True,,True,1.0,1.0,1.0,1,"Index(['1', '2', '3', '5', '7', '10', '12', '15', '19', '24', '27', '30', '34',
       '37', '53', '56', '58', '61', '65', '68', '72', '75', '81', '82', '85',
       '86', '91', '93', '94', '95', '101', '102', '105', '108', '111', '126',
       '127', '128', '129', '131', '132', '136', '144', '149', '152', '153',
       '155', '157', '159', '161', '162', '170', '174', '177', '182', '184',
       '185', '188', '189', '191', '193', '195', '197', '200', '207', '209',
       '213', '215', '222', '228', '232', '237', '239', '241', '242', '247',
       '263', '269', '272', '277', '279', '282', '294', '297'],
      dtype='object')",False,1000,True,100,1.0,1.0,4d27174226
93,./expes/v3_2021-01-29_di_300-prng-1-w1-p100,daily_issda-300,300,first-300,63,21,rng,num-start-101,101,536,classic,5.281167030334473,True,,True,1.0,1.0,1.0,1,"Index(['1', '7', '9', '12', '15', '19', '24', '42', '46', '48', '49', '50',
       '60', '62', '71', '75', '87', '97', '99', '100', '101', '102', '103',
       '108', '115', '126', '129', '134', '136', '138', '140', '150', '156',
       '160', '164', '171', '172', '183', '185', '186', '192', '195', '210',
       '212', '218', '221', '228', '241', '248', '249', '250', '251', '257',
       '258', '264', '268', '269', '276', '277', '284', '289', '294', '295'],
      dtype='object')",False,1000,True,100,1.0,1.0,f0c7407bd8
94,./expes/v3_2021-01-29_di_300-prng-1-w1-p100,daily_issda-300,300,first-300,7,2,rng,num-start-221,221,536,classic,5.159752607345581,True,,True,1.0,1.0,1.0,1,"Index(['25', '38', '49', '78', '166', '203', '275'], dtype='object')",False,1000,True,100,1.0,1.0,0e08eeb6ae
95,./expes/v3_2021-01-29_di_300-prng-1-w1-p100,daily_issda-300,300,first-300,119,39,rng,num-start-131,131,536,classic,7.831094026565552,True,,True,1.0,1.0,1.0,1,"Index(['2', '4', '5', '9', '12', '13', '14', '21', '23', '24',
       ...
       '271', '278', '280', '281', '288', '292', '293', '296', '297', '300'],
      dtype='object', length=119)",False,1000,True,100,1.0,1.0,269dbcf97c
96,./expes/v3_2021-01-29_di_300-prng-1-w1-p100,daily_issda-300,300,first-300,77,25,rng,num-start-91,91,536,classic,9.974116325378418,True,,True,1.0,1.0,1.0,1,"Index(['3', '5', '10', '14', '26', '27', '28', '30', '32', '33', '36', '42',
       '49', '57', '60', '64', '67', '71', '72', '73', '78', '88', '90', '99',
       '101', '102', '108', '110', '123', '128', '129', '130', '133', '137',
       '140', '142', '143', '149', '156', '158', '159', '163', '164', '170',
       '171', '172', '173', '179', '182', '185', '188', '191', '192', '197',
       '206', '208', '210', '213', '215', '222', '240', '243', '245', '257',
       '260', '268', '270', '273', '277', '283', '284', '285', '286', '287',
       '293', '295', '297'],
      dtype='object')",False,1000,True,100,1.0,1.0,ebb4a33d06
97,./expes/v3_2021-01-29_di_300-prng-1-w1-p100,daily_issda-300,300,first-300,28,9,rng,num-start-241,241,536,classic,5.795789241790772,True,,True,1.0,1.0,1.0,1,"Index(['7', '15', '27', '37', '53', '58', '65', '68', '72', '81', '82', '94',
       '111', '127', '128', '131', '144', '184', '191', '195', '200', '209',
       '228', '239', '241', '272', '279', '294'],
      dtype='object')",False,1000,True,100,1.0,1.0,827807f114
98,./expes/v3_2021-01-29_di_300-prng-1-w1-p100,daily_issda-300,300,first-300,14,4,rng,num-start-171,171,536,classic,4.206584215164185,True,,True,1.0,1.0,1.0,1,"Index(['1', '6', '74', '117', '138', '141', '180', '192', '196', '236', '243',
       '248', '271', '286'],
      dtype='object')",False,1000,True,100,1.0,1.0,7fb86194ec
99,./expes/v3_2021-01-29_di_300-prng-1-w1-p100,daily_issda-300,300,first-300,112,37,rng,num-start-271,271,536,classic,7.2624900341033936,True,,True,1.0,1.0,1.0,1,"Index(['1', '4', '7', '9', '10', '12', '15', '16', '19', '24',
       ...
       '271', '276', '277', '284', '286', '287', '289', '292', '294', '295'],
      dtype='object', length=112)",False,1000,True,100,1.0,1.0,0a90210a95
100,./expes/v3_2021-01-29_di_300-prng-1-w1-p100,daily_issda-300,300,first-300,98,32,rng,num-start-211,211,536,classic,5.738152503967285,True,,True,1.0,1.0,1.0,1,"Index(['4', '7', '8', '11', '15', '16', '17', '19', '22', '23', '24', '33',
       '34', '35', '40', '46', '50', '53', '54', '56', '61', '64', '67', '69',
       '70', '71', '78', '80', '82', '84', '99', '102', '109', '112', '119',
       '120', '121', '122', '133', '135', '137', '138', '143', '144', '146',
       '150', '151', '155', '159', '161', '168', '170', '173', '174', '177',
       '180', '185', '188', '190', '193', '194', '198', '199', '200', '203',
       '204', '209', '211', '213', '216', '219', '224', '228', '236', '241',
       '243', '244', '247', '248', '254', '259', '260', '267', '268', '274',
       '275', '277', '278', '279', '282', '283', '287', '292', '293', '294',
       '296', '298', '300'],
      dtype='object')",False,1000,True,100,1.0,1.0,d7c22813bb
101,./expes/v3_2021-01-29_di_300-prng-1-w1-p100,daily_issda-300,300,first-300,105,35,rng,num-start-41,41,536,classic,1000.954061985016,False,,False,0.0,,,0,"Index(['1', '3', '5', '11', '13', '15', '17', '19', '21', '23',
       ...
       '269', '270', '272', '279', '286', '287', '288', '291', '295', '298'],
      dtype='object', length=105)",True,1000,True,100,0.0,0.0,c4b76dadd0
102,./expes/v3_2021-01-29_di_300-prng-1-w1-p100,daily_issda-300,300,first-300,63,21,rng,num-start-121,121,536,classic,3.3675317764282227,True,,True,1.0,1.0,1.0,1,"Index(['2', '8', '16', '23', '37', '38', '44', '61', '65', '67', '68', '70',
       '72', '73', '76', '82', '91', '92', '96', '100', '104', '110', '116',
       '119', '120', '121', '130', '132', '133', '135', '142', '144', '149',
       '151', '161', '178', '183', '187', '188', '191', '200', '203', '218',
       '220', '221', '224', '226', '228', '230', '231', '236', '238', '250',
       '252', '255', '268', '273', '275', '282', '284', '289', '290', '296'],
      dtype='object')",False,1000,True,100,1.0,1.0,5cc1950656
103,./expes/v3_2021-01-29_di_300-prng-1-w1-p100,daily_issda-300,300,first-300,98,32,rng,num-start-41,41,536,classic,1000.9665958881378,False,,False,0.0,,,0,"Index(['2', '8', '16', '19', '20', '22', '23', '36', '37', '38', '40', '44',
       '48', '58', '61', '63', '65', '67', '68', '70', '71', '72', '73', '76',
       '82', '85', '86', '91', '92', '94', '96', '99', '100', '104', '109',
       '110', '116', '119', '120', '121', '122', '129', '130', '132', '133',
       '135', '138', '142', '144', '149', '151', '152', '155', '160', '161',
       '175', '176', '178', '180', '183', '184', '187', '188', '191', '192',
       '200', '203', '209', '212', '218', '220', '221', '224', '226', '228',
       '230', '231', '236', '238', '241', '250', '252', '255', '267', '268',
       '270', '273', '275', '279', '282', '284', '285', '289', '290', '292',
       '296', '298', '299'],
      dtype='object')",True,1000,True,100,0.0,0.0,a4d2c311f9
104,./expes/v3_2021-01-29_di_300-prng-1-w1-p100,daily_issda-300,300,first-300,28,9,rng,num-start-81,81,536,classic,1.9049103260040283,True,,True,1.0,1.0,1.0,1,"Index(['4', '21', '27', '33', '42', '53', '57', '68', '71', '81', '87', '96',
       '105', '115', '122', '137', '150', '172', '174', '192', '195', '197',
       '217', '232', '238', '258', '260', '284'],
      dtype='object')",False,1000,True,100,1.0,1.0,63deac6054
105,./expes/v3_2021-01-29_di_300-prng-1-w1-p100,daily_issda-300,300,first-300,7,2,rng,num-start-271,271,536,classic,5.837618350982666,True,,True,1.0,1.0,1.0,1,"Index(['29', '44', '47', '87', '129', '158', '185'], dtype='object')",False,1000,True,100,1.0,1.0,e3c49c99f6
106,./expes/v3_2021-01-29_di_300-prng-1-w1-p100,daily_issda-300,300,first-300,126,42,rng,num-start-31,31,536,classic,1000.6793551445008,False,,False,0.0,,,0,"Index(['3', '5', '10', '11', '14', '15', '26', '27', '28', '30',
       ...
       '284', '285', '286', '287', '289', '291', '293', '295', '296', '297'],
      dtype='object', length=126)",True,1000,True,100,0.0,0.0,e0361dd61b
107,./expes/v3_2021-01-29_di_300-prng-1-w1-p100,daily_issda-300,300,first-300,42,14,rng,num-start-91,91,536,classic,2.695008516311645,True,,True,1.0,1.0,1.0,1,"Index(['4', '59', '61', '63', '87', '90', '93', '94', '101', '102', '103',
       '104', '111', '113', '121', '122', '123', '130', '136', '139', '140',
       '152', '154', '156', '167', '172', '176', '178', '188', '208', '230',
       '235', '246', '251', '253', '260', '268', '270', '276', '283', '294',
       '295'],
      dtype='object')",False,1000,True,100,1.0,1.0,b59c51d8e3
108,./expes/v3_2021-01-29_di_300-prng-1-w1-p100,daily_issda-300,300,first-300,42,14,rng,num-start-211,211,536,classic,5.4807751178741455,True,,True,1.0,1.0,1.0,1,"Index(['8', '16', '37', '44', '61', '65', '67', '70', '72', '76', '91', '92',
       '96', '104', '110', '116', '119', '120', '132', '133', '135', '142',
       '149', '151', '161', '178', '183', '187', '220', '221', '224', '226',
       '228', '230', '231', '250', '268', '273', '275', '282', '284', '289'],
      dtype='object')",False,1000,True,100,1.0,1.0,da45354c4d
109,./expes/v3_2021-01-29_di_300-prng-1-w1-p100,daily_issda-300,300,first-300,84,28,rng,num-start-271,271,536,classic,7.144428014755249,True,,True,1.0,1.0,1.0,1,"Index(['4', '41', '45', '46', '48', '52', '59', '61', '63', '65', '67', '68',
       '69', '74', '75', '76', '78', '83', '87', '90', '93', '94', '98', '101',
       '102', '103', '104', '105', '106', '111', '113', '121', '122', '123',
       '128', '130', '133', '136', '139', '140', '145', '152', '154', '155',
       '156', '167', '172', '174', '176', '178', '181', '185', '188', '198',
       '202', '204', '205', '208', '209', '214', '224', '230', '235', '241',
       '245', '246', '251', '252', '253', '254', '257', '260', '263', '268',
       '270', '273', '274', '276', '279', '283', '291', '294', '295', '297'],
      dtype='object')",False,1000,True,100,1.0,1.0,1068ce8be0
110,./expes/v3_2021-01-29_di_300-prng-1-w1-p100,daily_issda-300,300,first-300,49,16,rng,num-start-21,21,536,classic,1000.5686028003691,False,,False,0.0,,,0,"Index(['3', '8', '16', '19', '22', '31', '33', '36', '43', '44', '47', '49',
       '56', '73', '81', '95', '96', '98', '101', '118', '120', '124', '131',
       '143', '148', '149', '151', '156', '162', '168', '203', '206', '209',
       '226', '229', '232', '235', '238', '239', '244', '256', '261', '263',
       '266', '271', '276', '283', '287', '289'],
      dtype='object')",True,1000,True,100,0.0,0.0,ff999637f4
111,./expes/v3_2021-01-29_di_300-prng-1-w1-p100,daily_issda-300,300,first-300,140,46,rng,num-start-91,91,536,classic,1001.9413034915924,False,,False,0.0,,,0,"Index(['4', '5', '10', '11', '14', '17', '19', '21', '22', '23',
       ...
       '274', '275', '280', '281', '282', '286', '290', '293', '294', '299'],
      dtype='object', length=140)",True,1000,True,100,0.0,0.0,42ca5edc5e
112,./expes/v3_2021-01-29_di_300-prng-1-w1-p100,daily_issda-300,300,first-300,70,23,rng,num-start-261,261,536,classic,7.017202138900757,True,,True,1.0,1.0,1.0,1,"Index(['2', '8', '16', '23', '37', '38', '44', '61', '65', '67', '68', '70',
       '71', '72', '73', '76', '82', '91', '92', '96', '100', '104', '110',
       '116', '119', '120', '121', '122', '129', '130', '132', '133', '135',
       '142', '144', '149', '151', '161', '178', '180', '183', '187', '188',
       '191', '192', '200', '203', '212', '218', '220', '221', '224', '226',
       '228', '230', '231', '236', '238', '250', '252', '255', '267', '268',
       '273', '275', '282', '284', '289', '290', '296'],
      dtype='object')",False,1000,True,100,1.0,1.0,9046830049
113,./expes/v3_2021-01-29_di_300-prng-1-w1-p100,daily_issda-300,300,first-300,63,21,rng,num-start-181,181,536,classic,4.891176223754883,True,,True,1.0,1.0,1.0,1,"Index(['13', '15', '19', '29', '44', '47', '70', '82', '83', '85', '86', '87',
       '89', '91', '94', '109', '114', '119', '121', '128', '129', '138',
       '143', '156', '158', '159', '164', '167', '180', '182', '185', '186',
       '187', '191', '195', '202', '205', '213', '217', '221', '228', '229',
       '233', '234', '237', '239', '246', '250', '251', '256', '257', '258',
       '261', '262', '264', '269', '270', '272', '279', '286', '287', '291',
       '298'],
      dtype='object')",False,1000,True,100,1.0,1.0,ce5c321eea
114,./expes/v3_2021-01-29_di_300-prng-1-w1-p100,daily_issda-300,300,first-300,77,25,rng,num-start-1,1,536,classic,303.27656650543213,False,,True,0.4057726892206219,0.3457113439123753,0.4636927950696534,10000,"Index(['4', '41', '45', '46', '48', '52', '59', '61', '63', '68', '69', '75',
       '76', '78', '83', '87', '90', '93', '94', '98', '101', '102', '103',
       '104', '105', '106', '111', '113', '121', '122', '123', '128', '130',
       '133', '136', '139', '140', '145', '152', '154', '156', '167', '172',
       '174', '176', '178', '181', '188', '198', '202', '205', '208', '209',
       '224', '230', '235', '241', '245', '246', '251', '252', '253', '254',
       '257', '260', '263', '268', '270', '273', '274', '276', '279', '283',
       '291', '294', '295', '297'],
      dtype='object')",False,1000,True,100,1.0,1.0,da6aa3a6cb
115,./expes/v3_2021-01-29_di_300-prng-1-w1-p100,daily_issda-300,300,first-300,56,18,rng,num-start-131,131,536,classic,3.661055088043213,True,,True,1.0,1.0,1.0,1,"Index(['2', '5', '12', '14', '15', '16', '18', '33', '49', '52', '53', '61',
       '62', '69', '96', '98', '108', '111', '113', '114', '118', '119', '120',
       '131', '137', '146', '149', '152', '156', '163', '171', '177', '195',
       '196', '200', '202', '214', '217', '222', '225', '229', '231', '236',
       '242', '246', '250', '254', '256', '257', '259', '260', '271', '278',
       '284', '285', '292'],
      dtype='object')",False,1000,True,100,1.0,1.0,b672187bea
116,./expes/v3_2021-01-29_di_300-prng-1-w1-p100,daily_issda-300,300,first-300,126,42,rng,num-start-271,271,536,classic,8.65317177772522,True,,True,1.0,1.0,1.0,1,"Index(['2', '4', '5', '9', '12', '13', '14', '21', '23', '24',
       ...
       '271', '278', '280', '281', '288', '292', '293', '296', '297', '300'],
      dtype='object', length=126)",False,1000,True,100,1.0,1.0,88669dc96e
117,./expes/v3_2021-01-29_di_300-prng-1-w1-p100,daily_issda-300,300,first-300,21,7,rng,num-start-211,211,536,classic,4.685873985290527,True,,True,1.0,1.0,1.0,1,"Index(['4', '21', '27', '42', '57', '68', '71', '81', '87', '96', '122', '137',
       '172', '174', '192', '195', '217', '232', '238', '258', '284'],
      dtype='object')",False,1000,True,100,1.0,1.0,0b37e48b50
118,./expes/v3_2021-01-29_di_300-prng-1-w1-p100,daily_issda-300,300,first-300,105,35,rng,num-start-121,121,536,classic,6.6002161502838135,True,,True,1.0,1.0,1.0,1,"Index(['1', '4', '7', '9', '10', '12', '15', '19', '24', '28',
       ...
       '269', '271', '276', '277', '284', '286', '287', '289', '294', '295'],
      dtype='object', length=105)",False,1000,True,100,1.0,1.0,3181595d9c
119,./expes/v3_2021-01-29_di_300-prng-1-w1-p100,daily_issda-300,300,first-300,28,9,rng,num-start-1,1,536,classic,402.0032756328583,False,,True,0.5898267941305808,0.5672287325853695,0.6342415220202724,10000,"Index(['1', '12', '19', '42', '46', '48', '49', '75', '99', '102', '134',
       '136', '140', '164', '172', '186', '192', '210', '212', '218', '241',
       '249', '251', '276', '277', '284', '289', '294'],
      dtype='object')",False,1000,True,100,1.0,1.0,482cab7cbd
120,./expes/v3_2021-01-29_di_300-prng-1-w1-p100,daily_issda-300,300,first-300,63,21,rng,num-start-181,181,536,classic,5.082283020019531,True,,True,1.0,1.0,1.0,1,"Index(['3', '10', '14', '26', '27', '30', '32', '33', '36', '42', '57', '60',
       '64', '67', '71', '72', '73', '78', '90', '99', '101', '108', '110',
       '123', '128', '129', '130', '137', '142', '143', '149', '156', '159',
       '163', '170', '173', '182', '185', '188', '191', '192', '197', '206',
       '208', '210', '213', '215', '222', '243', '245', '257', '260', '268',
       '270', '273', '277', '283', '284', '285', '286', '287', '293', '297'],
      dtype='object')",False,1000,True,100,1.0,1.0,2e35de3f37
121,./expes/v3_2021-01-29_di_300-prng-1-w1-p100,daily_issda-300,300,first-300,112,37,rng,num-start-211,211,536,classic,6.196226358413696,True,,True,1.0,1.0,1.0,1,"Index(['1', '3', '5', '6', '8', '9', '11', '16', '19', '22',
       ...
       '271', '276', '283', '284', '287', '289', '290', '295', '296', '299'],
      dtype='object', length=112)",False,1000,True,100,1.0,1.0,460f844139
122,./expes/v3_2021-01-29_di_300-prng-1-w1-p100,daily_issda-300,300,first-300,35,11,rng,num-start-291,291,536,classic,6.8320159912109375,True,,True,1.0,1.0,1.0,1,"Index(['13', '15', '19', '29', '44', '47', '70', '82', '85', '87', '89', '91',
       '109', '119', '121', '129', '138', '158', '164', '167', '185', '187',
       '191', '195', '202', '217', '221', '228', '239', '258', '261', '270',
       '279', '287', '298'],
      dtype='object')",False,1000,True,100,1.0,1.0,e0edcb1312
123,./expes/v3_2021-01-29_di_300-prng-1-w1-p100,daily_issda-300,300,first-300,35,11,rng,num-start-191,191,536,classic,5.100180149078369,True,,True,1.0,1.0,1.0,1,"Index(['2', '5', '12', '14', '15', '16', '33', '49', '53', '61', '69', '108',
       '111', '114', '118', '120', '131', '137', '163', '177', '195', '196',
       '200', '217', '222', '225', '229', '231', '242', '250', '254', '271',
       '278', '284', '292'],
      dtype='object')",False,1000,True,100,1.0,1.0,7293f0d07e
124,./expes/v3_2021-01-29_di_300-prng-1-w1-p100,daily_issda-300,300,first-300,84,28,rng,num-start-11,11,536,classic,1000.3410134315492,False,,False,0.0,,,0,"Index(['2', '4', '9', '12', '14', '23', '24', '35', '37', '38', '40', '47',
       '51', '52', '54', '56', '59', '62', '66', '69', '71', '76', '82', '88',
       '94', '99', '103', '104', '107', '108', '120', '126', '134', '135',
       '138', '146', '149', '151', '154', '155', '158', '160', '167', '168',
       '178', '189', '193', '199', '200', '202', '203', '207', '209', '211',
       '213', '216', '217', '220', '225', '226', '231', '232', '233', '234',
       '235', '237', '238', '239', '244', '246', '253', '257', '258', '262',
       '267', '271', '278', '280', '281', '292', '293', '296', '297', '300'],
      dtype='object')",True,1000,True,100,0.0,0.0,d82734d74c
125,./expes/v3_2021-01-29_di_300-prng-1-w1-p100,daily_issda-300,300,first-300,126,42,rng,num-start-21,21,536,classic,1000.4591588974,False,,False,0.0,,,0,"Index(['2', '4', '5', '9', '12', '13', '14', '21', '23', '24',
       ...
       '271', '278', '280', '281', '288', '292', '293', '296', '297', '300'],
      dtype='object', length=126)",True,1000,True,100,0.0,0.0,d532d06896
126,./expes/v3_2021-01-29_di_300-prng-1-w1-p100,daily_issda-300,300,first-300,14,4,rng,num-start-251,251,536,classic,6.188709259033203,True,,True,1.0,1.0,1.0,1,"Index(['23', '56', '62', '76', '103', '134', '149', '178', '202', '211', '262',
       '267', '271', '300'],
      dtype='object')",False,1000,True,100,1.0,1.0,9e620a3946
127,./expes/v3_2021-01-29_di_300-prng-1-w1-p100,daily_issda-300,300,first-300,21,7,rng,num-start-81,81,536,classic,2.084944486618042,True,,True,1.0,1.0,1.0,1,"Index(['2', '15', '33', '49', '53', '61', '69', '108', '118', '131', '137',
       '163', '195', '200', '222', '229', '231', '242', '250', '254', '292'],
      dtype='object')",False,1000,True,100,1.0,1.0,94a69eab05
128,./expes/v3_2021-01-29_di_300-prng-1-w1-p100,daily_issda-300,300,first-300,84,28,rng,num-start-31,31,536,classic,1000.6787178516388,False,,False,0.0,,,0,"Index(['2', '4', '9', '12', '14', '23', '24', '35', '37', '38', '40', '47',
       '51', '52', '54', '56', '59', '62', '66', '69', '71', '76', '82', '88',
       '94', '99', '103', '104', '107', '108', '120', '126', '134', '135',
       '138', '146', '149', '151', '154', '155', '158', '160', '167', '168',
       '178', '189', '193', '199', '200', '202', '203', '207', '209', '211',
       '213', '216', '217', '220', '225', '226', '231', '232', '233', '234',
       '235', '237', '238', '239', '244', '246', '253', '257', '258', '262',
       '267', '271', '278', '280', '281', '292', '293', '296', '297', '300'],
      dtype='object')",True,1000,True,100,0.0,0.0,f0c8b41793
129,./expes/v3_2021-01-29_di_300-prng-1-w1-p100,daily_issda-300,300,first-300,84,28,rng,num-start-181,181,536,classic,5.113287687301636,True,,True,1.0,1.0,1.0,1,"Index(['3', '5', '10', '11', '14', '26', '27', '28', '30', '32', '33', '36',
       '39', '42', '49', '57', '60', '64', '67', '71', '72', '73', '78', '88',
       '90', '99', '101', '102', '108', '110', '123', '128', '129', '130',
       '133', '137', '140', '142', '143', '149', '156', '158', '159', '163',
       '164', '170', '171', '172', '173', '179', '182', '185', '188', '191',
       '192', '197', '201', '206', '207', '208', '210', '213', '215', '222',
       '240', '243', '245', '249', '257', '260', '268', '269', '270', '273',
       '277', '283', '284', '285', '286', '287', '289', '293', '295', '297'],
      dtype='object')",False,1000,True,100,1.0,1.0,335470e57d
130,./expes/v3_2021-01-29_di_300-prng-1-w1-p100,daily_issda-300,300,first-300,56,18,rng,num-start-291,291,536,classic,7.519268989562988,True,,True,1.0,1.0,1.0,1,"Index(['8', '16', '37', '38', '44', '61', '65', '67', '68', '70', '72', '76',
       '91', '92', '96', '100', '104', '110', '116', '119', '120', '121',
       '130', '132', '133', '135', '142', '144', '149', '151', '161', '178',
       '183', '187', '188', '191', '203', '220', '221', '224', '226', '228',
       '230', '231', '236', '238', '250', '252', '268', '273', '275', '282',
       '284', '289', '290', '296'],
      dtype='object')",False,1000,True,100,1.0,1.0,c30bea1d35
131,./expes/v3_2021-01-29_di_300-prng-1-w1-p100,daily_issda-300,300,first-300,133,44,rng,num-start-181,181,536,classic,4.777033805847168,True,,True,1.0,1.0,1.0,1,"Index(['1', '6', '10', '11', '13', '15', '17', '18', '22', '27',
       ...
       '279', '280', '283', '284', '287', '288', '292', '293', '297', '299'],
      dtype='object', length=133)",False,1000,True,100,1.0,1.0,a064b97699
132,./expes/v3_2021-01-29_di_300-prng-1-w1-p100,daily_issda-300,300,first-300,133,44,rng,num-start-201,201,536,classic,6.137347936630249,True,,True,1.0,1.0,1.0,1,"Index(['1', '7', '8', '9', '12', '14', '17', '19', '20', '21',
       ...
       '279', '281', '283', '287', '291', '292', '294', '295', '297', '299'],
      dtype='object', length=133)",False,1000,True,100,1.0,1.0,45d812c8f2
133,./expes/v3_2021-01-29_di_300-prng-1-w1-p100,daily_issda-300,300,first-300,98,32,rng,num-start-261,261,536,classic,6.830697536468506,True,,True,1.0,1.0,1.0,1,"Index(['1', '8', '9', '17', '20', '21', '32', '33', '36', '38', '42', '43',
       '46', '47', '48', '49', '51', '52', '56', '60', '64', '67', '72', '73',
       '76', '77', '88', '95', '96', '97', '98', '105', '111', '112', '113',
       '114', '121', '123', '124', '125', '129', '133', '134', '139', '141',
       '142', '145', '148', '149', '150', '155', '156', '159', '162', '163',
       '164', '167', '170', '171', '172', '182', '183', '184', '191', '198',
       '201', '205', '208', '215', '216', '223', '227', '228', '230', '231',
       '242', '244', '245', '249', '250', '251', '253', '259', '261', '262',
       '267', '268', '269', '273', '277', '279', '281', '283', '287', '291',
       '295', '297', '299'],
      dtype='object')",False,1000,True,100,1.0,1.0,edcb721af1
134,./expes/v3_2021-01-29_di_300-prng-1-w1-p100,daily_issda-300,300,first-300,70,23,rng,num-start-61,61,536,classic,1001.1910507678986,False,,False,0.0,,,0,"Index(['1', '6', '10', '15', '16', '17', '27', '31', '32', '39', '43', '45',
       '47', '58', '59', '70', '74', '75', '84', '88', '92', '99', '103',
       '108', '115', '117', '121', '130', '134', '138', '141', '159', '161',
       '172', '173', '174', '180', '183', '186', '187', '189', '191', '192',
       '196', '197', '198', '206', '208', '215', '217', '221', '226', '228',
       '236', '241', '243', '245', '248', '257', '260', '261', '262', '263',
       '271', '277', '278', '285', '286', '294', '296'],
      dtype='object')",True,1000,True,100,0.0,0.0,5daa406f1b
135,./expes/v3_2021-01-29_di_300-prng-1-w1-p100,daily_issda-300,300,first-300,133,44,rng,num-start-131,131,536,classic,7.299731969833374,True,,True,1.0,1.0,1.0,1,"Index(['4', '5', '10', '11', '14', '17', '19', '21', '22', '23',
       ...
       '271', '274', '275', '280', '281', '282', '286', '293', '294', '299'],
      dtype='object', length=133)",False,1000,True,100,1.0,1.0,af5c24aca7
136,./expes/v3_2021-01-29_di_300-prng-1-w1-p100,daily_issda-300,300,first-300,63,21,rng,num-start-161,161,536,classic,4.529501438140869,True,,True,1.0,1.0,1.0,1,"Index(['7', '8', '15', '16', '19', '22', '33', '34', '50', '54', '64', '67',
       '69', '70', '78', '82', '84', '99', '109', '112', '119', '120', '122',
       '133', '137', '138', '144', '146', '155', '168', '173', '180', '188',
       '190', '198', '199', '200', '203', '204', '209', '216', '219', '224',
       '228', '241', '243', '244', '247', '254', '260', '268', '274', '277',
       '278', '279', '282', '283', '292', '293', '294', '296', '298', '300'],
      dtype='object')",False,1000,True,100,1.0,1.0,97086aeb82
137,./expes/v3_2021-01-29_di_300-prng-1-w1-p100,daily_issda-300,300,first-300,35,11,rng,num-start-211,211,536,classic,5.352511405944824,True,,True,1.0,1.0,1.0,1,"Index(['11', '14', '31', '35', '45', '47', '53', '55', '80', '85', '89', '92',
       '100', '110', '114', '121', '128', '134', '135', '140', '142', '149',
       '156', '159', '173', '185', '191', '199', '203', '206', '246', '260',
       '267', '275', '282'],
      dtype='object')",False,1000,True,100,1.0,1.0,190679c703
138,./expes/v3_2021-01-29_di_300-prng-1-w1-p100,daily_issda-300,300,first-300,98,32,rng,num-start-81,81,536,classic,1001.66756606102,False,,False,0.0,,,0,"Index(['3', '8', '17', '18', '19', '23', '33', '34', '37', '39', '41', '42',
       '50', '58', '62', '69', '72', '74', '77', '81', '82', '83', '85', '86',
       '90', '91', '92', '98', '100', '106', '115', '121', '123', '124', '125',
       '126', '128', '135', '137', '140', '141', '143', '146', '155', '156',
       '161', '164', '167', '168', '170', '178', '179', '182', '185', '186',
       '188', '192', '193', '196', '197', '200', '206', '208', '212', '213',
       '216', '220', '222', '223', '224', '226', '227', '229', '230', '231',
       '234', '237', '241', '246', '248', '251', '252', '254', '255', '256',
       '257', '267', '268', '269', '274', '275', '279', '282', '291', '293',
       '296', '299', '300'],
      dtype='object')",True,1000,True,100,0.0,0.0,d6f3b59e73
139,./expes/v3_2021-01-29_di_300-prng-1-w1-p100,daily_issda-300,300,first-300,56,18,rng,num-start-91,91,536,classic,4.860358238220215,True,,True,1.0,1.0,1.0,1,"Index(['1', '3', '8', '9', '16', '19', '22', '27', '31', '33', '35', '36',
       '43', '44', '47', '49', '56', '73', '81', '95', '96', '98', '101',
       '108', '110', '118', '120', '124', '131', '143', '148', '149', '151',
       '156', '162', '168', '198', '203', '206', '209', '226', '229', '232',
       '235', '238', '239', '244', '256', '261', '263', '266', '271', '276',
       '283', '287', '289'],
      dtype='object')",False,1000,True,100,1.0,1.0,c9d365c710
140,./expes/v3_2021-01-29_di_300-prng-1-w1-p100,daily_issda-300,300,first-300,98,32,rng,num-start-101,101,536,classic,67.55819606781006,True,,True,1.0,1.0,1.0,1,"Index(['1', '2', '3', '4', '5', '9', '10', '13', '14', '18', '21', '22', '23',
       '27', '28', '29', '33', '36', '42', '43', '44', '45', '46', '48', '53',
       '57', '58', '63', '68', '69', '71', '72', '75', '77', '81', '83', '87',
       '89', '96', '99', '102', '103', '104', '105', '108', '110', '114',
       '115', '122', '137', '138', '139', '144', '146', '150', '158', '167',
       '169', '170', '172', '174', '175', '178', '188', '192', '194', '195',
       '196', '197', '204', '206', '207', '211', '216', '217', '218', '222',
       '228', '232', '238', '252', '255', '257', '258', '259', '260', '265',
       '268', '276', '277', '284', '285', '287', '290', '294', '295', '297',
       '300'],
      dtype='object')",False,1000,True,100,1.0,1.0,4ff034cffa
141,./expes/v3_2021-01-29_di_300-prng-1-w1-p100,daily_issda-300,300,first-300,63,21,rng,num-start-141,141,536,classic,4.195077657699585,True,,True,1.0,1.0,1.0,1,"Index(['2', '3', '4', '5', '9', '13', '21', '23', '27', '29', '33', '36', '42',
       '43', '44', '45', '53', '57', '58', '63', '68', '69', '71', '72', '81',
       '87', '96', '99', '102', '103', '104', '105', '108', '115', '122',
       '137', '144', '150', '170', '172', '174', '175', '192', '194', '195',
       '197', '204', '211', '216', '217', '218', '232', '238', '252', '255',
       '257', '258', '260', '276', '277', '284', '294', '297'],
      dtype='object')",False,1000,True,100,1.0,1.0,bb77b4cdbc
142,./expes/v3_2021-01-29_di_300-prng-1-w1-p100,daily_issda-300,300,first-300,56,18,rng,num-start-21,21,536,classic,1000.5244579315186,False,,False,0.0,,,0,"Index(['1', '12', '15', '19', '24', '42', '46', '48', '49', '50', '60', '62',
       '71', '75', '99', '100', '101', '102', '103', '115', '126', '129',
       '134', '136', '138', '140', '150', '156', '160', '164', '172', '183',
       '185', '186', '192', '195', '210', '212', '218', '221', '228', '241',
       '248', '249', '250', '251', '257', '258', '264', '269', '276', '277',
       '284', '289', '294', '295'],
      dtype='object')",True,1000,True,100,0.0,0.0,52579ae3f4
143,./expes/v3_2021-01-29_di_300-prng-1-w1-p100,daily_issda-300,300,first-300,21,7,rng,num-start-281,281,536,classic,5.881615161895752,True,,True,1.0,1.0,1.0,1,"Index(['8', '22', '33', '47', '49', '73', '81', '95', '96', '98', '156', '203',
       '229', '232', '239', '244', '261', '263', '271', '276', '287'],
      dtype='object')",False,1000,True,100,1.0,1.0,12e888ed07
144,./expes/v3_2021-01-29_di_300-prng-1-w1-p100,daily_issda-300,300,first-300,35,11,rng,num-start-151,151,536,classic,3.767393350601196,True,,True,1.0,1.0,1.0,1,"Index(['3', '6', '11', '12', '15', '45', '73', '79', '89', '113', '114', '115',
       '117', '122', '130', '133', '146', '152', '155', '159', '172', '179',
       '186', '210', '214', '216', '217', '229', '234', '238', '241', '247',
       '254', '265', '289'],
      dtype='object')",False,1000,True,100,1.0,1.0,455e39073c
145,./expes/v3_2021-01-29_di_300-prng-1-w1-p100,daily_issda-300,300,first-300,7,2,rng,num-start-71,71,536,classic,1.6657073497772217,True,,True,1.0,1.0,1.0,1,"Index(['63', '93', '102', '123', '172', '230', '251'], dtype='object')",False,1000,True,100,1.0,1.0,88ba9ea0b9
146,./expes/v3_2021-01-29_di_300-prng-1-w1-p100,daily_issda-300,300,first-300,21,7,rng,num-start-31,31,536,classic,22.66002082824707,True,,True,1.0,1.0,1.0,1,"Index(['4', '21', '27', '42', '57', '68', '71', '81', '87', '96', '122', '137',
       '172', '174', '192', '195', '217', '232', '238', '258', '284'],
      dtype='object')",False,1000,True,100,1.0,1.0,c2f0450574
147,./expes/v3_2021-01-29_di_300-prng-1-w1-p100,daily_issda-300,300,first-300,112,37,rng,num-start-141,141,536,classic,3.9229660034179688,True,,True,1.0,1.0,1.0,1,"Index(['1', '2', '3', '4', '5', '9', '10', '13', '14', '16',
       ...
       '276', '277', '284', '285', '287', '290', '294', '295', '297', '300'],
      dtype='object', length=112)",False,1000,True,100,1.0,1.0,4f4cbb754f
148,./expes/v3_2021-01-29_di_300-prng-1-w1-p100,daily_issda-300,300,first-300,14,4,rng,num-start-231,231,536,classic,5.258392572402954,True,,True,1.0,1.0,1.0,1,"Index(['7', '34', '67', '99', '120', '122', '133', '190', '241', '243', '277',
       '279', '283', '298'],
      dtype='object')",False,1000,True,100,1.0,1.0,f15cc5db39
149,./expes/v3_2021-01-29_di_300-prng-1-w1-p100,daily_issda-300,300,first-300,7,2,rng,num-start-91,91,536,classic,2.184403896331787,True,,True,1.0,1.0,1.0,1,"Index(['29', '44', '47', '87', '129', '158', '185'], dtype='object')",False,1000,True,100,1.0,1.0,b97a83b7de
150,./expes/v3_2021-01-29_di_300-prng-1-w1-p100,daily_issda-300,300,first-300,91,30,rng,num-start-271,271,536,classic,6.172947645187378,True,,True,1.0,1.0,1.0,1,"Index(['1', '7', '9', '10', '12', '15', '19', '24', '28', '40', '42', '44',
       '46', '48', '49', '50', '60', '62', '64', '65', '71', '75', '87', '89',
       '95', '97', '99', '100', '101', '102', '103', '108', '115', '126',
       '129', '131', '132', '134', '136', '137', '138', '140', '149', '150',
       '156', '157', '160', '164', '169', '171', '172', '183', '185', '186',
       '192', '194', '195', '200', '204', '210', '211', '212', '216', '217',
       '218', '219', '221', '226', '228', '229', '232', '241', '242', '248',
       '249', '250', '251', '257', '258', '264', '265', '268', '269', '271',
       '276', '277', '284', '286', '289', '294', '295'],
      dtype='object')",False,1000,True,100,1.0,1.0,8bd2af04f6
151,./expes/v3_2021-01-29_di_300-prng-1-w1-p100,daily_issda-300,300,first-300,126,42,rng,num-start-261,261,536,classic,7.165872812271118,True,,True,1.0,1.0,1.0,1,"Index(['2', '4', '5', '9', '12', '13', '14', '21', '23', '24',
       ...
       '271', '278', '280', '281', '288', '292', '293', '296', '297', '300'],
      dtype='object', length=126)",False,1000,True,100,1.0,1.0,9949edccd2
152,./expes/v3_2021-01-29_di_300-prng-1-w1-p100,daily_issda-300,300,first-300,98,32,rng,num-start-1,1,536,classic,312.6091763973236,False,,True,0.3460171901780277,0.3206337795132425,0.3825286217078288,10000,"Index(['12', '20', '21', '24', '25', '26', '30', '31', '32', '33', '34', '36',
       '38', '40', '42', '45', '47', '48', '49', '50', '53', '60', '61', '64',
       '67', '69', '74', '78', '85', '87', '93', '97', '106', '110', '112',
       '114', '115', '124', '125', '127', '128', '139', '146', '148', '149',
       '154', '158', '159', '161', '166', '175', '176', '178', '180', '182',
       '186', '188', '191', '198', '201', '203', '204', '215', '216', '218',
       '219', '223', '229', '230', '233', '234', '237', '239', '243', '251',
       '253', '254', '255', '260', '263', '269', '273', '275', '277', '281',
       '283', '286', '287', '289', '290', '293', '294', '295', '296', '297',
       '298', '299', '300'],
      dtype='object')",False,1000,True,100,1.0,1.0,8a52dd24b3
153,./expes/v3_2021-01-29_di_300-prng-1-w1-p100,daily_issda-300,300,first-300,14,4,rng,num-start-171,171,536,classic,3.909942865371704,True,,True,1.0,1.0,1.0,1,"Index(['6', '9', '19', '29', '60', '76', '81', '107', '123', '174', '183',
       '189', '239', '267'],
      dtype='object')",False,1000,True,100,1.0,1.0,5babe7ae53
154,./expes/v3_2021-01-29_di_300-prng-1-w1-p100,daily_issda-300,300,first-300,119,39,rng,num-start-281,281,536,classic,8.000311374664307,True,,True,1.0,1.0,1.0,1,"Index(['1', '2', '3', '5', '7', '8', '9', '12', '14', '15',
       ...
       '281', '282', '283', '284', '285', '288', '292', '296', '297', '300'],
      dtype='object', length=119)",False,1000,True,100,1.0,1.0,1a375460ab
155,./expes/v3_2021-01-29_di_300-prng-1-w1-p100,daily_issda-300,300,first-300,77,25,rng,num-start-151,151,536,classic,4.586876392364502,True,,True,1.0,1.0,1.0,1,"Index(['6', '10', '15', '35', '36', '38', '43', '46', '48', '49', '53', '55',
       '58', '59', '61', '63', '74', '77', '83', '85', '87', '93', '100',
       '105', '112', '115', '121', '127', '131', '132', '134', '135', '137',
       '139', '141', '143', '144', '145', '150', '156', '159', '162', '173',
       '184', '185', '187', '196', '198', '202', '204', '207', '211', '214',
       '218', '224', '225', '226', '231', '232', '234', '236', '239', '243',
       '246', '249', '250', '251', '257', '264', '265', '270', '274', '283',
       '292', '293', '297', '299'],
      dtype='object')",False,1000,True,100,1.0,1.0,6ab29240d9
156,./expes/v3_2021-01-29_di_300-prng-1-w1-p100,daily_issda-300,300,first-300,98,32,rng,num-start-181,181,536,classic,5.2419984340667725,True,,True,1.0,1.0,1.0,1,"Index(['12', '20', '21', '24', '25', '26', '30', '31', '32', '33', '34', '36',
       '38', '40', '42', '45', '47', '48', '49', '50', '53', '60', '61', '64',
       '67', '69', '74', '78', '85', '87', '93', '97', '106', '110', '112',
       '114', '115', '124', '125', '127', '128', '139', '146', '148', '149',
       '154', '158', '159', '161', '166', '175', '176', '178', '180', '182',
       '186', '188', '191', '198', '201', '203', '204', '215', '216', '218',
       '219', '223', '229', '230', '233', '234', '237', '239', '243', '251',
       '253', '254', '255', '260', '263', '269', '273', '275', '277', '281',
       '283', '286', '287', '289', '290', '293', '294', '295', '296', '297',
       '298', '299', '300'],
      dtype='object')",False,1000,True,100,1.0,1.0,6597f95f14
157,./expes/v3_2021-01-29_di_300-prng-1-w1-p100,daily_issda-300,300,first-300,42,14,rng,num-start-71,71,536,classic,24.74810791015625,True,,True,1.0,1.0,1.0,1,"Index(['3', '8', '17', '18', '23', '39', '69', '72', '83', '90', '100', '106',
       '121', '123', '128', '135', '143', '146', '156', '161', '168', '182',
       '185', '186', '188', '193', '196', '216', '220', '226', '231', '234',
       '237', '248', '251', '252', '267', '275', '282', '293', '296', '299'],
      dtype='object')",False,1000,True,100,1.0,1.0,1abfe50507
158,./expes/v3_2021-01-29_di_300-prng-1-w1-p100,daily_issda-300,300,first-300,84,28,rng,num-start-71,71,536,classic,1001.4636888504028,False,,False,0.0,,,0,"Index(['4', '7', '8', '11', '15', '16', '19', '22', '23', '24', '33', '34',
       '35', '40', '46', '50', '54', '56', '61', '64', '67', '69', '70', '78',
       '82', '84', '99', '109', '112', '119', '120', '121', '122', '133',
       '137', '138', '143', '144', '146', '151', '155', '159', '168', '170',
       '173', '177', '180', '188', '190', '194', '198', '199', '200', '203',
       '204', '209', '211', '213', '216', '219', '224', '228', '241', '243',
       '244', '247', '248', '254', '259', '260', '268', '274', '275', '277',
       '278', '279', '282', '283', '292', '293', '294', '296', '298', '300'],
      dtype='object')",True,1000,True,100,0.0,0.0,729620cdfb
159,./expes/v3_2021-01-29_di_300-prng-1-w1-p100,daily_issda-300,300,first-300,105,35,rng,num-start-11,11,536,classic,1000.2792630195618,False,,False,0.0,,,0,"Index(['3', '5', '10', '11', '14', '26', '27', '28', '30', '32',
       ...
       '279', '283', '284', '285', '286', '287', '289', '293', '295', '297'],
      dtype='object', length=105)",True,1000,True,100,0.0,0.0,846ffea11b
160,./expes/v3_2021-01-29_di_300-prng-1-w1-p100,daily_issda-300,300,first-300,70,23,rng,num-start-111,111,536,classic,5.800689935684204,True,,True,1.0,1.0,1.0,1,"Index(['1', '3', '8', '9', '16', '19', '22', '27', '31', '33', '35', '36',
       '38', '43', '44', '45', '47', '49', '56', '61', '73', '81', '95', '96',
       '98', '101', '102', '108', '110', '118', '120', '124', '131', '139',
       '143', '148', '149', '151', '156', '160', '162', '168', '171', '173',
       '193', '198', '203', '204', '206', '209', '210', '215', '226', '229',
       '232', '235', '238', '239', '241', '244', '256', '261', '263', '266',
       '271', '276', '283', '287', '289', '290'],
      dtype='object')",False,1000,True,100,1.0,1.0,3bc4deb32d
161,./expes/v3_2021-01-29_di_300-prng-1-w1-p100,daily_issda-300,300,first-300,7,2,rng,num-start-31,31,536,classic,1.0489420890808103,True,,True,1.0,1.0,1.0,1,"Index(['34', '67', '122', '190', '243', '279', '298'], dtype='object')",False,1000,True,100,1.0,1.0,3038acdc87
162,./expes/v3_2021-01-29_di_300-prng-1-w1-p100,daily_issda-300,300,first-300,28,9,rng,num-start-111,111,536,classic,3.084535598754883,True,,True,1.0,1.0,1.0,1,"Index(['2', '5', '12', '14', '15', '16', '33', '49', '53', '61', '69', '108',
       '111', '118', '131', '137', '163', '195', '196', '200', '222', '229',
       '231', '242', '250', '254', '278', '292'],
      dtype='object')",False,1000,True,100,1.0,1.0,89afa8b967
163,./expes/v3_2021-01-29_di_300-prng-1-w1-p100,daily_issda-300,300,first-300,126,42,rng,num-start-51,51,536,classic,1001.1577498912812,False,,False,0.0,,,0,"Index(['1', '4', '7', '8', '9', '10', '12', '15', '16', '19',
       ...
       '276', '277', '283', '284', '286', '287', '289', '292', '294', '295'],
      dtype='object', length=126)",True,1000,True,100,0.0,0.0,72ea714547
164,./expes/v3_2021-01-29_di_300-prng-1-w1-p100,daily_issda-300,300,first-300,7,2,rng,num-start-261,261,536,classic,5.956938743591309,True,,True,1.0,1.0,1.0,1,"Index(['95', '98', '232', '239', '261', '263', '287'], dtype='object')",False,1000,True,100,1.0,1.0,d77f10bb82
165,./expes/v3_2021-01-29_di_300-prng-1-w1-p100,daily_issda-300,300,first-300,7,2,rng,num-start-61,61,536,classic,1.6643881797790527,True,,True,1.0,1.0,1.0,1,"Index(['95', '98', '232', '239', '261', '263', '287'], dtype='object')",False,1000,True,100,1.0,1.0,559dbbe076
166,./expes/v3_2021-01-29_di_300-prng-1-w1-p100,daily_issda-300,300,first-300,49,16,rng,num-start-211,211,536,classic,5.082061290740967,True,,True,1.0,1.0,1.0,1,"Index(['1', '12', '15', '19', '24', '42', '46', '48', '49', '50', '62', '75',
       '99', '100', '101', '102', '103', '126', '129', '134', '136', '140',
       '150', '156', '164', '172', '183', '185', '186', '192', '210', '212',
       '218', '221', '228', '241', '249', '250', '251', '257', '258', '264',
       '269', '276', '277', '284', '289', '294', '295'],
      dtype='object')",False,1000,True,100,1.0,1.0,f3996f88ee
167,./expes/v3_2021-01-29_di_300-prng-1-w1-p100,daily_issda-300,300,first-300,42,14,rng,num-start-91,91,536,classic,4.203404903411865,True,,True,1.0,1.0,1.0,1,"Index(['4', '11', '14', '31', '35', '45', '46', '47', '53', '55', '80', '85',
       '89', '92', '100', '110', '114', '121', '127', '128', '134', '135',
       '140', '142', '144', '149', '154', '156', '159', '173', '185', '191',
       '199', '203', '206', '243', '246', '260', '267', '275', '281', '282'],
      dtype='object')",False,1000,True,100,1.0,1.0,d4179e169a
168,./expes/v3_2021-01-29_di_300-prng-1-w1-p100,daily_issda-300,300,first-300,140,46,rng,num-start-151,151,536,classic,4.923017740249634,True,,True,1.0,1.0,1.0,1,"Index(['1', '7', '8', '9', '12', '14', '17', '19', '20', '21',
       ...
       '281', '283', '287', '288', '291', '292', '294', '295', '297', '299'],
      dtype='object', length=140)",False,1000,True,100,1.0,1.0,53f78a04e2
