,expe,clients,clients_size,clients_subset,agg_size,agg_size_pc,method,days,days_size,days_total,noise_method,time,valid,valid_sum,success,score_avg,score_min,score_max,nsols,oracle,wall_hit,wall_time,pooled,pool_size,optimal,valid_sums,uuid
0,./expes/v3_2021-01-29_di_300-prng-1-w1-p100,daily_issda-300,300,first-300,77,25,rng,num-start-201,201,536,classic,9.60632872581482,True,,True,1.0,1.0,1.0,1,"Index(['1', '7', '9', '12', '15', '19', '24', '28', '40', '42', '46', '48',
       '49', '50', '60', '62', '65', '71', '75', '87', '95', '97', '99', '100',
       '101', '102', '103', '108', '115', '126', '129', '134', '136', '138',
       '140', '149', '150', '156', '157', '160', '164', '171', '172', '183',
       '185', '186', '192', '194', '195', '200', '204', '210', '212', '217',
       '218', '221', '226', '228', '229', '241', '248', '249', '250', '251',
       '257', '258', '264', '268', '269', '271', '276', '277', '284', '286',
       '289', '294', '295'],
      dtype='object')",False,1000,True,100,1.0,1.0,b02389a21f
1,./expes/v3_2021-01-29_di_300-prng-1-w1-p100,daily_issda-300,300,first-300,91,30,rng,num-start-171,171,536,classic,7.917729616165161,True,,True,1.0,1.0,1.0,1,"Index(['1', '2', '3', '5', '7', '10', '12', '15', '19', '24', '27', '30', '34',
       '37', '47', '53', '56', '58', '61', '65', '68', '72', '75', '76', '81',
       '82', '85', '86', '91', '93', '94', '95', '101', '102', '105', '107',
       '108', '111', '126', '127', '128', '129', '131', '132', '136', '142',
       '144', '149', '152', '153', '155', '157', '159', '161', '162', '170',
       '174', '175', '177', '182', '184', '185', '186', '188', '189', '191',
       '193', '195', '197', '200', '207', '209', '213', '215', '222', '228',
       '232', '237', '239', '241', '242', '247', '263', '269', '272', '277',
       '279', '280', '282', '294', '297'],
      dtype='object')",False,1000,True,100,1.0,1.0,94fceba2c8
2,./expes/v3_2021-01-29_di_300-prng-1-w1-p100,daily_issda-300,300,first-300,119,39,rng,num-start-221,221,536,classic,10.222506523132324,True,,True,1.0,1.0,1.0,1,"Index(['2', '5', '6', '8', '9', '10', '16', '19', '22', '23',
       ...
       '266', '267', '272', '274', '279', '281', '285', '290', '292', '296'],
      dtype='object', length=119)",False,1000,True,100,1.0,1.0,b67bdca88c
3,./expes/v3_2021-01-29_di_300-prng-1-w1-p100,daily_issda-300,300,first-300,77,25,rng,num-start-91,91,536,classic,19.658477544784542,True,,True,1.0,1.0,1.0,1,"Index(['3', '4', '5', '6', '7', '8', '11', '12', '15', '17', '23', '34', '37',
       '41', '43', '45', '48', '52', '63', '73', '74', '79', '80', '85', '89',
       '113', '114', '115', '117', '119', '121', '122', '125', '130', '133',
       '145', '146', '151', '152', '155', '156', '159', '163', '164', '172',
       '179', '186', '190', '192', '202', '205', '208', '210', '214', '216',
       '217', '228', '229', '233', '234', '236', '238', '241', '244', '245',
       '247', '251', '252', '254', '256', '262', '265', '268', '277', '278',
       '289', '297'],
      dtype='object')",False,1000,True,100,1.0,1.0,fc8b960811
4,./expes/v3_2021-01-29_di_300-prng-1-w1-p100,daily_issda-300,300,first-300,28,9,rng,num-start-81,81,536,classic,3.31492280960083,True,,True,1.0,1.0,1.0,1,"Index(['3', '6', '11', '12', '15', '73', '79', '113', '114', '115', '117',
       '122', '130', '133', '146', '152', '155', '159', '172', '186', '210',
       '214', '216', '229', '234', '238', '241', '247'],
      dtype='object')",False,1000,True,100,1.0,1.0,aadb681910
5,./expes/v3_2021-01-29_di_300-prng-1-w1-p100,daily_issda-300,300,first-300,42,14,rng,num-start-181,181,536,classic,7.70275092124939,True,,True,1.0,1.0,1.0,1,"Index(['13', '15', '19', '29', '44', '47', '70', '82', '85', '87', '89', '91',
       '94', '109', '119', '121', '129', '138', '158', '164', '167', '182',
       '185', '187', '191', '195', '202', '213', '217', '221', '228', '229',
       '239', '258', '261', '262', '264', '269', '270', '279', '287', '298'],
      dtype='object')",False,1000,True,100,1.0,1.0,97e8f62171
6,./expes/v3_2021-01-29_di_300-prng-1-w1-p100,daily_issda-300,300,first-300,42,14,rng,num-start-191,191,536,classic,8.288703441619873,True,,True,1.0,1.0,1.0,1,"Index(['4', '11', '14', '31', '35', '45', '46', '47', '53', '55', '80', '85',
       '89', '92', '100', '110', '114', '121', '127', '128', '134', '135',
       '140', '142', '144', '149', '154', '156', '159', '173', '185', '191',
       '199', '203', '206', '243', '246', '260', '267', '275', '281', '282'],
      dtype='object')",False,1000,True,100,1.0,1.0,c742c9eb36
7,./expes/v3_2021-01-29_di_300-prng-1-w1-p100,daily_issda-300,300,first-300,42,14,rng,num-start-181,181,536,classic,8.029220581054688,True,,True,1.0,1.0,1.0,1,"Index(['1', '6', '10', '27', '31', '32', '39', '45', '47', '58', '70', '74',
       '75', '84', '88', '103', '108', '115', '117', '138', '141', '161',
       '173', '174', '180', '189', '192', '196', '208', '217', '226', '228',
       '236', '243', '248', '261', '263', '271', '277', '285', '286', '296'],
      dtype='object')",False,1000,True,100,1.0,1.0,843188c244
8,./expes/v3_2021-01-29_di_300-prng-1-w1-p100,daily_issda-300,300,first-300,77,25,rng,num-start-231,231,536,classic,9.953141689300535,True,,True,1.0,1.0,1.0,1,"Index(['4', '11', '14', '23', '24', '31', '32', '35', '42', '45', '46', '47',
       '52', '53', '55', '75', '80', '83', '85', '89', '92', '95', '100',
       '101', '102', '104', '110', '114', '118', '120', '121', '127', '128',
       '133', '134', '135', '140', '142', '144', '148', '149', '150', '154',
       '156', '157', '159', '160', '165', '166', '173', '176', '183', '185',
       '191', '199', '203', '206', '212', '217', '221', '224', '226', '232',
       '237', '242', '243', '246', '260', '261', '266', '267', '274', '275',
       '281', '282', '286', '294'],
      dtype='object')",False,1000,True,100,1.0,1.0,e0077bc119
9,./expes/v3_2021-01-29_di_300-prng-1-w1-p100,daily_issda-300,300,first-300,91,30,rng,num-start-101,101,536,classic,17.582242965698242,True,,True,1.0,1.0,1.0,1,"Index(['2', '3', '5', '7', '12', '14', '15', '16', '18', '23', '33', '45',
       '49', '52', '53', '56', '61', '62', '67', '69', '84', '87', '88', '89',
       '96', '98', '103', '108', '111', '113', '114', '117', '118', '119',
       '120', '125', '131', '137', '138', '146', '149', '152', '156', '158',
       '163', '171', '177', '181', '188', '190', '192', '195', '196', '197',
       '200', '202', '207', '208', '213', '214', '217', '222', '225', '229',
       '231', '236', '241', '242', '246', '250', '251', '254', '256', '257',
       '258', '259', '260', '261', '263', '264', '266', '267', '271', '277',
       '278', '281', '284', '285', '292', '296', '297'],
      dtype='object')",False,1000,True,100,1.0,1.0,af41298e54
10,./expes/v3_2021-01-29_di_300-prng-1-w1-p100,daily_issda-300,300,first-300,119,39,rng,num-start-21,21,536,classic,1000.7755477428436,False,,False,0.0,,,0,"Index(['1', '4', '5', '6', '10', '13', '14', '15', '16', '17',
       ...
       '270', '271', '277', '278', '280', '282', '285', '286', '294', '296'],
      dtype='object', length=119)",True,1000,True,100,0.0,0.0,02dbaf6a3c
11,./expes/v3_2021-01-29_di_300-prng-1-w1-p100,daily_issda-300,300,first-300,126,42,rng,num-start-201,201,536,classic,9.312605619430542,True,,True,1.0,1.0,1.0,1,"Index(['1', '8', '9', '12', '14', '17', '19', '20', '21', '24',
       ...
       '279', '281', '283', '287', '291', '292', '294', '295', '297', '299'],
      dtype='object', length=126)",False,1000,True,100,1.0,1.0,733bd54213
12,./expes/v3_2021-01-29_di_300-prng-1-w1-p100,daily_issda-300,300,first-300,133,44,rng,num-start-291,291,536,classic,14.93695902824402,True,,True,1.0,1.0,1.0,1,"Index(['3', '5', '6', '10', '11', '14', '15', '26', '27', '28',
       ...
       '284', '285', '286', '287', '289', '291', '293', '295', '296', '297'],
      dtype='object', length=133)",False,1000,True,100,1.0,1.0,500d4732ca
13,./expes/v3_2021-01-29_di_300-prng-1-w1-p100,daily_issda-300,300,first-300,98,32,rng,num-start-181,181,536,classic,8.639926195144653,True,,True,1.0,1.0,1.0,1,"Index(['5', '6', '8', '9', '10', '19', '22', '23', '25', '29', '31', '32',
       '33', '34', '38', '41', '42', '44', '48', '52', '60', '72', '73', '76',
       '78', '81', '82', '85', '89', '92', '101', '106', '107', '115', '118',
       '119', '121', '123', '131', '134', '135', '140', '144', '147', '148',
       '152', '157', '159', '160', '161', '162', '163', '171', '173', '174',
       '177', '182', '183', '185', '189', '193', '195', '199', '200', '201',
       '203', '206', '208', '215', '216', '223', '225', '227', '230', '231',
       '234', '237', '239', '240', '243', '244', '247', '251', '252', '253',
       '254', '256', '257', '258', '262', '267', '272', '274', '279', '285',
       '290', '292', '296'],
      dtype='object')",False,1000,True,100,1.0,1.0,ec9ba94f07
14,./expes/v3_2021-01-29_di_300-prng-1-w1-p100,daily_issda-300,300,first-300,126,42,rng,num-start-241,241,536,classic,10.649385929107666,True,,True,1.0,1.0,1.0,1,"Index(['1', '2', '3', '5', '7', '10', '12', '15', '17', '19',
       ...
       '272', '273', '274', '277', '279', '280', '282', '289', '294', '297'],
      dtype='object', length=126)",False,1000,True,100,1.0,1.0,08e7c6a153
15,./expes/v3_2021-01-29_di_300-prng-1-w1-p100,daily_issda-300,300,first-300,14,4,rng,num-start-151,151,536,classic,5.762617826461792,True,,True,1.0,1.0,1.0,1,"Index(['16', '37', '65', '67', '76', '96', '110', '116', '119', '133', '149',
       '151', '221', '273'],
      dtype='object')",False,1000,True,100,1.0,1.0,2b65a2b0d6
16,./expes/v3_2021-01-29_di_300-prng-1-w1-p100,daily_issda-300,300,first-300,119,39,rng,num-start-191,191,536,classic,8.955572128295898,True,,True,1.0,1.0,1.0,1,"Index(['2', '7', '9', '11', '14', '16', '17', '18', '20', '23',
       ...
       '273', '277', '280', '286', '289', '292', '294', '297', '298', '300'],
      dtype='object', length=119)",False,1000,True,100,1.0,1.0,4971891f16
17,./expes/v3_2021-01-29_di_300-prng-1-w1-p100,daily_issda-300,300,first-300,91,30,rng,num-start-181,181,536,classic,8.606430530548096,True,,True,1.0,1.0,1.0,1,"Index(['2', '8', '16', '20', '22', '23', '36', '37', '38', '44', '48', '58',
       '61', '65', '67', '68', '70', '71', '72', '73', '76', '82', '85', '86',
       '91', '92', '94', '96', '99', '100', '104', '109', '110', '116', '119',
       '120', '121', '122', '129', '130', '132', '133', '135', '142', '144',
       '149', '151', '152', '160', '161', '175', '176', '178', '180', '183',
       '184', '187', '188', '191', '192', '200', '203', '212', '218', '220',
       '221', '224', '226', '228', '230', '231', '236', '238', '250', '252',
       '255', '267', '268', '270', '273', '275', '279', '282', '284', '285',
       '289', '290', '292', '296', '298', '299'],
      dtype='object')",False,1000,True,100,1.0,1.0,21632f054f
18,./expes/v3_2021-01-29_di_300-prng-1-w1-p100,daily_issda-300,300,first-300,126,42,rng,num-start-11,11,536,classic,1000.4776744842528,False,,False,0.0,,,0,"Index(['3', '7', '12', '20', '21', '24', '25', '26', '28', '30',
       ...
       '289', '290', '293', '294', '295', '296', '297', '298', '299', '300'],
      dtype='object', length=126)",True,1000,True,100,0.0,0.0,1ca567c501
19,./expes/v3_2021-01-29_di_300-prng-1-w1-p100,daily_issda-300,300,first-300,49,16,rng,num-start-211,211,536,classic,9.518306255340576,True,,True,1.0,1.0,1.0,1,"Index(['20', '24', '25', '26', '30', '31', '32', '33', '36', '38', '45', '47',
       '49', '50', '53', '61', '64', '69', '74', '78', '93', '97', '110',
       '114', '115', '124', '149', '158', '166', '188', '191', '203', '204',
       '215', '218', '223', '260', '275', '277', '281', '283', '286', '287',
       '290', '293', '296', '298', '299', '300'],
      dtype='object')",False,1000,True,100,1.0,1.0,e2d4a68e03
20,./expes/v3_2021-01-29_di_300-prng-1-w1-p100,daily_issda-300,300,first-300,140,46,rng,num-start-11,11,536,classic,1000.522430896759,False,,False,0.0,,,0,"Index(['3', '4', '5', '6', '7', '8', '11', '12', '15', '16',
       ...
       '270', '273', '274', '277', '278', '284', '289', '294', '297', '299'],
      dtype='object', length=140)",True,1000,True,100,0.0,0.0,22815b8885
21,./expes/v3_2021-01-29_di_300-prng-1-w1-p100,daily_issda-300,300,first-300,42,14,rng,num-start-71,71,536,classic,5.0366058349609375,True,,True,1.0,1.0,1.0,1,"Index(['6', '9', '19', '29', '34', '41', '60', '76', '81', '106', '107', '115',
       '118', '119', '123', '135', '144', '157', '161', '162', '174', '177',
       '182', '183', '185', '189', '201', '208', '215', '216', '225', '231',
       '234', '237', '239', '251', '252', '262', '267', '290', '292', '296'],
      dtype='object')",False,1000,True,100,1.0,1.0,0fcdeada2e
