expe,clients,clients_size,clients_subset,agg_size,agg_size_pc,method,days,days_size,days_total,noise_method,time,valid,valid_sum,success,score_avg,score_min,score_max,nsols,oracle,wall_hit,wall_time,pooled,pool_size,uuid,infeasible,optimal,valid_sums
./expes/v2_2021-04-05_issda-30_1000-prng-1-w86-p2_3d,30_issda-1000,1000,first-1000,100,10,rng,num-start-800,800,25726,classic,103.5737681388855,True,,True,1.0,1.0,1.0,1,"['2', '15', '42', '64', '65', '76', '83', '94', '96', '98', '102', '104', '143', '144', '146', '151', '196', '210', '224', '228', '245', '250', '257', '266', '267', '289', '311', '318', '324', '328', '334', '339', '342', '363', '367', '395', '409', '415', '431', '445', '454', '459', '484', '489', '498', '506', '517', '524', '534', '546', '557', '562', '566', '574', '582', '598', '617', '626', '627', '634', '641', '656', '685', '701', '721', '723', '728', '737', '748', '774', '777', '803', '804', '819', '823', '825', '830', '845', '848', '850', '861', '865', '871', '887', '889', '892', '912', '914', '921', '924', '930', '932', '935', '938', '940', '941', '989', '990', '991', '992']",False,86400,True,2,239dd3d31a,0.0,1.0,1.0
./expes/v2_2021-04-05_issda-30_1000-prng-1-w86-p2_3d,30_issda-1000,1000,first-1000,450,45,rng,num-start-700,700,25726,classic,162.19775772094727,True,,True,1.0,1.0,1.0,1,"['2', '4', '5', '6', '8', '12', '14', '16', '19', '21', '22', '23', '25', '27', '28', '29', '30', '32', '33', '34', '35', '36', '37', '44', '45', '46', '47', '48', '51', '52', '53', '55', '57', '62', '63', '65', '66', '68', '69', '70', '71', '74', '79', '82', '88', '89', '91', '95', '100', '102', '105', '106', '107', '108', '111', '112', '117', '118', '122', '123', '124', '125', '126', '127', '128', '129', '130', '131', '132', '133', '134', '135', '137', '138', '140', '142', '147', '155', '156', '160', '161', '164', '168', '174', '176', '182', '183', '184', '188', '190', '192', '196', '197', '203', '204', '205', '217', '223', '224', '227', '228', '230', '231', '233', '238', '240', '242', '244', '245', '246', '251', '255', '258', '259', '265', '266', '269', '270', '271', '272', '274', '276', '277', '278', '281', '286', '287', '292', '294', '296', '298', '299', '301', '306', '308', '309', '311', '312', '318', '321', '322', '323', '324', '327', '328', '330', '331', '334', '335', '336', '337', '339', '341', '342', '345', '348', '349', '350', '353', '354', '355', '360', '361', '362', '369', '370', '373', '375', '379', '382', '383', '384', '385', '386', '387', '390', '396', '397', '399', '400', '405', '407', '410', '418', '420', '421', '424', '426', '427', '429', '430', '431', '432', '434', '436', '437', '438', '439', '441', '442', '445', '446', '447', '448', '449', '456', '462', '468', '472', '476', '478', '481', '482', '485', '486', '488', '489', '493', '494', '495', '496', '500', '502', '507', '509', '513', '515', '516', '518', '520', '523', '525', '528', '531', '532', '533', '534', '536', '538', '540', '543', '545', '547', '548', '549', '550', '554', '555', '557', '558', '562', '563', '565', '569', '573', '578', '581', '582', '583', '585', '586', '588', '589', '591', '594', '595', '599', '600', '601', '602', '603', '604', '605', '606', '607', '610', '615', '616', '619', '620', '621', '624', '626', '627', '630', '631', '633', '635', '636', '638', '641', '642', '643', '644', '648', '649', '650', '651', '652', '655', '658', '660', '663', '666', '670', '672', '676', '679', '684', '688', '689', '692', '693', '695', '696', '698', '699', '701', '707', '708', '711', '712', '713', '715', '716', '720', '724', '730', '731', '732', '733', '734', '735', '736', '737', '738', '741', '746', '750', '752', '753', '756', '760', '764', '766', '772', '775', '777', '779', '780', '788', '791', '793', '794', '796', '798', '799', '802', '806', '807', '808', '810', '811', '812', '813', '815', '820', '821', '823', '824', '826', '827', '830', '831', '832', '833', '837', '840', '844', '848', '852', '853', '854', '857', '858', '859', '862', '865', '871', '873', '875', '876', '877', '878', '879', '882', '883', '884', '885', '887', '888', '889', '891', '892', '894', '900', '901', '902', '903', '905', '907', '908', '909', '911', '912', '919', '920', '922', '926', '927', '931', '935', '938', '940', '943', '944', '945', '947', '949', '950', '952', '959', '962', '964', '966', '972', '973', '974', '978', '981', '982', '984', '987', '988', '989', '993', '995', '996', '997', '999']",False,86400,True,2,ff8dbc3e27,0.0,1.0,1.0
./expes/v2_2021-04-05_issda-30_1000-prng-1-w86-p2_3d,30_issda-1000,1000,first-1000,400,40,rng,num-start-500,500,25726,classic,125.61406874656677,True,,True,1.0,1.0,1.0,1,"['4', '5', '6', '8', '10', '11', '14', '19', '21', '27', '28', '33', '36', '37', '38', '42', '43', '44', '45', '46', '48', '53', '55', '57', '61', '62', '64', '69', '77', '78', '80', '81', '82', '84', '85', '88', '89', '92', '93', '96', '98', '100', '104', '106', '109', '114', '116', '117', '118', '119', '120', '122', '124', '126', '131', '140', '143', '146', '149', '153', '154', '157', '159', '161', '163', '166', '167', '169', '170', '172', '173', '174', '177', '181', '182', '183', '185', '189', '193', '196', '197', '199', '200', '201', '204', '206', '207', '208', '211', '213', '214', '216', '217', '220', '221', '224', '225', '228', '235', '238', '239', '240', '242', '244', '248', '249', '252', '254', '255', '256', '257', '260', '261', '264', '265', '266', '267', '268', '269', '275', '276', '279', '283', '284', '285', '287', '288', '293', '296', '297', '298', '299', '300', '301', '304', '305', '308', '310', '311', '313', '318', '319', '320', '323', '329', '330', '331', '332', '333', '335', '339', '340', '345', '346', '347', '352', '356', '365', '366', '369', '372', '373', '374', '375', '381', '382', '391', '397', '398', '400', '402', '405', '406', '410', '412', '413', '414', '420', '421', '422', '423', '424', '426', '428', '431', '432', '433', '434', '435', '439', '441', '442', '445', '447', '450', '451', '452', '455', '463', '465', '466', '471', '474', '476', '483', '484', '485', '490', '491', '496', '499', '501', '503', '504', '507', '509', '511', '519', '521', '525', '532', '533', '534', '536', '539', '540', '541', '542', '548', '550', '555', '557', '559', '560', '561', '563', '564', '572', '575', '576', '579', '583', '584', '586', '587', '597', '603', '609', '610', '614', '616', '621', '622', '623', '625', '631', '633', '635', '636', '642', '643', '644', '648', '650', '651', '653', '657', '658', '663', '664', '668', '669', '670', '671', '673', '684', '685', '688', '690', '692', '694', '697', '703', '705', '713', '715', '718', '722', '724', '726', '728', '729', '733', '735', '739', '750', '753', '755', '763', '765', '777', '784', '786', '787', '789', '791', '793', '794', '796', '799', '802', '803', '804', '806', '807', '810', '817', '818', '819', '820', '821', '824', '827', '830', '833', '835', '838', '839', '847', '848', '849', '851', '855', '857', '858', '860', '861', '866', '868', '869', '876', '877', '879', '880', '881', '883', '886', '887', '889', '891', '892', '895', '896', '898', '899', '900', '901', '902', '903', '904', '907', '911', '913', '914', '916', '918', '921', '922', '923', '926', '927', '931', '936', '938', '939', '940', '945', '947', '950', '951', '953', '958', '964', '965', '966', '967', '968', '974', '978', '980', '983', '984', '985', '986', '988', '990', '992', '994', '995', '998']",False,86400,True,2,5af1ced6ea,0.0,1.0,1.0
./expes/v2_2021-04-05_issda-30_1000-prng-1-w86-p2_3d,30_issda-1000,1000,first-1000,150,15,rng,num-start-400,400,25726,classic,90.34489417076111,True,,True,1.0,1.0,1.0,1,"['8', '14', '16', '21', '30', '32', '37', '44', '46', '47', '65', '66', '68', '69', '91', '100', '107', '122', '128', '134', '138', '140', '155', '156', '164', '168', '197', '217', '223', '238', '240', '242', '244', '265', '266', '274', '276', '286', '287', '292', '301', '309', '318', '335', '339', '345', '353', '360', '375', '379', '387', '396', '397', '400', '405', '407', '418', '421', '426', '432', '438', '447', '456', '481', '482', '485', '486', '488', '494', '496', '507', '518', '520', '536', '547', '554', '555', '558', '563', '565', '583', '586', '588', '591', '595', '599', '600', '601', '606', '607', '610', '619', '620', '621', '630', '641', '642', '649', '651', '655', '672', '688', '689', '699', '713', '716', '731', '732', '735', '736', '737', '746', '760', '777', '780', '788', '796', '798', '799', '808', '820', '821', '844', '852', '854', '857', '858', '875', '876', '877', '882', '887', '889', '894', '900', '903', '919', '926', '927', '931', '938', '943', '944', '945', '949', '952', '959', '981', '988', '989']",False,86400,True,2,bab7829ab7,0.0,1.0,1.0
./expes/v2_2021-04-05_issda-30_1000-prng-1-w86-p2_3d,30_issda-1000,1000,first-1000,150,15,rng,num-start-500,500,25726,classic,440.8137266635895,True,,True,1.0,1.0,1.0,1,"['2', '15', '34', '40', '42', '64', '65', '71', '76', '83', '92', '94', '96', '98', '102', '104', '112', '128', '134', '143', '144', '146', '151', '154', '189', '192', '194', '196', '209', '210', '224', '228', '245', '248', '250', '257', '266', '267', '289', '295', '298', '299', '309', '311', '318', '324', '325', '328', '334', '339', '341', '342', '363', '367', '395', '401', '409', '415', '431', '445', '454', '456', '459', '484', '488', '489', '498', '502', '506', '517', '521', '524', '534', '546', '554', '557', '561', '562', '565', '566', '574', '582', '590', '598', '602', '611', '617', '618', '626', '627', '628', '634', '641', '656', '673', '685', '696', '700', '701', '717', '721', '723', '724', '728', '737', '748', '774', '776', '777', '803', '804', '818', '819', '823', '825', '830', '835', '842', '845', '848', '850', '858', '861', '863', '865', '871', '887', '889', '892', '897', '898', '912', '914', '920', '921', '924', '930', '932', '935', '938', '940', '941', '945', '946', '956', '987', '989', '990', '991', '992']",False,86400,True,2,a6856db180,0.0,1.0,1.0
./expes/v2_2021-04-05_issda-30_1000-prng-1-w86-p2_3d,30_issda-1000,1000,first-1000,100,10,rng,num-start-300,300,25726,classic,110.8650290966034,True,,True,1.0,1.0,1.0,1,"['14', '16', '30', '32', '37', '44', '66', '68', '100', '134', '138', '140', '155', '156', '164', '197', '223', '238', '240', '244', '265', '266', '276', '309', '345', '360', '375', '379', '396', '397', '400', '405', '407', '418', '432', '438', '447', '456', '481', '482', '485', '486', '488', '507', '520', '536', '547', '554', '558', '563', '565', '588', '591', '595', '599', '600', '606', '607', '610', '619', '621', '641', '642', '651', '655', '688', '689', '699', '732', '735', '737', '746', '760', '777', '796', '798', '799', '808', '821', '844', '854', '857', '858', '876', '877', '882', '887', '889', '900', '926', '931', '938', '943', '944', '949', '952', '959', '981', '988', '989']",False,86400,True,2,c2bf758701,0.0,1.0,1.0
./expes/v2_2021-04-05_issda-30_1000-prng-1-w86-p2_3d,30_issda-1000,1000,first-1000,50,5,rng,num-start-1000,1000,25726,classic,120.81671667098999,True,,True,1.0,1.0,1.0,1,"['29', '37', '58', '87', '94', '163', '174', '218', '258', '275', '316', '327', '370', '373', '381', '390', '403', '434', '442', '456', '477', '515', '522', '539', '558', '596', '621', '622', '654', '686', '698', '741', '754', '823', '829', '856', '870', '875', '881', '884', '892', '906', '914', '923', '930', '955', '959', '971', '973', '979']",False,86400,True,2,f0f48b9d62,0.0,1.0,1.0
./expes/v2_2021-04-05_issda-30_1000-prng-1-w86-p2_3d,30_issda-1000,1000,first-1000,150,15,rng,num-start-300,300,25726,classic,273.78113198280334,True,,True,1.0,1.0,1.0,1,"['3', '10', '13', '23', '27', '30', '31', '32', '36', '45', '65', '89', '97', '103', '105', '111', '121', '124', '138', '168', '173', '175', '178', '191', '195', '205', '215', '222', '225', '228', '233', '235', '237', '238', '239', '249', '262', '273', '291', '297', '304', '311', '316', '326', '341', '354', '376', '380', '384', '389', '391', '400', '403', '404', '414', '425', '427', '433', '444', '449', '450', '457', '461', '471', '481', '484', '492', '500', '502', '508', '512', '513', '515', '518', '520', '521', '534', '541', '553', '555', '562', '567', '570', '583', '593', '602', '604', '606', '608', '623', '630', '645', '658', '663', '666', '668', '680', '681', '687', '691', '694', '703', '713', '720', '721', '729', '739', '742', '744', '751', '756', '761', '762', '780', '781', '783', '786', '790', '795', '798', '808', '817', '822', '850', '856', '858', '861', '867', '868', '869', '874', '881', '903', '904', '915', '918', '924', '933', '939', '943', '945', '949', '959', '962', '964', '968', '976', '991', '993', '997']",False,86400,True,2,f0dceefe40,0.0,1.0,1.0
