expe,clients,clients_size,clients_subset,agg_size,agg_size_pc,method,days,days_size,days_total,noise_method,time,valid,valid_sum,success,score_avg,score_min,score_max,nsols,oracle,wall_hit,wall_time,pooled,pool_size,uuid,infeasible,optimal,valid_sums
./expes/v2_2021-04-05_issda-30_1000-prng-1-w86-p2_3d,30_issda-1000,1000,first-1000,200,20,rng,num-start-900,900,25726,classic,146.51027297973633,True,,True,1.0,1.0,1.0,1,"['2', '9', '22', '25', '26', '29', '33', '37', '42', '45', '51', '58', '59', '61', '62', '70', '78', '85', '87', '94', '109', '118', '131', '140', '161', '163', '166', '169', '171', '174', '177', '178', '181', '182', '187', '189', '196', '213', '216', '218', '228', '233', '237', '242', '251', '254', '256', '258', '262', '273', '275', '280', '286', '311', '316', '317', '320', '327', '333', '350', '360', '363', '369', '370', '371', '372', '373', '376', '381', '383', '390', '395', '403', '410', '417', '425', '434', '442', '456', '457', '466', '468', '473', '477', '492', '499', '501', '502', '511', '513', '515', '517', '520', '522', '523', '525', '527', '528', '531', '535', '536', '538', '539', '544', '558', '571', '574', '576', '582', '589', '596', '603', '604', '606', '608', '621', '622', '631', '632', '639', '654', '668', '669', '671', '675', '678', '686', '689', '691', '698', '699', '701', '709', '717', '724', '733', '735', '741', '742', '744', '747', '749', '753', '754', '757', '763', '773', '778', '782', '792', '804', '809', '814', '816', '819', '823', '829', '833', '835', '841', '845', '852', '856', '870', '875', '880', '881', '884', '892', '897', '898', '902', '904', '905', '906', '914', '916', '920', '922', '923', '925', '929', '930', '931', '934', '938', '941', '943', '948', '955', '957', '959', '964', '967', '971', '973', '978', '979', '981', '985']",False,86400,True,2,56421cd2e8,0.0,1.0,1.0
./expes/v2_2021-04-05_issda-30_1000-prng-1-w86-p2_3d,30_issda-1000,1000,first-1000,100,10,rng,num-start-300,300,25726,classic,150.05160570144653,True,,True,1.0,1.0,1.0,1,"['3', '10', '23', '27', '30', '32', '65', '97', '103', '105', '121', '124', '138', '191', '195', '215', '222', '225', '228', '235', '237', '239', '262', '273', '291', '297', '304', '311', '326', '341', '354', '389', '391', '400', '403', '427', '433', '444', '449', '457', '461', '471', '484', '500', '508', '512', '513', '518', '520', '541', '555', '567', '570', '583', '602', '604', '606', '623', '645', '658', '666', '668', '687', '694', '703', '713', '729', '739', '742', '744', '761', '780', '781', '783', '786', '808', '822', '850', '856', '858', '867', '868', '881', '903', '904', '915', '918', '924', '933', '939', '945', '949', '959', '962', '964', '968', '976', '991', '993', '997']",False,86400,True,2,6b98f93a9c,0.0,1.0,1.0
./expes/v2_2021-04-05_issda-30_1000-prng-1-w86-p2_3d,30_issda-1000,1000,first-1000,400,40,rng,num-start-500,500,25726,classic,219.47834062576294,True,,True,1.0,1.0,1.0,1,"['2', '5', '6', '9', '17', '19', '20', '21', '22', '25', '26', '29', '32', '33', '35', '37', '38', '39', '42', '45', '47', '51', '53', '58', '59', '61', '62', '69', '70', '73', '76', '78', '79', '83', '85', '87', '89', '90', '94', '96', '97', '99', '103', '104', '105', '108', '109', '114', '116', '118', '119', '122', '125', '126', '131', '132', '135', '140', '144', '145', '148', '151', '155', '156', '158', '161', '163', '165', '166', '169', '171', '174', '175', '177', '178', '181', '182', '186', '187', '189', '196', '197', '204', '213', '214', '216', '218', '223', '225', '228', '231', '233', '234', '237', '238', '239', '242', '247', '251', '253', '254', '256', '257', '258', '260', '261', '262', '263', '266', '269', '271', '273', '275', '276', '280', '286', '292', '293', '297', '298', '304', '311', '314', '316', '317', '318', '320', '324', '327', '333', '336', '343', '346', '350', '353', '354', '360', '363', '365', '367', '369', '370', '371', '372', '373', '375', '376', '381', '382', '383', '384', '390', '394', '395', '400', '401', '402', '403', '405', '410', '412', '417', '419', '421', '423', '425', '427', '429', '430', '434', '436', '438', '442', '445', '456', '457', '459', '460', '463', '465', '466', '468', '469', '473', '475', '476', '477', '482', '485', '490', '492', '496', '498', '499', '501', '502', '503', '504', '510', '511', '513', '515', '517', '520', '521', '522', '523', '524', '525', '527', '528', '531', '532', '534', '535', '536', '538', '539', '544', '549', '558', '559', '562', '565', '571', '572', '574', '576', '582', '586', '589', '590', '596', '599', '600', '603', '604', '606', '608', '611', '620', '621', '622', '626', '629', '631', '632', '634', '637', '639', '640', '643', '651', '653', '654', '657', '658', '664', '668', '669', '671', '675', '677', '678', '680', '686', '687', '689', '691', '696', '697', '698', '699', '701', '702', '704', '707', '709', '710', '713', '716', '717', '723', '724', '726', '727', '732', '733', '734', '735', '737', '741', '742', '744', '746', '747', '749', '753', '754', '757', '758', '761', '763', '766', '769', '772', '773', '774', '778', '779', '782', '785', '792', '794', '796', '800', '804', '808', '809', '811', '814', '816', '818', '819', '820', '822', '823', '824', '826', '829', '830', '832', '833', '835', '838', '841', '845', '846', '852', '856', '857', '859', '861', '870', '871', '875', '880', '881', '884', '887', '892', '896', '897', '898', '902', '903', '904', '905', '906', '909', '911', '914', '916', '917', '920', '922', '923', '924', '925', '929', '930', '931', '934', '938', '939', '941', '943', '944', '948', '952', '955', '957', '958', '959', '961', '964', '967', '971', '973', '978', '979', '981', '982', '983', '984', '985', '987', '994', '995', '998']",False,86400,True,2,ded08996db,0.0,1.0,1.0
./expes/v2_2021-04-05_issda-30_1000-prng-1-w86-p2_3d,30_issda-1000,1000,first-1000,250,25,rng,num-start-400,400,25726,classic,276.3467366695404,True,,True,1.0,1.0,1.0,1,"['2', '5', '9', '19', '22', '25', '26', '29', '32', '33', '37', '38', '42', '45', '47', '51', '58', '59', '61', '62', '70', '78', '85', '87', '94', '96', '105', '109', '116', '118', '131', '140', '144', '148', '156', '158', '161', '163', '166', '169', '171', '174', '177', '178', '181', '182', '187', '189', '196', '213', '216', '218', '228', '231', '233', '237', '242', '251', '254', '256', '258', '262', '266', '269', '271', '273', '275', '280', '286', '293', '311', '316', '317', '320', '324', '327', '333', '336', '346', '350', '353', '360', '363', '369', '370', '371', '372', '373', '376', '381', '383', '390', '395', '403', '410', '412', '417', '425', '430', '434', '442', '456', '457', '459', '460', '466', '468', '473', '477', '485', '492', '499', '501', '502', '511', '513', '515', '517', '520', '522', '523', '525', '527', '528', '531', '535', '536', '538', '539', '544', '558', '565', '571', '572', '574', '576', '582', '589', '596', '599', '603', '604', '606', '608', '620', '621', '622', '631', '632', '637', '639', '643', '654', '668', '669', '671', '675', '677', '678', '686', '689', '691', '698', '699', '701', '704', '709', '717', '723', '724', '733', '735', '741', '742', '744', '747', '749', '753', '754', '757', '758', '761', '763', '766', '773', '774', '778', '782', '785', '792', '800', '804', '808', '809', '814', '816', '819', '823', '829', '833', '835', '841', '845', '852', '856', '859', '870', '875', '880', '881', '884', '892', '896', '897', '898', '902', '904', '905', '906', '914', '916', '920', '922', '923', '924', '925', '929', '930', '931', '934', '938', '941', '943', '948', '955', '957', '959', '961', '964', '967', '971', '973', '978', '979', '981', '982', '983', '985', '994', '995']",False,86400,True,2,97855cb40b,0.0,1.0,1.0
./expes/v2_2021-04-05_issda-30_1000-prng-1-w86-p2_3d,30_issda-1000,1000,first-1000,150,15,rng,num-start-1000,1000,25726,classic,183.85267519950867,True,,True,1.0,1.0,1.0,1,"['9', '25', '29', '37', '58', '78', '87', '94', '140', '163', '166', '169', '171', '174', '178', '181', '182', '187', '196', '213', '218', '228', '237', '242', '256', '258', '275', '286', '311', '316', '317', '320', '327', '333', '350', '360', '363', '369', '370', '371', '373', '376', '381', '390', '403', '410', '417', '425', '434', '442', '456', '457', '466', '468', '473', '477', '492', '499', '501', '502', '511', '513', '515', '517', '520', '522', '523', '525', '527', '528', '531', '538', '539', '544', '558', '571', '574', '576', '582', '596', '603', '608', '621', '622', '631', '632', '639', '654', '668', '671', '675', '678', '686', '691', '698', '701', '717', '724', '733', '741', '742', '744', '749', '753', '754', '757', '773', '782', '792', '804', '809', '816', '819', '823', '829', '835', '841', '852', '856', '870', '875', '880', '881', '884', '892', '898', '904', '905', '906', '914', '916', '922', '923', '925', '929', '930', '931', '934', '943', '948', '955', '957', '959', '964', '971', '973', '978', '979', '981', '985']",False,86400,True,2,6e22b2868f,0.0,1.0,1.0
./expes/v2_2021-04-05_issda-30_1000-prng-1-w86-p2_3d,30_issda-1000,1000,first-1000,300,30,rng,num-start-1000,1000,25726,classic,299.83415246009827,True,,True,1.0,1.0,1.0,1,"['2', '3', '6', '10', '13', '15', '18', '19', '22', '23', '25', '27', '29', '30', '31', '32', '34', '36', '37', '45', '49', '58', '61', '65', '72', '73', '86', '89', '94', '97', '103', '105', '111', '112', '113', '117', '121', '124', '129', '133', '138', '150', '164', '165', '168', '172', '173', '175', '178', '182', '186', '190', '191', '193', '195', '205', '211', '215', '218', '222', '225', '226', '228', '229', '231', '233', '235', '236', '237', '238', '239', '249', '256', '260', '262', '265', '273', '276', '280', '288', '291', '297', '298', '302', '304', '306', '311', '314', '316', '320', '326', '329', '330', '340', '341', '352', '353', '354', '355', '362', '366', '374', '376', '380', '384', '389', '391', '393', '396', '400', '403', '404', '405', '407', '414', '415', '424', '425', '427', '432', '433', '437', '443', '444', '449', '450', '457', '461', '462', '464', '466', '470', '471', '481', '484', '486', '492', '493', '497', '500', '502', '508', '509', '512', '513', '515', '517', '518', '519', '520', '521', '523', '525', '527', '529', '532', '534', '537', '541', '552', '553', '554', '555', '558', '562', '564', '565', '567', '568', '570', '575', '583', '584', '590', '592', '593', '599', '602', '604', '606', '608', '615', '621', '623', '624', '628', '630', '639', '640', '645', '646', '647', '651', '658', '663', '664', '665', '666', '668', '673', '676', '680', '681', '687', '690', '691', '692', '694', '695', '703', '712', '713', '720', '721', '722', '729', '737', '739', '742', '744', '747', '748', '751', '756', '759', '761', '762', '773', '774', '780', '781', '783', '786', '790', '795', '797', '798', '803', '806', '808', '816', '817', '818', '822', '823', '824', '829', '833', '837', '841', '850', '853', '856', '858', '861', '862', '867', '868', '869', '872', '874', '878', '881', '882', '889', '891', '897', '903', '904', '908', '915', '918', '922', '924', '932', '933', '939', '943', '945', '949', '954', '959', '961', '962', '964', '967', '968', '973', '975', '976', '978', '981', '983', '989', '991', '992', '993', '997', '999', '1000']",False,86400,True,2,aabbd8d934,0.0,1.0,1.0
./expes/v2_2021-04-05_issda-30_1000-prng-1-w86-p2_3d,30_issda-1000,1000,first-1000,500,50,rng,num-start-600,600,25726,classic,818.7431383132935,True,,True,1.0,1.0,1.0,1,"['2', '3', '6', '9', '10', '11', '13', '15', '18', '19', '21', '22', '23', '25', '27', '28', '29', '30', '31', '32', '33', '34', '36', '37', '39', '41', '42', '43', '45', '47', '49', '58', '61', '65', '66', '67', '72', '73', '75', '77', '79', '84', '86', '87', '89', '92', '93', '94', '95', '97', '99', '102', '103', '104', '105', '106', '107', '110', '111', '112', '113', '115', '117', '118', '119', '121', '124', '129', '130', '133', '134', '137', '138', '139', '145', '146', '150', '151', '154', '158', '161', '163', '164', '165', '166', '168', '171', '172', '173', '174', '175', '176', '178', '182', '183', '184', '186', '188', '190', '191', '192', '193', '195', '199', '204', '205', '206', '211', '212', '213', '215', '218', '219', '221', '222', '223', '225', '226', '228', '229', '230', '231', '233', '235', '236', '237', '238', '239', '241', '246', '248', '249', '250', '251', '252', '253', '256', '257', '259', '260', '262', '265', '266', '273', '274', '275', '276', '280', '284', '288', '289', '291', '297', '298', '299', '301', '302', '303', '304', '306', '311', '313', '314', '315', '316', '318', '320', '321', '323', '324', '325', '326', '328', '329', '330', '334', '336', '340', '341', '343', '347', '348', '349', '350', '352', '353', '354', '355', '356', '362', '365', '366', '368', '370', '374', '376', '377', '380', '384', '388', '389', '390', '391', '393', '396', '400', '401', '403', '404', '405', '407', '409', '412', '414', '415', '417', '424', '425', '427', '432', '433', '437', '440', '443', '444', '446', '449', '450', '457', '459', '461', '462', '464', '466', '467', '469', '470', '471', '472', '481', '484', '486', '489', '492', '493', '497', '500', '501', '502', '505', '506', '508', '509', '512', '513', '514', '515', '517', '518', '519', '520', '521', '522', '523', '525', '527', '529', '532', '534', '537', '541', '546', '548', '552', '553', '554', '555', '556', '558', '559', '561', '562', '564', '565', '567', '568', '570', '575', '577', '578', '579', '580', '583', '584', '585', '588', '589', '590', '592', '593', '594', '599', '601', '602', '604', '605', '606', '608', '611', '615', '616', '617', '619', '621', '623', '624', '627', '628', '629', '630', '633', '638', '639', '640', '645', '646', '647', '651', '658', '659', '663', '664', '665', '666', '668', '673', '676', '678', '680', '681', '682', '687', '689', '690', '691', '692', '694', '695', '698', '703', '704', '705', '707', '712', '713', '720', '721', '722', '727', '729', '733', '737', '739', '740', '742', '743', '744', '747', '748', '751', '756', '759', '761', '762', '765', '769', '772', '773', '774', '778', '780', '781', '783', '786', '787', '789', '790', '795', '797', '798', '799', '801', '802', '803', '804', '805', '806', '808', '809', '812', '815', '816', '817', '818', '822', '823', '824', '826', '827', '828', '829', '831', '833', '837', '838', '840', '841', '842', '846', '848', '849', '850', '853', '855', '856', '858', '861', '862', '866', '867', '868', '869', '871', '872', '874', '878', '879', '880', '881', '882', '884', '887', '889', '891', '893', '897', '900', '903', '904', '907', '908', '909', '913', '915', '916', '918', '919', '922', '923', '924', '925', '929', '932', '933', '936', '937', '939', '940', '942', '943', '944', '945', '948', '949', '954', '955', '959', '961', '962', '964', '967', '968', '973', '975', '976', '978', '981', '983', '986', '988', '989', '990', '991', '992', '993', '994', '997', '998', '999', '1000']",False,86400,True,2,c21b60556c,0.0,1.0,1.0
