expe,clients,clients_size,clients_subset,agg_size,agg_size_pc,method,days,days_size,days_total,noise_method,time,valid,valid_sum,success,score_avg,score_min,score_max,nsols,oracle,wall_hit,wall_time,pooled,pool_size,uuid,infeasible,optimal,valid_sums
./expes/v2_2021-04-05_issda-30_1000-prng-1-w86-p2_3d,30_issda-1000,1000,first-1000,200,20,rng,num-start-400,400,25726,classic,65.67806220054626,True,,True,1.0,1.0,1.0,1,"['2', '15', '17', '34', '40', '42', '47', '64', '65', '71', '76', '83', '85', '92', '94', '96', '98', '102', '104', '112', '119', '120', '128', '134', '143', '144', '146', '150', '151', '154', '175', '189', '192', '194', '195', '196', '209', '210', '221', '224', '225', '226', '228', '242', '245', '248', '249', '250', '257', '266', '267', '278', '282', '283', '289', '295', '298', '299', '309', '311', '318', '324', '325', '328', '333', '334', '339', '341', '342', '344', '363', '366', '367', '381', '395', '401', '409', '415', '430', '431', '437', '445', '454', '456', '459', '462', '484', '488', '489', '498', '499', '502', '505', '506', '517', '521', '524', '534', '535', '538', '546', '554', '557', '561', '562', '565', '566', '574', '582', '588', '590', '594', '598', '602', '604', '611', '617', '618', '626', '627', '628', '634', '641', '646', '650', '656', '657', '673', '677', '685', '696', '700', '701', '715', '717', '718', '721', '723', '724', '728', '737', '748', '750', '774', '776', '777', '802', '803', '804', '813', '814', '818', '819', '823', '825', '830', '832', '835', '836', '837', '842', '845', '846', '848', '850', '858', '861', '863', '865', '866', '870', '871', '876', '887', '889', '892', '897', '898', '912', '914', '917', '920', '921', '924', '930', '932', '935', '938', '939', '940', '941', '945', '946', '956', '973', '987', '989', '990', '991', '992']",False,86400,True,2,8a8c77a28c,0.0,1.0,1.0
./expes/v2_2021-04-05_issda-30_1000-prng-1-w86-p2_3d,30_issda-1000,1000,first-1000,150,15,rng,num-start-1000,1000,25726,classic,172.63146114349365,True,,True,1.0,1.0,1.0,1,"['8', '14', '16', '21', '30', '32', '37', '44', '46', '47', '65', '66', '68', '69', '91', '100', '107', '122', '128', '134', '138', '140', '155', '156', '164', '168', '197', '217', '223', '238', '240', '242', '244', '265', '266', '274', '276', '286', '287', '292', '301', '309', '318', '335', '339', '345', '353', '360', '375', '379', '387', '396', '397', '400', '405', '407', '418', '421', '426', '432', '438', '447', '456', '481', '482', '485', '486', '488', '494', '496', '507', '518', '520', '536', '547', '554', '555', '558', '563', '565', '583', '586', '588', '591', '595', '599', '600', '601', '606', '607', '610', '619', '620', '621', '630', '641', '642', '649', '651', '655', '672', '688', '689', '699', '713', '716', '731', '732', '735', '736', '737', '746', '760', '777', '780', '788', '796', '798', '799', '808', '820', '821', '844', '852', '854', '857', '858', '875', '876', '877', '882', '887', '889', '894', '900', '903', '919', '926', '927', '931', '938', '943', '944', '945', '949', '952', '959', '981', '988', '989']",False,86400,True,2,5ceba40757,0.0,1.0,1.0
./expes/v2_2021-04-05_issda-30_1000-prng-1-w86-p2_3d,30_issda-1000,1000,first-1000,200,20,rng,num-start-1000,1000,25726,classic,203.75926566123962,True,,True,1.0,1.0,1.0,1,"['2', '3', '6', '10', '13', '23', '27', '30', '31', '32', '36', '45', '58', '65', '89', '97', '103', '105', '111', '121', '124', '133', '138', '168', '173', '175', '178', '191', '195', '205', '211', '215', '222', '225', '228', '233', '235', '237', '238', '239', '249', '262', '273', '276', '291', '297', '304', '311', '316', '326', '340', '341', '353', '354', '355', '362', '366', '374', '376', '380', '384', '389', '391', '393', '400', '403', '404', '414', '415', '424', '425', '427', '433', '437', '444', '449', '450', '457', '461', '470', '471', '481', '484', '492', '493', '497', '500', '502', '508', '512', '513', '515', '517', '518', '520', '521', '525', '527', '532', '534', '541', '552', '553', '554', '555', '562', '567', '568', '570', '575', '583', '584', '592', '593', '602', '604', '606', '608', '615', '623', '624', '628', '630', '639', '645', '658', '663', '666', '668', '676', '680', '681', '687', '691', '694', '703', '713', '720', '721', '729', '739', '742', '744', '747', '751', '756', '759', '761', '762', '780', '781', '783', '786', '790', '795', '797', '798', '803', '806', '808', '817', '822', '829', '833', '841', '850', '856', '858', '861', '867', '868', '869', '874', '878', '881', '891', '903', '904', '908', '915', '918', '924', '932', '933', '939', '943', '945', '949', '959', '961', '962', '964', '968', '973', '976', '978', '981', '991', '993', '997']",False,86400,True,2,9179db5c79,0.0,1.0,1.0
./expes/v2_2021-04-05_issda-30_1000-prng-1-w86-p2_3d,30_issda-1000,1000,first-1000,450,45,rng,num-start-900,900,25726,classic,212.9512357711792,True,,True,1.0,1.0,1.0,1,"['2', '4', '5', '6', '8', '12', '14', '16', '19', '21', '22', '23', '25', '27', '28', '29', '30', '32', '33', '34', '35', '36', '37', '44', '45', '46', '47', '48', '51', '52', '53', '55', '57', '62', '63', '65', '66', '68', '69', '70', '71', '74', '79', '82', '88', '89', '91', '95', '100', '102', '105', '106', '107', '108', '111', '112', '117', '118', '122', '123', '124', '125', '126', '127', '128', '129', '130', '131', '132', '133', '134', '135', '137', '138', '140', '142', '147', '155', '156', '160', '161', '164', '168', '174', '176', '182', '183', '184', '188', '190', '192', '196', '197', '203', '204', '205', '217', '223', '224', '227', '228', '230', '231', '233', '238', '240', '242', '244', '245', '246', '251', '255', '258', '259', '265', '266', '269', '270', '271', '272', '274', '276', '277', '278', '281', '286', '287', '292', '294', '296', '298', '299', '301', '306', '308', '309', '311', '312', '318', '321', '322', '323', '324', '327', '328', '330', '331', '334', '335', '336', '337', '339', '341', '342', '345', '348', '349', '350', '353', '354', '355', '360', '361', '362', '369', '370', '373', '375', '379', '382', '383', '384', '385', '386', '387', '390', '396', '397', '399', '400', '405', '407', '410', '418', '420', '421', '424', '426', '427', '429', '430', '431', '432', '434', '436', '437', '438', '439', '441', '442', '445', '446', '447', '448', '449', '456', '462', '468', '472', '476', '478', '481', '482', '485', '486', '488', '489', '493', '494', '495', '496', '500', '502', '507', '509', '513', '515', '516', '518', '520', '523', '525', '528', '531', '532', '533', '534', '536', '538', '540', '543', '545', '547', '548', '549', '550', '554', '555', '557', '558', '562', '563', '565', '569', '573', '578', '581', '582', '583', '585', '586', '588', '589', '591', '594', '595', '599', '600', '601', '602', '603', '604', '605', '606', '607', '610', '615', '616', '619', '620', '621', '624', '626', '627', '630', '631', '633', '635', '636', '638', '641', '642', '643', '644', '648', '649', '650', '651', '652', '655', '658', '660', '663', '666', '670', '672', '676', '679', '684', '688', '689', '692', '693', '695', '696', '698', '699', '701', '707', '708', '711', '712', '713', '715', '716', '720', '724', '730', '731', '732', '733', '734', '735', '736', '737', '738', '741', '746', '750', '752', '753', '756', '760', '764', '766', '772', '775', '777', '779', '780', '788', '791', '793', '794', '796', '798', '799', '802', '806', '807', '808', '810', '811', '812', '813', '815', '820', '821', '823', '824', '826', '827', '830', '831', '832', '833', '837', '840', '844', '848', '852', '853', '854', '857', '858', '859', '862', '865', '871', '873', '875', '876', '877', '878', '879', '882', '883', '884', '885', '887', '888', '889', '891', '892', '894', '900', '901', '902', '903', '905', '907', '908', '909', '911', '912', '919', '920', '922', '926', '927', '931', '935', '938', '940', '943', '944', '945', '947', '949', '950', '952', '959', '962', '964', '966', '972', '973', '974', '978', '981', '982', '984', '987', '988', '989', '993', '995', '996', '997', '999']",False,86400,True,2,2c9e306255,0.0,1.0,1.0
./expes/v2_2021-04-05_issda-30_1000-prng-1-w86-p2_3d,30_issda-1000,1000,first-1000,400,40,rng,num-start-600,600,25726,classic,139.65350031852722,True,,True,1.0,1.0,1.0,1,"['1', '2', '3', '4', '10', '13', '14', '15', '16', '17', '20', '23', '24', '28', '33', '34', '38', '40', '41', '42', '44', '47', '48', '52', '60', '63', '64', '65', '66', '71', '72', '74', '76', '81', '83', '84', '85', '86', '92', '94', '96', '98', '101', '102', '103', '104', '112', '118', '119', '120', '121', '122', '123', '127', '128', '134', '136', '137', '139', '142', '143', '144', '146', '150', '151', '154', '155', '158', '159', '162', '163', '164', '166', '170', '174', '175', '180', '183', '185', '187', '189', '190', '192', '193', '194', '195', '196', '197', '200', '204', '205', '209', '210', '211', '213', '216', '219', '221', '224', '225', '226', '227', '228', '229', '242', '245', '246', '248', '249', '250', '257', '263', '266', '267', '278', '282', '283', '286', '287', '288', '289', '295', '298', '299', '309', '310', '311', '318', '319', '320', '323', '324', '325', '328', '333', '334', '339', '341', '342', '343', '344', '346', '347', '351', '356', '359', '361', '363', '366', '367', '368', '376', '377', '380', '381', '382', '385', '388', '395', '398', '401', '407', '409', '412', '415', '420', '425', '426', '428', '429', '430', '431', '436', '437', '445', '446', '447', '453', '454', '456', '457', '458', '459', '462', '464', '469', '470', '479', '482', '483', '484', '488', '489', '491', '494', '498', '499', '502', '505', '506', '507', '516', '517', '521', '524', '534', '535', '538', '541', '542', '543', '546', '548', '551', '554', '557', '558', '561', '562', '565', '566', '572', '574', '575', '582', '583', '584', '588', '590', '594', '598', '602', '604', '605', '609', '611', '612', '617', '618', '619', '621', '623', '625', '626', '627', '628', '634', '636', '641', '643', '646', '649', '650', '651', '653', '656', '657', '660', '661', '663', '665', '667', '670', '672', '673', '674', '677', '679', '682', '685', '689', '690', '692', '693', '695', '696', '697', '698', '700', '701', '706', '708', '715', '716', '717', '718', '719', '721', '723', '724', '727', '728', '730', '733', '735', '736', '737', '743', '745', '748', '750', '757', '760', '767', '768', '773', '774', '776', '777', '781', '786', '791', '799', '802', '803', '804', '808', '809', '812', '813', '814', '818', '819', '820', '823', '825', '829', '830', '832', '835', '836', '837', '842', '843', '845', '846', '848', '849', '850', '851', '854', '856', '858', '859', '861', '863', '865', '866', '867', '870', '871', '872', '875', '876', '883', '887', '889', '892', '893', '895', '896', '897', '898', '906', '907', '912', '914', '917', '920', '921', '922', '924', '925', '927', '930', '932', '935', '936', '938', '939', '940', '941', '944', '945', '946', '956', '959', '960', '961', '970', '973', '977', '985', '987', '989', '990', '991', '992', '994', '998']",False,86400,True,2,157e27cf87,0.0,1.0,1.0
./expes/v2_2021-04-05_issda-30_1000-prng-1-w86-p2_3d,30_issda-1000,1000,first-1000,350,35,rng,num-start-100,100,25726,classic,86409.96386575699,False,,False,0,,,0,"['1', '2', '3', '4', '13', '14', '15', '16', '17', '23', '24', '28', '33', '34', '38', '40', '41', '42', '47', '48', '52', '60', '63', '64', '65', '66', '71', '72', '74', '76', '81', '83', '85', '86', '92', '94', '96', '98', '101', '102', '104', '112', '119', '120', '121', '122', '123', '127', '128', '134', '136', '139', '143', '144', '146', '150', '151', '154', '158', '162', '163', '164', '166', '170', '174', '175', '180', '185', '189', '190', '192', '193', '194', '195', '196', '197', '200', '204', '205', '209', '210', '216', '219', '221', '224', '225', '226', '227', '228', '229', '242', '245', '246', '248', '249', '250', '257', '266', '267', '278', '282', '283', '288', '289', '295', '298', '299', '309', '311', '318', '319', '320', '324', '325', '328', '333', '334', '339', '341', '342', '343', '344', '351', '359', '361', '363', '366', '367', '368', '380', '381', '388', '395', '398', '401', '409', '412', '415', '420', '425', '426', '428', '429', '430', '431', '436', '437', '445', '447', '453', '454', '456', '457', '458', '459', '462', '469', '479', '482', '483', '484', '488', '489', '491', '494', '498', '499', '502', '505', '506', '507', '516', '517', '521', '524', '534', '535', '538', '541', '542', '543', '546', '548', '554', '557', '558', '561', '562', '565', '566', '574', '575', '582', '583', '584', '588', '590', '594', '598', '602', '604', '605', '609', '611', '612', '617', '618', '619', '621', '623', '625', '626', '627', '628', '634', '636', '641', '646', '649', '650', '651', '653', '656', '657', '663', '665', '667', '673', '674', '677', '679', '682', '685', '689', '690', '692', '693', '695', '696', '697', '698', '700', '701', '708', '715', '716', '717', '718', '719', '721', '723', '724', '727', '728', '733', '735', '736', '737', '743', '745', '748', '750', '757', '760', '767', '773', '774', '776', '777', '781', '786', '791', '802', '803', '804', '808', '813', '814', '818', '819', '820', '823', '825', '829', '830', '832', '835', '836', '837', '842', '843', '845', '846', '848', '849', '850', '851', '854', '856', '858', '859', '861', '863', '865', '866', '870', '871', '875', '876', '887', '889', '892', '893', '896', '897', '898', '906', '907', '912', '914', '917', '920', '921', '922', '924', '927', '930', '932', '935', '938', '939', '940', '941', '944', '945', '946', '956', '959', '960', '970', '973', '977', '985', '987', '989', '990', '991', '992', '994', '998']",True,86400,True,2,2d0826a785,0.0,0.0,0.0
